%!PS-Adobe-2.0 EPSF-2.0
%%BoundingBox: 0 0 1350 779
%%HiResBoundingBox: 0.000000 0.000000 1350.000000 779.000000
%%Creator: cairo 1.14.2 (http://cairographics.org)
%%CreationDate: Mon Sep  7 08:21:43 2015
%%DocumentData: Clean7Bit
%%LanguageLevel: 2
%%DocumentMedia: 476x275mm 1350 779 0 () ()
%%EndComments
% EPSF created by ps2eps 1.68
%%BeginProlog
save
countdictstack
mark
newpath
/showpage {} def
/setpagedevice {pop} def
%%EndProlog
%%Page 1 1
%%BeginProlog
/languagelevel where
{ pop languagelevel } { 1 } ifelse
2 lt { /Helvetica findfont 12 scalefont setfont 50 500 moveto
  (This print job requires a PostScript Language Level 2 printer.) show
  showpage quit } if
/q { gsave } bind def
/Q { grestore } bind def
/cm { 6 array astore concat } bind def
/w { setlinewidth } bind def
/J { setlinecap } bind def
/j { setlinejoin } bind def
/M { setmiterlimit } bind def
/d { setdash } bind def
/m { moveto } bind def
/l { lineto } bind def
/c { curveto } bind def
/h { closepath } bind def
/re { exch dup neg 3 1 roll 5 3 roll moveto 0 rlineto
      0 exch rlineto 0 rlineto closepath } bind def
/S { stroke } bind def
/f { fill } bind def
/f* { eofill } bind def
/n { newpath } bind def
/W { clip } bind def
/W* { eoclip } bind def
/BT { } bind def
/ET { } bind def
/pdfmark where { pop globaldict /?pdfmark /exec load put }
    { globaldict begin /?pdfmark /pop load def /pdfmark
    /cleartomark load def end } ifelse
/BDC { mark 3 1 roll /BDC pdfmark } bind def
/EMC { mark /EMC pdfmark } bind def
/cairo_store_point { /cairo_point_y exch def /cairo_point_x exch def } def
/Tj { show currentpoint cairo_store_point } bind def
/TJ {
  {
    dup
    type /stringtype eq
    { show } { -0.001 mul 0 cairo_font_matrix dtransform rmoveto } ifelse
  } forall
  currentpoint cairo_store_point
} bind def
/cairo_selectfont { cairo_font_matrix aload pop pop pop 0 0 6 array astore
    cairo_font exch selectfont cairo_point_x cairo_point_y moveto } bind def
/Tf { pop /cairo_font exch def /cairo_font_matrix where
      { pop cairo_selectfont } if } bind def
/Td { matrix translate cairo_font_matrix matrix concatmatrix dup
      /cairo_font_matrix exch def dup 4 get exch 5 get cairo_store_point
      /cairo_font where { pop cairo_selectfont } if } bind def
/Tm { 2 copy 8 2 roll 6 array astore /cairo_font_matrix exch def
      cairo_store_point /cairo_font where { pop cairo_selectfont } if } bind def
/g { setgray } bind def
/rg { setrgbcolor } bind def
/d1 { setcachedevice } bind def
/cairo_set_page_size {
  % Change paper size, but only if different from previous paper size otherwise
  % duplex fails. PLRM specifies a tolerance of 5 pts when matching paper size
  % so we use the same when checking if the size changes.
  /setpagedevice where {
    pop currentpagedevice
    /PageSize known {
      2 copy
      currentpagedevice /PageSize get aload pop
      exch 4 1 roll
      sub abs 5 gt
      3 1 roll
      sub abs 5 gt
      or
    } {
      true
    } ifelse
    {
      2 array astore
      2 dict begin
        /PageSize exch def
        /ImagingBBox null def
      currentdict end
      setpagedevice
    } {
      pop pop
    } ifelse
  } {
    pop
  } ifelse
} def
%%EndProlog
%%BeginSetup
%%EndSetup
%%Page: 1 1
%%BeginPageSetup
%%PageMedia: 476x275mm
%%PageBoundingBox: 0 0 1350 779
1350 779 cairo_set_page_size
%%EndPageSetup
q 0 0 1350 779 rectclip q
0.984314 g
0 0 1350 779 rectfill
0.788235 g
1.875 w
0 J
1 j
[] 0.0 d
4 M q 1 0 0 -1 0 779 cm
0 0 1350 779.422 re S Q
0 g
2.5 w
1 J
q 1 0 0 -1 0 779 cm
-50 519.617 m 75 562.918 -125 562.918 0 606.219 c S Q
q 1 0 0 -1 0 779 cm
0 606.219 m 125 649.52 -75 649.52 50 692.82 c S Q
q 1 0 0 -1 0 779 cm
50 692.82 m 175 736.121 -25 736.121 100 779.422 c S Q
q 1 0 0 -1 0 779 cm
-50 173.207 m 75 216.508 -125 216.508 0 259.809 c S Q
q 1 0 0 -1 0 779 cm
0 259.809 m 125 303.109 -75 303.109 50 346.41 c S Q
q 1 0 0 -1 0 779 cm
50 346.41 m 175 389.711 -25 389.711 100 433.012 c S Q
q 1 0 0 -1 0 779 cm
100 433.012 m 225 476.312 25 476.312 150 519.617 c S Q
q 1 0 0 -1 0 779 cm
150 519.617 m 275 562.918 75 562.918 200 606.219 c S Q
q 1 0 0 -1 0 779 cm
200 606.219 m 325 649.52 125 649.52 250 692.82 c S Q
q 1 0 0 -1 0 779 cm
250 692.82 m 375 736.121 175 736.121 300 779.422 c S Q
q 1 0 0 -1 0 779 cm
50 0 m 175 43.301 -25 43.301 100 86.602 c S Q
q 1 0 0 -1 0 779 cm
100 86.602 m 225 129.902 25 129.902 150 173.207 c S Q
q 1 0 0 -1 0 779 cm
150 173.207 m 275 216.508 75 216.508 200 259.809 c S Q
q 1 0 0 -1 0 779 cm
200 259.809 m 325 303.109 125 303.109 250 346.41 c S Q
q 1 0 0 -1 0 779 cm
250 346.41 m 375 389.711 175 389.711 300 433.012 c S Q
q 1 0 0 -1 0 779 cm
300 433.012 m 425 476.312 225 476.312 350 519.617 c S Q
q 1 0 0 -1 0 779 cm
350 519.617 m 475 562.918 275 562.918 400 606.219 c S Q
q 1 0 0 -1 0 779 cm
400 606.219 m 525 649.52 325 649.52 450 692.82 c S Q
q 1 0 0 -1 0 779 cm
450 692.82 m 575 736.121 375 736.121 500 779.422 c S Q
q 1 0 0 -1 0 779 cm
250 0 m 375 43.301 175 43.301 300 86.602 c S Q
q 1 0 0 -1 0 779 cm
300 86.602 m 425 129.902 225 129.902 350 173.207 c S Q
q 1 0 0 -1 0 779 cm
350 173.207 m 475 216.508 275 216.508 400 259.809 c S Q
q 1 0 0 -1 0 779 cm
400 259.809 m 525 303.109 325 303.109 450 346.41 c S Q
q 1 0 0 -1 0 779 cm
450 346.41 m 575 389.711 375 389.711 500 433.012 c S Q
q 1 0 0 -1 0 779 cm
500 433.012 m 625 476.312 425 476.312 550 519.617 c S Q
q 1 0 0 -1 0 779 cm
550 519.617 m 675 562.918 475 562.918 600 606.219 c S Q
q 1 0 0 -1 0 779 cm
600 606.219 m 725 649.52 525 649.52 650 692.82 c S Q
q 1 0 0 -1 0 779 cm
650 692.82 m 775 736.121 575 736.121 700 779.422 c S Q
q 1 0 0 -1 0 779 cm
450 0 m 575 43.301 375 43.301 500 86.602 c S Q
q 1 0 0 -1 0 779 cm
500 86.602 m 625 129.902 425 129.902 550 173.207 c S Q
q 1 0 0 -1 0 779 cm
550 173.207 m 675 216.508 475 216.508 600 259.809 c S Q
q 1 0 0 -1 0 779 cm
600 259.809 m 725 303.109 525 303.109 650 346.41 c S Q
q 1 0 0 -1 0 779 cm
650 346.41 m 775 389.711 575 389.711 700 433.012 c S Q
q 1 0 0 -1 0 779 cm
700 433.012 m 825 476.312 625 476.312 750 519.617 c S Q
q 1 0 0 -1 0 779 cm
750 519.617 m 875 562.918 675 562.918 800 606.219 c S Q
q 1 0 0 -1 0 779 cm
800 606.219 m 925 649.52 725 649.52 850 692.82 c S Q
q 1 0 0 -1 0 779 cm
850 692.82 m 975 736.121 775 736.121 900 779.422 c S Q
q 1 0 0 -1 0 779 cm
650 0 m 775 43.301 575 43.301 700 86.602 c S Q
q 1 0 0 -1 0 779 cm
700 86.602 m 825 129.902 625 129.902 750 173.207 c S Q
q 1 0 0 -1 0 779 cm
750 173.207 m 875 216.508 675 216.508 800 259.809 c S Q
q 1 0 0 -1 0 779 cm
800 259.809 m 925 303.109 725 303.109 850 346.41 c S Q
q 1 0 0 -1 0 779 cm
850 346.41 m 975 389.711 775 389.711 900 433.012 c S Q
q 1 0 0 -1 0 779 cm
900 433.012 m 1025 476.312 825 476.312 950 519.617 c S Q
q 1 0 0 -1 0 779 cm
950 519.617 m 1075 562.918 875 562.918 1000 606.219 c S Q
q 1 0 0 -1 0 779 cm
1000 606.219 m 1125 649.52 925 649.52 1050 692.82 c S Q
q 1 0 0 -1 0 779 cm
1050 692.82 m 1175 736.121 975 736.121 1100 779.422 c S Q
q 1 0 0 -1 0 779 cm
850 0 m 975 43.301 775 43.301 900 86.602 c S Q
q 1 0 0 -1 0 779 cm
900 86.602 m 1025 129.902 825 129.902 950 173.207 c S Q
q 1 0 0 -1 0 779 cm
950 173.207 m 1075 216.508 875 216.508 1000 259.809 c S Q
q 1 0 0 -1 0 779 cm
1000 259.809 m 1125 303.109 925 303.109 1050 346.41 c S Q
q 1 0 0 -1 0 779 cm
1050 346.41 m 1175 389.711 975 389.711 1100 433.012 c S Q
q 1 0 0 -1 0 779 cm
1100 433.012 m 1225 476.312 1025 476.312 1150 519.617 c S Q
q 1 0 0 -1 0 779 cm
1150 519.617 m 1275 562.918 1075 562.918 1200 606.219 c S Q
q 1 0 0 -1 0 779 cm
1200 606.219 m 1325 649.52 1125 649.52 1250 692.82 c S Q
q 1 0 0 -1 0 779 cm
1250 692.82 m 1375 736.121 1175 736.121 1300 779.422 c S Q
q 1 0 0 -1 0 779 cm
1050 0 m 1175 43.301 975 43.301 1100 86.602 c S Q
q 1 0 0 -1 0 779 cm
1100 86.602 m 1225 129.902 1025 129.902 1150 173.207 c S Q
q 1 0 0 -1 0 779 cm
1150 173.207 m 1275 216.508 1075 216.508 1200 259.809 c S Q
q 1 0 0 -1 0 779 cm
1200 259.809 m 1325 303.109 1125 303.109 1250 346.41 c S Q
q 1 0 0 -1 0 779 cm
1250 346.41 m 1375 389.711 1175 389.711 1300 433.012 c S Q
q 1 0 0 -1 0 779 cm
1300 433.012 m 1425 476.312 1225 476.312 1350 519.617 c S Q
q 1 0 0 -1 0 779 cm
1350 519.617 m 1475 562.918 1275 562.918 1400 606.219 c S Q
q 1 0 0 -1 0 779 cm
1250 0 m 1375 43.301 1175 43.301 1300 86.602 c S Q
q 1 0 0 -1 0 779 cm
1300 86.602 m 1425 129.902 1225 129.902 1350 173.207 c S Q
q 1 0 0 -1 0 779 cm
1350 173.207 m 1475 216.508 1275 216.508 1400 259.809 c S Q
Q Q
showpage
%%Trailer
%%Trailer
cleartomark
countdictstack
exch sub { end } repeat
restore
%%EOF
