%!PS-Adobe-2.0 EPSF-2.0
%%BoundingBox: 0 0 1164 636
%%HiResBoundingBox: 0.000000 0.000000 1164.000000 636.000000
%%Creator: cairo 1.14.2 (http://cairographics.org)
%%CreationDate: Mon Sep  7 08:21:43 2015
%%DocumentData: Clean7Bit
%%LanguageLevel: 2
%%DocumentMedia: 411x224mm 1164 636 0 () ()
%%EndComments
% EPSF created by ps2eps 1.68
%%BeginProlog
save
countdictstack
mark
newpath
/showpage {} def
/setpagedevice {pop} def
%%EndProlog
%%Page 1 1
%%BeginProlog
/languagelevel where
{ pop languagelevel } { 1 } ifelse
2 lt { /Helvetica findfont 12 scalefont setfont 50 500 moveto
  (This print job requires a PostScript Language Level 2 printer.) show
  showpage quit } if
/q { gsave } bind def
/Q { grestore } bind def
/cm { 6 array astore concat } bind def
/w { setlinewidth } bind def
/J { setlinecap } bind def
/j { setlinejoin } bind def
/M { setmiterlimit } bind def
/d { setdash } bind def
/m { moveto } bind def
/l { lineto } bind def
/c { curveto } bind def
/h { closepath } bind def
/re { exch dup neg 3 1 roll 5 3 roll moveto 0 rlineto
      0 exch rlineto 0 rlineto closepath } bind def
/S { stroke } bind def
/f { fill } bind def
/f* { eofill } bind def
/n { newpath } bind def
/W { clip } bind def
/W* { eoclip } bind def
/BT { } bind def
/ET { } bind def
/pdfmark where { pop globaldict /?pdfmark /exec load put }
    { globaldict begin /?pdfmark /pop load def /pdfmark
    /cleartomark load def end } ifelse
/BDC { mark 3 1 roll /BDC pdfmark } bind def
/EMC { mark /EMC pdfmark } bind def
/cairo_store_point { /cairo_point_y exch def /cairo_point_x exch def } def
/Tj { show currentpoint cairo_store_point } bind def
/TJ {
  {
    dup
    type /stringtype eq
    { show } { -0.001 mul 0 cairo_font_matrix dtransform rmoveto } ifelse
  } forall
  currentpoint cairo_store_point
} bind def
/cairo_selectfont { cairo_font_matrix aload pop pop pop 0 0 6 array astore
    cairo_font exch selectfont cairo_point_x cairo_point_y moveto } bind def
/Tf { pop /cairo_font exch def /cairo_font_matrix where
      { pop cairo_selectfont } if } bind def
/Td { matrix translate cairo_font_matrix matrix concatmatrix dup
      /cairo_font_matrix exch def dup 4 get exch 5 get cairo_store_point
      /cairo_font where { pop cairo_selectfont } if } bind def
/Tm { 2 copy 8 2 roll 6 array astore /cairo_font_matrix exch def
      cairo_store_point /cairo_font where { pop cairo_selectfont } if } bind def
/g { setgray } bind def
/rg { setrgbcolor } bind def
/d1 { setcachedevice } bind def
/cairo_set_page_size {
  % Change paper size, but only if different from previous paper size otherwise
  % duplex fails. PLRM specifies a tolerance of 5 pts when matching paper size
  % so we use the same when checking if the size changes.
  /setpagedevice where {
    pop currentpagedevice
    /PageSize known {
      2 copy
      currentpagedevice /PageSize get aload pop
      exch 4 1 roll
      sub abs 5 gt
      3 1 roll
      sub abs 5 gt
      or
    } {
      true
    } ifelse
    {
      2 array astore
      2 dict begin
        /PageSize exch def
        /ImagingBBox null def
      currentdict end
      setpagedevice
    } {
      pop pop
    } ifelse
  } {
    pop
  } ifelse
} def
%%EndProlog
%%BeginSetup
%%EndSetup
%%Page: 1 1
%%BeginPageSetup
%%PageMedia: 411x224mm
%%PageBoundingBox: 0 0 1164 636
1164 636 cairo_set_page_size
%%EndPageSetup
q 0 0 1164 636 rectclip q
Q q
0.984314 g
0 636 1163.605 -636.395 re f*
0.788235 g
1.875 w
0 J
1 j
[] 0.0 d
4 M 0 636 1163.605 -636.395 re S
0.85098 g
43.934 105.668 m 58.578 141.023 l 29.289 70.316 l -6.066 105.668 l 8.578
 141.023 l h
43.934 105.668 m f*
0 g
2.5 w
43.934 105.668 m 58.578 141.023 l 29.289 70.316 l -6.066 105.668 l 8.578
 141.023 l h
43.934 105.668 m S
0.85098 g
14.645 34.961 m 0 -0.395 l 29.289 70.316 l 64.645 34.961 l 50 -0.395 l 
h
14.645 34.961 m f*
0 g
14.645 34.961 m 0 -0.395 l 29.289 70.316 l 64.645 34.961 l 50 -0.395 l 
h
14.645 34.961 m S
0.85098 g
114.645 34.961 m 129.289 70.316 l 100 -0.395 l 64.645 34.961 l 79.289 70.316
 l h
114.645 34.961 m f*
0 g
114.645 34.961 m 129.289 70.316 l 100 -0.395 l 64.645 34.961 l 79.289 70.316
 l h
114.645 34.961 m S
0.85098 g
31.801 317.801 m 46.445 353.156 l 17.156 282.445 l -18.199 317.801 l -3.555
 353.156 l h
31.801 317.801 m f*
0 g
31.801 317.801 m 46.445 353.156 l 17.156 282.445 l -18.199 317.801 l -3.555
 353.156 l h
31.801 317.801 m S
0.85098 g
2.512 247.09 m -12.133 211.734 l 17.156 282.445 l 52.512 247.09 l 37.867
 211.734 l h
2.512 247.09 m f*
0 g
2.512 247.09 m -12.133 211.734 l 17.156 282.445 l 52.512 247.09 l 37.867
 211.734 l h
2.512 247.09 m S
0.85098 g
102.512 247.09 m 117.156 282.445 l 87.867 211.734 l 52.512 247.09 l 67.156
 282.445 l h
102.512 247.09 m f*
0 g
102.512 247.09 m 117.156 282.445 l 87.867 211.734 l 52.512 247.09 l 67.156
 282.445 l h
102.512 247.09 m S
0.85098 g
73.223 176.379 m 58.578 141.023 l 87.867 211.734 l 123.223 176.379 l 108.578
 141.023 l h
73.223 176.379 m f*
0 g
73.223 176.379 m 58.578 141.023 l 87.867 211.734 l 123.223 176.379 l 108.578
 141.023 l h
73.223 176.379 m S
0.85098 g
173.223 176.379 m 187.867 211.734 l 158.578 141.023 l 123.223 176.379 l
 137.867 211.734 l h
173.223 176.379 m f*
0 g
173.223 176.379 m 187.867 211.734 l 158.578 141.023 l 123.223 176.379 l
 137.867 211.734 l h
173.223 176.379 m S
0.85098 g
143.934 105.668 m 129.289 70.316 l 158.578 141.023 l 193.934 105.668 l 
179.289 70.316 l h
143.934 105.668 m f*
0 g
143.934 105.668 m 129.289 70.316 l 158.578 141.023 l 193.934 105.668 l 
179.289 70.316 l h
143.934 105.668 m S
0.85098 g
243.934 105.668 m 258.578 141.023 l 229.289 70.316 l 193.934 105.668 l 
208.578 141.023 l h
243.934 105.668 m f*
0 g
243.934 105.668 m 258.578 141.023 l 229.289 70.316 l 193.934 105.668 l 
208.578 141.023 l h
243.934 105.668 m S
0.85098 g
214.645 34.961 m 200 -0.395 l 229.289 70.316 l 264.645 34.961 l 250 -0.395
 l h
214.645 34.961 m f*
0 g
214.645 34.961 m 200 -0.395 l 229.289 70.316 l 264.645 34.961 l 250 -0.395
 l h
214.645 34.961 m S
0.85098 g
314.645 34.961 m 329.289 70.316 l 300 -0.395 l 264.645 34.961 l 279.289
 70.316 l h
314.645 34.961 m f*
0 g
314.645 34.961 m 329.289 70.316 l 300 -0.395 l 264.645 34.961 l 279.289
 70.316 l h
314.645 34.961 m S
0.85098 g
19.668 529.934 m 34.316 565.289 l 5.023 494.578 l -30.332 529.934 l -15.684
 565.289 l h
19.668 529.934 m f*
0 g
19.668 529.934 m 34.316 565.289 l 5.023 494.578 l -30.332 529.934 l -15.684
 565.289 l h
19.668 529.934 m S
0.85098 g
-9.621 459.223 m -24.266 423.867 l 5.023 494.578 l 40.379 459.223 l 25.734
 423.867 l h
-9.621 459.223 m f*
0 g
-9.621 459.223 m -24.266 423.867 l 5.023 494.578 l 40.379 459.223 l 25.734
 423.867 l h
-9.621 459.223 m S
0.85098 g
90.379 459.223 m 105.023 494.578 l 75.734 423.867 l 40.379 459.223 l 55.023
 494.578 l h
90.379 459.223 m f*
0 g
90.379 459.223 m 105.023 494.578 l 75.734 423.867 l 40.379 459.223 l 55.023
 494.578 l h
90.379 459.223 m S
0.85098 g
61.09 388.512 m 46.445 353.156 l 75.734 423.867 l 111.09 388.512 l 96.445
 353.156 l h
61.09 388.512 m f*
0 g
61.09 388.512 m 46.445 353.156 l 75.734 423.867 l 111.09 388.512 l 96.445
 353.156 l h
61.09 388.512 m S
0.85098 g
161.09 388.512 m 175.734 423.867 l 146.445 353.156 l 111.09 388.512 l 125.734
 423.867 l h
161.09 388.512 m f*
0 g
161.09 388.512 m 175.734 423.867 l 146.445 353.156 l 111.09 388.512 l 125.734
 423.867 l h
161.09 388.512 m S
0.85098 g
131.801 317.801 m 117.156 282.445 l 146.445 353.156 l 181.801 317.801 l
 167.156 282.445 l h
131.801 317.801 m f*
0 g
131.801 317.801 m 117.156 282.445 l 146.445 353.156 l 181.801 317.801 l
 167.156 282.445 l h
131.801 317.801 m S
0.85098 g
231.801 317.801 m 246.445 353.156 l 217.156 282.445 l 181.801 317.801 l
 196.445 353.156 l h
231.801 317.801 m f*
0 g
231.801 317.801 m 246.445 353.156 l 217.156 282.445 l 181.801 317.801 l
 196.445 353.156 l h
231.801 317.801 m S
0.85098 g
202.512 247.09 m 187.867 211.734 l 217.156 282.445 l 252.512 247.09 l 237.867
 211.734 l h
202.512 247.09 m f*
0 g
202.512 247.09 m 187.867 211.734 l 217.156 282.445 l 252.512 247.09 l 237.867
 211.734 l h
202.512 247.09 m S
0.85098 g
302.512 247.09 m 317.156 282.445 l 287.867 211.734 l 252.512 247.09 l 267.156
 282.445 l h
302.512 247.09 m f*
0 g
302.512 247.09 m 317.156 282.445 l 287.867 211.734 l 252.512 247.09 l 267.156
 282.445 l h
302.512 247.09 m S
0.85098 g
273.223 176.379 m 258.578 141.023 l 287.867 211.734 l 323.223 176.379 l
 308.578 141.023 l h
273.223 176.379 m f*
0 g
273.223 176.379 m 258.578 141.023 l 287.867 211.734 l 323.223 176.379 l
 308.578 141.023 l h
273.223 176.379 m S
0.85098 g
373.223 176.379 m 387.867 211.734 l 358.578 141.023 l 323.223 176.379 l
 337.867 211.734 l h
373.223 176.379 m f*
0 g
373.223 176.379 m 387.867 211.734 l 358.578 141.023 l 323.223 176.379 l
 337.867 211.734 l h
373.223 176.379 m S
0.85098 g
343.934 105.668 m 329.289 70.316 l 358.578 141.023 l 393.934 105.668 l 
379.289 70.316 l h
343.934 105.668 m f*
0 g
343.934 105.668 m 329.289 70.316 l 358.578 141.023 l 393.934 105.668 l 
379.289 70.316 l h
343.934 105.668 m S
0.85098 g
443.934 105.668 m 458.578 141.023 l 429.289 70.316 l 393.934 105.668 l 
408.578 141.023 l h
443.934 105.668 m f*
0 g
443.934 105.668 m 458.578 141.023 l 429.289 70.316 l 393.934 105.668 l 
408.578 141.023 l h
443.934 105.668 m S
0.85098 g
414.645 34.961 m 400 -0.395 l 429.289 70.316 l 464.645 34.961 l 450 -0.395
 l h
414.645 34.961 m f*
0 g
414.645 34.961 m 400 -0.395 l 429.289 70.316 l 464.645 34.961 l 450 -0.395
 l h
414.645 34.961 m S
0.85098 g
514.645 34.961 m 529.289 70.316 l 500 -0.395 l 464.645 34.961 l 479.289
 70.316 l h
514.645 34.961 m f*
0 g
514.645 34.961 m 529.289 70.316 l 500 -0.395 l 464.645 34.961 l 479.289
 70.316 l h
514.645 34.961 m S
0.85098 g
48.961 600.645 m 34.316 565.289 l 63.605 636 l 98.961 600.645 l 84.316 
565.289 l h
48.961 600.645 m f*
0 g
48.961 600.645 m 34.316 565.289 l 63.605 636 l 98.961 600.645 l 84.316 
565.289 l h
48.961 600.645 m S
0.85098 g
148.961 600.645 m 163.605 636 l 134.316 565.289 l 98.961 600.645 l 113.605
 636 l h
148.961 600.645 m f*
0 g
148.961 600.645 m 163.605 636 l 134.316 565.289 l 98.961 600.645 l 113.605
 636 l h
148.961 600.645 m S
0.85098 g
119.668 529.934 m 105.023 494.578 l 134.316 565.289 l 169.668 529.934 l
 155.023 494.578 l h
119.668 529.934 m f*
0 g
119.668 529.934 m 105.023 494.578 l 134.316 565.289 l 169.668 529.934 l
 155.023 494.578 l h
119.668 529.934 m S
0.85098 g
219.668 529.934 m 234.316 565.289 l 205.023 494.578 l 169.668 529.934 l
 184.316 565.289 l h
219.668 529.934 m f*
0 g
219.668 529.934 m 234.316 565.289 l 205.023 494.578 l 169.668 529.934 l
 184.316 565.289 l h
219.668 529.934 m S
0.85098 g
190.379 459.223 m 175.734 423.867 l 205.023 494.578 l 240.379 459.223 l
 225.734 423.867 l h
190.379 459.223 m f*
0 g
190.379 459.223 m 175.734 423.867 l 205.023 494.578 l 240.379 459.223 l
 225.734 423.867 l h
190.379 459.223 m S
0.85098 g
290.379 459.223 m 305.023 494.578 l 275.734 423.867 l 240.379 459.223 l
 255.023 494.578 l h
290.379 459.223 m f*
0 g
290.379 459.223 m 305.023 494.578 l 275.734 423.867 l 240.379 459.223 l
 255.023 494.578 l h
290.379 459.223 m S
0.85098 g
261.09 388.512 m 246.445 353.156 l 275.734 423.867 l 311.09 388.512 l 296.445
 353.156 l h
261.09 388.512 m f*
0 g
261.09 388.512 m 246.445 353.156 l 275.734 423.867 l 311.09 388.512 l 296.445
 353.156 l h
261.09 388.512 m S
0.85098 g
361.09 388.512 m 375.734 423.867 l 346.445 353.156 l 311.09 388.512 l 325.734
 423.867 l h
361.09 388.512 m f*
0 g
361.09 388.512 m 375.734 423.867 l 346.445 353.156 l 311.09 388.512 l 325.734
 423.867 l h
361.09 388.512 m S
0.85098 g
331.801 317.801 m 317.156 282.445 l 346.445 353.156 l 381.801 317.801 l
 367.156 282.445 l h
331.801 317.801 m f*
0 g
331.801 317.801 m 317.156 282.445 l 346.445 353.156 l 381.801 317.801 l
 367.156 282.445 l h
331.801 317.801 m S
0.85098 g
431.801 317.801 m 446.445 353.156 l 417.156 282.445 l 381.801 317.801 l
 396.445 353.156 l h
431.801 317.801 m f*
0 g
431.801 317.801 m 446.445 353.156 l 417.156 282.445 l 381.801 317.801 l
 396.445 353.156 l h
431.801 317.801 m S
0.85098 g
402.512 247.09 m 387.867 211.734 l 417.156 282.445 l 452.512 247.09 l 437.867
 211.734 l h
402.512 247.09 m f*
0 g
402.512 247.09 m 387.867 211.734 l 417.156 282.445 l 452.512 247.09 l 437.867
 211.734 l h
402.512 247.09 m S
0.85098 g
502.512 247.09 m 517.156 282.445 l 487.867 211.734 l 452.512 247.09 l 467.156
 282.445 l h
502.512 247.09 m f*
0 g
502.512 247.09 m 517.156 282.445 l 487.867 211.734 l 452.512 247.09 l 467.156
 282.445 l h
502.512 247.09 m S
0.85098 g
473.223 176.379 m 458.578 141.023 l 487.867 211.734 l 523.223 176.379 l
 508.578 141.023 l h
473.223 176.379 m f*
0 g
473.223 176.379 m 458.578 141.023 l 487.867 211.734 l 523.223 176.379 l
 508.578 141.023 l h
473.223 176.379 m S
0.85098 g
573.223 176.379 m 587.867 211.734 l 558.578 141.023 l 523.223 176.379 l
 537.867 211.734 l h
573.223 176.379 m f*
0 g
573.223 176.379 m 587.867 211.734 l 558.578 141.023 l 523.223 176.379 l
 537.867 211.734 l h
573.223 176.379 m S
0.85098 g
543.934 105.668 m 529.289 70.316 l 558.578 141.023 l 593.934 105.668 l 
579.289 70.316 l h
543.934 105.668 m f*
0 g
543.934 105.668 m 529.289 70.316 l 558.578 141.023 l 593.934 105.668 l 
579.289 70.316 l h
543.934 105.668 m S
0.85098 g
643.934 105.668 m 658.578 141.023 l 629.289 70.316 l 593.934 105.668 l 
608.578 141.023 l h
643.934 105.668 m f*
0 g
643.934 105.668 m 658.578 141.023 l 629.289 70.316 l 593.934 105.668 l 
608.578 141.023 l h
643.934 105.668 m S
0.85098 g
614.645 34.961 m 600 -0.395 l 629.289 70.316 l 664.645 34.961 l 650 -0.395
 l h
614.645 34.961 m f*
0 g
614.645 34.961 m 600 -0.395 l 629.289 70.316 l 664.645 34.961 l 650 -0.395
 l h
614.645 34.961 m S
0.85098 g
714.645 34.961 m 729.289 70.316 l 700 -0.395 l 664.645 34.961 l 679.289
 70.316 l h
714.645 34.961 m f*
0 g
714.645 34.961 m 729.289 70.316 l 700 -0.395 l 664.645 34.961 l 679.289
 70.316 l h
714.645 34.961 m S
0.85098 g
248.961 600.645 m 234.316 565.289 l 263.605 636 l 298.961 600.645 l 284.316
 565.289 l h
248.961 600.645 m f*
0 g
248.961 600.645 m 234.316 565.289 l 263.605 636 l 298.961 600.645 l 284.316
 565.289 l h
248.961 600.645 m S
0.85098 g
348.961 600.645 m 363.605 636 l 334.316 565.289 l 298.961 600.645 l 313.605
 636 l h
348.961 600.645 m f*
0 g
348.961 600.645 m 363.605 636 l 334.316 565.289 l 298.961 600.645 l 313.605
 636 l h
348.961 600.645 m S
0.85098 g
319.668 529.934 m 305.023 494.578 l 334.316 565.289 l 369.668 529.934 l
 355.023 494.578 l h
319.668 529.934 m f*
0 g
319.668 529.934 m 305.023 494.578 l 334.316 565.289 l 369.668 529.934 l
 355.023 494.578 l h
319.668 529.934 m S
0.85098 g
419.668 529.934 m 434.316 565.289 l 405.023 494.578 l 369.668 529.934 l
 384.316 565.289 l h
419.668 529.934 m f*
0 g
419.668 529.934 m 434.316 565.289 l 405.023 494.578 l 369.668 529.934 l
 384.316 565.289 l h
419.668 529.934 m S
0.85098 g
390.379 459.223 m 375.734 423.867 l 405.023 494.578 l 440.379 459.223 l
 425.734 423.867 l h
390.379 459.223 m f*
0 g
390.379 459.223 m 375.734 423.867 l 405.023 494.578 l 440.379 459.223 l
 425.734 423.867 l h
390.379 459.223 m S
0.85098 g
490.379 459.223 m 505.023 494.578 l 475.734 423.867 l 440.379 459.223 l
 455.023 494.578 l h
490.379 459.223 m f*
0 g
490.379 459.223 m 505.023 494.578 l 475.734 423.867 l 440.379 459.223 l
 455.023 494.578 l h
490.379 459.223 m S
0.85098 g
461.09 388.512 m 446.445 353.156 l 475.734 423.867 l 511.09 388.512 l 496.445
 353.156 l h
461.09 388.512 m f*
0 g
461.09 388.512 m 446.445 353.156 l 475.734 423.867 l 511.09 388.512 l 496.445
 353.156 l h
461.09 388.512 m S
0.85098 g
561.09 388.512 m 575.734 423.867 l 546.445 353.156 l 511.09 388.512 l 525.734
 423.867 l h
561.09 388.512 m f*
0 g
561.09 388.512 m 575.734 423.867 l 546.445 353.156 l 511.09 388.512 l 525.734
 423.867 l h
561.09 388.512 m S
0.85098 g
531.801 317.801 m 517.156 282.445 l 546.445 353.156 l 581.801 317.801 l
 567.156 282.445 l h
531.801 317.801 m f*
0 g
531.801 317.801 m 517.156 282.445 l 546.445 353.156 l 581.801 317.801 l
 567.156 282.445 l h
531.801 317.801 m S
0.85098 g
631.801 317.801 m 646.445 353.156 l 617.156 282.445 l 581.801 317.801 l
 596.445 353.156 l h
631.801 317.801 m f*
0 g
631.801 317.801 m 646.445 353.156 l 617.156 282.445 l 581.801 317.801 l
 596.445 353.156 l h
631.801 317.801 m S
0.85098 g
602.512 247.09 m 587.867 211.734 l 617.156 282.445 l 652.512 247.09 l 637.867
 211.734 l h
602.512 247.09 m f*
0 g
602.512 247.09 m 587.867 211.734 l 617.156 282.445 l 652.512 247.09 l 637.867
 211.734 l h
602.512 247.09 m S
0.85098 g
702.512 247.09 m 717.156 282.445 l 687.867 211.734 l 652.512 247.09 l 667.156
 282.445 l h
702.512 247.09 m f*
0 g
702.512 247.09 m 717.156 282.445 l 687.867 211.734 l 652.512 247.09 l 667.156
 282.445 l h
702.512 247.09 m S
0.85098 g
673.223 176.379 m 658.578 141.023 l 687.867 211.734 l 723.223 176.379 l
 708.578 141.023 l h
673.223 176.379 m f*
0 g
673.223 176.379 m 658.578 141.023 l 687.867 211.734 l 723.223 176.379 l
 708.578 141.023 l h
673.223 176.379 m S
0.85098 g
773.223 176.379 m 787.867 211.734 l 758.578 141.023 l 723.223 176.379 l
 737.867 211.734 l h
773.223 176.379 m f*
0 g
773.223 176.379 m 787.867 211.734 l 758.578 141.023 l 723.223 176.379 l
 737.867 211.734 l h
773.223 176.379 m S
0.85098 g
743.934 105.668 m 729.289 70.316 l 758.578 141.023 l 793.934 105.668 l 
779.289 70.316 l h
743.934 105.668 m f*
0 g
743.934 105.668 m 729.289 70.316 l 758.578 141.023 l 793.934 105.668 l 
779.289 70.316 l h
743.934 105.668 m S
0.85098 g
843.934 105.668 m 858.578 141.023 l 829.289 70.316 l 793.934 105.668 l 
808.578 141.023 l h
843.934 105.668 m f*
0 g
843.934 105.668 m 858.578 141.023 l 829.289 70.316 l 793.934 105.668 l 
808.578 141.023 l h
843.934 105.668 m S
0.85098 g
814.645 34.961 m 800 -0.395 l 829.289 70.316 l 864.645 34.961 l 850 -0.395
 l h
814.645 34.961 m f*
0 g
814.645 34.961 m 800 -0.395 l 829.289 70.316 l 864.645 34.961 l 850 -0.395
 l h
814.645 34.961 m S
0.85098 g
914.645 34.961 m 929.289 70.316 l 900 -0.395 l 864.645 34.961 l 879.289
 70.316 l h
914.645 34.961 m f*
0 g
914.645 34.961 m 929.289 70.316 l 900 -0.395 l 864.645 34.961 l 879.289
 70.316 l h
914.645 34.961 m S
0.85098 g
448.961 600.645 m 434.316 565.289 l 463.605 636 l 498.961 600.645 l 484.316
 565.289 l h
448.961 600.645 m f*
0 g
448.961 600.645 m 434.316 565.289 l 463.605 636 l 498.961 600.645 l 484.316
 565.289 l h
448.961 600.645 m S
0.85098 g
548.961 600.645 m 563.605 636 l 534.316 565.289 l 498.961 600.645 l 513.605
 636 l h
548.961 600.645 m f*
0 g
548.961 600.645 m 563.605 636 l 534.316 565.289 l 498.961 600.645 l 513.605
 636 l h
548.961 600.645 m S
0.85098 g
519.668 529.934 m 505.023 494.578 l 534.316 565.289 l 569.668 529.934 l
 555.023 494.578 l h
519.668 529.934 m f*
0 g
519.668 529.934 m 505.023 494.578 l 534.316 565.289 l 569.668 529.934 l
 555.023 494.578 l h
519.668 529.934 m S
0.85098 g
619.668 529.934 m 634.316 565.289 l 605.023 494.578 l 569.668 529.934 l
 584.316 565.289 l h
619.668 529.934 m f*
0 g
619.668 529.934 m 634.316 565.289 l 605.023 494.578 l 569.668 529.934 l
 584.316 565.289 l h
619.668 529.934 m S
0.85098 g
590.379 459.223 m 575.734 423.867 l 605.023 494.578 l 640.379 459.223 l
 625.734 423.867 l h
590.379 459.223 m f*
0 g
590.379 459.223 m 575.734 423.867 l 605.023 494.578 l 640.379 459.223 l
 625.734 423.867 l h
590.379 459.223 m S
0.85098 g
690.379 459.223 m 705.023 494.578 l 675.734 423.867 l 640.379 459.223 l
 655.023 494.578 l h
690.379 459.223 m f*
0 g
690.379 459.223 m 705.023 494.578 l 675.734 423.867 l 640.379 459.223 l
 655.023 494.578 l h
690.379 459.223 m S
0.85098 g
661.09 388.512 m 646.445 353.156 l 675.734 423.867 l 711.09 388.512 l 696.445
 353.156 l h
661.09 388.512 m f*
0 g
661.09 388.512 m 646.445 353.156 l 675.734 423.867 l 711.09 388.512 l 696.445
 353.156 l h
661.09 388.512 m S
0.85098 g
761.09 388.512 m 775.734 423.867 l 746.445 353.156 l 711.09 388.512 l 725.734
 423.867 l h
761.09 388.512 m f*
0 g
761.09 388.512 m 775.734 423.867 l 746.445 353.156 l 711.09 388.512 l 725.734
 423.867 l h
761.09 388.512 m S
0.85098 g
731.801 317.801 m 717.156 282.445 l 746.445 353.156 l 781.801 317.801 l
 767.156 282.445 l h
731.801 317.801 m f*
0 g
731.801 317.801 m 717.156 282.445 l 746.445 353.156 l 781.801 317.801 l
 767.156 282.445 l h
731.801 317.801 m S
0.85098 g
831.801 317.801 m 846.445 353.156 l 817.156 282.445 l 781.801 317.801 l
 796.445 353.156 l h
831.801 317.801 m f*
0 g
831.801 317.801 m 846.445 353.156 l 817.156 282.445 l 781.801 317.801 l
 796.445 353.156 l h
831.801 317.801 m S
0.85098 g
802.512 247.09 m 787.867 211.734 l 817.156 282.445 l 852.512 247.09 l 837.867
 211.734 l h
802.512 247.09 m f*
0 g
802.512 247.09 m 787.867 211.734 l 817.156 282.445 l 852.512 247.09 l 837.867
 211.734 l h
802.512 247.09 m S
0.85098 g
902.512 247.09 m 917.156 282.445 l 887.867 211.734 l 852.512 247.09 l 867.156
 282.445 l h
902.512 247.09 m f*
0 g
902.512 247.09 m 917.156 282.445 l 887.867 211.734 l 852.512 247.09 l 867.156
 282.445 l h
902.512 247.09 m S
0.85098 g
873.223 176.379 m 858.578 141.023 l 887.867 211.734 l 923.223 176.379 l
 908.578 141.023 l h
873.223 176.379 m f*
0 g
873.223 176.379 m 858.578 141.023 l 887.867 211.734 l 923.223 176.379 l
 908.578 141.023 l h
873.223 176.379 m S
0.85098 g
973.223 176.379 m 987.867 211.734 l 958.578 141.023 l 923.223 176.379 l
 937.867 211.734 l h
973.223 176.379 m f*
0 g
973.223 176.379 m 987.867 211.734 l 958.578 141.023 l 923.223 176.379 l
 937.867 211.734 l h
973.223 176.379 m S
0.85098 g
943.934 105.668 m 929.289 70.316 l 958.578 141.023 l 993.934 105.668 l 
979.289 70.316 l h
943.934 105.668 m f*
0 g
943.934 105.668 m 929.289 70.316 l 958.578 141.023 l 993.934 105.668 l 
979.289 70.316 l h
943.934 105.668 m S
0.85098 g
1043.934 105.668 m 1058.578 141.023 l 1029.289 70.316 l 993.934 105.668
 l 1008.578 141.023 l h
1043.934 105.668 m f*
0 g
1043.934 105.668 m 1058.578 141.023 l 1029.289 70.316 l 993.934 105.668
 l 1008.578 141.023 l h
1043.934 105.668 m S
0.85098 g
1014.645 34.961 m 1000 -0.395 l 1029.289 70.316 l 1064.645 34.961 l 1050
 -0.395 l h
1014.645 34.961 m f*
0 g
1014.645 34.961 m 1000 -0.395 l 1029.289 70.316 l 1064.645 34.961 l 1050
 -0.395 l h
1014.645 34.961 m S
0.85098 g
1114.645 34.961 m 1129.289 70.316 l 1100 -0.395 l 1064.645 34.961 l 1079.289
 70.316 l h
1114.645 34.961 m f*
0 g
1114.645 34.961 m 1129.289 70.316 l 1100 -0.395 l 1064.645 34.961 l 1079.289
 70.316 l h
1114.645 34.961 m S
0.85098 g
648.961 600.645 m 634.316 565.289 l 663.605 636 l 698.961 600.645 l 684.316
 565.289 l h
648.961 600.645 m f*
0 g
648.961 600.645 m 634.316 565.289 l 663.605 636 l 698.961 600.645 l 684.316
 565.289 l h
648.961 600.645 m S
0.85098 g
748.961 600.645 m 763.605 636 l 734.316 565.289 l 698.961 600.645 l 713.605
 636 l h
748.961 600.645 m f*
0 g
748.961 600.645 m 763.605 636 l 734.316 565.289 l 698.961 600.645 l 713.605
 636 l h
748.961 600.645 m S
0.85098 g
719.668 529.934 m 705.023 494.578 l 734.316 565.289 l 769.668 529.934 l
 755.023 494.578 l h
719.668 529.934 m f*
0 g
719.668 529.934 m 705.023 494.578 l 734.316 565.289 l 769.668 529.934 l
 755.023 494.578 l h
719.668 529.934 m S
0.85098 g
819.668 529.934 m 834.316 565.289 l 805.023 494.578 l 769.668 529.934 l
 784.316 565.289 l h
819.668 529.934 m f*
0 g
819.668 529.934 m 834.316 565.289 l 805.023 494.578 l 769.668 529.934 l
 784.316 565.289 l h
819.668 529.934 m S
0.85098 g
790.379 459.223 m 775.734 423.867 l 805.023 494.578 l 840.379 459.223 l
 825.734 423.867 l h
790.379 459.223 m f*
0 g
790.379 459.223 m 775.734 423.867 l 805.023 494.578 l 840.379 459.223 l
 825.734 423.867 l h
790.379 459.223 m S
0.85098 g
890.379 459.223 m 905.023 494.578 l 875.734 423.867 l 840.379 459.223 l
 855.023 494.578 l h
890.379 459.223 m f*
0 g
890.379 459.223 m 905.023 494.578 l 875.734 423.867 l 840.379 459.223 l
 855.023 494.578 l h
890.379 459.223 m S
0.85098 g
861.09 388.512 m 846.445 353.156 l 875.734 423.867 l 911.09 388.512 l 896.445
 353.156 l h
861.09 388.512 m f*
0 g
861.09 388.512 m 846.445 353.156 l 875.734 423.867 l 911.09 388.512 l 896.445
 353.156 l h
861.09 388.512 m S
0.85098 g
961.09 388.512 m 975.734 423.867 l 946.445 353.156 l 911.09 388.512 l 925.734
 423.867 l h
961.09 388.512 m f*
0 g
961.09 388.512 m 975.734 423.867 l 946.445 353.156 l 911.09 388.512 l 925.734
 423.867 l h
961.09 388.512 m S
0.85098 g
931.801 317.801 m 917.156 282.445 l 946.445 353.156 l 981.801 317.801 l
 967.156 282.445 l h
931.801 317.801 m f*
0 g
931.801 317.801 m 917.156 282.445 l 946.445 353.156 l 981.801 317.801 l
 967.156 282.445 l h
931.801 317.801 m S
0.85098 g
1031.801 317.801 m 1046.445 353.156 l 1017.156 282.445 l 981.801 317.801
 l 996.445 353.156 l h
1031.801 317.801 m f*
0 g
1031.801 317.801 m 1046.445 353.156 l 1017.156 282.445 l 981.801 317.801
 l 996.445 353.156 l h
1031.801 317.801 m S
0.85098 g
1002.512 247.09 m 987.867 211.734 l 1017.156 282.445 l 1052.512 247.09 
l 1037.867 211.734 l h
1002.512 247.09 m f*
0 g
1002.512 247.09 m 987.867 211.734 l 1017.156 282.445 l 1052.512 247.09 
l 1037.867 211.734 l h
1002.512 247.09 m S
0.85098 g
1102.512 247.09 m 1117.156 282.445 l 1087.867 211.734 l 1052.512 247.09
 l 1067.156 282.445 l h
1102.512 247.09 m f*
0 g
1102.512 247.09 m 1117.156 282.445 l 1087.867 211.734 l 1052.512 247.09
 l 1067.156 282.445 l h
1102.512 247.09 m S
0.85098 g
1073.223 176.379 m 1058.578 141.023 l 1087.867 211.734 l 1123.223 176.379
 l 1108.578 141.023 l h
1073.223 176.379 m f*
0 g
1073.223 176.379 m 1058.578 141.023 l 1087.867 211.734 l 1123.223 176.379
 l 1108.578 141.023 l h
1073.223 176.379 m S
Q q
1123 212 40.605 -71 re W n
0.85098 g
1173.223 176.379 m 1187.867 211.734 l 1158.578 141.023 l 1123.223 176.379
 l 1137.867 211.734 l h
1173.223 176.379 m f*
Q q
1121 213 42.605 -74 re W n
0 g
2.5 w
0 J
1 j
[] 0.0 d
4 M 1173.223 176.379 m 1187.867 211.734 l 1158.578 141.023 l 1123.223 176.379
 l 1137.867 211.734 l h
1173.223 176.379 m S
Q q
1129 142 34.605 -72 re W n
0.85098 g
1143.934 105.668 m 1129.289 70.316 l 1158.578 141.023 l 1193.934 105.668
 l 1179.289 70.316 l h
1143.934 105.668 m f*
Q q
1128 143 35.605 -74 re W n
0 g
2.5 w
0 J
1 j
[] 0.0 d
4 M 1143.934 105.668 m 1129.289 70.316 l 1158.578 141.023 l 1193.934 105.668
 l 1179.289 70.316 l h
1143.934 105.668 m S
Q q
0.85098 g
848.961 600.645 m 834.316 565.289 l 863.605 636 l 898.961 600.645 l 884.316
 565.289 l h
848.961 600.645 m f*
0 g
2.5 w
0 J
1 j
[] 0.0 d
4 M 848.961 600.645 m 834.316 565.289 l 863.605 636 l 898.961 600.645 l 884.316
 565.289 l h
848.961 600.645 m S
0.85098 g
948.961 600.645 m 963.605 636 l 934.316 565.289 l 898.961 600.645 l 913.605
 636 l h
948.961 600.645 m f*
0 g
948.961 600.645 m 963.605 636 l 934.316 565.289 l 898.961 600.645 l 913.605
 636 l h
948.961 600.645 m S
0.85098 g
919.668 529.934 m 905.023 494.578 l 934.316 565.289 l 969.668 529.934 l
 955.023 494.578 l h
919.668 529.934 m f*
0 g
919.668 529.934 m 905.023 494.578 l 934.316 565.289 l 969.668 529.934 l
 955.023 494.578 l h
919.668 529.934 m S
0.85098 g
1019.668 529.934 m 1034.316 565.289 l 1005.023 494.578 l 969.668 529.934
 l 984.316 565.289 l h
1019.668 529.934 m f*
0 g
1019.668 529.934 m 1034.316 565.289 l 1005.023 494.578 l 969.668 529.934
 l 984.316 565.289 l h
1019.668 529.934 m S
0.85098 g
990.379 459.223 m 975.734 423.867 l 1005.023 494.578 l 1040.379 459.223
 l 1025.734 423.867 l h
990.379 459.223 m f*
0 g
990.379 459.223 m 975.734 423.867 l 1005.023 494.578 l 1040.379 459.223
 l 1025.734 423.867 l h
990.379 459.223 m S
0.85098 g
1090.379 459.223 m 1105.023 494.578 l 1075.734 423.867 l 1040.379 459.223
 l 1055.023 494.578 l h
1090.379 459.223 m f*
0 g
1090.379 459.223 m 1105.023 494.578 l 1075.734 423.867 l 1040.379 459.223
 l 1055.023 494.578 l h
1090.379 459.223 m S
0.85098 g
1061.09 388.512 m 1046.445 353.156 l 1075.734 423.867 l 1111.09 388.512
 l 1096.445 353.156 l h
1061.09 388.512 m f*
0 g
1061.09 388.512 m 1046.445 353.156 l 1075.734 423.867 l 1111.09 388.512
 l 1096.445 353.156 l h
1061.09 388.512 m S
Q q
1111 424 52.605 -71 re W n
0.85098 g
1161.09 388.512 m 1175.734 423.867 l 1146.445 353.156 l 1111.09 388.512
 l 1125.734 423.867 l h
1161.09 388.512 m f*
Q q
1109 426 54.605 -75 re W n
0 g
2.5 w
0 J
1 j
[] 0.0 d
4 M 1161.09 388.512 m 1175.734 423.867 l 1146.445 353.156 l 1111.09 388.512
 l 1125.734 423.867 l h
1161.09 388.512 m S
Q q
1117 354 46.605 -72 re W n
0.85098 g
1131.801 317.801 m 1117.156 282.445 l 1146.445 353.156 l 1181.801 317.801
 l 1167.156 282.445 l h
1131.801 317.801 m f*
Q q
1115 355 48.605 -74 re W n
0 g
2.5 w
0 J
1 j
[] 0.0 d
4 M 1131.801 317.801 m 1117.156 282.445 l 1146.445 353.156 l 1181.801 317.801
 l 1167.156 282.445 l h
1131.801 317.801 m S
Q q
0.85098 g
1048.961 600.645 m 1034.316 565.289 l 1063.605 636 l 1098.961 600.645 l
 1084.316 565.289 l h
1048.961 600.645 m f*
0 g
2.5 w
0 J
1 j
[] 0.0 d
4 M 1048.961 600.645 m 1034.316 565.289 l 1063.605 636 l 1098.961 600.645 l
 1084.316 565.289 l h
1048.961 600.645 m S
Q q
1098 636 65.605 -71 re W n
0.85098 g
1148.961 600.645 m 1163.605 636 l 1134.316 565.289 l 1098.961 600.645 l
 1113.605 636 l h
1148.961 600.645 m f*
Q q
1097 636 66.605 -72 re W n
0 g
2.5 w
0 J
1 j
[] 0.0 d
4 M 1148.961 600.645 m 1163.605 636 l 1134.316 565.289 l 1098.961 600.645 l
 1113.605 636 l h
1148.961 600.645 m S
Q q
1105 566 58.605 -72 re W n
0.85098 g
1119.668 529.934 m 1105.023 494.578 l 1134.316 565.289 l 1169.668 529.934
 l 1155.023 494.578 l h
1119.668 529.934 m f*
Q q
1103 567 60.605 -74 re W n
0 g
2.5 w
0 J
1 j
[] 0.0 d
4 M 1119.668 529.934 m 1105.023 494.578 l 1134.316 565.289 l 1169.668 529.934
 l 1155.023 494.578 l h
1119.668 529.934 m S
Q Q
showpage
%%Trailer
%%Trailer
cleartomark
countdictstack
exch sub { end } repeat
restore
%%EOF
