%!PS-Adobe-2.0 EPSF-2.0
%%BoundingBox: 0 0 1164 636
%%HiResBoundingBox: 0.000000 0.000000 1164.000000 636.000000
%%Creator: cairo 1.14.2 (http://cairographics.org)
%%CreationDate: Mon Sep  7 08:21:44 2015
%%DocumentData: Clean7Bit
%%LanguageLevel: 2
%%DocumentMedia: 411x224mm 1164 636 0 () ()
%%EndComments
% EPSF created by ps2eps 1.68
%%BeginProlog
save
countdictstack
mark
newpath
/showpage {} def
/setpagedevice {pop} def
%%EndProlog
%%Page 1 1
%%BeginProlog
/languagelevel where
{ pop languagelevel } { 1 } ifelse
2 lt { /Helvetica findfont 12 scalefont setfont 50 500 moveto
  (This print job requires a PostScript Language Level 2 printer.) show
  showpage quit } if
/q { gsave } bind def
/Q { grestore } bind def
/cm { 6 array astore concat } bind def
/w { setlinewidth } bind def
/J { setlinecap } bind def
/j { setlinejoin } bind def
/M { setmiterlimit } bind def
/d { setdash } bind def
/m { moveto } bind def
/l { lineto } bind def
/c { curveto } bind def
/h { closepath } bind def
/re { exch dup neg 3 1 roll 5 3 roll moveto 0 rlineto
      0 exch rlineto 0 rlineto closepath } bind def
/S { stroke } bind def
/f { fill } bind def
/f* { eofill } bind def
/n { newpath } bind def
/W { clip } bind def
/W* { eoclip } bind def
/BT { } bind def
/ET { } bind def
/pdfmark where { pop globaldict /?pdfmark /exec load put }
    { globaldict begin /?pdfmark /pop load def /pdfmark
    /cleartomark load def end } ifelse
/BDC { mark 3 1 roll /BDC pdfmark } bind def
/EMC { mark /EMC pdfmark } bind def
/cairo_store_point { /cairo_point_y exch def /cairo_point_x exch def } def
/Tj { show currentpoint cairo_store_point } bind def
/TJ {
  {
    dup
    type /stringtype eq
    { show } { -0.001 mul 0 cairo_font_matrix dtransform rmoveto } ifelse
  } forall
  currentpoint cairo_store_point
} bind def
/cairo_selectfont { cairo_font_matrix aload pop pop pop 0 0 6 array astore
    cairo_font exch selectfont cairo_point_x cairo_point_y moveto } bind def
/Tf { pop /cairo_font exch def /cairo_font_matrix where
      { pop cairo_selectfont } if } bind def
/Td { matrix translate cairo_font_matrix matrix concatmatrix dup
      /cairo_font_matrix exch def dup 4 get exch 5 get cairo_store_point
      /cairo_font where { pop cairo_selectfont } if } bind def
/Tm { 2 copy 8 2 roll 6 array astore /cairo_font_matrix exch def
      cairo_store_point /cairo_font where { pop cairo_selectfont } if } bind def
/g { setgray } bind def
/rg { setrgbcolor } bind def
/d1 { setcachedevice } bind def
/cairo_set_page_size {
  % Change paper size, but only if different from previous paper size otherwise
  % duplex fails. PLRM specifies a tolerance of 5 pts when matching paper size
  % so we use the same when checking if the size changes.
  /setpagedevice where {
    pop currentpagedevice
    /PageSize known {
      2 copy
      currentpagedevice /PageSize get aload pop
      exch 4 1 roll
      sub abs 5 gt
      3 1 roll
      sub abs 5 gt
      or
    } {
      true
    } ifelse
    {
      2 array astore
      2 dict begin
        /PageSize exch def
        /ImagingBBox null def
      currentdict end
      setpagedevice
    } {
      pop pop
    } ifelse
  } {
    pop
  } ifelse
} def
%%EndProlog
%%BeginSetup
%%EndSetup
%%Page: 1 1
%%BeginPageSetup
%%PageMedia: 411x224mm
%%PageBoundingBox: 0 0 1164 636
1164 636 cairo_set_page_size
%%EndPageSetup
q 0 0 1164 636 rectclip q
Q q
0.984314 g
0 636 1163.605 -636.395 re f*
0.788235 g
1.875 w
0 J
1 j
[] 0.0 d
4 M 0 636 1163.605 -636.395 re S
0.85098 g
11.438 188.164 m -41.422 141.023 l -21.895 188.164 l 1.676 164.594 l -64.992
 164.594 l h
11.438 188.164 m f*
0 g
2.5 w
11.438 188.164 m -41.422 141.023 l -21.895 188.164 l 1.676 164.594 l -64.992
 164.594 l h
11.438 188.164 m S
0.85098 g
82.148 117.453 m 29.289 70.316 l 48.816 117.453 l 72.387 93.887 l 5.719
 93.887 l h
82.148 117.453 m f*
0 g
82.148 117.453 m 29.289 70.316 l 48.816 117.453 l 72.387 93.887 l 5.719
 93.887 l h
82.148 117.453 m S
0.85098 g
-23.57 23.176 m 29.289 70.316 l 9.762 23.176 l -13.809 46.746 l 52.859 
46.746 l h
-23.57 23.176 m f*
0 g
-23.57 23.176 m 29.289 70.316 l 9.762 23.176 l -13.809 46.746 l 52.859 
46.746 l h
-23.57 23.176 m S
0.85098 g
152.859 46.746 m 100 -0.395 l 119.527 46.746 l 143.098 23.176 l 76.43 23.176
 l h
152.859 46.746 m f*
0 g
152.859 46.746 m 100 -0.395 l 119.527 46.746 l 143.098 23.176 l 76.43 23.176
 l h
152.859 46.746 m S
-0.695 400.297 m -53.555 353.156 l -34.027 400.297 l -10.457 376.727 l 
-77.125 376.727 l h
-0.695 400.297 m S
0.85098 g
70.016 329.586 m 17.156 282.445 l 36.684 329.586 l 60.254 306.016 l -6.414
 306.016 l h
70.016 329.586 m f*
0 g
70.016 329.586 m 17.156 282.445 l 36.684 329.586 l 60.254 306.016 l -6.414
 306.016 l h
70.016 329.586 m S
0.85098 g
-35.703 235.305 m 17.156 282.445 l -2.367 235.305 l -25.938 258.875 l 40.727
 258.875 l h
-35.703 235.305 m f*
0 g
-35.703 235.305 m 17.156 282.445 l -2.367 235.305 l -25.938 258.875 l 40.727
 258.875 l h
-35.703 235.305 m S
0.85098 g
140.727 258.875 m 87.867 211.734 l 107.395 258.875 l 130.965 235.305 l 
64.297 235.305 l h
140.727 258.875 m f*
0 g
140.727 258.875 m 87.867 211.734 l 107.395 258.875 l 130.965 235.305 l 
64.297 235.305 l h
140.727 258.875 m S
0.85098 g
35.008 164.594 m 87.867 211.734 l 68.34 164.594 l 44.773 188.164 l 111.438
 188.164 l h
35.008 164.594 m f*
0 g
35.008 164.594 m 87.867 211.734 l 68.34 164.594 l 44.773 188.164 l 111.438
 188.164 l h
35.008 164.594 m S
0.85098 g
211.438 188.164 m 158.578 141.023 l 178.105 188.164 l 201.676 164.594 l
 135.008 164.594 l h
211.438 188.164 m f*
0 g
211.438 188.164 m 158.578 141.023 l 178.105 188.164 l 201.676 164.594 l
 135.008 164.594 l h
211.438 188.164 m S
0.85098 g
105.719 93.887 m 158.578 141.023 l 139.051 93.887 l 115.48 117.453 l 182.148
 117.453 l h
105.719 93.887 m f*
0 g
105.719 93.887 m 158.578 141.023 l 139.051 93.887 l 115.48 117.453 l 182.148
 117.453 l h
105.719 93.887 m S
0.85098 g
282.148 117.453 m 229.289 70.316 l 248.816 117.453 l 272.387 93.887 l 205.719
 93.887 l h
282.148 117.453 m f*
0 g
282.148 117.453 m 229.289 70.316 l 248.816 117.453 l 272.387 93.887 l 205.719
 93.887 l h
282.148 117.453 m S
0.85098 g
176.43 23.176 m 229.289 70.316 l 209.762 23.176 l 186.191 46.746 l 252.859
 46.746 l h
176.43 23.176 m f*
0 g
176.43 23.176 m 229.289 70.316 l 209.762 23.176 l 186.191 46.746 l 252.859
 46.746 l h
176.43 23.176 m S
0.85098 g
352.859 46.746 m 300 -0.395 l 319.527 46.746 l 343.098 23.176 l 276.43 
23.176 l h
352.859 46.746 m f*
0 g
352.859 46.746 m 300 -0.395 l 319.527 46.746 l 343.098 23.176 l 276.43 
23.176 l h
352.859 46.746 m S
0.85098 g
57.887 541.719 m 5.023 494.578 l 24.551 541.719 l 48.121 518.148 l -18.547
 518.148 l h
57.887 541.719 m f*
0 g
57.887 541.719 m 5.023 494.578 l 24.551 541.719 l 48.121 518.148 l -18.547
 518.148 l h
57.887 541.719 m S
0.85098 g
-47.836 447.438 m 5.023 494.578 l -14.5 447.438 l -38.07 471.008 l 28.594
 471.008 l h
-47.836 447.438 m f*
0 g
-47.836 447.438 m 5.023 494.578 l -14.5 447.438 l -38.07 471.008 l 28.594
 471.008 l h
-47.836 447.438 m S
0.85098 g
128.594 471.008 m 75.734 423.867 l 95.262 471.008 l 118.832 447.438 l 52.164
 447.438 l h
128.594 471.008 m f*
0 g
128.594 471.008 m 75.734 423.867 l 95.262 471.008 l 118.832 447.438 l 52.164
 447.438 l h
128.594 471.008 m S
0.85098 g
22.875 376.727 m 75.734 423.867 l 56.211 376.727 l 32.641 400.297 l 99.305
 400.297 l h
22.875 376.727 m f*
0 g
22.875 376.727 m 75.734 423.867 l 56.211 376.727 l 32.641 400.297 l 99.305
 400.297 l h
22.875 376.727 m S
0.85098 g
199.305 400.297 m 146.445 353.156 l 165.973 400.297 l 189.543 376.727 l
 122.875 376.727 l h
199.305 400.297 m f*
0 g
199.305 400.297 m 146.445 353.156 l 165.973 400.297 l 189.543 376.727 l
 122.875 376.727 l h
199.305 400.297 m S
0.85098 g
93.586 306.016 m 146.445 353.156 l 126.922 306.016 l 103.352 329.586 l 
170.016 329.586 l h
93.586 306.016 m f*
0 g
93.586 306.016 m 146.445 353.156 l 126.922 306.016 l 103.352 329.586 l 
170.016 329.586 l h
93.586 306.016 m S
0.85098 g
270.016 329.586 m 217.156 282.445 l 236.684 329.586 l 260.254 306.016 l
 193.586 306.016 l h
270.016 329.586 m f*
0 g
270.016 329.586 m 217.156 282.445 l 236.684 329.586 l 260.254 306.016 l
 193.586 306.016 l h
270.016 329.586 m S
0.85098 g
164.297 235.305 m 217.156 282.445 l 197.633 235.305 l 174.062 258.875 l
 240.727 258.875 l h
164.297 235.305 m f*
0 g
164.297 235.305 m 217.156 282.445 l 197.633 235.305 l 174.062 258.875 l
 240.727 258.875 l h
164.297 235.305 m S
0.85098 g
340.727 258.875 m 287.867 211.734 l 307.395 258.875 l 330.965 235.305 l
 264.297 235.305 l h
340.727 258.875 m f*
0 g
340.727 258.875 m 287.867 211.734 l 307.395 258.875 l 330.965 235.305 l
 264.297 235.305 l h
340.727 258.875 m S
0.85098 g
235.008 164.594 m 287.867 211.734 l 268.34 164.594 l 244.773 188.164 l 
311.438 188.164 l h
235.008 164.594 m f*
0 g
235.008 164.594 m 287.867 211.734 l 268.34 164.594 l 244.773 188.164 l 
311.438 188.164 l h
235.008 164.594 m S
0.85098 g
411.438 188.164 m 358.578 141.023 l 378.105 188.164 l 401.676 164.594 l
 335.008 164.594 l h
411.438 188.164 m f*
0 g
411.438 188.164 m 358.578 141.023 l 378.105 188.164 l 401.676 164.594 l
 335.008 164.594 l h
411.438 188.164 m S
0.85098 g
305.719 93.887 m 358.578 141.023 l 339.051 93.887 l 315.48 117.453 l 382.148
 117.453 l h
305.719 93.887 m f*
0 g
305.719 93.887 m 358.578 141.023 l 339.051 93.887 l 315.48 117.453 l 382.148
 117.453 l h
305.719 93.887 m S
0.85098 g
482.148 117.453 m 429.289 70.316 l 448.816 117.453 l 472.387 93.887 l 405.719
 93.887 l h
482.148 117.453 m f*
0 g
482.148 117.453 m 429.289 70.316 l 448.816 117.453 l 472.387 93.887 l 405.719
 93.887 l h
482.148 117.453 m S
0.85098 g
376.43 23.176 m 429.289 70.316 l 409.762 23.176 l 386.191 46.746 l 452.859
 46.746 l h
376.43 23.176 m f*
0 g
376.43 23.176 m 429.289 70.316 l 409.762 23.176 l 386.191 46.746 l 452.859
 46.746 l h
376.43 23.176 m S
0.85098 g
552.859 46.746 m 500 -0.395 l 519.527 46.746 l 543.098 23.176 l 476.43 
23.176 l h
552.859 46.746 m f*
0 g
552.859 46.746 m 500 -0.395 l 519.527 46.746 l 543.098 23.176 l 476.43 
23.176 l h
552.859 46.746 m S
0.85098 g
10.746 588.859 m 63.605 636 l 44.078 588.859 l 20.508 612.43 l 87.176 612.43
 l h
10.746 588.859 m f*
0 g
10.746 588.859 m 63.605 636 l 44.078 588.859 l 20.508 612.43 l 87.176 612.43
 l h
10.746 588.859 m S
0.85098 g
187.176 612.43 m 134.316 565.289 l 153.84 612.43 l 177.41 588.859 l 110.746
 588.859 l h
187.176 612.43 m f*
0 g
187.176 612.43 m 134.316 565.289 l 153.84 612.43 l 177.41 588.859 l 110.746
 588.859 l h
187.176 612.43 m S
0.85098 g
81.453 518.148 m 134.316 565.289 l 114.789 518.148 l 91.219 541.719 l 157.887
 541.719 l h
81.453 518.148 m f*
0 g
81.453 518.148 m 134.316 565.289 l 114.789 518.148 l 91.219 541.719 l 157.887
 541.719 l h
81.453 518.148 m S
0.85098 g
257.887 541.719 m 205.023 494.578 l 224.551 541.719 l 248.121 518.148 l
 181.453 518.148 l h
257.887 541.719 m f*
0 g
257.887 541.719 m 205.023 494.578 l 224.551 541.719 l 248.121 518.148 l
 181.453 518.148 l h
257.887 541.719 m S
0.85098 g
152.164 447.438 m 205.023 494.578 l 185.5 447.438 l 161.93 471.008 l 228.594
 471.008 l h
152.164 447.438 m f*
0 g
152.164 447.438 m 205.023 494.578 l 185.5 447.438 l 161.93 471.008 l 228.594
 471.008 l h
152.164 447.438 m S
0.85098 g
328.594 471.008 m 275.734 423.867 l 295.262 471.008 l 318.832 447.438 l
 252.164 447.438 l h
328.594 471.008 m f*
0 g
328.594 471.008 m 275.734 423.867 l 295.262 471.008 l 318.832 447.438 l
 252.164 447.438 l h
328.594 471.008 m S
0.85098 g
222.875 376.727 m 275.734 423.867 l 256.211 376.727 l 232.641 400.297 l
 299.305 400.297 l h
222.875 376.727 m f*
0 g
222.875 376.727 m 275.734 423.867 l 256.211 376.727 l 232.641 400.297 l
 299.305 400.297 l h
222.875 376.727 m S
0.85098 g
399.305 400.297 m 346.445 353.156 l 365.973 400.297 l 389.543 376.727 l
 322.875 376.727 l h
399.305 400.297 m f*
0 g
399.305 400.297 m 346.445 353.156 l 365.973 400.297 l 389.543 376.727 l
 322.875 376.727 l h
399.305 400.297 m S
0.85098 g
293.586 306.016 m 346.445 353.156 l 326.922 306.016 l 303.352 329.586 l
 370.016 329.586 l h
293.586 306.016 m f*
0 g
293.586 306.016 m 346.445 353.156 l 326.922 306.016 l 303.352 329.586 l
 370.016 329.586 l h
293.586 306.016 m S
0.85098 g
470.016 329.586 m 417.156 282.445 l 436.684 329.586 l 460.254 306.016 l
 393.586 306.016 l h
470.016 329.586 m f*
0 g
470.016 329.586 m 417.156 282.445 l 436.684 329.586 l 460.254 306.016 l
 393.586 306.016 l h
470.016 329.586 m S
0.85098 g
364.297 235.305 m 417.156 282.445 l 397.633 235.305 l 374.062 258.875 l
 440.727 258.875 l h
364.297 235.305 m f*
0 g
364.297 235.305 m 417.156 282.445 l 397.633 235.305 l 374.062 258.875 l
 440.727 258.875 l h
364.297 235.305 m S
0.85098 g
540.727 258.875 m 487.867 211.734 l 507.395 258.875 l 530.965 235.305 l
 464.297 235.305 l h
540.727 258.875 m f*
0 g
540.727 258.875 m 487.867 211.734 l 507.395 258.875 l 530.965 235.305 l
 464.297 235.305 l h
540.727 258.875 m S
0.85098 g
435.008 164.594 m 487.867 211.734 l 468.34 164.594 l 444.773 188.164 l 
511.438 188.164 l h
435.008 164.594 m f*
0 g
435.008 164.594 m 487.867 211.734 l 468.34 164.594 l 444.773 188.164 l 
511.438 188.164 l h
435.008 164.594 m S
0.85098 g
611.438 188.164 m 558.578 141.023 l 578.105 188.164 l 601.676 164.594 l
 535.008 164.594 l h
611.438 188.164 m f*
0 g
611.438 188.164 m 558.578 141.023 l 578.105 188.164 l 601.676 164.594 l
 535.008 164.594 l h
611.438 188.164 m S
0.85098 g
505.719 93.887 m 558.578 141.023 l 539.051 93.887 l 515.48 117.453 l 582.148
 117.453 l h
505.719 93.887 m f*
0 g
505.719 93.887 m 558.578 141.023 l 539.051 93.887 l 515.48 117.453 l 582.148
 117.453 l h
505.719 93.887 m S
0.85098 g
682.148 117.453 m 629.289 70.316 l 648.816 117.453 l 672.387 93.887 l 605.719
 93.887 l h
682.148 117.453 m f*
0 g
682.148 117.453 m 629.289 70.316 l 648.816 117.453 l 672.387 93.887 l 605.719
 93.887 l h
682.148 117.453 m S
0.85098 g
576.43 23.176 m 629.289 70.316 l 609.762 23.176 l 586.191 46.746 l 652.859
 46.746 l h
576.43 23.176 m f*
0 g
576.43 23.176 m 629.289 70.316 l 609.762 23.176 l 586.191 46.746 l 652.859
 46.746 l h
576.43 23.176 m S
0.85098 g
752.859 46.746 m 700 -0.395 l 719.527 46.746 l 743.098 23.176 l 676.43 
23.176 l h
752.859 46.746 m f*
0 g
752.859 46.746 m 700 -0.395 l 719.527 46.746 l 743.098 23.176 l 676.43 
23.176 l h
752.859 46.746 m S
0.85098 g
210.746 588.859 m 263.605 636 l 244.078 588.859 l 220.508 612.43 l 287.176
 612.43 l h
210.746 588.859 m f*
0 g
210.746 588.859 m 263.605 636 l 244.078 588.859 l 220.508 612.43 l 287.176
 612.43 l h
210.746 588.859 m S
0.85098 g
387.176 612.43 m 334.316 565.289 l 353.84 612.43 l 377.41 588.859 l 310.746
 588.859 l h
387.176 612.43 m f*
0 g
387.176 612.43 m 334.316 565.289 l 353.84 612.43 l 377.41 588.859 l 310.746
 588.859 l h
387.176 612.43 m S
0.85098 g
281.453 518.148 m 334.316 565.289 l 314.789 518.148 l 291.219 541.719 l
 357.887 541.719 l h
281.453 518.148 m f*
0 g
281.453 518.148 m 334.316 565.289 l 314.789 518.148 l 291.219 541.719 l
 357.887 541.719 l h
281.453 518.148 m S
0.85098 g
457.887 541.719 m 405.023 494.578 l 424.551 541.719 l 448.121 518.148 l
 381.453 518.148 l h
457.887 541.719 m f*
0 g
457.887 541.719 m 405.023 494.578 l 424.551 541.719 l 448.121 518.148 l
 381.453 518.148 l h
457.887 541.719 m S
0.85098 g
352.164 447.438 m 405.023 494.578 l 385.5 447.438 l 361.93 471.008 l 428.594
 471.008 l h
352.164 447.438 m f*
0 g
352.164 447.438 m 405.023 494.578 l 385.5 447.438 l 361.93 471.008 l 428.594
 471.008 l h
352.164 447.438 m S
0.85098 g
528.594 471.008 m 475.734 423.867 l 495.262 471.008 l 518.832 447.438 l
 452.164 447.438 l h
528.594 471.008 m f*
0 g
528.594 471.008 m 475.734 423.867 l 495.262 471.008 l 518.832 447.438 l
 452.164 447.438 l h
528.594 471.008 m S
0.85098 g
422.875 376.727 m 475.734 423.867 l 456.211 376.727 l 432.641 400.297 l
 499.305 400.297 l h
422.875 376.727 m f*
0 g
422.875 376.727 m 475.734 423.867 l 456.211 376.727 l 432.641 400.297 l
 499.305 400.297 l h
422.875 376.727 m S
0.85098 g
599.305 400.297 m 546.445 353.156 l 565.973 400.297 l 589.543 376.727 l
 522.875 376.727 l h
599.305 400.297 m f*
0 g
599.305 400.297 m 546.445 353.156 l 565.973 400.297 l 589.543 376.727 l
 522.875 376.727 l h
599.305 400.297 m S
0.85098 g
493.586 306.016 m 546.445 353.156 l 526.922 306.016 l 503.352 329.586 l
 570.016 329.586 l h
493.586 306.016 m f*
0 g
493.586 306.016 m 546.445 353.156 l 526.922 306.016 l 503.352 329.586 l
 570.016 329.586 l h
493.586 306.016 m S
0.85098 g
670.016 329.586 m 617.156 282.445 l 636.684 329.586 l 660.254 306.016 l
 593.586 306.016 l h
670.016 329.586 m f*
0 g
670.016 329.586 m 617.156 282.445 l 636.684 329.586 l 660.254 306.016 l
 593.586 306.016 l h
670.016 329.586 m S
0.85098 g
564.297 235.305 m 617.156 282.445 l 597.633 235.305 l 574.062 258.875 l
 640.727 258.875 l h
564.297 235.305 m f*
0 g
564.297 235.305 m 617.156 282.445 l 597.633 235.305 l 574.062 258.875 l
 640.727 258.875 l h
564.297 235.305 m S
0.85098 g
740.727 258.875 m 687.867 211.734 l 707.395 258.875 l 730.965 235.305 l
 664.297 235.305 l h
740.727 258.875 m f*
0 g
740.727 258.875 m 687.867 211.734 l 707.395 258.875 l 730.965 235.305 l
 664.297 235.305 l h
740.727 258.875 m S
0.85098 g
635.008 164.594 m 687.867 211.734 l 668.34 164.594 l 644.773 188.164 l 
711.438 188.164 l h
635.008 164.594 m f*
0 g
635.008 164.594 m 687.867 211.734 l 668.34 164.594 l 644.773 188.164 l 
711.438 188.164 l h
635.008 164.594 m S
0.85098 g
811.438 188.164 m 758.578 141.023 l 778.105 188.164 l 801.676 164.594 l
 735.008 164.594 l h
811.438 188.164 m f*
0 g
811.438 188.164 m 758.578 141.023 l 778.105 188.164 l 801.676 164.594 l
 735.008 164.594 l h
811.438 188.164 m S
0.85098 g
705.719 93.887 m 758.578 141.023 l 739.051 93.887 l 715.48 117.453 l 782.148
 117.453 l h
705.719 93.887 m f*
0 g
705.719 93.887 m 758.578 141.023 l 739.051 93.887 l 715.48 117.453 l 782.148
 117.453 l h
705.719 93.887 m S
0.85098 g
882.148 117.453 m 829.289 70.316 l 848.816 117.453 l 872.387 93.887 l 805.719
 93.887 l h
882.148 117.453 m f*
0 g
882.148 117.453 m 829.289 70.316 l 848.816 117.453 l 872.387 93.887 l 805.719
 93.887 l h
882.148 117.453 m S
0.85098 g
776.43 23.176 m 829.289 70.316 l 809.762 23.176 l 786.191 46.746 l 852.859
 46.746 l h
776.43 23.176 m f*
0 g
776.43 23.176 m 829.289 70.316 l 809.762 23.176 l 786.191 46.746 l 852.859
 46.746 l h
776.43 23.176 m S
0.85098 g
952.859 46.746 m 900 -0.395 l 919.527 46.746 l 943.098 23.176 l 876.43 
23.176 l h
952.859 46.746 m f*
0 g
952.859 46.746 m 900 -0.395 l 919.527 46.746 l 943.098 23.176 l 876.43 
23.176 l h
952.859 46.746 m S
0.85098 g
410.746 588.859 m 463.605 636 l 444.078 588.859 l 420.508 612.43 l 487.176
 612.43 l h
410.746 588.859 m f*
0 g
410.746 588.859 m 463.605 636 l 444.078 588.859 l 420.508 612.43 l 487.176
 612.43 l h
410.746 588.859 m S
0.85098 g
587.176 612.43 m 534.316 565.289 l 553.84 612.43 l 577.41 588.859 l 510.746
 588.859 l h
587.176 612.43 m f*
0 g
587.176 612.43 m 534.316 565.289 l 553.84 612.43 l 577.41 588.859 l 510.746
 588.859 l h
587.176 612.43 m S
0.85098 g
481.453 518.148 m 534.316 565.289 l 514.789 518.148 l 491.219 541.719 l
 557.887 541.719 l h
481.453 518.148 m f*
0 g
481.453 518.148 m 534.316 565.289 l 514.789 518.148 l 491.219 541.719 l
 557.887 541.719 l h
481.453 518.148 m S
0.85098 g
657.887 541.719 m 605.023 494.578 l 624.551 541.719 l 648.121 518.148 l
 581.453 518.148 l h
657.887 541.719 m f*
0 g
657.887 541.719 m 605.023 494.578 l 624.551 541.719 l 648.121 518.148 l
 581.453 518.148 l h
657.887 541.719 m S
0.85098 g
552.164 447.438 m 605.023 494.578 l 585.5 447.438 l 561.93 471.008 l 628.594
 471.008 l h
552.164 447.438 m f*
0 g
552.164 447.438 m 605.023 494.578 l 585.5 447.438 l 561.93 471.008 l 628.594
 471.008 l h
552.164 447.438 m S
0.85098 g
728.594 471.008 m 675.734 423.867 l 695.262 471.008 l 718.832 447.438 l
 652.164 447.438 l h
728.594 471.008 m f*
0 g
728.594 471.008 m 675.734 423.867 l 695.262 471.008 l 718.832 447.438 l
 652.164 447.438 l h
728.594 471.008 m S
0.85098 g
622.875 376.727 m 675.734 423.867 l 656.211 376.727 l 632.641 400.297 l
 699.305 400.297 l h
622.875 376.727 m f*
0 g
622.875 376.727 m 675.734 423.867 l 656.211 376.727 l 632.641 400.297 l
 699.305 400.297 l h
622.875 376.727 m S
0.85098 g
799.305 400.297 m 746.445 353.156 l 765.973 400.297 l 789.543 376.727 l
 722.875 376.727 l h
799.305 400.297 m f*
0 g
799.305 400.297 m 746.445 353.156 l 765.973 400.297 l 789.543 376.727 l
 722.875 376.727 l h
799.305 400.297 m S
0.85098 g
693.586 306.016 m 746.445 353.156 l 726.922 306.016 l 703.352 329.586 l
 770.016 329.586 l h
693.586 306.016 m f*
0 g
693.586 306.016 m 746.445 353.156 l 726.922 306.016 l 703.352 329.586 l
 770.016 329.586 l h
693.586 306.016 m S
0.85098 g
870.016 329.586 m 817.156 282.445 l 836.684 329.586 l 860.254 306.016 l
 793.586 306.016 l h
870.016 329.586 m f*
0 g
870.016 329.586 m 817.156 282.445 l 836.684 329.586 l 860.254 306.016 l
 793.586 306.016 l h
870.016 329.586 m S
0.85098 g
764.297 235.305 m 817.156 282.445 l 797.633 235.305 l 774.062 258.875 l
 840.727 258.875 l h
764.297 235.305 m f*
0 g
764.297 235.305 m 817.156 282.445 l 797.633 235.305 l 774.062 258.875 l
 840.727 258.875 l h
764.297 235.305 m S
0.85098 g
940.727 258.875 m 887.867 211.734 l 907.395 258.875 l 930.965 235.305 l
 864.297 235.305 l h
940.727 258.875 m f*
0 g
940.727 258.875 m 887.867 211.734 l 907.395 258.875 l 930.965 235.305 l
 864.297 235.305 l h
940.727 258.875 m S
0.85098 g
835.008 164.594 m 887.867 211.734 l 868.34 164.594 l 844.773 188.164 l 
911.438 188.164 l h
835.008 164.594 m f*
0 g
835.008 164.594 m 887.867 211.734 l 868.34 164.594 l 844.773 188.164 l 
911.438 188.164 l h
835.008 164.594 m S
0.85098 g
1011.438 188.164 m 958.578 141.023 l 978.105 188.164 l 1001.676 164.594
 l 935.008 164.594 l h
1011.438 188.164 m f*
0 g
1011.438 188.164 m 958.578 141.023 l 978.105 188.164 l 1001.676 164.594
 l 935.008 164.594 l h
1011.438 188.164 m S
0.85098 g
905.719 93.887 m 958.578 141.023 l 939.051 93.887 l 915.48 117.453 l 982.148
 117.453 l h
905.719 93.887 m f*
0 g
905.719 93.887 m 958.578 141.023 l 939.051 93.887 l 915.48 117.453 l 982.148
 117.453 l h
905.719 93.887 m S
0.85098 g
1082.148 117.453 m 1029.289 70.316 l 1048.816 117.453 l 1072.387 93.887
 l 1005.719 93.887 l h
1082.148 117.453 m f*
0 g
1082.148 117.453 m 1029.289 70.316 l 1048.816 117.453 l 1072.387 93.887
 l 1005.719 93.887 l h
1082.148 117.453 m S
0.85098 g
976.43 23.176 m 1029.289 70.316 l 1009.762 23.176 l 986.191 46.746 l 1052.859
 46.746 l h
976.43 23.176 m f*
0 g
976.43 23.176 m 1029.289 70.316 l 1009.762 23.176 l 986.191 46.746 l 1052.859
 46.746 l h
976.43 23.176 m S
0.85098 g
1152.859 46.746 m 1100 -0.395 l 1119.527 46.746 l 1143.098 23.176 l 1076.43
 23.176 l h
1152.859 46.746 m f*
0 g
1152.859 46.746 m 1100 -0.395 l 1119.527 46.746 l 1143.098 23.176 l 1076.43
 23.176 l h
1152.859 46.746 m S
0.85098 g
610.746 588.859 m 663.605 636 l 644.078 588.859 l 620.508 612.43 l 687.176
 612.43 l h
610.746 588.859 m f*
0 g
610.746 588.859 m 663.605 636 l 644.078 588.859 l 620.508 612.43 l 687.176
 612.43 l h
610.746 588.859 m S
0.85098 g
787.176 612.43 m 734.316 565.289 l 753.84 612.43 l 777.41 588.859 l 710.746
 588.859 l h
787.176 612.43 m f*
0 g
787.176 612.43 m 734.316 565.289 l 753.84 612.43 l 777.41 588.859 l 710.746
 588.859 l h
787.176 612.43 m S
0.85098 g
681.453 518.148 m 734.316 565.289 l 714.789 518.148 l 691.219 541.719 l
 757.887 541.719 l h
681.453 518.148 m f*
0 g
681.453 518.148 m 734.316 565.289 l 714.789 518.148 l 691.219 541.719 l
 757.887 541.719 l h
681.453 518.148 m S
0.85098 g
857.887 541.719 m 805.023 494.578 l 824.551 541.719 l 848.121 518.148 l
 781.453 518.148 l h
857.887 541.719 m f*
0 g
857.887 541.719 m 805.023 494.578 l 824.551 541.719 l 848.121 518.148 l
 781.453 518.148 l h
857.887 541.719 m S
0.85098 g
752.164 447.438 m 805.023 494.578 l 785.5 447.438 l 761.93 471.008 l 828.594
 471.008 l h
752.164 447.438 m f*
0 g
752.164 447.438 m 805.023 494.578 l 785.5 447.438 l 761.93 471.008 l 828.594
 471.008 l h
752.164 447.438 m S
0.85098 g
928.594 471.008 m 875.734 423.867 l 895.262 471.008 l 918.832 447.438 l
 852.164 447.438 l h
928.594 471.008 m f*
0 g
928.594 471.008 m 875.734 423.867 l 895.262 471.008 l 918.832 447.438 l
 852.164 447.438 l h
928.594 471.008 m S
0.85098 g
822.875 376.727 m 875.734 423.867 l 856.211 376.727 l 832.641 400.297 l
 899.305 400.297 l h
822.875 376.727 m f*
0 g
822.875 376.727 m 875.734 423.867 l 856.211 376.727 l 832.641 400.297 l
 899.305 400.297 l h
822.875 376.727 m S
0.85098 g
999.305 400.297 m 946.445 353.156 l 965.973 400.297 l 989.543 376.727 l
 922.875 376.727 l h
999.305 400.297 m f*
0 g
999.305 400.297 m 946.445 353.156 l 965.973 400.297 l 989.543 376.727 l
 922.875 376.727 l h
999.305 400.297 m S
0.85098 g
893.586 306.016 m 946.445 353.156 l 926.922 306.016 l 903.352 329.586 l
 970.016 329.586 l h
893.586 306.016 m f*
0 g
893.586 306.016 m 946.445 353.156 l 926.922 306.016 l 903.352 329.586 l
 970.016 329.586 l h
893.586 306.016 m S
0.85098 g
1070.016 329.586 m 1017.156 282.445 l 1036.684 329.586 l 1060.254 306.016
 l 993.586 306.016 l h
1070.016 329.586 m f*
0 g
1070.016 329.586 m 1017.156 282.445 l 1036.684 329.586 l 1060.254 306.016
 l 993.586 306.016 l h
1070.016 329.586 m S
0.85098 g
964.297 235.305 m 1017.156 282.445 l 997.633 235.305 l 974.062 258.875 
l 1040.727 258.875 l h
964.297 235.305 m f*
0 g
964.297 235.305 m 1017.156 282.445 l 997.633 235.305 l 974.062 258.875 
l 1040.727 258.875 l h
964.297 235.305 m S
0.85098 g
1140.727 258.875 m 1087.867 211.734 l 1107.395 258.875 l 1130.965 235.305
 l 1064.297 235.305 l h
1140.727 258.875 m f*
0 g
1140.727 258.875 m 1087.867 211.734 l 1107.395 258.875 l 1130.965 235.305
 l 1064.297 235.305 l h
1140.727 258.875 m S
0.85098 g
1035.008 164.594 m 1087.867 211.734 l 1068.34 164.594 l 1044.773 188.164
 l 1111.438 188.164 l h
1035.008 164.594 m f*
0 g
1035.008 164.594 m 1087.867 211.734 l 1068.34 164.594 l 1044.773 188.164
 l 1111.438 188.164 l h
1035.008 164.594 m S
Q q
1135 189 28.605 -48 re W n
0.85098 g
1211.438 188.164 m 1158.578 141.023 l 1178.105 188.164 l 1201.676 164.594
 l 1135.008 164.594 l h
1211.438 188.164 m f*
Q q
1133 190 30.605 -51 re W n
0 g
2.5 w
0 J
1 j
[] 0.0 d
4 M 1211.438 188.164 m 1158.578 141.023 l 1178.105 188.164 l 1201.676 164.594
 l 1135.008 164.594 l h
1211.438 188.164 m S
Q q
1105 142 58.605 -49 re W n
0.85098 g
1105.719 93.887 m 1158.578 141.023 l 1139.051 93.887 l 1115.48 117.453 
l 1182.148 117.453 l h
1105.719 93.887 m f*
Q q
1104 143 59.605 -51 re W n
0 g
2.5 w
0 J
1 j
[] 0.0 d
4 M 1105.719 93.887 m 1158.578 141.023 l 1139.051 93.887 l 1115.48 117.453 
l 1182.148 117.453 l h
1105.719 93.887 m S
Q q
0.85098 g
810.746 588.859 m 863.605 636 l 844.078 588.859 l 820.508 612.43 l 887.176
 612.43 l h
810.746 588.859 m f*
0 g
2.5 w
0 J
1 j
[] 0.0 d
4 M 810.746 588.859 m 863.605 636 l 844.078 588.859 l 820.508 612.43 l 887.176
 612.43 l h
810.746 588.859 m S
0.85098 g
987.176 612.43 m 934.316 565.289 l 953.84 612.43 l 977.41 588.859 l 910.746
 588.859 l h
987.176 612.43 m f*
0 g
987.176 612.43 m 934.316 565.289 l 953.84 612.43 l 977.41 588.859 l 910.746
 588.859 l h
987.176 612.43 m S
0.85098 g
881.453 518.148 m 934.316 565.289 l 914.789 518.148 l 891.219 541.719 l
 957.887 541.719 l h
881.453 518.148 m f*
0 g
881.453 518.148 m 934.316 565.289 l 914.789 518.148 l 891.219 541.719 l
 957.887 541.719 l h
881.453 518.148 m S
0.85098 g
1057.887 541.719 m 1005.023 494.578 l 1024.551 541.719 l 1048.121 518.148
 l 981.453 518.148 l h
1057.887 541.719 m f*
0 g
1057.887 541.719 m 1005.023 494.578 l 1024.551 541.719 l 1048.121 518.148
 l 981.453 518.148 l h
1057.887 541.719 m S
0.85098 g
952.164 447.438 m 1005.023 494.578 l 985.5 447.438 l 961.93 471.008 l 1028.594
 471.008 l h
952.164 447.438 m f*
0 g
952.164 447.438 m 1005.023 494.578 l 985.5 447.438 l 961.93 471.008 l 1028.594
 471.008 l h
952.164 447.438 m S
0.85098 g
1128.594 471.008 m 1075.734 423.867 l 1095.262 471.008 l 1118.832 447.438
 l 1052.164 447.438 l h
1128.594 471.008 m f*
0 g
1128.594 471.008 m 1075.734 423.867 l 1095.262 471.008 l 1118.832 447.438
 l 1052.164 447.438 l h
1128.594 471.008 m S
0.85098 g
1022.875 376.727 m 1075.734 423.867 l 1056.211 376.727 l 1032.641 400.297
 l 1099.305 400.297 l h
1022.875 376.727 m f*
0 g
1022.875 376.727 m 1075.734 423.867 l 1056.211 376.727 l 1032.641 400.297
 l 1099.305 400.297 l h
1022.875 376.727 m S
Q q
1122 401 41.605 -48 re W n
0.85098 g
1199.305 400.297 m 1146.445 353.156 l 1165.973 400.297 l 1189.543 376.727
 l 1122.875 376.727 l h
1199.305 400.297 m f*
Q q
1121 402 42.605 -51 re W n
0 g
2.5 w
0 J
1 j
[] 0.0 d
4 M 1199.305 400.297 m 1146.445 353.156 l 1165.973 400.297 l 1189.543 376.727
 l 1122.875 376.727 l h
1199.305 400.297 m S
Q q
1093 354 70.605 -48 re W n
0.85098 g
1093.586 306.016 m 1146.445 353.156 l 1126.922 306.016 l 1103.352 329.586
 l 1170.016 329.586 l h
1093.586 306.016 m f*
Q q
1092 355 71.605 -51 re W n
0 g
2.5 w
0 J
1 j
[] 0.0 d
4 M 1093.586 306.016 m 1146.445 353.156 l 1126.922 306.016 l 1103.352 329.586
 l 1170.016 329.586 l h
1093.586 306.016 m S
Q q
1163 284 0.605 -50 re W n
0 g
2.5 w
0 J
1 j
[] 0.0 d
4 M 1164.297 235.305 m 1217.156 282.445 l 1197.633 235.305 l 1174.062 258.875
 l 1240.727 258.875 l h
1164.297 235.305 m S
Q q
0.85098 g
1010.746 588.859 m 1063.605 636 l 1044.078 588.859 l 1020.508 612.43 l 
1087.176 612.43 l h
1010.746 588.859 m f*
0 g
2.5 w
0 J
1 j
[] 0.0 d
4 M 1010.746 588.859 m 1063.605 636 l 1044.078 588.859 l 1020.508 612.43 l 
1087.176 612.43 l h
1010.746 588.859 m S
Q q
1110 613 53.605 -48 re W n
0.85098 g
1187.176 612.43 m 1134.316 565.289 l 1153.84 612.43 l 1177.41 588.859 l
 1110.746 588.859 l h
1187.176 612.43 m f*
Q q
1109 614 54.605 -50 re W n
0 g
2.5 w
0 J
1 j
[] 0.0 d
4 M 1187.176 612.43 m 1134.316 565.289 l 1153.84 612.43 l 1177.41 588.859 l
 1110.746 588.859 l h
1187.176 612.43 m S
Q q
0.85098 g
1081.453 518.148 m 1134.316 565.289 l 1114.789 518.148 l 1091.219 541.719
 l 1157.887 541.719 l h
1081.453 518.148 m f*
0 g
2.5 w
0 J
1 j
[] 0.0 d
4 M 1081.453 518.148 m 1134.316 565.289 l 1114.789 518.148 l 1091.219 541.719
 l 1157.887 541.719 l h
1081.453 518.148 m S
Q q
1152 495 11.605 -48 re W n
0.85098 g
1152.164 447.438 m 1205.023 494.578 l 1185.5 447.438 l 1161.93 471.008 
l 1228.594 471.008 l h
1152.164 447.438 m f*
Q q
1150 496 13.605 -50 re W n
0 g
2.5 w
0 J
1 j
[] 0.0 d
4 M 1152.164 447.438 m 1205.023 494.578 l 1185.5 447.438 l 1161.93 471.008 
l 1228.594 471.008 l h
1152.164 447.438 m S
Q Q
showpage
%%Trailer
%%Trailer
cleartomark
countdictstack
exch sub { end } repeat
restore
%%EOF
