%!PS-Adobe-2.0 EPSF-2.0
%%BoundingBox: 0 0 1200 1039
%%HiResBoundingBox: 0.000000 0.000000 1200.000000 1039.000000
%%Creator: cairo 1.14.2 (http://cairographics.org)
%%CreationDate: Mon Sep  7 08:21:44 2015
%%DocumentData: Clean7Bit
%%LanguageLevel: 2
%%DocumentMedia: 423x367mm 1200 1039 0 () ()
%%EndComments
% EPSF created by ps2eps 1.68
%%BeginProlog
save
countdictstack
mark
newpath
/showpage {} def
/setpagedevice {pop} def
%%EndProlog
%%Page 1 1
%%BeginProlog
/languagelevel where
{ pop languagelevel } { 1 } ifelse
2 lt { /Helvetica findfont 12 scalefont setfont 50 500 moveto
  (This print job requires a PostScript Language Level 2 printer.) show
  showpage quit } if
/q { gsave } bind def
/Q { grestore } bind def
/cm { 6 array astore concat } bind def
/w { setlinewidth } bind def
/J { setlinecap } bind def
/j { setlinejoin } bind def
/M { setmiterlimit } bind def
/d { setdash } bind def
/m { moveto } bind def
/l { lineto } bind def
/c { curveto } bind def
/h { closepath } bind def
/re { exch dup neg 3 1 roll 5 3 roll moveto 0 rlineto
      0 exch rlineto 0 rlineto closepath } bind def
/S { stroke } bind def
/f { fill } bind def
/f* { eofill } bind def
/n { newpath } bind def
/W { clip } bind def
/W* { eoclip } bind def
/BT { } bind def
/ET { } bind def
/pdfmark where { pop globaldict /?pdfmark /exec load put }
    { globaldict begin /?pdfmark /pop load def /pdfmark
    /cleartomark load def end } ifelse
/BDC { mark 3 1 roll /BDC pdfmark } bind def
/EMC { mark /EMC pdfmark } bind def
/cairo_store_point { /cairo_point_y exch def /cairo_point_x exch def } def
/Tj { show currentpoint cairo_store_point } bind def
/TJ {
  {
    dup
    type /stringtype eq
    { show } { -0.001 mul 0 cairo_font_matrix dtransform rmoveto } ifelse
  } forall
  currentpoint cairo_store_point
} bind def
/cairo_selectfont { cairo_font_matrix aload pop pop pop 0 0 6 array astore
    cairo_font exch selectfont cairo_point_x cairo_point_y moveto } bind def
/Tf { pop /cairo_font exch def /cairo_font_matrix where
      { pop cairo_selectfont } if } bind def
/Td { matrix translate cairo_font_matrix matrix concatmatrix dup
      /cairo_font_matrix exch def dup 4 get exch 5 get cairo_store_point
      /cairo_font where { pop cairo_selectfont } if } bind def
/Tm { 2 copy 8 2 roll 6 array astore /cairo_font_matrix exch def
      cairo_store_point /cairo_font where { pop cairo_selectfont } if } bind def
/g { setgray } bind def
/rg { setrgbcolor } bind def
/d1 { setcachedevice } bind def
/cairo_set_page_size {
  % Change paper size, but only if different from previous paper size otherwise
  % duplex fails. PLRM specifies a tolerance of 5 pts when matching paper size
  % so we use the same when checking if the size changes.
  /setpagedevice where {
    pop currentpagedevice
    /PageSize known {
      2 copy
      currentpagedevice /PageSize get aload pop
      exch 4 1 roll
      sub abs 5 gt
      3 1 roll
      sub abs 5 gt
      or
    } {
      true
    } ifelse
    {
      2 array astore
      2 dict begin
        /PageSize exch def
        /ImagingBBox null def
      currentdict end
      setpagedevice
    } {
      pop pop
    } ifelse
  } {
    pop
  } ifelse
} def
%%EndProlog
%%BeginSetup
%%EndSetup
%%Page: 1 1
%%BeginPageSetup
%%PageMedia: 423x367mm
%%PageBoundingBox: 0 0 1200 1039
1200 1039 cairo_set_page_size
%%EndPageSetup
q 0 0 1200 1039 rectclip q
0.984314 g
0 0 1200 1039 rectfill
0.788235 g
1.875 w
0 J
1 j
[] 0.0 d
4 M 0 1039 1200 -1039.23 re S
0 g
2.5 w
1 J
0 461.648 m -100 461.648 -50 432.781 -50 490.516 c S
50 28.637 m 0 115.238 50 86.371 0 57.504 c S
150 201.844 m 50 201.844 100 172.973 100 230.711 c S
100 288.445 m 50 201.844 50 259.578 100 230.711 c S
-50 28.637 m 0 115.238 -50 86.371 0 57.504 c S
0 981.266 m -100 981.266 -50 952.398 -50 1010.133 c S
50 548.254 m 0 634.855 50 605.988 0 577.121 c S
150 721.457 m 50 721.457 100 692.59 100 750.324 c S
100 808.059 m 50 721.457 50 779.191 100 750.324 c S
-50 548.254 m 0 634.855 -50 605.988 0 577.121 c S
200 288.445 m 150 375.047 200 346.18 150 317.312 c S
300 461.648 m 200 461.648 250 432.781 250 490.516 c S
0 461.648 m 100 461.648 50 432.781 50 490.516 c S
250 548.254 m 200 461.648 200 519.383 250 490.516 c S
100 288.445 m 150 375.047 100 346.18 150 317.312 c S
50 548.254 m 100 461.648 100 519.383 50 490.516 c S
350 28.637 m 300 115.238 350 86.371 300 57.504 c S
450 201.844 m 350 201.844 400 172.973 400 230.711 c S
150 201.844 m 250 201.844 200 172.973 200 230.711 c S
400 288.445 m 350 201.844 350 259.578 400 230.711 c S
250 28.637 m 300 115.238 250 86.371 300 57.504 c S
200 288.445 m 250 201.844 250 259.578 200 230.711 c S
200 808.059 m 150 894.664 200 865.793 150 836.926 c S
300 981.266 m 200 981.266 250 952.398 250 1010.133 c S
0 981.266 m 100 981.266 50 952.398 50 1010.133 c S
250 1067.867 m 200 981.266 200 1039 250 1010.133 c S
100 808.059 m 150 894.664 100 865.793 150 836.926 c S
50 1067.867 m 100 981.266 100 1039 50 1010.133 c S
350 548.254 m 300 634.855 350 605.988 300 577.121 c S
450 721.457 m 350 721.457 400 692.59 400 750.324 c S
150 721.457 m 250 721.457 200 692.59 200 750.324 c S
400 808.059 m 350 721.457 350 779.191 400 750.324 c S
250 548.254 m 300 634.855 250 605.988 300 577.121 c S
200 808.059 m 250 721.457 250 779.191 200 750.324 c S
500 288.445 m 450 375.047 500 346.18 450 317.312 c S
600 461.648 m 500 461.648 550 432.781 550 490.516 c S
300 461.648 m 400 461.648 350 432.781 350 490.516 c S
550 548.254 m 500 461.648 500 519.383 550 490.516 c S
400 288.445 m 450 375.047 400 346.18 450 317.312 c S
350 548.254 m 400 461.648 400 519.383 350 490.516 c S
650 28.637 m 600 115.238 650 86.371 600 57.504 c S
750 201.844 m 650 201.844 700 172.973 700 230.711 c S
450 201.844 m 550 201.844 500 172.973 500 230.711 c S
700 288.445 m 650 201.844 650 259.578 700 230.711 c S
550 28.637 m 600 115.238 550 86.371 600 57.504 c S
500 288.445 m 550 201.844 550 259.578 500 230.711 c S
500 808.059 m 450 894.664 500 865.793 450 836.926 c S
600 981.266 m 500 981.266 550 952.398 550 1010.133 c S
300 981.266 m 400 981.266 350 952.398 350 1010.133 c S
550 1067.867 m 500 981.266 500 1039 550 1010.133 c S
400 808.059 m 450 894.664 400 865.793 450 836.926 c S
350 1067.867 m 400 981.266 400 1039 350 1010.133 c S
650 548.254 m 600 634.855 650 605.988 600 577.121 c S
750 721.457 m 650 721.457 700 692.59 700 750.324 c S
450 721.457 m 550 721.457 500 692.59 500 750.324 c S
700 808.059 m 650 721.457 650 779.191 700 750.324 c S
550 548.254 m 600 634.855 550 605.988 600 577.121 c S
500 808.059 m 550 721.457 550 779.191 500 750.324 c S
800 288.445 m 750 375.047 800 346.18 750 317.312 c S
900 461.648 m 800 461.648 850 432.781 850 490.516 c S
600 461.648 m 700 461.648 650 432.781 650 490.516 c S
850 548.254 m 800 461.648 800 519.383 850 490.516 c S
700 288.445 m 750 375.047 700 346.18 750 317.312 c S
650 548.254 m 700 461.648 700 519.383 650 490.516 c S
950 28.637 m 900 115.238 950 86.371 900 57.504 c S
1050 201.844 m 950 201.844 1000 172.973 1000 230.711 c S
750 201.844 m 850 201.844 800 172.973 800 230.711 c S
1000 288.445 m 950 201.844 950 259.578 1000 230.711 c S
850 28.637 m 900 115.238 850 86.371 900 57.504 c S
800 288.445 m 850 201.844 850 259.578 800 230.711 c S
800 808.059 m 750 894.664 800 865.793 750 836.926 c S
900 981.266 m 800 981.266 850 952.398 850 1010.133 c S
600 981.266 m 700 981.266 650 952.398 650 1010.133 c S
850 1067.867 m 800 981.266 800 1039 850 1010.133 c S
700 808.059 m 750 894.664 700 865.793 750 836.926 c S
650 1067.867 m 700 981.266 700 1039 650 1010.133 c S
950 548.254 m 900 634.855 950 605.988 900 577.121 c S
1050 721.457 m 950 721.457 1000 692.59 1000 750.324 c S
750 721.457 m 850 721.457 800 692.59 800 750.324 c S
1000 808.059 m 950 721.457 950 779.191 1000 750.324 c S
850 548.254 m 900 634.855 850 605.988 900 577.121 c S
800 808.059 m 850 721.457 850 779.191 800 750.324 c S
1100 288.445 m 1050 375.047 1100 346.18 1050 317.312 c S
1200 461.648 m 1100 461.648 1150 432.781 1150 490.516 c S
900 461.648 m 1000 461.648 950 432.781 950 490.516 c S
1150 548.254 m 1100 461.648 1100 519.383 1150 490.516 c S
1000 288.445 m 1050 375.047 1000 346.18 1050 317.312 c S
950 548.254 m 1000 461.648 1000 519.383 950 490.516 c S
1250 28.637 m 1200 115.238 1250 86.371 1200 57.504 c S
1050 201.844 m 1150 201.844 1100 172.973 1100 230.711 c S
1150 28.637 m 1200 115.238 1150 86.371 1200 57.504 c S
1100 288.445 m 1150 201.844 1150 259.578 1100 230.711 c S
1100 808.059 m 1050 894.664 1100 865.793 1050 836.926 c S
1200 981.266 m 1100 981.266 1150 952.398 1150 1010.133 c S
900 981.266 m 1000 981.266 950 952.398 950 1010.133 c S
1150 1067.867 m 1100 981.266 1100 1039 1150 1010.133 c S
1000 808.059 m 1050 894.664 1000 865.793 1050 836.926 c S
950 1067.867 m 1000 981.266 1000 1039 950 1010.133 c S
1250 548.254 m 1200 634.855 1250 605.988 1200 577.121 c S
1050 721.457 m 1150 721.457 1100 692.59 1100 750.324 c S
1150 548.254 m 1200 634.855 1150 605.988 1200 577.121 c S
1100 808.059 m 1150 721.457 1150 779.191 1100 750.324 c S
1200 461.648 m 1300 461.648 1250 432.781 1250 490.516 c S
Q Q
showpage
%%Trailer
%%Trailer
cleartomark
countdictstack
exch sub { end } repeat
restore
%%EOF
