%!PS-Adobe-2.0 EPSF-2.0
%%BoundingBox: 0 0 2100 1400
%%HiResBoundingBox: 0.000000 0.000000 2100.000000 1400.000000
%%Creator: cairo 1.14.2 (http://cairographics.org)
%%CreationDate: Mon Sep  7 08:21:44 2015
%%DocumentData: Clean7Bit
%%LanguageLevel: 2
%%DocumentMedia: 741x494mm 2100 1400 0 () ()
%%EndComments
% EPSF created by ps2eps 1.68
%%BeginProlog
save
countdictstack
mark
newpath
/showpage {} def
/setpagedevice {pop} def
%%EndProlog
%%Page 1 1
%%BeginProlog
/languagelevel where
{ pop languagelevel } { 1 } ifelse
2 lt { /Helvetica findfont 12 scalefont setfont 50 500 moveto
  (This print job requires a PostScript Language Level 2 printer.) show
  showpage quit } if
/q { gsave } bind def
/Q { grestore } bind def
/cm { 6 array astore concat } bind def
/w { setlinewidth } bind def
/J { setlinecap } bind def
/j { setlinejoin } bind def
/M { setmiterlimit } bind def
/d { setdash } bind def
/m { moveto } bind def
/l { lineto } bind def
/c { curveto } bind def
/h { closepath } bind def
/re { exch dup neg 3 1 roll 5 3 roll moveto 0 rlineto
      0 exch rlineto 0 rlineto closepath } bind def
/S { stroke } bind def
/f { fill } bind def
/f* { eofill } bind def
/n { newpath } bind def
/W { clip } bind def
/W* { eoclip } bind def
/BT { } bind def
/ET { } bind def
/pdfmark where { pop globaldict /?pdfmark /exec load put }
    { globaldict begin /?pdfmark /pop load def /pdfmark
    /cleartomark load def end } ifelse
/BDC { mark 3 1 roll /BDC pdfmark } bind def
/EMC { mark /EMC pdfmark } bind def
/cairo_store_point { /cairo_point_y exch def /cairo_point_x exch def } def
/Tj { show currentpoint cairo_store_point } bind def
/TJ {
  {
    dup
    type /stringtype eq
    { show } { -0.001 mul 0 cairo_font_matrix dtransform rmoveto } ifelse
  } forall
  currentpoint cairo_store_point
} bind def
/cairo_selectfont { cairo_font_matrix aload pop pop pop 0 0 6 array astore
    cairo_font exch selectfont cairo_point_x cairo_point_y moveto } bind def
/Tf { pop /cairo_font exch def /cairo_font_matrix where
      { pop cairo_selectfont } if } bind def
/Td { matrix translate cairo_font_matrix matrix concatmatrix dup
      /cairo_font_matrix exch def dup 4 get exch 5 get cairo_store_point
      /cairo_font where { pop cairo_selectfont } if } bind def
/Tm { 2 copy 8 2 roll 6 array astore /cairo_font_matrix exch def
      cairo_store_point /cairo_font where { pop cairo_selectfont } if } bind def
/g { setgray } bind def
/rg { setrgbcolor } bind def
/d1 { setcachedevice } bind def
/cairo_set_page_size {
  % Change paper size, but only if different from previous paper size otherwise
  % duplex fails. PLRM specifies a tolerance of 5 pts when matching paper size
  % so we use the same when checking if the size changes.
  /setpagedevice where {
    pop currentpagedevice
    /PageSize known {
      2 copy
      currentpagedevice /PageSize get aload pop
      exch 4 1 roll
      sub abs 5 gt
      3 1 roll
      sub abs 5 gt
      or
    } {
      true
    } ifelse
    {
      2 array astore
      2 dict begin
        /PageSize exch def
        /ImagingBBox null def
      currentdict end
      setpagedevice
    } {
      pop pop
    } ifelse
  } {
    pop
  } ifelse
} def
%%EndProlog
%%BeginSetup
%%EndSetup
%%Page: 1 1
%%BeginPageSetup
%%PageMedia: 741x494mm
%%PageBoundingBox: 0 0 2100 1400
2100 1400 cairo_set_page_size
%%EndPageSetup
q 0 0 2100 1400 rectclip q
0.984314 g
0 0 2100 1400 rectfill
0.788235 g
1.875 w
0 J
1 j
[] 0.0 d
4 M 0 1400 2100 -1400 re S
0 g
2.5 w
1 J
87.5 1400 m 29.168 1341.668 0 1283.332 0 1225 c S
350 1312.5 m 291.668 1370.832 233.332 1400 175 1400 c S
262.5 1050 m 320.832 1108.332 350 1166.668 350 1225 c S
0 1137.5 m 58.332 1079.168 116.668 1050 175 1050 c S
87.5 1050 m 29.168 991.668 0 933.332 0 875 c S
350 962.5 m 291.668 1020.832 233.332 1050 175 1050 c S
262.5 700 m 320.832 758.332 350 816.668 350 875 c S
0 787.5 m 58.332 729.168 116.668 700 175 700 c S
87.5 700 m 29.168 641.668 0 583.332 0 525 c S
350 612.5 m 291.668 670.832 233.332 700 175 700 c S
262.5 350 m 320.832 408.332 350 466.668 350 525 c S
0 437.5 m 58.332 379.168 116.668 350 175 350 c S
87.5 350 m 29.168 291.668 0 233.332 0 175 c S
350 262.5 m 291.668 320.832 233.332 350 175 350 c S
262.5 0 m 320.832 58.332 350 116.668 350 175 c S
0 87.5 m 58.332 29.168 116.668 0 175 0 c S
437.5 1400 m 379.168 1341.668 350 1283.332 350 1225 c S
700 1312.5 m 641.668 1370.832 583.332 1400 525 1400 c S
612.5 1050 m 670.832 1108.332 700 1166.668 700 1225 c S
350 1137.5 m 408.332 1079.168 466.668 1050 525 1050 c S
437.5 1050 m 379.168 991.668 350 933.332 350 875 c S
700 962.5 m 641.668 1020.832 583.332 1050 525 1050 c S
612.5 700 m 670.832 758.332 700 816.668 700 875 c S
350 787.5 m 408.332 729.168 466.668 700 525 700 c S
437.5 700 m 379.168 641.668 350 583.332 350 525 c S
700 612.5 m 641.668 670.832 583.332 700 525 700 c S
612.5 350 m 670.832 408.332 700 466.668 700 525 c S
350 437.5 m 408.332 379.168 466.668 350 525 350 c S
437.5 350 m 379.168 291.668 350 233.332 350 175 c S
700 262.5 m 641.668 320.832 583.332 350 525 350 c S
612.5 0 m 670.832 58.332 700 116.668 700 175 c S
350 87.5 m 408.332 29.168 466.668 0 525 0 c S
787.5 1400 m 729.168 1341.668 700 1283.332 700 1225 c S
1050 1312.5 m 991.668 1370.832 933.332 1400 875 1400 c S
962.5 1050 m 1020.832 1108.332 1050 1166.668 1050 1225 c S
700 1137.5 m 758.332 1079.168 816.668 1050 875 1050 c S
787.5 1050 m 729.168 991.668 700 933.332 700 875 c S
1050 962.5 m 991.668 1020.832 933.332 1050 875 1050 c S
962.5 700 m 1020.832 758.332 1050 816.668 1050 875 c S
700 787.5 m 758.332 729.168 816.668 700 875 700 c S
787.5 700 m 729.168 641.668 700 583.332 700 525 c S
1050 612.5 m 991.668 670.832 933.332 700 875 700 c S
962.5 350 m 1020.832 408.332 1050 466.668 1050 525 c S
700 437.5 m 758.332 379.168 816.668 350 875 350 c S
787.5 350 m 729.168 291.668 700 233.332 700 175 c S
1050 262.5 m 991.668 320.832 933.332 350 875 350 c S
962.5 0 m 1020.832 58.332 1050 116.668 1050 175 c S
700 87.5 m 758.332 29.168 816.668 0 875 0 c S
1137.5 1400 m 1079.168 1341.668 1050 1283.332 1050 1225 c S
1400 1312.5 m 1341.668 1370.832 1283.332 1400 1225 1400 c S
1312.5 1050 m 1370.832 1108.332 1400 1166.668 1400 1225 c S
1050 1137.5 m 1108.332 1079.168 1166.668 1050 1225 1050 c S
1137.5 1050 m 1079.168 991.668 1050 933.332 1050 875 c S
1400 962.5 m 1341.668 1020.832 1283.332 1050 1225 1050 c S
1312.5 700 m 1370.832 758.332 1400 816.668 1400 875 c S
1050 787.5 m 1108.332 729.168 1166.668 700 1225 700 c S
1137.5 700 m 1079.168 641.668 1050 583.332 1050 525 c S
1400 612.5 m 1341.668 670.832 1283.332 700 1225 700 c S
1312.5 350 m 1370.832 408.332 1400 466.668 1400 525 c S
1050 437.5 m 1108.332 379.168 1166.668 350 1225 350 c S
1137.5 350 m 1079.168 291.668 1050 233.332 1050 175 c S
1400 262.5 m 1341.668 320.832 1283.332 350 1225 350 c S
1312.5 0 m 1370.832 58.332 1400 116.668 1400 175 c S
1050 87.5 m 1108.332 29.168 1166.668 0 1225 0 c S
1487.5 1400 m 1429.168 1341.668 1400 1283.332 1400 1225 c S
1750 1312.5 m 1691.668 1370.832 1633.332 1400 1575 1400 c S
1662.5 1050 m 1720.832 1108.332 1750 1166.668 1750 1225 c S
1400 1137.5 m 1458.332 1079.168 1516.668 1050 1575 1050 c S
1487.5 1050 m 1429.168 991.668 1400 933.332 1400 875 c S
1750 962.5 m 1691.668 1020.832 1633.332 1050 1575 1050 c S
1662.5 700 m 1720.832 758.332 1750 816.668 1750 875 c S
1400 787.5 m 1458.332 729.168 1516.668 700 1575 700 c S
1487.5 700 m 1429.168 641.668 1400 583.332 1400 525 c S
1750 612.5 m 1691.668 670.832 1633.332 700 1575 700 c S
1662.5 350 m 1720.832 408.332 1750 466.668 1750 525 c S
1400 437.5 m 1458.332 379.168 1516.668 350 1575 350 c S
1487.5 350 m 1429.168 291.668 1400 233.332 1400 175 c S
1750 262.5 m 1691.668 320.832 1633.332 350 1575 350 c S
1662.5 0 m 1720.832 58.332 1750 116.668 1750 175 c S
1400 87.5 m 1458.332 29.168 1516.668 0 1575 0 c S
1837.5 1400 m 1779.168 1341.668 1750 1283.332 1750 1225 c S
2100 1312.5 m 2041.668 1370.832 1983.332 1400 1925 1400 c S
2012.5 1050 m 2070.832 1108.332 2100 1166.668 2100 1225 c S
1750 1137.5 m 1808.332 1079.168 1866.668 1050 1925 1050 c S
1837.5 1050 m 1779.168 991.668 1750 933.332 1750 875 c S
2100 962.5 m 2041.668 1020.832 1983.332 1050 1925 1050 c S
2012.5 700 m 2070.832 758.332 2100 816.668 2100 875 c S
1750 787.5 m 1808.332 729.168 1866.668 700 1925 700 c S
1837.5 700 m 1779.168 641.668 1750 583.332 1750 525 c S
2100 612.5 m 2041.668 670.832 1983.332 700 1925 700 c S
2012.5 350 m 2070.832 408.332 2100 466.668 2100 525 c S
1750 437.5 m 1808.332 379.168 1866.668 350 1925 350 c S
1837.5 350 m 1779.168 291.668 1750 233.332 1750 175 c S
2100 262.5 m 2041.668 320.832 1983.332 350 1925 350 c S
2012.5 0 m 2070.832 58.332 2100 116.668 2100 175 c S
1750 87.5 m 1808.332 29.168 1866.668 0 1925 0 c S
Q Q
showpage
%%Trailer
%%Trailer
cleartomark
countdictstack
exch sub { end } repeat
restore
%%EOF
