%!PS-Adobe-2.0 EPSF-2.0
%%BoundingBox: 0 0 2100 1400
%%HiResBoundingBox: 0.000000 0.000000 2100.000000 1400.000000
%%Creator: cairo 1.14.2 (http://cairographics.org)
%%CreationDate: Mon Sep  7 08:21:44 2015
%%DocumentData: Clean7Bit
%%LanguageLevel: 2
%%DocumentMedia: 741x494mm 2100 1400 0 () ()
%%EndComments
% EPSF created by ps2eps 1.68
%%BeginProlog
save
countdictstack
mark
newpath
/showpage {} def
/setpagedevice {pop} def
%%EndProlog
%%Page 1 1
%%BeginProlog
/languagelevel where
{ pop languagelevel } { 1 } ifelse
2 lt { /Helvetica findfont 12 scalefont setfont 50 500 moveto
  (This print job requires a PostScript Language Level 2 printer.) show
  showpage quit } if
/q { gsave } bind def
/Q { grestore } bind def
/cm { 6 array astore concat } bind def
/w { setlinewidth } bind def
/J { setlinecap } bind def
/j { setlinejoin } bind def
/M { setmiterlimit } bind def
/d { setdash } bind def
/m { moveto } bind def
/l { lineto } bind def
/c { curveto } bind def
/h { closepath } bind def
/re { exch dup neg 3 1 roll 5 3 roll moveto 0 rlineto
      0 exch rlineto 0 rlineto closepath } bind def
/S { stroke } bind def
/f { fill } bind def
/f* { eofill } bind def
/n { newpath } bind def
/W { clip } bind def
/W* { eoclip } bind def
/BT { } bind def
/ET { } bind def
/pdfmark where { pop globaldict /?pdfmark /exec load put }
    { globaldict begin /?pdfmark /pop load def /pdfmark
    /cleartomark load def end } ifelse
/BDC { mark 3 1 roll /BDC pdfmark } bind def
/EMC { mark /EMC pdfmark } bind def
/cairo_store_point { /cairo_point_y exch def /cairo_point_x exch def } def
/Tj { show currentpoint cairo_store_point } bind def
/TJ {
  {
    dup
    type /stringtype eq
    { show } { -0.001 mul 0 cairo_font_matrix dtransform rmoveto } ifelse
  } forall
  currentpoint cairo_store_point
} bind def
/cairo_selectfont { cairo_font_matrix aload pop pop pop 0 0 6 array astore
    cairo_font exch selectfont cairo_point_x cairo_point_y moveto } bind def
/Tf { pop /cairo_font exch def /cairo_font_matrix where
      { pop cairo_selectfont } if } bind def
/Td { matrix translate cairo_font_matrix matrix concatmatrix dup
      /cairo_font_matrix exch def dup 4 get exch 5 get cairo_store_point
      /cairo_font where { pop cairo_selectfont } if } bind def
/Tm { 2 copy 8 2 roll 6 array astore /cairo_font_matrix exch def
      cairo_store_point /cairo_font where { pop cairo_selectfont } if } bind def
/g { setgray } bind def
/rg { setrgbcolor } bind def
/d1 { setcachedevice } bind def
/cairo_set_page_size {
  % Change paper size, but only if different from previous paper size otherwise
  % duplex fails. PLRM specifies a tolerance of 5 pts when matching paper size
  % so we use the same when checking if the size changes.
  /setpagedevice where {
    pop currentpagedevice
    /PageSize known {
      2 copy
      currentpagedevice /PageSize get aload pop
      exch 4 1 roll
      sub abs 5 gt
      3 1 roll
      sub abs 5 gt
      or
    } {
      true
    } ifelse
    {
      2 array astore
      2 dict begin
        /PageSize exch def
        /ImagingBBox null def
      currentdict end
      setpagedevice
    } {
      pop pop
    } ifelse
  } {
    pop
  } ifelse
} def
%%EndProlog
%%BeginSetup
%%EndSetup
%%Page: 1 1
%%BeginPageSetup
%%PageMedia: 741x494mm
%%PageBoundingBox: 0 0 2100 1400
2100 1400 cairo_set_page_size
%%EndPageSetup
q 0 0 2100 1400 rectclip q
0.984314 g
0 0 2100 1400 rectfill
0.788235 g
1.875 w
0 J
1 j
[] 0.0 d
4 M 0 1400 2100 -1400 re S
0 g
2.5 w
1 J
175 1312.5 m 87.5 1400 l 0 1400 l S
262.5 1225 m 350 1312.5 l 350 1400 l S
175 1137.5 m 262.5 1050 l 350 1050 l S
87.5 1225 m 0 1137.5 l 0 1050 l S
262.5 1225 m 350 1137.5 l 350 1050 l S
87.5 1225 m 0 1312.5 l 0 1400 l S
175 1137.5 m 87.5 1050 l 0 1050 l S
175 1312.5 m 262.5 1400 l 350 1400 l S
175 962.5 m 87.5 1050 l 0 1050 l S
262.5 875 m 350 962.5 l 350 1050 l S
175 787.5 m 262.5 700 l 350 700 l S
87.5 875 m 0 787.5 l 0 700 l S
262.5 875 m 350 787.5 l 350 700 l S
87.5 875 m 0 962.5 l 0 1050 l S
175 787.5 m 87.5 700 l 0 700 l S
175 962.5 m 262.5 1050 l 350 1050 l S
175 612.5 m 87.5 700 l 0 700 l S
262.5 525 m 350 612.5 l 350 700 l S
175 437.5 m 262.5 350 l 350 350 l S
87.5 525 m 0 437.5 l 0 350 l S
262.5 525 m 350 437.5 l 350 350 l S
87.5 525 m 0 612.5 l 0 700 l S
175 437.5 m 87.5 350 l 0 350 l S
175 612.5 m 262.5 700 l 350 700 l S
175 262.5 m 87.5 350 l 0 350 l S
262.5 175 m 350 262.5 l 350 350 l S
175 87.5 m 262.5 0 l 350 0 l S
87.5 175 m 0 87.5 l 0 0 l S
262.5 175 m 350 87.5 l 350 0 l S
87.5 175 m 0 262.5 l 0 350 l S
175 87.5 m 87.5 0 l 0 0 l S
175 262.5 m 262.5 350 l 350 350 l S
525 1312.5 m 437.5 1400 l 350 1400 l S
612.5 1225 m 700 1312.5 l 700 1400 l S
525 1137.5 m 612.5 1050 l 700 1050 l S
437.5 1225 m 350 1137.5 l 350 1050 l S
612.5 1225 m 700 1137.5 l 700 1050 l S
437.5 1225 m 350 1312.5 l 350 1400 l S
525 1137.5 m 437.5 1050 l 350 1050 l S
525 1312.5 m 612.5 1400 l 700 1400 l S
525 962.5 m 437.5 1050 l 350 1050 l S
612.5 875 m 700 962.5 l 700 1050 l S
525 787.5 m 612.5 700 l 700 700 l S
437.5 875 m 350 787.5 l 350 700 l S
612.5 875 m 700 787.5 l 700 700 l S
437.5 875 m 350 962.5 l 350 1050 l S
525 787.5 m 437.5 700 l 350 700 l S
525 962.5 m 612.5 1050 l 700 1050 l S
525 612.5 m 437.5 700 l 350 700 l S
612.5 525 m 700 612.5 l 700 700 l S
525 437.5 m 612.5 350 l 700 350 l S
437.5 525 m 350 437.5 l 350 350 l S
612.5 525 m 700 437.5 l 700 350 l S
437.5 525 m 350 612.5 l 350 700 l S
525 437.5 m 437.5 350 l 350 350 l S
525 612.5 m 612.5 700 l 700 700 l S
525 262.5 m 437.5 350 l 350 350 l S
612.5 175 m 700 262.5 l 700 350 l S
525 87.5 m 612.5 0 l 700 0 l S
437.5 175 m 350 87.5 l 350 0 l S
612.5 175 m 700 87.5 l 700 0 l S
437.5 175 m 350 262.5 l 350 350 l S
525 87.5 m 437.5 0 l 350 0 l S
525 262.5 m 612.5 350 l 700 350 l S
875 1312.5 m 787.5 1400 l 700 1400 l S
962.5 1225 m 1050 1312.5 l 1050 1400 l S
875 1137.5 m 962.5 1050 l 1050 1050 l S
787.5 1225 m 700 1137.5 l 700 1050 l S
962.5 1225 m 1050 1137.5 l 1050 1050 l S
787.5 1225 m 700 1312.5 l 700 1400 l S
875 1137.5 m 787.5 1050 l 700 1050 l S
875 1312.5 m 962.5 1400 l 1050 1400 l S
875 962.5 m 787.5 1050 l 700 1050 l S
962.5 875 m 1050 962.5 l 1050 1050 l S
875 787.5 m 962.5 700 l 1050 700 l S
787.5 875 m 700 787.5 l 700 700 l S
962.5 875 m 1050 787.5 l 1050 700 l S
787.5 875 m 700 962.5 l 700 1050 l S
875 787.5 m 787.5 700 l 700 700 l S
875 962.5 m 962.5 1050 l 1050 1050 l S
875 612.5 m 787.5 700 l 700 700 l S
962.5 525 m 1050 612.5 l 1050 700 l S
875 437.5 m 962.5 350 l 1050 350 l S
787.5 525 m 700 437.5 l 700 350 l S
962.5 525 m 1050 437.5 l 1050 350 l S
787.5 525 m 700 612.5 l 700 700 l S
875 437.5 m 787.5 350 l 700 350 l S
875 612.5 m 962.5 700 l 1050 700 l S
875 262.5 m 787.5 350 l 700 350 l S
962.5 175 m 1050 262.5 l 1050 350 l S
875 87.5 m 962.5 0 l 1050 0 l S
787.5 175 m 700 87.5 l 700 0 l S
962.5 175 m 1050 87.5 l 1050 0 l S
787.5 175 m 700 262.5 l 700 350 l S
875 87.5 m 787.5 0 l 700 0 l S
875 262.5 m 962.5 350 l 1050 350 l S
1225 1312.5 m 1137.5 1400 l 1050 1400 l S
1312.5 1225 m 1400 1312.5 l 1400 1400 l S
1225 1137.5 m 1312.5 1050 l 1400 1050 l S
1137.5 1225 m 1050 1137.5 l 1050 1050 l S
1312.5 1225 m 1400 1137.5 l 1400 1050 l S
1137.5 1225 m 1050 1312.5 l 1050 1400 l S
1225 1137.5 m 1137.5 1050 l 1050 1050 l S
1225 1312.5 m 1312.5 1400 l 1400 1400 l S
1225 962.5 m 1137.5 1050 l 1050 1050 l S
1312.5 875 m 1400 962.5 l 1400 1050 l S
1225 787.5 m 1312.5 700 l 1400 700 l S
1137.5 875 m 1050 787.5 l 1050 700 l S
1312.5 875 m 1400 787.5 l 1400 700 l S
1137.5 875 m 1050 962.5 l 1050 1050 l S
1225 787.5 m 1137.5 700 l 1050 700 l S
1225 962.5 m 1312.5 1050 l 1400 1050 l S
1225 612.5 m 1137.5 700 l 1050 700 l S
1312.5 525 m 1400 612.5 l 1400 700 l S
1225 437.5 m 1312.5 350 l 1400 350 l S
1137.5 525 m 1050 437.5 l 1050 350 l S
1312.5 525 m 1400 437.5 l 1400 350 l S
1137.5 525 m 1050 612.5 l 1050 700 l S
1225 437.5 m 1137.5 350 l 1050 350 l S
1225 612.5 m 1312.5 700 l 1400 700 l S
1225 262.5 m 1137.5 350 l 1050 350 l S
1312.5 175 m 1400 262.5 l 1400 350 l S
1225 87.5 m 1312.5 0 l 1400 0 l S
1137.5 175 m 1050 87.5 l 1050 0 l S
1312.5 175 m 1400 87.5 l 1400 0 l S
1137.5 175 m 1050 262.5 l 1050 350 l S
1225 87.5 m 1137.5 0 l 1050 0 l S
1225 262.5 m 1312.5 350 l 1400 350 l S
1575 1312.5 m 1487.5 1400 l 1400 1400 l S
1662.5 1225 m 1750 1312.5 l 1750 1400 l S
1575 1137.5 m 1662.5 1050 l 1750 1050 l S
1487.5 1225 m 1400 1137.5 l 1400 1050 l S
1662.5 1225 m 1750 1137.5 l 1750 1050 l S
1487.5 1225 m 1400 1312.5 l 1400 1400 l S
1575 1137.5 m 1487.5 1050 l 1400 1050 l S
1575 1312.5 m 1662.5 1400 l 1750 1400 l S
1575 962.5 m 1487.5 1050 l 1400 1050 l S
1662.5 875 m 1750 962.5 l 1750 1050 l S
1575 787.5 m 1662.5 700 l 1750 700 l S
1487.5 875 m 1400 787.5 l 1400 700 l S
1662.5 875 m 1750 787.5 l 1750 700 l S
1487.5 875 m 1400 962.5 l 1400 1050 l S
1575 787.5 m 1487.5 700 l 1400 700 l S
1575 962.5 m 1662.5 1050 l 1750 1050 l S
1575 612.5 m 1487.5 700 l 1400 700 l S
1662.5 525 m 1750 612.5 l 1750 700 l S
1575 437.5 m 1662.5 350 l 1750 350 l S
1487.5 525 m 1400 437.5 l 1400 350 l S
1662.5 525 m 1750 437.5 l 1750 350 l S
1487.5 525 m 1400 612.5 l 1400 700 l S
1575 437.5 m 1487.5 350 l 1400 350 l S
1575 612.5 m 1662.5 700 l 1750 700 l S
1575 262.5 m 1487.5 350 l 1400 350 l S
1662.5 175 m 1750 262.5 l 1750 350 l S
1575 87.5 m 1662.5 0 l 1750 0 l S
1487.5 175 m 1400 87.5 l 1400 0 l S
1662.5 175 m 1750 87.5 l 1750 0 l S
1487.5 175 m 1400 262.5 l 1400 350 l S
1575 87.5 m 1487.5 0 l 1400 0 l S
1575 262.5 m 1662.5 350 l 1750 350 l S
1925 1312.5 m 1837.5 1400 l 1750 1400 l S
2012.5 1225 m 2100 1312.5 l 2100 1400 l S
1925 1137.5 m 2012.5 1050 l 2100 1050 l S
1837.5 1225 m 1750 1137.5 l 1750 1050 l S
2012.5 1225 m 2100 1137.5 l 2100 1050 l S
1837.5 1225 m 1750 1312.5 l 1750 1400 l S
1925 1137.5 m 1837.5 1050 l 1750 1050 l S
1925 1312.5 m 2012.5 1400 l 2100 1400 l S
1925 962.5 m 1837.5 1050 l 1750 1050 l S
2012.5 875 m 2100 962.5 l 2100 1050 l S
1925 787.5 m 2012.5 700 l 2100 700 l S
1837.5 875 m 1750 787.5 l 1750 700 l S
2012.5 875 m 2100 787.5 l 2100 700 l S
1837.5 875 m 1750 962.5 l 1750 1050 l S
1925 787.5 m 1837.5 700 l 1750 700 l S
1925 962.5 m 2012.5 1050 l 2100 1050 l S
1925 612.5 m 1837.5 700 l 1750 700 l S
2012.5 525 m 2100 612.5 l 2100 700 l S
1925 437.5 m 2012.5 350 l 2100 350 l S
1837.5 525 m 1750 437.5 l 1750 350 l S
2012.5 525 m 2100 437.5 l 2100 350 l S
1837.5 525 m 1750 612.5 l 1750 700 l S
1925 437.5 m 1837.5 350 l 1750 350 l S
1925 612.5 m 2012.5 700 l 2100 700 l S
1925 262.5 m 1837.5 350 l 1750 350 l S
2012.5 175 m 2100 262.5 l 2100 350 l S
1925 87.5 m 2012.5 0 l 2100 0 l S
1837.5 175 m 1750 87.5 l 1750 0 l S
2012.5 175 m 2100 87.5 l 2100 0 l S
1837.5 175 m 1750 262.5 l 1750 350 l S
1925 87.5 m 1837.5 0 l 1750 0 l S
1925 262.5 m 2012.5 350 l 2100 350 l S
Q Q
showpage
%%Trailer
%%Trailer
cleartomark
countdictstack
exch sub { end } repeat
restore
%%EOF
