%!PS-Adobe-2.0 EPSF-2.0
%%BoundingBox: 0 0 2100 1400
%%HiResBoundingBox: 0.000000 0.000000 2100.000000 1400.000000
%%Creator: cairo 1.14.2 (http://cairographics.org)
%%CreationDate: Mon Sep  7 08:21:44 2015
%%DocumentData: Clean7Bit
%%LanguageLevel: 2
%%DocumentMedia: 741x494mm 2100 1400 0 () ()
%%EndComments
% EPSF created by ps2eps 1.68
%%BeginProlog
save
countdictstack
mark
newpath
/showpage {} def
/setpagedevice {pop} def
%%EndProlog
%%Page 1 1
%%BeginProlog
/languagelevel where
{ pop languagelevel } { 1 } ifelse
2 lt { /Helvetica findfont 12 scalefont setfont 50 500 moveto
  (This print job requires a PostScript Language Level 2 printer.) show
  showpage quit } if
/q { gsave } bind def
/Q { grestore } bind def
/cm { 6 array astore concat } bind def
/w { setlinewidth } bind def
/J { setlinecap } bind def
/j { setlinejoin } bind def
/M { setmiterlimit } bind def
/d { setdash } bind def
/m { moveto } bind def
/l { lineto } bind def
/c { curveto } bind def
/h { closepath } bind def
/re { exch dup neg 3 1 roll 5 3 roll moveto 0 rlineto
      0 exch rlineto 0 rlineto closepath } bind def
/S { stroke } bind def
/f { fill } bind def
/f* { eofill } bind def
/n { newpath } bind def
/W { clip } bind def
/W* { eoclip } bind def
/BT { } bind def
/ET { } bind def
/pdfmark where { pop globaldict /?pdfmark /exec load put }
    { globaldict begin /?pdfmark /pop load def /pdfmark
    /cleartomark load def end } ifelse
/BDC { mark 3 1 roll /BDC pdfmark } bind def
/EMC { mark /EMC pdfmark } bind def
/cairo_store_point { /cairo_point_y exch def /cairo_point_x exch def } def
/Tj { show currentpoint cairo_store_point } bind def
/TJ {
  {
    dup
    type /stringtype eq
    { show } { -0.001 mul 0 cairo_font_matrix dtransform rmoveto } ifelse
  } forall
  currentpoint cairo_store_point
} bind def
/cairo_selectfont { cairo_font_matrix aload pop pop pop 0 0 6 array astore
    cairo_font exch selectfont cairo_point_x cairo_point_y moveto } bind def
/Tf { pop /cairo_font exch def /cairo_font_matrix where
      { pop cairo_selectfont } if } bind def
/Td { matrix translate cairo_font_matrix matrix concatmatrix dup
      /cairo_font_matrix exch def dup 4 get exch 5 get cairo_store_point
      /cairo_font where { pop cairo_selectfont } if } bind def
/Tm { 2 copy 8 2 roll 6 array astore /cairo_font_matrix exch def
      cairo_store_point /cairo_font where { pop cairo_selectfont } if } bind def
/g { setgray } bind def
/rg { setrgbcolor } bind def
/d1 { setcachedevice } bind def
/cairo_set_page_size {
  % Change paper size, but only if different from previous paper size otherwise
  % duplex fails. PLRM specifies a tolerance of 5 pts when matching paper size
  % so we use the same when checking if the size changes.
  /setpagedevice where {
    pop currentpagedevice
    /PageSize known {
      2 copy
      currentpagedevice /PageSize get aload pop
      exch 4 1 roll
      sub abs 5 gt
      3 1 roll
      sub abs 5 gt
      or
    } {
      true
    } ifelse
    {
      2 array astore
      2 dict begin
        /PageSize exch def
        /ImagingBBox null def
      currentdict end
      setpagedevice
    } {
      pop pop
    } ifelse
  } {
    pop
  } ifelse
} def
%%EndProlog
%%BeginSetup
%%EndSetup
%%Page: 1 1
%%BeginPageSetup
%%PageMedia: 741x494mm
%%PageBoundingBox: 0 0 2100 1400
2100 1400 cairo_set_page_size
%%EndPageSetup
q 0 0 2100 1400 rectclip q
0.984314 g
0 0 2100 1400 rectfill
0.788235 g
1.875 w
0 J
1 j
[] 0.0 d
4 M 0 1400 2100 -1400 re S
0 g
2.5 w
1 J
175 1400 m 97.223 1361.109 77.777 1322.223 116.668 1283.332 c S
350 1225 m 311.109 1302.777 272.223 1322.223 233.332 1283.332 c S
175 1050 m 252.777 1088.891 272.223 1127.777 233.332 1166.668 c S
0 1225 m 38.891 1147.223 77.777 1127.777 116.668 1166.668 c S
350 1225 m 311.109 1147.223 272.223 1127.777 233.332 1166.668 c S
0 1225 m 38.891 1302.777 77.777 1322.223 116.668 1283.332 c S
175 1050 m 97.223 1088.891 77.777 1127.777 116.668 1166.668 c S
175 1400 m 252.777 1361.109 272.223 1322.223 233.332 1283.332 c S
175 1050 m 97.223 1011.109 77.777 972.223 116.668 933.332 c S
350 875 m 311.109 952.777 272.223 972.223 233.332 933.332 c S
175 700 m 252.777 738.891 272.223 777.777 233.332 816.668 c S
0 875 m 38.891 797.223 77.777 777.777 116.668 816.668 c S
350 875 m 311.109 797.223 272.223 777.777 233.332 816.668 c S
0 875 m 38.891 952.777 77.777 972.223 116.668 933.332 c S
175 700 m 97.223 738.891 77.777 777.777 116.668 816.668 c S
175 1050 m 252.777 1011.109 272.223 972.223 233.332 933.332 c S
175 700 m 97.223 661.109 77.777 622.223 116.668 583.332 c S
350 525 m 311.109 602.777 272.223 622.223 233.332 583.332 c S
175 350 m 252.777 388.891 272.223 427.777 233.332 466.668 c S
0 525 m 38.891 447.223 77.777 427.777 116.668 466.668 c S
350 525 m 311.109 447.223 272.223 427.777 233.332 466.668 c S
0 525 m 38.891 602.777 77.777 622.223 116.668 583.332 c S
175 350 m 97.223 388.891 77.777 427.777 116.668 466.668 c S
175 700 m 252.777 661.109 272.223 622.223 233.332 583.332 c S
175 350 m 97.223 311.109 77.777 272.223 116.668 233.332 c S
350 175 m 311.109 252.777 272.223 272.223 233.332 233.332 c S
175 0 m 252.777 38.891 272.223 77.777 233.332 116.668 c S
0 175 m 38.891 97.223 77.777 77.777 116.668 116.668 c S
350 175 m 311.109 97.223 272.223 77.777 233.332 116.668 c S
0 175 m 38.891 252.777 77.777 272.223 116.668 233.332 c S
175 0 m 97.223 38.891 77.777 77.777 116.668 116.668 c S
175 350 m 252.777 311.109 272.223 272.223 233.332 233.332 c S
525 1400 m 447.223 1361.109 427.777 1322.223 466.668 1283.332 c S
700 1225 m 661.109 1302.777 622.223 1322.223 583.332 1283.332 c S
525 1050 m 602.777 1088.891 622.223 1127.777 583.332 1166.668 c S
350 1225 m 388.891 1147.223 427.777 1127.777 466.668 1166.668 c S
700 1225 m 661.109 1147.223 622.223 1127.777 583.332 1166.668 c S
350 1225 m 388.891 1302.777 427.777 1322.223 466.668 1283.332 c S
525 1050 m 447.223 1088.891 427.777 1127.777 466.668 1166.668 c S
525 1400 m 602.777 1361.109 622.223 1322.223 583.332 1283.332 c S
525 1050 m 447.223 1011.109 427.777 972.223 466.668 933.332 c S
700 875 m 661.109 952.777 622.223 972.223 583.332 933.332 c S
525 700 m 602.777 738.891 622.223 777.777 583.332 816.668 c S
350 875 m 388.891 797.223 427.777 777.777 466.668 816.668 c S
700 875 m 661.109 797.223 622.223 777.777 583.332 816.668 c S
350 875 m 388.891 952.777 427.777 972.223 466.668 933.332 c S
525 700 m 447.223 738.891 427.777 777.777 466.668 816.668 c S
525 1050 m 602.777 1011.109 622.223 972.223 583.332 933.332 c S
525 700 m 447.223 661.109 427.777 622.223 466.668 583.332 c S
700 525 m 661.109 602.777 622.223 622.223 583.332 583.332 c S
525 350 m 602.777 388.891 622.223 427.777 583.332 466.668 c S
350 525 m 388.891 447.223 427.777 427.777 466.668 466.668 c S
700 525 m 661.109 447.223 622.223 427.777 583.332 466.668 c S
350 525 m 388.891 602.777 427.777 622.223 466.668 583.332 c S
525 350 m 447.223 388.891 427.777 427.777 466.668 466.668 c S
525 700 m 602.777 661.109 622.223 622.223 583.332 583.332 c S
525 350 m 447.223 311.109 427.777 272.223 466.668 233.332 c S
700 175 m 661.109 252.777 622.223 272.223 583.332 233.332 c S
525 0 m 602.777 38.891 622.223 77.777 583.332 116.668 c S
350 175 m 388.891 97.223 427.777 77.777 466.668 116.668 c S
700 175 m 661.109 97.223 622.223 77.777 583.332 116.668 c S
350 175 m 388.891 252.777 427.777 272.223 466.668 233.332 c S
525 0 m 447.223 38.891 427.777 77.777 466.668 116.668 c S
525 350 m 602.777 311.109 622.223 272.223 583.332 233.332 c S
875 1400 m 797.223 1361.109 777.777 1322.223 816.668 1283.332 c S
1050 1225 m 1011.109 1302.777 972.223 1322.223 933.332 1283.332 c S
875 1050 m 952.777 1088.891 972.223 1127.777 933.332 1166.668 c S
700 1225 m 738.891 1147.223 777.777 1127.777 816.668 1166.668 c S
1050 1225 m 1011.109 1147.223 972.223 1127.777 933.332 1166.668 c S
700 1225 m 738.891 1302.777 777.777 1322.223 816.668 1283.332 c S
875 1050 m 797.223 1088.891 777.777 1127.777 816.668 1166.668 c S
875 1400 m 952.777 1361.109 972.223 1322.223 933.332 1283.332 c S
875 1050 m 797.223 1011.109 777.777 972.223 816.668 933.332 c S
1050 875 m 1011.109 952.777 972.223 972.223 933.332 933.332 c S
875 700 m 952.777 738.891 972.223 777.777 933.332 816.668 c S
700 875 m 738.891 797.223 777.777 777.777 816.668 816.668 c S
1050 875 m 1011.109 797.223 972.223 777.777 933.332 816.668 c S
700 875 m 738.891 952.777 777.777 972.223 816.668 933.332 c S
875 700 m 797.223 738.891 777.777 777.777 816.668 816.668 c S
875 1050 m 952.777 1011.109 972.223 972.223 933.332 933.332 c S
875 700 m 797.223 661.109 777.777 622.223 816.668 583.332 c S
1050 525 m 1011.109 602.777 972.223 622.223 933.332 583.332 c S
875 350 m 952.777 388.891 972.223 427.777 933.332 466.668 c S
700 525 m 738.891 447.223 777.777 427.777 816.668 466.668 c S
1050 525 m 1011.109 447.223 972.223 427.777 933.332 466.668 c S
700 525 m 738.891 602.777 777.777 622.223 816.668 583.332 c S
875 350 m 797.223 388.891 777.777 427.777 816.668 466.668 c S
875 700 m 952.777 661.109 972.223 622.223 933.332 583.332 c S
875 350 m 797.223 311.109 777.777 272.223 816.668 233.332 c S
1050 175 m 1011.109 252.777 972.223 272.223 933.332 233.332 c S
875 0 m 952.777 38.891 972.223 77.777 933.332 116.668 c S
700 175 m 738.891 97.223 777.777 77.777 816.668 116.668 c S
1050 175 m 1011.109 97.223 972.223 77.777 933.332 116.668 c S
700 175 m 738.891 252.777 777.777 272.223 816.668 233.332 c S
875 0 m 797.223 38.891 777.777 77.777 816.668 116.668 c S
875 350 m 952.777 311.109 972.223 272.223 933.332 233.332 c S
1225 1400 m 1147.223 1361.109 1127.777 1322.223 1166.668 1283.332 c S
1400 1225 m 1361.109 1302.777 1322.223 1322.223 1283.332 1283.332 c S
1225 1050 m 1302.777 1088.891 1322.223 1127.777 1283.332 1166.668 c S
1050 1225 m 1088.891 1147.223 1127.777 1127.777 1166.668 1166.668 c S
1400 1225 m 1361.109 1147.223 1322.223 1127.777 1283.332 1166.668 c S
1050 1225 m 1088.891 1302.777 1127.777 1322.223 1166.668 1283.332 c S
1225 1050 m 1147.223 1088.891 1127.777 1127.777 1166.668 1166.668 c S
1225 1400 m 1302.777 1361.109 1322.223 1322.223 1283.332 1283.332 c S
1225 1050 m 1147.223 1011.109 1127.777 972.223 1166.668 933.332 c S
1400 875 m 1361.109 952.777 1322.223 972.223 1283.332 933.332 c S
1225 700 m 1302.777 738.891 1322.223 777.777 1283.332 816.668 c S
1050 875 m 1088.891 797.223 1127.777 777.777 1166.668 816.668 c S
1400 875 m 1361.109 797.223 1322.223 777.777 1283.332 816.668 c S
1050 875 m 1088.891 952.777 1127.777 972.223 1166.668 933.332 c S
1225 700 m 1147.223 738.891 1127.777 777.777 1166.668 816.668 c S
1225 1050 m 1302.777 1011.109 1322.223 972.223 1283.332 933.332 c S
1225 700 m 1147.223 661.109 1127.777 622.223 1166.668 583.332 c S
1400 525 m 1361.109 602.777 1322.223 622.223 1283.332 583.332 c S
1225 350 m 1302.777 388.891 1322.223 427.777 1283.332 466.668 c S
1050 525 m 1088.891 447.223 1127.777 427.777 1166.668 466.668 c S
1400 525 m 1361.109 447.223 1322.223 427.777 1283.332 466.668 c S
1050 525 m 1088.891 602.777 1127.777 622.223 1166.668 583.332 c S
1225 350 m 1147.223 388.891 1127.777 427.777 1166.668 466.668 c S
1225 700 m 1302.777 661.109 1322.223 622.223 1283.332 583.332 c S
1225 350 m 1147.223 311.109 1127.777 272.223 1166.668 233.332 c S
1400 175 m 1361.109 252.777 1322.223 272.223 1283.332 233.332 c S
1225 0 m 1302.777 38.891 1322.223 77.777 1283.332 116.668 c S
1050 175 m 1088.891 97.223 1127.777 77.777 1166.668 116.668 c S
1400 175 m 1361.109 97.223 1322.223 77.777 1283.332 116.668 c S
1050 175 m 1088.891 252.777 1127.777 272.223 1166.668 233.332 c S
1225 0 m 1147.223 38.891 1127.777 77.777 1166.668 116.668 c S
1225 350 m 1302.777 311.109 1322.223 272.223 1283.332 233.332 c S
1575 1400 m 1497.223 1361.109 1477.777 1322.223 1516.668 1283.332 c S
1750 1225 m 1711.109 1302.777 1672.223 1322.223 1633.332 1283.332 c S
1575 1050 m 1652.777 1088.891 1672.223 1127.777 1633.332 1166.668 c S
1400 1225 m 1438.891 1147.223 1477.777 1127.777 1516.668 1166.668 c S
1750 1225 m 1711.109 1147.223 1672.223 1127.777 1633.332 1166.668 c S
1400 1225 m 1438.891 1302.777 1477.777 1322.223 1516.668 1283.332 c S
1575 1050 m 1497.223 1088.891 1477.777 1127.777 1516.668 1166.668 c S
1575 1400 m 1652.777 1361.109 1672.223 1322.223 1633.332 1283.332 c S
1575 1050 m 1497.223 1011.109 1477.777 972.223 1516.668 933.332 c S
1750 875 m 1711.109 952.777 1672.223 972.223 1633.332 933.332 c S
1575 700 m 1652.777 738.891 1672.223 777.777 1633.332 816.668 c S
1400 875 m 1438.891 797.223 1477.777 777.777 1516.668 816.668 c S
1750 875 m 1711.109 797.223 1672.223 777.777 1633.332 816.668 c S
1400 875 m 1438.891 952.777 1477.777 972.223 1516.668 933.332 c S
1575 700 m 1497.223 738.891 1477.777 777.777 1516.668 816.668 c S
1575 1050 m 1652.777 1011.109 1672.223 972.223 1633.332 933.332 c S
1575 700 m 1497.223 661.109 1477.777 622.223 1516.668 583.332 c S
1750 525 m 1711.109 602.777 1672.223 622.223 1633.332 583.332 c S
1575 350 m 1652.777 388.891 1672.223 427.777 1633.332 466.668 c S
1400 525 m 1438.891 447.223 1477.777 427.777 1516.668 466.668 c S
1750 525 m 1711.109 447.223 1672.223 427.777 1633.332 466.668 c S
1400 525 m 1438.891 602.777 1477.777 622.223 1516.668 583.332 c S
1575 350 m 1497.223 388.891 1477.777 427.777 1516.668 466.668 c S
1575 700 m 1652.777 661.109 1672.223 622.223 1633.332 583.332 c S
1575 350 m 1497.223 311.109 1477.777 272.223 1516.668 233.332 c S
1750 175 m 1711.109 252.777 1672.223 272.223 1633.332 233.332 c S
1575 0 m 1652.777 38.891 1672.223 77.777 1633.332 116.668 c S
1400 175 m 1438.891 97.223 1477.777 77.777 1516.668 116.668 c S
1750 175 m 1711.109 97.223 1672.223 77.777 1633.332 116.668 c S
1400 175 m 1438.891 252.777 1477.777 272.223 1516.668 233.332 c S
1575 0 m 1497.223 38.891 1477.777 77.777 1516.668 116.668 c S
1575 350 m 1652.777 311.109 1672.223 272.223 1633.332 233.332 c S
1925 1400 m 1847.223 1361.109 1827.777 1322.223 1866.668 1283.332 c S
2100 1225 m 2061.109 1302.777 2022.223 1322.223 1983.332 1283.332 c S
1925 1050 m 2002.777 1088.891 2022.223 1127.777 1983.332 1166.668 c S
1750 1225 m 1788.891 1147.223 1827.777 1127.777 1866.668 1166.668 c S
2100 1225 m 2061.109 1147.223 2022.223 1127.777 1983.332 1166.668 c S
1750 1225 m 1788.891 1302.777 1827.777 1322.223 1866.668 1283.332 c S
1925 1050 m 1847.223 1088.891 1827.777 1127.777 1866.668 1166.668 c S
1925 1400 m 2002.777 1361.109 2022.223 1322.223 1983.332 1283.332 c S
1925 1050 m 1847.223 1011.109 1827.777 972.223 1866.668 933.332 c S
2100 875 m 2061.109 952.777 2022.223 972.223 1983.332 933.332 c S
1925 700 m 2002.777 738.891 2022.223 777.777 1983.332 816.668 c S
1750 875 m 1788.891 797.223 1827.777 777.777 1866.668 816.668 c S
2100 875 m 2061.109 797.223 2022.223 777.777 1983.332 816.668 c S
1750 875 m 1788.891 952.777 1827.777 972.223 1866.668 933.332 c S
1925 700 m 1847.223 738.891 1827.777 777.777 1866.668 816.668 c S
1925 1050 m 2002.777 1011.109 2022.223 972.223 1983.332 933.332 c S
1925 700 m 1847.223 661.109 1827.777 622.223 1866.668 583.332 c S
2100 525 m 2061.109 602.777 2022.223 622.223 1983.332 583.332 c S
1925 350 m 2002.777 388.891 2022.223 427.777 1983.332 466.668 c S
1750 525 m 1788.891 447.223 1827.777 427.777 1866.668 466.668 c S
2100 525 m 2061.109 447.223 2022.223 427.777 1983.332 466.668 c S
1750 525 m 1788.891 602.777 1827.777 622.223 1866.668 583.332 c S
1925 350 m 1847.223 388.891 1827.777 427.777 1866.668 466.668 c S
1925 700 m 2002.777 661.109 2022.223 622.223 1983.332 583.332 c S
1925 350 m 1847.223 311.109 1827.777 272.223 1866.668 233.332 c S
2100 175 m 2061.109 252.777 2022.223 272.223 1983.332 233.332 c S
1925 0 m 2002.777 38.891 2022.223 77.777 1983.332 116.668 c S
1750 175 m 1788.891 97.223 1827.777 77.777 1866.668 116.668 c S
2100 175 m 2061.109 97.223 2022.223 77.777 1983.332 116.668 c S
1750 175 m 1788.891 252.777 1827.777 272.223 1866.668 233.332 c S
1925 0 m 1847.223 38.891 1827.777 77.777 1866.668 116.668 c S
1925 350 m 2002.777 311.109 2022.223 272.223 1983.332 233.332 c S
Q Q
showpage
%%Trailer
%%Trailer
cleartomark
countdictstack
exch sub { end } repeat
restore
%%EOF
