%!PS-Adobe-2.0 EPSF-2.0
%%BoundingBox: 0 0 1200 1039
%%HiResBoundingBox: 0.000000 0.000000 1200.000000 1039.000000
%%Creator: cairo 1.14.2 (http://cairographics.org)
%%CreationDate: Mon Sep  7 08:21:45 2015
%%DocumentData: Clean7Bit
%%LanguageLevel: 2
%%DocumentMedia: 423x367mm 1200 1039 0 () ()
%%EndComments
% EPSF created by ps2eps 1.68
%%BeginProlog
save
countdictstack
mark
newpath
/showpage {} def
/setpagedevice {pop} def
%%EndProlog
%%Page 1 1
%%BeginProlog
/languagelevel where
{ pop languagelevel } { 1 } ifelse
2 lt { /Helvetica findfont 12 scalefont setfont 50 500 moveto
  (This print job requires a PostScript Language Level 2 printer.) show
  showpage quit } if
/q { gsave } bind def
/Q { grestore } bind def
/cm { 6 array astore concat } bind def
/w { setlinewidth } bind def
/J { setlinecap } bind def
/j { setlinejoin } bind def
/M { setmiterlimit } bind def
/d { setdash } bind def
/m { moveto } bind def
/l { lineto } bind def
/c { curveto } bind def
/h { closepath } bind def
/re { exch dup neg 3 1 roll 5 3 roll moveto 0 rlineto
      0 exch rlineto 0 rlineto closepath } bind def
/S { stroke } bind def
/f { fill } bind def
/f* { eofill } bind def
/n { newpath } bind def
/W { clip } bind def
/W* { eoclip } bind def
/BT { } bind def
/ET { } bind def
/pdfmark where { pop globaldict /?pdfmark /exec load put }
    { globaldict begin /?pdfmark /pop load def /pdfmark
    /cleartomark load def end } ifelse
/BDC { mark 3 1 roll /BDC pdfmark } bind def
/EMC { mark /EMC pdfmark } bind def
/cairo_store_point { /cairo_point_y exch def /cairo_point_x exch def } def
/Tj { show currentpoint cairo_store_point } bind def
/TJ {
  {
    dup
    type /stringtype eq
    { show } { -0.001 mul 0 cairo_font_matrix dtransform rmoveto } ifelse
  } forall
  currentpoint cairo_store_point
} bind def
/cairo_selectfont { cairo_font_matrix aload pop pop pop 0 0 6 array astore
    cairo_font exch selectfont cairo_point_x cairo_point_y moveto } bind def
/Tf { pop /cairo_font exch def /cairo_font_matrix where
      { pop cairo_selectfont } if } bind def
/Td { matrix translate cairo_font_matrix matrix concatmatrix dup
      /cairo_font_matrix exch def dup 4 get exch 5 get cairo_store_point
      /cairo_font where { pop cairo_selectfont } if } bind def
/Tm { 2 copy 8 2 roll 6 array astore /cairo_font_matrix exch def
      cairo_store_point /cairo_font where { pop cairo_selectfont } if } bind def
/g { setgray } bind def
/rg { setrgbcolor } bind def
/d1 { setcachedevice } bind def
/cairo_set_page_size {
  % Change paper size, but only if different from previous paper size otherwise
  % duplex fails. PLRM specifies a tolerance of 5 pts when matching paper size
  % so we use the same when checking if the size changes.
  /setpagedevice where {
    pop currentpagedevice
    /PageSize known {
      2 copy
      currentpagedevice /PageSize get aload pop
      exch 4 1 roll
      sub abs 5 gt
      3 1 roll
      sub abs 5 gt
      or
    } {
      true
    } ifelse
    {
      2 array astore
      2 dict begin
        /PageSize exch def
        /ImagingBBox null def
      currentdict end
      setpagedevice
    } {
      pop pop
    } ifelse
  } {
    pop
  } ifelse
} def
%%EndProlog
%%BeginSetup
%%EndSetup
%%Page: 1 1
%%BeginPageSetup
%%PageMedia: 423x367mm
%%PageBoundingBox: 0 0 1200 1039
1200 1039 cairo_set_page_size
%%EndPageSetup
q 0 0 1200 1039 rectclip q
0.984314 g
0 0 1200 1039 rectfill
0.788235 g
1.875 w
0 J
1 j
[] 0.0 d
4 M 0 1039 1200 -1039.23 re S
0 g
2.5 w
1 J
0 519.383 m -150 663.723 -50 605.988 -100 692.59 c S
0 519.383 m -200 461.648 -100 519.383 -200 519.383 c S
-150 259.578 m 50 317.312 -50 259.578 50 259.578 c S
0 519.383 m -50 317.312 -50 432.781 -100 346.18 c S
150 259.578 m 0 403.914 100 346.18 50 432.781 c S
150 259.578 m -50 201.844 50 259.578 -50 259.578 c S
0 -0.23 m 50 201.844 50 86.371 100 172.973 c S
0 -0.23 m 200 57.504 100 -0.23 200 -0.23 c S
150 259.578 m 100 57.504 100 172.973 50 86.371 c S
300 -0.23 m 150 144.105 250 86.371 200 172.973 c S
0 1039 m -200 981.266 -100 1039 -200 1039 c S
-150 779.191 m 50 836.926 -50 779.191 50 779.191 c S
0 1039 m -50 836.926 -50 952.398 -100 865.793 c S
150 779.191 m 0 923.531 100 865.793 50 952.398 c S
150 779.191 m -50 721.457 50 779.191 -50 779.191 c S
0 519.383 m 50 721.457 50 605.988 100 692.59 c S
0 519.383 m 200 577.121 100 519.383 200 519.383 c S
150 779.191 m 100 577.121 100 692.59 50 605.988 c S
300 519.383 m 150 663.723 250 605.988 200 692.59 c S
300 519.383 m 100 461.648 200 519.383 100 519.383 c S
150 259.578 m 200 461.648 200 346.18 250 432.781 c S
0 519.383 m 150 375.047 50 432.781 100 346.18 c S
150 259.578 m 350 317.312 250 259.578 350 259.578 c S
300 519.383 m 250 317.312 250 432.781 200 346.18 c S
450 259.578 m 300 403.914 400 346.18 350 432.781 c S
450 259.578 m 250 201.844 350 259.578 250 259.578 c S
300 -0.23 m 350 201.844 350 86.371 400 172.973 c S
150 259.578 m 300 115.238 200 172.973 250 86.371 c S
300 -0.23 m 500 57.504 400 -0.23 500 -0.23 c S
450 259.578 m 400 57.504 400 172.973 350 86.371 c S
600 -0.23 m 450 144.105 550 86.371 500 172.973 c S
300 1039 m 100 981.266 200 1039 100 1039 c S
150 779.191 m 200 981.266 200 865.793 250 952.398 c S
0 1039 m 150 894.664 50 952.398 100 865.793 c S
150 779.191 m 350 836.926 250 779.191 350 779.191 c S
300 1039 m 250 836.926 250 952.398 200 865.793 c S
450 779.191 m 300 923.531 400 865.793 350 952.398 c S
450 779.191 m 250 721.457 350 779.191 250 779.191 c S
300 519.383 m 350 721.457 350 605.988 400 692.59 c S
150 779.191 m 300 634.855 200 692.59 250 605.988 c S
300 519.383 m 500 577.121 400 519.383 500 519.383 c S
450 779.191 m 400 577.121 400 692.59 350 605.988 c S
600 519.383 m 450 663.723 550 605.988 500 692.59 c S
600 519.383 m 400 461.648 500 519.383 400 519.383 c S
450 259.578 m 500 461.648 500 346.18 550 432.781 c S
300 519.383 m 450 375.047 350 432.781 400 346.18 c S
450 259.578 m 650 317.312 550 259.578 650 259.578 c S
600 519.383 m 550 317.312 550 432.781 500 346.18 c S
750 259.578 m 600 403.914 700 346.18 650 432.781 c S
750 259.578 m 550 201.844 650 259.578 550 259.578 c S
600 -0.23 m 650 201.844 650 86.371 700 172.973 c S
450 259.578 m 600 115.238 500 172.973 550 86.371 c S
600 -0.23 m 800 57.504 700 -0.23 800 -0.23 c S
750 259.578 m 700 57.504 700 172.973 650 86.371 c S
900 -0.23 m 750 144.105 850 86.371 800 172.973 c S
600 1039 m 400 981.266 500 1039 400 1039 c S
450 779.191 m 500 981.266 500 865.793 550 952.398 c S
300 1039 m 450 894.664 350 952.398 400 865.793 c S
450 779.191 m 650 836.926 550 779.191 650 779.191 c S
600 1039 m 550 836.926 550 952.398 500 865.793 c S
750 779.191 m 600 923.531 700 865.793 650 952.398 c S
750 779.191 m 550 721.457 650 779.191 550 779.191 c S
600 519.383 m 650 721.457 650 605.988 700 692.59 c S
450 779.191 m 600 634.855 500 692.59 550 605.988 c S
600 519.383 m 800 577.121 700 519.383 800 519.383 c S
750 779.191 m 700 577.121 700 692.59 650 605.988 c S
900 519.383 m 750 663.723 850 605.988 800 692.59 c S
900 519.383 m 700 461.648 800 519.383 700 519.383 c S
750 259.578 m 800 461.648 800 346.18 850 432.781 c S
600 519.383 m 750 375.047 650 432.781 700 346.18 c S
750 259.578 m 950 317.312 850 259.578 950 259.578 c S
900 519.383 m 850 317.312 850 432.781 800 346.18 c S
1050 259.578 m 900 403.914 1000 346.18 950 432.781 c S
1050 259.578 m 850 201.844 950 259.578 850 259.578 c S
900 -0.23 m 950 201.844 950 86.371 1000 172.973 c S
750 259.578 m 900 115.238 800 172.973 850 86.371 c S
900 -0.23 m 1100 57.504 1000 -0.23 1100 -0.23 c S
1050 259.578 m 1000 57.504 1000 172.973 950 86.371 c S
1200 -0.23 m 1050 144.105 1150 86.371 1100 172.973 c S
900 1039 m 700 981.266 800 1039 700 1039 c S
750 779.191 m 800 981.266 800 865.793 850 952.398 c S
600 1039 m 750 894.664 650 952.398 700 865.793 c S
750 779.191 m 950 836.926 850 779.191 950 779.191 c S
900 1039 m 850 836.926 850 952.398 800 865.793 c S
1050 779.191 m 900 923.531 1000 865.793 950 952.398 c S
1050 779.191 m 850 721.457 950 779.191 850 779.191 c S
900 519.383 m 950 721.457 950 605.988 1000 692.59 c S
750 779.191 m 900 634.855 800 692.59 850 605.988 c S
900 519.383 m 1100 577.121 1000 519.383 1100 519.383 c S
1050 779.191 m 1000 577.121 1000 692.59 950 605.988 c S
1200 519.383 m 1050 663.723 1150 605.988 1100 692.59 c S
1200 519.383 m 1000 461.648 1100 519.383 1000 519.383 c S
1050 259.578 m 1100 461.648 1100 346.18 1150 432.781 c S
900 519.383 m 1050 375.047 950 432.781 1000 346.18 c S
1050 259.578 m 1250 317.312 1150 259.578 1250 259.578 c S
1200 519.383 m 1150 317.312 1150 432.781 1100 346.18 c S
1350 259.578 m 1150 201.844 1250 259.578 1150 259.578 c S
1200 -0.23 m 1250 201.844 1250 86.371 1300 172.973 c S
1050 259.578 m 1200 115.238 1100 172.973 1150 86.371 c S
1200 -0.23 m 1400 57.504 1300 -0.23 1400 -0.23 c S
1200 1039 m 1000 981.266 1100 1039 1000 1039 c S
1050 779.191 m 1100 981.266 1100 865.793 1150 952.398 c S
900 1039 m 1050 894.664 950 952.398 1000 865.793 c S
1050 779.191 m 1250 836.926 1150 779.191 1250 779.191 c S
1200 1039 m 1150 836.926 1150 952.398 1100 865.793 c S
1350 779.191 m 1150 721.457 1250 779.191 1150 779.191 c S
1200 519.383 m 1250 721.457 1250 605.988 1300 692.59 c S
1050 779.191 m 1200 634.855 1100 692.59 1150 605.988 c S
1200 519.383 m 1400 577.121 1300 519.383 1400 519.383 c S
1200 519.383 m 1350 375.047 1250 432.781 1300 346.18 c S
Q Q
showpage
%%Trailer
%%Trailer
cleartomark
countdictstack
exch sub { end } repeat
restore
%%EOF
