%!PS-Adobe-2.0 EPSF-2.0
%%BoundingBox: 0 0 1200 1039
%%HiResBoundingBox: 0.000000 0.000000 1200.000000 1039.000000
%%Creator: cairo 1.14.2 (http://cairographics.org)
%%CreationDate: Mon Sep  7 08:21:45 2015
%%DocumentData: Clean7Bit
%%LanguageLevel: 2
%%DocumentMedia: 423x367mm 1200 1039 0 () ()
%%EndComments
% EPSF created by ps2eps 1.68
%%BeginProlog
save
countdictstack
mark
newpath
/showpage {} def
/setpagedevice {pop} def
%%EndProlog
%%Page 1 1
%%BeginProlog
/languagelevel where
{ pop languagelevel } { 1 } ifelse
2 lt { /Helvetica findfont 12 scalefont setfont 50 500 moveto
  (This print job requires a PostScript Language Level 2 printer.) show
  showpage quit } if
/q { gsave } bind def
/Q { grestore } bind def
/cm { 6 array astore concat } bind def
/w { setlinewidth } bind def
/J { setlinecap } bind def
/j { setlinejoin } bind def
/M { setmiterlimit } bind def
/d { setdash } bind def
/m { moveto } bind def
/l { lineto } bind def
/c { curveto } bind def
/h { closepath } bind def
/re { exch dup neg 3 1 roll 5 3 roll moveto 0 rlineto
      0 exch rlineto 0 rlineto closepath } bind def
/S { stroke } bind def
/f { fill } bind def
/f* { eofill } bind def
/n { newpath } bind def
/W { clip } bind def
/W* { eoclip } bind def
/BT { } bind def
/ET { } bind def
/pdfmark where { pop globaldict /?pdfmark /exec load put }
    { globaldict begin /?pdfmark /pop load def /pdfmark
    /cleartomark load def end } ifelse
/BDC { mark 3 1 roll /BDC pdfmark } bind def
/EMC { mark /EMC pdfmark } bind def
/cairo_store_point { /cairo_point_y exch def /cairo_point_x exch def } def
/Tj { show currentpoint cairo_store_point } bind def
/TJ {
  {
    dup
    type /stringtype eq
    { show } { -0.001 mul 0 cairo_font_matrix dtransform rmoveto } ifelse
  } forall
  currentpoint cairo_store_point
} bind def
/cairo_selectfont { cairo_font_matrix aload pop pop pop 0 0 6 array astore
    cairo_font exch selectfont cairo_point_x cairo_point_y moveto } bind def
/Tf { pop /cairo_font exch def /cairo_font_matrix where
      { pop cairo_selectfont } if } bind def
/Td { matrix translate cairo_font_matrix matrix concatmatrix dup
      /cairo_font_matrix exch def dup 4 get exch 5 get cairo_store_point
      /cairo_font where { pop cairo_selectfont } if } bind def
/Tm { 2 copy 8 2 roll 6 array astore /cairo_font_matrix exch def
      cairo_store_point /cairo_font where { pop cairo_selectfont } if } bind def
/g { setgray } bind def
/rg { setrgbcolor } bind def
/d1 { setcachedevice } bind def
/cairo_set_page_size {
  % Change paper size, but only if different from previous paper size otherwise
  % duplex fails. PLRM specifies a tolerance of 5 pts when matching paper size
  % so we use the same when checking if the size changes.
  /setpagedevice where {
    pop currentpagedevice
    /PageSize known {
      2 copy
      currentpagedevice /PageSize get aload pop
      exch 4 1 roll
      sub abs 5 gt
      3 1 roll
      sub abs 5 gt
      or
    } {
      true
    } ifelse
    {
      2 array astore
      2 dict begin
        /PageSize exch def
        /ImagingBBox null def
      currentdict end
      setpagedevice
    } {
      pop pop
    } ifelse
  } {
    pop
  } ifelse
} def
%%EndProlog
%%BeginSetup
%%EndSetup
%%Page: 1 1
%%BeginPageSetup
%%PageMedia: 423x367mm
%%PageBoundingBox: 0 0 1200 1039
1200 1039 cairo_set_page_size
%%EndPageSetup
q 0 0 1200 1039 rectclip q
0.984314 g
0 0 1200 1039 rectfill
0.788235 g
1.875 w
0 J
1 j
[] 0.0 d
4 M 0 1039 1200 -1039.23 re S
0 g
2.5 w
1 J
100 346.18 m 133.332 288.445 133.332 269.199 100 288.445 c S
50 259.578 m 116.668 259.578 133.332 269.199 100 288.445 c S
-50 432.781 m -16.668 490.516 0 500.141 0 461.648 c S
50 432.781 m 16.668 490.516 0 500.141 0 461.648 c S
100 172.973 m 133.332 230.711 133.332 249.953 100 230.711 c S
-50 86.371 m -16.668 28.637 0 19.016 0 57.504 c S
50 259.578 m 116.668 259.578 133.332 249.953 100 230.711 c S
50 86.371 m 16.668 28.637 0 19.016 0 57.504 c S
250 86.371 m 283.332 28.637 283.332 9.391 250 28.637 c S
200 -0.23 m 266.668 -0.23 283.332 9.391 250 28.637 c S
100 172.973 m 133.332 230.711 150 240.332 150 201.844 c S
100 -0.23 m 33.332 -0.23 16.668 9.391 50 28.637 c S
200 172.973 m 166.668 230.711 150 240.332 150 201.844 c S
50 86.371 m 16.668 28.637 16.668 9.391 50 28.637 c S
100 865.793 m 133.332 808.059 133.332 788.816 100 808.059 c S
50 779.191 m 116.668 779.191 133.332 788.816 100 808.059 c S
-50 952.398 m -16.668 1010.133 0 1019.754 0 981.266 c S
50 952.398 m 16.668 1010.133 0 1019.754 0 981.266 c S
100 692.59 m 133.332 750.324 133.332 769.57 100 750.324 c S
-50 605.988 m -16.668 548.254 0 538.629 0 577.121 c S
50 779.191 m 116.668 779.191 133.332 769.57 100 750.324 c S
50 605.988 m 16.668 548.254 0 538.629 0 577.121 c S
250 605.988 m 283.332 548.254 283.332 529.008 250 548.254 c S
200 519.383 m 266.668 519.383 283.332 529.008 250 548.254 c S
100 692.59 m 133.332 750.324 150 759.949 150 721.457 c S
100 519.383 m 33.332 519.383 16.668 529.008 50 548.254 c S
200 692.59 m 166.668 750.324 150 759.949 150 721.457 c S
50 605.988 m 16.668 548.254 16.668 529.008 50 548.254 c S
100 519.383 m 33.332 519.383 16.668 509.762 50 490.516 c S
50 432.781 m 16.668 490.516 16.668 509.762 50 490.516 c S
250 432.781 m 283.332 490.516 283.332 509.762 250 490.516 c S
100 346.18 m 133.332 288.445 150 278.82 150 317.312 c S
200 519.383 m 266.668 519.383 283.332 509.762 250 490.516 c S
200 346.18 m 166.668 288.445 150 278.82 150 317.312 c S
400 346.18 m 433.332 288.445 433.332 269.199 400 288.445 c S
350 259.578 m 416.668 259.578 433.332 269.199 400 288.445 c S
250 432.781 m 283.332 490.516 300 500.141 300 461.648 c S
250 259.578 m 183.332 259.578 166.668 269.199 200 288.445 c S
350 432.781 m 316.668 490.516 300 500.141 300 461.648 c S
200 346.18 m 166.668 288.445 166.668 269.199 200 288.445 c S
250 259.578 m 183.332 259.578 166.668 249.953 200 230.711 c S
200 172.973 m 166.668 230.711 166.668 249.953 200 230.711 c S
400 172.973 m 433.332 230.711 433.332 249.953 400 230.711 c S
250 86.371 m 283.332 28.637 300 19.016 300 57.504 c S
350 259.578 m 416.668 259.578 433.332 249.953 400 230.711 c S
350 86.371 m 316.668 28.637 300 19.016 300 57.504 c S
550 86.371 m 583.332 28.637 583.332 9.391 550 28.637 c S
500 -0.23 m 566.668 -0.23 583.332 9.391 550 28.637 c S
400 172.973 m 433.332 230.711 450 240.332 450 201.844 c S
400 -0.23 m 333.332 -0.23 316.668 9.391 350 28.637 c S
500 172.973 m 466.668 230.711 450 240.332 450 201.844 c S
350 86.371 m 316.668 28.637 316.668 9.391 350 28.637 c S
100 1039 m 33.332 1039 16.668 1029.379 50 1010.133 c S
50 952.398 m 16.668 1010.133 16.668 1029.379 50 1010.133 c S
250 952.398 m 283.332 1010.133 283.332 1029.379 250 1010.133 c S
100 865.793 m 133.332 808.059 150 798.438 150 836.926 c S
200 1039 m 266.668 1039 283.332 1029.379 250 1010.133 c S
200 865.793 m 166.668 808.059 150 798.438 150 836.926 c S
400 865.793 m 433.332 808.059 433.332 788.816 400 808.059 c S
350 779.191 m 416.668 779.191 433.332 788.816 400 808.059 c S
250 952.398 m 283.332 1010.133 300 1019.754 300 981.266 c S
250 779.191 m 183.332 779.191 166.668 788.816 200 808.059 c S
350 952.398 m 316.668 1010.133 300 1019.754 300 981.266 c S
200 865.793 m 166.668 808.059 166.668 788.816 200 808.059 c S
250 779.191 m 183.332 779.191 166.668 769.57 200 750.324 c S
200 692.59 m 166.668 750.324 166.668 769.57 200 750.324 c S
400 692.59 m 433.332 750.324 433.332 769.57 400 750.324 c S
250 605.988 m 283.332 548.254 300 538.629 300 577.121 c S
350 779.191 m 416.668 779.191 433.332 769.57 400 750.324 c S
350 605.988 m 316.668 548.254 300 538.629 300 577.121 c S
550 605.988 m 583.332 548.254 583.332 529.008 550 548.254 c S
500 519.383 m 566.668 519.383 583.332 529.008 550 548.254 c S
400 692.59 m 433.332 750.324 450 759.949 450 721.457 c S
400 519.383 m 333.332 519.383 316.668 529.008 350 548.254 c S
500 692.59 m 466.668 750.324 450 759.949 450 721.457 c S
350 605.988 m 316.668 548.254 316.668 529.008 350 548.254 c S
400 519.383 m 333.332 519.383 316.668 509.762 350 490.516 c S
350 432.781 m 316.668 490.516 316.668 509.762 350 490.516 c S
550 432.781 m 583.332 490.516 583.332 509.762 550 490.516 c S
400 346.18 m 433.332 288.445 450 278.82 450 317.312 c S
500 519.383 m 566.668 519.383 583.332 509.762 550 490.516 c S
500 346.18 m 466.668 288.445 450 278.82 450 317.312 c S
700 346.18 m 733.332 288.445 733.332 269.199 700 288.445 c S
650 259.578 m 716.668 259.578 733.332 269.199 700 288.445 c S
550 432.781 m 583.332 490.516 600 500.141 600 461.648 c S
550 259.578 m 483.332 259.578 466.668 269.199 500 288.445 c S
650 432.781 m 616.668 490.516 600 500.141 600 461.648 c S
500 346.18 m 466.668 288.445 466.668 269.199 500 288.445 c S
550 259.578 m 483.332 259.578 466.668 249.953 500 230.711 c S
500 172.973 m 466.668 230.711 466.668 249.953 500 230.711 c S
700 172.973 m 733.332 230.711 733.332 249.953 700 230.711 c S
550 86.371 m 583.332 28.637 600 19.016 600 57.504 c S
650 259.578 m 716.668 259.578 733.332 249.953 700 230.711 c S
650 86.371 m 616.668 28.637 600 19.016 600 57.504 c S
850 86.371 m 883.332 28.637 883.332 9.391 850 28.637 c S
800 -0.23 m 866.668 -0.23 883.332 9.391 850 28.637 c S
700 172.973 m 733.332 230.711 750 240.332 750 201.844 c S
700 -0.23 m 633.332 -0.23 616.668 9.391 650 28.637 c S
800 172.973 m 766.668 230.711 750 240.332 750 201.844 c S
650 86.371 m 616.668 28.637 616.668 9.391 650 28.637 c S
400 1039 m 333.332 1039 316.668 1029.379 350 1010.133 c S
350 952.398 m 316.668 1010.133 316.668 1029.379 350 1010.133 c S
550 952.398 m 583.332 1010.133 583.332 1029.379 550 1010.133 c S
400 865.793 m 433.332 808.059 450 798.438 450 836.926 c S
500 1039 m 566.668 1039 583.332 1029.379 550 1010.133 c S
500 865.793 m 466.668 808.059 450 798.438 450 836.926 c S
700 865.793 m 733.332 808.059 733.332 788.816 700 808.059 c S
650 779.191 m 716.668 779.191 733.332 788.816 700 808.059 c S
550 952.398 m 583.332 1010.133 600 1019.754 600 981.266 c S
550 779.191 m 483.332 779.191 466.668 788.816 500 808.059 c S
650 952.398 m 616.668 1010.133 600 1019.754 600 981.266 c S
500 865.793 m 466.668 808.059 466.668 788.816 500 808.059 c S
550 779.191 m 483.332 779.191 466.668 769.57 500 750.324 c S
500 692.59 m 466.668 750.324 466.668 769.57 500 750.324 c S
700 692.59 m 733.332 750.324 733.332 769.57 700 750.324 c S
550 605.988 m 583.332 548.254 600 538.629 600 577.121 c S
650 779.191 m 716.668 779.191 733.332 769.57 700 750.324 c S
650 605.988 m 616.668 548.254 600 538.629 600 577.121 c S
850 605.988 m 883.332 548.254 883.332 529.008 850 548.254 c S
800 519.383 m 866.668 519.383 883.332 529.008 850 548.254 c S
700 692.59 m 733.332 750.324 750 759.949 750 721.457 c S
700 519.383 m 633.332 519.383 616.668 529.008 650 548.254 c S
800 692.59 m 766.668 750.324 750 759.949 750 721.457 c S
650 605.988 m 616.668 548.254 616.668 529.008 650 548.254 c S
700 519.383 m 633.332 519.383 616.668 509.762 650 490.516 c S
650 432.781 m 616.668 490.516 616.668 509.762 650 490.516 c S
850 432.781 m 883.332 490.516 883.332 509.762 850 490.516 c S
700 346.18 m 733.332 288.445 750 278.82 750 317.312 c S
800 519.383 m 866.668 519.383 883.332 509.762 850 490.516 c S
800 346.18 m 766.668 288.445 750 278.82 750 317.312 c S
1000 346.18 m 1033.332 288.445 1033.332 269.199 1000 288.445 c S
950 259.578 m 1016.668 259.578 1033.332 269.199 1000 288.445 c S
850 432.781 m 883.332 490.516 900 500.141 900 461.648 c S
850 259.578 m 783.332 259.578 766.668 269.199 800 288.445 c S
950 432.781 m 916.668 490.516 900 500.141 900 461.648 c S
800 346.18 m 766.668 288.445 766.668 269.199 800 288.445 c S
850 259.578 m 783.332 259.578 766.668 249.953 800 230.711 c S
800 172.973 m 766.668 230.711 766.668 249.953 800 230.711 c S
1000 172.973 m 1033.332 230.711 1033.332 249.953 1000 230.711 c S
850 86.371 m 883.332 28.637 900 19.016 900 57.504 c S
950 259.578 m 1016.668 259.578 1033.332 249.953 1000 230.711 c S
950 86.371 m 916.668 28.637 900 19.016 900 57.504 c S
1150 86.371 m 1183.332 28.637 1183.332 9.391 1150 28.637 c S
1100 -0.23 m 1166.668 -0.23 1183.332 9.391 1150 28.637 c S
1000 172.973 m 1033.332 230.711 1050 240.332 1050 201.844 c S
1000 -0.23 m 933.332 -0.23 916.668 9.391 950 28.637 c S
1100 172.973 m 1066.668 230.711 1050 240.332 1050 201.844 c S
950 86.371 m 916.668 28.637 916.668 9.391 950 28.637 c S
700 1039 m 633.332 1039 616.668 1029.379 650 1010.133 c S
650 952.398 m 616.668 1010.133 616.668 1029.379 650 1010.133 c S
850 952.398 m 883.332 1010.133 883.332 1029.379 850 1010.133 c S
700 865.793 m 733.332 808.059 750 798.438 750 836.926 c S
800 1039 m 866.668 1039 883.332 1029.379 850 1010.133 c S
800 865.793 m 766.668 808.059 750 798.438 750 836.926 c S
1000 865.793 m 1033.332 808.059 1033.332 788.816 1000 808.059 c S
950 779.191 m 1016.668 779.191 1033.332 788.816 1000 808.059 c S
850 952.398 m 883.332 1010.133 900 1019.754 900 981.266 c S
850 779.191 m 783.332 779.191 766.668 788.816 800 808.059 c S
950 952.398 m 916.668 1010.133 900 1019.754 900 981.266 c S
800 865.793 m 766.668 808.059 766.668 788.816 800 808.059 c S
850 779.191 m 783.332 779.191 766.668 769.57 800 750.324 c S
800 692.59 m 766.668 750.324 766.668 769.57 800 750.324 c S
1000 692.59 m 1033.332 750.324 1033.332 769.57 1000 750.324 c S
850 605.988 m 883.332 548.254 900 538.629 900 577.121 c S
950 779.191 m 1016.668 779.191 1033.332 769.57 1000 750.324 c S
950 605.988 m 916.668 548.254 900 538.629 900 577.121 c S
1150 605.988 m 1183.332 548.254 1183.332 529.008 1150 548.254 c S
1100 519.383 m 1166.668 519.383 1183.332 529.008 1150 548.254 c S
1000 692.59 m 1033.332 750.324 1050 759.949 1050 721.457 c S
1000 519.383 m 933.332 519.383 916.668 529.008 950 548.254 c S
1100 692.59 m 1066.668 750.324 1050 759.949 1050 721.457 c S
950 605.988 m 916.668 548.254 916.668 529.008 950 548.254 c S
1000 519.383 m 933.332 519.383 916.668 509.762 950 490.516 c S
950 432.781 m 916.668 490.516 916.668 509.762 950 490.516 c S
1150 432.781 m 1183.332 490.516 1183.332 509.762 1150 490.516 c S
1000 346.18 m 1033.332 288.445 1050 278.82 1050 317.312 c S
1100 519.383 m 1166.668 519.383 1183.332 509.762 1150 490.516 c S
1100 346.18 m 1066.668 288.445 1050 278.82 1050 317.312 c S
1150 432.781 m 1183.332 490.516 1200 500.141 1200 461.648 c S
1150 259.578 m 1083.332 259.578 1066.668 269.199 1100 288.445 c S
1250 432.781 m 1216.668 490.516 1200 500.141 1200 461.648 c S
1100 346.18 m 1066.668 288.445 1066.668 269.199 1100 288.445 c S
1150 259.578 m 1083.332 259.578 1066.668 249.953 1100 230.711 c S
1100 172.973 m 1066.668 230.711 1066.668 249.953 1100 230.711 c S
1150 86.371 m 1183.332 28.637 1200 19.016 1200 57.504 c S
1250 86.371 m 1216.668 28.637 1200 19.016 1200 57.504 c S
1000 1039 m 933.332 1039 916.668 1029.379 950 1010.133 c S
950 952.398 m 916.668 1010.133 916.668 1029.379 950 1010.133 c S
1150 952.398 m 1183.332 1010.133 1183.332 1029.379 1150 1010.133 c S
1000 865.793 m 1033.332 808.059 1050 798.438 1050 836.926 c S
1100 1039 m 1166.668 1039 1183.332 1029.379 1150 1010.133 c S
1100 865.793 m 1066.668 808.059 1050 798.438 1050 836.926 c S
1150 952.398 m 1183.332 1010.133 1200 1019.754 1200 981.266 c S
1150 779.191 m 1083.332 779.191 1066.668 788.816 1100 808.059 c S
1250 952.398 m 1216.668 1010.133 1200 1019.754 1200 981.266 c S
1100 865.793 m 1066.668 808.059 1066.668 788.816 1100 808.059 c S
1150 779.191 m 1083.332 779.191 1066.668 769.57 1100 750.324 c S
1100 692.59 m 1066.668 750.324 1066.668 769.57 1100 750.324 c S
1150 605.988 m 1183.332 548.254 1200 538.629 1200 577.121 c S
1250 605.988 m 1216.668 548.254 1200 538.629 1200 577.121 c S
Q Q
showpage
%%Trailer
%%Trailer
cleartomark
countdictstack
exch sub { end } repeat
restore
%%EOF
