%!PS-Adobe-2.0 EPSF-2.0
%%BoundingBox: 0 0 1200 1039
%%HiResBoundingBox: 0.000000 0.000000 1200.000000 1039.000000
%%Creator: cairo 1.14.2 (http://cairographics.org)
%%CreationDate: Mon Sep  7 08:21:45 2015
%%DocumentData: Clean7Bit
%%LanguageLevel: 2
%%DocumentMedia: 423x367mm 1200 1039 0 () ()
%%EndComments
% EPSF created by ps2eps 1.68
%%BeginProlog
save
countdictstack
mark
newpath
/showpage {} def
/setpagedevice {pop} def
%%EndProlog
%%Page 1 1
%%BeginProlog
/languagelevel where
{ pop languagelevel } { 1 } ifelse
2 lt { /Helvetica findfont 12 scalefont setfont 50 500 moveto
  (This print job requires a PostScript Language Level 2 printer.) show
  showpage quit } if
/q { gsave } bind def
/Q { grestore } bind def
/cm { 6 array astore concat } bind def
/w { setlinewidth } bind def
/J { setlinecap } bind def
/j { setlinejoin } bind def
/M { setmiterlimit } bind def
/d { setdash } bind def
/m { moveto } bind def
/l { lineto } bind def
/c { curveto } bind def
/h { closepath } bind def
/re { exch dup neg 3 1 roll 5 3 roll moveto 0 rlineto
      0 exch rlineto 0 rlineto closepath } bind def
/S { stroke } bind def
/f { fill } bind def
/f* { eofill } bind def
/n { newpath } bind def
/W { clip } bind def
/W* { eoclip } bind def
/BT { } bind def
/ET { } bind def
/pdfmark where { pop globaldict /?pdfmark /exec load put }
    { globaldict begin /?pdfmark /pop load def /pdfmark
    /cleartomark load def end } ifelse
/BDC { mark 3 1 roll /BDC pdfmark } bind def
/EMC { mark /EMC pdfmark } bind def
/cairo_store_point { /cairo_point_y exch def /cairo_point_x exch def } def
/Tj { show currentpoint cairo_store_point } bind def
/TJ {
  {
    dup
    type /stringtype eq
    { show } { -0.001 mul 0 cairo_font_matrix dtransform rmoveto } ifelse
  } forall
  currentpoint cairo_store_point
} bind def
/cairo_selectfont { cairo_font_matrix aload pop pop pop 0 0 6 array astore
    cairo_font exch selectfont cairo_point_x cairo_point_y moveto } bind def
/Tf { pop /cairo_font exch def /cairo_font_matrix where
      { pop cairo_selectfont } if } bind def
/Td { matrix translate cairo_font_matrix matrix concatmatrix dup
      /cairo_font_matrix exch def dup 4 get exch 5 get cairo_store_point
      /cairo_font where { pop cairo_selectfont } if } bind def
/Tm { 2 copy 8 2 roll 6 array astore /cairo_font_matrix exch def
      cairo_store_point /cairo_font where { pop cairo_selectfont } if } bind def
/g { setgray } bind def
/rg { setrgbcolor } bind def
/d1 { setcachedevice } bind def
/cairo_set_page_size {
  % Change paper size, but only if different from previous paper size otherwise
  % duplex fails. PLRM specifies a tolerance of 5 pts when matching paper size
  % so we use the same when checking if the size changes.
  /setpagedevice where {
    pop currentpagedevice
    /PageSize known {
      2 copy
      currentpagedevice /PageSize get aload pop
      exch 4 1 roll
      sub abs 5 gt
      3 1 roll
      sub abs 5 gt
      or
    } {
      true
    } ifelse
    {
      2 array astore
      2 dict begin
        /PageSize exch def
        /ImagingBBox null def
      currentdict end
      setpagedevice
    } {
      pop pop
    } ifelse
  } {
    pop
  } ifelse
} def
%%EndProlog
%%BeginSetup
%%EndSetup
%%Page: 1 1
%%BeginPageSetup
%%PageMedia: 423x367mm
%%PageBoundingBox: 0 0 1200 1039
1200 1039 cairo_set_page_size
%%EndPageSetup
q 0 0 1200 1039 rectclip q
0.984314 g
0 0 1200 1039 rectfill
0.788235 g
1.875 w
0 J
1 j
[] 0.0 d
4 M 0 1039 1200 -1039.23 re S
0 g
2.5 w
1 J
100 346.18 m 50 317.312 75 331.746 100 288.445 c S
50 259.578 m 50 317.312 50 288.445 100 288.445 c S
-50 432.781 m 0 403.914 -25 418.348 0 461.648 c S
50 432.781 m 0 403.914 25 418.348 0 461.648 c S
100 172.973 m 50 201.844 75 187.41 100 230.711 c S
-50 86.371 m 0 115.238 -25 100.805 0 57.504 c S
50 259.578 m 50 201.844 50 230.711 100 230.711 c S
50 86.371 m 0 115.238 25 100.805 0 57.504 c S
250 86.371 m 200 57.504 225 71.938 250 28.637 c S
200 -0.23 m 200 57.504 200 28.637 250 28.637 c S
100 172.973 m 150 144.105 125 158.539 150 201.844 c S
100 -0.23 m 100 57.504 100 28.637 50 28.637 c S
200 172.973 m 150 144.105 175 158.539 150 201.844 c S
50 86.371 m 100 57.504 75 71.938 50 28.637 c S
100 865.793 m 50 836.926 75 851.359 100 808.059 c S
50 779.191 m 50 836.926 50 808.059 100 808.059 c S
-50 952.398 m 0 923.531 -25 937.965 0 981.266 c S
50 952.398 m 0 923.531 25 937.965 0 981.266 c S
100 692.59 m 50 721.457 75 707.023 100 750.324 c S
-50 605.988 m 0 634.855 -25 620.422 0 577.121 c S
50 779.191 m 50 721.457 50 750.324 100 750.324 c S
50 605.988 m 0 634.855 25 620.422 0 577.121 c S
250 605.988 m 200 577.121 225 591.555 250 548.254 c S
200 519.383 m 200 577.121 200 548.254 250 548.254 c S
100 692.59 m 150 663.723 125 678.156 150 721.457 c S
100 519.383 m 100 577.121 100 548.254 50 548.254 c S
200 692.59 m 150 663.723 175 678.156 150 721.457 c S
50 605.988 m 100 577.121 75 591.555 50 548.254 c S
100 519.383 m 100 461.648 100 490.516 50 490.516 c S
50 432.781 m 100 461.648 75 447.215 50 490.516 c S
250 432.781 m 200 461.648 225 447.215 250 490.516 c S
100 346.18 m 150 375.047 125 360.613 150 317.312 c S
200 519.383 m 200 461.648 200 490.516 250 490.516 c S
200 346.18 m 150 375.047 175 360.613 150 317.312 c S
400 346.18 m 350 317.312 375 331.746 400 288.445 c S
350 259.578 m 350 317.312 350 288.445 400 288.445 c S
250 432.781 m 300 403.914 275 418.348 300 461.648 c S
250 259.578 m 250 317.312 250 288.445 200 288.445 c S
350 432.781 m 300 403.914 325 418.348 300 461.648 c S
200 346.18 m 250 317.312 225 331.746 200 288.445 c S
250 259.578 m 250 201.844 250 230.711 200 230.711 c S
200 172.973 m 250 201.844 225 187.41 200 230.711 c S
400 172.973 m 350 201.844 375 187.41 400 230.711 c S
250 86.371 m 300 115.238 275 100.805 300 57.504 c S
350 259.578 m 350 201.844 350 230.711 400 230.711 c S
350 86.371 m 300 115.238 325 100.805 300 57.504 c S
550 86.371 m 500 57.504 525 71.938 550 28.637 c S
500 -0.23 m 500 57.504 500 28.637 550 28.637 c S
400 172.973 m 450 144.105 425 158.539 450 201.844 c S
400 -0.23 m 400 57.504 400 28.637 350 28.637 c S
500 172.973 m 450 144.105 475 158.539 450 201.844 c S
350 86.371 m 400 57.504 375 71.938 350 28.637 c S
100 1039 m 100 981.266 100 1010.133 50 1010.133 c S
50 952.398 m 100 981.266 75 966.832 50 1010.133 c S
250 952.398 m 200 981.266 225 966.832 250 1010.133 c S
100 865.793 m 150 894.664 125 880.23 150 836.926 c S
200 1039 m 200 981.266 200 1010.133 250 1010.133 c S
200 865.793 m 150 894.664 175 880.23 150 836.926 c S
400 865.793 m 350 836.926 375 851.359 400 808.059 c S
350 779.191 m 350 836.926 350 808.059 400 808.059 c S
250 952.398 m 300 923.531 275 937.965 300 981.266 c S
250 779.191 m 250 836.926 250 808.059 200 808.059 c S
350 952.398 m 300 923.531 325 937.965 300 981.266 c S
200 865.793 m 250 836.926 225 851.359 200 808.059 c S
250 779.191 m 250 721.457 250 750.324 200 750.324 c S
200 692.59 m 250 721.457 225 707.023 200 750.324 c S
400 692.59 m 350 721.457 375 707.023 400 750.324 c S
250 605.988 m 300 634.855 275 620.422 300 577.121 c S
350 779.191 m 350 721.457 350 750.324 400 750.324 c S
350 605.988 m 300 634.855 325 620.422 300 577.121 c S
550 605.988 m 500 577.121 525 591.555 550 548.254 c S
500 519.383 m 500 577.121 500 548.254 550 548.254 c S
400 692.59 m 450 663.723 425 678.156 450 721.457 c S
400 519.383 m 400 577.121 400 548.254 350 548.254 c S
500 692.59 m 450 663.723 475 678.156 450 721.457 c S
350 605.988 m 400 577.121 375 591.555 350 548.254 c S
400 519.383 m 400 461.648 400 490.516 350 490.516 c S
350 432.781 m 400 461.648 375 447.215 350 490.516 c S
550 432.781 m 500 461.648 525 447.215 550 490.516 c S
400 346.18 m 450 375.047 425 360.613 450 317.312 c S
500 519.383 m 500 461.648 500 490.516 550 490.516 c S
500 346.18 m 450 375.047 475 360.613 450 317.312 c S
700 346.18 m 650 317.312 675 331.746 700 288.445 c S
650 259.578 m 650 317.312 650 288.445 700 288.445 c S
550 432.781 m 600 403.914 575 418.348 600 461.648 c S
550 259.578 m 550 317.312 550 288.445 500 288.445 c S
650 432.781 m 600 403.914 625 418.348 600 461.648 c S
500 346.18 m 550 317.312 525 331.746 500 288.445 c S
550 259.578 m 550 201.844 550 230.711 500 230.711 c S
500 172.973 m 550 201.844 525 187.41 500 230.711 c S
700 172.973 m 650 201.844 675 187.41 700 230.711 c S
550 86.371 m 600 115.238 575 100.805 600 57.504 c S
650 259.578 m 650 201.844 650 230.711 700 230.711 c S
650 86.371 m 600 115.238 625 100.805 600 57.504 c S
850 86.371 m 800 57.504 825 71.938 850 28.637 c S
800 -0.23 m 800 57.504 800 28.637 850 28.637 c S
700 172.973 m 750 144.105 725 158.539 750 201.844 c S
700 -0.23 m 700 57.504 700 28.637 650 28.637 c S
800 172.973 m 750 144.105 775 158.539 750 201.844 c S
650 86.371 m 700 57.504 675 71.938 650 28.637 c S
400 1039 m 400 981.266 400 1010.133 350 1010.133 c S
350 952.398 m 400 981.266 375 966.832 350 1010.133 c S
550 952.398 m 500 981.266 525 966.832 550 1010.133 c S
400 865.793 m 450 894.664 425 880.23 450 836.926 c S
500 1039 m 500 981.266 500 1010.133 550 1010.133 c S
500 865.793 m 450 894.664 475 880.23 450 836.926 c S
700 865.793 m 650 836.926 675 851.359 700 808.059 c S
650 779.191 m 650 836.926 650 808.059 700 808.059 c S
550 952.398 m 600 923.531 575 937.965 600 981.266 c S
550 779.191 m 550 836.926 550 808.059 500 808.059 c S
650 952.398 m 600 923.531 625 937.965 600 981.266 c S
500 865.793 m 550 836.926 525 851.359 500 808.059 c S
550 779.191 m 550 721.457 550 750.324 500 750.324 c S
500 692.59 m 550 721.457 525 707.023 500 750.324 c S
700 692.59 m 650 721.457 675 707.023 700 750.324 c S
550 605.988 m 600 634.855 575 620.422 600 577.121 c S
650 779.191 m 650 721.457 650 750.324 700 750.324 c S
650 605.988 m 600 634.855 625 620.422 600 577.121 c S
850 605.988 m 800 577.121 825 591.555 850 548.254 c S
800 519.383 m 800 577.121 800 548.254 850 548.254 c S
700 692.59 m 750 663.723 725 678.156 750 721.457 c S
700 519.383 m 700 577.121 700 548.254 650 548.254 c S
800 692.59 m 750 663.723 775 678.156 750 721.457 c S
650 605.988 m 700 577.121 675 591.555 650 548.254 c S
700 519.383 m 700 461.648 700 490.516 650 490.516 c S
650 432.781 m 700 461.648 675 447.215 650 490.516 c S
850 432.781 m 800 461.648 825 447.215 850 490.516 c S
700 346.18 m 750 375.047 725 360.613 750 317.312 c S
800 519.383 m 800 461.648 800 490.516 850 490.516 c S
800 346.18 m 750 375.047 775 360.613 750 317.312 c S
1000 346.18 m 950 317.312 975 331.746 1000 288.445 c S
950 259.578 m 950 317.312 950 288.445 1000 288.445 c S
850 432.781 m 900 403.914 875 418.348 900 461.648 c S
850 259.578 m 850 317.312 850 288.445 800 288.445 c S
950 432.781 m 900 403.914 925 418.348 900 461.648 c S
800 346.18 m 850 317.312 825 331.746 800 288.445 c S
850 259.578 m 850 201.844 850 230.711 800 230.711 c S
800 172.973 m 850 201.844 825 187.41 800 230.711 c S
1000 172.973 m 950 201.844 975 187.41 1000 230.711 c S
850 86.371 m 900 115.238 875 100.805 900 57.504 c S
950 259.578 m 950 201.844 950 230.711 1000 230.711 c S
950 86.371 m 900 115.238 925 100.805 900 57.504 c S
1150 86.371 m 1100 57.504 1125 71.938 1150 28.637 c S
1100 -0.23 m 1100 57.504 1100 28.637 1150 28.637 c S
1000 172.973 m 1050 144.105 1025 158.539 1050 201.844 c S
1000 -0.23 m 1000 57.504 1000 28.637 950 28.637 c S
1100 172.973 m 1050 144.105 1075 158.539 1050 201.844 c S
950 86.371 m 1000 57.504 975 71.938 950 28.637 c S
700 1039 m 700 981.266 700 1010.133 650 1010.133 c S
650 952.398 m 700 981.266 675 966.832 650 1010.133 c S
850 952.398 m 800 981.266 825 966.832 850 1010.133 c S
700 865.793 m 750 894.664 725 880.23 750 836.926 c S
800 1039 m 800 981.266 800 1010.133 850 1010.133 c S
800 865.793 m 750 894.664 775 880.23 750 836.926 c S
1000 865.793 m 950 836.926 975 851.359 1000 808.059 c S
950 779.191 m 950 836.926 950 808.059 1000 808.059 c S
850 952.398 m 900 923.531 875 937.965 900 981.266 c S
850 779.191 m 850 836.926 850 808.059 800 808.059 c S
950 952.398 m 900 923.531 925 937.965 900 981.266 c S
800 865.793 m 850 836.926 825 851.359 800 808.059 c S
850 779.191 m 850 721.457 850 750.324 800 750.324 c S
800 692.59 m 850 721.457 825 707.023 800 750.324 c S
1000 692.59 m 950 721.457 975 707.023 1000 750.324 c S
850 605.988 m 900 634.855 875 620.422 900 577.121 c S
950 779.191 m 950 721.457 950 750.324 1000 750.324 c S
950 605.988 m 900 634.855 925 620.422 900 577.121 c S
1150 605.988 m 1100 577.121 1125 591.555 1150 548.254 c S
1100 519.383 m 1100 577.121 1100 548.254 1150 548.254 c S
1000 692.59 m 1050 663.723 1025 678.156 1050 721.457 c S
1000 519.383 m 1000 577.121 1000 548.254 950 548.254 c S
1100 692.59 m 1050 663.723 1075 678.156 1050 721.457 c S
950 605.988 m 1000 577.121 975 591.555 950 548.254 c S
1000 519.383 m 1000 461.648 1000 490.516 950 490.516 c S
950 432.781 m 1000 461.648 975 447.215 950 490.516 c S
1150 432.781 m 1100 461.648 1125 447.215 1150 490.516 c S
1000 346.18 m 1050 375.047 1025 360.613 1050 317.312 c S
1100 519.383 m 1100 461.648 1100 490.516 1150 490.516 c S
1100 346.18 m 1050 375.047 1075 360.613 1050 317.312 c S
1150 432.781 m 1200 403.914 1175 418.348 1200 461.648 c S
1150 259.578 m 1150 317.312 1150 288.445 1100 288.445 c S
1250 432.781 m 1200 403.914 1225 418.348 1200 461.648 c S
1100 346.18 m 1150 317.312 1125 331.746 1100 288.445 c S
1150 259.578 m 1150 201.844 1150 230.711 1100 230.711 c S
1100 172.973 m 1150 201.844 1125 187.41 1100 230.711 c S
1150 86.371 m 1200 115.238 1175 100.805 1200 57.504 c S
1250 86.371 m 1200 115.238 1225 100.805 1200 57.504 c S
1000 1039 m 1000 981.266 1000 1010.133 950 1010.133 c S
950 952.398 m 1000 981.266 975 966.832 950 1010.133 c S
1150 952.398 m 1100 981.266 1125 966.832 1150 1010.133 c S
1000 865.793 m 1050 894.664 1025 880.23 1050 836.926 c S
1100 1039 m 1100 981.266 1100 1010.133 1150 1010.133 c S
1100 865.793 m 1050 894.664 1075 880.23 1050 836.926 c S
1150 952.398 m 1200 923.531 1175 937.965 1200 981.266 c S
1150 779.191 m 1150 836.926 1150 808.059 1100 808.059 c S
1250 952.398 m 1200 923.531 1225 937.965 1200 981.266 c S
1100 865.793 m 1150 836.926 1125 851.359 1100 808.059 c S
1150 779.191 m 1150 721.457 1150 750.324 1100 750.324 c S
1100 692.59 m 1150 721.457 1125 707.023 1100 750.324 c S
1150 605.988 m 1200 634.855 1175 620.422 1200 577.121 c S
1250 605.988 m 1200 634.855 1225 620.422 1200 577.121 c S
Q Q
showpage
%%Trailer
%%Trailer
cleartomark
countdictstack
exch sub { end } repeat
restore
%%EOF
