%!PS-Adobe-2.0 EPSF-2.0
%%BoundingBox: 0 0 1800 800
%%HiResBoundingBox: 0.000000 0.000000 1800.000000 800.000000
%%Creator: cairo 1.14.2 (http://cairographics.org)
%%CreationDate: Mon Sep  7 08:21:45 2015
%%DocumentData: Clean7Bit
%%LanguageLevel: 2
%%DocumentMedia: 635x282mm 1800 800 0 () ()
%%EndComments
% EPSF created by ps2eps 1.68
%%BeginProlog
save
countdictstack
mark
newpath
/showpage {} def
/setpagedevice {pop} def
%%EndProlog
%%Page 1 1
%%BeginProlog
/languagelevel where
{ pop languagelevel } { 1 } ifelse
2 lt { /Helvetica findfont 12 scalefont setfont 50 500 moveto
  (This print job requires a PostScript Language Level 2 printer.) show
  showpage quit } if
/q { gsave } bind def
/Q { grestore } bind def
/cm { 6 array astore concat } bind def
/w { setlinewidth } bind def
/J { setlinecap } bind def
/j { setlinejoin } bind def
/M { setmiterlimit } bind def
/d { setdash } bind def
/m { moveto } bind def
/l { lineto } bind def
/c { curveto } bind def
/h { closepath } bind def
/re { exch dup neg 3 1 roll 5 3 roll moveto 0 rlineto
      0 exch rlineto 0 rlineto closepath } bind def
/S { stroke } bind def
/f { fill } bind def
/f* { eofill } bind def
/n { newpath } bind def
/W { clip } bind def
/W* { eoclip } bind def
/BT { } bind def
/ET { } bind def
/pdfmark where { pop globaldict /?pdfmark /exec load put }
    { globaldict begin /?pdfmark /pop load def /pdfmark
    /cleartomark load def end } ifelse
/BDC { mark 3 1 roll /BDC pdfmark } bind def
/EMC { mark /EMC pdfmark } bind def
/cairo_store_point { /cairo_point_y exch def /cairo_point_x exch def } def
/Tj { show currentpoint cairo_store_point } bind def
/TJ {
  {
    dup
    type /stringtype eq
    { show } { -0.001 mul 0 cairo_font_matrix dtransform rmoveto } ifelse
  } forall
  currentpoint cairo_store_point
} bind def
/cairo_selectfont { cairo_font_matrix aload pop pop pop 0 0 6 array astore
    cairo_font exch selectfont cairo_point_x cairo_point_y moveto } bind def
/Tf { pop /cairo_font exch def /cairo_font_matrix where
      { pop cairo_selectfont } if } bind def
/Td { matrix translate cairo_font_matrix matrix concatmatrix dup
      /cairo_font_matrix exch def dup 4 get exch 5 get cairo_store_point
      /cairo_font where { pop cairo_selectfont } if } bind def
/Tm { 2 copy 8 2 roll 6 array astore /cairo_font_matrix exch def
      cairo_store_point /cairo_font where { pop cairo_selectfont } if } bind def
/g { setgray } bind def
/rg { setrgbcolor } bind def
/d1 { setcachedevice } bind def
/cairo_set_page_size {
  % Change paper size, but only if different from previous paper size otherwise
  % duplex fails. PLRM specifies a tolerance of 5 pts when matching paper size
  % so we use the same when checking if the size changes.
  /setpagedevice where {
    pop currentpagedevice
    /PageSize known {
      2 copy
      currentpagedevice /PageSize get aload pop
      exch 4 1 roll
      sub abs 5 gt
      3 1 roll
      sub abs 5 gt
      or
    } {
      true
    } ifelse
    {
      2 array astore
      2 dict begin
        /PageSize exch def
        /ImagingBBox null def
      currentdict end
      setpagedevice
    } {
      pop pop
    } ifelse
  } {
    pop
  } ifelse
} def
%%EndProlog
%%BeginSetup
%%EndSetup
%%Page: 1 1
%%BeginPageSetup
%%PageMedia: 635x282mm
%%PageBoundingBox: 0 0 1800 800
1800 800 cairo_set_page_size
%%EndPageSetup
q 0 0 1800 800 rectclip q
0.984314 g
0 0 1800 800 rectfill
0.788235 g
1.875 w
0 J
1 j
[] 0.0 d
4 M 0 800 1800 -800 re S
0.85098 g
0 800 m 150 733.332 l 0 733.332 l 50 800 l 100 666.668 l h
0 800 m f*
0 g
2.5 w
0 800 m 150 733.332 l 0 733.332 l 50 800 l 100 666.668 l h
0 800 m S
0.85098 g
150 600 m 250 733.332 l 200 600 l 150 666.668 l 300 666.668 l h
150 600 m f*
0 g
150 600 m 250 733.332 l 200 600 l 150 666.668 l 300 666.668 l h
150 600 m S
0.85098 g
0 600 m 150 533.332 l 0 533.332 l 50 600 l 100 466.668 l h
0 600 m f*
0 g
0 600 m 150 533.332 l 0 533.332 l 50 600 l 100 466.668 l h
0 600 m S
0.85098 g
150 400 m 250 533.332 l 200 400 l 150 466.668 l 300 466.668 l h
150 400 m f*
0 g
150 400 m 250 533.332 l 200 400 l 150 466.668 l 300 466.668 l h
150 400 m S
0.85098 g
0 400 m 150 333.332 l 0 333.332 l 50 400 l 100 266.668 l h
0 400 m f*
0 g
0 400 m 150 333.332 l 0 333.332 l 50 400 l 100 266.668 l h
0 400 m S
0.85098 g
150 200 m 250 333.332 l 200 200 l 150 266.668 l 300 266.668 l h
150 200 m f*
0 g
150 200 m 250 333.332 l 200 200 l 150 266.668 l 300 266.668 l h
150 200 m S
0.85098 g
0 200 m 150 133.332 l 0 133.332 l 50 200 l 100 66.668 l h
0 200 m f*
0 g
0 200 m 150 133.332 l 0 133.332 l 50 200 l 100 66.668 l h
0 200 m S
0.85098 g
150 0 m 250 133.332 l 200 0 l 150 66.668 l 300 66.668 l h
150 0 m f*
0 g
150 0 m 250 133.332 l 200 0 l 150 66.668 l 300 66.668 l h
150 0 m S
0.85098 g
300 800 m 450 733.332 l 300 733.332 l 350 800 l 400 666.668 l h
300 800 m f*
0 g
300 800 m 450 733.332 l 300 733.332 l 350 800 l 400 666.668 l h
300 800 m S
0.85098 g
450 600 m 550 733.332 l 500 600 l 450 666.668 l 600 666.668 l h
450 600 m f*
0 g
450 600 m 550 733.332 l 500 600 l 450 666.668 l 600 666.668 l h
450 600 m S
0.85098 g
300 600 m 450 533.332 l 300 533.332 l 350 600 l 400 466.668 l h
300 600 m f*
0 g
300 600 m 450 533.332 l 300 533.332 l 350 600 l 400 466.668 l h
300 600 m S
0.85098 g
450 400 m 550 533.332 l 500 400 l 450 466.668 l 600 466.668 l h
450 400 m f*
0 g
450 400 m 550 533.332 l 500 400 l 450 466.668 l 600 466.668 l h
450 400 m S
0.85098 g
300 400 m 450 333.332 l 300 333.332 l 350 400 l 400 266.668 l h
300 400 m f*
0 g
300 400 m 450 333.332 l 300 333.332 l 350 400 l 400 266.668 l h
300 400 m S
0.85098 g
450 200 m 550 333.332 l 500 200 l 450 266.668 l 600 266.668 l h
450 200 m f*
0 g
450 200 m 550 333.332 l 500 200 l 450 266.668 l 600 266.668 l h
450 200 m S
0.85098 g
300 200 m 450 133.332 l 300 133.332 l 350 200 l 400 66.668 l h
300 200 m f*
0 g
300 200 m 450 133.332 l 300 133.332 l 350 200 l 400 66.668 l h
300 200 m S
0.85098 g
450 0 m 550 133.332 l 500 0 l 450 66.668 l 600 66.668 l h
450 0 m f*
0 g
450 0 m 550 133.332 l 500 0 l 450 66.668 l 600 66.668 l h
450 0 m S
0.85098 g
600 800 m 750 733.332 l 600 733.332 l 650 800 l 700 666.668 l h
600 800 m f*
0 g
600 800 m 750 733.332 l 600 733.332 l 650 800 l 700 666.668 l h
600 800 m S
0.85098 g
750 600 m 850 733.332 l 800 600 l 750 666.668 l 900 666.668 l h
750 600 m f*
0 g
750 600 m 850 733.332 l 800 600 l 750 666.668 l 900 666.668 l h
750 600 m S
0.85098 g
600 600 m 750 533.332 l 600 533.332 l 650 600 l 700 466.668 l h
600 600 m f*
0 g
600 600 m 750 533.332 l 600 533.332 l 650 600 l 700 466.668 l h
600 600 m S
0.85098 g
750 400 m 850 533.332 l 800 400 l 750 466.668 l 900 466.668 l h
750 400 m f*
0 g
750 400 m 850 533.332 l 800 400 l 750 466.668 l 900 466.668 l h
750 400 m S
0.85098 g
600 400 m 750 333.332 l 600 333.332 l 650 400 l 700 266.668 l h
600 400 m f*
0 g
600 400 m 750 333.332 l 600 333.332 l 650 400 l 700 266.668 l h
600 400 m S
0.85098 g
750 200 m 850 333.332 l 800 200 l 750 266.668 l 900 266.668 l h
750 200 m f*
0 g
750 200 m 850 333.332 l 800 200 l 750 266.668 l 900 266.668 l h
750 200 m S
0.85098 g
600 200 m 750 133.332 l 600 133.332 l 650 200 l 700 66.668 l h
600 200 m f*
0 g
600 200 m 750 133.332 l 600 133.332 l 650 200 l 700 66.668 l h
600 200 m S
0.85098 g
750 0 m 850 133.332 l 800 0 l 750 66.668 l 900 66.668 l h
750 0 m f*
0 g
750 0 m 850 133.332 l 800 0 l 750 66.668 l 900 66.668 l h
750 0 m S
0.85098 g
900 800 m 1050 733.332 l 900 733.332 l 950 800 l 1000 666.668 l h
900 800 m f*
0 g
900 800 m 1050 733.332 l 900 733.332 l 950 800 l 1000 666.668 l h
900 800 m S
0.85098 g
1050 600 m 1150 733.332 l 1100 600 l 1050 666.668 l 1200 666.668 l h
1050 600 m f*
0 g
1050 600 m 1150 733.332 l 1100 600 l 1050 666.668 l 1200 666.668 l h
1050 600 m S
0.85098 g
900 600 m 1050 533.332 l 900 533.332 l 950 600 l 1000 466.668 l h
900 600 m f*
0 g
900 600 m 1050 533.332 l 900 533.332 l 950 600 l 1000 466.668 l h
900 600 m S
0.85098 g
1050 400 m 1150 533.332 l 1100 400 l 1050 466.668 l 1200 466.668 l h
1050 400 m f*
0 g
1050 400 m 1150 533.332 l 1100 400 l 1050 466.668 l 1200 466.668 l h
1050 400 m S
0.85098 g
900 400 m 1050 333.332 l 900 333.332 l 950 400 l 1000 266.668 l h
900 400 m f*
0 g
900 400 m 1050 333.332 l 900 333.332 l 950 400 l 1000 266.668 l h
900 400 m S
0.85098 g
1050 200 m 1150 333.332 l 1100 200 l 1050 266.668 l 1200 266.668 l h
1050 200 m f*
0 g
1050 200 m 1150 333.332 l 1100 200 l 1050 266.668 l 1200 266.668 l h
1050 200 m S
0.85098 g
900 200 m 1050 133.332 l 900 133.332 l 950 200 l 1000 66.668 l h
900 200 m f*
0 g
900 200 m 1050 133.332 l 900 133.332 l 950 200 l 1000 66.668 l h
900 200 m S
0.85098 g
1050 0 m 1150 133.332 l 1100 0 l 1050 66.668 l 1200 66.668 l h
1050 0 m f*
0 g
1050 0 m 1150 133.332 l 1100 0 l 1050 66.668 l 1200 66.668 l h
1050 0 m S
0.85098 g
1200 800 m 1350 733.332 l 1200 733.332 l 1250 800 l 1300 666.668 l h
1200 800 m f*
0 g
1200 800 m 1350 733.332 l 1200 733.332 l 1250 800 l 1300 666.668 l h
1200 800 m S
0.85098 g
1350 600 m 1450 733.332 l 1400 600 l 1350 666.668 l 1500 666.668 l h
1350 600 m f*
0 g
1350 600 m 1450 733.332 l 1400 600 l 1350 666.668 l 1500 666.668 l h
1350 600 m S
0.85098 g
1200 600 m 1350 533.332 l 1200 533.332 l 1250 600 l 1300 466.668 l h
1200 600 m f*
0 g
1200 600 m 1350 533.332 l 1200 533.332 l 1250 600 l 1300 466.668 l h
1200 600 m S
0.85098 g
1350 400 m 1450 533.332 l 1400 400 l 1350 466.668 l 1500 466.668 l h
1350 400 m f*
0 g
1350 400 m 1450 533.332 l 1400 400 l 1350 466.668 l 1500 466.668 l h
1350 400 m S
0.85098 g
1200 400 m 1350 333.332 l 1200 333.332 l 1250 400 l 1300 266.668 l h
1200 400 m f*
0 g
1200 400 m 1350 333.332 l 1200 333.332 l 1250 400 l 1300 266.668 l h
1200 400 m S
0.85098 g
1350 200 m 1450 333.332 l 1400 200 l 1350 266.668 l 1500 266.668 l h
1350 200 m f*
0 g
1350 200 m 1450 333.332 l 1400 200 l 1350 266.668 l 1500 266.668 l h
1350 200 m S
0.85098 g
1200 200 m 1350 133.332 l 1200 133.332 l 1250 200 l 1300 66.668 l h
1200 200 m f*
0 g
1200 200 m 1350 133.332 l 1200 133.332 l 1250 200 l 1300 66.668 l h
1200 200 m S
0.85098 g
1350 0 m 1450 133.332 l 1400 0 l 1350 66.668 l 1500 66.668 l h
1350 0 m f*
0 g
1350 0 m 1450 133.332 l 1400 0 l 1350 66.668 l 1500 66.668 l h
1350 0 m S
0.85098 g
1500 800 m 1650 733.332 l 1500 733.332 l 1550 800 l 1600 666.668 l h
1500 800 m f*
0 g
1500 800 m 1650 733.332 l 1500 733.332 l 1550 800 l 1600 666.668 l h
1500 800 m S
0.85098 g
1650 600 m 1750 733.332 l 1700 600 l 1650 666.668 l 1800 666.668 l h
1650 600 m f*
0 g
1650 600 m 1750 733.332 l 1700 600 l 1650 666.668 l 1800 666.668 l h
1650 600 m S
0.85098 g
1500 600 m 1650 533.332 l 1500 533.332 l 1550 600 l 1600 466.668 l h
1500 600 m f*
0 g
1500 600 m 1650 533.332 l 1500 533.332 l 1550 600 l 1600 466.668 l h
1500 600 m S
0.85098 g
1650 400 m 1750 533.332 l 1700 400 l 1650 466.668 l 1800 466.668 l h
1650 400 m f*
0 g
1650 400 m 1750 533.332 l 1700 400 l 1650 466.668 l 1800 466.668 l h
1650 400 m S
0.85098 g
1500 400 m 1650 333.332 l 1500 333.332 l 1550 400 l 1600 266.668 l h
1500 400 m f*
0 g
1500 400 m 1650 333.332 l 1500 333.332 l 1550 400 l 1600 266.668 l h
1500 400 m S
0.85098 g
1650 200 m 1750 333.332 l 1700 200 l 1650 266.668 l 1800 266.668 l h
1650 200 m f*
0 g
1650 200 m 1750 333.332 l 1700 200 l 1650 266.668 l 1800 266.668 l h
1650 200 m S
0.85098 g
1500 200 m 1650 133.332 l 1500 133.332 l 1550 200 l 1600 66.668 l h
1500 200 m f*
0 g
1500 200 m 1650 133.332 l 1500 133.332 l 1550 200 l 1600 66.668 l h
1500 200 m S
0.85098 g
1650 0 m 1750 133.332 l 1700 0 l 1650 66.668 l 1800 66.668 l h
1650 0 m f*
0 g
1650 0 m 1750 133.332 l 1700 0 l 1650 66.668 l 1800 66.668 l h
1650 0 m S
Q Q
showpage
%%Trailer
%%Trailer
cleartomark
countdictstack
exch sub { end } repeat
restore
%%EOF
