<svg xmlns="http://www.w3.org/2000/svg" baseProfile="full" width="2400" height="1200" viewBox="-100.0 -75.0 2400.0 1200.0">
    <title>
        Pattern design from http://ornamentist.org
    </title>
    <desc>
        This file is licensed under a Creative Commons CC BY 4.0 license: http://creativecommons.org/licenses/by/4.0/
    </desc>
    <defs>
        <style>
<![CDATA[
        
polyline {
  fill:            none;
  stroke:          black;
  stroke-linecap:  round;
  stroke-linejoin: round;
  stroke-width:    2.0pt;
}


polyline.closed {
  fill:      #d9d9d9;
  fill-rule: evenodd;
}


polygon {
  fill:            #d9d9d9;
  fill-rule:       evenodd;
  stroke:          black;
  stroke-linejoin: round;
  stroke-width:    2.0pt;
}


circle {
  fill:         #d9d9d9;
  stroke:       black;
  stroke-width: 2.0pt;
}


ellipse {
  fill:         #d9d9d9;
  stroke:       black;
  stroke-width: 2.0pt;
}


path {
  fill:            none;
  stroke:          black;
  stroke-linecap:  round;
  stroke-linejoin: round;
  stroke-width:    2.0pt;
}


path.closed {
  fill:      #d9d9d9;
  fill-rule: evenodd;
}


polygon.background,
path.background
{
  fill:   #fbfbfb;
  stroke: #c9c9c9;
  stroke-width: 1.5pt;
}

        ]]>
        </style>
    </defs>
    <clipPath id="design">
        <path d="M-100-75h2400v1200H-100z"/>
    </clipPath>
    <g clip-path="url(#design)" color-rendering="optimizeQuality" shape-rendering="geometricPrecision" id="graphics">
        <path class="background closed" d="M2300-75v1200H-100V-75z"/>
        <path d="M100 0L0-75V0l-100 75M300 0L200 75V0L100-75M-100 150L0 75v75l100 75M100 150l100 75v-75l100-75M100 300L0 225v75l-100 75M300 300l-100 75v-75l-100-75M-100 450L0 375v75l100 75M100 450l100 75v-75l100-75M100 600L0 525v75l-100 75M300 600l-100 75v-75l-100-75M-100 750L0 675v75l100 75M100 750l100 75v-75l100-75M100 900L0 825v75l-100 75M300 900l-100 75v-75l-100-75M-100 1050L0 975v75l100 75M100 1050l100 75v-75l100-75M500 0L400-75V0L300 75M700 0L600 75V0L500-75M300 150l100-75v75l100 75M500 150l100 75v-75l100-75M500 300l-100-75v75l-100 75M700 300l-100 75v-75l-100-75M300 450l100-75v75l100 75M500 450l100 75v-75l100-75M500 600l-100-75v75l-100 75M700 600l-100 75v-75l-100-75M300 750l100-75v75l100 75M500 750l100 75v-75l100-75M500 900l-100-75v75l-100 75M700 900l-100 75v-75l-100-75M300 1050l100-75v75l100 75M500 1050l100 75v-75l100-75M900 0L800-75V0L700 75M1100 0l-100 75V0L900-75M700 150l100-75v75l100 75M900 150l100 75v-75l100-75M900 300l-100-75v75l-100 75M1100 300l-100 75v-75l-100-75M700 450l100-75v75l100 75M900 450l100 75v-75l100-75M900 600l-100-75v75l-100 75M1100 600l-100 75v-75l-100-75M700 750l100-75v75l100 75M900 750l100 75v-75l100-75M900 900l-100-75v75l-100 75M1100 900l-100 75v-75l-100-75M700 1050l100-75v75l100 75M900 1050l100 75v-75l100-75M1300 0l-100-75V0l-100 75M1500 0l-100 75V0l-100-75M1100 150l100-75v75l100 75M1300 150l100 75v-75l100-75M1300 300l-100-75v75l-100 75M1500 300l-100 75v-75l-100-75M1100 450l100-75v75l100 75M1300 450l100 75v-75l100-75M1300 600l-100-75v75l-100 75M1500 600l-100 75v-75l-100-75M1100 750l100-75v75l100 75M1300 750l100 75v-75l100-75M1300 900l-100-75v75l-100 75M1500 900l-100 75v-75l-100-75M1100 1050l100-75v75l100 75M1300 1050l100 75v-75l100-75M1700 0l-100-75V0l-100 75M1900 0l-100 75V0l-100-75M1500 150l100-75v75l100 75M1700 150l100 75v-75l100-75M1700 300l-100-75v75l-100 75M1900 300l-100 75v-75l-100-75M1500 450l100-75v75l100 75M1700 450l100 75v-75l100-75M1700 600l-100-75v75l-100 75M1900 600l-100 75v-75l-100-75M1500 750l100-75v75l100 75M1700 750l100 75v-75l100-75M1700 900l-100-75v75l-100 75M1900 900l-100 75v-75l-100-75M1500 1050l100-75v75l100 75M1700 1050l100 75v-75l100-75M2100 0l-100-75V0l-100 75M2300 0l-100 75V0l-100-75M1900 150l100-75v75l100 75M2100 150l100 75v-75l100-75M2100 300l-100-75v75l-100 75M2300 300l-100 75v-75l-100-75M1900 450l100-75v75l100 75M2100 450l100 75v-75l100-75M2100 600l-100-75v75l-100 75M2300 600l-100 75v-75l-100-75M1900 750l100-75v75l100 75M2100 750l100 75v-75l100-75M2100 900l-100-75v75l-100 75M2300 900l-100 75v-75l-100-75M1900 1050l100-75v75l100 75M2100 1050l100 75v-75l100-75" class="polyline-4-1 open"/>
    </g>
</svg>
