<svg xmlns="http://www.w3.org/2000/svg" baseProfile="full" width="2400" height="1200" viewBox="-100.0 -75.0 2400.0 1200.0">
    <title>
        Pattern design from http://ornamentist.org
    </title>
    <desc>
        This file is licensed under a Creative Commons CC BY 4.0 license: http://creativecommons.org/licenses/by/4.0/
    </desc>
    <defs>
        <style>
<![CDATA[
        
polyline {
  fill:            none;
  stroke:          black;
  stroke-linecap:  round;
  stroke-linejoin: round;
  stroke-width:    2.0pt;
}


polyline.closed {
  fill:      #d9d9d9;
  fill-rule: evenodd;
}


polygon {
  fill:            #d9d9d9;
  fill-rule:       evenodd;
  stroke:          black;
  stroke-linejoin: round;
  stroke-width:    2.0pt;
}


circle {
  fill:         #d9d9d9;
  stroke:       black;
  stroke-width: 2.0pt;
}


ellipse {
  fill:         #d9d9d9;
  stroke:       black;
  stroke-width: 2.0pt;
}


path {
  fill:            none;
  stroke:          black;
  stroke-linecap:  round;
  stroke-linejoin: round;
  stroke-width:    2.0pt;
}


path.closed {
  fill:      #d9d9d9;
  fill-rule: evenodd;
}


polygon.background,
path.background
{
  fill:   #fbfbfb;
  stroke: #c9c9c9;
  stroke-width: 1.5pt;
}

        ]]>
        </style>
    </defs>
    <clipPath id="design">
        <path d="M-100-75h2400v1200H-100z"/>
    </clipPath>
    <g clip-path="url(#design)" color-rendering="optimizeQuality" shape-rendering="geometricPrecision" id="graphics">
        <path class="background closed" d="M2300-75v1200H-100V-75z"/>
        <path d="M100-75Q-33.333 25-100-25M300 75Q166.667-25 100 25M-100 75q133.333 100 200 50M100 225q133.333-100 200-50M100 225q-133.333 100-200 50M300 375q-133.333-100-200-50M-100 375q133.333 100 200 50M100 525q133.333-100 200-50M100 525q-133.333 100-200 50M300 675q-133.333-100-200-50M-100 675q133.333 100 200 50M100 825q133.333-100 200-50M100 825q-133.333 100-200 50M300 975q-133.333-100-200-50M-100 975q133.333 100 200 50M100 1125q133.333-100 200-50M500-75Q366.667 25 300-25M700 75Q566.667-25 500 25M300 75q133.333 100 200 50M500 225q133.333-100 200-50M500 225q-133.333 100-200 50M700 375q-133.333-100-200-50M300 375q133.333 100 200 50M500 525q133.333-100 200-50M500 525q-133.333 100-200 50M700 675q-133.333-100-200-50M300 675q133.333 100 200 50M500 825q133.333-100 200-50M500 825q-133.333 100-200 50M700 975q-133.333-100-200-50M300 975q133.333 100 200 50M500 1125q133.333-100 200-50M900-75Q766.667 25 700-25M1100 75Q966.667-25 900 25M700 75q133.333 100 200 50M900 225q133.333-100 200-50M900 225q-133.333 100-200 50M1100 375q-133.333-100-200-50M700 375q133.333 100 200 50M900 525q133.333-100 200-50M900 525q-133.333 100-200 50M1100 675q-133.333-100-200-50M700 675q133.333 100 200 50M900 825q133.333-100 200-50M900 825q-133.333 100-200 50M1100 975q-133.333-100-200-50M700 975q133.333 100 200 50M900 1125q133.333-100 200-50M1300-75q-133.333 100-200 50M1500 75q-133.333-100-200-50M1100 75q133.333 100 200 50M1300 225q133.333-100 200-50M1300 225q-133.333 100-200 50M1500 375q-133.333-100-200-50M1100 375q133.333 100 200 50M1300 525q133.333-100 200-50M1300 525q-133.333 100-200 50M1500 675q-133.333-100-200-50M1100 675q133.333 100 200 50M1300 825q133.333-100 200-50M1300 825q-133.333 100-200 50M1500 975q-133.333-100-200-50M1100 975q133.333 100 200 50M1300 1125q133.333-100 200-50M1700-75q-133.333 100-200 50M1900 75q-133.333-100-200-50M1500 75q133.333 100 200 50M1700 225q133.333-100 200-50M1700 225q-133.333 100-200 50M1900 375q-133.333-100-200-50M1500 375q133.333 100 200 50M1700 525q133.333-100 200-50M1700 525q-133.333 100-200 50M1900 675q-133.333-100-200-50M1500 675q133.333 100 200 50M1700 825q133.333-100 200-50M1700 825q-133.333 100-200 50M1900 975q-133.333-100-200-50M1500 975q133.333 100 200 50M1700 1125q133.333-100 200-50M2100-75q-133.333 100-200 50M2300 75q-133.333-100-200-50M1900 75q133.333 100 200 50M2100 225q133.333-100 200-50M2100 225q-133.333 100-200 50M2300 375q-133.333-100-200-50M1900 375q133.333 100 200 50M2100 525q133.333-100 200-50M2100 525q-133.333 100-200 50M2300 675q-133.333-100-200-50M1900 675q133.333 100 200 50M2100 825q133.333-100 200-50M2100 825q-133.333 100-200 50M2300 975q-133.333-100-200-50M1900 975q133.333 100 200 50M2100 1125q133.333-100 200-50" class="bezier-2-1 open"/>
    </g>
</svg>
