%!PS-Adobe-2.0 EPSF-2.0
%%BoundingBox: 0 0 2400 1200
%%HiResBoundingBox: 0.000000 0.000000 2400.000000 1200.000000
%%Creator: cairo 1.14.2 (http://cairographics.org)
%%CreationDate: Mon Sep  7 08:21:45 2015
%%DocumentData: Clean7Bit
%%LanguageLevel: 2
%%DocumentMedia: 847x423mm 2400 1200 0 () ()
%%EndComments
% EPSF created by ps2eps 1.68
%%BeginProlog
save
countdictstack
mark
newpath
/showpage {} def
/setpagedevice {pop} def
%%EndProlog
%%Page 1 1
%%BeginProlog
/languagelevel where
{ pop languagelevel } { 1 } ifelse
2 lt { /Helvetica findfont 12 scalefont setfont 50 500 moveto
  (This print job requires a PostScript Language Level 2 printer.) show
  showpage quit } if
/q { gsave } bind def
/Q { grestore } bind def
/cm { 6 array astore concat } bind def
/w { setlinewidth } bind def
/J { setlinecap } bind def
/j { setlinejoin } bind def
/M { setmiterlimit } bind def
/d { setdash } bind def
/m { moveto } bind def
/l { lineto } bind def
/c { curveto } bind def
/h { closepath } bind def
/re { exch dup neg 3 1 roll 5 3 roll moveto 0 rlineto
      0 exch rlineto 0 rlineto closepath } bind def
/S { stroke } bind def
/f { fill } bind def
/f* { eofill } bind def
/n { newpath } bind def
/W { clip } bind def
/W* { eoclip } bind def
/BT { } bind def
/ET { } bind def
/pdfmark where { pop globaldict /?pdfmark /exec load put }
    { globaldict begin /?pdfmark /pop load def /pdfmark
    /cleartomark load def end } ifelse
/BDC { mark 3 1 roll /BDC pdfmark } bind def
/EMC { mark /EMC pdfmark } bind def
/cairo_store_point { /cairo_point_y exch def /cairo_point_x exch def } def
/Tj { show currentpoint cairo_store_point } bind def
/TJ {
  {
    dup
    type /stringtype eq
    { show } { -0.001 mul 0 cairo_font_matrix dtransform rmoveto } ifelse
  } forall
  currentpoint cairo_store_point
} bind def
/cairo_selectfont { cairo_font_matrix aload pop pop pop 0 0 6 array astore
    cairo_font exch selectfont cairo_point_x cairo_point_y moveto } bind def
/Tf { pop /cairo_font exch def /cairo_font_matrix where
      { pop cairo_selectfont } if } bind def
/Td { matrix translate cairo_font_matrix matrix concatmatrix dup
      /cairo_font_matrix exch def dup 4 get exch 5 get cairo_store_point
      /cairo_font where { pop cairo_selectfont } if } bind def
/Tm { 2 copy 8 2 roll 6 array astore /cairo_font_matrix exch def
      cairo_store_point /cairo_font where { pop cairo_selectfont } if } bind def
/g { setgray } bind def
/rg { setrgbcolor } bind def
/d1 { setcachedevice } bind def
/cairo_set_page_size {
  % Change paper size, but only if different from previous paper size otherwise
  % duplex fails. PLRM specifies a tolerance of 5 pts when matching paper size
  % so we use the same when checking if the size changes.
  /setpagedevice where {
    pop currentpagedevice
    /PageSize known {
      2 copy
      currentpagedevice /PageSize get aload pop
      exch 4 1 roll
      sub abs 5 gt
      3 1 roll
      sub abs 5 gt
      or
    } {
      true
    } ifelse
    {
      2 array astore
      2 dict begin
        /PageSize exch def
        /ImagingBBox null def
      currentdict end
      setpagedevice
    } {
      pop pop
    } ifelse
  } {
    pop
  } ifelse
} def
%%EndProlog
%%BeginSetup
%%EndSetup
%%Page: 1 1
%%BeginPageSetup
%%PageMedia: 847x423mm
%%PageBoundingBox: 0 0 2400 1200
2400 1200 cairo_set_page_size
%%EndPageSetup
q 0 0 2400 1200 rectclip q
0.984314 g
0 0 2400 1200 rectfill
0.788235 g
1.875 w
0 J
1 j
[] 0.0 d
4 M 0 1200 2400 -1200 re S
0 g
2.5 w
1 J
200 1200 m 111.109 1133.332 44.445 1116.668 0 1150 c S
400 1050 m 311.109 1116.668 244.445 1133.332 200 1100 c S
0 1050 m 88.891 983.332 155.555 966.668 200 1000 c S
200 900 m 288.891 966.668 355.555 983.332 400 950 c S
200 900 m 111.109 833.332 44.445 816.668 0 850 c S
400 750 m 311.109 816.668 244.445 833.332 200 800 c S
0 750 m 88.891 683.332 155.555 666.668 200 700 c S
200 600 m 288.891 666.668 355.555 683.332 400 650 c S
200 600 m 111.109 533.332 44.445 516.668 0 550 c S
400 450 m 311.109 516.668 244.445 533.332 200 500 c S
0 450 m 88.891 383.332 155.555 366.668 200 400 c S
200 300 m 288.891 366.668 355.555 383.332 400 350 c S
200 300 m 111.109 233.332 44.445 216.668 0 250 c S
400 150 m 311.109 216.668 244.445 233.332 200 200 c S
0 150 m 88.891 83.332 155.555 66.668 200 100 c S
200 0 m 288.891 66.668 355.555 83.332 400 50 c S
600 1200 m 511.109 1133.332 444.445 1116.668 400 1150 c S
800 1050 m 711.109 1116.668 644.445 1133.332 600 1100 c S
400 1050 m 488.891 983.332 555.555 966.668 600 1000 c S
600 900 m 688.891 966.668 755.555 983.332 800 950 c S
600 900 m 511.109 833.332 444.445 816.668 400 850 c S
800 750 m 711.109 816.668 644.445 833.332 600 800 c S
400 750 m 488.891 683.332 555.555 666.668 600 700 c S
600 600 m 688.891 666.668 755.555 683.332 800 650 c S
600 600 m 511.109 533.332 444.445 516.668 400 550 c S
800 450 m 711.109 516.668 644.445 533.332 600 500 c S
400 450 m 488.891 383.332 555.555 366.668 600 400 c S
600 300 m 688.891 366.668 755.555 383.332 800 350 c S
600 300 m 511.109 233.332 444.445 216.668 400 250 c S
800 150 m 711.109 216.668 644.445 233.332 600 200 c S
400 150 m 488.891 83.332 555.555 66.668 600 100 c S
600 0 m 688.891 66.668 755.555 83.332 800 50 c S
1000 1200 m 911.109 1133.332 844.445 1116.668 800 1150 c S
1200 1050 m 1111.109 1116.668 1044.445 1133.332 1000 1100 c S
800 1050 m 888.891 983.332 955.555 966.668 1000 1000 c S
1000 900 m 1088.891 966.668 1155.555 983.332 1200 950 c S
1000 900 m 911.109 833.332 844.445 816.668 800 850 c S
1200 750 m 1111.109 816.668 1044.445 833.332 1000 800 c S
800 750 m 888.891 683.332 955.555 666.668 1000 700 c S
1000 600 m 1088.891 666.668 1155.555 683.332 1200 650 c S
1000 600 m 911.109 533.332 844.445 516.668 800 550 c S
1200 450 m 1111.109 516.668 1044.445 533.332 1000 500 c S
800 450 m 888.891 383.332 955.555 366.668 1000 400 c S
1000 300 m 1088.891 366.668 1155.555 383.332 1200 350 c S
1000 300 m 911.109 233.332 844.445 216.668 800 250 c S
1200 150 m 1111.109 216.668 1044.445 233.332 1000 200 c S
800 150 m 888.891 83.332 955.555 66.668 1000 100 c S
1000 0 m 1088.891 66.668 1155.555 83.332 1200 50 c S
1400 1200 m 1311.109 1133.332 1244.445 1116.668 1200 1150 c S
1600 1050 m 1511.109 1116.668 1444.445 1133.332 1400 1100 c S
1200 1050 m 1288.891 983.332 1355.555 966.668 1400 1000 c S
1400 900 m 1488.891 966.668 1555.555 983.332 1600 950 c S
1400 900 m 1311.109 833.332 1244.445 816.668 1200 850 c S
1600 750 m 1511.109 816.668 1444.445 833.332 1400 800 c S
1200 750 m 1288.891 683.332 1355.555 666.668 1400 700 c S
1400 600 m 1488.891 666.668 1555.555 683.332 1600 650 c S
1400 600 m 1311.109 533.332 1244.445 516.668 1200 550 c S
1600 450 m 1511.109 516.668 1444.445 533.332 1400 500 c S
1200 450 m 1288.891 383.332 1355.555 366.668 1400 400 c S
1400 300 m 1488.891 366.668 1555.555 383.332 1600 350 c S
1400 300 m 1311.109 233.332 1244.445 216.668 1200 250 c S
1600 150 m 1511.109 216.668 1444.445 233.332 1400 200 c S
1200 150 m 1288.891 83.332 1355.555 66.668 1400 100 c S
1400 0 m 1488.891 66.668 1555.555 83.332 1600 50 c S
1800 1200 m 1711.109 1133.332 1644.445 1116.668 1600 1150 c S
2000 1050 m 1911.109 1116.668 1844.445 1133.332 1800 1100 c S
1600 1050 m 1688.891 983.332 1755.555 966.668 1800 1000 c S
1800 900 m 1888.891 966.668 1955.555 983.332 2000 950 c S
1800 900 m 1711.109 833.332 1644.445 816.668 1600 850 c S
2000 750 m 1911.109 816.668 1844.445 833.332 1800 800 c S
1600 750 m 1688.891 683.332 1755.555 666.668 1800 700 c S
1800 600 m 1888.891 666.668 1955.555 683.332 2000 650 c S
1800 600 m 1711.109 533.332 1644.445 516.668 1600 550 c S
2000 450 m 1911.109 516.668 1844.445 533.332 1800 500 c S
1600 450 m 1688.891 383.332 1755.555 366.668 1800 400 c S
1800 300 m 1888.891 366.668 1955.555 383.332 2000 350 c S
1800 300 m 1711.109 233.332 1644.445 216.668 1600 250 c S
2000 150 m 1911.109 216.668 1844.445 233.332 1800 200 c S
1600 150 m 1688.891 83.332 1755.555 66.668 1800 100 c S
1800 0 m 1888.891 66.668 1955.555 83.332 2000 50 c S
2200 1200 m 2111.109 1133.332 2044.445 1116.668 2000 1150 c S
2400 1050 m 2311.109 1116.668 2244.445 1133.332 2200 1100 c S
2000 1050 m 2088.891 983.332 2155.555 966.668 2200 1000 c S
2200 900 m 2288.891 966.668 2355.555 983.332 2400 950 c S
2200 900 m 2111.109 833.332 2044.445 816.668 2000 850 c S
2400 750 m 2311.109 816.668 2244.445 833.332 2200 800 c S
2000 750 m 2088.891 683.332 2155.555 666.668 2200 700 c S
2200 600 m 2288.891 666.668 2355.555 683.332 2400 650 c S
2200 600 m 2111.109 533.332 2044.445 516.668 2000 550 c S
2400 450 m 2311.109 516.668 2244.445 533.332 2200 500 c S
2000 450 m 2088.891 383.332 2155.555 366.668 2200 400 c S
2200 300 m 2288.891 366.668 2355.555 383.332 2400 350 c S
2200 300 m 2111.109 233.332 2044.445 216.668 2000 250 c S
2400 150 m 2311.109 216.668 2244.445 233.332 2200 200 c S
2000 150 m 2088.891 83.332 2155.555 66.668 2200 100 c S
2200 0 m 2288.891 66.668 2355.555 83.332 2400 50 c S
Q Q
showpage
%%Trailer
%%Trailer
cleartomark
countdictstack
exch sub { end } repeat
restore
%%EOF
