%!PS-Adobe-2.0 EPSF-2.0
%%BoundingBox: 0 0 2400 1200
%%HiResBoundingBox: 0.000000 0.000000 2400.000000 1200.000000
%%Creator: cairo 1.14.2 (http://cairographics.org)
%%CreationDate: Mon Sep  7 08:21:45 2015
%%DocumentData: Clean7Bit
%%LanguageLevel: 2
%%DocumentMedia: 847x423mm 2400 1200 0 () ()
%%EndComments
% EPSF created by ps2eps 1.68
%%BeginProlog
save
countdictstack
mark
newpath
/showpage {} def
/setpagedevice {pop} def
%%EndProlog
%%Page 1 1
%%BeginProlog
/languagelevel where
{ pop languagelevel } { 1 } ifelse
2 lt { /Helvetica findfont 12 scalefont setfont 50 500 moveto
  (This print job requires a PostScript Language Level 2 printer.) show
  showpage quit } if
/q { gsave } bind def
/Q { grestore } bind def
/cm { 6 array astore concat } bind def
/w { setlinewidth } bind def
/J { setlinecap } bind def
/j { setlinejoin } bind def
/M { setmiterlimit } bind def
/d { setdash } bind def
/m { moveto } bind def
/l { lineto } bind def
/c { curveto } bind def
/h { closepath } bind def
/re { exch dup neg 3 1 roll 5 3 roll moveto 0 rlineto
      0 exch rlineto 0 rlineto closepath } bind def
/S { stroke } bind def
/f { fill } bind def
/f* { eofill } bind def
/n { newpath } bind def
/W { clip } bind def
/W* { eoclip } bind def
/BT { } bind def
/ET { } bind def
/pdfmark where { pop globaldict /?pdfmark /exec load put }
    { globaldict begin /?pdfmark /pop load def /pdfmark
    /cleartomark load def end } ifelse
/BDC { mark 3 1 roll /BDC pdfmark } bind def
/EMC { mark /EMC pdfmark } bind def
/cairo_store_point { /cairo_point_y exch def /cairo_point_x exch def } def
/Tj { show currentpoint cairo_store_point } bind def
/TJ {
  {
    dup
    type /stringtype eq
    { show } { -0.001 mul 0 cairo_font_matrix dtransform rmoveto } ifelse
  } forall
  currentpoint cairo_store_point
} bind def
/cairo_selectfont { cairo_font_matrix aload pop pop pop 0 0 6 array astore
    cairo_font exch selectfont cairo_point_x cairo_point_y moveto } bind def
/Tf { pop /cairo_font exch def /cairo_font_matrix where
      { pop cairo_selectfont } if } bind def
/Td { matrix translate cairo_font_matrix matrix concatmatrix dup
      /cairo_font_matrix exch def dup 4 get exch 5 get cairo_store_point
      /cairo_font where { pop cairo_selectfont } if } bind def
/Tm { 2 copy 8 2 roll 6 array astore /cairo_font_matrix exch def
      cairo_store_point /cairo_font where { pop cairo_selectfont } if } bind def
/g { setgray } bind def
/rg { setrgbcolor } bind def
/d1 { setcachedevice } bind def
/cairo_set_page_size {
  % Change paper size, but only if different from previous paper size otherwise
  % duplex fails. PLRM specifies a tolerance of 5 pts when matching paper size
  % so we use the same when checking if the size changes.
  /setpagedevice where {
    pop currentpagedevice
    /PageSize known {
      2 copy
      currentpagedevice /PageSize get aload pop
      exch 4 1 roll
      sub abs 5 gt
      3 1 roll
      sub abs 5 gt
      or
    } {
      true
    } ifelse
    {
      2 array astore
      2 dict begin
        /PageSize exch def
        /ImagingBBox null def
      currentdict end
      setpagedevice
    } {
      pop pop
    } ifelse
  } {
    pop
  } ifelse
} def
%%EndProlog
%%BeginSetup
%%EndSetup
%%Page: 1 1
%%BeginPageSetup
%%PageMedia: 847x423mm
%%PageBoundingBox: 0 0 2400 1200
2400 1200 cairo_set_page_size
%%EndPageSetup
q 0 0 2400 1200 rectclip q
0.984314 g
0 0 2400 1200 rectfill
0.788235 g
1.875 w
0 J
1 j
[] 0.0 d
4 M 0 1200 2400 -1200 re S
0 g
2.5 w
1 J
133.332 1100 m 133.332 1050 66.668 1100 200 1200 c S
266.668 1100 m 266.668 1050 333.332 1100 200 1200 c S
133.332 1000 m 133.332 1050 66.668 1000 200 900 c S
266.668 1000 m 266.668 1050 333.332 1000 200 900 c S
133.332 800 m 133.332 750 66.668 800 200 900 c S
266.668 800 m 266.668 750 333.332 800 200 900 c S
133.332 700 m 133.332 750 66.668 700 200 600 c S
266.668 700 m 266.668 750 333.332 700 200 600 c S
133.332 500 m 133.332 450 66.668 500 200 600 c S
266.668 500 m 266.668 450 333.332 500 200 600 c S
133.332 400 m 133.332 450 66.668 400 200 300 c S
266.668 400 m 266.668 450 333.332 400 200 300 c S
133.332 200 m 133.332 150 66.668 200 200 300 c S
266.668 200 m 266.668 150 333.332 200 200 300 c S
133.332 100 m 133.332 150 66.668 100 200 0 c S
266.668 100 m 266.668 150 333.332 100 200 0 c S
533.332 1100 m 533.332 1050 466.668 1100 600 1200 c S
666.668 1100 m 666.668 1050 733.332 1100 600 1200 c S
533.332 1000 m 533.332 1050 466.668 1000 600 900 c S
666.668 1000 m 666.668 1050 733.332 1000 600 900 c S
533.332 800 m 533.332 750 466.668 800 600 900 c S
666.668 800 m 666.668 750 733.332 800 600 900 c S
533.332 700 m 533.332 750 466.668 700 600 600 c S
666.668 700 m 666.668 750 733.332 700 600 600 c S
533.332 500 m 533.332 450 466.668 500 600 600 c S
666.668 500 m 666.668 450 733.332 500 600 600 c S
533.332 400 m 533.332 450 466.668 400 600 300 c S
666.668 400 m 666.668 450 733.332 400 600 300 c S
533.332 200 m 533.332 150 466.668 200 600 300 c S
666.668 200 m 666.668 150 733.332 200 600 300 c S
533.332 100 m 533.332 150 466.668 100 600 0 c S
666.668 100 m 666.668 150 733.332 100 600 0 c S
933.332 1100 m 933.332 1050 866.668 1100 1000 1200 c S
1066.668 1100 m 1066.668 1050 1133.332 1100 1000 1200 c S
933.332 1000 m 933.332 1050 866.668 1000 1000 900 c S
1066.668 1000 m 1066.668 1050 1133.332 1000 1000 900 c S
933.332 800 m 933.332 750 866.668 800 1000 900 c S
1066.668 800 m 1066.668 750 1133.332 800 1000 900 c S
933.332 700 m 933.332 750 866.668 700 1000 600 c S
1066.668 700 m 1066.668 750 1133.332 700 1000 600 c S
933.332 500 m 933.332 450 866.668 500 1000 600 c S
1066.668 500 m 1066.668 450 1133.332 500 1000 600 c S
933.332 400 m 933.332 450 866.668 400 1000 300 c S
1066.668 400 m 1066.668 450 1133.332 400 1000 300 c S
933.332 200 m 933.332 150 866.668 200 1000 300 c S
1066.668 200 m 1066.668 150 1133.332 200 1000 300 c S
933.332 100 m 933.332 150 866.668 100 1000 0 c S
1066.668 100 m 1066.668 150 1133.332 100 1000 0 c S
1333.332 1100 m 1333.332 1050 1266.668 1100 1400 1200 c S
1466.668 1100 m 1466.668 1050 1533.332 1100 1400 1200 c S
1333.332 1000 m 1333.332 1050 1266.668 1000 1400 900 c S
1466.668 1000 m 1466.668 1050 1533.332 1000 1400 900 c S
1333.332 800 m 1333.332 750 1266.668 800 1400 900 c S
1466.668 800 m 1466.668 750 1533.332 800 1400 900 c S
1333.332 700 m 1333.332 750 1266.668 700 1400 600 c S
1466.668 700 m 1466.668 750 1533.332 700 1400 600 c S
1333.332 500 m 1333.332 450 1266.668 500 1400 600 c S
1466.668 500 m 1466.668 450 1533.332 500 1400 600 c S
1333.332 400 m 1333.332 450 1266.668 400 1400 300 c S
1466.668 400 m 1466.668 450 1533.332 400 1400 300 c S
1333.332 200 m 1333.332 150 1266.668 200 1400 300 c S
1466.668 200 m 1466.668 150 1533.332 200 1400 300 c S
1333.332 100 m 1333.332 150 1266.668 100 1400 0 c S
1466.668 100 m 1466.668 150 1533.332 100 1400 0 c S
1733.332 1100 m 1733.332 1050 1666.668 1100 1800 1200 c S
1866.668 1100 m 1866.668 1050 1933.332 1100 1800 1200 c S
1733.332 1000 m 1733.332 1050 1666.668 1000 1800 900 c S
1866.668 1000 m 1866.668 1050 1933.332 1000 1800 900 c S
1733.332 800 m 1733.332 750 1666.668 800 1800 900 c S
1866.668 800 m 1866.668 750 1933.332 800 1800 900 c S
1733.332 700 m 1733.332 750 1666.668 700 1800 600 c S
1866.668 700 m 1866.668 750 1933.332 700 1800 600 c S
1733.332 500 m 1733.332 450 1666.668 500 1800 600 c S
1866.668 500 m 1866.668 450 1933.332 500 1800 600 c S
1733.332 400 m 1733.332 450 1666.668 400 1800 300 c S
1866.668 400 m 1866.668 450 1933.332 400 1800 300 c S
1733.332 200 m 1733.332 150 1666.668 200 1800 300 c S
1866.668 200 m 1866.668 150 1933.332 200 1800 300 c S
1733.332 100 m 1733.332 150 1666.668 100 1800 0 c S
1866.668 100 m 1866.668 150 1933.332 100 1800 0 c S
2133.332 1100 m 2133.332 1050 2066.668 1100 2200 1200 c S
2266.668 1100 m 2266.668 1050 2333.332 1100 2200 1200 c S
2133.332 1000 m 2133.332 1050 2066.668 1000 2200 900 c S
2266.668 1000 m 2266.668 1050 2333.332 1000 2200 900 c S
2133.332 800 m 2133.332 750 2066.668 800 2200 900 c S
2266.668 800 m 2266.668 750 2333.332 800 2200 900 c S
2133.332 700 m 2133.332 750 2066.668 700 2200 600 c S
2266.668 700 m 2266.668 750 2333.332 700 2200 600 c S
2133.332 500 m 2133.332 450 2066.668 500 2200 600 c S
2266.668 500 m 2266.668 450 2333.332 500 2200 600 c S
2133.332 400 m 2133.332 450 2066.668 400 2200 300 c S
2266.668 400 m 2266.668 450 2333.332 400 2200 300 c S
2133.332 200 m 2133.332 150 2066.668 200 2200 300 c S
2266.668 200 m 2266.668 150 2333.332 200 2200 300 c S
2133.332 100 m 2133.332 150 2066.668 100 2200 0 c S
2266.668 100 m 2266.668 150 2333.332 100 2200 0 c S
Q Q
showpage
%%Trailer
%%Trailer
cleartomark
countdictstack
exch sub { end } repeat
restore
%%EOF
