<svg xmlns="http://www.w3.org/2000/svg" baseProfile="full" width="2400" height="1200" viewBox="-100.0 -75.0 2400.0 1200.0">
    <title>
        Pattern design from http://ornamentist.org
    </title>
    <desc>
        This file is licensed under a Creative Commons CC BY 4.0 license: http://creativecommons.org/licenses/by/4.0/
    </desc>
    <defs>
        <style>
<![CDATA[
        
polyline {
  fill:            none;
  stroke:          black;
  stroke-linecap:  round;
  stroke-linejoin: round;
  stroke-width:    2.0pt;
}


polyline.closed {
  fill:      #d9d9d9;
  fill-rule: evenodd;
}


polygon {
  fill:            #d9d9d9;
  fill-rule:       evenodd;
  stroke:          black;
  stroke-linejoin: round;
  stroke-width:    2.0pt;
}


circle {
  fill:         #d9d9d9;
  stroke:       black;
  stroke-width: 2.0pt;
}


ellipse {
  fill:         #d9d9d9;
  stroke:       black;
  stroke-width: 2.0pt;
}


path {
  fill:            none;
  stroke:          black;
  stroke-linecap:  round;
  stroke-linejoin: round;
  stroke-width:    2.0pt;
}


path.closed {
  fill:      #d9d9d9;
  fill-rule: evenodd;
}


polygon.background,
path.background
{
  fill:   #fbfbfb;
  stroke: #c9c9c9;
  stroke-width: 1.5pt;
}

        ]]>
        </style>
    </defs>
    <clipPath id="design">
        <path d="M-100-75h2400v1200H-100z"/>
    </clipPath>
    <g clip-path="url(#design)" color-rendering="optimizeQuality" shape-rendering="geometricPrecision" id="graphics">
        <path class="background closed" d="M2300-75v1200H-100V-75z"/>
        <path d="M33.333 25c0 50-66.666 0 66.667-100M166.667 25c0 50 66.666 0-66.667-100M33.333 125c0-50-66.666 0 66.667 100M166.667 125c0-50 66.666 0-66.667 100M33.333 325c0 50-66.666 0 66.667-100M166.667 325c0 50 66.666 0-66.667-100M33.333 425c0-50-66.666 0 66.667 100M166.667 425c0-50 66.666 0-66.667 100M33.333 625c0 50-66.666 0 66.667-100M166.667 625c0 50 66.666 0-66.667-100M33.333 725c0-50-66.666 0 66.667 100M166.667 725c0-50 66.666 0-66.667 100M33.333 925c0 50-66.666 0 66.667-100M166.667 925c0 50 66.666 0-66.667-100M33.333 1025c0-50-66.666 0 66.667 100M166.667 1025c0-50 66.666 0-66.667 100M433.333 25c0 50-66.666 0 66.667-100M566.667 25c0 50 66.666 0-66.667-100M433.333 125c0-50-66.666 0 66.667 100M566.667 125c0-50 66.666 0-66.667 100M433.333 325c0 50-66.666 0 66.667-100M566.667 325c0 50 66.666 0-66.667-100M433.333 425c0-50-66.666 0 66.667 100M566.667 425c0-50 66.666 0-66.667 100M433.333 625c0 50-66.666 0 66.667-100M566.667 625c0 50 66.666 0-66.667-100M433.333 725c0-50-66.666 0 66.667 100M566.667 725c0-50 66.666 0-66.667 100M433.333 925c0 50-66.666 0 66.667-100M566.667 925c0 50 66.666 0-66.667-100M433.333 1025c0-50-66.666 0 66.667 100M566.667 1025c0-50 66.666 0-66.667 100M833.333 25c0 50-66.666 0 66.667-100M966.667 25c0 50 66.666 0-66.667-100M833.333 125c0-50-66.666 0 66.667 100M966.667 125c0-50 66.666 0-66.667 100M833.333 325c0 50-66.666 0 66.667-100M966.667 325c0 50 66.666 0-66.667-100M833.333 425c0-50-66.666 0 66.667 100M966.667 425c0-50 66.666 0-66.667 100M833.333 625c0 50-66.666 0 66.667-100M966.667 625c0 50 66.666 0-66.667-100M833.333 725c0-50-66.666 0 66.667 100M966.667 725c0-50 66.666 0-66.667 100M833.333 925c0 50-66.666 0 66.667-100M966.667 925c0 50 66.666 0-66.667-100M833.333 1025c0-50-66.666 0 66.667 100M966.667 1025c0-50 66.666 0-66.667 100M1233.333 25c0 50-66.666 0 66.667-100M1366.667 25c0 50 66.666 0-66.667-100M1233.333 125c0-50-66.666 0 66.667 100M1366.667 125c0-50 66.666 0-66.667 100M1233.333 325c0 50-66.666 0 66.667-100M1366.667 325c0 50 66.666 0-66.667-100M1233.333 425c0-50-66.666 0 66.667 100M1366.667 425c0-50 66.666 0-66.667 100M1233.333 625c0 50-66.666 0 66.667-100M1366.667 625c0 50 66.666 0-66.667-100M1233.333 725c0-50-66.666 0 66.667 100M1366.667 725c0-50 66.666 0-66.667 100M1233.333 925c0 50-66.666 0 66.667-100M1366.667 925c0 50 66.666 0-66.667-100M1233.333 1025c0-50-66.666 0 66.667 100M1366.667 1025c0-50 66.666 0-66.667 100M1633.333 25c0 50-66.666 0 66.667-100M1766.667 25c0 50 66.666 0-66.667-100M1633.333 125c0-50-66.666 0 66.667 100M1766.667 125c0-50 66.666 0-66.667 100M1633.333 325c0 50-66.666 0 66.667-100M1766.667 325c0 50 66.666 0-66.667-100M1633.333 425c0-50-66.666 0 66.667 100M1766.667 425c0-50 66.666 0-66.667 100M1633.333 625c0 50-66.666 0 66.667-100M1766.667 625c0 50 66.666 0-66.667-100M1633.333 725c0-50-66.666 0 66.667 100M1766.667 725c0-50 66.666 0-66.667 100M1633.333 925c0 50-66.666 0 66.667-100M1766.667 925c0 50 66.666 0-66.667-100M1633.333 1025c0-50-66.666 0 66.667 100M1766.667 1025c0-50 66.666 0-66.667 100M2033.333 25c0 50-66.666 0 66.667-100M2166.667 25c0 50 66.666 0-66.667-100M2033.333 125c0-50-66.666 0 66.667 100M2166.667 125c0-50 66.666 0-66.667 100M2033.333 325c0 50-66.666 0 66.667-100M2166.667 325c0 50 66.666 0-66.667-100M2033.333 425c0-50-66.666 0 66.667 100M2166.667 425c0-50 66.666 0-66.667 100M2033.333 625c0 50-66.666 0 66.667-100M2166.667 625c0 50 66.666 0-66.667-100M2033.333 725c0-50-66.666 0 66.667 100M2166.667 725c0-50 66.666 0-66.667 100M2033.333 925c0 50-66.666 0 66.667-100M2166.667 925c0 50 66.666 0-66.667-100M2033.333 1025c0-50-66.666 0 66.667 100M2166.667 1025c0-50 66.666 0-66.667 100" class="bezier-3-1 open"/>
    </g>
</svg>
