%!PS-Adobe-2.0 EPSF-2.0
%%BoundingBox: 0 0 1350 779
%%HiResBoundingBox: 0.000000 0.000000 1350.000000 779.000000
%%Creator: cairo 1.14.2 (http://cairographics.org)
%%CreationDate: Mon Sep  7 08:22:02 2015
%%DocumentData: Clean7Bit
%%LanguageLevel: 2
%%DocumentMedia: 476x275mm 1350 779 0 () ()
%%EndComments
% EPSF created by ps2eps 1.68
%%BeginProlog
save
countdictstack
mark
newpath
/showpage {} def
/setpagedevice {pop} def
%%EndProlog
%%Page 1 1
%%BeginProlog
/languagelevel where
{ pop languagelevel } { 1 } ifelse
2 lt { /Helvetica findfont 12 scalefont setfont 50 500 moveto
  (This print job requires a PostScript Language Level 2 printer.) show
  showpage quit } if
/q { gsave } bind def
/Q { grestore } bind def
/cm { 6 array astore concat } bind def
/w { setlinewidth } bind def
/J { setlinecap } bind def
/j { setlinejoin } bind def
/M { setmiterlimit } bind def
/d { setdash } bind def
/m { moveto } bind def
/l { lineto } bind def
/c { curveto } bind def
/h { closepath } bind def
/re { exch dup neg 3 1 roll 5 3 roll moveto 0 rlineto
      0 exch rlineto 0 rlineto closepath } bind def
/S { stroke } bind def
/f { fill } bind def
/f* { eofill } bind def
/n { newpath } bind def
/W { clip } bind def
/W* { eoclip } bind def
/BT { } bind def
/ET { } bind def
/pdfmark where { pop globaldict /?pdfmark /exec load put }
    { globaldict begin /?pdfmark /pop load def /pdfmark
    /cleartomark load def end } ifelse
/BDC { mark 3 1 roll /BDC pdfmark } bind def
/EMC { mark /EMC pdfmark } bind def
/cairo_store_point { /cairo_point_y exch def /cairo_point_x exch def } def
/Tj { show currentpoint cairo_store_point } bind def
/TJ {
  {
    dup
    type /stringtype eq
    { show } { -0.001 mul 0 cairo_font_matrix dtransform rmoveto } ifelse
  } forall
  currentpoint cairo_store_point
} bind def
/cairo_selectfont { cairo_font_matrix aload pop pop pop 0 0 6 array astore
    cairo_font exch selectfont cairo_point_x cairo_point_y moveto } bind def
/Tf { pop /cairo_font exch def /cairo_font_matrix where
      { pop cairo_selectfont } if } bind def
/Td { matrix translate cairo_font_matrix matrix concatmatrix dup
      /cairo_font_matrix exch def dup 4 get exch 5 get cairo_store_point
      /cairo_font where { pop cairo_selectfont } if } bind def
/Tm { 2 copy 8 2 roll 6 array astore /cairo_font_matrix exch def
      cairo_store_point /cairo_font where { pop cairo_selectfont } if } bind def
/g { setgray } bind def
/rg { setrgbcolor } bind def
/d1 { setcachedevice } bind def
/cairo_set_page_size {
  % Change paper size, but only if different from previous paper size otherwise
  % duplex fails. PLRM specifies a tolerance of 5 pts when matching paper size
  % so we use the same when checking if the size changes.
  /setpagedevice where {
    pop currentpagedevice
    /PageSize known {
      2 copy
      currentpagedevice /PageSize get aload pop
      exch 4 1 roll
      sub abs 5 gt
      3 1 roll
      sub abs 5 gt
      or
    } {
      true
    } ifelse
    {
      2 array astore
      2 dict begin
        /PageSize exch def
        /ImagingBBox null def
      currentdict end
      setpagedevice
    } {
      pop pop
    } ifelse
  } {
    pop
  } ifelse
} def
%%EndProlog
%%BeginSetup
%%EndSetup
%%Page: 1 1
%%BeginPageSetup
%%PageMedia: 476x275mm
%%PageBoundingBox: 0 0 1350 779
1350 779 cairo_set_page_size
%%EndPageSetup
q 0 0 1350 779 rectclip q
0.984314 g
0 0 1350 779 rectfill
0.788235 g
1.875 w
0 J
1 j
[] 0.0 d
4 M 0 779 1350 -779.422 re S
0 g
2.5 w
1 J
0 519.191 m -25 562.492 l -75 591.359 l -50 605.793 l S
0 519.191 m -50 519.191 l -100 548.059 l -100 519.191 l S
0 519.191 m -25 475.891 l -75 447.023 l -50 432.59 l S
0 519.191 m -50 519.191 l -100 490.324 l -100 519.191 l S
150 259.383 m 125 302.688 l 75 331.555 l 100 345.988 l S
150 259.383 m 100 259.383 l 50 288.254 l 50 259.383 l S
0 519.191 m -25 475.891 l -25 418.156 l -50 432.59 l S
0 519.191 m 25 475.891 l 25 418.156 l 50 432.59 l S
150 259.383 m 125 216.082 l 75 187.215 l 100 172.781 l S
0 -0.422 m -25 42.879 l -25 100.613 l -50 86.18 l S
150 259.383 m 100 259.383 l 50 230.516 l 50 259.383 l S
0 -0.422 m 25 42.879 l 25 100.613 l 50 86.18 l S
300 -0.422 m 275 42.879 l 225 71.746 l 250 86.18 l S
300 -0.422 m 250 -0.422 l 200 28.445 l 200 -0.422 l S
150 259.383 m 125 216.082 l 125 158.348 l 100 172.781 l S
0 -0.422 m 50 -0.422 l 100 28.445 l 100 -0.422 l S
150 259.383 m 175 216.082 l 175 158.348 l 200 172.781 l S
0 -0.422 m 25 42.879 l 75 71.746 l 50 86.18 l S
150 779 m 125 735.699 l 75 706.832 l 100 692.398 l S
0 519.191 m -25 562.492 l -25 620.23 l -50 605.793 l S
150 779 m 100 779 l 50 750.133 l 50 779 l S
0 519.191 m 25 562.492 l 25 620.23 l 50 605.793 l S
300 519.191 m 275 562.492 l 225 591.359 l 250 605.793 l S
300 519.191 m 250 519.191 l 200 548.059 l 200 519.191 l S
150 779 m 125 735.699 l 125 677.965 l 100 692.398 l S
0 519.191 m 50 519.191 l 100 548.059 l 100 519.191 l S
150 779 m 175 735.699 l 175 677.965 l 200 692.398 l S
0 519.191 m 25 562.492 l 75 591.359 l 50 605.793 l S
0 519.191 m 50 519.191 l 100 490.324 l 100 519.191 l S
0 519.191 m 25 475.891 l 75 447.023 l 50 432.59 l S
300 519.191 m 275 475.891 l 225 447.023 l 250 432.59 l S
150 259.383 m 125 302.688 l 125 360.422 l 100 345.988 l S
300 519.191 m 250 519.191 l 200 490.324 l 200 519.191 l S
150 259.383 m 175 302.688 l 175 360.422 l 200 345.988 l S
450 259.383 m 425 302.688 l 375 331.555 l 400 345.988 l S
450 259.383 m 400 259.383 l 350 288.254 l 350 259.383 l S
300 519.191 m 275 475.891 l 275 418.156 l 250 432.59 l S
150 259.383 m 200 259.383 l 250 288.254 l 250 259.383 l S
300 519.191 m 325 475.891 l 325 418.156 l 350 432.59 l S
150 259.383 m 175 302.688 l 225 331.555 l 200 345.988 l S
150 259.383 m 200 259.383 l 250 230.516 l 250 259.383 l S
150 259.383 m 175 216.082 l 225 187.215 l 200 172.781 l S
450 259.383 m 425 216.082 l 375 187.215 l 400 172.781 l S
300 -0.422 m 275 42.879 l 275 100.613 l 250 86.18 l S
450 259.383 m 400 259.383 l 350 230.516 l 350 259.383 l S
300 -0.422 m 325 42.879 l 325 100.613 l 350 86.18 l S
600 -0.422 m 575 42.879 l 525 71.746 l 550 86.18 l S
600 -0.422 m 550 -0.422 l 500 28.445 l 500 -0.422 l S
450 259.383 m 425 216.082 l 425 158.348 l 400 172.781 l S
300 -0.422 m 350 -0.422 l 400 28.445 l 400 -0.422 l S
450 259.383 m 475 216.082 l 475 158.348 l 500 172.781 l S
300 -0.422 m 325 42.879 l 375 71.746 l 350 86.18 l S
150 779 m 200 779 l 250 750.133 l 250 779 l S
150 779 m 175 735.699 l 225 706.832 l 200 692.398 l S
450 779 m 425 735.699 l 375 706.832 l 400 692.398 l S
300 519.191 m 275 562.492 l 275 620.23 l 250 605.793 l S
450 779 m 400 779 l 350 750.133 l 350 779 l S
300 519.191 m 325 562.492 l 325 620.23 l 350 605.793 l S
600 519.191 m 575 562.492 l 525 591.359 l 550 605.793 l S
600 519.191 m 550 519.191 l 500 548.059 l 500 519.191 l S
450 779 m 425 735.699 l 425 677.965 l 400 692.398 l S
300 519.191 m 350 519.191 l 400 548.059 l 400 519.191 l S
450 779 m 475 735.699 l 475 677.965 l 500 692.398 l S
300 519.191 m 325 562.492 l 375 591.359 l 350 605.793 l S
300 519.191 m 350 519.191 l 400 490.324 l 400 519.191 l S
300 519.191 m 325 475.891 l 375 447.023 l 350 432.59 l S
600 519.191 m 575 475.891 l 525 447.023 l 550 432.59 l S
450 259.383 m 425 302.688 l 425 360.422 l 400 345.988 l S
600 519.191 m 550 519.191 l 500 490.324 l 500 519.191 l S
450 259.383 m 475 302.688 l 475 360.422 l 500 345.988 l S
750 259.383 m 725 302.688 l 675 331.555 l 700 345.988 l S
750 259.383 m 700 259.383 l 650 288.254 l 650 259.383 l S
600 519.191 m 575 475.891 l 575 418.156 l 550 432.59 l S
450 259.383 m 500 259.383 l 550 288.254 l 550 259.383 l S
600 519.191 m 625 475.891 l 625 418.156 l 650 432.59 l S
450 259.383 m 475 302.688 l 525 331.555 l 500 345.988 l S
450 259.383 m 500 259.383 l 550 230.516 l 550 259.383 l S
450 259.383 m 475 216.082 l 525 187.215 l 500 172.781 l S
750 259.383 m 725 216.082 l 675 187.215 l 700 172.781 l S
600 -0.422 m 575 42.879 l 575 100.613 l 550 86.18 l S
750 259.383 m 700 259.383 l 650 230.516 l 650 259.383 l S
600 -0.422 m 625 42.879 l 625 100.613 l 650 86.18 l S
900 -0.422 m 875 42.879 l 825 71.746 l 850 86.18 l S
900 -0.422 m 850 -0.422 l 800 28.445 l 800 -0.422 l S
750 259.383 m 725 216.082 l 725 158.348 l 700 172.781 l S
600 -0.422 m 650 -0.422 l 700 28.445 l 700 -0.422 l S
750 259.383 m 775 216.082 l 775 158.348 l 800 172.781 l S
600 -0.422 m 625 42.879 l 675 71.746 l 650 86.18 l S
450 779 m 500 779 l 550 750.133 l 550 779 l S
450 779 m 475 735.699 l 525 706.832 l 500 692.398 l S
750 779 m 725 735.699 l 675 706.832 l 700 692.398 l S
600 519.191 m 575 562.492 l 575 620.23 l 550 605.793 l S
750 779 m 700 779 l 650 750.133 l 650 779 l S
600 519.191 m 625 562.492 l 625 620.23 l 650 605.793 l S
900 519.191 m 875 562.492 l 825 591.359 l 850 605.793 l S
900 519.191 m 850 519.191 l 800 548.059 l 800 519.191 l S
750 779 m 725 735.699 l 725 677.965 l 700 692.398 l S
600 519.191 m 650 519.191 l 700 548.059 l 700 519.191 l S
750 779 m 775 735.699 l 775 677.965 l 800 692.398 l S
600 519.191 m 625 562.492 l 675 591.359 l 650 605.793 l S
600 519.191 m 650 519.191 l 700 490.324 l 700 519.191 l S
600 519.191 m 625 475.891 l 675 447.023 l 650 432.59 l S
900 519.191 m 875 475.891 l 825 447.023 l 850 432.59 l S
750 259.383 m 725 302.688 l 725 360.422 l 700 345.988 l S
900 519.191 m 850 519.191 l 800 490.324 l 800 519.191 l S
750 259.383 m 775 302.688 l 775 360.422 l 800 345.988 l S
1050 259.383 m 1025 302.688 l 975 331.555 l 1000 345.988 l S
1050 259.383 m 1000 259.383 l 950 288.254 l 950 259.383 l S
900 519.191 m 875 475.891 l 875 418.156 l 850 432.59 l S
750 259.383 m 800 259.383 l 850 288.254 l 850 259.383 l S
900 519.191 m 925 475.891 l 925 418.156 l 950 432.59 l S
750 259.383 m 775 302.688 l 825 331.555 l 800 345.988 l S
750 259.383 m 800 259.383 l 850 230.516 l 850 259.383 l S
750 259.383 m 775 216.082 l 825 187.215 l 800 172.781 l S
1050 259.383 m 1025 216.082 l 975 187.215 l 1000 172.781 l S
900 -0.422 m 875 42.879 l 875 100.613 l 850 86.18 l S
1050 259.383 m 1000 259.383 l 950 230.516 l 950 259.383 l S
900 -0.422 m 925 42.879 l 925 100.613 l 950 86.18 l S
1200 -0.422 m 1175 42.879 l 1125 71.746 l 1150 86.18 l S
1200 -0.422 m 1150 -0.422 l 1100 28.445 l 1100 -0.422 l S
1050 259.383 m 1025 216.082 l 1025 158.348 l 1000 172.781 l S
900 -0.422 m 950 -0.422 l 1000 28.445 l 1000 -0.422 l S
1050 259.383 m 1075 216.082 l 1075 158.348 l 1100 172.781 l S
900 -0.422 m 925 42.879 l 975 71.746 l 950 86.18 l S
750 779 m 800 779 l 850 750.133 l 850 779 l S
750 779 m 775 735.699 l 825 706.832 l 800 692.398 l S
1050 779 m 1025 735.699 l 975 706.832 l 1000 692.398 l S
900 519.191 m 875 562.492 l 875 620.23 l 850 605.793 l S
1050 779 m 1000 779 l 950 750.133 l 950 779 l S
900 519.191 m 925 562.492 l 925 620.23 l 950 605.793 l S
1200 519.191 m 1175 562.492 l 1125 591.359 l 1150 605.793 l S
1200 519.191 m 1150 519.191 l 1100 548.059 l 1100 519.191 l S
1050 779 m 1025 735.699 l 1025 677.965 l 1000 692.398 l S
900 519.191 m 950 519.191 l 1000 548.059 l 1000 519.191 l S
1050 779 m 1075 735.699 l 1075 677.965 l 1100 692.398 l S
900 519.191 m 925 562.492 l 975 591.359 l 950 605.793 l S
900 519.191 m 950 519.191 l 1000 490.324 l 1000 519.191 l S
900 519.191 m 925 475.891 l 975 447.023 l 950 432.59 l S
1200 519.191 m 1175 475.891 l 1125 447.023 l 1150 432.59 l S
1050 259.383 m 1025 302.688 l 1025 360.422 l 1000 345.988 l S
1200 519.191 m 1150 519.191 l 1100 490.324 l 1100 519.191 l S
1050 259.383 m 1075 302.688 l 1075 360.422 l 1100 345.988 l S
1350 259.383 m 1325 302.688 l 1275 331.555 l 1300 345.988 l S
1350 259.383 m 1300 259.383 l 1250 288.254 l 1250 259.383 l S
1200 519.191 m 1175 475.891 l 1175 418.156 l 1150 432.59 l S
1050 259.383 m 1100 259.383 l 1150 288.254 l 1150 259.383 l S
1200 519.191 m 1225 475.891 l 1225 418.156 l 1250 432.59 l S
1050 259.383 m 1075 302.688 l 1125 331.555 l 1100 345.988 l S
1050 259.383 m 1100 259.383 l 1150 230.516 l 1150 259.383 l S
1050 259.383 m 1075 216.082 l 1125 187.215 l 1100 172.781 l S
1350 259.383 m 1325 216.082 l 1275 187.215 l 1300 172.781 l S
1200 -0.422 m 1175 42.879 l 1175 100.613 l 1150 86.18 l S
1350 259.383 m 1300 259.383 l 1250 230.516 l 1250 259.383 l S
1200 -0.422 m 1225 42.879 l 1225 100.613 l 1250 86.18 l S
1350 259.383 m 1325 216.082 l 1325 158.348 l 1300 172.781 l S
1200 -0.422 m 1250 -0.422 l 1300 28.445 l 1300 -0.422 l S
1350 259.383 m 1375 216.082 l 1375 158.348 l 1400 172.781 l S
1200 -0.422 m 1225 42.879 l 1275 71.746 l 1250 86.18 l S
1050 779 m 1100 779 l 1150 750.133 l 1150 779 l S
1050 779 m 1075 735.699 l 1125 706.832 l 1100 692.398 l S
1350 779 m 1325 735.699 l 1275 706.832 l 1300 692.398 l S
1200 519.191 m 1175 562.492 l 1175 620.23 l 1150 605.793 l S
1350 779 m 1300 779 l 1250 750.133 l 1250 779 l S
1200 519.191 m 1225 562.492 l 1225 620.23 l 1250 605.793 l S
1350 779 m 1325 735.699 l 1325 677.965 l 1300 692.398 l S
1200 519.191 m 1250 519.191 l 1300 548.059 l 1300 519.191 l S
1350 779 m 1375 735.699 l 1375 677.965 l 1400 692.398 l S
1200 519.191 m 1225 562.492 l 1275 591.359 l 1250 605.793 l S
1200 519.191 m 1250 519.191 l 1300 490.324 l 1300 519.191 l S
1200 519.191 m 1225 475.891 l 1275 447.023 l 1250 432.59 l S
1350 259.383 m 1325 302.688 l 1325 360.422 l 1300 345.988 l S
1350 259.383 m 1375 302.688 l 1375 360.422 l 1400 345.988 l S
1350 259.383 m 1400 259.383 l 1450 288.254 l 1450 259.383 l S
1350 259.383 m 1375 302.688 l 1425 331.555 l 1400 345.988 l S
1350 259.383 m 1400 259.383 l 1450 230.516 l 1450 259.383 l S
1350 259.383 m 1375 216.082 l 1425 187.215 l 1400 172.781 l S
Q Q
showpage
%%Trailer
%%Trailer
cleartomark
countdictstack
exch sub { end } repeat
restore
%%EOF
