<svg xmlns="http://www.w3.org/2000/svg" baseProfile="full" width="1350" height="779.423" viewBox="225.00000000000009 -129.9038105676658 1350.0 779.4228634059948">
    <title>
        Pattern design from http://ornamentist.org
    </title>
    <desc>
        This file is licensed under a Creative Commons CC BY 4.0 license: http://creativecommons.org/licenses/by/4.0/
    </desc>
    <defs>
        <style>
<![CDATA[
        
polyline {
  fill:            none;
  stroke:          black;
  stroke-linecap:  round;
  stroke-linejoin: round;
  stroke-width:    2.0pt;
}


polyline.closed {
  fill:      #d9d9d9;
  fill-rule: evenodd;
}


polygon {
  fill:            #d9d9d9;
  fill-rule:       evenodd;
  stroke:          black;
  stroke-linejoin: round;
  stroke-width:    2.0pt;
}


circle {
  fill:         #d9d9d9;
  stroke:       black;
  stroke-width: 2.0pt;
}


ellipse {
  fill:         #d9d9d9;
  stroke:       black;
  stroke-width: 2.0pt;
}


path {
  fill:            none;
  stroke:          black;
  stroke-linecap:  round;
  stroke-linejoin: round;
  stroke-width:    2.0pt;
}


path.closed {
  fill:      #d9d9d9;
  fill-rule: evenodd;
}


polygon.background,
path.background
{
  fill:   #fbfbfb;
  stroke: #c9c9c9;
  stroke-width: 1.5pt;
}

        ]]>
        </style>
    </defs>
    <clipPath id="design">
        <path d="M225-129.904h1350V649.52H225z"/>
    </clipPath>
    <g clip-path="url(#design)" color-rendering="optimizeQuality" shape-rendering="geometricPrecision" id="graphics">
        <path class="background closed" d="M1575-129.904V649.52H225v-779.424z"/>
        <path d="M-125-72.17v-28.866l-50-28.868 100 28.868M-125-72.17l-25 14.435-50-28.868 75 72.17M-25-72.17L0-57.734l50-28.868-75 72.17M-75 14.434l-25 14.434v57.735l-25-101.037M-25-72.17v-28.866l50-28.868-100 28.868M-75 14.434l25 14.434v57.735l25-101.037M125 72.17l25-14.435 50 28.868-75-72.17M125 72.17v28.866l50 28.868-100-28.868" class="polyline-4-1-1 open"/>
        <path d="M75-14.434L50-28.868v-57.735L25 14.434M25 72.17v28.866l-50 28.868 100-28.868M75-14.434l25-14.434v-57.735l25 101.037" class="polyline-4-1-1 open"/>
        <path d="M25 72.17L0 57.734l-50 28.868 75-72.17M25 187.64v-28.87l-50-28.866L75 158.77M25 187.64L0 202.072l-50-28.868 75 72.17M125 187.64l25 14.433 50-28.868-75 72.17M75 274.24l-25 14.435v57.735L25 245.374M125 187.64v-28.87l50-28.866L75 158.77M75 274.24l25 14.435v57.735l25-101.036M275 331.976l25-14.433 50 28.867-75-72.17M275 331.976v28.868l50 28.867-100-28.866M225 245.374l-25-14.434v-57.735L175 274.24M175 331.976v28.868l-50 28.867 100-28.866M225 245.374l25-14.434v-57.735l25 101.036M175 331.976l-25-14.433-50 28.867 75-72.17" class="polyline-4-1-1 open"/>
        <path d="M175 447.446V418.58l-50-28.87 100 28.87M175 447.446l-25 14.434-50-28.867 75 72.168M275 447.446l25 14.434 50-28.867-75 72.168M225 534.05l-25 14.433v57.735L175 505.18M275 447.446V418.58l50-28.87-100 28.87M225 534.05l25 14.433v57.735l25-101.037M425 591.784l25-14.434 50 28.868-75-72.17M425 591.784v28.868l50 28.867-100-28.868" class="polyline-4-1-1 open"/>
        <path d="M375 505.18l-25-14.432v-57.735L325 534.05M325 591.784v28.868l-50 28.867 100-28.868M375 505.18l25-14.432v-57.735l25 101.036" class="polyline-4-1-1 open"/>
        <path d="M325 591.784l-25-14.434-50 28.868 75-72.17M175-72.17v-28.866l-50-28.868 100 28.868M175-72.17l-25 14.435-50-28.868 75 72.17M275-72.17l25 14.435 50-28.868-75 72.17M225 14.434l-25 14.434v57.735L175-14.434M275-72.17v-28.866l50-28.868-100 28.868M225 14.434l25 14.434v57.735l25-101.037M425 72.17l25-14.435 50 28.868-75-72.17M425 72.17v28.866l50 28.868-100-28.868M375-14.434l-25-14.434v-57.735L325 14.434M325 72.17v28.866l-50 28.868 100-28.868M375-14.434l25-14.434v-57.735l25 101.037" class="polyline-4-1-1 open"/>
        <path d="M325 72.17l-25-14.435-50 28.868 75-72.17M325 187.64v-28.87l-50-28.866 100 28.867M325 187.64l-25 14.433-50-28.868 75 72.17M425 187.64l25 14.433 50-28.868-75 72.17M375 274.24l-25 14.435v57.735l-25-101.036M425 187.64v-28.87l50-28.866-100 28.867M375 274.24l25 14.435v57.735l25-101.036M575 331.976l25-14.433 50 28.867-75-72.17M575 331.976v28.868l50 28.867-100-28.866M525 245.374l-25-14.434v-57.735L475 274.24M475 331.976v28.868l-50 28.867 100-28.866M525 245.374l25-14.434v-57.735l25 101.036M475 331.976l-25-14.433-50 28.867 75-72.17" class="polyline-4-1-1 open"/>
        <path d="M475 447.446V418.58l-50-28.87 100 28.87M475 447.446l-25 14.434-50-28.867 75 72.168M575 447.446l25 14.434 50-28.867-75 72.168M525 534.05l-25 14.433v57.735L475 505.18M575 447.446V418.58l50-28.87-100 28.87M525 534.05l25 14.433v57.735l25-101.037M725 591.784l25-14.434 50 28.868-75-72.17M725 591.784v28.868l50 28.867-100-28.868" class="polyline-4-1-1 open"/>
        <path d="M675 505.18l-25-14.432v-57.735L625 534.05M625 591.784v28.868l-50 28.867 100-28.868M675 505.18l25-14.432v-57.735l25 101.036" class="polyline-4-1-1 open"/>
        <path d="M625 591.784l-25-14.434-50 28.868 75-72.17M475-72.17v-28.866l-50-28.868 100 28.868M475-72.17l-25 14.435-50-28.868 75 72.17M575-72.17l25 14.435 50-28.868-75 72.17M525 14.434l-25 14.434v57.735L475-14.434M575-72.17v-28.866l50-28.868-100 28.868M525 14.434l25 14.434v57.735l25-101.037M725 72.17l25-14.435 50 28.868-75-72.17M725 72.17v28.866l50 28.868-100-28.868M675-14.434l-25-14.434v-57.735L625 14.434M625 72.17v28.866l-50 28.868 100-28.868M675-14.434l25-14.434v-57.735l25 101.037" class="polyline-4-1-1 open"/>
        <path d="M625 72.17l-25-14.435-50 28.868 75-72.17M625 187.64v-28.87l-50-28.866 100 28.867M625 187.64l-25 14.433-50-28.868 75 72.17M725 187.64l25 14.433 50-28.868-75 72.17M675 274.24l-25 14.435v57.735l-25-101.036M725 187.64v-28.87l50-28.866-100 28.867M675 274.24l25 14.435v57.735l25-101.036M875 331.976l25-14.433 50 28.867-75-72.17M875 331.976v28.868l50 28.867-100-28.866M825 245.374l-25-14.434v-57.735L775 274.24M775 331.976v28.868l-50 28.867 100-28.866M825 245.374l25-14.434v-57.735l25 101.036M775 331.976l-25-14.433-50 28.867 75-72.17" class="polyline-4-1-1 open"/>
        <path d="M775 447.446V418.58l-50-28.87 100 28.87M775 447.446l-25 14.434-50-28.867 75 72.168M875 447.446l25 14.434 50-28.867-75 72.168M825 534.05l-25 14.433v57.735L775 505.18M875 447.446V418.58l50-28.87-100 28.87M825 534.05l25 14.433v57.735l25-101.037M1025 591.784l25-14.434 50 28.868-75-72.17M1025 591.784v28.868l50 28.867-100-28.868" class="polyline-4-1-1 open"/>
        <path d="M975 505.18l-25-14.432v-57.735L925 534.05M925 591.784v28.868l-50 28.867 100-28.868M975 505.18l25-14.432v-57.735l25 101.036" class="polyline-4-1-1 open"/>
        <path d="M925 591.784l-25-14.434-50 28.868 75-72.17M775-72.17v-28.866l-50-28.868 100 28.868M775-72.17l-25 14.435-50-28.868 75 72.17M875-72.17l25 14.435 50-28.868-75 72.17M825 14.434l-25 14.434v57.735L775-14.434M875-72.17v-28.866l50-28.868-100 28.868M825 14.434l25 14.434v57.735l25-101.037M1025 72.17l25-14.435 50 28.868-75-72.17M1025 72.17v28.866l50 28.868-100-28.868M975-14.434l-25-14.434v-57.735L925 14.434M925 72.17v28.866l-50 28.868 100-28.868M975-14.434l25-14.434v-57.735l25 101.037" class="polyline-4-1-1 open"/>
        <path d="M925 72.17l-25-14.435-50 28.868 75-72.17M925 187.64v-28.87l-50-28.866 100 28.867M925 187.64l-25 14.433-50-28.868 75 72.17M1025 187.64l25 14.433 50-28.868-75 72.17M975 274.24l-25 14.435v57.735l-25-101.036M1025 187.64v-28.87l50-28.866-100 28.867M975 274.24l25 14.435v57.735l25-101.036M1175 331.976l25-14.433 50 28.867-75-72.17M1175 331.976v28.868l50 28.867-100-28.866M1125 245.374l-25-14.434v-57.735l-25 101.036M1075 331.976v28.868l-50 28.867 100-28.866M1125 245.374l25-14.434v-57.735l25 101.036" class="polyline-4-1-1 open"/>
        <path d="M1075 331.976l-25-14.433-50 28.867 75-72.17M1075 447.446V418.58l-50-28.87 100 28.87M1075 447.446l-25 14.434-50-28.867 75 72.168M1175 447.446l25 14.434 50-28.867-75 72.168M1125 534.05l-25 14.433v57.735l-25-101.037M1175 447.446V418.58l50-28.87-100 28.87M1125 534.05l25 14.433v57.735l25-101.037M1325 591.784l25-14.434 50 28.868-75-72.17M1325 591.784v28.868l50 28.867-100-28.868" class="polyline-4-1-1 open"/>
        <path d="M1275 505.18l-25-14.432v-57.735l-25 101.036M1225 591.784v28.868l-50 28.867 100-28.868M1275 505.18l25-14.432v-57.735l25 101.036" class="polyline-4-1-1 open"/>
        <path d="M1225 591.784l-25-14.434-50 28.868 75-72.17M1075-72.17v-28.866l-50-28.868 100 28.868M1075-72.17l-25 14.435-50-28.868 75 72.17M1175-72.17l25 14.435 50-28.868-75 72.17M1125 14.434l-25 14.434v57.735l-25-101.037M1175-72.17v-28.866l50-28.868-100 28.868M1125 14.434l25 14.434v57.735l25-101.037M1325 72.17l25-14.435 50 28.868-75-72.17M1325 72.17v28.866l50 28.868-100-28.868M1275-14.434l-25-14.434v-57.735l-25 101.037M1225 72.17v28.866l-50 28.868 100-28.868M1275-14.434l25-14.434v-57.735l25 101.037" class="polyline-4-1-1 open"/>
        <path d="M1225 72.17l-25-14.435-50 28.868 75-72.17M1225 187.64v-28.87l-50-28.866 100 28.867M1225 187.64l-25 14.433-50-28.868 75 72.17M1325 187.64l25 14.433 50-28.868-75 72.17M1275 274.24l-25 14.435v57.735l-25-101.036M1325 187.64v-28.87l50-28.866-100 28.867M1275 274.24l25 14.435v57.735l25-101.036M1475 331.976l25-14.433 50 28.867-75-72.17M1475 331.976v28.868l50 28.867-100-28.866M1425 245.374l-25-14.434v-57.735l-25 101.036M1375 331.976v28.868l-50 28.867 100-28.866M1425 245.374l25-14.434v-57.735l25 101.036" class="polyline-4-1-1 open"/>
        <path d="M1375 331.976l-25-14.433-50 28.867 75-72.17M1375 447.446V418.58l-50-28.87 100 28.87M1375 447.446l-25 14.434-50-28.867 75 72.168M1475 447.446l25 14.434 50-28.867-75 72.168M1425 534.05l-25 14.433v57.735l-25-101.037M1475 447.446V418.58l50-28.87-100 28.87M1425 534.05l25 14.433v57.735l25-101.037M1625 591.784l25-14.434 50 28.868-75-72.17M1625 591.784v28.868l50 28.867-100-28.868" class="polyline-4-1-1 open"/>
        <path d="M1575 505.18l-25-14.432v-57.735l-25 101.036M1525 591.784v28.868l-50 28.867 100-28.868M1575 505.18l25-14.432v-57.735l25 101.036" class="polyline-4-1-1 open"/>
        <path d="M1525 591.784l-25-14.434-50 28.868 75-72.17M1375-72.17v-28.866l-50-28.868 100 28.868M1375-72.17l-25 14.435-50-28.868 75 72.17M1475-72.17l25 14.435 50-28.868-75 72.17M1425 14.434l-25 14.434v57.735l-25-101.037M1475-72.17v-28.866l50-28.868-100 28.868M1425 14.434l25 14.434v57.735l25-101.037M1625 72.17l25-14.435 50 28.868-75-72.17M1625 72.17v28.866l50 28.868-100-28.868M1575-14.434l-25-14.434v-57.735l-25 101.037M1525 72.17v28.866l-50 28.868 100-28.868M1575-14.434l25-14.434v-57.735l25 101.037" class="polyline-4-1-1 open"/>
        <path d="M1525 72.17l-25-14.435-50 28.868 75-72.17M1525 187.64v-28.87l-50-28.866 100 28.867M1525 187.64l-25 14.433-50-28.868 75 72.17M1625 187.64l25 14.433 50-28.868-75 72.17M1575 274.24l-25 14.435v57.735l-25-101.036M1625 187.64v-28.87l50-28.866-100 28.867M1575 274.24l25 14.435v57.735l25-101.036M1775 331.976l25-14.433 50 28.867-75-72.17M1775 331.976v28.868l50 28.867-100-28.866M1725 245.374l-25-14.434v-57.735l-25 101.036M1675 331.976v28.868l-50 28.867 100-28.866M1725 245.374l25-14.434v-57.735l25 101.036" class="polyline-4-1-1 open"/>
        <path d="M1675 331.976l-25-14.433-50 28.867 75-72.17M1675 447.446V418.58l-50-28.87 100 28.87M1675 447.446l-25 14.434-50-28.867 75 72.168M1775 447.446l25 14.434 50-28.867-75 72.168M1725 534.05l-25 14.433v57.735l-25-101.037M1775 447.446V418.58l50-28.87-100 28.87M1725 534.05l25 14.433v57.735l25-101.037M1925 591.784l25-14.434 50 28.868-75-72.17M1925 591.784v28.868l50 28.867-100-28.868" class="polyline-4-1-1 open"/>
        <path d="M1875 505.18l-25-14.432v-57.735l-25 101.036M1825 591.784v28.868l-50 28.867 100-28.868M1875 505.18l25-14.432v-57.735l25 101.036" class="polyline-4-1-1 open"/>
        <path d="M1825 591.784l-25-14.434-50 28.868 75-72.17" class="polyline-4-1-1 open"/>
    </g>
</svg>
