%!PS-Adobe-2.0 EPSF-2.0
%%BoundingBox: 0 0 1350 779
%%HiResBoundingBox: 0.000000 0.000000 1350.000000 779.000000
%%Creator: cairo 1.14.2 (http://cairographics.org)
%%CreationDate: Mon Sep  7 08:22:02 2015
%%DocumentData: Clean7Bit
%%LanguageLevel: 2
%%DocumentMedia: 476x275mm 1350 779 0 () ()
%%EndComments
% EPSF created by ps2eps 1.68
%%BeginProlog
save
countdictstack
mark
newpath
/showpage {} def
/setpagedevice {pop} def
%%EndProlog
%%Page 1 1
%%BeginProlog
/languagelevel where
{ pop languagelevel } { 1 } ifelse
2 lt { /Helvetica findfont 12 scalefont setfont 50 500 moveto
  (This print job requires a PostScript Language Level 2 printer.) show
  showpage quit } if
/q { gsave } bind def
/Q { grestore } bind def
/cm { 6 array astore concat } bind def
/w { setlinewidth } bind def
/J { setlinecap } bind def
/j { setlinejoin } bind def
/M { setmiterlimit } bind def
/d { setdash } bind def
/m { moveto } bind def
/l { lineto } bind def
/c { curveto } bind def
/h { closepath } bind def
/re { exch dup neg 3 1 roll 5 3 roll moveto 0 rlineto
      0 exch rlineto 0 rlineto closepath } bind def
/S { stroke } bind def
/f { fill } bind def
/f* { eofill } bind def
/n { newpath } bind def
/W { clip } bind def
/W* { eoclip } bind def
/BT { } bind def
/ET { } bind def
/pdfmark where { pop globaldict /?pdfmark /exec load put }
    { globaldict begin /?pdfmark /pop load def /pdfmark
    /cleartomark load def end } ifelse
/BDC { mark 3 1 roll /BDC pdfmark } bind def
/EMC { mark /EMC pdfmark } bind def
/cairo_store_point { /cairo_point_y exch def /cairo_point_x exch def } def
/Tj { show currentpoint cairo_store_point } bind def
/TJ {
  {
    dup
    type /stringtype eq
    { show } { -0.001 mul 0 cairo_font_matrix dtransform rmoveto } ifelse
  } forall
  currentpoint cairo_store_point
} bind def
/cairo_selectfont { cairo_font_matrix aload pop pop pop 0 0 6 array astore
    cairo_font exch selectfont cairo_point_x cairo_point_y moveto } bind def
/Tf { pop /cairo_font exch def /cairo_font_matrix where
      { pop cairo_selectfont } if } bind def
/Td { matrix translate cairo_font_matrix matrix concatmatrix dup
      /cairo_font_matrix exch def dup 4 get exch 5 get cairo_store_point
      /cairo_font where { pop cairo_selectfont } if } bind def
/Tm { 2 copy 8 2 roll 6 array astore /cairo_font_matrix exch def
      cairo_store_point /cairo_font where { pop cairo_selectfont } if } bind def
/g { setgray } bind def
/rg { setrgbcolor } bind def
/d1 { setcachedevice } bind def
/cairo_set_page_size {
  % Change paper size, but only if different from previous paper size otherwise
  % duplex fails. PLRM specifies a tolerance of 5 pts when matching paper size
  % so we use the same when checking if the size changes.
  /setpagedevice where {
    pop currentpagedevice
    /PageSize known {
      2 copy
      currentpagedevice /PageSize get aload pop
      exch 4 1 roll
      sub abs 5 gt
      3 1 roll
      sub abs 5 gt
      or
    } {
      true
    } ifelse
    {
      2 array astore
      2 dict begin
        /PageSize exch def
        /ImagingBBox null def
      currentdict end
      setpagedevice
    } {
      pop pop
    } ifelse
  } {
    pop
  } ifelse
} def
%%EndProlog
%%BeginSetup
%%EndSetup
%%Page: 1 1
%%BeginPageSetup
%%PageMedia: 476x275mm
%%PageBoundingBox: 0 0 1350 779
1350 779 cairo_set_page_size
%%EndPageSetup
q 0 0 1350 779 rectclip q
0.984314 g
0 0 1350 779 rectfill
0.788235 g
1.875 w
0 J
1 j
[] 0.0 d
4 M 0 779 1350 -779.422 re S
0 g
2.5 w
1 J
0 519.191 m -112.5 627.445 l S
0 519.191 m -150 562.492 l S
0 519.191 m -112.5 410.938 l S
0 519.191 m -150 475.891 l S
150 259.383 m 37.5 367.637 l S
150 259.383 m 0 302.688 l S
0 519.191 m -37.5 367.637 l S
-150 259.383 m 0 302.688 l S
0 519.191 m 37.5 367.637 l S
37.5 367.637 m 75 389.289 l S
0 302.688 m 0 259.383 l S
0 302.688 m 0 259.383 l S
37.5 367.637 m 75 389.289 l S
-150 259.383 m 0 216.082 l S
150 259.383 m 37.5 151.133 l S
0 -0.422 m -37.5 151.133 l S
150 259.383 m 0 216.082 l S
0 -0.422 m 37.5 151.133 l S
300 -0.422 m 187.5 107.832 l S
300 -0.422 m 150 42.879 l S
150 259.383 m 112.5 107.832 l S
0 -0.422 m 150 42.879 l S
150 259.383 m 187.5 107.832 l S
0 -0.422 m 112.5 107.832 l S
0 216.082 m 0 259.383 l S
37.5 151.133 m 75 129.48 l S
0 216.082 m 0 259.383 l S
37.5 151.133 m 75 129.48 l S
187.5 107.832 m 225 129.48 l S
150 42.879 m 150 -0.422 l S
112.5 107.832 m 75 129.48 l S
150 42.879 m 150 -0.422 l S
187.5 107.832 m 225 129.48 l S
112.5 107.832 m 75 129.48 l S
-150 779 m 0 735.699 l S
150 779 m 37.5 670.746 l S
0 519.191 m -37.5 670.746 l S
150 779 m 0 735.699 l S
0 519.191 m 37.5 670.746 l S
300 519.191 m 187.5 627.445 l S
300 519.191 m 150 562.492 l S
150 779 m 112.5 627.445 l S
0 519.191 m 150 562.492 l S
150 779 m 187.5 627.445 l S
0 519.191 m 112.5 627.445 l S
0 735.699 m 0 779 l S
37.5 670.746 m 75 649.098 l S
0 735.699 m 0 779 l S
37.5 670.746 m 75 649.098 l S
187.5 627.445 m 225 649.098 l S
150 562.492 m 150 519.191 l S
112.5 627.445 m 75 649.098 l S
150 562.492 m 150 519.191 l S
187.5 627.445 m 225 649.098 l S
112.5 627.445 m 75 649.098 l S
0 519.191 m 150 475.891 l S
0 519.191 m 112.5 410.938 l S
300 519.191 m 187.5 410.938 l S
150 259.383 m 112.5 410.938 l S
300 519.191 m 150 475.891 l S
150 259.383 m 187.5 410.938 l S
450 259.383 m 337.5 367.637 l S
450 259.383 m 300 302.688 l S
300 519.191 m 262.5 367.637 l S
150 259.383 m 300 302.688 l S
300 519.191 m 337.5 367.637 l S
150 259.383 m 262.5 367.637 l S
150 475.891 m 150 519.191 l S
112.5 410.938 m 75 389.289 l S
187.5 410.938 m 225 389.289 l S
112.5 410.938 m 75 389.289 l S
150 475.891 m 150 519.191 l S
187.5 410.938 m 225 389.289 l S
337.5 367.637 m 375 389.289 l S
300 302.688 m 300 259.383 l S
262.5 367.637 m 225 389.289 l S
300 302.688 m 300 259.383 l S
337.5 367.637 m 375 389.289 l S
262.5 367.637 m 225 389.289 l S
150 259.383 m 300 216.082 l S
150 259.383 m 262.5 151.133 l S
450 259.383 m 337.5 151.133 l S
300 -0.422 m 262.5 151.133 l S
450 259.383 m 300 216.082 l S
300 -0.422 m 337.5 151.133 l S
600 -0.422 m 487.5 107.832 l S
600 -0.422 m 450 42.879 l S
450 259.383 m 412.5 107.832 l S
300 -0.422 m 450 42.879 l S
450 259.383 m 487.5 107.832 l S
300 -0.422 m 412.5 107.832 l S
300 216.082 m 300 259.383 l S
262.5 151.133 m 225 129.48 l S
337.5 151.133 m 375 129.48 l S
262.5 151.133 m 225 129.48 l S
300 216.082 m 300 259.383 l S
337.5 151.133 m 375 129.48 l S
487.5 107.832 m 525 129.48 l S
450 42.879 m 450 -0.422 l S
412.5 107.832 m 375 129.48 l S
450 42.879 m 450 -0.422 l S
487.5 107.832 m 525 129.48 l S
412.5 107.832 m 375 129.48 l S
150 779 m 300 735.699 l S
150 779 m 262.5 670.746 l S
450 779 m 337.5 670.746 l S
300 519.191 m 262.5 670.746 l S
450 779 m 300 735.699 l S
300 519.191 m 337.5 670.746 l S
600 519.191 m 487.5 627.445 l S
600 519.191 m 450 562.492 l S
450 779 m 412.5 627.445 l S
300 519.191 m 450 562.492 l S
450 779 m 487.5 627.445 l S
300 519.191 m 412.5 627.445 l S
300 735.699 m 300 779 l S
262.5 670.746 m 225 649.098 l S
337.5 670.746 m 375 649.098 l S
262.5 670.746 m 225 649.098 l S
300 735.699 m 300 779 l S
337.5 670.746 m 375 649.098 l S
487.5 627.445 m 525 649.098 l S
450 562.492 m 450 519.191 l S
412.5 627.445 m 375 649.098 l S
450 562.492 m 450 519.191 l S
487.5 627.445 m 525 649.098 l S
412.5 627.445 m 375 649.098 l S
300 519.191 m 450 475.891 l S
300 519.191 m 412.5 410.938 l S
600 519.191 m 487.5 410.938 l S
450 259.383 m 412.5 410.938 l S
600 519.191 m 450 475.891 l S
450 259.383 m 487.5 410.938 l S
750 259.383 m 637.5 367.637 l S
750 259.383 m 600 302.688 l S
600 519.191 m 562.5 367.637 l S
450 259.383 m 600 302.688 l S
600 519.191 m 637.5 367.637 l S
450 259.383 m 562.5 367.637 l S
450 475.891 m 450 519.191 l S
412.5 410.938 m 375 389.289 l S
487.5 410.938 m 525 389.289 l S
412.5 410.938 m 375 389.289 l S
450 475.891 m 450 519.191 l S
487.5 410.938 m 525 389.289 l S
637.5 367.637 m 675 389.289 l S
600 302.688 m 600 259.383 l S
562.5 367.637 m 525 389.289 l S
600 302.688 m 600 259.383 l S
637.5 367.637 m 675 389.289 l S
562.5 367.637 m 525 389.289 l S
450 259.383 m 600 216.082 l S
450 259.383 m 562.5 151.133 l S
750 259.383 m 637.5 151.133 l S
600 -0.422 m 562.5 151.133 l S
750 259.383 m 600 216.082 l S
600 -0.422 m 637.5 151.133 l S
900 -0.422 m 787.5 107.832 l S
900 -0.422 m 750 42.879 l S
750 259.383 m 712.5 107.832 l S
600 -0.422 m 750 42.879 l S
750 259.383 m 787.5 107.832 l S
600 -0.422 m 712.5 107.832 l S
600 216.082 m 600 259.383 l S
562.5 151.133 m 525 129.48 l S
637.5 151.133 m 675 129.48 l S
562.5 151.133 m 525 129.48 l S
600 216.082 m 600 259.383 l S
637.5 151.133 m 675 129.48 l S
787.5 107.832 m 825 129.48 l S
750 42.879 m 750 -0.422 l S
712.5 107.832 m 675 129.48 l S
750 42.879 m 750 -0.422 l S
787.5 107.832 m 825 129.48 l S
712.5 107.832 m 675 129.48 l S
450 779 m 600 735.699 l S
450 779 m 562.5 670.746 l S
750 779 m 637.5 670.746 l S
600 519.191 m 562.5 670.746 l S
750 779 m 600 735.699 l S
600 519.191 m 637.5 670.746 l S
900 519.191 m 787.5 627.445 l S
900 519.191 m 750 562.492 l S
750 779 m 712.5 627.445 l S
600 519.191 m 750 562.492 l S
750 779 m 787.5 627.445 l S
600 519.191 m 712.5 627.445 l S
600 735.699 m 600 779 l S
562.5 670.746 m 525 649.098 l S
637.5 670.746 m 675 649.098 l S
562.5 670.746 m 525 649.098 l S
600 735.699 m 600 779 l S
637.5 670.746 m 675 649.098 l S
787.5 627.445 m 825 649.098 l S
750 562.492 m 750 519.191 l S
712.5 627.445 m 675 649.098 l S
750 562.492 m 750 519.191 l S
787.5 627.445 m 825 649.098 l S
712.5 627.445 m 675 649.098 l S
600 519.191 m 750 475.891 l S
600 519.191 m 712.5 410.938 l S
900 519.191 m 787.5 410.938 l S
750 259.383 m 712.5 410.938 l S
900 519.191 m 750 475.891 l S
750 259.383 m 787.5 410.938 l S
1050 259.383 m 937.5 367.637 l S
1050 259.383 m 900 302.688 l S
900 519.191 m 862.5 367.637 l S
750 259.383 m 900 302.688 l S
900 519.191 m 937.5 367.637 l S
750 259.383 m 862.5 367.637 l S
750 475.891 m 750 519.191 l S
712.5 410.938 m 675 389.289 l S
787.5 410.938 m 825 389.289 l S
712.5 410.938 m 675 389.289 l S
750 475.891 m 750 519.191 l S
787.5 410.938 m 825 389.289 l S
937.5 367.637 m 975 389.289 l S
900 302.688 m 900 259.383 l S
862.5 367.637 m 825 389.289 l S
900 302.688 m 900 259.383 l S
937.5 367.637 m 975 389.289 l S
862.5 367.637 m 825 389.289 l S
750 259.383 m 900 216.082 l S
750 259.383 m 862.5 151.133 l S
1050 259.383 m 937.5 151.133 l S
900 -0.422 m 862.5 151.133 l S
1050 259.383 m 900 216.082 l S
900 -0.422 m 937.5 151.133 l S
1200 -0.422 m 1087.5 107.832 l S
1200 -0.422 m 1050 42.879 l S
1050 259.383 m 1012.5 107.832 l S
900 -0.422 m 1050 42.879 l S
1050 259.383 m 1087.5 107.832 l S
900 -0.422 m 1012.5 107.832 l S
900 216.082 m 900 259.383 l S
862.5 151.133 m 825 129.48 l S
937.5 151.133 m 975 129.48 l S
862.5 151.133 m 825 129.48 l S
900 216.082 m 900 259.383 l S
937.5 151.133 m 975 129.48 l S
1087.5 107.832 m 1125 129.48 l S
1050 42.879 m 1050 -0.422 l S
1012.5 107.832 m 975 129.48 l S
1050 42.879 m 1050 -0.422 l S
1087.5 107.832 m 1125 129.48 l S
1012.5 107.832 m 975 129.48 l S
750 779 m 900 735.699 l S
750 779 m 862.5 670.746 l S
1050 779 m 937.5 670.746 l S
900 519.191 m 862.5 670.746 l S
1050 779 m 900 735.699 l S
900 519.191 m 937.5 670.746 l S
1200 519.191 m 1087.5 627.445 l S
1200 519.191 m 1050 562.492 l S
1050 779 m 1012.5 627.445 l S
900 519.191 m 1050 562.492 l S
1050 779 m 1087.5 627.445 l S
900 519.191 m 1012.5 627.445 l S
900 735.699 m 900 779 l S
862.5 670.746 m 825 649.098 l S
937.5 670.746 m 975 649.098 l S
862.5 670.746 m 825 649.098 l S
900 735.699 m 900 779 l S
937.5 670.746 m 975 649.098 l S
1087.5 627.445 m 1125 649.098 l S
1050 562.492 m 1050 519.191 l S
1012.5 627.445 m 975 649.098 l S
1050 562.492 m 1050 519.191 l S
1087.5 627.445 m 1125 649.098 l S
1012.5 627.445 m 975 649.098 l S
900 519.191 m 1050 475.891 l S
900 519.191 m 1012.5 410.938 l S
1200 519.191 m 1087.5 410.938 l S
1050 259.383 m 1012.5 410.938 l S
1200 519.191 m 1050 475.891 l S
1050 259.383 m 1087.5 410.938 l S
1350 259.383 m 1237.5 367.637 l S
1350 259.383 m 1200 302.688 l S
1200 519.191 m 1162.5 367.637 l S
1050 259.383 m 1200 302.688 l S
1200 519.191 m 1237.5 367.637 l S
1050 259.383 m 1162.5 367.637 l S
1050 475.891 m 1050 519.191 l S
1012.5 410.938 m 975 389.289 l S
1087.5 410.938 m 1125 389.289 l S
1012.5 410.938 m 975 389.289 l S
1050 475.891 m 1050 519.191 l S
1087.5 410.938 m 1125 389.289 l S
1237.5 367.637 m 1275 389.289 l S
1200 302.688 m 1200 259.383 l S
1162.5 367.637 m 1125 389.289 l S
1200 302.688 m 1200 259.383 l S
1237.5 367.637 m 1275 389.289 l S
1162.5 367.637 m 1125 389.289 l S
1050 259.383 m 1200 216.082 l S
1050 259.383 m 1162.5 151.133 l S
1350 259.383 m 1237.5 151.133 l S
1200 -0.422 m 1162.5 151.133 l S
1350 259.383 m 1200 216.082 l S
1200 -0.422 m 1237.5 151.133 l S
1500 -0.422 m 1350 42.879 l S
1350 259.383 m 1312.5 107.832 l S
1200 -0.422 m 1350 42.879 l S
1350 259.383 m 1387.5 107.832 l S
1200 -0.422 m 1312.5 107.832 l S
1200 216.082 m 1200 259.383 l S
1162.5 151.133 m 1125 129.48 l S
1237.5 151.133 m 1275 129.48 l S
1162.5 151.133 m 1125 129.48 l S
1200 216.082 m 1200 259.383 l S
1237.5 151.133 m 1275 129.48 l S
1350 42.879 m 1350 -0.422 l S
1312.5 107.832 m 1275 129.48 l S
1350 42.879 m 1350 -0.422 l S
1312.5 107.832 m 1275 129.48 l S
1050 779 m 1200 735.699 l S
1050 779 m 1162.5 670.746 l S
1350 779 m 1237.5 670.746 l S
1200 519.191 m 1162.5 670.746 l S
1350 779 m 1200 735.699 l S
1200 519.191 m 1237.5 670.746 l S
1500 519.191 m 1350 562.492 l S
1350 779 m 1312.5 627.445 l S
1200 519.191 m 1350 562.492 l S
1350 779 m 1387.5 627.445 l S
1200 519.191 m 1312.5 627.445 l S
1200 735.699 m 1200 779 l S
1162.5 670.746 m 1125 649.098 l S
1237.5 670.746 m 1275 649.098 l S
1162.5 670.746 m 1125 649.098 l S
1200 735.699 m 1200 779 l S
1237.5 670.746 m 1275 649.098 l S
1350 562.492 m 1350 519.191 l S
1312.5 627.445 m 1275 649.098 l S
1350 562.492 m 1350 519.191 l S
1312.5 627.445 m 1275 649.098 l S
1200 519.191 m 1350 475.891 l S
1200 519.191 m 1312.5 410.938 l S
1350 259.383 m 1312.5 410.938 l S
1500 519.191 m 1350 475.891 l S
1350 259.383 m 1387.5 410.938 l S
1350 259.383 m 1500 302.688 l S
1350 259.383 m 1462.5 367.637 l S
1350 475.891 m 1350 519.191 l S
1312.5 410.938 m 1275 389.289 l S
1312.5 410.938 m 1275 389.289 l S
1350 475.891 m 1350 519.191 l S
1350 259.383 m 1500 216.082 l S
1350 259.383 m 1462.5 151.133 l S
Q Q
showpage
%%Trailer
%%Trailer
cleartomark
countdictstack
exch sub { end } repeat
restore
%%EOF
