%!PS-Adobe-2.0 EPSF-2.0
%%BoundingBox: 0 0 1350 779
%%HiResBoundingBox: 0.000000 0.000000 1350.000000 779.000000
%%Creator: cairo 1.14.2 (http://cairographics.org)
%%CreationDate: Mon Sep  7 08:22:03 2015
%%DocumentData: Clean7Bit
%%LanguageLevel: 2
%%DocumentMedia: 476x275mm 1350 779 0 () ()
%%EndComments
% EPSF created by ps2eps 1.68
%%BeginProlog
save
countdictstack
mark
newpath
/showpage {} def
/setpagedevice {pop} def
%%EndProlog
%%Page 1 1
%%BeginProlog
/languagelevel where
{ pop languagelevel } { 1 } ifelse
2 lt { /Helvetica findfont 12 scalefont setfont 50 500 moveto
  (This print job requires a PostScript Language Level 2 printer.) show
  showpage quit } if
/q { gsave } bind def
/Q { grestore } bind def
/cm { 6 array astore concat } bind def
/w { setlinewidth } bind def
/J { setlinecap } bind def
/j { setlinejoin } bind def
/M { setmiterlimit } bind def
/d { setdash } bind def
/m { moveto } bind def
/l { lineto } bind def
/c { curveto } bind def
/h { closepath } bind def
/re { exch dup neg 3 1 roll 5 3 roll moveto 0 rlineto
      0 exch rlineto 0 rlineto closepath } bind def
/S { stroke } bind def
/f { fill } bind def
/f* { eofill } bind def
/n { newpath } bind def
/W { clip } bind def
/W* { eoclip } bind def
/BT { } bind def
/ET { } bind def
/pdfmark where { pop globaldict /?pdfmark /exec load put }
    { globaldict begin /?pdfmark /pop load def /pdfmark
    /cleartomark load def end } ifelse
/BDC { mark 3 1 roll /BDC pdfmark } bind def
/EMC { mark /EMC pdfmark } bind def
/cairo_store_point { /cairo_point_y exch def /cairo_point_x exch def } def
/Tj { show currentpoint cairo_store_point } bind def
/TJ {
  {
    dup
    type /stringtype eq
    { show } { -0.001 mul 0 cairo_font_matrix dtransform rmoveto } ifelse
  } forall
  currentpoint cairo_store_point
} bind def
/cairo_selectfont { cairo_font_matrix aload pop pop pop 0 0 6 array astore
    cairo_font exch selectfont cairo_point_x cairo_point_y moveto } bind def
/Tf { pop /cairo_font exch def /cairo_font_matrix where
      { pop cairo_selectfont } if } bind def
/Td { matrix translate cairo_font_matrix matrix concatmatrix dup
      /cairo_font_matrix exch def dup 4 get exch 5 get cairo_store_point
      /cairo_font where { pop cairo_selectfont } if } bind def
/Tm { 2 copy 8 2 roll 6 array astore /cairo_font_matrix exch def
      cairo_store_point /cairo_font where { pop cairo_selectfont } if } bind def
/g { setgray } bind def
/rg { setrgbcolor } bind def
/d1 { setcachedevice } bind def
/cairo_set_page_size {
  % Change paper size, but only if different from previous paper size otherwise
  % duplex fails. PLRM specifies a tolerance of 5 pts when matching paper size
  % so we use the same when checking if the size changes.
  /setpagedevice where {
    pop currentpagedevice
    /PageSize known {
      2 copy
      currentpagedevice /PageSize get aload pop
      exch 4 1 roll
      sub abs 5 gt
      3 1 roll
      sub abs 5 gt
      or
    } {
      true
    } ifelse
    {
      2 array astore
      2 dict begin
        /PageSize exch def
        /ImagingBBox null def
      currentdict end
      setpagedevice
    } {
      pop pop
    } ifelse
  } {
    pop
  } ifelse
} def
%%EndProlog
%%BeginSetup
%%EndSetup
%%Page: 1 1
%%BeginPageSetup
%%PageMedia: 476x275mm
%%PageBoundingBox: 0 0 1350 779
1350 779 cairo_set_page_size
%%EndPageSetup
q 0 0 1350 779 rectclip q
0.984314 g
0 0 1350 779 rectfill
0.788235 g
1.875 w
0 J
1 j
[] 0.0 d
4 M 0 779 1350 -779.422 re S
0 g
2.5 w
1 J
100 288.254 m 125 302.688 l 100 345.988 l S
100 288.254 m 100 259.383 l 50 259.383 l S
0 461.457 m -25 475.891 l -50 432.59 l S
0 461.457 m 25 475.891 l 50 432.59 l S
125 302.688 m 100 345.988 l 50 374.855 l S
100 259.383 m 50 259.383 l 0 288.254 l S
-100 259.383 m -50 259.383 l 0 288.254 l S
25 475.891 m 50 432.59 l 50 374.855 l S
100 230.516 m 125 216.082 l 100 172.781 l S
0 57.312 m -25 42.879 l -50 86.18 l S
100 230.516 m 100 259.383 l 50 259.383 l S
0 57.312 m 25 42.879 l 50 86.18 l S
250 28.445 m 275 42.879 l 250 86.18 l S
250 28.445 m 250 -0.422 l 200 -0.422 l S
150 201.648 m 125 216.082 l 100 172.781 l S
50 28.445 m 50 -0.422 l 100 -0.422 l S
150 201.648 m 175 216.082 l 200 172.781 l S
50 28.445 m 25 42.879 l 50 86.18 l S
-100 259.383 m -50 259.383 l 0 230.516 l S
125 216.082 m 100 172.781 l 50 143.914 l S
100 259.383 m 50 259.383 l 0 230.516 l S
25 42.879 m 50 86.18 l 50 143.914 l S
275 42.879 m 250 86.18 l 200 115.047 l S
250 -0.422 m 200 -0.422 l 150 28.445 l S
125 216.082 m 100 172.781 l 100 115.047 l S
50 -0.422 m 100 -0.422 l 150 28.445 l S
175 216.082 m 200 172.781 l 200 115.047 l S
25 42.879 m 50 86.18 l 100 115.047 l S
100 750.133 m 125 735.699 l 100 692.398 l S
0 576.926 m -25 562.492 l -50 605.793 l S
100 750.133 m 100 779 l 50 779 l S
0 576.926 m 25 562.492 l 50 605.793 l S
250 548.059 m 275 562.492 l 250 605.793 l S
250 548.059 m 250 519.191 l 200 519.191 l S
150 721.266 m 125 735.699 l 100 692.398 l S
50 548.059 m 50 519.191 l 100 519.191 l S
150 721.266 m 175 735.699 l 200 692.398 l S
50 548.059 m 25 562.492 l 50 605.793 l S
-100 779 m -50 779 l 0 750.133 l S
125 735.699 m 100 692.398 l 50 663.531 l S
100 779 m 50 779 l 0 750.133 l S
25 562.492 m 50 605.793 l 50 663.531 l S
275 562.492 m 250 605.793 l 200 634.664 l S
250 519.191 m 200 519.191 l 150 548.059 l S
125 735.699 m 100 692.398 l 100 634.664 l S
50 519.191 m 100 519.191 l 150 548.059 l S
175 735.699 m 200 692.398 l 200 634.664 l S
25 562.492 m 50 605.793 l 100 634.664 l S
50 490.324 m 50 519.191 l 100 519.191 l S
50 490.324 m 25 475.891 l 50 432.59 l S
250 490.324 m 275 475.891 l 250 432.59 l S
150 317.121 m 125 302.688 l 100 345.988 l S
250 490.324 m 250 519.191 l 200 519.191 l S
150 317.121 m 175 302.688 l 200 345.988 l S
400 288.254 m 425 302.688 l 400 345.988 l S
400 288.254 m 400 259.383 l 350 259.383 l S
300 461.457 m 275 475.891 l 250 432.59 l S
200 288.254 m 200 259.383 l 250 259.383 l S
300 461.457 m 325 475.891 l 350 432.59 l S
200 288.254 m 175 302.688 l 200 345.988 l S
50 519.191 m 100 519.191 l 150 490.324 l S
25 475.891 m 50 432.59 l 100 403.723 l S
275 475.891 m 250 432.59 l 200 403.723 l S
125 302.688 m 100 345.988 l 100 403.723 l S
250 519.191 m 200 519.191 l 150 490.324 l S
175 302.688 m 200 345.988 l 200 403.723 l S
425 302.688 m 400 345.988 l 350 374.855 l S
400 259.383 m 350 259.383 l 300 288.254 l S
275 475.891 m 250 432.59 l 250 374.855 l S
200 259.383 m 250 259.383 l 300 288.254 l S
325 475.891 m 350 432.59 l 350 374.855 l S
175 302.688 m 200 345.988 l 250 374.855 l S
200 230.516 m 200 259.383 l 250 259.383 l S
200 230.516 m 175 216.082 l 200 172.781 l S
400 230.516 m 425 216.082 l 400 172.781 l S
300 57.312 m 275 42.879 l 250 86.18 l S
400 230.516 m 400 259.383 l 350 259.383 l S
300 57.312 m 325 42.879 l 350 86.18 l S
550 28.445 m 575 42.879 l 550 86.18 l S
550 28.445 m 550 -0.422 l 500 -0.422 l S
450 201.648 m 425 216.082 l 400 172.781 l S
350 28.445 m 350 -0.422 l 400 -0.422 l S
450 201.648 m 475 216.082 l 500 172.781 l S
350 28.445 m 325 42.879 l 350 86.18 l S
200 259.383 m 250 259.383 l 300 230.516 l S
175 216.082 m 200 172.781 l 250 143.914 l S
425 216.082 m 400 172.781 l 350 143.914 l S
275 42.879 m 250 86.18 l 250 143.914 l S
400 259.383 m 350 259.383 l 300 230.516 l S
325 42.879 m 350 86.18 l 350 143.914 l S
575 42.879 m 550 86.18 l 500 115.047 l S
550 -0.422 m 500 -0.422 l 450 28.445 l S
425 216.082 m 400 172.781 l 400 115.047 l S
350 -0.422 m 400 -0.422 l 450 28.445 l S
475 216.082 m 500 172.781 l 500 115.047 l S
325 42.879 m 350 86.18 l 400 115.047 l S
200 750.133 m 200 779 l 250 779 l S
200 750.133 m 175 735.699 l 200 692.398 l S
400 750.133 m 425 735.699 l 400 692.398 l S
300 576.926 m 275 562.492 l 250 605.793 l S
400 750.133 m 400 779 l 350 779 l S
300 576.926 m 325 562.492 l 350 605.793 l S
550 548.059 m 575 562.492 l 550 605.793 l S
550 548.059 m 550 519.191 l 500 519.191 l S
450 721.266 m 425 735.699 l 400 692.398 l S
350 548.059 m 350 519.191 l 400 519.191 l S
450 721.266 m 475 735.699 l 500 692.398 l S
350 548.059 m 325 562.492 l 350 605.793 l S
200 779 m 250 779 l 300 750.133 l S
175 735.699 m 200 692.398 l 250 663.531 l S
425 735.699 m 400 692.398 l 350 663.531 l S
275 562.492 m 250 605.793 l 250 663.531 l S
400 779 m 350 779 l 300 750.133 l S
325 562.492 m 350 605.793 l 350 663.531 l S
575 562.492 m 550 605.793 l 500 634.664 l S
550 519.191 m 500 519.191 l 450 548.059 l S
425 735.699 m 400 692.398 l 400 634.664 l S
350 519.191 m 400 519.191 l 450 548.059 l S
475 735.699 m 500 692.398 l 500 634.664 l S
325 562.492 m 350 605.793 l 400 634.664 l S
350 490.324 m 350 519.191 l 400 519.191 l S
350 490.324 m 325 475.891 l 350 432.59 l S
550 490.324 m 575 475.891 l 550 432.59 l S
450 317.121 m 425 302.688 l 400 345.988 l S
550 490.324 m 550 519.191 l 500 519.191 l S
450 317.121 m 475 302.688 l 500 345.988 l S
700 288.254 m 725 302.688 l 700 345.988 l S
700 288.254 m 700 259.383 l 650 259.383 l S
600 461.457 m 575 475.891 l 550 432.59 l S
500 288.254 m 500 259.383 l 550 259.383 l S
600 461.457 m 625 475.891 l 650 432.59 l S
500 288.254 m 475 302.688 l 500 345.988 l S
350 519.191 m 400 519.191 l 450 490.324 l S
325 475.891 m 350 432.59 l 400 403.723 l S
575 475.891 m 550 432.59 l 500 403.723 l S
425 302.688 m 400 345.988 l 400 403.723 l S
550 519.191 m 500 519.191 l 450 490.324 l S
475 302.688 m 500 345.988 l 500 403.723 l S
725 302.688 m 700 345.988 l 650 374.855 l S
700 259.383 m 650 259.383 l 600 288.254 l S
575 475.891 m 550 432.59 l 550 374.855 l S
500 259.383 m 550 259.383 l 600 288.254 l S
625 475.891 m 650 432.59 l 650 374.855 l S
475 302.688 m 500 345.988 l 550 374.855 l S
500 230.516 m 500 259.383 l 550 259.383 l S
500 230.516 m 475 216.082 l 500 172.781 l S
700 230.516 m 725 216.082 l 700 172.781 l S
600 57.312 m 575 42.879 l 550 86.18 l S
700 230.516 m 700 259.383 l 650 259.383 l S
600 57.312 m 625 42.879 l 650 86.18 l S
850 28.445 m 875 42.879 l 850 86.18 l S
850 28.445 m 850 -0.422 l 800 -0.422 l S
750 201.648 m 725 216.082 l 700 172.781 l S
650 28.445 m 650 -0.422 l 700 -0.422 l S
750 201.648 m 775 216.082 l 800 172.781 l S
650 28.445 m 625 42.879 l 650 86.18 l S
500 259.383 m 550 259.383 l 600 230.516 l S
475 216.082 m 500 172.781 l 550 143.914 l S
725 216.082 m 700 172.781 l 650 143.914 l S
575 42.879 m 550 86.18 l 550 143.914 l S
700 259.383 m 650 259.383 l 600 230.516 l S
625 42.879 m 650 86.18 l 650 143.914 l S
875 42.879 m 850 86.18 l 800 115.047 l S
850 -0.422 m 800 -0.422 l 750 28.445 l S
725 216.082 m 700 172.781 l 700 115.047 l S
650 -0.422 m 700 -0.422 l 750 28.445 l S
775 216.082 m 800 172.781 l 800 115.047 l S
625 42.879 m 650 86.18 l 700 115.047 l S
500 750.133 m 500 779 l 550 779 l S
500 750.133 m 475 735.699 l 500 692.398 l S
700 750.133 m 725 735.699 l 700 692.398 l S
600 576.926 m 575 562.492 l 550 605.793 l S
700 750.133 m 700 779 l 650 779 l S
600 576.926 m 625 562.492 l 650 605.793 l S
850 548.059 m 875 562.492 l 850 605.793 l S
850 548.059 m 850 519.191 l 800 519.191 l S
750 721.266 m 725 735.699 l 700 692.398 l S
650 548.059 m 650 519.191 l 700 519.191 l S
750 721.266 m 775 735.699 l 800 692.398 l S
650 548.059 m 625 562.492 l 650 605.793 l S
500 779 m 550 779 l 600 750.133 l S
475 735.699 m 500 692.398 l 550 663.531 l S
725 735.699 m 700 692.398 l 650 663.531 l S
575 562.492 m 550 605.793 l 550 663.531 l S
700 779 m 650 779 l 600 750.133 l S
625 562.492 m 650 605.793 l 650 663.531 l S
875 562.492 m 850 605.793 l 800 634.664 l S
850 519.191 m 800 519.191 l 750 548.059 l S
725 735.699 m 700 692.398 l 700 634.664 l S
650 519.191 m 700 519.191 l 750 548.059 l S
775 735.699 m 800 692.398 l 800 634.664 l S
625 562.492 m 650 605.793 l 700 634.664 l S
650 490.324 m 650 519.191 l 700 519.191 l S
650 490.324 m 625 475.891 l 650 432.59 l S
850 490.324 m 875 475.891 l 850 432.59 l S
750 317.121 m 725 302.688 l 700 345.988 l S
850 490.324 m 850 519.191 l 800 519.191 l S
750 317.121 m 775 302.688 l 800 345.988 l S
1000 288.254 m 1025 302.688 l 1000 345.988 l S
1000 288.254 m 1000 259.383 l 950 259.383 l S
900 461.457 m 875 475.891 l 850 432.59 l S
800 288.254 m 800 259.383 l 850 259.383 l S
900 461.457 m 925 475.891 l 950 432.59 l S
800 288.254 m 775 302.688 l 800 345.988 l S
650 519.191 m 700 519.191 l 750 490.324 l S
625 475.891 m 650 432.59 l 700 403.723 l S
875 475.891 m 850 432.59 l 800 403.723 l S
725 302.688 m 700 345.988 l 700 403.723 l S
850 519.191 m 800 519.191 l 750 490.324 l S
775 302.688 m 800 345.988 l 800 403.723 l S
1025 302.688 m 1000 345.988 l 950 374.855 l S
1000 259.383 m 950 259.383 l 900 288.254 l S
875 475.891 m 850 432.59 l 850 374.855 l S
800 259.383 m 850 259.383 l 900 288.254 l S
925 475.891 m 950 432.59 l 950 374.855 l S
775 302.688 m 800 345.988 l 850 374.855 l S
800 230.516 m 800 259.383 l 850 259.383 l S
800 230.516 m 775 216.082 l 800 172.781 l S
1000 230.516 m 1025 216.082 l 1000 172.781 l S
900 57.312 m 875 42.879 l 850 86.18 l S
1000 230.516 m 1000 259.383 l 950 259.383 l S
900 57.312 m 925 42.879 l 950 86.18 l S
1150 28.445 m 1175 42.879 l 1150 86.18 l S
1150 28.445 m 1150 -0.422 l 1100 -0.422 l S
1050 201.648 m 1025 216.082 l 1000 172.781 l S
950 28.445 m 950 -0.422 l 1000 -0.422 l S
1050 201.648 m 1075 216.082 l 1100 172.781 l S
950 28.445 m 925 42.879 l 950 86.18 l S
800 259.383 m 850 259.383 l 900 230.516 l S
775 216.082 m 800 172.781 l 850 143.914 l S
1025 216.082 m 1000 172.781 l 950 143.914 l S
875 42.879 m 850 86.18 l 850 143.914 l S
1000 259.383 m 950 259.383 l 900 230.516 l S
925 42.879 m 950 86.18 l 950 143.914 l S
1175 42.879 m 1150 86.18 l 1100 115.047 l S
1150 -0.422 m 1100 -0.422 l 1050 28.445 l S
1025 216.082 m 1000 172.781 l 1000 115.047 l S
950 -0.422 m 1000 -0.422 l 1050 28.445 l S
1075 216.082 m 1100 172.781 l 1100 115.047 l S
925 42.879 m 950 86.18 l 1000 115.047 l S
800 750.133 m 800 779 l 850 779 l S
800 750.133 m 775 735.699 l 800 692.398 l S
1000 750.133 m 1025 735.699 l 1000 692.398 l S
900 576.926 m 875 562.492 l 850 605.793 l S
1000 750.133 m 1000 779 l 950 779 l S
900 576.926 m 925 562.492 l 950 605.793 l S
1150 548.059 m 1175 562.492 l 1150 605.793 l S
1150 548.059 m 1150 519.191 l 1100 519.191 l S
1050 721.266 m 1025 735.699 l 1000 692.398 l S
950 548.059 m 950 519.191 l 1000 519.191 l S
1050 721.266 m 1075 735.699 l 1100 692.398 l S
950 548.059 m 925 562.492 l 950 605.793 l S
800 779 m 850 779 l 900 750.133 l S
775 735.699 m 800 692.398 l 850 663.531 l S
1025 735.699 m 1000 692.398 l 950 663.531 l S
875 562.492 m 850 605.793 l 850 663.531 l S
1000 779 m 950 779 l 900 750.133 l S
925 562.492 m 950 605.793 l 950 663.531 l S
1175 562.492 m 1150 605.793 l 1100 634.664 l S
1150 519.191 m 1100 519.191 l 1050 548.059 l S
1025 735.699 m 1000 692.398 l 1000 634.664 l S
950 519.191 m 1000 519.191 l 1050 548.059 l S
1075 735.699 m 1100 692.398 l 1100 634.664 l S
925 562.492 m 950 605.793 l 1000 634.664 l S
950 490.324 m 950 519.191 l 1000 519.191 l S
950 490.324 m 925 475.891 l 950 432.59 l S
1150 490.324 m 1175 475.891 l 1150 432.59 l S
1050 317.121 m 1025 302.688 l 1000 345.988 l S
1150 490.324 m 1150 519.191 l 1100 519.191 l S
1050 317.121 m 1075 302.688 l 1100 345.988 l S
1300 288.254 m 1325 302.688 l 1300 345.988 l S
1300 288.254 m 1300 259.383 l 1250 259.383 l S
1200 461.457 m 1175 475.891 l 1150 432.59 l S
1100 288.254 m 1100 259.383 l 1150 259.383 l S
1200 461.457 m 1225 475.891 l 1250 432.59 l S
1100 288.254 m 1075 302.688 l 1100 345.988 l S
950 519.191 m 1000 519.191 l 1050 490.324 l S
925 475.891 m 950 432.59 l 1000 403.723 l S
1175 475.891 m 1150 432.59 l 1100 403.723 l S
1025 302.688 m 1000 345.988 l 1000 403.723 l S
1150 519.191 m 1100 519.191 l 1050 490.324 l S
1075 302.688 m 1100 345.988 l 1100 403.723 l S
1325 302.688 m 1300 345.988 l 1250 374.855 l S
1300 259.383 m 1250 259.383 l 1200 288.254 l S
1175 475.891 m 1150 432.59 l 1150 374.855 l S
1100 259.383 m 1150 259.383 l 1200 288.254 l S
1225 475.891 m 1250 432.59 l 1250 374.855 l S
1075 302.688 m 1100 345.988 l 1150 374.855 l S
1100 230.516 m 1100 259.383 l 1150 259.383 l S
1100 230.516 m 1075 216.082 l 1100 172.781 l S
1300 230.516 m 1325 216.082 l 1300 172.781 l S
1200 57.312 m 1175 42.879 l 1150 86.18 l S
1300 230.516 m 1300 259.383 l 1250 259.383 l S
1200 57.312 m 1225 42.879 l 1250 86.18 l S
1350 201.648 m 1325 216.082 l 1300 172.781 l S
1250 28.445 m 1250 -0.422 l 1300 -0.422 l S
1350 201.648 m 1375 216.082 l 1400 172.781 l S
1250 28.445 m 1225 42.879 l 1250 86.18 l S
1100 259.383 m 1150 259.383 l 1200 230.516 l S
1075 216.082 m 1100 172.781 l 1150 143.914 l S
1325 216.082 m 1300 172.781 l 1250 143.914 l S
1175 42.879 m 1150 86.18 l 1150 143.914 l S
1300 259.383 m 1250 259.383 l 1200 230.516 l S
1225 42.879 m 1250 86.18 l 1250 143.914 l S
1450 -0.422 m 1400 -0.422 l 1350 28.445 l S
1325 216.082 m 1300 172.781 l 1300 115.047 l S
1250 -0.422 m 1300 -0.422 l 1350 28.445 l S
1225 42.879 m 1250 86.18 l 1300 115.047 l S
1100 750.133 m 1100 779 l 1150 779 l S
1100 750.133 m 1075 735.699 l 1100 692.398 l S
1300 750.133 m 1325 735.699 l 1300 692.398 l S
1200 576.926 m 1175 562.492 l 1150 605.793 l S
1300 750.133 m 1300 779 l 1250 779 l S
1200 576.926 m 1225 562.492 l 1250 605.793 l S
1350 721.266 m 1325 735.699 l 1300 692.398 l S
1250 548.059 m 1250 519.191 l 1300 519.191 l S
1350 721.266 m 1375 735.699 l 1400 692.398 l S
1250 548.059 m 1225 562.492 l 1250 605.793 l S
1100 779 m 1150 779 l 1200 750.133 l S
1075 735.699 m 1100 692.398 l 1150 663.531 l S
1325 735.699 m 1300 692.398 l 1250 663.531 l S
1175 562.492 m 1150 605.793 l 1150 663.531 l S
1300 779 m 1250 779 l 1200 750.133 l S
1225 562.492 m 1250 605.793 l 1250 663.531 l S
1450 519.191 m 1400 519.191 l 1350 548.059 l S
1325 735.699 m 1300 692.398 l 1300 634.664 l S
1250 519.191 m 1300 519.191 l 1350 548.059 l S
1225 562.492 m 1250 605.793 l 1300 634.664 l S
1250 490.324 m 1250 519.191 l 1300 519.191 l S
1250 490.324 m 1225 475.891 l 1250 432.59 l S
1350 317.121 m 1325 302.688 l 1300 345.988 l S
1350 317.121 m 1375 302.688 l 1400 345.988 l S
1250 519.191 m 1300 519.191 l 1350 490.324 l S
1225 475.891 m 1250 432.59 l 1300 403.723 l S
1325 302.688 m 1300 345.988 l 1300 403.723 l S
1450 519.191 m 1400 519.191 l 1350 490.324 l S
Q Q
showpage
%%Trailer
%%Trailer
cleartomark
countdictstack
exch sub { end } repeat
restore
%%EOF
