%!PS-Adobe-2.0 EPSF-2.0
%%BoundingBox: 0 0 1350 779
%%HiResBoundingBox: 0.000000 0.000000 1350.000000 779.000000
%%Creator: cairo 1.14.2 (http://cairographics.org)
%%CreationDate: Mon Sep  7 08:22:03 2015
%%DocumentData: Clean7Bit
%%LanguageLevel: 2
%%DocumentMedia: 476x275mm 1350 779 0 () ()
%%EndComments
% EPSF created by ps2eps 1.68
%%BeginProlog
save
countdictstack
mark
newpath
/showpage {} def
/setpagedevice {pop} def
%%EndProlog
%%Page 1 1
%%BeginProlog
/languagelevel where
{ pop languagelevel } { 1 } ifelse
2 lt { /Helvetica findfont 12 scalefont setfont 50 500 moveto
  (This print job requires a PostScript Language Level 2 printer.) show
  showpage quit } if
/q { gsave } bind def
/Q { grestore } bind def
/cm { 6 array astore concat } bind def
/w { setlinewidth } bind def
/J { setlinecap } bind def
/j { setlinejoin } bind def
/M { setmiterlimit } bind def
/d { setdash } bind def
/m { moveto } bind def
/l { lineto } bind def
/c { curveto } bind def
/h { closepath } bind def
/re { exch dup neg 3 1 roll 5 3 roll moveto 0 rlineto
      0 exch rlineto 0 rlineto closepath } bind def
/S { stroke } bind def
/f { fill } bind def
/f* { eofill } bind def
/n { newpath } bind def
/W { clip } bind def
/W* { eoclip } bind def
/BT { } bind def
/ET { } bind def
/pdfmark where { pop globaldict /?pdfmark /exec load put }
    { globaldict begin /?pdfmark /pop load def /pdfmark
    /cleartomark load def end } ifelse
/BDC { mark 3 1 roll /BDC pdfmark } bind def
/EMC { mark /EMC pdfmark } bind def
/cairo_store_point { /cairo_point_y exch def /cairo_point_x exch def } def
/Tj { show currentpoint cairo_store_point } bind def
/TJ {
  {
    dup
    type /stringtype eq
    { show } { -0.001 mul 0 cairo_font_matrix dtransform rmoveto } ifelse
  } forall
  currentpoint cairo_store_point
} bind def
/cairo_selectfont { cairo_font_matrix aload pop pop pop 0 0 6 array astore
    cairo_font exch selectfont cairo_point_x cairo_point_y moveto } bind def
/Tf { pop /cairo_font exch def /cairo_font_matrix where
      { pop cairo_selectfont } if } bind def
/Td { matrix translate cairo_font_matrix matrix concatmatrix dup
      /cairo_font_matrix exch def dup 4 get exch 5 get cairo_store_point
      /cairo_font where { pop cairo_selectfont } if } bind def
/Tm { 2 copy 8 2 roll 6 array astore /cairo_font_matrix exch def
      cairo_store_point /cairo_font where { pop cairo_selectfont } if } bind def
/g { setgray } bind def
/rg { setrgbcolor } bind def
/d1 { setcachedevice } bind def
/cairo_set_page_size {
  % Change paper size, but only if different from previous paper size otherwise
  % duplex fails. PLRM specifies a tolerance of 5 pts when matching paper size
  % so we use the same when checking if the size changes.
  /setpagedevice where {
    pop currentpagedevice
    /PageSize known {
      2 copy
      currentpagedevice /PageSize get aload pop
      exch 4 1 roll
      sub abs 5 gt
      3 1 roll
      sub abs 5 gt
      or
    } {
      true
    } ifelse
    {
      2 array astore
      2 dict begin
        /PageSize exch def
        /ImagingBBox null def
      currentdict end
      setpagedevice
    } {
      pop pop
    } ifelse
  } {
    pop
  } ifelse
} def
%%EndProlog
%%BeginSetup
%%EndSetup
%%Page: 1 1
%%BeginPageSetup
%%PageMedia: 476x275mm
%%PageBoundingBox: 0 0 1350 779
1350 779 cairo_set_page_size
%%EndPageSetup
q 0 0 1350 779 rectclip q
0.984314 g
0 0 1350 779 rectfill
0.788235 g
1.875 w
0 J
1 j
[] 0.0 d
4 M 0 779 1350 -779.422 re S
0 g
2.5 w
1 J
100 288.254 m 75 389.289 l 125 302.688 l S
100 288.254 m 0 259.383 l 100 259.383 l S
0 461.457 m -75 389.289 l -25 475.891 l S
-100 288.254 m 0 259.383 l -100 259.383 l S
0 461.457 m 75 389.289 l 25 475.891 l S
75 389.289 m 75 331.555 l 50 317.121 l S
0 259.383 m 50 288.254 l 50 317.121 l S
-75 389.289 m -25 418.156 l 0 403.723 l S
0 259.383 m -50 288.254 l -50 317.121 l S
75 389.289 m 25 418.156 l 0 403.723 l S
-100 230.516 m 0 259.383 l -100 259.383 l S
100 230.516 m 75 129.48 l 125 216.082 l S
0 57.312 m -75 129.48 l -25 42.879 l S
100 230.516 m 0 259.383 l 100 259.383 l S
0 57.312 m 75 129.48 l 25 42.879 l S
250 28.445 m 225 129.48 l 275 42.879 l S
250 28.445 m 150 -0.422 l 250 -0.422 l S
150 201.648 m 75 129.48 l 125 216.082 l S
50 28.445 m 150 -0.422 l 50 -0.422 l S
150 201.648 m 225 129.48 l 175 216.082 l S
50 28.445 m 75 129.48 l 25 42.879 l S
0 259.383 m -50 230.516 l -50 201.648 l S
75 129.48 m 75 187.215 l 50 201.648 l S
-75 129.48 m -25 100.613 l 0 115.047 l S
0 259.383 m 50 230.516 l 50 201.648 l S
75 129.48 m 25 100.613 l 0 115.047 l S
225 129.48 m 225 71.746 l 200 57.312 l S
150 -0.422 m 200 28.445 l 200 57.312 l S
75 129.48 m 125 158.348 l 150 143.914 l S
150 -0.422 m 100 28.445 l 100 57.312 l S
225 129.48 m 175 158.348 l 150 143.914 l S
75 129.48 m 75 71.746 l 100 57.312 l S
-100 750.133 m 0 779 l -100 779 l S
100 750.133 m 75 649.098 l 125 735.699 l S
0 576.926 m -75 649.098 l -25 562.492 l S
100 750.133 m 0 779 l 100 779 l S
0 576.926 m 75 649.098 l 25 562.492 l S
250 548.059 m 225 649.098 l 275 562.492 l S
250 548.059 m 150 519.191 l 250 519.191 l S
150 721.266 m 75 649.098 l 125 735.699 l S
50 548.059 m 150 519.191 l 50 519.191 l S
150 721.266 m 225 649.098 l 175 735.699 l S
50 548.059 m 75 649.098 l 25 562.492 l S
0 779 m -50 750.133 l -50 721.266 l S
75 649.098 m 75 706.832 l 50 721.266 l S
-75 649.098 m -25 620.23 l 0 634.664 l S
0 779 m 50 750.133 l 50 721.266 l S
75 649.098 m 25 620.23 l 0 634.664 l S
225 649.098 m 225 591.359 l 200 576.926 l S
150 519.191 m 200 548.059 l 200 576.926 l S
75 649.098 m 125 677.965 l 150 663.531 l S
150 519.191 m 100 548.059 l 100 576.926 l S
225 649.098 m 175 677.965 l 150 663.531 l S
75 649.098 m 75 591.359 l 100 576.926 l S
50 490.324 m 150 519.191 l 50 519.191 l S
50 490.324 m 75 389.289 l 25 475.891 l S
250 490.324 m 225 389.289 l 275 475.891 l S
150 317.121 m 75 389.289 l 125 302.688 l S
250 490.324 m 150 519.191 l 250 519.191 l S
150 317.121 m 225 389.289 l 175 302.688 l S
400 288.254 m 375 389.289 l 425 302.688 l S
400 288.254 m 300 259.383 l 400 259.383 l S
300 461.457 m 225 389.289 l 275 475.891 l S
200 288.254 m 300 259.383 l 200 259.383 l S
300 461.457 m 375 389.289 l 325 475.891 l S
200 288.254 m 225 389.289 l 175 302.688 l S
150 519.191 m 100 490.324 l 100 461.457 l S
75 389.289 m 75 447.023 l 100 461.457 l S
225 389.289 m 225 447.023 l 200 461.457 l S
75 389.289 m 125 360.422 l 150 374.855 l S
150 519.191 m 200 490.324 l 200 461.457 l S
225 389.289 m 175 360.422 l 150 374.855 l S
375 389.289 m 375 331.555 l 350 317.121 l S
300 259.383 m 350 288.254 l 350 317.121 l S
225 389.289 m 275 418.156 l 300 403.723 l S
300 259.383 m 250 288.254 l 250 317.121 l S
375 389.289 m 325 418.156 l 300 403.723 l S
225 389.289 m 225 331.555 l 250 317.121 l S
200 230.516 m 300 259.383 l 200 259.383 l S
200 230.516 m 225 129.48 l 175 216.082 l S
400 230.516 m 375 129.48 l 425 216.082 l S
300 57.312 m 225 129.48 l 275 42.879 l S
400 230.516 m 300 259.383 l 400 259.383 l S
300 57.312 m 375 129.48 l 325 42.879 l S
550 28.445 m 525 129.48 l 575 42.879 l S
550 28.445 m 450 -0.422 l 550 -0.422 l S
450 201.648 m 375 129.48 l 425 216.082 l S
350 28.445 m 450 -0.422 l 350 -0.422 l S
450 201.648 m 525 129.48 l 475 216.082 l S
350 28.445 m 375 129.48 l 325 42.879 l S
300 259.383 m 250 230.516 l 250 201.648 l S
225 129.48 m 225 187.215 l 250 201.648 l S
375 129.48 m 375 187.215 l 350 201.648 l S
225 129.48 m 275 100.613 l 300 115.047 l S
300 259.383 m 350 230.516 l 350 201.648 l S
375 129.48 m 325 100.613 l 300 115.047 l S
525 129.48 m 525 71.746 l 500 57.312 l S
450 -0.422 m 500 28.445 l 500 57.312 l S
375 129.48 m 425 158.348 l 450 143.914 l S
450 -0.422 m 400 28.445 l 400 57.312 l S
525 129.48 m 475 158.348 l 450 143.914 l S
375 129.48 m 375 71.746 l 400 57.312 l S
200 750.133 m 300 779 l 200 779 l S
200 750.133 m 225 649.098 l 175 735.699 l S
400 750.133 m 375 649.098 l 425 735.699 l S
300 576.926 m 225 649.098 l 275 562.492 l S
400 750.133 m 300 779 l 400 779 l S
300 576.926 m 375 649.098 l 325 562.492 l S
550 548.059 m 525 649.098 l 575 562.492 l S
550 548.059 m 450 519.191 l 550 519.191 l S
450 721.266 m 375 649.098 l 425 735.699 l S
350 548.059 m 450 519.191 l 350 519.191 l S
450 721.266 m 525 649.098 l 475 735.699 l S
350 548.059 m 375 649.098 l 325 562.492 l S
300 779 m 250 750.133 l 250 721.266 l S
225 649.098 m 225 706.832 l 250 721.266 l S
375 649.098 m 375 706.832 l 350 721.266 l S
225 649.098 m 275 620.23 l 300 634.664 l S
300 779 m 350 750.133 l 350 721.266 l S
375 649.098 m 325 620.23 l 300 634.664 l S
525 649.098 m 525 591.359 l 500 576.926 l S
450 519.191 m 500 548.059 l 500 576.926 l S
375 649.098 m 425 677.965 l 450 663.531 l S
450 519.191 m 400 548.059 l 400 576.926 l S
525 649.098 m 475 677.965 l 450 663.531 l S
375 649.098 m 375 591.359 l 400 576.926 l S
350 490.324 m 450 519.191 l 350 519.191 l S
350 490.324 m 375 389.289 l 325 475.891 l S
550 490.324 m 525 389.289 l 575 475.891 l S
450 317.121 m 375 389.289 l 425 302.688 l S
550 490.324 m 450 519.191 l 550 519.191 l S
450 317.121 m 525 389.289 l 475 302.688 l S
700 288.254 m 675 389.289 l 725 302.688 l S
700 288.254 m 600 259.383 l 700 259.383 l S
600 461.457 m 525 389.289 l 575 475.891 l S
500 288.254 m 600 259.383 l 500 259.383 l S
600 461.457 m 675 389.289 l 625 475.891 l S
500 288.254 m 525 389.289 l 475 302.688 l S
450 519.191 m 400 490.324 l 400 461.457 l S
375 389.289 m 375 447.023 l 400 461.457 l S
525 389.289 m 525 447.023 l 500 461.457 l S
375 389.289 m 425 360.422 l 450 374.855 l S
450 519.191 m 500 490.324 l 500 461.457 l S
525 389.289 m 475 360.422 l 450 374.855 l S
675 389.289 m 675 331.555 l 650 317.121 l S
600 259.383 m 650 288.254 l 650 317.121 l S
525 389.289 m 575 418.156 l 600 403.723 l S
600 259.383 m 550 288.254 l 550 317.121 l S
675 389.289 m 625 418.156 l 600 403.723 l S
525 389.289 m 525 331.555 l 550 317.121 l S
500 230.516 m 600 259.383 l 500 259.383 l S
500 230.516 m 525 129.48 l 475 216.082 l S
700 230.516 m 675 129.48 l 725 216.082 l S
600 57.312 m 525 129.48 l 575 42.879 l S
700 230.516 m 600 259.383 l 700 259.383 l S
600 57.312 m 675 129.48 l 625 42.879 l S
850 28.445 m 825 129.48 l 875 42.879 l S
850 28.445 m 750 -0.422 l 850 -0.422 l S
750 201.648 m 675 129.48 l 725 216.082 l S
650 28.445 m 750 -0.422 l 650 -0.422 l S
750 201.648 m 825 129.48 l 775 216.082 l S
650 28.445 m 675 129.48 l 625 42.879 l S
600 259.383 m 550 230.516 l 550 201.648 l S
525 129.48 m 525 187.215 l 550 201.648 l S
675 129.48 m 675 187.215 l 650 201.648 l S
525 129.48 m 575 100.613 l 600 115.047 l S
600 259.383 m 650 230.516 l 650 201.648 l S
675 129.48 m 625 100.613 l 600 115.047 l S
825 129.48 m 825 71.746 l 800 57.312 l S
750 -0.422 m 800 28.445 l 800 57.312 l S
675 129.48 m 725 158.348 l 750 143.914 l S
750 -0.422 m 700 28.445 l 700 57.312 l S
825 129.48 m 775 158.348 l 750 143.914 l S
675 129.48 m 675 71.746 l 700 57.312 l S
500 750.133 m 600 779 l 500 779 l S
500 750.133 m 525 649.098 l 475 735.699 l S
700 750.133 m 675 649.098 l 725 735.699 l S
600 576.926 m 525 649.098 l 575 562.492 l S
700 750.133 m 600 779 l 700 779 l S
600 576.926 m 675 649.098 l 625 562.492 l S
850 548.059 m 825 649.098 l 875 562.492 l S
850 548.059 m 750 519.191 l 850 519.191 l S
750 721.266 m 675 649.098 l 725 735.699 l S
650 548.059 m 750 519.191 l 650 519.191 l S
750 721.266 m 825 649.098 l 775 735.699 l S
650 548.059 m 675 649.098 l 625 562.492 l S
600 779 m 550 750.133 l 550 721.266 l S
525 649.098 m 525 706.832 l 550 721.266 l S
675 649.098 m 675 706.832 l 650 721.266 l S
525 649.098 m 575 620.23 l 600 634.664 l S
600 779 m 650 750.133 l 650 721.266 l S
675 649.098 m 625 620.23 l 600 634.664 l S
825 649.098 m 825 591.359 l 800 576.926 l S
750 519.191 m 800 548.059 l 800 576.926 l S
675 649.098 m 725 677.965 l 750 663.531 l S
750 519.191 m 700 548.059 l 700 576.926 l S
825 649.098 m 775 677.965 l 750 663.531 l S
675 649.098 m 675 591.359 l 700 576.926 l S
650 490.324 m 750 519.191 l 650 519.191 l S
650 490.324 m 675 389.289 l 625 475.891 l S
850 490.324 m 825 389.289 l 875 475.891 l S
750 317.121 m 675 389.289 l 725 302.688 l S
850 490.324 m 750 519.191 l 850 519.191 l S
750 317.121 m 825 389.289 l 775 302.688 l S
1000 288.254 m 975 389.289 l 1025 302.688 l S
1000 288.254 m 900 259.383 l 1000 259.383 l S
900 461.457 m 825 389.289 l 875 475.891 l S
800 288.254 m 900 259.383 l 800 259.383 l S
900 461.457 m 975 389.289 l 925 475.891 l S
800 288.254 m 825 389.289 l 775 302.688 l S
750 519.191 m 700 490.324 l 700 461.457 l S
675 389.289 m 675 447.023 l 700 461.457 l S
825 389.289 m 825 447.023 l 800 461.457 l S
675 389.289 m 725 360.422 l 750 374.855 l S
750 519.191 m 800 490.324 l 800 461.457 l S
825 389.289 m 775 360.422 l 750 374.855 l S
975 389.289 m 975 331.555 l 950 317.121 l S
900 259.383 m 950 288.254 l 950 317.121 l S
825 389.289 m 875 418.156 l 900 403.723 l S
900 259.383 m 850 288.254 l 850 317.121 l S
975 389.289 m 925 418.156 l 900 403.723 l S
825 389.289 m 825 331.555 l 850 317.121 l S
800 230.516 m 900 259.383 l 800 259.383 l S
800 230.516 m 825 129.48 l 775 216.082 l S
1000 230.516 m 975 129.48 l 1025 216.082 l S
900 57.312 m 825 129.48 l 875 42.879 l S
1000 230.516 m 900 259.383 l 1000 259.383 l S
900 57.312 m 975 129.48 l 925 42.879 l S
1150 28.445 m 1125 129.48 l 1175 42.879 l S
1150 28.445 m 1050 -0.422 l 1150 -0.422 l S
1050 201.648 m 975 129.48 l 1025 216.082 l S
950 28.445 m 1050 -0.422 l 950 -0.422 l S
1050 201.648 m 1125 129.48 l 1075 216.082 l S
950 28.445 m 975 129.48 l 925 42.879 l S
900 259.383 m 850 230.516 l 850 201.648 l S
825 129.48 m 825 187.215 l 850 201.648 l S
975 129.48 m 975 187.215 l 950 201.648 l S
825 129.48 m 875 100.613 l 900 115.047 l S
900 259.383 m 950 230.516 l 950 201.648 l S
975 129.48 m 925 100.613 l 900 115.047 l S
1125 129.48 m 1125 71.746 l 1100 57.312 l S
1050 -0.422 m 1100 28.445 l 1100 57.312 l S
975 129.48 m 1025 158.348 l 1050 143.914 l S
1050 -0.422 m 1000 28.445 l 1000 57.312 l S
1125 129.48 m 1075 158.348 l 1050 143.914 l S
975 129.48 m 975 71.746 l 1000 57.312 l S
800 750.133 m 900 779 l 800 779 l S
800 750.133 m 825 649.098 l 775 735.699 l S
1000 750.133 m 975 649.098 l 1025 735.699 l S
900 576.926 m 825 649.098 l 875 562.492 l S
1000 750.133 m 900 779 l 1000 779 l S
900 576.926 m 975 649.098 l 925 562.492 l S
1150 548.059 m 1125 649.098 l 1175 562.492 l S
1150 548.059 m 1050 519.191 l 1150 519.191 l S
1050 721.266 m 975 649.098 l 1025 735.699 l S
950 548.059 m 1050 519.191 l 950 519.191 l S
1050 721.266 m 1125 649.098 l 1075 735.699 l S
950 548.059 m 975 649.098 l 925 562.492 l S
900 779 m 850 750.133 l 850 721.266 l S
825 649.098 m 825 706.832 l 850 721.266 l S
975 649.098 m 975 706.832 l 950 721.266 l S
825 649.098 m 875 620.23 l 900 634.664 l S
900 779 m 950 750.133 l 950 721.266 l S
975 649.098 m 925 620.23 l 900 634.664 l S
1125 649.098 m 1125 591.359 l 1100 576.926 l S
1050 519.191 m 1100 548.059 l 1100 576.926 l S
975 649.098 m 1025 677.965 l 1050 663.531 l S
1050 519.191 m 1000 548.059 l 1000 576.926 l S
1125 649.098 m 1075 677.965 l 1050 663.531 l S
975 649.098 m 975 591.359 l 1000 576.926 l S
950 490.324 m 1050 519.191 l 950 519.191 l S
950 490.324 m 975 389.289 l 925 475.891 l S
1150 490.324 m 1125 389.289 l 1175 475.891 l S
1050 317.121 m 975 389.289 l 1025 302.688 l S
1150 490.324 m 1050 519.191 l 1150 519.191 l S
1050 317.121 m 1125 389.289 l 1075 302.688 l S
1300 288.254 m 1275 389.289 l 1325 302.688 l S
1300 288.254 m 1200 259.383 l 1300 259.383 l S
1200 461.457 m 1125 389.289 l 1175 475.891 l S
1100 288.254 m 1200 259.383 l 1100 259.383 l S
1200 461.457 m 1275 389.289 l 1225 475.891 l S
1100 288.254 m 1125 389.289 l 1075 302.688 l S
1050 519.191 m 1000 490.324 l 1000 461.457 l S
975 389.289 m 975 447.023 l 1000 461.457 l S
1125 389.289 m 1125 447.023 l 1100 461.457 l S
975 389.289 m 1025 360.422 l 1050 374.855 l S
1050 519.191 m 1100 490.324 l 1100 461.457 l S
1125 389.289 m 1075 360.422 l 1050 374.855 l S
1275 389.289 m 1275 331.555 l 1250 317.121 l S
1200 259.383 m 1250 288.254 l 1250 317.121 l S
1125 389.289 m 1175 418.156 l 1200 403.723 l S
1200 259.383 m 1150 288.254 l 1150 317.121 l S
1275 389.289 m 1225 418.156 l 1200 403.723 l S
1125 389.289 m 1125 331.555 l 1150 317.121 l S
1100 230.516 m 1200 259.383 l 1100 259.383 l S
1100 230.516 m 1125 129.48 l 1075 216.082 l S
1300 230.516 m 1275 129.48 l 1325 216.082 l S
1200 57.312 m 1125 129.48 l 1175 42.879 l S
1300 230.516 m 1200 259.383 l 1300 259.383 l S
1200 57.312 m 1275 129.48 l 1225 42.879 l S
1450 28.445 m 1350 -0.422 l 1450 -0.422 l S
1350 201.648 m 1275 129.48 l 1325 216.082 l S
1250 28.445 m 1350 -0.422 l 1250 -0.422 l S
1350 201.648 m 1425 129.48 l 1375 216.082 l S
1250 28.445 m 1275 129.48 l 1225 42.879 l S
1200 259.383 m 1150 230.516 l 1150 201.648 l S
1125 129.48 m 1125 187.215 l 1150 201.648 l S
1275 129.48 m 1275 187.215 l 1250 201.648 l S
1125 129.48 m 1175 100.613 l 1200 115.047 l S
1200 259.383 m 1250 230.516 l 1250 201.648 l S
1275 129.48 m 1225 100.613 l 1200 115.047 l S
1350 -0.422 m 1400 28.445 l 1400 57.312 l S
1275 129.48 m 1325 158.348 l 1350 143.914 l S
1350 -0.422 m 1300 28.445 l 1300 57.312 l S
1425 129.48 m 1375 158.348 l 1350 143.914 l S
1275 129.48 m 1275 71.746 l 1300 57.312 l S
1100 750.133 m 1200 779 l 1100 779 l S
1100 750.133 m 1125 649.098 l 1075 735.699 l S
1300 750.133 m 1275 649.098 l 1325 735.699 l S
1200 576.926 m 1125 649.098 l 1175 562.492 l S
1300 750.133 m 1200 779 l 1300 779 l S
1200 576.926 m 1275 649.098 l 1225 562.492 l S
1450 548.059 m 1350 519.191 l 1450 519.191 l S
1350 721.266 m 1275 649.098 l 1325 735.699 l S
1250 548.059 m 1350 519.191 l 1250 519.191 l S
1350 721.266 m 1425 649.098 l 1375 735.699 l S
1250 548.059 m 1275 649.098 l 1225 562.492 l S
1200 779 m 1150 750.133 l 1150 721.266 l S
1125 649.098 m 1125 706.832 l 1150 721.266 l S
1275 649.098 m 1275 706.832 l 1250 721.266 l S
1125 649.098 m 1175 620.23 l 1200 634.664 l S
1200 779 m 1250 750.133 l 1250 721.266 l S
1275 649.098 m 1225 620.23 l 1200 634.664 l S
1350 519.191 m 1400 548.059 l 1400 576.926 l S
1275 649.098 m 1325 677.965 l 1350 663.531 l S
1350 519.191 m 1300 548.059 l 1300 576.926 l S
1425 649.098 m 1375 677.965 l 1350 663.531 l S
1275 649.098 m 1275 591.359 l 1300 576.926 l S
1250 490.324 m 1350 519.191 l 1250 519.191 l S
1250 490.324 m 1275 389.289 l 1225 475.891 l S
1350 317.121 m 1275 389.289 l 1325 302.688 l S
1450 490.324 m 1350 519.191 l 1450 519.191 l S
1350 317.121 m 1425 389.289 l 1375 302.688 l S
1350 519.191 m 1300 490.324 l 1300 461.457 l S
1275 389.289 m 1275 447.023 l 1300 461.457 l S
1275 389.289 m 1325 360.422 l 1350 374.855 l S
1350 519.191 m 1400 490.324 l 1400 461.457 l S
1425 389.289 m 1375 360.422 l 1350 374.855 l S
Q Q
showpage
%%Trailer
%%Trailer
cleartomark
countdictstack
exch sub { end } repeat
restore
%%EOF
