%!PS-Adobe-2.0 EPSF-2.0
%%BoundingBox: 0 0 1350 779
%%HiResBoundingBox: 0.000000 0.000000 1350.000000 779.000000
%%Creator: cairo 1.14.2 (http://cairographics.org)
%%CreationDate: Mon Sep  7 08:22:03 2015
%%DocumentData: Clean7Bit
%%LanguageLevel: 2
%%DocumentMedia: 476x275mm 1350 779 0 () ()
%%EndComments
% EPSF created by ps2eps 1.68
%%BeginProlog
save
countdictstack
mark
newpath
/showpage {} def
/setpagedevice {pop} def
%%EndProlog
%%Page 1 1
%%BeginProlog
/languagelevel where
{ pop languagelevel } { 1 } ifelse
2 lt { /Helvetica findfont 12 scalefont setfont 50 500 moveto
  (This print job requires a PostScript Language Level 2 printer.) show
  showpage quit } if
/q { gsave } bind def
/Q { grestore } bind def
/cm { 6 array astore concat } bind def
/w { setlinewidth } bind def
/J { setlinecap } bind def
/j { setlinejoin } bind def
/M { setmiterlimit } bind def
/d { setdash } bind def
/m { moveto } bind def
/l { lineto } bind def
/c { curveto } bind def
/h { closepath } bind def
/re { exch dup neg 3 1 roll 5 3 roll moveto 0 rlineto
      0 exch rlineto 0 rlineto closepath } bind def
/S { stroke } bind def
/f { fill } bind def
/f* { eofill } bind def
/n { newpath } bind def
/W { clip } bind def
/W* { eoclip } bind def
/BT { } bind def
/ET { } bind def
/pdfmark where { pop globaldict /?pdfmark /exec load put }
    { globaldict begin /?pdfmark /pop load def /pdfmark
    /cleartomark load def end } ifelse
/BDC { mark 3 1 roll /BDC pdfmark } bind def
/EMC { mark /EMC pdfmark } bind def
/cairo_store_point { /cairo_point_y exch def /cairo_point_x exch def } def
/Tj { show currentpoint cairo_store_point } bind def
/TJ {
  {
    dup
    type /stringtype eq
    { show } { -0.001 mul 0 cairo_font_matrix dtransform rmoveto } ifelse
  } forall
  currentpoint cairo_store_point
} bind def
/cairo_selectfont { cairo_font_matrix aload pop pop pop 0 0 6 array astore
    cairo_font exch selectfont cairo_point_x cairo_point_y moveto } bind def
/Tf { pop /cairo_font exch def /cairo_font_matrix where
      { pop cairo_selectfont } if } bind def
/Td { matrix translate cairo_font_matrix matrix concatmatrix dup
      /cairo_font_matrix exch def dup 4 get exch 5 get cairo_store_point
      /cairo_font where { pop cairo_selectfont } if } bind def
/Tm { 2 copy 8 2 roll 6 array astore /cairo_font_matrix exch def
      cairo_store_point /cairo_font where { pop cairo_selectfont } if } bind def
/g { setgray } bind def
/rg { setrgbcolor } bind def
/d1 { setcachedevice } bind def
/cairo_set_page_size {
  % Change paper size, but only if different from previous paper size otherwise
  % duplex fails. PLRM specifies a tolerance of 5 pts when matching paper size
  % so we use the same when checking if the size changes.
  /setpagedevice where {
    pop currentpagedevice
    /PageSize known {
      2 copy
      currentpagedevice /PageSize get aload pop
      exch 4 1 roll
      sub abs 5 gt
      3 1 roll
      sub abs 5 gt
      or
    } {
      true
    } ifelse
    {
      2 array astore
      2 dict begin
        /PageSize exch def
        /ImagingBBox null def
      currentdict end
      setpagedevice
    } {
      pop pop
    } ifelse
  } {
    pop
  } ifelse
} def
%%EndProlog
%%BeginSetup
%%EndSetup
%%Page: 1 1
%%BeginPageSetup
%%PageMedia: 476x275mm
%%PageBoundingBox: 0 0 1350 779
1350 779 cairo_set_page_size
%%EndPageSetup
q 0 0 1350 779 rectclip q
0.984314 g
0 0 1350 779 rectfill
0.788235 g
1.875 w
0 J
1 j
[] 0.0 d
4 M 0 779 1350 -779.422 re S
0 g
2.5 w
1 J
-50 548.059 m 0 519.191 l -75 591.359 l -100 576.926 l S
-50 548.059 m 0 519.191 l -100 548.059 l -100 576.926 l S
0 345.988 m 25 360.422 l 75 331.555 l S
0 345.988 m 0 317.121 l 50 288.254 l S
0 345.988 m -25 360.422 l -25 418.156 l S
0 345.988 m 0 317.121 l -50 288.254 l S
0 345.988 m 25 360.422 l 25 418.156 l S
0 345.988 m -25 360.422 l -75 331.555 l S
-50 490.324 m 0 519.191 l -75 447.023 l -100 461.457 l S
-50 490.324 m 0 519.191 l -100 490.324 l -100 461.457 l S
100 288.254 m 150 259.383 l 75 331.555 l 50 317.121 l S
100 288.254 m 150 259.383 l 50 288.254 l 50 317.121 l S
0 461.457 m 0 519.191 l -25 418.156 l 0 403.723 l S
0 461.457 m 0 519.191 l 25 418.156 l 0 403.723 l S
0 172.781 m 0 201.648 l -50 230.516 l S
0 172.781 m -25 158.348 l -75 187.215 l S
0 172.781 m 25 158.348 l 75 187.215 l S
0 172.781 m -25 158.348 l -25 100.613 l S
0 172.781 m 0 201.648 l 50 230.516 l S
0 172.781 m 25 158.348 l 25 100.613 l S
150 86.18 m 175 100.613 l 225 71.746 l S
150 86.18 m 150 57.312 l 200 28.445 l S
150 86.18 m 125 100.613 l 125 158.348 l S
150 86.18 m 150 57.312 l 100 28.445 l S
150 86.18 m 175 100.613 l 175 158.348 l S
150 86.18 m 125 100.613 l 75 71.746 l S
100 230.516 m 150 259.383 l 75 187.215 l 50 201.648 l S
0 57.312 m 0 -0.422 l -25 100.613 l 0 115.047 l S
100 230.516 m 150 259.383 l 50 230.516 l 50 201.648 l S
0 57.312 m 0 -0.422 l 25 100.613 l 0 115.047 l S
250 28.445 m 300 -0.422 l 225 71.746 l 200 57.312 l S
250 28.445 m 300 -0.422 l 200 28.445 l 200 57.312 l S
150 201.648 m 150 259.383 l 125 158.348 l 150 143.914 l S
50 28.445 m 0 -0.422 l 100 28.445 l 100 57.312 l S
150 201.648 m 150 259.383 l 175 158.348 l 150 143.914 l S
50 28.445 m 0 -0.422 l 75 71.746 l 100 57.312 l S
0 692.398 m 0 721.266 l -50 750.133 l S
0 692.398 m -25 677.965 l -75 706.832 l S
0 692.398 m 25 677.965 l 75 706.832 l S
0 692.398 m -25 677.965 l -25 620.23 l S
0 692.398 m 0 721.266 l 50 750.133 l S
0 692.398 m 25 677.965 l 25 620.23 l S
150 605.793 m 175 620.23 l 225 591.359 l S
150 605.793 m 150 576.926 l 200 548.059 l S
150 605.793 m 125 620.23 l 125 677.965 l S
150 605.793 m 150 576.926 l 100 548.059 l S
150 605.793 m 175 620.23 l 175 677.965 l S
150 605.793 m 125 620.23 l 75 591.359 l S
100 750.133 m 150 779 l 75 706.832 l 50 721.266 l S
0 576.926 m 0 519.191 l -25 620.23 l 0 634.664 l S
100 750.133 m 150 779 l 50 750.133 l 50 721.266 l S
0 576.926 m 0 519.191 l 25 620.23 l 0 634.664 l S
250 548.059 m 300 519.191 l 225 591.359 l 200 576.926 l S
250 548.059 m 300 519.191 l 200 548.059 l 200 576.926 l S
150 721.266 m 150 779 l 125 677.965 l 150 663.531 l S
50 548.059 m 0 519.191 l 100 548.059 l 100 576.926 l S
150 721.266 m 150 779 l 175 677.965 l 150 663.531 l S
50 548.059 m 0 519.191 l 75 591.359 l 100 576.926 l S
150 432.59 m 150 461.457 l 100 490.324 l S
150 432.59 m 125 418.156 l 75 447.023 l S
150 432.59 m 175 418.156 l 225 447.023 l S
150 432.59 m 125 418.156 l 125 360.422 l S
150 432.59 m 150 461.457 l 200 490.324 l S
150 432.59 m 175 418.156 l 175 360.422 l S
300 345.988 m 325 360.422 l 375 331.555 l S
300 345.988 m 300 317.121 l 350 288.254 l S
300 345.988 m 275 360.422 l 275 418.156 l S
300 345.988 m 300 317.121 l 250 288.254 l S
300 345.988 m 325 360.422 l 325 418.156 l S
300 345.988 m 275 360.422 l 225 331.555 l S
50 490.324 m 0 519.191 l 100 490.324 l 100 461.457 l S
50 490.324 m 0 519.191 l 75 447.023 l 100 461.457 l S
250 490.324 m 300 519.191 l 225 447.023 l 200 461.457 l S
150 317.121 m 150 259.383 l 125 360.422 l 150 374.855 l S
250 490.324 m 300 519.191 l 200 490.324 l 200 461.457 l S
150 317.121 m 150 259.383 l 175 360.422 l 150 374.855 l S
400 288.254 m 450 259.383 l 375 331.555 l 350 317.121 l S
400 288.254 m 450 259.383 l 350 288.254 l 350 317.121 l S
300 461.457 m 300 519.191 l 275 418.156 l 300 403.723 l S
200 288.254 m 150 259.383 l 250 288.254 l 250 317.121 l S
300 461.457 m 300 519.191 l 325 418.156 l 300 403.723 l S
200 288.254 m 150 259.383 l 225 331.555 l 250 317.121 l S
300 172.781 m 300 201.648 l 250 230.516 l S
300 172.781 m 275 158.348 l 225 187.215 l S
300 172.781 m 325 158.348 l 375 187.215 l S
300 172.781 m 275 158.348 l 275 100.613 l S
300 172.781 m 300 201.648 l 350 230.516 l S
300 172.781 m 325 158.348 l 325 100.613 l S
450 86.18 m 475 100.613 l 525 71.746 l S
450 86.18 m 450 57.312 l 500 28.445 l S
450 86.18 m 425 100.613 l 425 158.348 l S
450 86.18 m 450 57.312 l 400 28.445 l S
450 86.18 m 475 100.613 l 475 158.348 l S
450 86.18 m 425 100.613 l 375 71.746 l S
200 230.516 m 150 259.383 l 250 230.516 l 250 201.648 l S
200 230.516 m 150 259.383 l 225 187.215 l 250 201.648 l S
400 230.516 m 450 259.383 l 375 187.215 l 350 201.648 l S
300 57.312 m 300 -0.422 l 275 100.613 l 300 115.047 l S
400 230.516 m 450 259.383 l 350 230.516 l 350 201.648 l S
300 57.312 m 300 -0.422 l 325 100.613 l 300 115.047 l S
550 28.445 m 600 -0.422 l 525 71.746 l 500 57.312 l S
550 28.445 m 600 -0.422 l 500 28.445 l 500 57.312 l S
450 201.648 m 450 259.383 l 425 158.348 l 450 143.914 l S
350 28.445 m 300 -0.422 l 400 28.445 l 400 57.312 l S
450 201.648 m 450 259.383 l 475 158.348 l 450 143.914 l S
350 28.445 m 300 -0.422 l 375 71.746 l 400 57.312 l S
300 692.398 m 300 721.266 l 250 750.133 l S
300 692.398 m 275 677.965 l 225 706.832 l S
300 692.398 m 325 677.965 l 375 706.832 l S
300 692.398 m 275 677.965 l 275 620.23 l S
300 692.398 m 300 721.266 l 350 750.133 l S
300 692.398 m 325 677.965 l 325 620.23 l S
450 605.793 m 475 620.23 l 525 591.359 l S
450 605.793 m 450 576.926 l 500 548.059 l S
450 605.793 m 425 620.23 l 425 677.965 l S
450 605.793 m 450 576.926 l 400 548.059 l S
450 605.793 m 475 620.23 l 475 677.965 l S
450 605.793 m 425 620.23 l 375 591.359 l S
200 750.133 m 150 779 l 250 750.133 l 250 721.266 l S
200 750.133 m 150 779 l 225 706.832 l 250 721.266 l S
400 750.133 m 450 779 l 375 706.832 l 350 721.266 l S
300 576.926 m 300 519.191 l 275 620.23 l 300 634.664 l S
400 750.133 m 450 779 l 350 750.133 l 350 721.266 l S
300 576.926 m 300 519.191 l 325 620.23 l 300 634.664 l S
550 548.059 m 600 519.191 l 525 591.359 l 500 576.926 l S
550 548.059 m 600 519.191 l 500 548.059 l 500 576.926 l S
450 721.266 m 450 779 l 425 677.965 l 450 663.531 l S
350 548.059 m 300 519.191 l 400 548.059 l 400 576.926 l S
450 721.266 m 450 779 l 475 677.965 l 450 663.531 l S
350 548.059 m 300 519.191 l 375 591.359 l 400 576.926 l S
450 432.59 m 450 461.457 l 400 490.324 l S
450 432.59 m 425 418.156 l 375 447.023 l S
450 432.59 m 475 418.156 l 525 447.023 l S
450 432.59 m 425 418.156 l 425 360.422 l S
450 432.59 m 450 461.457 l 500 490.324 l S
450 432.59 m 475 418.156 l 475 360.422 l S
600 345.988 m 625 360.422 l 675 331.555 l S
600 345.988 m 600 317.121 l 650 288.254 l S
600 345.988 m 575 360.422 l 575 418.156 l S
600 345.988 m 600 317.121 l 550 288.254 l S
600 345.988 m 625 360.422 l 625 418.156 l S
600 345.988 m 575 360.422 l 525 331.555 l S
350 490.324 m 300 519.191 l 400 490.324 l 400 461.457 l S
350 490.324 m 300 519.191 l 375 447.023 l 400 461.457 l S
550 490.324 m 600 519.191 l 525 447.023 l 500 461.457 l S
450 317.121 m 450 259.383 l 425 360.422 l 450 374.855 l S
550 490.324 m 600 519.191 l 500 490.324 l 500 461.457 l S
450 317.121 m 450 259.383 l 475 360.422 l 450 374.855 l S
700 288.254 m 750 259.383 l 675 331.555 l 650 317.121 l S
700 288.254 m 750 259.383 l 650 288.254 l 650 317.121 l S
600 461.457 m 600 519.191 l 575 418.156 l 600 403.723 l S
500 288.254 m 450 259.383 l 550 288.254 l 550 317.121 l S
600 461.457 m 600 519.191 l 625 418.156 l 600 403.723 l S
500 288.254 m 450 259.383 l 525 331.555 l 550 317.121 l S
600 172.781 m 600 201.648 l 550 230.516 l S
600 172.781 m 575 158.348 l 525 187.215 l S
600 172.781 m 625 158.348 l 675 187.215 l S
600 172.781 m 575 158.348 l 575 100.613 l S
600 172.781 m 600 201.648 l 650 230.516 l S
600 172.781 m 625 158.348 l 625 100.613 l S
750 86.18 m 775 100.613 l 825 71.746 l S
750 86.18 m 750 57.312 l 800 28.445 l S
750 86.18 m 725 100.613 l 725 158.348 l S
750 86.18 m 750 57.312 l 700 28.445 l S
750 86.18 m 775 100.613 l 775 158.348 l S
750 86.18 m 725 100.613 l 675 71.746 l S
500 230.516 m 450 259.383 l 550 230.516 l 550 201.648 l S
500 230.516 m 450 259.383 l 525 187.215 l 550 201.648 l S
700 230.516 m 750 259.383 l 675 187.215 l 650 201.648 l S
600 57.312 m 600 -0.422 l 575 100.613 l 600 115.047 l S
700 230.516 m 750 259.383 l 650 230.516 l 650 201.648 l S
600 57.312 m 600 -0.422 l 625 100.613 l 600 115.047 l S
850 28.445 m 900 -0.422 l 825 71.746 l 800 57.312 l S
850 28.445 m 900 -0.422 l 800 28.445 l 800 57.312 l S
750 201.648 m 750 259.383 l 725 158.348 l 750 143.914 l S
650 28.445 m 600 -0.422 l 700 28.445 l 700 57.312 l S
750 201.648 m 750 259.383 l 775 158.348 l 750 143.914 l S
650 28.445 m 600 -0.422 l 675 71.746 l 700 57.312 l S
600 692.398 m 600 721.266 l 550 750.133 l S
600 692.398 m 575 677.965 l 525 706.832 l S
600 692.398 m 625 677.965 l 675 706.832 l S
600 692.398 m 575 677.965 l 575 620.23 l S
600 692.398 m 600 721.266 l 650 750.133 l S
600 692.398 m 625 677.965 l 625 620.23 l S
750 605.793 m 775 620.23 l 825 591.359 l S
750 605.793 m 750 576.926 l 800 548.059 l S
750 605.793 m 725 620.23 l 725 677.965 l S
750 605.793 m 750 576.926 l 700 548.059 l S
750 605.793 m 775 620.23 l 775 677.965 l S
750 605.793 m 725 620.23 l 675 591.359 l S
500 750.133 m 450 779 l 550 750.133 l 550 721.266 l S
500 750.133 m 450 779 l 525 706.832 l 550 721.266 l S
700 750.133 m 750 779 l 675 706.832 l 650 721.266 l S
600 576.926 m 600 519.191 l 575 620.23 l 600 634.664 l S
700 750.133 m 750 779 l 650 750.133 l 650 721.266 l S
600 576.926 m 600 519.191 l 625 620.23 l 600 634.664 l S
850 548.059 m 900 519.191 l 825 591.359 l 800 576.926 l S
850 548.059 m 900 519.191 l 800 548.059 l 800 576.926 l S
750 721.266 m 750 779 l 725 677.965 l 750 663.531 l S
650 548.059 m 600 519.191 l 700 548.059 l 700 576.926 l S
750 721.266 m 750 779 l 775 677.965 l 750 663.531 l S
650 548.059 m 600 519.191 l 675 591.359 l 700 576.926 l S
750 432.59 m 750 461.457 l 700 490.324 l S
750 432.59 m 725 418.156 l 675 447.023 l S
750 432.59 m 775 418.156 l 825 447.023 l S
750 432.59 m 725 418.156 l 725 360.422 l S
750 432.59 m 750 461.457 l 800 490.324 l S
750 432.59 m 775 418.156 l 775 360.422 l S
900 345.988 m 925 360.422 l 975 331.555 l S
900 345.988 m 900 317.121 l 950 288.254 l S
900 345.988 m 875 360.422 l 875 418.156 l S
900 345.988 m 900 317.121 l 850 288.254 l S
900 345.988 m 925 360.422 l 925 418.156 l S
900 345.988 m 875 360.422 l 825 331.555 l S
650 490.324 m 600 519.191 l 700 490.324 l 700 461.457 l S
650 490.324 m 600 519.191 l 675 447.023 l 700 461.457 l S
850 490.324 m 900 519.191 l 825 447.023 l 800 461.457 l S
750 317.121 m 750 259.383 l 725 360.422 l 750 374.855 l S
850 490.324 m 900 519.191 l 800 490.324 l 800 461.457 l S
750 317.121 m 750 259.383 l 775 360.422 l 750 374.855 l S
1000 288.254 m 1050 259.383 l 975 331.555 l 950 317.121 l S
1000 288.254 m 1050 259.383 l 950 288.254 l 950 317.121 l S
900 461.457 m 900 519.191 l 875 418.156 l 900 403.723 l S
800 288.254 m 750 259.383 l 850 288.254 l 850 317.121 l S
900 461.457 m 900 519.191 l 925 418.156 l 900 403.723 l S
800 288.254 m 750 259.383 l 825 331.555 l 850 317.121 l S
900 172.781 m 900 201.648 l 850 230.516 l S
900 172.781 m 875 158.348 l 825 187.215 l S
900 172.781 m 925 158.348 l 975 187.215 l S
900 172.781 m 875 158.348 l 875 100.613 l S
900 172.781 m 900 201.648 l 950 230.516 l S
900 172.781 m 925 158.348 l 925 100.613 l S
1050 86.18 m 1075 100.613 l 1125 71.746 l S
1050 86.18 m 1050 57.312 l 1100 28.445 l S
1050 86.18 m 1025 100.613 l 1025 158.348 l S
1050 86.18 m 1050 57.312 l 1000 28.445 l S
1050 86.18 m 1075 100.613 l 1075 158.348 l S
1050 86.18 m 1025 100.613 l 975 71.746 l S
800 230.516 m 750 259.383 l 850 230.516 l 850 201.648 l S
800 230.516 m 750 259.383 l 825 187.215 l 850 201.648 l S
1000 230.516 m 1050 259.383 l 975 187.215 l 950 201.648 l S
900 57.312 m 900 -0.422 l 875 100.613 l 900 115.047 l S
1000 230.516 m 1050 259.383 l 950 230.516 l 950 201.648 l S
900 57.312 m 900 -0.422 l 925 100.613 l 900 115.047 l S
1150 28.445 m 1200 -0.422 l 1125 71.746 l 1100 57.312 l S
1150 28.445 m 1200 -0.422 l 1100 28.445 l 1100 57.312 l S
1050 201.648 m 1050 259.383 l 1025 158.348 l 1050 143.914 l S
950 28.445 m 900 -0.422 l 1000 28.445 l 1000 57.312 l S
1050 201.648 m 1050 259.383 l 1075 158.348 l 1050 143.914 l S
950 28.445 m 900 -0.422 l 975 71.746 l 1000 57.312 l S
900 692.398 m 900 721.266 l 850 750.133 l S
900 692.398 m 875 677.965 l 825 706.832 l S
900 692.398 m 925 677.965 l 975 706.832 l S
900 692.398 m 875 677.965 l 875 620.23 l S
900 692.398 m 900 721.266 l 950 750.133 l S
900 692.398 m 925 677.965 l 925 620.23 l S
1050 605.793 m 1075 620.23 l 1125 591.359 l S
1050 605.793 m 1050 576.926 l 1100 548.059 l S
1050 605.793 m 1025 620.23 l 1025 677.965 l S
1050 605.793 m 1050 576.926 l 1000 548.059 l S
1050 605.793 m 1075 620.23 l 1075 677.965 l S
1050 605.793 m 1025 620.23 l 975 591.359 l S
800 750.133 m 750 779 l 850 750.133 l 850 721.266 l S
800 750.133 m 750 779 l 825 706.832 l 850 721.266 l S
1000 750.133 m 1050 779 l 975 706.832 l 950 721.266 l S
900 576.926 m 900 519.191 l 875 620.23 l 900 634.664 l S
1000 750.133 m 1050 779 l 950 750.133 l 950 721.266 l S
900 576.926 m 900 519.191 l 925 620.23 l 900 634.664 l S
1150 548.059 m 1200 519.191 l 1125 591.359 l 1100 576.926 l S
1150 548.059 m 1200 519.191 l 1100 548.059 l 1100 576.926 l S
1050 721.266 m 1050 779 l 1025 677.965 l 1050 663.531 l S
950 548.059 m 900 519.191 l 1000 548.059 l 1000 576.926 l S
1050 721.266 m 1050 779 l 1075 677.965 l 1050 663.531 l S
950 548.059 m 900 519.191 l 975 591.359 l 1000 576.926 l S
1050 432.59 m 1050 461.457 l 1000 490.324 l S
1050 432.59 m 1025 418.156 l 975 447.023 l S
1050 432.59 m 1075 418.156 l 1125 447.023 l S
1050 432.59 m 1025 418.156 l 1025 360.422 l S
1050 432.59 m 1050 461.457 l 1100 490.324 l S
1050 432.59 m 1075 418.156 l 1075 360.422 l S
1200 345.988 m 1225 360.422 l 1275 331.555 l S
1200 345.988 m 1200 317.121 l 1250 288.254 l S
1200 345.988 m 1175 360.422 l 1175 418.156 l S
1200 345.988 m 1200 317.121 l 1150 288.254 l S
1200 345.988 m 1225 360.422 l 1225 418.156 l S
1200 345.988 m 1175 360.422 l 1125 331.555 l S
950 490.324 m 900 519.191 l 1000 490.324 l 1000 461.457 l S
950 490.324 m 900 519.191 l 975 447.023 l 1000 461.457 l S
1150 490.324 m 1200 519.191 l 1125 447.023 l 1100 461.457 l S
1050 317.121 m 1050 259.383 l 1025 360.422 l 1050 374.855 l S
1150 490.324 m 1200 519.191 l 1100 490.324 l 1100 461.457 l S
1050 317.121 m 1050 259.383 l 1075 360.422 l 1050 374.855 l S
1300 288.254 m 1350 259.383 l 1275 331.555 l 1250 317.121 l S
1300 288.254 m 1350 259.383 l 1250 288.254 l 1250 317.121 l S
1200 461.457 m 1200 519.191 l 1175 418.156 l 1200 403.723 l S
1100 288.254 m 1050 259.383 l 1150 288.254 l 1150 317.121 l S
1200 461.457 m 1200 519.191 l 1225 418.156 l 1200 403.723 l S
1100 288.254 m 1050 259.383 l 1125 331.555 l 1150 317.121 l S
1200 172.781 m 1200 201.648 l 1150 230.516 l S
1200 172.781 m 1175 158.348 l 1125 187.215 l S
1200 172.781 m 1225 158.348 l 1275 187.215 l S
1200 172.781 m 1175 158.348 l 1175 100.613 l S
1200 172.781 m 1200 201.648 l 1250 230.516 l S
1200 172.781 m 1225 158.348 l 1225 100.613 l S
1350 86.18 m 1375 100.613 l 1425 71.746 l S
1350 86.18 m 1350 57.312 l 1400 28.445 l S
1350 86.18 m 1325 100.613 l 1325 158.348 l S
1350 86.18 m 1350 57.312 l 1300 28.445 l S
1350 86.18 m 1375 100.613 l 1375 158.348 l S
1350 86.18 m 1325 100.613 l 1275 71.746 l S
1100 230.516 m 1050 259.383 l 1150 230.516 l 1150 201.648 l S
1100 230.516 m 1050 259.383 l 1125 187.215 l 1150 201.648 l S
1300 230.516 m 1350 259.383 l 1275 187.215 l 1250 201.648 l S
1200 57.312 m 1200 -0.422 l 1175 100.613 l 1200 115.047 l S
1300 230.516 m 1350 259.383 l 1250 230.516 l 1250 201.648 l S
1200 57.312 m 1200 -0.422 l 1225 100.613 l 1200 115.047 l S
1350 201.648 m 1350 259.383 l 1325 158.348 l 1350 143.914 l S
1250 28.445 m 1200 -0.422 l 1300 28.445 l 1300 57.312 l S
1350 201.648 m 1350 259.383 l 1375 158.348 l 1350 143.914 l S
1250 28.445 m 1200 -0.422 l 1275 71.746 l 1300 57.312 l S
1200 692.398 m 1200 721.266 l 1150 750.133 l S
1200 692.398 m 1175 677.965 l 1125 706.832 l S
1200 692.398 m 1225 677.965 l 1275 706.832 l S
1200 692.398 m 1175 677.965 l 1175 620.23 l S
1200 692.398 m 1200 721.266 l 1250 750.133 l S
1200 692.398 m 1225 677.965 l 1225 620.23 l S
1350 605.793 m 1375 620.23 l 1425 591.359 l S
1350 605.793 m 1350 576.926 l 1400 548.059 l S
1350 605.793 m 1325 620.23 l 1325 677.965 l S
1350 605.793 m 1350 576.926 l 1300 548.059 l S
1350 605.793 m 1375 620.23 l 1375 677.965 l S
1350 605.793 m 1325 620.23 l 1275 591.359 l S
1100 750.133 m 1050 779 l 1150 750.133 l 1150 721.266 l S
1100 750.133 m 1050 779 l 1125 706.832 l 1150 721.266 l S
1300 750.133 m 1350 779 l 1275 706.832 l 1250 721.266 l S
1200 576.926 m 1200 519.191 l 1175 620.23 l 1200 634.664 l S
1300 750.133 m 1350 779 l 1250 750.133 l 1250 721.266 l S
1200 576.926 m 1200 519.191 l 1225 620.23 l 1200 634.664 l S
1350 721.266 m 1350 779 l 1325 677.965 l 1350 663.531 l S
1250 548.059 m 1200 519.191 l 1300 548.059 l 1300 576.926 l S
1350 721.266 m 1350 779 l 1375 677.965 l 1350 663.531 l S
1250 548.059 m 1200 519.191 l 1275 591.359 l 1300 576.926 l S
1350 432.59 m 1350 461.457 l 1300 490.324 l S
1350 432.59 m 1325 418.156 l 1275 447.023 l S
1350 432.59 m 1375 418.156 l 1425 447.023 l S
1350 432.59 m 1325 418.156 l 1325 360.422 l S
1350 432.59 m 1350 461.457 l 1400 490.324 l S
1350 432.59 m 1375 418.156 l 1375 360.422 l S
1250 490.324 m 1200 519.191 l 1300 490.324 l 1300 461.457 l S
1250 490.324 m 1200 519.191 l 1275 447.023 l 1300 461.457 l S
1350 317.121 m 1350 259.383 l 1325 360.422 l 1350 374.855 l S
1350 317.121 m 1350 259.383 l 1375 360.422 l 1350 374.855 l S
1400 288.254 m 1350 259.383 l 1450 288.254 l 1450 317.121 l S
1400 288.254 m 1350 259.383 l 1425 331.555 l 1450 317.121 l S
1400 230.516 m 1350 259.383 l 1450 230.516 l 1450 201.648 l S
1400 230.516 m 1350 259.383 l 1425 187.215 l 1450 201.648 l S
Q Q
showpage
%%Trailer
%%Trailer
cleartomark
countdictstack
exch sub { end } repeat
restore
%%EOF
