%!PS-Adobe-2.0 EPSF-2.0
%%BoundingBox: 0 0 1200 1039
%%HiResBoundingBox: 0.000000 0.000000 1200.000000 1039.000000
%%Creator: cairo 1.14.2 (http://cairographics.org)
%%CreationDate: Mon Sep  7 08:21:33 2015
%%DocumentData: Clean7Bit
%%LanguageLevel: 2
%%DocumentMedia: 423x367mm 1200 1039 0 () ()
%%EndComments
% EPSF created by ps2eps 1.68
%%BeginProlog
save
countdictstack
mark
newpath
/showpage {} def
/setpagedevice {pop} def
%%EndProlog
%%Page 1 1
%%BeginProlog
/languagelevel where
{ pop languagelevel } { 1 } ifelse
2 lt { /Helvetica findfont 12 scalefont setfont 50 500 moveto
  (This print job requires a PostScript Language Level 2 printer.) show
  showpage quit } if
/q { gsave } bind def
/Q { grestore } bind def
/cm { 6 array astore concat } bind def
/w { setlinewidth } bind def
/J { setlinecap } bind def
/j { setlinejoin } bind def
/M { setmiterlimit } bind def
/d { setdash } bind def
/m { moveto } bind def
/l { lineto } bind def
/c { curveto } bind def
/h { closepath } bind def
/re { exch dup neg 3 1 roll 5 3 roll moveto 0 rlineto
      0 exch rlineto 0 rlineto closepath } bind def
/S { stroke } bind def
/f { fill } bind def
/f* { eofill } bind def
/n { newpath } bind def
/W { clip } bind def
/W* { eoclip } bind def
/BT { } bind def
/ET { } bind def
/pdfmark where { pop globaldict /?pdfmark /exec load put }
    { globaldict begin /?pdfmark /pop load def /pdfmark
    /cleartomark load def end } ifelse
/BDC { mark 3 1 roll /BDC pdfmark } bind def
/EMC { mark /EMC pdfmark } bind def
/cairo_store_point { /cairo_point_y exch def /cairo_point_x exch def } def
/Tj { show currentpoint cairo_store_point } bind def
/TJ {
  {
    dup
    type /stringtype eq
    { show } { -0.001 mul 0 cairo_font_matrix dtransform rmoveto } ifelse
  } forall
  currentpoint cairo_store_point
} bind def
/cairo_selectfont { cairo_font_matrix aload pop pop pop 0 0 6 array astore
    cairo_font exch selectfont cairo_point_x cairo_point_y moveto } bind def
/Tf { pop /cairo_font exch def /cairo_font_matrix where
      { pop cairo_selectfont } if } bind def
/Td { matrix translate cairo_font_matrix matrix concatmatrix dup
      /cairo_font_matrix exch def dup 4 get exch 5 get cairo_store_point
      /cairo_font where { pop cairo_selectfont } if } bind def
/Tm { 2 copy 8 2 roll 6 array astore /cairo_font_matrix exch def
      cairo_store_point /cairo_font where { pop cairo_selectfont } if } bind def
/g { setgray } bind def
/rg { setrgbcolor } bind def
/d1 { setcachedevice } bind def
/cairo_set_page_size {
  % Change paper size, but only if different from previous paper size otherwise
  % duplex fails. PLRM specifies a tolerance of 5 pts when matching paper size
  % so we use the same when checking if the size changes.
  /setpagedevice where {
    pop currentpagedevice
    /PageSize known {
      2 copy
      currentpagedevice /PageSize get aload pop
      exch 4 1 roll
      sub abs 5 gt
      3 1 roll
      sub abs 5 gt
      or
    } {
      true
    } ifelse
    {
      2 array astore
      2 dict begin
        /PageSize exch def
        /ImagingBBox null def
      currentdict end
      setpagedevice
    } {
      pop pop
    } ifelse
  } {
    pop
  } ifelse
} def
%%EndProlog
%%BeginSetup
%%EndSetup
%%Page: 1 1
%%BeginPageSetup
%%PageMedia: 423x367mm
%%PageBoundingBox: 0 0 1200 1039
1200 1039 cairo_set_page_size
%%EndPageSetup
q 0 0 1200 1039 rectclip q
0.984314 g
0 0 1200 1039 rectfill
0.788235 g
1.875 w
0 J
1 j
[] 0.0 d
4 M 0 1039 1200 -1039.23 re S
0 g
2.5 w
1 J
0 461.648 m -100 326.934 -133.332 269.199 -100 288.445 c S
100 230.711 m 33.332 76.75 0 19.016 0 57.504 c S
150 201.844 m 50 67.129 16.668 9.391 50 28.637 c S
0 57.504 m -100 192.219 -133.332 249.953 -100 230.711 c S
-100 230.711 m 66.668 249.953 133.332 249.953 100 230.711 c S
-100 288.445 m 66.668 269.199 133.332 269.199 100 288.445 c S
0 981.266 m -100 846.551 -133.332 788.816 -100 808.059 c S
100 750.324 m 33.332 596.363 0 538.629 0 577.121 c S
150 721.457 m 50 586.742 16.668 529.008 50 548.254 c S
0 577.121 m -100 711.836 -133.332 769.57 -100 750.324 c S
-100 750.324 m 66.668 769.57 133.332 769.57 100 750.324 c S
-100 808.059 m 66.668 788.816 133.332 788.816 100 808.059 c S
250 490.516 m 183.332 336.559 150 278.82 150 317.312 c S
300 461.648 m 200 326.934 166.668 269.199 200 288.445 c S
150 317.312 m 50 452.027 16.668 509.762 50 490.516 c S
50 490.516 m 216.668 509.762 283.332 509.762 250 490.516 c S
100 288.445 m 33.332 442.406 0 500.141 0 461.648 c S
50 548.254 m 216.668 529.008 283.332 529.008 250 548.254 c S
400 230.711 m 333.332 76.75 300 19.016 300 57.504 c S
450 201.844 m 350 67.129 316.668 9.391 350 28.637 c S
300 57.504 m 200 192.219 166.668 249.953 200 230.711 c S
200 230.711 m 366.668 249.953 433.332 249.953 400 230.711 c S
250 28.637 m 183.332 182.598 150 240.332 150 201.844 c S
200 288.445 m 366.668 269.199 433.332 269.199 400 288.445 c S
250 1010.133 m 183.332 856.172 150 798.438 150 836.926 c S
300 981.266 m 200 846.551 166.668 788.816 200 808.059 c S
150 836.926 m 50 971.641 16.668 1029.379 50 1010.133 c S
50 1010.133 m 216.668 1029.379 283.332 1029.379 250 1010.133 c S
100 808.059 m 33.332 962.02 0 1019.754 0 981.266 c S
400 750.324 m 333.332 596.363 300 538.629 300 577.121 c S
450 721.457 m 350 586.742 316.668 529.008 350 548.254 c S
300 577.121 m 200 711.836 166.668 769.57 200 750.324 c S
200 750.324 m 366.668 769.57 433.332 769.57 400 750.324 c S
250 548.254 m 183.332 702.211 150 759.949 150 721.457 c S
200 808.059 m 366.668 788.816 433.332 788.816 400 808.059 c S
550 490.516 m 483.332 336.559 450 278.82 450 317.312 c S
600 461.648 m 500 326.934 466.668 269.199 500 288.445 c S
450 317.312 m 350 452.027 316.668 509.762 350 490.516 c S
350 490.516 m 516.668 509.762 583.332 509.762 550 490.516 c S
400 288.445 m 333.332 442.406 300 500.141 300 461.648 c S
350 548.254 m 516.668 529.008 583.332 529.008 550 548.254 c S
700 230.711 m 633.332 76.75 600 19.016 600 57.504 c S
750 201.844 m 650 67.129 616.668 9.391 650 28.637 c S
600 57.504 m 500 192.219 466.668 249.953 500 230.711 c S
500 230.711 m 666.668 249.953 733.332 249.953 700 230.711 c S
550 28.637 m 483.332 182.598 450 240.332 450 201.844 c S
500 288.445 m 666.668 269.199 733.332 269.199 700 288.445 c S
550 1010.133 m 483.332 856.172 450 798.438 450 836.926 c S
600 981.266 m 500 846.551 466.668 788.816 500 808.059 c S
450 836.926 m 350 971.641 316.668 1029.379 350 1010.133 c S
350 1010.133 m 516.668 1029.379 583.332 1029.379 550 1010.133 c S
400 808.059 m 333.332 962.02 300 1019.754 300 981.266 c S
700 750.324 m 633.332 596.363 600 538.629 600 577.121 c S
750 721.457 m 650 586.742 616.668 529.008 650 548.254 c S
600 577.121 m 500 711.836 466.668 769.57 500 750.324 c S
500 750.324 m 666.668 769.57 733.332 769.57 700 750.324 c S
550 548.254 m 483.332 702.211 450 759.949 450 721.457 c S
500 808.059 m 666.668 788.816 733.332 788.816 700 808.059 c S
850 490.516 m 783.332 336.559 750 278.82 750 317.312 c S
900 461.648 m 800 326.934 766.668 269.199 800 288.445 c S
750 317.312 m 650 452.027 616.668 509.762 650 490.516 c S
650 490.516 m 816.668 509.762 883.332 509.762 850 490.516 c S
700 288.445 m 633.332 442.406 600 500.141 600 461.648 c S
650 548.254 m 816.668 529.008 883.332 529.008 850 548.254 c S
1000 230.711 m 933.332 76.75 900 19.016 900 57.504 c S
1050 201.844 m 950 67.129 916.668 9.391 950 28.637 c S
900 57.504 m 800 192.219 766.668 249.953 800 230.711 c S
800 230.711 m 966.668 249.953 1033.332 249.953 1000 230.711 c S
850 28.637 m 783.332 182.598 750 240.332 750 201.844 c S
800 288.445 m 966.668 269.199 1033.332 269.199 1000 288.445 c S
850 1010.133 m 783.332 856.172 750 798.438 750 836.926 c S
900 981.266 m 800 846.551 766.668 788.816 800 808.059 c S
750 836.926 m 650 971.641 616.668 1029.379 650 1010.133 c S
650 1010.133 m 816.668 1029.379 883.332 1029.379 850 1010.133 c S
700 808.059 m 633.332 962.02 600 1019.754 600 981.266 c S
1000 750.324 m 933.332 596.363 900 538.629 900 577.121 c S
1050 721.457 m 950 586.742 916.668 529.008 950 548.254 c S
900 577.121 m 800 711.836 766.668 769.57 800 750.324 c S
800 750.324 m 966.668 769.57 1033.332 769.57 1000 750.324 c S
850 548.254 m 783.332 702.211 750 759.949 750 721.457 c S
800 808.059 m 966.668 788.816 1033.332 788.816 1000 808.059 c S
1150 490.516 m 1083.332 336.559 1050 278.82 1050 317.312 c S
1200 461.648 m 1100 326.934 1066.668 269.199 1100 288.445 c S
1050 317.312 m 950 452.027 916.668 509.762 950 490.516 c S
950 490.516 m 1116.668 509.762 1183.332 509.762 1150 490.516 c S
1000 288.445 m 933.332 442.406 900 500.141 900 461.648 c S
950 548.254 m 1116.668 529.008 1183.332 529.008 1150 548.254 c S
1300 230.711 m 1233.332 76.75 1200 19.016 1200 57.504 c S
1200 57.504 m 1100 192.219 1066.668 249.953 1100 230.711 c S
1100 230.711 m 1266.668 249.953 1333.332 249.953 1300 230.711 c S
1150 28.637 m 1083.332 182.598 1050 240.332 1050 201.844 c S
1100 288.445 m 1266.668 269.199 1333.332 269.199 1300 288.445 c S
1150 1010.133 m 1083.332 856.172 1050 798.438 1050 836.926 c S
1200 981.266 m 1100 846.551 1066.668 788.816 1100 808.059 c S
1050 836.926 m 950 971.641 916.668 1029.379 950 1010.133 c S
950 1010.133 m 1116.668 1029.379 1183.332 1029.379 1150 1010.133 c S
1000 808.059 m 933.332 962.02 900 1019.754 900 981.266 c S
1300 750.324 m 1233.332 596.363 1200 538.629 1200 577.121 c S
1200 577.121 m 1100 711.836 1066.668 769.57 1100 750.324 c S
1100 750.324 m 1266.668 769.57 1333.332 769.57 1300 750.324 c S
1150 548.254 m 1083.332 702.211 1050 759.949 1050 721.457 c S
1100 808.059 m 1266.668 788.816 1333.332 788.816 1300 808.059 c S
1300 288.445 m 1233.332 442.406 1200 500.141 1200 461.648 c S
Q Q
showpage
%%Trailer
%%Trailer
cleartomark
countdictstack
exch sub { end } repeat
restore
%%EOF
