%!PS-Adobe-2.0 EPSF-2.0
%%BoundingBox: 0 0 1200 1039
%%HiResBoundingBox: 0.000000 0.000000 1200.000000 1039.000000
%%Creator: cairo 1.14.2 (http://cairographics.org)
%%CreationDate: Mon Sep  7 08:21:34 2015
%%DocumentData: Clean7Bit
%%LanguageLevel: 2
%%DocumentMedia: 423x367mm 1200 1039 0 () ()
%%EndComments
% EPSF created by ps2eps 1.68
%%BeginProlog
save
countdictstack
mark
newpath
/showpage {} def
/setpagedevice {pop} def
%%EndProlog
%%Page 1 1
%%BeginProlog
/languagelevel where
{ pop languagelevel } { 1 } ifelse
2 lt { /Helvetica findfont 12 scalefont setfont 50 500 moveto
  (This print job requires a PostScript Language Level 2 printer.) show
  showpage quit } if
/q { gsave } bind def
/Q { grestore } bind def
/cm { 6 array astore concat } bind def
/w { setlinewidth } bind def
/J { setlinecap } bind def
/j { setlinejoin } bind def
/M { setmiterlimit } bind def
/d { setdash } bind def
/m { moveto } bind def
/l { lineto } bind def
/c { curveto } bind def
/h { closepath } bind def
/re { exch dup neg 3 1 roll 5 3 roll moveto 0 rlineto
      0 exch rlineto 0 rlineto closepath } bind def
/S { stroke } bind def
/f { fill } bind def
/f* { eofill } bind def
/n { newpath } bind def
/W { clip } bind def
/W* { eoclip } bind def
/BT { } bind def
/ET { } bind def
/pdfmark where { pop globaldict /?pdfmark /exec load put }
    { globaldict begin /?pdfmark /pop load def /pdfmark
    /cleartomark load def end } ifelse
/BDC { mark 3 1 roll /BDC pdfmark } bind def
/EMC { mark /EMC pdfmark } bind def
/cairo_store_point { /cairo_point_y exch def /cairo_point_x exch def } def
/Tj { show currentpoint cairo_store_point } bind def
/TJ {
  {
    dup
    type /stringtype eq
    { show } { -0.001 mul 0 cairo_font_matrix dtransform rmoveto } ifelse
  } forall
  currentpoint cairo_store_point
} bind def
/cairo_selectfont { cairo_font_matrix aload pop pop pop 0 0 6 array astore
    cairo_font exch selectfont cairo_point_x cairo_point_y moveto } bind def
/Tf { pop /cairo_font exch def /cairo_font_matrix where
      { pop cairo_selectfont } if } bind def
/Td { matrix translate cairo_font_matrix matrix concatmatrix dup
      /cairo_font_matrix exch def dup 4 get exch 5 get cairo_store_point
      /cairo_font where { pop cairo_selectfont } if } bind def
/Tm { 2 copy 8 2 roll 6 array astore /cairo_font_matrix exch def
      cairo_store_point /cairo_font where { pop cairo_selectfont } if } bind def
/g { setgray } bind def
/rg { setrgbcolor } bind def
/d1 { setcachedevice } bind def
/cairo_set_page_size {
  % Change paper size, but only if different from previous paper size otherwise
  % duplex fails. PLRM specifies a tolerance of 5 pts when matching paper size
  % so we use the same when checking if the size changes.
  /setpagedevice where {
    pop currentpagedevice
    /PageSize known {
      2 copy
      currentpagedevice /PageSize get aload pop
      exch 4 1 roll
      sub abs 5 gt
      3 1 roll
      sub abs 5 gt
      or
    } {
      true
    } ifelse
    {
      2 array astore
      2 dict begin
        /PageSize exch def
        /ImagingBBox null def
      currentdict end
      setpagedevice
    } {
      pop pop
    } ifelse
  } {
    pop
  } ifelse
} def
%%EndProlog
%%BeginSetup
%%EndSetup
%%Page: 1 1
%%BeginPageSetup
%%PageMedia: 423x367mm
%%PageBoundingBox: 0 0 1200 1039
1200 1039 cairo_set_page_size
%%EndPageSetup
q 0 0 1200 1039 rectclip q
0.984314 g
0 0 1200 1039 rectfill
0.788235 g
1.875 w
0 J
1 j
[] 0.0 d
4 M 0 1039 1200 -1039.23 re S
0 g
2.5 w
1 J
0 461.648 m -100 403.914 -50 375.047 -50 490.516 c S
50 28.637 m 50 144.105 100 115.238 0 57.504 c S
150 201.844 m 50 144.105 100 115.238 100 230.711 c S
100 288.445 m 0 230.711 0 288.445 100 230.711 c S
-50 28.637 m -50 144.105 -100 115.238 0 57.504 c S
0 981.266 m -100 923.531 -50 894.664 -50 1010.133 c S
50 548.254 m 50 663.723 100 634.855 0 577.121 c S
150 721.457 m 50 663.723 100 634.855 100 750.324 c S
100 808.059 m 0 750.324 0 808.059 100 750.324 c S
-50 548.254 m -50 663.723 -100 634.855 0 577.121 c S
200 288.445 m 200 403.914 250 375.047 150 317.312 c S
300 461.648 m 200 403.914 250 375.047 250 490.516 c S
0 461.648 m 100 403.914 50 375.047 50 490.516 c S
250 548.254 m 150 490.516 150 548.254 250 490.516 c S
100 288.445 m 100 403.914 50 375.047 150 317.312 c S
50 548.254 m 150 490.516 150 548.254 50 490.516 c S
350 28.637 m 350 144.105 400 115.238 300 57.504 c S
450 201.844 m 350 144.105 400 115.238 400 230.711 c S
150 201.844 m 250 144.105 200 115.238 200 230.711 c S
400 288.445 m 300 230.711 300 288.445 400 230.711 c S
250 28.637 m 250 144.105 200 115.238 300 57.504 c S
200 288.445 m 300 230.711 300 288.445 200 230.711 c S
200 808.059 m 200 923.531 250 894.664 150 836.926 c S
300 981.266 m 200 923.531 250 894.664 250 1010.133 c S
0 981.266 m 100 923.531 50 894.664 50 1010.133 c S
250 1067.867 m 150 1010.133 150 1067.867 250 1010.133 c S
100 808.059 m 100 923.531 50 894.664 150 836.926 c S
50 1067.867 m 150 1010.133 150 1067.867 50 1010.133 c S
350 548.254 m 350 663.723 400 634.855 300 577.121 c S
450 721.457 m 350 663.723 400 634.855 400 750.324 c S
150 721.457 m 250 663.723 200 634.855 200 750.324 c S
400 808.059 m 300 750.324 300 808.059 400 750.324 c S
250 548.254 m 250 663.723 200 634.855 300 577.121 c S
200 808.059 m 300 750.324 300 808.059 200 750.324 c S
500 288.445 m 500 403.914 550 375.047 450 317.312 c S
600 461.648 m 500 403.914 550 375.047 550 490.516 c S
300 461.648 m 400 403.914 350 375.047 350 490.516 c S
550 548.254 m 450 490.516 450 548.254 550 490.516 c S
400 288.445 m 400 403.914 350 375.047 450 317.312 c S
350 548.254 m 450 490.516 450 548.254 350 490.516 c S
650 28.637 m 650 144.105 700 115.238 600 57.504 c S
750 201.844 m 650 144.105 700 115.238 700 230.711 c S
450 201.844 m 550 144.105 500 115.238 500 230.711 c S
700 288.445 m 600 230.711 600 288.445 700 230.711 c S
550 28.637 m 550 144.105 500 115.238 600 57.504 c S
500 288.445 m 600 230.711 600 288.445 500 230.711 c S
500 808.059 m 500 923.531 550 894.664 450 836.926 c S
600 981.266 m 500 923.531 550 894.664 550 1010.133 c S
300 981.266 m 400 923.531 350 894.664 350 1010.133 c S
550 1067.867 m 450 1010.133 450 1067.867 550 1010.133 c S
400 808.059 m 400 923.531 350 894.664 450 836.926 c S
350 1067.867 m 450 1010.133 450 1067.867 350 1010.133 c S
650 548.254 m 650 663.723 700 634.855 600 577.121 c S
750 721.457 m 650 663.723 700 634.855 700 750.324 c S
450 721.457 m 550 663.723 500 634.855 500 750.324 c S
700 808.059 m 600 750.324 600 808.059 700 750.324 c S
550 548.254 m 550 663.723 500 634.855 600 577.121 c S
500 808.059 m 600 750.324 600 808.059 500 750.324 c S
800 288.445 m 800 403.914 850 375.047 750 317.312 c S
900 461.648 m 800 403.914 850 375.047 850 490.516 c S
600 461.648 m 700 403.914 650 375.047 650 490.516 c S
850 548.254 m 750 490.516 750 548.254 850 490.516 c S
700 288.445 m 700 403.914 650 375.047 750 317.312 c S
650 548.254 m 750 490.516 750 548.254 650 490.516 c S
950 28.637 m 950 144.105 1000 115.238 900 57.504 c S
1050 201.844 m 950 144.105 1000 115.238 1000 230.711 c S
750 201.844 m 850 144.105 800 115.238 800 230.711 c S
1000 288.445 m 900 230.711 900 288.445 1000 230.711 c S
850 28.637 m 850 144.105 800 115.238 900 57.504 c S
800 288.445 m 900 230.711 900 288.445 800 230.711 c S
800 808.059 m 800 923.531 850 894.664 750 836.926 c S
900 981.266 m 800 923.531 850 894.664 850 1010.133 c S
600 981.266 m 700 923.531 650 894.664 650 1010.133 c S
850 1067.867 m 750 1010.133 750 1067.867 850 1010.133 c S
700 808.059 m 700 923.531 650 894.664 750 836.926 c S
650 1067.867 m 750 1010.133 750 1067.867 650 1010.133 c S
950 548.254 m 950 663.723 1000 634.855 900 577.121 c S
1050 721.457 m 950 663.723 1000 634.855 1000 750.324 c S
750 721.457 m 850 663.723 800 634.855 800 750.324 c S
1000 808.059 m 900 750.324 900 808.059 1000 750.324 c S
850 548.254 m 850 663.723 800 634.855 900 577.121 c S
800 808.059 m 900 750.324 900 808.059 800 750.324 c S
1100 288.445 m 1100 403.914 1150 375.047 1050 317.312 c S
1200 461.648 m 1100 403.914 1150 375.047 1150 490.516 c S
900 461.648 m 1000 403.914 950 375.047 950 490.516 c S
1150 548.254 m 1050 490.516 1050 548.254 1150 490.516 c S
1000 288.445 m 1000 403.914 950 375.047 1050 317.312 c S
950 548.254 m 1050 490.516 1050 548.254 950 490.516 c S
1250 28.637 m 1250 144.105 1300 115.238 1200 57.504 c S
1050 201.844 m 1150 144.105 1100 115.238 1100 230.711 c S
1150 28.637 m 1150 144.105 1100 115.238 1200 57.504 c S
1100 288.445 m 1200 230.711 1200 288.445 1100 230.711 c S
1100 808.059 m 1100 923.531 1150 894.664 1050 836.926 c S
1200 981.266 m 1100 923.531 1150 894.664 1150 1010.133 c S
900 981.266 m 1000 923.531 950 894.664 950 1010.133 c S
1150 1067.867 m 1050 1010.133 1050 1067.867 1150 1010.133 c S
1000 808.059 m 1000 923.531 950 894.664 1050 836.926 c S
950 1067.867 m 1050 1010.133 1050 1067.867 950 1010.133 c S
1250 548.254 m 1250 663.723 1300 634.855 1200 577.121 c S
1050 721.457 m 1150 663.723 1100 634.855 1100 750.324 c S
1150 548.254 m 1150 663.723 1100 634.855 1200 577.121 c S
1100 808.059 m 1200 750.324 1200 808.059 1100 750.324 c S
1200 461.648 m 1300 403.914 1250 375.047 1250 490.516 c S
Q Q
showpage
%%Trailer
%%Trailer
cleartomark
countdictstack
exch sub { end } repeat
restore
%%EOF
