%!PS-Adobe-2.0 EPSF-2.0
%%BoundingBox: 0 0 1200 1039
%%HiResBoundingBox: 0.000000 0.000000 1200.000000 1039.000000
%%Creator: cairo 1.14.2 (http://cairographics.org)
%%CreationDate: Mon Sep  7 08:21:34 2015
%%DocumentData: Clean7Bit
%%LanguageLevel: 2
%%DocumentMedia: 423x367mm 1200 1039 0 () ()
%%EndComments
% EPSF created by ps2eps 1.68
%%BeginProlog
save
countdictstack
mark
newpath
/showpage {} def
/setpagedevice {pop} def
%%EndProlog
%%Page 1 1
%%BeginProlog
/languagelevel where
{ pop languagelevel } { 1 } ifelse
2 lt { /Helvetica findfont 12 scalefont setfont 50 500 moveto
  (This print job requires a PostScript Language Level 2 printer.) show
  showpage quit } if
/q { gsave } bind def
/Q { grestore } bind def
/cm { 6 array astore concat } bind def
/w { setlinewidth } bind def
/J { setlinecap } bind def
/j { setlinejoin } bind def
/M { setmiterlimit } bind def
/d { setdash } bind def
/m { moveto } bind def
/l { lineto } bind def
/c { curveto } bind def
/h { closepath } bind def
/re { exch dup neg 3 1 roll 5 3 roll moveto 0 rlineto
      0 exch rlineto 0 rlineto closepath } bind def
/S { stroke } bind def
/f { fill } bind def
/f* { eofill } bind def
/n { newpath } bind def
/W { clip } bind def
/W* { eoclip } bind def
/BT { } bind def
/ET { } bind def
/pdfmark where { pop globaldict /?pdfmark /exec load put }
    { globaldict begin /?pdfmark /pop load def /pdfmark
    /cleartomark load def end } ifelse
/BDC { mark 3 1 roll /BDC pdfmark } bind def
/EMC { mark /EMC pdfmark } bind def
/cairo_store_point { /cairo_point_y exch def /cairo_point_x exch def } def
/Tj { show currentpoint cairo_store_point } bind def
/TJ {
  {
    dup
    type /stringtype eq
    { show } { -0.001 mul 0 cairo_font_matrix dtransform rmoveto } ifelse
  } forall
  currentpoint cairo_store_point
} bind def
/cairo_selectfont { cairo_font_matrix aload pop pop pop 0 0 6 array astore
    cairo_font exch selectfont cairo_point_x cairo_point_y moveto } bind def
/Tf { pop /cairo_font exch def /cairo_font_matrix where
      { pop cairo_selectfont } if } bind def
/Td { matrix translate cairo_font_matrix matrix concatmatrix dup
      /cairo_font_matrix exch def dup 4 get exch 5 get cairo_store_point
      /cairo_font where { pop cairo_selectfont } if } bind def
/Tm { 2 copy 8 2 roll 6 array astore /cairo_font_matrix exch def
      cairo_store_point /cairo_font where { pop cairo_selectfont } if } bind def
/g { setgray } bind def
/rg { setrgbcolor } bind def
/d1 { setcachedevice } bind def
/cairo_set_page_size {
  % Change paper size, but only if different from previous paper size otherwise
  % duplex fails. PLRM specifies a tolerance of 5 pts when matching paper size
  % so we use the same when checking if the size changes.
  /setpagedevice where {
    pop currentpagedevice
    /PageSize known {
      2 copy
      currentpagedevice /PageSize get aload pop
      exch 4 1 roll
      sub abs 5 gt
      3 1 roll
      sub abs 5 gt
      or
    } {
      true
    } ifelse
    {
      2 array astore
      2 dict begin
        /PageSize exch def
        /ImagingBBox null def
      currentdict end
      setpagedevice
    } {
      pop pop
    } ifelse
  } {
    pop
  } ifelse
} def
%%EndProlog
%%BeginSetup
%%EndSetup
%%Page: 1 1
%%BeginPageSetup
%%PageMedia: 423x367mm
%%PageBoundingBox: 0 0 1200 1039
1200 1039 cairo_set_page_size
%%EndPageSetup
q 0 0 1200 1039 rectclip q
0.984314 g
0 0 1200 1039 rectfill
0.788235 g
1.875 w
0 J
1 j
[] 0.0 d
4 M 0 1039 1200 -1039.23 re S
0 g
2.5 w
1 J
-50 490.516 m 0 519.383 l -100 461.648 l -100 403.914 l S
-50 490.516 m 0 519.383 l -100 461.648 l -150 490.516 l S
0 57.504 m 0 -0.23 l 0 115.238 l 50 144.105 l S
100 230.711 m 150 259.578 l 50 201.844 l 50 144.105 l S
100 230.711 m 150 259.578 l 50 201.844 l 0 230.711 l S
0 57.504 m 0 -0.23 l 0 115.238 l -50 144.105 l S
-100 230.711 m -150 259.578 l -50 201.844 l 0 230.711 l S
-50 1010.133 m 0 1039 l -100 981.266 l -100 923.531 l S
-50 1010.133 m 0 1039 l -100 981.266 l -150 1010.133 l S
0 577.121 m 0 519.383 l 0 634.855 l 50 663.723 l S
100 750.324 m 150 779.191 l 50 721.457 l 50 663.723 l S
100 750.324 m 150 779.191 l 50 721.457 l 0 750.324 l S
0 577.121 m 0 519.383 l 0 634.855 l -50 663.723 l S
-100 750.324 m -150 779.191 l -50 721.457 l 0 750.324 l S
150 317.312 m 150 259.578 l 150 375.047 l 200 403.914 l S
250 490.516 m 300 519.383 l 200 461.648 l 200 403.914 l S
50 490.516 m 0 519.383 l 100 461.648 l 100 403.914 l S
250 490.516 m 300 519.383 l 200 461.648 l 150 490.516 l S
150 317.312 m 150 259.578 l 150 375.047 l 100 403.914 l S
50 490.516 m 0 519.383 l 100 461.648 l 150 490.516 l S
300 57.504 m 300 -0.23 l 300 115.238 l 350 144.105 l S
400 230.711 m 450 259.578 l 350 201.844 l 350 144.105 l S
200 230.711 m 150 259.578 l 250 201.844 l 250 144.105 l S
400 230.711 m 450 259.578 l 350 201.844 l 300 230.711 l S
300 57.504 m 300 -0.23 l 300 115.238 l 250 144.105 l S
200 230.711 m 150 259.578 l 250 201.844 l 300 230.711 l S
150 836.926 m 150 779.191 l 150 894.664 l 200 923.531 l S
250 1010.133 m 300 1039 l 200 981.266 l 200 923.531 l S
50 1010.133 m 0 1039 l 100 981.266 l 100 923.531 l S
250 1010.133 m 300 1039 l 200 981.266 l 150 1010.133 l S
150 836.926 m 150 779.191 l 150 894.664 l 100 923.531 l S
50 1010.133 m 0 1039 l 100 981.266 l 150 1010.133 l S
300 577.121 m 300 519.383 l 300 634.855 l 350 663.723 l S
400 750.324 m 450 779.191 l 350 721.457 l 350 663.723 l S
200 750.324 m 150 779.191 l 250 721.457 l 250 663.723 l S
400 750.324 m 450 779.191 l 350 721.457 l 300 750.324 l S
300 577.121 m 300 519.383 l 300 634.855 l 250 663.723 l S
200 750.324 m 150 779.191 l 250 721.457 l 300 750.324 l S
450 317.312 m 450 259.578 l 450 375.047 l 500 403.914 l S
550 490.516 m 600 519.383 l 500 461.648 l 500 403.914 l S
350 490.516 m 300 519.383 l 400 461.648 l 400 403.914 l S
550 490.516 m 600 519.383 l 500 461.648 l 450 490.516 l S
450 317.312 m 450 259.578 l 450 375.047 l 400 403.914 l S
350 490.516 m 300 519.383 l 400 461.648 l 450 490.516 l S
600 57.504 m 600 -0.23 l 600 115.238 l 650 144.105 l S
700 230.711 m 750 259.578 l 650 201.844 l 650 144.105 l S
500 230.711 m 450 259.578 l 550 201.844 l 550 144.105 l S
700 230.711 m 750 259.578 l 650 201.844 l 600 230.711 l S
600 57.504 m 600 -0.23 l 600 115.238 l 550 144.105 l S
500 230.711 m 450 259.578 l 550 201.844 l 600 230.711 l S
450 836.926 m 450 779.191 l 450 894.664 l 500 923.531 l S
550 1010.133 m 600 1039 l 500 981.266 l 500 923.531 l S
350 1010.133 m 300 1039 l 400 981.266 l 400 923.531 l S
550 1010.133 m 600 1039 l 500 981.266 l 450 1010.133 l S
450 836.926 m 450 779.191 l 450 894.664 l 400 923.531 l S
350 1010.133 m 300 1039 l 400 981.266 l 450 1010.133 l S
600 577.121 m 600 519.383 l 600 634.855 l 650 663.723 l S
700 750.324 m 750 779.191 l 650 721.457 l 650 663.723 l S
500 750.324 m 450 779.191 l 550 721.457 l 550 663.723 l S
700 750.324 m 750 779.191 l 650 721.457 l 600 750.324 l S
600 577.121 m 600 519.383 l 600 634.855 l 550 663.723 l S
500 750.324 m 450 779.191 l 550 721.457 l 600 750.324 l S
750 317.312 m 750 259.578 l 750 375.047 l 800 403.914 l S
850 490.516 m 900 519.383 l 800 461.648 l 800 403.914 l S
650 490.516 m 600 519.383 l 700 461.648 l 700 403.914 l S
850 490.516 m 900 519.383 l 800 461.648 l 750 490.516 l S
750 317.312 m 750 259.578 l 750 375.047 l 700 403.914 l S
650 490.516 m 600 519.383 l 700 461.648 l 750 490.516 l S
900 57.504 m 900 -0.23 l 900 115.238 l 950 144.105 l S
1000 230.711 m 1050 259.578 l 950 201.844 l 950 144.105 l S
800 230.711 m 750 259.578 l 850 201.844 l 850 144.105 l S
1000 230.711 m 1050 259.578 l 950 201.844 l 900 230.711 l S
900 57.504 m 900 -0.23 l 900 115.238 l 850 144.105 l S
800 230.711 m 750 259.578 l 850 201.844 l 900 230.711 l S
750 836.926 m 750 779.191 l 750 894.664 l 800 923.531 l S
850 1010.133 m 900 1039 l 800 981.266 l 800 923.531 l S
650 1010.133 m 600 1039 l 700 981.266 l 700 923.531 l S
850 1010.133 m 900 1039 l 800 981.266 l 750 1010.133 l S
750 836.926 m 750 779.191 l 750 894.664 l 700 923.531 l S
650 1010.133 m 600 1039 l 700 981.266 l 750 1010.133 l S
900 577.121 m 900 519.383 l 900 634.855 l 950 663.723 l S
1000 750.324 m 1050 779.191 l 950 721.457 l 950 663.723 l S
800 750.324 m 750 779.191 l 850 721.457 l 850 663.723 l S
1000 750.324 m 1050 779.191 l 950 721.457 l 900 750.324 l S
900 577.121 m 900 519.383 l 900 634.855 l 850 663.723 l S
800 750.324 m 750 779.191 l 850 721.457 l 900 750.324 l S
1050 317.312 m 1050 259.578 l 1050 375.047 l 1100 403.914 l S
1150 490.516 m 1200 519.383 l 1100 461.648 l 1100 403.914 l S
950 490.516 m 900 519.383 l 1000 461.648 l 1000 403.914 l S
1150 490.516 m 1200 519.383 l 1100 461.648 l 1050 490.516 l S
1050 317.312 m 1050 259.578 l 1050 375.047 l 1000 403.914 l S
950 490.516 m 900 519.383 l 1000 461.648 l 1050 490.516 l S
1200 57.504 m 1200 -0.23 l 1200 115.238 l 1250 144.105 l S
1100 230.711 m 1050 259.578 l 1150 201.844 l 1150 144.105 l S
1300 230.711 m 1350 259.578 l 1250 201.844 l 1200 230.711 l S
1200 57.504 m 1200 -0.23 l 1200 115.238 l 1150 144.105 l S
1100 230.711 m 1050 259.578 l 1150 201.844 l 1200 230.711 l S
1050 836.926 m 1050 779.191 l 1050 894.664 l 1100 923.531 l S
1150 1010.133 m 1200 1039 l 1100 981.266 l 1100 923.531 l S
950 1010.133 m 900 1039 l 1000 981.266 l 1000 923.531 l S
1150 1010.133 m 1200 1039 l 1100 981.266 l 1050 1010.133 l S
1050 836.926 m 1050 779.191 l 1050 894.664 l 1000 923.531 l S
950 1010.133 m 900 1039 l 1000 981.266 l 1050 1010.133 l S
1200 577.121 m 1200 519.383 l 1200 634.855 l 1250 663.723 l S
1100 750.324 m 1050 779.191 l 1150 721.457 l 1150 663.723 l S
1300 750.324 m 1350 779.191 l 1250 721.457 l 1200 750.324 l S
1200 577.121 m 1200 519.383 l 1200 634.855 l 1150 663.723 l S
1100 750.324 m 1050 779.191 l 1150 721.457 l 1200 750.324 l S
1250 490.516 m 1200 519.383 l 1300 461.648 l 1300 403.914 l S
1250 490.516 m 1200 519.383 l 1300 461.648 l 1350 490.516 l S
Q Q
showpage
%%Trailer
%%Trailer
cleartomark
countdictstack
exch sub { end } repeat
restore
%%EOF
