%!PS-Adobe-2.0 EPSF-2.0
%%BoundingBox: 0 0 2100 1400
%%HiResBoundingBox: 0.000000 0.000000 2100.000000 1400.000000
%%Creator: cairo 1.14.2 (http://cairographics.org)
%%CreationDate: Mon Sep  7 08:21:34 2015
%%DocumentData: Clean7Bit
%%LanguageLevel: 2
%%DocumentMedia: 741x494mm 2100 1400 0 () ()
%%EndComments
% EPSF created by ps2eps 1.68
%%BeginProlog
save
countdictstack
mark
newpath
/showpage {} def
/setpagedevice {pop} def
%%EndProlog
%%Page 1 1
%%BeginProlog
/languagelevel where
{ pop languagelevel } { 1 } ifelse
2 lt { /Helvetica findfont 12 scalefont setfont 50 500 moveto
  (This print job requires a PostScript Language Level 2 printer.) show
  showpage quit } if
/q { gsave } bind def
/Q { grestore } bind def
/cm { 6 array astore concat } bind def
/w { setlinewidth } bind def
/J { setlinecap } bind def
/j { setlinejoin } bind def
/M { setmiterlimit } bind def
/d { setdash } bind def
/m { moveto } bind def
/l { lineto } bind def
/c { curveto } bind def
/h { closepath } bind def
/re { exch dup neg 3 1 roll 5 3 roll moveto 0 rlineto
      0 exch rlineto 0 rlineto closepath } bind def
/S { stroke } bind def
/f { fill } bind def
/f* { eofill } bind def
/n { newpath } bind def
/W { clip } bind def
/W* { eoclip } bind def
/BT { } bind def
/ET { } bind def
/pdfmark where { pop globaldict /?pdfmark /exec load put }
    { globaldict begin /?pdfmark /pop load def /pdfmark
    /cleartomark load def end } ifelse
/BDC { mark 3 1 roll /BDC pdfmark } bind def
/EMC { mark /EMC pdfmark } bind def
/cairo_store_point { /cairo_point_y exch def /cairo_point_x exch def } def
/Tj { show currentpoint cairo_store_point } bind def
/TJ {
  {
    dup
    type /stringtype eq
    { show } { -0.001 mul 0 cairo_font_matrix dtransform rmoveto } ifelse
  } forall
  currentpoint cairo_store_point
} bind def
/cairo_selectfont { cairo_font_matrix aload pop pop pop 0 0 6 array astore
    cairo_font exch selectfont cairo_point_x cairo_point_y moveto } bind def
/Tf { pop /cairo_font exch def /cairo_font_matrix where
      { pop cairo_selectfont } if } bind def
/Td { matrix translate cairo_font_matrix matrix concatmatrix dup
      /cairo_font_matrix exch def dup 4 get exch 5 get cairo_store_point
      /cairo_font where { pop cairo_selectfont } if } bind def
/Tm { 2 copy 8 2 roll 6 array astore /cairo_font_matrix exch def
      cairo_store_point /cairo_font where { pop cairo_selectfont } if } bind def
/g { setgray } bind def
/rg { setrgbcolor } bind def
/d1 { setcachedevice } bind def
/cairo_set_page_size {
  % Change paper size, but only if different from previous paper size otherwise
  % duplex fails. PLRM specifies a tolerance of 5 pts when matching paper size
  % so we use the same when checking if the size changes.
  /setpagedevice where {
    pop currentpagedevice
    /PageSize known {
      2 copy
      currentpagedevice /PageSize get aload pop
      exch 4 1 roll
      sub abs 5 gt
      3 1 roll
      sub abs 5 gt
      or
    } {
      true
    } ifelse
    {
      2 array astore
      2 dict begin
        /PageSize exch def
        /ImagingBBox null def
      currentdict end
      setpagedevice
    } {
      pop pop
    } ifelse
  } {
    pop
  } ifelse
} def
%%EndProlog
%%BeginSetup
%%EndSetup
%%Page: 1 1
%%BeginPageSetup
%%PageMedia: 741x494mm
%%PageBoundingBox: 0 0 2100 1400
2100 1400 cairo_set_page_size
%%EndPageSetup
q 0 0 2100 1400 rectclip q
0.984314 g
0 0 2100 1400 rectfill
0.788235 g
1.875 w
0 J
1 j
[] 0.0 d
4 M 0 1400 2100 -1400 re S
0 g
2.5 w
1 J
0 1225 m 0 1400 175 1341.668 116.668 1400 c S
175 1400 m 350 1400 291.668 1225 350 1283.332 c S
350 1225 m 350 1050 175 1108.332 233.332 1050 c S
175 1050 m 0 1050 58.332 1225 0 1166.668 c S
0 875 m 0 1050 175 991.668 116.668 1050 c S
175 1050 m 350 1050 291.668 875 350 933.332 c S
350 875 m 350 700 175 758.332 233.332 700 c S
175 700 m 0 700 58.332 875 0 816.668 c S
0 525 m 0 700 175 641.668 116.668 700 c S
175 700 m 350 700 291.668 525 350 583.332 c S
350 525 m 350 350 175 408.332 233.332 350 c S
175 350 m 0 350 58.332 525 0 466.668 c S
0 175 m 0 350 175 291.668 116.668 350 c S
175 350 m 350 350 291.668 175 350 233.332 c S
350 175 m 350 0 175 58.332 233.332 0 c S
175 0 m 0 0 58.332 175 0 116.668 c S
350 1225 m 350 1400 525 1341.668 466.668 1400 c S
525 1400 m 700 1400 641.668 1225 700 1283.332 c S
700 1225 m 700 1050 525 1108.332 583.332 1050 c S
525 1050 m 350 1050 408.332 1225 350 1166.668 c S
350 875 m 350 1050 525 991.668 466.668 1050 c S
525 1050 m 700 1050 641.668 875 700 933.332 c S
700 875 m 700 700 525 758.332 583.332 700 c S
525 700 m 350 700 408.332 875 350 816.668 c S
350 525 m 350 700 525 641.668 466.668 700 c S
525 700 m 700 700 641.668 525 700 583.332 c S
700 525 m 700 350 525 408.332 583.332 350 c S
525 350 m 350 350 408.332 525 350 466.668 c S
350 175 m 350 350 525 291.668 466.668 350 c S
525 350 m 700 350 641.668 175 700 233.332 c S
700 175 m 700 0 525 58.332 583.332 0 c S
525 0 m 350 0 408.332 175 350 116.668 c S
700 1225 m 700 1400 875 1341.668 816.668 1400 c S
875 1400 m 1050 1400 991.668 1225 1050 1283.332 c S
1050 1225 m 1050 1050 875 1108.332 933.332 1050 c S
875 1050 m 700 1050 758.332 1225 700 1166.668 c S
700 875 m 700 1050 875 991.668 816.668 1050 c S
875 1050 m 1050 1050 991.668 875 1050 933.332 c S
1050 875 m 1050 700 875 758.332 933.332 700 c S
875 700 m 700 700 758.332 875 700 816.668 c S
700 525 m 700 700 875 641.668 816.668 700 c S
875 700 m 1050 700 991.668 525 1050 583.332 c S
1050 525 m 1050 350 875 408.332 933.332 350 c S
875 350 m 700 350 758.332 525 700 466.668 c S
700 175 m 700 350 875 291.668 816.668 350 c S
875 350 m 1050 350 991.668 175 1050 233.332 c S
1050 175 m 1050 0 875 58.332 933.332 0 c S
875 0 m 700 0 758.332 175 700 116.668 c S
1050 1225 m 1050 1400 1225 1341.668 1166.668 1400 c S
1225 1400 m 1400 1400 1341.668 1225 1400 1283.332 c S
1400 1225 m 1400 1050 1225 1108.332 1283.332 1050 c S
1225 1050 m 1050 1050 1108.332 1225 1050 1166.668 c S
1050 875 m 1050 1050 1225 991.668 1166.668 1050 c S
1225 1050 m 1400 1050 1341.668 875 1400 933.332 c S
1400 875 m 1400 700 1225 758.332 1283.332 700 c S
1225 700 m 1050 700 1108.332 875 1050 816.668 c S
1050 525 m 1050 700 1225 641.668 1166.668 700 c S
1225 700 m 1400 700 1341.668 525 1400 583.332 c S
1400 525 m 1400 350 1225 408.332 1283.332 350 c S
1225 350 m 1050 350 1108.332 525 1050 466.668 c S
1050 175 m 1050 350 1225 291.668 1166.668 350 c S
1225 350 m 1400 350 1341.668 175 1400 233.332 c S
1400 175 m 1400 0 1225 58.332 1283.332 0 c S
1225 0 m 1050 0 1108.332 175 1050 116.668 c S
1400 1225 m 1400 1400 1575 1341.668 1516.668 1400 c S
1575 1400 m 1750 1400 1691.668 1225 1750 1283.332 c S
1750 1225 m 1750 1050 1575 1108.332 1633.332 1050 c S
1575 1050 m 1400 1050 1458.332 1225 1400 1166.668 c S
1400 875 m 1400 1050 1575 991.668 1516.668 1050 c S
1575 1050 m 1750 1050 1691.668 875 1750 933.332 c S
1750 875 m 1750 700 1575 758.332 1633.332 700 c S
1575 700 m 1400 700 1458.332 875 1400 816.668 c S
1400 525 m 1400 700 1575 641.668 1516.668 700 c S
1575 700 m 1750 700 1691.668 525 1750 583.332 c S
1750 525 m 1750 350 1575 408.332 1633.332 350 c S
1575 350 m 1400 350 1458.332 525 1400 466.668 c S
1400 175 m 1400 350 1575 291.668 1516.668 350 c S
1575 350 m 1750 350 1691.668 175 1750 233.332 c S
1750 175 m 1750 0 1575 58.332 1633.332 0 c S
1575 0 m 1400 0 1458.332 175 1400 116.668 c S
1750 1225 m 1750 1400 1925 1341.668 1866.668 1400 c S
1925 1400 m 2100 1400 2041.668 1225 2100 1283.332 c S
2100 1225 m 2100 1050 1925 1108.332 1983.332 1050 c S
1925 1050 m 1750 1050 1808.332 1225 1750 1166.668 c S
1750 875 m 1750 1050 1925 991.668 1866.668 1050 c S
1925 1050 m 2100 1050 2041.668 875 2100 933.332 c S
2100 875 m 2100 700 1925 758.332 1983.332 700 c S
1925 700 m 1750 700 1808.332 875 1750 816.668 c S
1750 525 m 1750 700 1925 641.668 1866.668 700 c S
1925 700 m 2100 700 2041.668 525 2100 583.332 c S
2100 525 m 2100 350 1925 408.332 1983.332 350 c S
1925 350 m 1750 350 1808.332 525 1750 466.668 c S
1750 175 m 1750 350 1925 291.668 1866.668 350 c S
1925 350 m 2100 350 2041.668 175 2100 233.332 c S
2100 175 m 2100 0 1925 58.332 1983.332 0 c S
1925 0 m 1750 0 1808.332 175 1750 116.668 c S
Q Q
showpage
%%Trailer
%%Trailer
cleartomark
countdictstack
exch sub { end } repeat
restore
%%EOF
