<svg xmlns="http://www.w3.org/2000/svg" baseProfile="full" width="2100" height="1400" viewBox="-175.0 -175.0 2100.0 1400.0">
    <title>
        Pattern design from http://ornamentist.org
    </title>
    <desc>
        This file is licensed under a Creative Commons CC BY 4.0 license: http://creativecommons.org/licenses/by/4.0/
    </desc>
    <defs>
        <style>
<![CDATA[
        
polyline {
  fill:            none;
  stroke:          black;
  stroke-linecap:  round;
  stroke-linejoin: round;
  stroke-width:    2.0pt;
}


polyline.closed {
  fill:      #d9d9d9;
  fill-rule: evenodd;
}


polygon {
  fill:            #d9d9d9;
  fill-rule:       evenodd;
  stroke:          black;
  stroke-linejoin: round;
  stroke-width:    2.0pt;
}


circle {
  fill:         #d9d9d9;
  stroke:       black;
  stroke-width: 2.0pt;
}


ellipse {
  fill:         #d9d9d9;
  stroke:       black;
  stroke-width: 2.0pt;
}


path {
  fill:            none;
  stroke:          black;
  stroke-linecap:  round;
  stroke-linejoin: round;
  stroke-width:    2.0pt;
}


path.closed {
  fill:      #d9d9d9;
  fill-rule: evenodd;
}


polygon.background,
path.background
{
  fill:   #fbfbfb;
  stroke: #c9c9c9;
  stroke-width: 1.5pt;
}

        ]]>
        </style>
    </defs>
    <clipPath id="design">
        <path d="M-175-175h2100v1400H-175z"/>
    </clipPath>
    <g clip-path="url(#design)" color-rendering="optimizeQuality" shape-rendering="geometricPrecision" id="graphics">
        <path class="background closed" d="M1925-175v1400H-175V-175z"/>
        <path d="M-116.667-175c58.334 58.333 58.334 0 116.667 0M175-116.667C116.667-58.333 175-58.333 175 0M116.667 175C58.333 116.667 58.333 175 0 175M-175 116.667c58.333-58.334 0-58.334 0-116.667M175 116.667C116.667 58.333 175 58.333 175 0M-175-116.667c58.333 58.334 0 58.334 0 116.667M-116.667 175c58.334-58.333 58.334 0 116.667 0M116.667-175C58.333-116.667 58.333-175 0-175M-116.667 175c58.334 58.333 58.334 0 116.667 0M175 233.333c-58.333 58.334 0 58.334 0 116.667M116.667 525C58.333 466.667 58.333 525 0 525M-175 466.667c58.333-58.334 0-58.334 0-116.667M175 466.667c-58.333-58.334 0-58.334 0-116.667M-175 233.333c58.333 58.334 0 58.334 0 116.667M-116.667 525c58.334-58.333 58.334 0 116.667 0M116.667 175C58.333 233.333 58.333 175 0 175M-116.667 525c58.334 58.333 58.334 0 116.667 0M175 583.333c-58.333 58.334 0 58.334 0 116.667M116.667 875C58.333 816.667 58.333 875 0 875M-175 816.667c58.333-58.334 0-58.334 0-116.667M175 816.667c-58.333-58.334 0-58.334 0-116.667M-175 583.333c58.333 58.334 0 58.334 0 116.667M-116.667 875c58.334-58.333 58.334 0 116.667 0M116.667 525C58.333 583.333 58.333 525 0 525M-116.667 875c58.334 58.333 58.334 0 116.667 0M175 933.333c-58.333 58.334 0 58.334 0 116.667M116.667 1225c-58.334-58.333-58.334 0-116.667 0M-175 1166.667c58.333-58.334 0-58.334 0-116.667M175 1166.667c-58.333-58.334 0-58.334 0-116.667M-175 933.333c58.333 58.334 0 58.334 0 116.667M-116.667 1225c58.334-58.333 58.334 0 116.667 0M116.667 875C58.333 933.333 58.333 875 0 875M233.333-175c58.334 58.333 58.334 0 116.667 0M525-116.667C466.667-58.333 525-58.333 525 0M466.667 175c-58.334-58.333-58.334 0-116.667 0M175 116.667C233.333 58.333 175 58.333 175 0M525 116.667C466.667 58.333 525 58.333 525 0M175-116.667C233.333-58.333 175-58.333 175 0M233.333 175c58.334-58.333 58.334 0 116.667 0M466.667-175c-58.334 58.333-58.334 0-116.667 0M233.333 175c58.334 58.333 58.334 0 116.667 0M525 233.333c-58.333 58.334 0 58.334 0 116.667M466.667 525c-58.334-58.333-58.334 0-116.667 0M175 466.667c58.333-58.334 0-58.334 0-116.667M525 466.667c-58.333-58.334 0-58.334 0-116.667M175 233.333c58.333 58.334 0 58.334 0 116.667M233.333 525c58.334-58.333 58.334 0 116.667 0M466.667 175c-58.334 58.333-58.334 0-116.667 0M233.333 525c58.334 58.333 58.334 0 116.667 0M525 583.333c-58.333 58.334 0 58.334 0 116.667M466.667 875c-58.334-58.333-58.334 0-116.667 0M175 816.667c58.333-58.334 0-58.334 0-116.667M525 816.667c-58.333-58.334 0-58.334 0-116.667M175 583.333c58.333 58.334 0 58.334 0 116.667M233.333 875c58.334-58.333 58.334 0 116.667 0M466.667 525c-58.334 58.333-58.334 0-116.667 0M233.333 875c58.334 58.333 58.334 0 116.667 0M525 933.333c-58.333 58.334 0 58.334 0 116.667M466.667 1225c-58.334-58.333-58.334 0-116.667 0M175 1166.667c58.333-58.334 0-58.334 0-116.667M525 1166.667c-58.333-58.334 0-58.334 0-116.667M175 933.333c58.333 58.334 0 58.334 0 116.667M233.333 1225c58.334-58.333 58.334 0 116.667 0M466.667 875c-58.334 58.333-58.334 0-116.667 0M583.333-175c58.334 58.333 58.334 0 116.667 0M875-116.667C816.667-58.333 875-58.333 875 0M816.667 175c-58.334-58.333-58.334 0-116.667 0M525 116.667C583.333 58.333 525 58.333 525 0M875 116.667C816.667 58.333 875 58.333 875 0M525-116.667C583.333-58.333 525-58.333 525 0M583.333 175c58.334-58.333 58.334 0 116.667 0M816.667-175c-58.334 58.333-58.334 0-116.667 0M583.333 175c58.334 58.333 58.334 0 116.667 0M875 233.333c-58.333 58.334 0 58.334 0 116.667M816.667 525c-58.334-58.333-58.334 0-116.667 0M525 466.667c58.333-58.334 0-58.334 0-116.667M875 466.667c-58.333-58.334 0-58.334 0-116.667M525 233.333c58.333 58.334 0 58.334 0 116.667M583.333 525c58.334-58.333 58.334 0 116.667 0M816.667 175c-58.334 58.333-58.334 0-116.667 0M583.333 525c58.334 58.333 58.334 0 116.667 0M875 583.333c-58.333 58.334 0 58.334 0 116.667M816.667 875c-58.334-58.333-58.334 0-116.667 0M525 816.667c58.333-58.334 0-58.334 0-116.667M875 816.667c-58.333-58.334 0-58.334 0-116.667M525 583.333c58.333 58.334 0 58.334 0 116.667M583.333 875c58.334-58.333 58.334 0 116.667 0M816.667 525c-58.334 58.333-58.334 0-116.667 0M583.333 875c58.334 58.333 58.334 0 116.667 0M875 933.333c-58.333 58.334 0 58.334 0 116.667M816.667 1225c-58.334-58.333-58.334 0-116.667 0M525 1166.667c58.333-58.334 0-58.334 0-116.667M875 1166.667c-58.333-58.334 0-58.334 0-116.667M525 933.333c58.333 58.334 0 58.334 0 116.667M583.333 1225c58.334-58.333 58.334 0 116.667 0M816.667 875c-58.334 58.333-58.334 0-116.667 0M933.333-175c58.334 58.333 58.334 0 116.667 0M1225-116.667c-58.333 58.334 0 58.334 0 116.667M1166.667 175c-58.334-58.333-58.334 0-116.667 0M875 116.667C933.333 58.333 875 58.333 875 0M1225 116.667c-58.333-58.334 0-58.334 0-116.667M875-116.667C933.333-58.333 875-58.333 875 0M933.333 175c58.334-58.333 58.334 0 116.667 0M1166.667-175c-58.334 58.333-58.334 0-116.667 0M933.333 175c58.334 58.333 58.334 0 116.667 0M1225 233.333c-58.333 58.334 0 58.334 0 116.667M1166.667 525c-58.334-58.333-58.334 0-116.667 0M875 466.667c58.333-58.334 0-58.334 0-116.667M1225 466.667c-58.333-58.334 0-58.334 0-116.667M875 233.333c58.333 58.334 0 58.334 0 116.667M933.333 525c58.334-58.333 58.334 0 116.667 0M1166.667 175c-58.334 58.333-58.334 0-116.667 0M933.333 525c58.334 58.333 58.334 0 116.667 0M1225 583.333c-58.333 58.334 0 58.334 0 116.667M1166.667 875c-58.334-58.333-58.334 0-116.667 0M875 816.667c58.333-58.334 0-58.334 0-116.667M1225 816.667c-58.333-58.334 0-58.334 0-116.667M875 583.333c58.333 58.334 0 58.334 0 116.667M933.333 875c58.334-58.333 58.334 0 116.667 0M1166.667 525c-58.334 58.333-58.334 0-116.667 0M933.333 875c58.334 58.333 58.334 0 116.667 0M1225 933.333c-58.333 58.334 0 58.334 0 116.667M1166.667 1225c-58.334-58.333-58.334 0-116.667 0M875 1166.667c58.333-58.334 0-58.334 0-116.667M1225 1166.667c-58.333-58.334 0-58.334 0-116.667M875 933.333c58.333 58.334 0 58.334 0 116.667M933.333 1225c58.334-58.333 58.334 0 116.667 0M1166.667 875c-58.334 58.333-58.334 0-116.667 0M1283.333-175c58.334 58.333 58.334 0 116.667 0M1575-116.667c-58.333 58.334 0 58.334 0 116.667M1516.667 175c-58.334-58.333-58.334 0-116.667 0M1225 116.667c58.333-58.334 0-58.334 0-116.667M1575 116.667c-58.333-58.334 0-58.334 0-116.667M1225-116.667c58.333 58.334 0 58.334 0 116.667M1283.333 175c58.334-58.333 58.334 0 116.667 0M1516.667-175c-58.334 58.333-58.334 0-116.667 0M1283.333 175c58.334 58.333 58.334 0 116.667 0M1575 233.333c-58.333 58.334 0 58.334 0 116.667M1516.667 525c-58.334-58.333-58.334 0-116.667 0M1225 466.667c58.333-58.334 0-58.334 0-116.667M1575 466.667c-58.333-58.334 0-58.334 0-116.667M1225 233.333c58.333 58.334 0 58.334 0 116.667M1283.333 525c58.334-58.333 58.334 0 116.667 0M1516.667 175c-58.334 58.333-58.334 0-116.667 0M1283.333 525c58.334 58.333 58.334 0 116.667 0M1575 583.333c-58.333 58.334 0 58.334 0 116.667M1516.667 875c-58.334-58.333-58.334 0-116.667 0M1225 816.667c58.333-58.334 0-58.334 0-116.667M1575 816.667c-58.333-58.334 0-58.334 0-116.667M1225 583.333c58.333 58.334 0 58.334 0 116.667M1283.333 875c58.334-58.333 58.334 0 116.667 0M1516.667 525c-58.334 58.333-58.334 0-116.667 0M1283.333 875c58.334 58.333 58.334 0 116.667 0M1575 933.333c-58.333 58.334 0 58.334 0 116.667M1516.667 1225c-58.334-58.333-58.334 0-116.667 0M1225 1166.667c58.333-58.334 0-58.334 0-116.667M1575 1166.667c-58.333-58.334 0-58.334 0-116.667M1225 933.333c58.333 58.334 0 58.334 0 116.667M1283.333 1225c58.334-58.333 58.334 0 116.667 0M1516.667 875c-58.334 58.333-58.334 0-116.667 0M1633.333-175c58.334 58.333 58.334 0 116.667 0M1925-116.667c-58.333 58.334 0 58.334 0 116.667M1866.667 175c-58.334-58.333-58.334 0-116.667 0M1575 116.667c58.333-58.334 0-58.334 0-116.667M1925 116.667c-58.333-58.334 0-58.334 0-116.667M1575-116.667c58.333 58.334 0 58.334 0 116.667M1633.333 175c58.334-58.333 58.334 0 116.667 0M1866.667-175c-58.334 58.333-58.334 0-116.667 0M1633.333 175c58.334 58.333 58.334 0 116.667 0M1925 233.333c-58.333 58.334 0 58.334 0 116.667M1866.667 525c-58.334-58.333-58.334 0-116.667 0M1575 466.667c58.333-58.334 0-58.334 0-116.667M1925 466.667c-58.333-58.334 0-58.334 0-116.667M1575 233.333c58.333 58.334 0 58.334 0 116.667M1633.333 525c58.334-58.333 58.334 0 116.667 0M1866.667 175c-58.334 58.333-58.334 0-116.667 0M1633.333 525c58.334 58.333 58.334 0 116.667 0M1925 583.333c-58.333 58.334 0 58.334 0 116.667M1866.667 875c-58.334-58.333-58.334 0-116.667 0M1575 816.667c58.333-58.334 0-58.334 0-116.667M1925 816.667c-58.333-58.334 0-58.334 0-116.667M1575 583.333c58.333 58.334 0 58.334 0 116.667M1633.333 875c58.334-58.333 58.334 0 116.667 0M1866.667 525c-58.334 58.333-58.334 0-116.667 0M1633.333 875c58.334 58.333 58.334 0 116.667 0M1925 933.333c-58.333 58.334 0 58.334 0 116.667M1866.667 1225c-58.334-58.333-58.334 0-116.667 0M1575 1166.667c58.333-58.334 0-58.334 0-116.667M1925 1166.667c-58.333-58.334 0-58.334 0-116.667M1575 933.333c58.333 58.334 0 58.334 0 116.667M1633.333 1225c58.334-58.333 58.334 0 116.667 0M1866.667 875c-58.334 58.333-58.334 0-116.667 0" class="bezier-3-1 open"/>
    </g>
</svg>
