<svg xmlns="http://www.w3.org/2000/svg" baseProfile="full" width="1200" height="1039.23" viewBox="375.0000000000001 -129.9038105676658 1200.0 1039.2304845413264">
    <title>
        Pattern design from http://ornamentist.org
    </title>
    <desc>
        This file is licensed under a Creative Commons CC BY 4.0 license: http://creativecommons.org/licenses/by/4.0/
    </desc>
    <defs>
        <style>
<![CDATA[
        
polyline {
  fill:            none;
  stroke:          black;
  stroke-linecap:  round;
  stroke-linejoin: round;
  stroke-width:    2.0pt;
}


polyline.closed {
  fill:      #d9d9d9;
  fill-rule: evenodd;
}


polygon {
  fill:            #d9d9d9;
  fill-rule:       evenodd;
  stroke:          black;
  stroke-linejoin: round;
  stroke-width:    2.0pt;
}


circle {
  fill:         #d9d9d9;
  stroke:       black;
  stroke-width: 2.0pt;
}


ellipse {
  fill:         #d9d9d9;
  stroke:       black;
  stroke-width: 2.0pt;
}


path {
  fill:            none;
  stroke:          black;
  stroke-linecap:  round;
  stroke-linejoin: round;
  stroke-width:    2.0pt;
}


path.closed {
  fill:      #d9d9d9;
  fill-rule: evenodd;
}


polygon.background,
path.background
{
  fill:   #fbfbfb;
  stroke: #c9c9c9;
  stroke-width: 1.5pt;
}

        ]]>
        </style>
    </defs>
    <clipPath id="design">
        <path d="M375-129.904h1200v1039.23H375z"/>
    </clipPath>
    <g clip-path="url(#design)" color-rendering="optimizeQuality" shape-rendering="geometricPrecision" id="graphics">
        <path class="background closed" d="M1575-129.904v1039.23H375v-1039.23z"/>
        <path d="M-75-72.17l-50-28.866h50-100L-75-43.3" class="polyline-5-1 open"/>
        <path d="M-100-28.868l-50-28.867 25 43.3-50-86.6 100 57.734M-50-28.868L0-57.735l-25 43.3 50-86.6-100 57.734M-100-28.868v57.736l-25-43.302 50 86.603V-43.3" class="polyline-5-1 open"/>
        <path d="M-75-72.17l50-28.866h-50H25L-75-43.3M-50-28.868v57.736l25-43.302-50 86.603V-43.3M100 28.868l50 28.867-25-43.3 50 86.6L75 43.302" class="polyline-5-1 open"/>
        <path d="M75 72.17l50 28.866H75h100L75 43.3M50 28.868v-57.736L25 14.434 75-72.17V43.3M75 72.17l-50 28.866h50-100L75 43.3M100 28.868v-57.736l25 43.302L75-72.17V43.3" class="polyline-5-1 open"/>
        <path d="M50 28.868L0 57.735l25-43.3-50 86.6L75 43.302M75 187.64l-50-28.87h50-100l100 57.736M50 230.94L0 202.073l25 43.3-50-86.602 100 57.736M100 230.94l50-28.867-25 43.3 50-86.602-100 57.736" class="polyline-5-1 open"/>
        <path d="M50 230.94v57.735l-25-43.3 50 86.6v-115.47M75 187.64l50-28.87H75h100L75 216.507" class="polyline-5-1 open"/>
        <path d="M100 230.94v57.735l25-43.3-50 86.6v-115.47M250 288.675l50 28.868-25-43.302 50 86.604-100-57.735" class="polyline-5-1 open"/>
        <path d="M225 331.976l50 28.868h-50 100L225 303.11M200 288.675V230.94l-25 43.3 50-86.6v115.47" class="polyline-5-1 open"/>
        <path d="M225 331.976l-50 28.868h50-100l100-57.735M250 288.675V230.94l25 43.3-50-86.6v115.47" class="polyline-5-1 open"/>
        <path d="M200 288.675l-50 28.868 25-43.302-50 86.604 100-57.735M225 447.446l-50-28.867h50-100l100 57.734M200 490.748l-50-28.868 25 43.3-50-86.6 100 57.734M250 490.748l50-28.868-25 43.3 50-86.6-100 57.734" class="polyline-5-1 open"/>
        <path d="M200 490.748v57.735l-25-43.302 50 86.604v-115.47M225 447.446l50-28.867h-50 100l-100 57.734M250 490.748v57.735l25-43.302-50 86.604v-115.47M400 548.483l50 28.867-25-43.3 50 86.602-100-57.735M375 591.784l50 28.868h-50 100l-100-57.735M350 548.483v-57.735l-25 43.3 50-86.602v115.47M375 591.784l-50 28.868h50-100l100-57.735M400 548.483v-57.735l25 43.3-50-86.602v115.47M350 548.483l-50 28.867 25-43.3-50 86.602 100-57.735M375 707.254l-50-28.867h50-100l100 57.735" class="polyline-5-1 open"/>
        <path d="M350 750.555l-50-28.867 25 43.3-50-86.6 100 57.734M400 750.555l50-28.867-25 43.3 50-86.6-100 57.734" class="polyline-5-1 open"/>
        <path d="M350 750.555v57.735l-25-43.3 50 86.602v-115.47M375 707.254l50-28.867h-50 100l-100 57.735" class="polyline-5-1 open"/>
        <path d="M400 750.555v57.735l25-43.3-50 86.602v-115.47M550 808.29l50 28.868-25-43.3 50 86.6-100-57.734" class="polyline-5-1 open"/>
        <path d="M525 851.592l50 28.867h-50 100l-100-57.736M500 808.29v-57.735l-25 43.302 50-86.603v115.47" class="polyline-5-1 open"/>
        <path d="M525 851.592l-50 28.867h50-100l100-57.736M550 808.29v-57.735l25 43.302-50-86.603v115.47" class="polyline-5-1 open"/>
        <path d="M500 808.29l-50 28.868 25-43.3-50 86.6 100-57.734M225-72.17l-50-28.866h50-100L225-43.3" class="polyline-5-1 open"/>
        <path d="M200-28.868l-50-28.867 25 43.3-50-86.6 100 57.734M250-28.868l50-28.867-25 43.3 50-86.6-100 57.734M200-28.868v57.736l-25-43.302 50 86.603V-43.3" class="polyline-5-1 open"/>
        <path d="M225-72.17l50-28.866h-50 100L225-43.3M250-28.868v57.736l25-43.302-50 86.603V-43.3M400 28.868l50 28.867-25-43.3 50 86.6-100-57.734" class="polyline-5-1 open"/>
        <path d="M375 72.17l50 28.866h-50 100L375 43.3M350 28.868v-57.736l-25 43.302 50-86.603V43.3M375 72.17l-50 28.866h50-100L375 43.3M400 28.868v-57.736l25 43.302-50-86.603V43.3" class="polyline-5-1 open"/>
        <path d="M350 28.868l-50 28.867 25-43.3-50 86.6 100-57.734M375 187.64l-50-28.87h50-100l100 57.736M350 230.94l-50-28.867 25 43.3-50-86.602 100 57.736M400 230.94l50-28.867-25 43.3 50-86.602-100 57.736" class="polyline-5-1 open"/>
        <path d="M350 230.94v57.735l-25-43.3 50 86.6v-115.47M375 187.64l50-28.87h-50 100l-100 57.736" class="polyline-5-1 open"/>
        <path d="M400 230.94v57.735l25-43.3-50 86.6v-115.47M550 288.675l50 28.868-25-43.302 50 86.604-100-57.735" class="polyline-5-1 open"/>
        <path d="M525 331.976l50 28.868h-50 100L525 303.11M500 288.675V230.94l-25 43.3 50-86.6v115.47" class="polyline-5-1 open"/>
        <path d="M525 331.976l-50 28.868h50-100l100-57.735M550 288.675V230.94l25 43.3-50-86.6v115.47" class="polyline-5-1 open"/>
        <path d="M500 288.675l-50 28.868 25-43.302-50 86.604 100-57.735M525 447.446l-50-28.867h50-100l100 57.734M500 490.748l-50-28.868 25 43.3-50-86.6 100 57.734M550 490.748l50-28.868-25 43.3 50-86.6-100 57.734" class="polyline-5-1 open"/>
        <path d="M500 490.748v57.735l-25-43.302 50 86.604v-115.47M525 447.446l50-28.867h-50 100l-100 57.734M550 490.748v57.735l25-43.302-50 86.604v-115.47M700 548.483l50 28.867-25-43.3 50 86.602-100-57.735M675 591.784l50 28.868h-50 100l-100-57.735M650 548.483v-57.735l-25 43.3 50-86.602v115.47M675 591.784l-50 28.868h50-100l100-57.735M700 548.483v-57.735l25 43.3-50-86.602v115.47M650 548.483l-50 28.867 25-43.3-50 86.602 100-57.735M675 707.254l-50-28.867h50-100l100 57.735" class="polyline-5-1 open"/>
        <path d="M650 750.555l-50-28.867 25 43.3-50-86.6 100 57.734M700 750.555l50-28.867-25 43.3 50-86.6-100 57.734" class="polyline-5-1 open"/>
        <path d="M650 750.555v57.735l-25-43.3 50 86.602v-115.47M675 707.254l50-28.867h-50 100l-100 57.735" class="polyline-5-1 open"/>
        <path d="M700 750.555v57.735l25-43.3-50 86.602v-115.47M850 808.29l50 28.868-25-43.3 50 86.6-100-57.734" class="polyline-5-1 open"/>
        <path d="M825 851.592l50 28.867h-50 100l-100-57.736M800 808.29v-57.735l-25 43.302 50-86.603v115.47" class="polyline-5-1 open"/>
        <path d="M825 851.592l-50 28.867h50-100l100-57.736M850 808.29v-57.735l25 43.302-50-86.603v115.47" class="polyline-5-1 open"/>
        <path d="M800 808.29l-50 28.868 25-43.3-50 86.6 100-57.734M525-72.17l-50-28.866h50-100L525-43.3" class="polyline-5-1 open"/>
        <path d="M500-28.868l-50-28.867 25 43.3-50-86.6 100 57.734M550-28.868l50-28.867-25 43.3 50-86.6-100 57.734M500-28.868v57.736l-25-43.302 50 86.603V-43.3" class="polyline-5-1 open"/>
        <path d="M525-72.17l50-28.866h-50 100L525-43.3M550-28.868v57.736l25-43.302-50 86.603V-43.3M700 28.868l50 28.867-25-43.3 50 86.6-100-57.734" class="polyline-5-1 open"/>
        <path d="M675 72.17l50 28.866h-50 100L675 43.3M650 28.868v-57.736l-25 43.302 50-86.603V43.3M675 72.17l-50 28.866h50-100L675 43.3M700 28.868v-57.736l25 43.302-50-86.603V43.3" class="polyline-5-1 open"/>
        <path d="M650 28.868l-50 28.867 25-43.3-50 86.6 100-57.734M675 187.64l-50-28.87h50-100l100 57.736M650 230.94l-50-28.867 25 43.3-50-86.602 100 57.736M700 230.94l50-28.867-25 43.3 50-86.602-100 57.736" class="polyline-5-1 open"/>
        <path d="M650 230.94v57.735l-25-43.3 50 86.6v-115.47M675 187.64l50-28.87h-50 100l-100 57.736" class="polyline-5-1 open"/>
        <path d="M700 230.94v57.735l25-43.3-50 86.6v-115.47M850 288.675l50 28.868-25-43.302 50 86.604-100-57.735" class="polyline-5-1 open"/>
        <path d="M825 331.976l50 28.868h-50 100L825 303.11M800 288.675V230.94l-25 43.3 50-86.6v115.47" class="polyline-5-1 open"/>
        <path d="M825 331.976l-50 28.868h50-100l100-57.735M850 288.675V230.94l25 43.3-50-86.6v115.47" class="polyline-5-1 open"/>
        <path d="M800 288.675l-50 28.868 25-43.302-50 86.604 100-57.735M825 447.446l-50-28.867h50-100l100 57.734M800 490.748l-50-28.868 25 43.3-50-86.6 100 57.734M850 490.748l50-28.868-25 43.3 50-86.6-100 57.734" class="polyline-5-1 open"/>
        <path d="M800 490.748v57.735l-25-43.302 50 86.604v-115.47M825 447.446l50-28.867h-50 100l-100 57.734M850 490.748v57.735l25-43.302-50 86.604v-115.47M1000 548.483l50 28.867-25-43.3 50 86.602-100-57.735M975 591.784l50 28.868h-50 100l-100-57.735M950 548.483v-57.735l-25 43.3 50-86.602v115.47M975 591.784l-50 28.868h50-100l100-57.735M1000 548.483v-57.735l25 43.3-50-86.602v115.47M950 548.483l-50 28.867 25-43.3-50 86.602 100-57.735M975 707.254l-50-28.867h50-100l100 57.735" class="polyline-5-1 open"/>
        <path d="M950 750.555l-50-28.867 25 43.3-50-86.6 100 57.734M1000 750.555l50-28.867-25 43.3 50-86.6-100 57.734" class="polyline-5-1 open"/>
        <path d="M950 750.555v57.735l-25-43.3 50 86.602v-115.47M975 707.254l50-28.867h-50 100l-100 57.735" class="polyline-5-1 open"/>
        <path d="M1000 750.555v57.735l25-43.3-50 86.602v-115.47M1150 808.29l50 28.868-25-43.3 50 86.6-100-57.734" class="polyline-5-1 open"/>
        <path d="M1125 851.592l50 28.867h-50 100l-100-57.736M1100 808.29v-57.735l-25 43.302 50-86.603v115.47" class="polyline-5-1 open"/>
        <path d="M1125 851.592l-50 28.867h50-100l100-57.736M1150 808.29v-57.735l25 43.302-50-86.603v115.47" class="polyline-5-1 open"/>
        <path d="M1100 808.29l-50 28.868 25-43.3-50 86.6 100-57.734M825-72.17l-50-28.866h50-100L825-43.3" class="polyline-5-1 open"/>
        <path d="M800-28.868l-50-28.867 25 43.3-50-86.6 100 57.734M850-28.868l50-28.867-25 43.3 50-86.6-100 57.734M800-28.868v57.736l-25-43.302 50 86.603V-43.3" class="polyline-5-1 open"/>
        <path d="M825-72.17l50-28.866h-50 100L825-43.3M850-28.868v57.736l25-43.302-50 86.603V-43.3M1000 28.868l50 28.867-25-43.3 50 86.6-100-57.734" class="polyline-5-1 open"/>
        <path d="M975 72.17l50 28.866h-50 100L975 43.3M950 28.868v-57.736l-25 43.302 50-86.603V43.3M975 72.17l-50 28.866h50-100L975 43.3M1000 28.868v-57.736l25 43.302-50-86.603V43.3" class="polyline-5-1 open"/>
        <path d="M950 28.868l-50 28.867 25-43.3-50 86.6 100-57.734M975 187.64l-50-28.87h50-100l100 57.736M950 230.94l-50-28.867 25 43.3-50-86.602 100 57.736M1000 230.94l50-28.867-25 43.3 50-86.602-100 57.736" class="polyline-5-1 open"/>
        <path d="M950 230.94v57.735l-25-43.3 50 86.6v-115.47M975 187.64l50-28.87h-50 100l-100 57.736" class="polyline-5-1 open"/>
        <path d="M1000 230.94v57.735l25-43.3-50 86.6v-115.47M1150 288.675l50 28.868-25-43.302 50 86.604-100-57.735" class="polyline-5-1 open"/>
        <path d="M1125 331.976l50 28.868h-50 100l-100-57.735M1100 288.675V230.94l-25 43.3 50-86.6v115.47" class="polyline-5-1 open"/>
        <path d="M1125 331.976l-50 28.868h50-100l100-57.735M1150 288.675V230.94l25 43.3-50-86.6v115.47" class="polyline-5-1 open"/>
        <path d="M1100 288.675l-50 28.868 25-43.302-50 86.604 100-57.735M1125 447.446l-50-28.867h50-100l100 57.734M1100 490.748l-50-28.868 25 43.3-50-86.6 100 57.734M1150 490.748l50-28.868-25 43.3 50-86.6-100 57.734" class="polyline-5-1 open"/>
        <path d="M1100 490.748v57.735l-25-43.302 50 86.604v-115.47M1125 447.446l50-28.867h-50 100l-100 57.734M1150 490.748v57.735l25-43.302-50 86.604v-115.47M1300 548.483l50 28.867-25-43.3 50 86.602-100-57.735M1275 591.784l50 28.868h-50 100l-100-57.735M1250 548.483v-57.735l-25 43.3 50-86.602v115.47M1275 591.784l-50 28.868h50-100l100-57.735M1300 548.483v-57.735l25 43.3-50-86.602v115.47M1250 548.483l-50 28.867 25-43.3-50 86.602 100-57.735M1275 707.254l-50-28.867h50-100l100 57.735" class="polyline-5-1 open"/>
        <path d="M1250 750.555l-50-28.867 25 43.3-50-86.6 100 57.734M1300 750.555l50-28.867-25 43.3 50-86.6-100 57.734" class="polyline-5-1 open"/>
        <path d="M1250 750.555v57.735l-25-43.3 50 86.602v-115.47M1275 707.254l50-28.867h-50 100l-100 57.735" class="polyline-5-1 open"/>
        <path d="M1300 750.555v57.735l25-43.3-50 86.602v-115.47M1450 808.29l50 28.868-25-43.3 50 86.6-100-57.734" class="polyline-5-1 open"/>
        <path d="M1425 851.592l50 28.867h-50 100l-100-57.736M1400 808.29v-57.735l-25 43.302 50-86.603v115.47" class="polyline-5-1 open"/>
        <path d="M1425 851.592l-50 28.867h50-100l100-57.736M1450 808.29v-57.735l25 43.302-50-86.603v115.47" class="polyline-5-1 open"/>
        <path d="M1400 808.29l-50 28.868 25-43.3-50 86.6 100-57.734M1125-72.17l-50-28.866h50-100L1125-43.3" class="polyline-5-1 open"/>
        <path d="M1100-28.868l-50-28.867 25 43.3-50-86.6 100 57.734M1150-28.868l50-28.867-25 43.3 50-86.6-100 57.734M1100-28.868v57.736l-25-43.302 50 86.603V-43.3" class="polyline-5-1 open"/>
        <path d="M1125-72.17l50-28.866h-50 100L1125-43.3M1150-28.868v57.736l25-43.302-50 86.603V-43.3M1300 28.868l50 28.867-25-43.3 50 86.6-100-57.734" class="polyline-5-1 open"/>
        <path d="M1275 72.17l50 28.866h-50 100L1275 43.3M1250 28.868v-57.736l-25 43.302 50-86.603V43.3M1275 72.17l-50 28.866h50-100L1275 43.3M1300 28.868v-57.736l25 43.302-50-86.603V43.3" class="polyline-5-1 open"/>
        <path d="M1250 28.868l-50 28.867 25-43.3-50 86.6 100-57.734M1275 187.64l-50-28.87h50-100l100 57.736M1250 230.94l-50-28.867 25 43.3-50-86.602 100 57.736M1300 230.94l50-28.867-25 43.3 50-86.602-100 57.736" class="polyline-5-1 open"/>
        <path d="M1250 230.94v57.735l-25-43.3 50 86.6v-115.47M1275 187.64l50-28.87h-50 100l-100 57.736" class="polyline-5-1 open"/>
        <path d="M1300 230.94v57.735l25-43.3-50 86.6v-115.47M1450 288.675l50 28.868-25-43.302 50 86.604-100-57.735" class="polyline-5-1 open"/>
        <path d="M1425 331.976l50 28.868h-50 100l-100-57.735M1400 288.675V230.94l-25 43.3 50-86.6v115.47" class="polyline-5-1 open"/>
        <path d="M1425 331.976l-50 28.868h50-100l100-57.735M1450 288.675V230.94l25 43.3-50-86.6v115.47" class="polyline-5-1 open"/>
        <path d="M1400 288.675l-50 28.868 25-43.302-50 86.604 100-57.735M1425 447.446l-50-28.867h50-100l100 57.734M1400 490.748l-50-28.868 25 43.3-50-86.6 100 57.734M1450 490.748l50-28.868-25 43.3 50-86.6-100 57.734" class="polyline-5-1 open"/>
        <path d="M1400 490.748v57.735l-25-43.302 50 86.604v-115.47M1425 447.446l50-28.867h-50 100l-100 57.734M1450 490.748v57.735l25-43.302-50 86.604v-115.47M1600 548.483l50 28.867-25-43.3 50 86.602-100-57.735M1575 591.784l50 28.868h-50 100l-100-57.735M1550 548.483v-57.735l-25 43.3 50-86.602v115.47M1575 591.784l-50 28.868h50-100l100-57.735M1600 548.483v-57.735l25 43.3-50-86.602v115.47M1550 548.483l-50 28.867 25-43.3-50 86.602 100-57.735M1575 707.254l-50-28.867h50-100l100 57.735" class="polyline-5-1 open"/>
        <path d="M1550 750.555l-50-28.867 25 43.3-50-86.6 100 57.734M1600 750.555l50-28.867-25 43.3 50-86.6-100 57.734" class="polyline-5-1 open"/>
        <path d="M1550 750.555v57.735l-25-43.3 50 86.602v-115.47M1575 707.254l50-28.867h-50 100l-100 57.735" class="polyline-5-1 open"/>
        <path d="M1600 750.555v57.735l25-43.3-50 86.602v-115.47M1750 808.29l50 28.868-25-43.3 50 86.6-100-57.734" class="polyline-5-1 open"/>
        <path d="M1725 851.592l50 28.867h-50 100l-100-57.736M1700 808.29v-57.735l-25 43.302 50-86.603v115.47" class="polyline-5-1 open"/>
        <path d="M1725 851.592l-50 28.867h50-100l100-57.736M1750 808.29v-57.735l25 43.302-50-86.603v115.47" class="polyline-5-1 open"/>
        <path d="M1700 808.29l-50 28.868 25-43.3-50 86.6 100-57.734M1425-72.17l-50-28.866h50-100L1425-43.3" class="polyline-5-1 open"/>
        <path d="M1400-28.868l-50-28.867 25 43.3-50-86.6 100 57.734M1450-28.868l50-28.867-25 43.3 50-86.6-100 57.734M1400-28.868v57.736l-25-43.302 50 86.603V-43.3" class="polyline-5-1 open"/>
        <path d="M1425-72.17l50-28.866h-50 100L1425-43.3M1450-28.868v57.736l25-43.302-50 86.603V-43.3M1600 28.868l50 28.867-25-43.3 50 86.6-100-57.734" class="polyline-5-1 open"/>
        <path d="M1575 72.17l50 28.866h-50 100L1575 43.3M1550 28.868v-57.736l-25 43.302 50-86.603V43.3M1575 72.17l-50 28.866h50-100L1575 43.3M1600 28.868v-57.736l25 43.302-50-86.603V43.3" class="polyline-5-1 open"/>
        <path d="M1550 28.868l-50 28.867 25-43.3-50 86.6 100-57.734M1575 187.64l-50-28.87h50-100l100 57.736M1550 230.94l-50-28.867 25 43.3-50-86.602 100 57.736M1600 230.94l50-28.867-25 43.3 50-86.602-100 57.736" class="polyline-5-1 open"/>
        <path d="M1550 230.94v57.735l-25-43.3 50 86.6v-115.47M1575 187.64l50-28.87h-50 100l-100 57.736" class="polyline-5-1 open"/>
        <path d="M1600 230.94v57.735l25-43.3-50 86.6v-115.47M1750 288.675l50 28.868-25-43.302 50 86.604-100-57.735" class="polyline-5-1 open"/>
        <path d="M1725 331.976l50 28.868h-50 100l-100-57.735M1700 288.675V230.94l-25 43.3 50-86.6v115.47" class="polyline-5-1 open"/>
        <path d="M1725 331.976l-50 28.868h50-100l100-57.735M1750 288.675V230.94l25 43.3-50-86.6v115.47" class="polyline-5-1 open"/>
        <path d="M1700 288.675l-50 28.868 25-43.302-50 86.604 100-57.735M1725 447.446l-50-28.867h50-100l100 57.734M1700 490.748l-50-28.868 25 43.3-50-86.6 100 57.734M1750 490.748l50-28.868-25 43.3 50-86.6-100 57.734" class="polyline-5-1 open"/>
        <path d="M1700 490.748v57.735l-25-43.302 50 86.604v-115.47M1725 447.446l50-28.867h-50 100l-100 57.734M1750 490.748v57.735l25-43.302-50 86.604v-115.47M1900 548.483l50 28.867-25-43.3 50 86.602-100-57.735M1875 591.784l50 28.868h-50 100l-100-57.735M1850 548.483v-57.735l-25 43.3 50-86.602v115.47M1875 591.784l-50 28.868h50-100l100-57.735M1900 548.483v-57.735l25 43.3-50-86.602v115.47M1850 548.483l-50 28.867 25-43.3-50 86.602 100-57.735M1875 707.254l-50-28.867h50-100l100 57.735" class="polyline-5-1 open"/>
        <path d="M1850 750.555l-50-28.867 25 43.3-50-86.6 100 57.734M1900 750.555l50-28.867-25 43.3 50-86.6-100 57.734" class="polyline-5-1 open"/>
        <path d="M1850 750.555v57.735l-25-43.3 50 86.602v-115.47M1875 707.254l50-28.867h-50 100l-100 57.735" class="polyline-5-1 open"/>
        <path d="M1900 750.555v57.735l25-43.3-50 86.602v-115.47M2050 808.29l50 28.868-25-43.3 50 86.6-100-57.734" class="polyline-5-1 open"/>
        <path d="M2025 851.592l50 28.867h-50 100l-100-57.736M2000 808.29v-57.735l-25 43.302 50-86.603v115.47" class="polyline-5-1 open"/>
        <path d="M2025 851.592l-50 28.867h50-100l100-57.736M2050 808.29v-57.735l25 43.302-50-86.603v115.47" class="polyline-5-1 open"/>
        <path d="M2000 808.29l-50 28.868 25-43.3-50 86.6 100-57.734" class="polyline-5-1 open"/>
    </g>
</svg>
