%!PS-Adobe-2.0 EPSF-2.0
%%BoundingBox: 0 0 1200 1039
%%HiResBoundingBox: 0.000000 0.000000 1200.000000 1039.000000
%%Creator: cairo 1.14.2 (http://cairographics.org)
%%CreationDate: Mon Sep  7 08:21:35 2015
%%DocumentData: Clean7Bit
%%LanguageLevel: 2
%%DocumentMedia: 423x367mm 1200 1039 0 () ()
%%EndComments
% EPSF created by ps2eps 1.68
%%BeginProlog
save
countdictstack
mark
newpath
/showpage {} def
/setpagedevice {pop} def
%%EndProlog
%%Page 1 1
%%BeginProlog
/languagelevel where
{ pop languagelevel } { 1 } ifelse
2 lt { /Helvetica findfont 12 scalefont setfont 50 500 moveto
  (This print job requires a PostScript Language Level 2 printer.) show
  showpage quit } if
/q { gsave } bind def
/Q { grestore } bind def
/cm { 6 array astore concat } bind def
/w { setlinewidth } bind def
/J { setlinecap } bind def
/j { setlinejoin } bind def
/M { setmiterlimit } bind def
/d { setdash } bind def
/m { moveto } bind def
/l { lineto } bind def
/c { curveto } bind def
/h { closepath } bind def
/re { exch dup neg 3 1 roll 5 3 roll moveto 0 rlineto
      0 exch rlineto 0 rlineto closepath } bind def
/S { stroke } bind def
/f { fill } bind def
/f* { eofill } bind def
/n { newpath } bind def
/W { clip } bind def
/W* { eoclip } bind def
/BT { } bind def
/ET { } bind def
/pdfmark where { pop globaldict /?pdfmark /exec load put }
    { globaldict begin /?pdfmark /pop load def /pdfmark
    /cleartomark load def end } ifelse
/BDC { mark 3 1 roll /BDC pdfmark } bind def
/EMC { mark /EMC pdfmark } bind def
/cairo_store_point { /cairo_point_y exch def /cairo_point_x exch def } def
/Tj { show currentpoint cairo_store_point } bind def
/TJ {
  {
    dup
    type /stringtype eq
    { show } { -0.001 mul 0 cairo_font_matrix dtransform rmoveto } ifelse
  } forall
  currentpoint cairo_store_point
} bind def
/cairo_selectfont { cairo_font_matrix aload pop pop pop 0 0 6 array astore
    cairo_font exch selectfont cairo_point_x cairo_point_y moveto } bind def
/Tf { pop /cairo_font exch def /cairo_font_matrix where
      { pop cairo_selectfont } if } bind def
/Td { matrix translate cairo_font_matrix matrix concatmatrix dup
      /cairo_font_matrix exch def dup 4 get exch 5 get cairo_store_point
      /cairo_font where { pop cairo_selectfont } if } bind def
/Tm { 2 copy 8 2 roll 6 array astore /cairo_font_matrix exch def
      cairo_store_point /cairo_font where { pop cairo_selectfont } if } bind def
/g { setgray } bind def
/rg { setrgbcolor } bind def
/d1 { setcachedevice } bind def
/cairo_set_page_size {
  % Change paper size, but only if different from previous paper size otherwise
  % duplex fails. PLRM specifies a tolerance of 5 pts when matching paper size
  % so we use the same when checking if the size changes.
  /setpagedevice where {
    pop currentpagedevice
    /PageSize known {
      2 copy
      currentpagedevice /PageSize get aload pop
      exch 4 1 roll
      sub abs 5 gt
      3 1 roll
      sub abs 5 gt
      or
    } {
      true
    } ifelse
    {
      2 array astore
      2 dict begin
        /PageSize exch def
        /ImagingBBox null def
      currentdict end
      setpagedevice
    } {
      pop pop
    } ifelse
  } {
    pop
  } ifelse
} def
%%EndProlog
%%BeginSetup
%%EndSetup
%%Page: 1 1
%%BeginPageSetup
%%PageMedia: 423x367mm
%%PageBoundingBox: 0 0 1200 1039
1200 1039 cairo_set_page_size
%%EndPageSetup
q 0 0 1200 1039 rectclip q
0.984314 g
0 0 1200 1039 rectfill
0.788235 g
1.875 w
0 J
1 j
[] 0.0 d
4 M 0 1039 1200 -1039.23 re S
0 g
2.5 w
1 J
25 360.613 m 75 331.746 l 50 375.047 l 100 288.445 l 0 346.18 l S
0 317.312 m 50 288.445 l 0 288.445 l 100 288.445 l 0 346.18 l S
-25 360.613 m -25 418.348 l -50 375.047 l 0 461.648 l 0 346.18 l S
0 317.312 m -50 288.445 l 0 288.445 l -100 288.445 l 0 346.18 l S
25 360.613 m 25 418.348 l 50 375.047 l 0 461.648 l 0 346.18 l S
-25 360.613 m -75 331.746 l -50 375.047 l -100 288.445 l 0 346.18 l S
0 201.844 m -50 230.711 l 0 230.711 l -100 230.711 l 0 172.973 l S
-25 158.539 m -75 187.41 l -50 144.105 l -100 230.711 l 0 172.973 l S
25 158.539 m 75 187.41 l 50 144.105 l 100 230.711 l 0 172.973 l S
-25 158.539 m -25 100.805 l -50 144.105 l 0 57.504 l 0 172.973 l S
0 201.844 m 50 230.711 l 0 230.711 l 100 230.711 l 0 172.973 l S
25 158.539 m 25 100.805 l 50 144.105 l 0 57.504 l 0 172.973 l S
175 100.805 m 225 71.938 l 200 115.238 l 250 28.637 l 150 86.371 l S
150 57.504 m 200 28.637 l 150 28.637 l 250 28.637 l 150 86.371 l S
125 100.805 m 125 158.539 l 100 115.238 l 150 201.844 l 150 86.371 l S
150 57.504 m 100 28.637 l 150 28.637 l 50 28.637 l 150 86.371 l S
175 100.805 m 175 158.539 l 200 115.238 l 150 201.844 l 150 86.371 l S
125 100.805 m 75 71.938 l 100 115.238 l 50 28.637 l 150 86.371 l S
25 880.23 m 75 851.359 l 50 894.664 l 100 808.059 l 0 865.793 l S
0 836.926 m 50 808.059 l 0 808.059 l 100 808.059 l 0 865.793 l S
-25 880.23 m -25 937.965 l -50 894.664 l 0 981.266 l 0 865.793 l S
0 836.926 m -50 808.059 l 0 808.059 l -100 808.059 l 0 865.793 l S
25 880.23 m 25 937.965 l 50 894.664 l 0 981.266 l 0 865.793 l S
-25 880.23 m -75 851.359 l -50 894.664 l -100 808.059 l 0 865.793 l S
0 721.457 m -50 750.324 l 0 750.324 l -100 750.324 l 0 692.59 l S
-25 678.156 m -75 707.023 l -50 663.723 l -100 750.324 l 0 692.59 l S
25 678.156 m 75 707.023 l 50 663.723 l 100 750.324 l 0 692.59 l S
-25 678.156 m -25 620.422 l -50 663.723 l 0 577.121 l 0 692.59 l S
0 721.457 m 50 750.324 l 0 750.324 l 100 750.324 l 0 692.59 l S
25 678.156 m 25 620.422 l 50 663.723 l 0 577.121 l 0 692.59 l S
175 620.422 m 225 591.555 l 200 634.855 l 250 548.254 l 150 605.988 l S
150 577.121 m 200 548.254 l 150 548.254 l 250 548.254 l 150 605.988 l S
125 620.422 m 125 678.156 l 100 634.855 l 150 721.457 l 150 605.988 l S
150 577.121 m 100 548.254 l 150 548.254 l 50 548.254 l 150 605.988 l S
175 620.422 m 175 678.156 l 200 634.855 l 150 721.457 l 150 605.988 l S
125 620.422 m 75 591.555 l 100 634.855 l 50 548.254 l 150 605.988 l S
150 461.648 m 100 490.516 l 150 490.516 l 50 490.516 l 150 432.781 l S
125 418.348 m 75 447.215 l 100 403.914 l 50 490.516 l 150 432.781 l S
175 418.348 m 225 447.215 l 200 403.914 l 250 490.516 l 150 432.781 l S
125 418.348 m 125 360.613 l 100 403.914 l 150 317.312 l 150 432.781 l S
150 461.648 m 200 490.516 l 150 490.516 l 250 490.516 l 150 432.781 l S
175 418.348 m 175 360.613 l 200 403.914 l 150 317.312 l 150 432.781 l S
325 360.613 m 375 331.746 l 350 375.047 l 400 288.445 l 300 346.18 l S
300 317.312 m 350 288.445 l 300 288.445 l 400 288.445 l 300 346.18 l S
275 360.613 m 275 418.348 l 250 375.047 l 300 461.648 l 300 346.18 l S
300 317.312 m 250 288.445 l 300 288.445 l 200 288.445 l 300 346.18 l S
325 360.613 m 325 418.348 l 350 375.047 l 300 461.648 l 300 346.18 l S
275 360.613 m 225 331.746 l 250 375.047 l 200 288.445 l 300 346.18 l S
300 201.844 m 250 230.711 l 300 230.711 l 200 230.711 l 300 172.973 l S
275 158.539 m 225 187.41 l 250 144.105 l 200 230.711 l 300 172.973 l S
325 158.539 m 375 187.41 l 350 144.105 l 400 230.711 l 300 172.973 l S
275 158.539 m 275 100.805 l 250 144.105 l 300 57.504 l 300 172.973 l S
300 201.844 m 350 230.711 l 300 230.711 l 400 230.711 l 300 172.973 l S
325 158.539 m 325 100.805 l 350 144.105 l 300 57.504 l 300 172.973 l S
475 100.805 m 525 71.938 l 500 115.238 l 550 28.637 l 450 86.371 l S
450 57.504 m 500 28.637 l 450 28.637 l 550 28.637 l 450 86.371 l S
425 100.805 m 425 158.539 l 400 115.238 l 450 201.844 l 450 86.371 l S
450 57.504 m 400 28.637 l 450 28.637 l 350 28.637 l 450 86.371 l S
475 100.805 m 475 158.539 l 500 115.238 l 450 201.844 l 450 86.371 l S
425 100.805 m 375 71.938 l 400 115.238 l 350 28.637 l 450 86.371 l S
150 981.266 m 100 1010.133 l 150 1010.133 l 50 1010.133 l 150 952.398 l
 S
125 937.965 m 75 966.832 l 100 923.531 l 50 1010.133 l 150 952.398 l S
175 937.965 m 225 966.832 l 200 923.531 l 250 1010.133 l 150 952.398 l S
125 937.965 m 125 880.23 l 100 923.531 l 150 836.926 l 150 952.398 l S
150 981.266 m 200 1010.133 l 150 1010.133 l 250 1010.133 l 150 952.398 
l S
175 937.965 m 175 880.23 l 200 923.531 l 150 836.926 l 150 952.398 l S
325 880.23 m 375 851.359 l 350 894.664 l 400 808.059 l 300 865.793 l S
300 836.926 m 350 808.059 l 300 808.059 l 400 808.059 l 300 865.793 l S
275 880.23 m 275 937.965 l 250 894.664 l 300 981.266 l 300 865.793 l S
300 836.926 m 250 808.059 l 300 808.059 l 200 808.059 l 300 865.793 l S
325 880.23 m 325 937.965 l 350 894.664 l 300 981.266 l 300 865.793 l S
275 880.23 m 225 851.359 l 250 894.664 l 200 808.059 l 300 865.793 l S
300 721.457 m 250 750.324 l 300 750.324 l 200 750.324 l 300 692.59 l S
275 678.156 m 225 707.023 l 250 663.723 l 200 750.324 l 300 692.59 l S
325 678.156 m 375 707.023 l 350 663.723 l 400 750.324 l 300 692.59 l S
275 678.156 m 275 620.422 l 250 663.723 l 300 577.121 l 300 692.59 l S
300 721.457 m 350 750.324 l 300 750.324 l 400 750.324 l 300 692.59 l S
325 678.156 m 325 620.422 l 350 663.723 l 300 577.121 l 300 692.59 l S
475 620.422 m 525 591.555 l 500 634.855 l 550 548.254 l 450 605.988 l S
450 577.121 m 500 548.254 l 450 548.254 l 550 548.254 l 450 605.988 l S
425 620.422 m 425 678.156 l 400 634.855 l 450 721.457 l 450 605.988 l S
450 577.121 m 400 548.254 l 450 548.254 l 350 548.254 l 450 605.988 l S
475 620.422 m 475 678.156 l 500 634.855 l 450 721.457 l 450 605.988 l S
425 620.422 m 375 591.555 l 400 634.855 l 350 548.254 l 450 605.988 l S
450 461.648 m 400 490.516 l 450 490.516 l 350 490.516 l 450 432.781 l S
425 418.348 m 375 447.215 l 400 403.914 l 350 490.516 l 450 432.781 l S
475 418.348 m 525 447.215 l 500 403.914 l 550 490.516 l 450 432.781 l S
425 418.348 m 425 360.613 l 400 403.914 l 450 317.312 l 450 432.781 l S
450 461.648 m 500 490.516 l 450 490.516 l 550 490.516 l 450 432.781 l S
475 418.348 m 475 360.613 l 500 403.914 l 450 317.312 l 450 432.781 l S
625 360.613 m 675 331.746 l 650 375.047 l 700 288.445 l 600 346.18 l S
600 317.312 m 650 288.445 l 600 288.445 l 700 288.445 l 600 346.18 l S
575 360.613 m 575 418.348 l 550 375.047 l 600 461.648 l 600 346.18 l S
600 317.312 m 550 288.445 l 600 288.445 l 500 288.445 l 600 346.18 l S
625 360.613 m 625 418.348 l 650 375.047 l 600 461.648 l 600 346.18 l S
575 360.613 m 525 331.746 l 550 375.047 l 500 288.445 l 600 346.18 l S
600 201.844 m 550 230.711 l 600 230.711 l 500 230.711 l 600 172.973 l S
575 158.539 m 525 187.41 l 550 144.105 l 500 230.711 l 600 172.973 l S
625 158.539 m 675 187.41 l 650 144.105 l 700 230.711 l 600 172.973 l S
575 158.539 m 575 100.805 l 550 144.105 l 600 57.504 l 600 172.973 l S
600 201.844 m 650 230.711 l 600 230.711 l 700 230.711 l 600 172.973 l S
625 158.539 m 625 100.805 l 650 144.105 l 600 57.504 l 600 172.973 l S
775 100.805 m 825 71.938 l 800 115.238 l 850 28.637 l 750 86.371 l S
750 57.504 m 800 28.637 l 750 28.637 l 850 28.637 l 750 86.371 l S
725 100.805 m 725 158.539 l 700 115.238 l 750 201.844 l 750 86.371 l S
750 57.504 m 700 28.637 l 750 28.637 l 650 28.637 l 750 86.371 l S
775 100.805 m 775 158.539 l 800 115.238 l 750 201.844 l 750 86.371 l S
725 100.805 m 675 71.938 l 700 115.238 l 650 28.637 l 750 86.371 l S
450 981.266 m 400 1010.133 l 450 1010.133 l 350 1010.133 l 450 952.398 
l S
425 937.965 m 375 966.832 l 400 923.531 l 350 1010.133 l 450 952.398 l S
475 937.965 m 525 966.832 l 500 923.531 l 550 1010.133 l 450 952.398 l S
425 937.965 m 425 880.23 l 400 923.531 l 450 836.926 l 450 952.398 l S
450 981.266 m 500 1010.133 l 450 1010.133 l 550 1010.133 l 450 952.398 
l S
475 937.965 m 475 880.23 l 500 923.531 l 450 836.926 l 450 952.398 l S
625 880.23 m 675 851.359 l 650 894.664 l 700 808.059 l 600 865.793 l S
600 836.926 m 650 808.059 l 600 808.059 l 700 808.059 l 600 865.793 l S
575 880.23 m 575 937.965 l 550 894.664 l 600 981.266 l 600 865.793 l S
600 836.926 m 550 808.059 l 600 808.059 l 500 808.059 l 600 865.793 l S
625 880.23 m 625 937.965 l 650 894.664 l 600 981.266 l 600 865.793 l S
575 880.23 m 525 851.359 l 550 894.664 l 500 808.059 l 600 865.793 l S
600 721.457 m 550 750.324 l 600 750.324 l 500 750.324 l 600 692.59 l S
575 678.156 m 525 707.023 l 550 663.723 l 500 750.324 l 600 692.59 l S
625 678.156 m 675 707.023 l 650 663.723 l 700 750.324 l 600 692.59 l S
575 678.156 m 575 620.422 l 550 663.723 l 600 577.121 l 600 692.59 l S
600 721.457 m 650 750.324 l 600 750.324 l 700 750.324 l 600 692.59 l S
625 678.156 m 625 620.422 l 650 663.723 l 600 577.121 l 600 692.59 l S
775 620.422 m 825 591.555 l 800 634.855 l 850 548.254 l 750 605.988 l S
750 577.121 m 800 548.254 l 750 548.254 l 850 548.254 l 750 605.988 l S
725 620.422 m 725 678.156 l 700 634.855 l 750 721.457 l 750 605.988 l S
750 577.121 m 700 548.254 l 750 548.254 l 650 548.254 l 750 605.988 l S
775 620.422 m 775 678.156 l 800 634.855 l 750 721.457 l 750 605.988 l S
725 620.422 m 675 591.555 l 700 634.855 l 650 548.254 l 750 605.988 l S
750 461.648 m 700 490.516 l 750 490.516 l 650 490.516 l 750 432.781 l S
725 418.348 m 675 447.215 l 700 403.914 l 650 490.516 l 750 432.781 l S
775 418.348 m 825 447.215 l 800 403.914 l 850 490.516 l 750 432.781 l S
725 418.348 m 725 360.613 l 700 403.914 l 750 317.312 l 750 432.781 l S
750 461.648 m 800 490.516 l 750 490.516 l 850 490.516 l 750 432.781 l S
775 418.348 m 775 360.613 l 800 403.914 l 750 317.312 l 750 432.781 l S
925 360.613 m 975 331.746 l 950 375.047 l 1000 288.445 l 900 346.18 l S
900 317.312 m 950 288.445 l 900 288.445 l 1000 288.445 l 900 346.18 l S
875 360.613 m 875 418.348 l 850 375.047 l 900 461.648 l 900 346.18 l S
900 317.312 m 850 288.445 l 900 288.445 l 800 288.445 l 900 346.18 l S
925 360.613 m 925 418.348 l 950 375.047 l 900 461.648 l 900 346.18 l S
875 360.613 m 825 331.746 l 850 375.047 l 800 288.445 l 900 346.18 l S
900 201.844 m 850 230.711 l 900 230.711 l 800 230.711 l 900 172.973 l S
875 158.539 m 825 187.41 l 850 144.105 l 800 230.711 l 900 172.973 l S
925 158.539 m 975 187.41 l 950 144.105 l 1000 230.711 l 900 172.973 l S
875 158.539 m 875 100.805 l 850 144.105 l 900 57.504 l 900 172.973 l S
900 201.844 m 950 230.711 l 900 230.711 l 1000 230.711 l 900 172.973 l S
925 158.539 m 925 100.805 l 950 144.105 l 900 57.504 l 900 172.973 l S
1075 100.805 m 1125 71.938 l 1100 115.238 l 1150 28.637 l 1050 86.371 l
 S
1050 57.504 m 1100 28.637 l 1050 28.637 l 1150 28.637 l 1050 86.371 l S
1025 100.805 m 1025 158.539 l 1000 115.238 l 1050 201.844 l 1050 86.371
 l S
1050 57.504 m 1000 28.637 l 1050 28.637 l 950 28.637 l 1050 86.371 l S
1075 100.805 m 1075 158.539 l 1100 115.238 l 1050 201.844 l 1050 86.371
 l S
1025 100.805 m 975 71.938 l 1000 115.238 l 950 28.637 l 1050 86.371 l S
750 981.266 m 700 1010.133 l 750 1010.133 l 650 1010.133 l 750 952.398 
l S
725 937.965 m 675 966.832 l 700 923.531 l 650 1010.133 l 750 952.398 l S
775 937.965 m 825 966.832 l 800 923.531 l 850 1010.133 l 750 952.398 l S
725 937.965 m 725 880.23 l 700 923.531 l 750 836.926 l 750 952.398 l S
750 981.266 m 800 1010.133 l 750 1010.133 l 850 1010.133 l 750 952.398 
l S
775 937.965 m 775 880.23 l 800 923.531 l 750 836.926 l 750 952.398 l S
925 880.23 m 975 851.359 l 950 894.664 l 1000 808.059 l 900 865.793 l S
900 836.926 m 950 808.059 l 900 808.059 l 1000 808.059 l 900 865.793 l S
875 880.23 m 875 937.965 l 850 894.664 l 900 981.266 l 900 865.793 l S
900 836.926 m 850 808.059 l 900 808.059 l 800 808.059 l 900 865.793 l S
925 880.23 m 925 937.965 l 950 894.664 l 900 981.266 l 900 865.793 l S
875 880.23 m 825 851.359 l 850 894.664 l 800 808.059 l 900 865.793 l S
900 721.457 m 850 750.324 l 900 750.324 l 800 750.324 l 900 692.59 l S
875 678.156 m 825 707.023 l 850 663.723 l 800 750.324 l 900 692.59 l S
925 678.156 m 975 707.023 l 950 663.723 l 1000 750.324 l 900 692.59 l S
875 678.156 m 875 620.422 l 850 663.723 l 900 577.121 l 900 692.59 l S
900 721.457 m 950 750.324 l 900 750.324 l 1000 750.324 l 900 692.59 l S
925 678.156 m 925 620.422 l 950 663.723 l 900 577.121 l 900 692.59 l S
1075 620.422 m 1125 591.555 l 1100 634.855 l 1150 548.254 l 1050 605.988
 l S
1050 577.121 m 1100 548.254 l 1050 548.254 l 1150 548.254 l 1050 605.988
 l S
1025 620.422 m 1025 678.156 l 1000 634.855 l 1050 721.457 l 1050 605.988
 l S
1050 577.121 m 1000 548.254 l 1050 548.254 l 950 548.254 l 1050 605.988
 l S
1075 620.422 m 1075 678.156 l 1100 634.855 l 1050 721.457 l 1050 605.988
 l S
1025 620.422 m 975 591.555 l 1000 634.855 l 950 548.254 l 1050 605.988 
l S
1050 461.648 m 1000 490.516 l 1050 490.516 l 950 490.516 l 1050 432.781
 l S
1025 418.348 m 975 447.215 l 1000 403.914 l 950 490.516 l 1050 432.781 
l S
1075 418.348 m 1125 447.215 l 1100 403.914 l 1150 490.516 l 1050 432.781
 l S
1025 418.348 m 1025 360.613 l 1000 403.914 l 1050 317.312 l 1050 432.781
 l S
1050 461.648 m 1100 490.516 l 1050 490.516 l 1150 490.516 l 1050 432.781
 l S
1075 418.348 m 1075 360.613 l 1100 403.914 l 1050 317.312 l 1050 432.781
 l S
1225 360.613 m 1275 331.746 l 1250 375.047 l 1300 288.445 l 1200 346.18
 l S
1200 317.312 m 1250 288.445 l 1200 288.445 l 1300 288.445 l 1200 346.18
 l S
1175 360.613 m 1175 418.348 l 1150 375.047 l 1200 461.648 l 1200 346.18
 l S
1200 317.312 m 1150 288.445 l 1200 288.445 l 1100 288.445 l 1200 346.18
 l S
1225 360.613 m 1225 418.348 l 1250 375.047 l 1200 461.648 l 1200 346.18
 l S
1175 360.613 m 1125 331.746 l 1150 375.047 l 1100 288.445 l 1200 346.18
 l S
1200 201.844 m 1150 230.711 l 1200 230.711 l 1100 230.711 l 1200 172.973
 l S
1175 158.539 m 1125 187.41 l 1150 144.105 l 1100 230.711 l 1200 172.973
 l S
1225 158.539 m 1275 187.41 l 1250 144.105 l 1300 230.711 l 1200 172.973
 l S
1175 158.539 m 1175 100.805 l 1150 144.105 l 1200 57.504 l 1200 172.973
 l S
1200 201.844 m 1250 230.711 l 1200 230.711 l 1300 230.711 l 1200 172.973
 l S
1225 158.539 m 1225 100.805 l 1250 144.105 l 1200 57.504 l 1200 172.973
 l S
1050 981.266 m 1000 1010.133 l 1050 1010.133 l 950 1010.133 l 1050 952.398
 l S
1025 937.965 m 975 966.832 l 1000 923.531 l 950 1010.133 l 1050 952.398
 l S
1075 937.965 m 1125 966.832 l 1100 923.531 l 1150 1010.133 l 1050 952.398
 l S
1025 937.965 m 1025 880.23 l 1000 923.531 l 1050 836.926 l 1050 952.398
 l S
1050 981.266 m 1100 1010.133 l 1050 1010.133 l 1150 1010.133 l 1050 952.398
 l S
1075 937.965 m 1075 880.23 l 1100 923.531 l 1050 836.926 l 1050 952.398
 l S
1225 880.23 m 1275 851.359 l 1250 894.664 l 1300 808.059 l 1200 865.793
 l S
1200 836.926 m 1250 808.059 l 1200 808.059 l 1300 808.059 l 1200 865.793
 l S
1175 880.23 m 1175 937.965 l 1150 894.664 l 1200 981.266 l 1200 865.793
 l S
1200 836.926 m 1150 808.059 l 1200 808.059 l 1100 808.059 l 1200 865.793
 l S
1225 880.23 m 1225 937.965 l 1250 894.664 l 1200 981.266 l 1200 865.793
 l S
1175 880.23 m 1125 851.359 l 1150 894.664 l 1100 808.059 l 1200 865.793
 l S
1200 721.457 m 1150 750.324 l 1200 750.324 l 1100 750.324 l 1200 692.59
 l S
1175 678.156 m 1125 707.023 l 1150 663.723 l 1100 750.324 l 1200 692.59
 l S
1225 678.156 m 1275 707.023 l 1250 663.723 l 1300 750.324 l 1200 692.59
 l S
1175 678.156 m 1175 620.422 l 1150 663.723 l 1200 577.121 l 1200 692.59
 l S
1200 721.457 m 1250 750.324 l 1200 750.324 l 1300 750.324 l 1200 692.59
 l S
1225 678.156 m 1225 620.422 l 1250 663.723 l 1200 577.121 l 1200 692.59
 l S
Q Q
showpage
%%Trailer
%%Trailer
cleartomark
countdictstack
exch sub { end } repeat
restore
%%EOF
