%!PS-Adobe-2.0 EPSF-2.0
%%BoundingBox: 0 0 1200 1039
%%HiResBoundingBox: 0.000000 0.000000 1200.000000 1039.000000
%%Creator: cairo 1.14.2 (http://cairographics.org)
%%CreationDate: Mon Sep  7 08:21:35 2015
%%DocumentData: Clean7Bit
%%LanguageLevel: 2
%%DocumentMedia: 423x367mm 1200 1039 0 () ()
%%EndComments
% EPSF created by ps2eps 1.68
%%BeginProlog
save
countdictstack
mark
newpath
/showpage {} def
/setpagedevice {pop} def
%%EndProlog
%%Page 1 1
%%BeginProlog
/languagelevel where
{ pop languagelevel } { 1 } ifelse
2 lt { /Helvetica findfont 12 scalefont setfont 50 500 moveto
  (This print job requires a PostScript Language Level 2 printer.) show
  showpage quit } if
/q { gsave } bind def
/Q { grestore } bind def
/cm { 6 array astore concat } bind def
/w { setlinewidth } bind def
/J { setlinecap } bind def
/j { setlinejoin } bind def
/M { setmiterlimit } bind def
/d { setdash } bind def
/m { moveto } bind def
/l { lineto } bind def
/c { curveto } bind def
/h { closepath } bind def
/re { exch dup neg 3 1 roll 5 3 roll moveto 0 rlineto
      0 exch rlineto 0 rlineto closepath } bind def
/S { stroke } bind def
/f { fill } bind def
/f* { eofill } bind def
/n { newpath } bind def
/W { clip } bind def
/W* { eoclip } bind def
/BT { } bind def
/ET { } bind def
/pdfmark where { pop globaldict /?pdfmark /exec load put }
    { globaldict begin /?pdfmark /pop load def /pdfmark
    /cleartomark load def end } ifelse
/BDC { mark 3 1 roll /BDC pdfmark } bind def
/EMC { mark /EMC pdfmark } bind def
/cairo_store_point { /cairo_point_y exch def /cairo_point_x exch def } def
/Tj { show currentpoint cairo_store_point } bind def
/TJ {
  {
    dup
    type /stringtype eq
    { show } { -0.001 mul 0 cairo_font_matrix dtransform rmoveto } ifelse
  } forall
  currentpoint cairo_store_point
} bind def
/cairo_selectfont { cairo_font_matrix aload pop pop pop 0 0 6 array astore
    cairo_font exch selectfont cairo_point_x cairo_point_y moveto } bind def
/Tf { pop /cairo_font exch def /cairo_font_matrix where
      { pop cairo_selectfont } if } bind def
/Td { matrix translate cairo_font_matrix matrix concatmatrix dup
      /cairo_font_matrix exch def dup 4 get exch 5 get cairo_store_point
      /cairo_font where { pop cairo_selectfont } if } bind def
/Tm { 2 copy 8 2 roll 6 array astore /cairo_font_matrix exch def
      cairo_store_point /cairo_font where { pop cairo_selectfont } if } bind def
/g { setgray } bind def
/rg { setrgbcolor } bind def
/d1 { setcachedevice } bind def
/cairo_set_page_size {
  % Change paper size, but only if different from previous paper size otherwise
  % duplex fails. PLRM specifies a tolerance of 5 pts when matching paper size
  % so we use the same when checking if the size changes.
  /setpagedevice where {
    pop currentpagedevice
    /PageSize known {
      2 copy
      currentpagedevice /PageSize get aload pop
      exch 4 1 roll
      sub abs 5 gt
      3 1 roll
      sub abs 5 gt
      or
    } {
      true
    } ifelse
    {
      2 array astore
      2 dict begin
        /PageSize exch def
        /ImagingBBox null def
      currentdict end
      setpagedevice
    } {
      pop pop
    } ifelse
  } {
    pop
  } ifelse
} def
%%EndProlog
%%BeginSetup
%%EndSetup
%%Page: 1 1
%%BeginPageSetup
%%PageMedia: 423x367mm
%%PageBoundingBox: 0 0 1200 1039
1200 1039 cairo_set_page_size
%%EndPageSetup
q 0 0 1200 1039 rectclip q
0.984314 g
0 0 1200 1039 rectfill
0.788235 g
1.875 w
0 J
1 j
[] 0.0 d
4 M 0 1039 1200 -1039.23 re S
0 g
2.5 w
1 J
0 519.383 m -83.332 586.742 -100 615.609 -50 605.988 c S
0 519.383 m -100 557.875 -133.332 557.875 -100 519.383 c S
0 519.383 m -83.332 452.027 -100 423.16 -50 432.781 c S
0 519.383 m -100 480.895 -133.332 480.895 -100 519.383 c S
150 259.578 m 66.668 326.934 50 355.801 100 346.18 c S
150 259.578 m 50 298.066 16.668 298.066 50 259.578 c S
0 519.383 m -16.668 413.539 -33.332 384.668 -50 432.781 c S
0 519.383 m 16.668 413.539 33.332 384.668 50 432.781 c S
150 259.578 m 66.668 192.219 50 163.352 100 172.973 c S
0 -0.23 m -16.668 105.617 -33.332 134.484 -50 86.371 c S
150 259.578 m 50 221.086 16.668 221.086 50 259.578 c S
0 -0.23 m 16.668 105.617 33.332 134.484 50 86.371 c S
300 -0.23 m 216.668 67.129 200 95.996 250 86.371 c S
300 -0.23 m 200 38.258 166.668 38.258 200 -0.23 c S
150 259.578 m 133.332 153.73 116.668 124.863 100 172.973 c S
0 -0.23 m 100 38.258 133.332 38.258 100 -0.23 c S
150 259.578 m 166.668 153.73 183.332 124.863 200 172.973 c S
0 -0.23 m 83.332 67.129 100 95.996 50 86.371 c S
0 1039 m -83.332 971.641 -100 942.773 -50 952.398 c S
0 1039 m -100 1000.512 -133.332 1000.512 -100 1039 c S
150 779.191 m 66.668 846.551 50 875.418 100 865.793 c S
150 779.191 m 50 817.684 16.668 817.684 50 779.191 c S
0 1039 m -16.668 933.152 -33.332 904.285 -50 952.398 c S
0 1039 m 16.668 933.152 33.332 904.285 50 952.398 c S
150 779.191 m 66.668 711.836 50 682.969 100 692.59 c S
0 519.383 m -16.668 625.23 -33.332 654.102 -50 605.988 c S
150 779.191 m 50 740.703 16.668 740.703 50 779.191 c S
0 519.383 m 16.668 625.23 33.332 654.102 50 605.988 c S
300 519.383 m 216.668 586.742 200 615.609 250 605.988 c S
300 519.383 m 200 557.875 166.668 557.875 200 519.383 c S
150 779.191 m 133.332 673.344 116.668 644.477 100 692.59 c S
0 519.383 m 100 557.875 133.332 557.875 100 519.383 c S
150 779.191 m 166.668 673.344 183.332 644.477 200 692.59 c S
0 519.383 m 83.332 586.742 100 615.609 50 605.988 c S
0 519.383 m 100 480.895 133.332 480.895 100 519.383 c S
0 519.383 m 83.332 452.027 100 423.16 50 432.781 c S
300 519.383 m 216.668 452.027 200 423.16 250 432.781 c S
150 259.578 m 133.332 365.426 116.668 394.293 100 346.18 c S
300 519.383 m 200 480.895 166.668 480.895 200 519.383 c S
150 259.578 m 166.668 365.426 183.332 394.293 200 346.18 c S
450 259.578 m 366.668 326.934 350 355.801 400 346.18 c S
450 259.578 m 350 298.066 316.668 298.066 350 259.578 c S
300 519.383 m 283.332 413.539 266.668 384.668 250 432.781 c S
150 259.578 m 250 298.066 283.332 298.066 250 259.578 c S
300 519.383 m 316.668 413.539 333.332 384.668 350 432.781 c S
150 259.578 m 233.332 326.934 250 355.801 200 346.18 c S
150 259.578 m 250 221.086 283.332 221.086 250 259.578 c S
150 259.578 m 233.332 192.219 250 163.352 200 172.973 c S
450 259.578 m 366.668 192.219 350 163.352 400 172.973 c S
300 -0.23 m 283.332 105.617 266.668 134.484 250 86.371 c S
450 259.578 m 350 221.086 316.668 221.086 350 259.578 c S
300 -0.23 m 316.668 105.617 333.332 134.484 350 86.371 c S
600 -0.23 m 516.668 67.129 500 95.996 550 86.371 c S
600 -0.23 m 500 38.258 466.668 38.258 500 -0.23 c S
450 259.578 m 433.332 153.73 416.668 124.863 400 172.973 c S
300 -0.23 m 400 38.258 433.332 38.258 400 -0.23 c S
450 259.578 m 466.668 153.73 483.332 124.863 500 172.973 c S
300 -0.23 m 383.332 67.129 400 95.996 350 86.371 c S
0 1039 m 100 1000.512 133.332 1000.512 100 1039 c S
0 1039 m 83.332 971.641 100 942.773 50 952.398 c S
300 1039 m 216.668 971.641 200 942.773 250 952.398 c S
150 779.191 m 133.332 885.039 116.668 913.906 100 865.793 c S
300 1039 m 200 1000.512 166.668 1000.512 200 1039 c S
150 779.191 m 166.668 885.039 183.332 913.906 200 865.793 c S
450 779.191 m 366.668 846.551 350 875.418 400 865.793 c S
450 779.191 m 350 817.684 316.668 817.684 350 779.191 c S
300 1039 m 283.332 933.152 266.668 904.285 250 952.398 c S
150 779.191 m 250 817.684 283.332 817.684 250 779.191 c S
300 1039 m 316.668 933.152 333.332 904.285 350 952.398 c S
150 779.191 m 233.332 846.551 250 875.418 200 865.793 c S
150 779.191 m 250 740.703 283.332 740.703 250 779.191 c S
150 779.191 m 233.332 711.836 250 682.969 200 692.59 c S
450 779.191 m 366.668 711.836 350 682.969 400 692.59 c S
300 519.383 m 283.332 625.23 266.668 654.102 250 605.988 c S
450 779.191 m 350 740.703 316.668 740.703 350 779.191 c S
300 519.383 m 316.668 625.23 333.332 654.102 350 605.988 c S
600 519.383 m 516.668 586.742 500 615.609 550 605.988 c S
600 519.383 m 500 557.875 466.668 557.875 500 519.383 c S
450 779.191 m 433.332 673.344 416.668 644.477 400 692.59 c S
300 519.383 m 400 557.875 433.332 557.875 400 519.383 c S
450 779.191 m 466.668 673.344 483.332 644.477 500 692.59 c S
300 519.383 m 383.332 586.742 400 615.609 350 605.988 c S
300 519.383 m 400 480.895 433.332 480.895 400 519.383 c S
300 519.383 m 383.332 452.027 400 423.16 350 432.781 c S
600 519.383 m 516.668 452.027 500 423.16 550 432.781 c S
450 259.578 m 433.332 365.426 416.668 394.293 400 346.18 c S
600 519.383 m 500 480.895 466.668 480.895 500 519.383 c S
450 259.578 m 466.668 365.426 483.332 394.293 500 346.18 c S
750 259.578 m 666.668 326.934 650 355.801 700 346.18 c S
750 259.578 m 650 298.066 616.668 298.066 650 259.578 c S
600 519.383 m 583.332 413.539 566.668 384.668 550 432.781 c S
450 259.578 m 550 298.066 583.332 298.066 550 259.578 c S
600 519.383 m 616.668 413.539 633.332 384.668 650 432.781 c S
450 259.578 m 533.332 326.934 550 355.801 500 346.18 c S
450 259.578 m 550 221.086 583.332 221.086 550 259.578 c S
450 259.578 m 533.332 192.219 550 163.352 500 172.973 c S
750 259.578 m 666.668 192.219 650 163.352 700 172.973 c S
600 -0.23 m 583.332 105.617 566.668 134.484 550 86.371 c S
750 259.578 m 650 221.086 616.668 221.086 650 259.578 c S
600 -0.23 m 616.668 105.617 633.332 134.484 650 86.371 c S
900 -0.23 m 816.668 67.129 800 95.996 850 86.371 c S
900 -0.23 m 800 38.258 766.668 38.258 800 -0.23 c S
750 259.578 m 733.332 153.73 716.668 124.863 700 172.973 c S
600 -0.23 m 700 38.258 733.332 38.258 700 -0.23 c S
750 259.578 m 766.668 153.73 783.332 124.863 800 172.973 c S
600 -0.23 m 683.332 67.129 700 95.996 650 86.371 c S
300 1039 m 400 1000.512 433.332 1000.512 400 1039 c S
300 1039 m 383.332 971.641 400 942.773 350 952.398 c S
600 1039 m 516.668 971.641 500 942.773 550 952.398 c S
450 779.191 m 433.332 885.039 416.668 913.906 400 865.793 c S
600 1039 m 500 1000.512 466.668 1000.512 500 1039 c S
450 779.191 m 466.668 885.039 483.332 913.906 500 865.793 c S
750 779.191 m 666.668 846.551 650 875.418 700 865.793 c S
750 779.191 m 650 817.684 616.668 817.684 650 779.191 c S
600 1039 m 583.332 933.152 566.668 904.285 550 952.398 c S
450 779.191 m 550 817.684 583.332 817.684 550 779.191 c S
600 1039 m 616.668 933.152 633.332 904.285 650 952.398 c S
450 779.191 m 533.332 846.551 550 875.418 500 865.793 c S
450 779.191 m 550 740.703 583.332 740.703 550 779.191 c S
450 779.191 m 533.332 711.836 550 682.969 500 692.59 c S
750 779.191 m 666.668 711.836 650 682.969 700 692.59 c S
600 519.383 m 583.332 625.23 566.668 654.102 550 605.988 c S
750 779.191 m 650 740.703 616.668 740.703 650 779.191 c S
600 519.383 m 616.668 625.23 633.332 654.102 650 605.988 c S
900 519.383 m 816.668 586.742 800 615.609 850 605.988 c S
900 519.383 m 800 557.875 766.668 557.875 800 519.383 c S
750 779.191 m 733.332 673.344 716.668 644.477 700 692.59 c S
600 519.383 m 700 557.875 733.332 557.875 700 519.383 c S
750 779.191 m 766.668 673.344 783.332 644.477 800 692.59 c S
600 519.383 m 683.332 586.742 700 615.609 650 605.988 c S
600 519.383 m 700 480.895 733.332 480.895 700 519.383 c S
600 519.383 m 683.332 452.027 700 423.16 650 432.781 c S
900 519.383 m 816.668 452.027 800 423.16 850 432.781 c S
750 259.578 m 733.332 365.426 716.668 394.293 700 346.18 c S
900 519.383 m 800 480.895 766.668 480.895 800 519.383 c S
750 259.578 m 766.668 365.426 783.332 394.293 800 346.18 c S
1050 259.578 m 966.668 326.934 950 355.801 1000 346.18 c S
1050 259.578 m 950 298.066 916.668 298.066 950 259.578 c S
900 519.383 m 883.332 413.539 866.668 384.668 850 432.781 c S
750 259.578 m 850 298.066 883.332 298.066 850 259.578 c S
900 519.383 m 916.668 413.539 933.332 384.668 950 432.781 c S
750 259.578 m 833.332 326.934 850 355.801 800 346.18 c S
750 259.578 m 850 221.086 883.332 221.086 850 259.578 c S
750 259.578 m 833.332 192.219 850 163.352 800 172.973 c S
1050 259.578 m 966.668 192.219 950 163.352 1000 172.973 c S
900 -0.23 m 883.332 105.617 866.668 134.484 850 86.371 c S
1050 259.578 m 950 221.086 916.668 221.086 950 259.578 c S
900 -0.23 m 916.668 105.617 933.332 134.484 950 86.371 c S
1200 -0.23 m 1116.668 67.129 1100 95.996 1150 86.371 c S
1200 -0.23 m 1100 38.258 1066.668 38.258 1100 -0.23 c S
1050 259.578 m 1033.332 153.73 1016.668 124.863 1000 172.973 c S
900 -0.23 m 1000 38.258 1033.332 38.258 1000 -0.23 c S
1050 259.578 m 1066.668 153.73 1083.332 124.863 1100 172.973 c S
900 -0.23 m 983.332 67.129 1000 95.996 950 86.371 c S
600 1039 m 700 1000.512 733.332 1000.512 700 1039 c S
600 1039 m 683.332 971.641 700 942.773 650 952.398 c S
900 1039 m 816.668 971.641 800 942.773 850 952.398 c S
750 779.191 m 733.332 885.039 716.668 913.906 700 865.793 c S
900 1039 m 800 1000.512 766.668 1000.512 800 1039 c S
750 779.191 m 766.668 885.039 783.332 913.906 800 865.793 c S
1050 779.191 m 966.668 846.551 950 875.418 1000 865.793 c S
1050 779.191 m 950 817.684 916.668 817.684 950 779.191 c S
900 1039 m 883.332 933.152 866.668 904.285 850 952.398 c S
750 779.191 m 850 817.684 883.332 817.684 850 779.191 c S
900 1039 m 916.668 933.152 933.332 904.285 950 952.398 c S
750 779.191 m 833.332 846.551 850 875.418 800 865.793 c S
750 779.191 m 850 740.703 883.332 740.703 850 779.191 c S
750 779.191 m 833.332 711.836 850 682.969 800 692.59 c S
1050 779.191 m 966.668 711.836 950 682.969 1000 692.59 c S
900 519.383 m 883.332 625.23 866.668 654.102 850 605.988 c S
1050 779.191 m 950 740.703 916.668 740.703 950 779.191 c S
900 519.383 m 916.668 625.23 933.332 654.102 950 605.988 c S
1200 519.383 m 1116.668 586.742 1100 615.609 1150 605.988 c S
1200 519.383 m 1100 557.875 1066.668 557.875 1100 519.383 c S
1050 779.191 m 1033.332 673.344 1016.668 644.477 1000 692.59 c S
900 519.383 m 1000 557.875 1033.332 557.875 1000 519.383 c S
1050 779.191 m 1066.668 673.344 1083.332 644.477 1100 692.59 c S
900 519.383 m 983.332 586.742 1000 615.609 950 605.988 c S
900 519.383 m 1000 480.895 1033.332 480.895 1000 519.383 c S
900 519.383 m 983.332 452.027 1000 423.16 950 432.781 c S
1200 519.383 m 1116.668 452.027 1100 423.16 1150 432.781 c S
1050 259.578 m 1033.332 365.426 1016.668 394.293 1000 346.18 c S
1200 519.383 m 1100 480.895 1066.668 480.895 1100 519.383 c S
1050 259.578 m 1066.668 365.426 1083.332 394.293 1100 346.18 c S
1200 519.383 m 1183.332 413.539 1166.668 384.668 1150 432.781 c S
1050 259.578 m 1150 298.066 1183.332 298.066 1150 259.578 c S
1200 519.383 m 1216.668 413.539 1233.332 384.668 1250 432.781 c S
1050 259.578 m 1133.332 326.934 1150 355.801 1100 346.18 c S
1050 259.578 m 1150 221.086 1183.332 221.086 1150 259.578 c S
1050 259.578 m 1133.332 192.219 1150 163.352 1100 172.973 c S
1200 -0.23 m 1183.332 105.617 1166.668 134.484 1150 86.371 c S
1200 -0.23 m 1216.668 105.617 1233.332 134.484 1250 86.371 c S
1200 -0.23 m 1300 38.258 1333.332 38.258 1300 -0.23 c S
1200 -0.23 m 1283.332 67.129 1300 95.996 1250 86.371 c S
900 1039 m 1000 1000.512 1033.332 1000.512 1000 1039 c S
900 1039 m 983.332 971.641 1000 942.773 950 952.398 c S
1200 1039 m 1116.668 971.641 1100 942.773 1150 952.398 c S
1050 779.191 m 1033.332 885.039 1016.668 913.906 1000 865.793 c S
1200 1039 m 1100 1000.512 1066.668 1000.512 1100 1039 c S
1050 779.191 m 1066.668 885.039 1083.332 913.906 1100 865.793 c S
1200 1039 m 1183.332 933.152 1166.668 904.285 1150 952.398 c S
1050 779.191 m 1150 817.684 1183.332 817.684 1150 779.191 c S
1200 1039 m 1216.668 933.152 1233.332 904.285 1250 952.398 c S
1050 779.191 m 1133.332 846.551 1150 875.418 1100 865.793 c S
1050 779.191 m 1150 740.703 1183.332 740.703 1150 779.191 c S
1050 779.191 m 1133.332 711.836 1150 682.969 1100 692.59 c S
1200 519.383 m 1183.332 625.23 1166.668 654.102 1150 605.988 c S
1200 519.383 m 1216.668 625.23 1233.332 654.102 1250 605.988 c S
1200 519.383 m 1300 557.875 1333.332 557.875 1300 519.383 c S
1200 519.383 m 1283.332 586.742 1300 615.609 1250 605.988 c S
1200 519.383 m 1300 480.895 1333.332 480.895 1300 519.383 c S
1200 519.383 m 1283.332 452.027 1300 423.16 1250 432.781 c S
Q Q
showpage
%%Trailer
%%Trailer
cleartomark
countdictstack
exch sub { end } repeat
restore
%%EOF
