%!PS-Adobe-2.0 EPSF-2.0
%%BoundingBox: 0 0 2400 1200
%%HiResBoundingBox: 0.000000 0.000000 2400.000000 1200.000000
%%Creator: cairo 1.14.2 (http://cairographics.org)
%%CreationDate: Mon Sep  7 08:21:35 2015
%%DocumentData: Clean7Bit
%%LanguageLevel: 2
%%DocumentMedia: 847x423mm 2400 1200 0 () ()
%%EndComments
% EPSF created by ps2eps 1.68
%%BeginProlog
save
countdictstack
mark
newpath
/showpage {} def
/setpagedevice {pop} def
%%EndProlog
%%Page 1 1
%%BeginProlog
/languagelevel where
{ pop languagelevel } { 1 } ifelse
2 lt { /Helvetica findfont 12 scalefont setfont 50 500 moveto
  (This print job requires a PostScript Language Level 2 printer.) show
  showpage quit } if
/q { gsave } bind def
/Q { grestore } bind def
/cm { 6 array astore concat } bind def
/w { setlinewidth } bind def
/J { setlinecap } bind def
/j { setlinejoin } bind def
/M { setmiterlimit } bind def
/d { setdash } bind def
/m { moveto } bind def
/l { lineto } bind def
/c { curveto } bind def
/h { closepath } bind def
/re { exch dup neg 3 1 roll 5 3 roll moveto 0 rlineto
      0 exch rlineto 0 rlineto closepath } bind def
/S { stroke } bind def
/f { fill } bind def
/f* { eofill } bind def
/n { newpath } bind def
/W { clip } bind def
/W* { eoclip } bind def
/BT { } bind def
/ET { } bind def
/pdfmark where { pop globaldict /?pdfmark /exec load put }
    { globaldict begin /?pdfmark /pop load def /pdfmark
    /cleartomark load def end } ifelse
/BDC { mark 3 1 roll /BDC pdfmark } bind def
/EMC { mark /EMC pdfmark } bind def
/cairo_store_point { /cairo_point_y exch def /cairo_point_x exch def } def
/Tj { show currentpoint cairo_store_point } bind def
/TJ {
  {
    dup
    type /stringtype eq
    { show } { -0.001 mul 0 cairo_font_matrix dtransform rmoveto } ifelse
  } forall
  currentpoint cairo_store_point
} bind def
/cairo_selectfont { cairo_font_matrix aload pop pop pop 0 0 6 array astore
    cairo_font exch selectfont cairo_point_x cairo_point_y moveto } bind def
/Tf { pop /cairo_font exch def /cairo_font_matrix where
      { pop cairo_selectfont } if } bind def
/Td { matrix translate cairo_font_matrix matrix concatmatrix dup
      /cairo_font_matrix exch def dup 4 get exch 5 get cairo_store_point
      /cairo_font where { pop cairo_selectfont } if } bind def
/Tm { 2 copy 8 2 roll 6 array astore /cairo_font_matrix exch def
      cairo_store_point /cairo_font where { pop cairo_selectfont } if } bind def
/g { setgray } bind def
/rg { setrgbcolor } bind def
/d1 { setcachedevice } bind def
/cairo_set_page_size {
  % Change paper size, but only if different from previous paper size otherwise
  % duplex fails. PLRM specifies a tolerance of 5 pts when matching paper size
  % so we use the same when checking if the size changes.
  /setpagedevice where {
    pop currentpagedevice
    /PageSize known {
      2 copy
      currentpagedevice /PageSize get aload pop
      exch 4 1 roll
      sub abs 5 gt
      3 1 roll
      sub abs 5 gt
      or
    } {
      true
    } ifelse
    {
      2 array astore
      2 dict begin
        /PageSize exch def
        /ImagingBBox null def
      currentdict end
      setpagedevice
    } {
      pop pop
    } ifelse
  } {
    pop
  } ifelse
} def
%%EndProlog
%%BeginSetup
%%EndSetup
%%Page: 1 1
%%BeginPageSetup
%%PageMedia: 847x423mm
%%PageBoundingBox: 0 0 2400 1200
2400 1200 cairo_set_page_size
%%EndPageSetup
q 0 0 2400 1200 rectclip q
0.984314 g
0 0 2400 1200 rectfill
0.788235 g
1.875 w
0 J
1 j
[] 0.0 d
4 M 0 1200 2400 -1200 re S
0 g
2.5 w
1 J
200 1050 m 133.332 1050 100 1075 100 1125 c S
400 1200 m 333.332 1200 300 1175 300 1125 c S
0 900 m 66.668 900 100 925 100 975 c S
200 1050 m 266.668 1050 300 1025 300 975 c S
200 750 m 133.332 750 100 775 100 825 c S
400 900 m 333.332 900 300 875 300 825 c S
0 600 m 66.668 600 100 625 100 675 c S
200 750 m 266.668 750 300 725 300 675 c S
200 450 m 133.332 450 100 475 100 525 c S
400 600 m 333.332 600 300 575 300 525 c S
0 300 m 66.668 300 100 325 100 375 c S
200 450 m 266.668 450 300 425 300 375 c S
200 150 m 133.332 150 100 175 100 225 c S
400 300 m 333.332 300 300 275 300 225 c S
0 0 m 66.668 0 100 25 100 75 c S
200 150 m 266.668 150 300 125 300 75 c S
600 1050 m 533.332 1050 500 1075 500 1125 c S
800 1200 m 733.332 1200 700 1175 700 1125 c S
400 900 m 466.668 900 500 925 500 975 c S
600 1050 m 666.668 1050 700 1025 700 975 c S
600 750 m 533.332 750 500 775 500 825 c S
800 900 m 733.332 900 700 875 700 825 c S
400 600 m 466.668 600 500 625 500 675 c S
600 750 m 666.668 750 700 725 700 675 c S
600 450 m 533.332 450 500 475 500 525 c S
800 600 m 733.332 600 700 575 700 525 c S
400 300 m 466.668 300 500 325 500 375 c S
600 450 m 666.668 450 700 425 700 375 c S
600 150 m 533.332 150 500 175 500 225 c S
800 300 m 733.332 300 700 275 700 225 c S
400 0 m 466.668 0 500 25 500 75 c S
600 150 m 666.668 150 700 125 700 75 c S
1000 1050 m 933.332 1050 900 1075 900 1125 c S
1200 1200 m 1133.332 1200 1100 1175 1100 1125 c S
800 900 m 866.668 900 900 925 900 975 c S
1000 1050 m 1066.668 1050 1100 1025 1100 975 c S
1000 750 m 933.332 750 900 775 900 825 c S
1200 900 m 1133.332 900 1100 875 1100 825 c S
800 600 m 866.668 600 900 625 900 675 c S
1000 750 m 1066.668 750 1100 725 1100 675 c S
1000 450 m 933.332 450 900 475 900 525 c S
1200 600 m 1133.332 600 1100 575 1100 525 c S
800 300 m 866.668 300 900 325 900 375 c S
1000 450 m 1066.668 450 1100 425 1100 375 c S
1000 150 m 933.332 150 900 175 900 225 c S
1200 300 m 1133.332 300 1100 275 1100 225 c S
800 0 m 866.668 0 900 25 900 75 c S
1000 150 m 1066.668 150 1100 125 1100 75 c S
1400 1050 m 1333.332 1050 1300 1075 1300 1125 c S
1600 1200 m 1533.332 1200 1500 1175 1500 1125 c S
1200 900 m 1266.668 900 1300 925 1300 975 c S
1400 1050 m 1466.668 1050 1500 1025 1500 975 c S
1400 750 m 1333.332 750 1300 775 1300 825 c S
1600 900 m 1533.332 900 1500 875 1500 825 c S
1200 600 m 1266.668 600 1300 625 1300 675 c S
1400 750 m 1466.668 750 1500 725 1500 675 c S
1400 450 m 1333.332 450 1300 475 1300 525 c S
1600 600 m 1533.332 600 1500 575 1500 525 c S
1200 300 m 1266.668 300 1300 325 1300 375 c S
1400 450 m 1466.668 450 1500 425 1500 375 c S
1400 150 m 1333.332 150 1300 175 1300 225 c S
1600 300 m 1533.332 300 1500 275 1500 225 c S
1200 0 m 1266.668 0 1300 25 1300 75 c S
1400 150 m 1466.668 150 1500 125 1500 75 c S
1800 1050 m 1733.332 1050 1700 1075 1700 1125 c S
2000 1200 m 1933.332 1200 1900 1175 1900 1125 c S
1600 900 m 1666.668 900 1700 925 1700 975 c S
1800 1050 m 1866.668 1050 1900 1025 1900 975 c S
1800 750 m 1733.332 750 1700 775 1700 825 c S
2000 900 m 1933.332 900 1900 875 1900 825 c S
1600 600 m 1666.668 600 1700 625 1700 675 c S
1800 750 m 1866.668 750 1900 725 1900 675 c S
1800 450 m 1733.332 450 1700 475 1700 525 c S
2000 600 m 1933.332 600 1900 575 1900 525 c S
1600 300 m 1666.668 300 1700 325 1700 375 c S
1800 450 m 1866.668 450 1900 425 1900 375 c S
1800 150 m 1733.332 150 1700 175 1700 225 c S
2000 300 m 1933.332 300 1900 275 1900 225 c S
1600 0 m 1666.668 0 1700 25 1700 75 c S
1800 150 m 1866.668 150 1900 125 1900 75 c S
2200 1050 m 2133.332 1050 2100 1075 2100 1125 c S
2400 1200 m 2333.332 1200 2300 1175 2300 1125 c S
2000 900 m 2066.668 900 2100 925 2100 975 c S
2200 1050 m 2266.668 1050 2300 1025 2300 975 c S
2200 750 m 2133.332 750 2100 775 2100 825 c S
2400 900 m 2333.332 900 2300 875 2300 825 c S
2000 600 m 2066.668 600 2100 625 2100 675 c S
2200 750 m 2266.668 750 2300 725 2300 675 c S
2200 450 m 2133.332 450 2100 475 2100 525 c S
2400 600 m 2333.332 600 2300 575 2300 525 c S
2000 300 m 2066.668 300 2100 325 2100 375 c S
2200 450 m 2266.668 450 2300 425 2300 375 c S
2200 150 m 2133.332 150 2100 175 2100 225 c S
2400 300 m 2333.332 300 2300 275 2300 225 c S
2000 0 m 2066.668 0 2100 25 2100 75 c S
2200 150 m 2266.668 150 2300 125 2300 75 c S
Q Q
showpage
%%Trailer
%%Trailer
cleartomark
countdictstack
exch sub { end } repeat
restore
%%EOF
