%!PS-Adobe-2.0 EPSF-2.0
%%BoundingBox: 0 0 2400 1200
%%HiResBoundingBox: 0.000000 0.000000 2400.000000 1200.000000
%%Creator: cairo 1.14.2 (http://cairographics.org)
%%CreationDate: Mon Sep  7 08:21:35 2015
%%DocumentData: Clean7Bit
%%LanguageLevel: 2
%%DocumentMedia: 847x423mm 2400 1200 0 () ()
%%EndComments
% EPSF created by ps2eps 1.68
%%BeginProlog
save
countdictstack
mark
newpath
/showpage {} def
/setpagedevice {pop} def
%%EndProlog
%%Page 1 1
%%BeginProlog
/languagelevel where
{ pop languagelevel } { 1 } ifelse
2 lt { /Helvetica findfont 12 scalefont setfont 50 500 moveto
  (This print job requires a PostScript Language Level 2 printer.) show
  showpage quit } if
/q { gsave } bind def
/Q { grestore } bind def
/cm { 6 array astore concat } bind def
/w { setlinewidth } bind def
/J { setlinecap } bind def
/j { setlinejoin } bind def
/M { setmiterlimit } bind def
/d { setdash } bind def
/m { moveto } bind def
/l { lineto } bind def
/c { curveto } bind def
/h { closepath } bind def
/re { exch dup neg 3 1 roll 5 3 roll moveto 0 rlineto
      0 exch rlineto 0 rlineto closepath } bind def
/S { stroke } bind def
/f { fill } bind def
/f* { eofill } bind def
/n { newpath } bind def
/W { clip } bind def
/W* { eoclip } bind def
/BT { } bind def
/ET { } bind def
/pdfmark where { pop globaldict /?pdfmark /exec load put }
    { globaldict begin /?pdfmark /pop load def /pdfmark
    /cleartomark load def end } ifelse
/BDC { mark 3 1 roll /BDC pdfmark } bind def
/EMC { mark /EMC pdfmark } bind def
/cairo_store_point { /cairo_point_y exch def /cairo_point_x exch def } def
/Tj { show currentpoint cairo_store_point } bind def
/TJ {
  {
    dup
    type /stringtype eq
    { show } { -0.001 mul 0 cairo_font_matrix dtransform rmoveto } ifelse
  } forall
  currentpoint cairo_store_point
} bind def
/cairo_selectfont { cairo_font_matrix aload pop pop pop 0 0 6 array astore
    cairo_font exch selectfont cairo_point_x cairo_point_y moveto } bind def
/Tf { pop /cairo_font exch def /cairo_font_matrix where
      { pop cairo_selectfont } if } bind def
/Td { matrix translate cairo_font_matrix matrix concatmatrix dup
      /cairo_font_matrix exch def dup 4 get exch 5 get cairo_store_point
      /cairo_font where { pop cairo_selectfont } if } bind def
/Tm { 2 copy 8 2 roll 6 array astore /cairo_font_matrix exch def
      cairo_store_point /cairo_font where { pop cairo_selectfont } if } bind def
/g { setgray } bind def
/rg { setrgbcolor } bind def
/d1 { setcachedevice } bind def
/cairo_set_page_size {
  % Change paper size, but only if different from previous paper size otherwise
  % duplex fails. PLRM specifies a tolerance of 5 pts when matching paper size
  % so we use the same when checking if the size changes.
  /setpagedevice where {
    pop currentpagedevice
    /PageSize known {
      2 copy
      currentpagedevice /PageSize get aload pop
      exch 4 1 roll
      sub abs 5 gt
      3 1 roll
      sub abs 5 gt
      or
    } {
      true
    } ifelse
    {
      2 array astore
      2 dict begin
        /PageSize exch def
        /ImagingBBox null def
      currentdict end
      setpagedevice
    } {
      pop pop
    } ifelse
  } {
    pop
  } ifelse
} def
%%EndProlog
%%BeginSetup
%%EndSetup
%%Page: 1 1
%%BeginPageSetup
%%PageMedia: 847x423mm
%%PageBoundingBox: 0 0 2400 1200
2400 1200 cairo_set_page_size
%%EndPageSetup
q 0 0 2400 1200 rectclip q
0.984314 g
0 0 2400 1200 rectfill
0.788235 g
1.875 w
0 J
1 j
[] 0.0 d
4 M 0 1200 2400 -1200 re S
0 g
2.5 w
1 J
200 1200 m 66.668 1050 l 0 1050 l 133.332 1200 l S
400 1050 m 266.668 1200 l 200 1200 l 333.332 1050 l S
0 1050 m 133.332 900 l 200 900 l 66.668 1050 l S
200 900 m 333.332 1050 l 400 1050 l 266.668 900 l S
200 900 m 66.668 750 l 0 750 l 133.332 900 l S
400 750 m 266.668 900 l 200 900 l 333.332 750 l S
0 750 m 133.332 600 l 200 600 l 66.668 750 l S
200 600 m 333.332 750 l 400 750 l 266.668 600 l S
200 600 m 66.668 450 l 0 450 l 133.332 600 l S
400 450 m 266.668 600 l 200 600 l 333.332 450 l S
0 450 m 133.332 300 l 200 300 l 66.668 450 l S
200 300 m 333.332 450 l 400 450 l 266.668 300 l S
200 300 m 66.668 150 l 0 150 l 133.332 300 l S
400 150 m 266.668 300 l 200 300 l 333.332 150 l S
0 150 m 133.332 0 l 200 0 l 66.668 150 l S
200 0 m 333.332 150 l 400 150 l 266.668 0 l S
600 1200 m 466.668 1050 l 400 1050 l 533.332 1200 l S
800 1050 m 666.668 1200 l 600 1200 l 733.332 1050 l S
400 1050 m 533.332 900 l 600 900 l 466.668 1050 l S
600 900 m 733.332 1050 l 800 1050 l 666.668 900 l S
600 900 m 466.668 750 l 400 750 l 533.332 900 l S
800 750 m 666.668 900 l 600 900 l 733.332 750 l S
400 750 m 533.332 600 l 600 600 l 466.668 750 l S
600 600 m 733.332 750 l 800 750 l 666.668 600 l S
600 600 m 466.668 450 l 400 450 l 533.332 600 l S
800 450 m 666.668 600 l 600 600 l 733.332 450 l S
400 450 m 533.332 300 l 600 300 l 466.668 450 l S
600 300 m 733.332 450 l 800 450 l 666.668 300 l S
600 300 m 466.668 150 l 400 150 l 533.332 300 l S
800 150 m 666.668 300 l 600 300 l 733.332 150 l S
400 150 m 533.332 0 l 600 0 l 466.668 150 l S
600 0 m 733.332 150 l 800 150 l 666.668 0 l S
1000 1200 m 866.668 1050 l 800 1050 l 933.332 1200 l S
1200 1050 m 1066.668 1200 l 1000 1200 l 1133.332 1050 l S
800 1050 m 933.332 900 l 1000 900 l 866.668 1050 l S
1000 900 m 1133.332 1050 l 1200 1050 l 1066.668 900 l S
1000 900 m 866.668 750 l 800 750 l 933.332 900 l S
1200 750 m 1066.668 900 l 1000 900 l 1133.332 750 l S
800 750 m 933.332 600 l 1000 600 l 866.668 750 l S
1000 600 m 1133.332 750 l 1200 750 l 1066.668 600 l S
1000 600 m 866.668 450 l 800 450 l 933.332 600 l S
1200 450 m 1066.668 600 l 1000 600 l 1133.332 450 l S
800 450 m 933.332 300 l 1000 300 l 866.668 450 l S
1000 300 m 1133.332 450 l 1200 450 l 1066.668 300 l S
1000 300 m 866.668 150 l 800 150 l 933.332 300 l S
1200 150 m 1066.668 300 l 1000 300 l 1133.332 150 l S
800 150 m 933.332 0 l 1000 0 l 866.668 150 l S
1000 0 m 1133.332 150 l 1200 150 l 1066.668 0 l S
1400 1200 m 1266.668 1050 l 1200 1050 l 1333.332 1200 l S
1600 1050 m 1466.668 1200 l 1400 1200 l 1533.332 1050 l S
1200 1050 m 1333.332 900 l 1400 900 l 1266.668 1050 l S
1400 900 m 1533.332 1050 l 1600 1050 l 1466.668 900 l S
1400 900 m 1266.668 750 l 1200 750 l 1333.332 900 l S
1600 750 m 1466.668 900 l 1400 900 l 1533.332 750 l S
1200 750 m 1333.332 600 l 1400 600 l 1266.668 750 l S
1400 600 m 1533.332 750 l 1600 750 l 1466.668 600 l S
1400 600 m 1266.668 450 l 1200 450 l 1333.332 600 l S
1600 450 m 1466.668 600 l 1400 600 l 1533.332 450 l S
1200 450 m 1333.332 300 l 1400 300 l 1266.668 450 l S
1400 300 m 1533.332 450 l 1600 450 l 1466.668 300 l S
1400 300 m 1266.668 150 l 1200 150 l 1333.332 300 l S
1600 150 m 1466.668 300 l 1400 300 l 1533.332 150 l S
1200 150 m 1333.332 0 l 1400 0 l 1266.668 150 l S
1400 0 m 1533.332 150 l 1600 150 l 1466.668 0 l S
1800 1200 m 1666.668 1050 l 1600 1050 l 1733.332 1200 l S
2000 1050 m 1866.668 1200 l 1800 1200 l 1933.332 1050 l S
1600 1050 m 1733.332 900 l 1800 900 l 1666.668 1050 l S
1800 900 m 1933.332 1050 l 2000 1050 l 1866.668 900 l S
1800 900 m 1666.668 750 l 1600 750 l 1733.332 900 l S
2000 750 m 1866.668 900 l 1800 900 l 1933.332 750 l S
1600 750 m 1733.332 600 l 1800 600 l 1666.668 750 l S
1800 600 m 1933.332 750 l 2000 750 l 1866.668 600 l S
1800 600 m 1666.668 450 l 1600 450 l 1733.332 600 l S
2000 450 m 1866.668 600 l 1800 600 l 1933.332 450 l S
1600 450 m 1733.332 300 l 1800 300 l 1666.668 450 l S
1800 300 m 1933.332 450 l 2000 450 l 1866.668 300 l S
1800 300 m 1666.668 150 l 1600 150 l 1733.332 300 l S
2000 150 m 1866.668 300 l 1800 300 l 1933.332 150 l S
1600 150 m 1733.332 0 l 1800 0 l 1666.668 150 l S
1800 0 m 1933.332 150 l 2000 150 l 1866.668 0 l S
2200 1200 m 2066.668 1050 l 2000 1050 l 2133.332 1200 l S
2400 1050 m 2266.668 1200 l 2200 1200 l 2333.332 1050 l S
2000 1050 m 2133.332 900 l 2200 900 l 2066.668 1050 l S
2200 900 m 2333.332 1050 l 2400 1050 l 2266.668 900 l S
2200 900 m 2066.668 750 l 2000 750 l 2133.332 900 l S
2400 750 m 2266.668 900 l 2200 900 l 2333.332 750 l S
2000 750 m 2133.332 600 l 2200 600 l 2066.668 750 l S
2200 600 m 2333.332 750 l 2400 750 l 2266.668 600 l S
2200 600 m 2066.668 450 l 2000 450 l 2133.332 600 l S
2400 450 m 2266.668 600 l 2200 600 l 2333.332 450 l S
2000 450 m 2133.332 300 l 2200 300 l 2066.668 450 l S
2200 300 m 2333.332 450 l 2400 450 l 2266.668 300 l S
2200 300 m 2066.668 150 l 2000 150 l 2133.332 300 l S
2400 150 m 2266.668 300 l 2200 300 l 2333.332 150 l S
2000 150 m 2133.332 0 l 2200 0 l 2066.668 150 l S
2200 0 m 2333.332 150 l 2400 150 l 2266.668 0 l S
Q Q
showpage
%%Trailer
%%Trailer
cleartomark
countdictstack
exch sub { end } repeat
restore
%%EOF
