%!PS-Adobe-2.0 EPSF-2.0
%%BoundingBox: 0 0 2400 1200
%%HiResBoundingBox: 0.000000 0.000000 2400.000000 1200.000000
%%Creator: cairo 1.14.2 (http://cairographics.org)
%%CreationDate: Mon Sep  7 08:21:35 2015
%%DocumentData: Clean7Bit
%%LanguageLevel: 2
%%DocumentMedia: 847x423mm 2400 1200 0 () ()
%%EndComments
% EPSF created by ps2eps 1.68
%%BeginProlog
save
countdictstack
mark
newpath
/showpage {} def
/setpagedevice {pop} def
%%EndProlog
%%Page 1 1
%%BeginProlog
/languagelevel where
{ pop languagelevel } { 1 } ifelse
2 lt { /Helvetica findfont 12 scalefont setfont 50 500 moveto
  (This print job requires a PostScript Language Level 2 printer.) show
  showpage quit } if
/q { gsave } bind def
/Q { grestore } bind def
/cm { 6 array astore concat } bind def
/w { setlinewidth } bind def
/J { setlinecap } bind def
/j { setlinejoin } bind def
/M { setmiterlimit } bind def
/d { setdash } bind def
/m { moveto } bind def
/l { lineto } bind def
/c { curveto } bind def
/h { closepath } bind def
/re { exch dup neg 3 1 roll 5 3 roll moveto 0 rlineto
      0 exch rlineto 0 rlineto closepath } bind def
/S { stroke } bind def
/f { fill } bind def
/f* { eofill } bind def
/n { newpath } bind def
/W { clip } bind def
/W* { eoclip } bind def
/BT { } bind def
/ET { } bind def
/pdfmark where { pop globaldict /?pdfmark /exec load put }
    { globaldict begin /?pdfmark /pop load def /pdfmark
    /cleartomark load def end } ifelse
/BDC { mark 3 1 roll /BDC pdfmark } bind def
/EMC { mark /EMC pdfmark } bind def
/cairo_store_point { /cairo_point_y exch def /cairo_point_x exch def } def
/Tj { show currentpoint cairo_store_point } bind def
/TJ {
  {
    dup
    type /stringtype eq
    { show } { -0.001 mul 0 cairo_font_matrix dtransform rmoveto } ifelse
  } forall
  currentpoint cairo_store_point
} bind def
/cairo_selectfont { cairo_font_matrix aload pop pop pop 0 0 6 array astore
    cairo_font exch selectfont cairo_point_x cairo_point_y moveto } bind def
/Tf { pop /cairo_font exch def /cairo_font_matrix where
      { pop cairo_selectfont } if } bind def
/Td { matrix translate cairo_font_matrix matrix concatmatrix dup
      /cairo_font_matrix exch def dup 4 get exch 5 get cairo_store_point
      /cairo_font where { pop cairo_selectfont } if } bind def
/Tm { 2 copy 8 2 roll 6 array astore /cairo_font_matrix exch def
      cairo_store_point /cairo_font where { pop cairo_selectfont } if } bind def
/g { setgray } bind def
/rg { setrgbcolor } bind def
/d1 { setcachedevice } bind def
/cairo_set_page_size {
  % Change paper size, but only if different from previous paper size otherwise
  % duplex fails. PLRM specifies a tolerance of 5 pts when matching paper size
  % so we use the same when checking if the size changes.
  /setpagedevice where {
    pop currentpagedevice
    /PageSize known {
      2 copy
      currentpagedevice /PageSize get aload pop
      exch 4 1 roll
      sub abs 5 gt
      3 1 roll
      sub abs 5 gt
      or
    } {
      true
    } ifelse
    {
      2 array astore
      2 dict begin
        /PageSize exch def
        /ImagingBBox null def
      currentdict end
      setpagedevice
    } {
      pop pop
    } ifelse
  } {
    pop
  } ifelse
} def
%%EndProlog
%%BeginSetup
%%EndSetup
%%Page: 1 1
%%BeginPageSetup
%%PageMedia: 847x423mm
%%PageBoundingBox: 0 0 2400 1200
2400 1200 cairo_set_page_size
%%EndPageSetup
q 0 0 2400 1200 rectclip q
0.984314 g
0 0 2400 1200 rectfill
0.788235 g
1.875 w
0 J
1 j
[] 0.0 d
4 M 0 1200 2400 -1200 re S
0 g
2.5 w
1 J
0 1050 m 66.668 1100 200 1100 200 1050 c S
200 1200 m 266.668 1150 400 1150 400 1200 c S
200 900 m 133.332 950 0 950 0 900 c S
400 1050 m 333.332 1000 200 1000 200 1050 c S
0 750 m 66.668 800 200 800 200 750 c S
200 900 m 266.668 850 400 850 400 900 c S
200 600 m 133.332 650 0 650 0 600 c S
400 750 m 333.332 700 200 700 200 750 c S
0 450 m 66.668 500 200 500 200 450 c S
200 600 m 266.668 550 400 550 400 600 c S
200 300 m 133.332 350 0 350 0 300 c S
400 450 m 333.332 400 200 400 200 450 c S
0 150 m 66.668 200 200 200 200 150 c S
200 300 m 266.668 250 400 250 400 300 c S
200 0 m 133.332 50 0 50 0 0 c S
400 150 m 333.332 100 200 100 200 150 c S
400 1050 m 466.668 1100 600 1100 600 1050 c S
600 1200 m 666.668 1150 800 1150 800 1200 c S
600 900 m 533.332 950 400 950 400 900 c S
800 1050 m 733.332 1000 600 1000 600 1050 c S
400 750 m 466.668 800 600 800 600 750 c S
600 900 m 666.668 850 800 850 800 900 c S
600 600 m 533.332 650 400 650 400 600 c S
800 750 m 733.332 700 600 700 600 750 c S
400 450 m 466.668 500 600 500 600 450 c S
600 600 m 666.668 550 800 550 800 600 c S
600 300 m 533.332 350 400 350 400 300 c S
800 450 m 733.332 400 600 400 600 450 c S
400 150 m 466.668 200 600 200 600 150 c S
600 300 m 666.668 250 800 250 800 300 c S
600 0 m 533.332 50 400 50 400 0 c S
800 150 m 733.332 100 600 100 600 150 c S
800 1050 m 866.668 1100 1000 1100 1000 1050 c S
1000 1200 m 1066.668 1150 1200 1150 1200 1200 c S
1000 900 m 933.332 950 800 950 800 900 c S
1200 1050 m 1133.332 1000 1000 1000 1000 1050 c S
800 750 m 866.668 800 1000 800 1000 750 c S
1000 900 m 1066.668 850 1200 850 1200 900 c S
1000 600 m 933.332 650 800 650 800 600 c S
1200 750 m 1133.332 700 1000 700 1000 750 c S
800 450 m 866.668 500 1000 500 1000 450 c S
1000 600 m 1066.668 550 1200 550 1200 600 c S
1000 300 m 933.332 350 800 350 800 300 c S
1200 450 m 1133.332 400 1000 400 1000 450 c S
800 150 m 866.668 200 1000 200 1000 150 c S
1000 300 m 1066.668 250 1200 250 1200 300 c S
1000 0 m 933.332 50 800 50 800 0 c S
1200 150 m 1133.332 100 1000 100 1000 150 c S
1200 1050 m 1266.668 1100 1400 1100 1400 1050 c S
1400 1200 m 1466.668 1150 1600 1150 1600 1200 c S
1400 900 m 1333.332 950 1200 950 1200 900 c S
1600 1050 m 1533.332 1000 1400 1000 1400 1050 c S
1200 750 m 1266.668 800 1400 800 1400 750 c S
1400 900 m 1466.668 850 1600 850 1600 900 c S
1400 600 m 1333.332 650 1200 650 1200 600 c S
1600 750 m 1533.332 700 1400 700 1400 750 c S
1200 450 m 1266.668 500 1400 500 1400 450 c S
1400 600 m 1466.668 550 1600 550 1600 600 c S
1400 300 m 1333.332 350 1200 350 1200 300 c S
1600 450 m 1533.332 400 1400 400 1400 450 c S
1200 150 m 1266.668 200 1400 200 1400 150 c S
1400 300 m 1466.668 250 1600 250 1600 300 c S
1400 0 m 1333.332 50 1200 50 1200 0 c S
1600 150 m 1533.332 100 1400 100 1400 150 c S
1600 1050 m 1666.668 1100 1800 1100 1800 1050 c S
1800 1200 m 1866.668 1150 2000 1150 2000 1200 c S
1800 900 m 1733.332 950 1600 950 1600 900 c S
2000 1050 m 1933.332 1000 1800 1000 1800 1050 c S
1600 750 m 1666.668 800 1800 800 1800 750 c S
1800 900 m 1866.668 850 2000 850 2000 900 c S
1800 600 m 1733.332 650 1600 650 1600 600 c S
2000 750 m 1933.332 700 1800 700 1800 750 c S
1600 450 m 1666.668 500 1800 500 1800 450 c S
1800 600 m 1866.668 550 2000 550 2000 600 c S
1800 300 m 1733.332 350 1600 350 1600 300 c S
2000 450 m 1933.332 400 1800 400 1800 450 c S
1600 150 m 1666.668 200 1800 200 1800 150 c S
1800 300 m 1866.668 250 2000 250 2000 300 c S
1800 0 m 1733.332 50 1600 50 1600 0 c S
2000 150 m 1933.332 100 1800 100 1800 150 c S
2000 1050 m 2066.668 1100 2200 1100 2200 1050 c S
2200 1200 m 2266.668 1150 2400 1150 2400 1200 c S
2200 900 m 2133.332 950 2000 950 2000 900 c S
2400 1050 m 2333.332 1000 2200 1000 2200 1050 c S
2000 750 m 2066.668 800 2200 800 2200 750 c S
2200 900 m 2266.668 850 2400 850 2400 900 c S
2200 600 m 2133.332 650 2000 650 2000 600 c S
2400 750 m 2333.332 700 2200 700 2200 750 c S
2000 450 m 2066.668 500 2200 500 2200 450 c S
2200 600 m 2266.668 550 2400 550 2400 600 c S
2200 300 m 2133.332 350 2000 350 2000 300 c S
2400 450 m 2333.332 400 2200 400 2200 450 c S
2000 150 m 2066.668 200 2200 200 2200 150 c S
2200 300 m 2266.668 250 2400 250 2400 300 c S
2200 0 m 2133.332 50 2000 50 2000 0 c S
2400 150 m 2333.332 100 2200 100 2200 150 c S
Q Q
showpage
%%Trailer
%%Trailer
cleartomark
countdictstack
exch sub { end } repeat
restore
%%EOF
