%!PS-Adobe-2.0 EPSF-2.0
%%BoundingBox: 0 0 2400 1200
%%HiResBoundingBox: 0.000000 0.000000 2400.000000 1200.000000
%%Creator: cairo 1.14.2 (http://cairographics.org)
%%CreationDate: Mon Sep  7 08:21:35 2015
%%DocumentData: Clean7Bit
%%LanguageLevel: 2
%%DocumentMedia: 847x423mm 2400 1200 0 () ()
%%EndComments
% EPSF created by ps2eps 1.68
%%BeginProlog
save
countdictstack
mark
newpath
/showpage {} def
/setpagedevice {pop} def
%%EndProlog
%%Page 1 1
%%BeginProlog
/languagelevel where
{ pop languagelevel } { 1 } ifelse
2 lt { /Helvetica findfont 12 scalefont setfont 50 500 moveto
  (This print job requires a PostScript Language Level 2 printer.) show
  showpage quit } if
/q { gsave } bind def
/Q { grestore } bind def
/cm { 6 array astore concat } bind def
/w { setlinewidth } bind def
/J { setlinecap } bind def
/j { setlinejoin } bind def
/M { setmiterlimit } bind def
/d { setdash } bind def
/m { moveto } bind def
/l { lineto } bind def
/c { curveto } bind def
/h { closepath } bind def
/re { exch dup neg 3 1 roll 5 3 roll moveto 0 rlineto
      0 exch rlineto 0 rlineto closepath } bind def
/S { stroke } bind def
/f { fill } bind def
/f* { eofill } bind def
/n { newpath } bind def
/W { clip } bind def
/W* { eoclip } bind def
/BT { } bind def
/ET { } bind def
/pdfmark where { pop globaldict /?pdfmark /exec load put }
    { globaldict begin /?pdfmark /pop load def /pdfmark
    /cleartomark load def end } ifelse
/BDC { mark 3 1 roll /BDC pdfmark } bind def
/EMC { mark /EMC pdfmark } bind def
/cairo_store_point { /cairo_point_y exch def /cairo_point_x exch def } def
/Tj { show currentpoint cairo_store_point } bind def
/TJ {
  {
    dup
    type /stringtype eq
    { show } { -0.001 mul 0 cairo_font_matrix dtransform rmoveto } ifelse
  } forall
  currentpoint cairo_store_point
} bind def
/cairo_selectfont { cairo_font_matrix aload pop pop pop 0 0 6 array astore
    cairo_font exch selectfont cairo_point_x cairo_point_y moveto } bind def
/Tf { pop /cairo_font exch def /cairo_font_matrix where
      { pop cairo_selectfont } if } bind def
/Td { matrix translate cairo_font_matrix matrix concatmatrix dup
      /cairo_font_matrix exch def dup 4 get exch 5 get cairo_store_point
      /cairo_font where { pop cairo_selectfont } if } bind def
/Tm { 2 copy 8 2 roll 6 array astore /cairo_font_matrix exch def
      cairo_store_point /cairo_font where { pop cairo_selectfont } if } bind def
/g { setgray } bind def
/rg { setrgbcolor } bind def
/d1 { setcachedevice } bind def
/cairo_set_page_size {
  % Change paper size, but only if different from previous paper size otherwise
  % duplex fails. PLRM specifies a tolerance of 5 pts when matching paper size
  % so we use the same when checking if the size changes.
  /setpagedevice where {
    pop currentpagedevice
    /PageSize known {
      2 copy
      currentpagedevice /PageSize get aload pop
      exch 4 1 roll
      sub abs 5 gt
      3 1 roll
      sub abs 5 gt
      or
    } {
      true
    } ifelse
    {
      2 array astore
      2 dict begin
        /PageSize exch def
        /ImagingBBox null def
      currentdict end
      setpagedevice
    } {
      pop pop
    } ifelse
  } {
    pop
  } ifelse
} def
%%EndProlog
%%BeginSetup
%%EndSetup
%%Page: 1 1
%%BeginPageSetup
%%PageMedia: 847x423mm
%%PageBoundingBox: 0 0 2400 1200
2400 1200 cairo_set_page_size
%%EndPageSetup
q 0 0 2400 1200 rectclip q
0.984314 g
0 0 2400 1200 rectfill
0.788235 g
1.875 w
0 J
1 j
[] 0.0 d
4 M 0 1200 2400 -1200 re S
0.85098 g
208.332 1125 m 208.332 1101.988 189.68 1083.332 166.668 1083.332 c 143.656
 1083.332 125 1101.988 125 1125 c 125 1148.012 143.656 1166.668 166.668 
1166.668 c 189.68 1166.668 208.332 1148.012 208.332 1125 c h
208.332 1125 m f
0 g
2.5 w
0 j
208.332 1125 m 208.332 1101.988 189.68 1083.332 166.668 1083.332 c 143.656
 1083.332 125 1101.988 125 1125 c 125 1148.012 143.656 1166.668 166.668 
1166.668 c 189.68 1166.668 208.332 1148.012 208.332 1125 c h
208.332 1125 m S
0.85098 g
408.332 1125 m 408.332 1101.988 389.68 1083.332 366.668 1083.332 c 343.656
 1083.332 325 1101.988 325 1125 c 325 1148.012 343.656 1166.668 366.668 
1166.668 c 389.68 1166.668 408.332 1148.012 408.332 1125 c h
408.332 1125 m f
0 g
408.332 1125 m 408.332 1101.988 389.68 1083.332 366.668 1083.332 c 343.656
 1083.332 325 1101.988 325 1125 c 325 1148.012 343.656 1166.668 366.668 
1166.668 c 389.68 1166.668 408.332 1148.012 408.332 1125 c h
408.332 1125 m S
0.85098 g
75 975 m 75 951.988 56.344 933.332 33.332 933.332 c 10.32 933.332 -8.332
 951.988 -8.332 975 c -8.332 998.012 10.32 1016.668 33.332 1016.668 c 56.344
 1016.668 75 998.012 75 975 c h
75 975 m f
0 g
75 975 m 75 951.988 56.344 933.332 33.332 933.332 c 10.32 933.332 -8.332
 951.988 -8.332 975 c -8.332 998.012 10.32 1016.668 33.332 1016.668 c 56.344
 1016.668 75 998.012 75 975 c h
75 975 m S
0.85098 g
275 975 m 275 951.988 256.344 933.332 233.332 933.332 c 210.32 933.332 
191.668 951.988 191.668 975 c 191.668 998.012 210.32 1016.668 233.332 1016.668
 c 256.344 1016.668 275 998.012 275 975 c h
275 975 m f
0 g
275 975 m 275 951.988 256.344 933.332 233.332 933.332 c 210.32 933.332 
191.668 951.988 191.668 975 c 191.668 998.012 210.32 1016.668 233.332 1016.668
 c 256.344 1016.668 275 998.012 275 975 c h
275 975 m S
0.85098 g
208.332 825 m 208.332 801.988 189.68 783.332 166.668 783.332 c 143.656 
783.332 125 801.988 125 825 c 125 848.012 143.656 866.668 166.668 866.668
 c 189.68 866.668 208.332 848.012 208.332 825 c h
208.332 825 m f
0 g
208.332 825 m 208.332 801.988 189.68 783.332 166.668 783.332 c 143.656 
783.332 125 801.988 125 825 c 125 848.012 143.656 866.668 166.668 866.668
 c 189.68 866.668 208.332 848.012 208.332 825 c h
208.332 825 m S
0.85098 g
408.332 825 m 408.332 801.988 389.68 783.332 366.668 783.332 c 343.656 
783.332 325 801.988 325 825 c 325 848.012 343.656 866.668 366.668 866.668
 c 389.68 866.668 408.332 848.012 408.332 825 c h
408.332 825 m f
0 g
408.332 825 m 408.332 801.988 389.68 783.332 366.668 783.332 c 343.656 
783.332 325 801.988 325 825 c 325 848.012 343.656 866.668 366.668 866.668
 c 389.68 866.668 408.332 848.012 408.332 825 c h
408.332 825 m S
0.85098 g
75 675 m 75 651.988 56.344 633.332 33.332 633.332 c 10.32 633.332 -8.332
 651.988 -8.332 675 c -8.332 698.012 10.32 716.668 33.332 716.668 c 56.344
 716.668 75 698.012 75 675 c h
75 675 m f
0 g
75 675 m 75 651.988 56.344 633.332 33.332 633.332 c 10.32 633.332 -8.332
 651.988 -8.332 675 c -8.332 698.012 10.32 716.668 33.332 716.668 c 56.344
 716.668 75 698.012 75 675 c h
75 675 m S
0.85098 g
275 675 m 275 651.988 256.344 633.332 233.332 633.332 c 210.32 633.332 
191.668 651.988 191.668 675 c 191.668 698.012 210.32 716.668 233.332 716.668
 c 256.344 716.668 275 698.012 275 675 c h
275 675 m f
0 g
275 675 m 275 651.988 256.344 633.332 233.332 633.332 c 210.32 633.332 
191.668 651.988 191.668 675 c 191.668 698.012 210.32 716.668 233.332 716.668
 c 256.344 716.668 275 698.012 275 675 c h
275 675 m S
0.85098 g
208.332 525 m 208.332 501.988 189.68 483.332 166.668 483.332 c 143.656 
483.332 125 501.988 125 525 c 125 548.012 143.656 566.668 166.668 566.668
 c 189.68 566.668 208.332 548.012 208.332 525 c h
208.332 525 m f
0 g
208.332 525 m 208.332 501.988 189.68 483.332 166.668 483.332 c 143.656 
483.332 125 501.988 125 525 c 125 548.012 143.656 566.668 166.668 566.668
 c 189.68 566.668 208.332 548.012 208.332 525 c h
208.332 525 m S
0.85098 g
408.332 525 m 408.332 501.988 389.68 483.332 366.668 483.332 c 343.656 
483.332 325 501.988 325 525 c 325 548.012 343.656 566.668 366.668 566.668
 c 389.68 566.668 408.332 548.012 408.332 525 c h
408.332 525 m f
0 g
408.332 525 m 408.332 501.988 389.68 483.332 366.668 483.332 c 343.656 
483.332 325 501.988 325 525 c 325 548.012 343.656 566.668 366.668 566.668
 c 389.68 566.668 408.332 548.012 408.332 525 c h
408.332 525 m S
0.85098 g
75 375 m 75 351.988 56.344 333.332 33.332 333.332 c 10.32 333.332 -8.332
 351.988 -8.332 375 c -8.332 398.012 10.32 416.668 33.332 416.668 c 56.344
 416.668 75 398.012 75 375 c h
75 375 m f
0 g
75 375 m 75 351.988 56.344 333.332 33.332 333.332 c 10.32 333.332 -8.332
 351.988 -8.332 375 c -8.332 398.012 10.32 416.668 33.332 416.668 c 56.344
 416.668 75 398.012 75 375 c h
75 375 m S
0.85098 g
275 375 m 275 351.988 256.344 333.332 233.332 333.332 c 210.32 333.332 
191.668 351.988 191.668 375 c 191.668 398.012 210.32 416.668 233.332 416.668
 c 256.344 416.668 275 398.012 275 375 c h
275 375 m f
0 g
275 375 m 275 351.988 256.344 333.332 233.332 333.332 c 210.32 333.332 
191.668 351.988 191.668 375 c 191.668 398.012 210.32 416.668 233.332 416.668
 c 256.344 416.668 275 398.012 275 375 c h
275 375 m S
0.85098 g
208.332 225 m 208.332 201.988 189.68 183.332 166.668 183.332 c 143.656 
183.332 125 201.988 125 225 c 125 248.012 143.656 266.668 166.668 266.668
 c 189.68 266.668 208.332 248.012 208.332 225 c h
208.332 225 m f
0 g
208.332 225 m 208.332 201.988 189.68 183.332 166.668 183.332 c 143.656 
183.332 125 201.988 125 225 c 125 248.012 143.656 266.668 166.668 266.668
 c 189.68 266.668 208.332 248.012 208.332 225 c h
208.332 225 m S
0.85098 g
408.332 225 m 408.332 201.988 389.68 183.332 366.668 183.332 c 343.656 
183.332 325 201.988 325 225 c 325 248.012 343.656 266.668 366.668 266.668
 c 389.68 266.668 408.332 248.012 408.332 225 c h
408.332 225 m f
0 g
408.332 225 m 408.332 201.988 389.68 183.332 366.668 183.332 c 343.656 
183.332 325 201.988 325 225 c 325 248.012 343.656 266.668 366.668 266.668
 c 389.68 266.668 408.332 248.012 408.332 225 c h
408.332 225 m S
0.85098 g
75 75 m 75 51.988 56.344 33.332 33.332 33.332 c 10.32 33.332 -8.332 51.988
 -8.332 75 c -8.332 98.012 10.32 116.668 33.332 116.668 c 56.344 116.668
 75 98.012 75 75 c h
75 75 m f
0 g
75 75 m 75 51.988 56.344 33.332 33.332 33.332 c 10.32 33.332 -8.332 51.988
 -8.332 75 c -8.332 98.012 10.32 116.668 33.332 116.668 c 56.344 116.668
 75 98.012 75 75 c h
75 75 m S
0.85098 g
275 75 m 275 51.988 256.344 33.332 233.332 33.332 c 210.32 33.332 191.668
 51.988 191.668 75 c 191.668 98.012 210.32 116.668 233.332 116.668 c 256.344
 116.668 275 98.012 275 75 c h
275 75 m f
0 g
275 75 m 275 51.988 256.344 33.332 233.332 33.332 c 210.32 33.332 191.668
 51.988 191.668 75 c 191.668 98.012 210.32 116.668 233.332 116.668 c 256.344
 116.668 275 98.012 275 75 c h
275 75 m S
0.85098 g
608.332 1125 m 608.332 1101.988 589.68 1083.332 566.668 1083.332 c 543.656
 1083.332 525 1101.988 525 1125 c 525 1148.012 543.656 1166.668 566.668 
1166.668 c 589.68 1166.668 608.332 1148.012 608.332 1125 c h
608.332 1125 m f
0 g
608.332 1125 m 608.332 1101.988 589.68 1083.332 566.668 1083.332 c 543.656
 1083.332 525 1101.988 525 1125 c 525 1148.012 543.656 1166.668 566.668 
1166.668 c 589.68 1166.668 608.332 1148.012 608.332 1125 c h
608.332 1125 m S
0.85098 g
808.332 1125 m 808.332 1101.988 789.68 1083.332 766.668 1083.332 c 743.656
 1083.332 725 1101.988 725 1125 c 725 1148.012 743.656 1166.668 766.668 
1166.668 c 789.68 1166.668 808.332 1148.012 808.332 1125 c h
808.332 1125 m f
0 g
808.332 1125 m 808.332 1101.988 789.68 1083.332 766.668 1083.332 c 743.656
 1083.332 725 1101.988 725 1125 c 725 1148.012 743.656 1166.668 766.668 
1166.668 c 789.68 1166.668 808.332 1148.012 808.332 1125 c h
808.332 1125 m S
0.85098 g
475 975 m 475 951.988 456.344 933.332 433.332 933.332 c 410.32 933.332 
391.668 951.988 391.668 975 c 391.668 998.012 410.32 1016.668 433.332 1016.668
 c 456.344 1016.668 475 998.012 475 975 c h
475 975 m f
0 g
475 975 m 475 951.988 456.344 933.332 433.332 933.332 c 410.32 933.332 
391.668 951.988 391.668 975 c 391.668 998.012 410.32 1016.668 433.332 1016.668
 c 456.344 1016.668 475 998.012 475 975 c h
475 975 m S
0.85098 g
675 975 m 675 951.988 656.344 933.332 633.332 933.332 c 610.32 933.332 
591.668 951.988 591.668 975 c 591.668 998.012 610.32 1016.668 633.332 1016.668
 c 656.344 1016.668 675 998.012 675 975 c h
675 975 m f
0 g
675 975 m 675 951.988 656.344 933.332 633.332 933.332 c 610.32 933.332 
591.668 951.988 591.668 975 c 591.668 998.012 610.32 1016.668 633.332 1016.668
 c 656.344 1016.668 675 998.012 675 975 c h
675 975 m S
0.85098 g
608.332 825 m 608.332 801.988 589.68 783.332 566.668 783.332 c 543.656 
783.332 525 801.988 525 825 c 525 848.012 543.656 866.668 566.668 866.668
 c 589.68 866.668 608.332 848.012 608.332 825 c h
608.332 825 m f
0 g
608.332 825 m 608.332 801.988 589.68 783.332 566.668 783.332 c 543.656 
783.332 525 801.988 525 825 c 525 848.012 543.656 866.668 566.668 866.668
 c 589.68 866.668 608.332 848.012 608.332 825 c h
608.332 825 m S
0.85098 g
808.332 825 m 808.332 801.988 789.68 783.332 766.668 783.332 c 743.656 
783.332 725 801.988 725 825 c 725 848.012 743.656 866.668 766.668 866.668
 c 789.68 866.668 808.332 848.012 808.332 825 c h
808.332 825 m f
0 g
808.332 825 m 808.332 801.988 789.68 783.332 766.668 783.332 c 743.656 
783.332 725 801.988 725 825 c 725 848.012 743.656 866.668 766.668 866.668
 c 789.68 866.668 808.332 848.012 808.332 825 c h
808.332 825 m S
0.85098 g
475 675 m 475 651.988 456.344 633.332 433.332 633.332 c 410.32 633.332 
391.668 651.988 391.668 675 c 391.668 698.012 410.32 716.668 433.332 716.668
 c 456.344 716.668 475 698.012 475 675 c h
475 675 m f
0 g
475 675 m 475 651.988 456.344 633.332 433.332 633.332 c 410.32 633.332 
391.668 651.988 391.668 675 c 391.668 698.012 410.32 716.668 433.332 716.668
 c 456.344 716.668 475 698.012 475 675 c h
475 675 m S
0.85098 g
675 675 m 675 651.988 656.344 633.332 633.332 633.332 c 610.32 633.332 
591.668 651.988 591.668 675 c 591.668 698.012 610.32 716.668 633.332 716.668
 c 656.344 716.668 675 698.012 675 675 c h
675 675 m f
0 g
675 675 m 675 651.988 656.344 633.332 633.332 633.332 c 610.32 633.332 
591.668 651.988 591.668 675 c 591.668 698.012 610.32 716.668 633.332 716.668
 c 656.344 716.668 675 698.012 675 675 c h
675 675 m S
0.85098 g
608.332 525 m 608.332 501.988 589.68 483.332 566.668 483.332 c 543.656 
483.332 525 501.988 525 525 c 525 548.012 543.656 566.668 566.668 566.668
 c 589.68 566.668 608.332 548.012 608.332 525 c h
608.332 525 m f
0 g
608.332 525 m 608.332 501.988 589.68 483.332 566.668 483.332 c 543.656 
483.332 525 501.988 525 525 c 525 548.012 543.656 566.668 566.668 566.668
 c 589.68 566.668 608.332 548.012 608.332 525 c h
608.332 525 m S
0.85098 g
808.332 525 m 808.332 501.988 789.68 483.332 766.668 483.332 c 743.656 
483.332 725 501.988 725 525 c 725 548.012 743.656 566.668 766.668 566.668
 c 789.68 566.668 808.332 548.012 808.332 525 c h
808.332 525 m f
0 g
808.332 525 m 808.332 501.988 789.68 483.332 766.668 483.332 c 743.656 
483.332 725 501.988 725 525 c 725 548.012 743.656 566.668 766.668 566.668
 c 789.68 566.668 808.332 548.012 808.332 525 c h
808.332 525 m S
0.85098 g
475 375 m 475 351.988 456.344 333.332 433.332 333.332 c 410.32 333.332 
391.668 351.988 391.668 375 c 391.668 398.012 410.32 416.668 433.332 416.668
 c 456.344 416.668 475 398.012 475 375 c h
475 375 m f
0 g
475 375 m 475 351.988 456.344 333.332 433.332 333.332 c 410.32 333.332 
391.668 351.988 391.668 375 c 391.668 398.012 410.32 416.668 433.332 416.668
 c 456.344 416.668 475 398.012 475 375 c h
475 375 m S
0.85098 g
675 375 m 675 351.988 656.344 333.332 633.332 333.332 c 610.32 333.332 
591.668 351.988 591.668 375 c 591.668 398.012 610.32 416.668 633.332 416.668
 c 656.344 416.668 675 398.012 675 375 c h
675 375 m f
0 g
675 375 m 675 351.988 656.344 333.332 633.332 333.332 c 610.32 333.332 
591.668 351.988 591.668 375 c 591.668 398.012 610.32 416.668 633.332 416.668
 c 656.344 416.668 675 398.012 675 375 c h
675 375 m S
0.85098 g
608.332 225 m 608.332 201.988 589.68 183.332 566.668 183.332 c 543.656 
183.332 525 201.988 525 225 c 525 248.012 543.656 266.668 566.668 266.668
 c 589.68 266.668 608.332 248.012 608.332 225 c h
608.332 225 m f
0 g
608.332 225 m 608.332 201.988 589.68 183.332 566.668 183.332 c 543.656 
183.332 525 201.988 525 225 c 525 248.012 543.656 266.668 566.668 266.668
 c 589.68 266.668 608.332 248.012 608.332 225 c h
608.332 225 m S
0.85098 g
808.332 225 m 808.332 201.988 789.68 183.332 766.668 183.332 c 743.656 
183.332 725 201.988 725 225 c 725 248.012 743.656 266.668 766.668 266.668
 c 789.68 266.668 808.332 248.012 808.332 225 c h
808.332 225 m f
0 g
808.332 225 m 808.332 201.988 789.68 183.332 766.668 183.332 c 743.656 
183.332 725 201.988 725 225 c 725 248.012 743.656 266.668 766.668 266.668
 c 789.68 266.668 808.332 248.012 808.332 225 c h
808.332 225 m S
0.85098 g
475 75 m 475 51.988 456.344 33.332 433.332 33.332 c 410.32 33.332 391.668
 51.988 391.668 75 c 391.668 98.012 410.32 116.668 433.332 116.668 c 456.344
 116.668 475 98.012 475 75 c h
475 75 m f
0 g
475 75 m 475 51.988 456.344 33.332 433.332 33.332 c 410.32 33.332 391.668
 51.988 391.668 75 c 391.668 98.012 410.32 116.668 433.332 116.668 c 456.344
 116.668 475 98.012 475 75 c h
475 75 m S
0.85098 g
675 75 m 675 51.988 656.344 33.332 633.332 33.332 c 610.32 33.332 591.668
 51.988 591.668 75 c 591.668 98.012 610.32 116.668 633.332 116.668 c 656.344
 116.668 675 98.012 675 75 c h
675 75 m f
0 g
675 75 m 675 51.988 656.344 33.332 633.332 33.332 c 610.32 33.332 591.668
 51.988 591.668 75 c 591.668 98.012 610.32 116.668 633.332 116.668 c 656.344
 116.668 675 98.012 675 75 c h
675 75 m S
0.85098 g
1008.332 1125 m 1008.332 1101.988 989.68 1083.332 966.668 1083.332 c 943.656
 1083.332 925 1101.988 925 1125 c 925 1148.012 943.656 1166.668 966.668 
1166.668 c 989.68 1166.668 1008.332 1148.012 1008.332 1125 c h
1008.332 1125 m f
0 g
1008.332 1125 m 1008.332 1101.988 989.68 1083.332 966.668 1083.332 c 943.656
 1083.332 925 1101.988 925 1125 c 925 1148.012 943.656 1166.668 966.668 
1166.668 c 989.68 1166.668 1008.332 1148.012 1008.332 1125 c h
1008.332 1125 m S
0.85098 g
1208.332 1125 m 1208.332 1101.988 1189.68 1083.332 1166.668 1083.332 c 
1143.656 1083.332 1125 1101.988 1125 1125 c 1125 1148.012 1143.656 1166.668
 1166.668 1166.668 c 1189.68 1166.668 1208.332 1148.012 1208.332 1125 c 
h
1208.332 1125 m f
0 g
1208.332 1125 m 1208.332 1101.988 1189.68 1083.332 1166.668 1083.332 c 
1143.656 1083.332 1125 1101.988 1125 1125 c 1125 1148.012 1143.656 1166.668
 1166.668 1166.668 c 1189.68 1166.668 1208.332 1148.012 1208.332 1125 c 
h
1208.332 1125 m S
0.85098 g
875 975 m 875 951.988 856.344 933.332 833.332 933.332 c 810.32 933.332 
791.668 951.988 791.668 975 c 791.668 998.012 810.32 1016.668 833.332 1016.668
 c 856.344 1016.668 875 998.012 875 975 c h
875 975 m f
0 g
875 975 m 875 951.988 856.344 933.332 833.332 933.332 c 810.32 933.332 
791.668 951.988 791.668 975 c 791.668 998.012 810.32 1016.668 833.332 1016.668
 c 856.344 1016.668 875 998.012 875 975 c h
875 975 m S
0.85098 g
1075 975 m 1075 951.988 1056.344 933.332 1033.332 933.332 c 1010.32 933.332
 991.668 951.988 991.668 975 c 991.668 998.012 1010.32 1016.668 1033.332
 1016.668 c 1056.344 1016.668 1075 998.012 1075 975 c h
1075 975 m f
0 g
1075 975 m 1075 951.988 1056.344 933.332 1033.332 933.332 c 1010.32 933.332
 991.668 951.988 991.668 975 c 991.668 998.012 1010.32 1016.668 1033.332
 1016.668 c 1056.344 1016.668 1075 998.012 1075 975 c h
1075 975 m S
0.85098 g
1008.332 825 m 1008.332 801.988 989.68 783.332 966.668 783.332 c 943.656
 783.332 925 801.988 925 825 c 925 848.012 943.656 866.668 966.668 866.668
 c 989.68 866.668 1008.332 848.012 1008.332 825 c h
1008.332 825 m f
0 g
1008.332 825 m 1008.332 801.988 989.68 783.332 966.668 783.332 c 943.656
 783.332 925 801.988 925 825 c 925 848.012 943.656 866.668 966.668 866.668
 c 989.68 866.668 1008.332 848.012 1008.332 825 c h
1008.332 825 m S
0.85098 g
1208.332 825 m 1208.332 801.988 1189.68 783.332 1166.668 783.332 c 1143.656
 783.332 1125 801.988 1125 825 c 1125 848.012 1143.656 866.668 1166.668 
866.668 c 1189.68 866.668 1208.332 848.012 1208.332 825 c h
1208.332 825 m f
0 g
1208.332 825 m 1208.332 801.988 1189.68 783.332 1166.668 783.332 c 1143.656
 783.332 1125 801.988 1125 825 c 1125 848.012 1143.656 866.668 1166.668 
866.668 c 1189.68 866.668 1208.332 848.012 1208.332 825 c h
1208.332 825 m S
0.85098 g
875 675 m 875 651.988 856.344 633.332 833.332 633.332 c 810.32 633.332 
791.668 651.988 791.668 675 c 791.668 698.012 810.32 716.668 833.332 716.668
 c 856.344 716.668 875 698.012 875 675 c h
875 675 m f
0 g
875 675 m 875 651.988 856.344 633.332 833.332 633.332 c 810.32 633.332 
791.668 651.988 791.668 675 c 791.668 698.012 810.32 716.668 833.332 716.668
 c 856.344 716.668 875 698.012 875 675 c h
875 675 m S
0.85098 g
1075 675 m 1075 651.988 1056.344 633.332 1033.332 633.332 c 1010.32 633.332
 991.668 651.988 991.668 675 c 991.668 698.012 1010.32 716.668 1033.332 
716.668 c 1056.344 716.668 1075 698.012 1075 675 c h
1075 675 m f
0 g
1075 675 m 1075 651.988 1056.344 633.332 1033.332 633.332 c 1010.32 633.332
 991.668 651.988 991.668 675 c 991.668 698.012 1010.32 716.668 1033.332 
716.668 c 1056.344 716.668 1075 698.012 1075 675 c h
1075 675 m S
0.85098 g
1008.332 525 m 1008.332 501.988 989.68 483.332 966.668 483.332 c 943.656
 483.332 925 501.988 925 525 c 925 548.012 943.656 566.668 966.668 566.668
 c 989.68 566.668 1008.332 548.012 1008.332 525 c h
1008.332 525 m f
0 g
1008.332 525 m 1008.332 501.988 989.68 483.332 966.668 483.332 c 943.656
 483.332 925 501.988 925 525 c 925 548.012 943.656 566.668 966.668 566.668
 c 989.68 566.668 1008.332 548.012 1008.332 525 c h
1008.332 525 m S
0.85098 g
1208.332 525 m 1208.332 501.988 1189.68 483.332 1166.668 483.332 c 1143.656
 483.332 1125 501.988 1125 525 c 1125 548.012 1143.656 566.668 1166.668 
566.668 c 1189.68 566.668 1208.332 548.012 1208.332 525 c h
1208.332 525 m f
0 g
1208.332 525 m 1208.332 501.988 1189.68 483.332 1166.668 483.332 c 1143.656
 483.332 1125 501.988 1125 525 c 1125 548.012 1143.656 566.668 1166.668 
566.668 c 1189.68 566.668 1208.332 548.012 1208.332 525 c h
1208.332 525 m S
0.85098 g
875 375 m 875 351.988 856.344 333.332 833.332 333.332 c 810.32 333.332 
791.668 351.988 791.668 375 c 791.668 398.012 810.32 416.668 833.332 416.668
 c 856.344 416.668 875 398.012 875 375 c h
875 375 m f
0 g
875 375 m 875 351.988 856.344 333.332 833.332 333.332 c 810.32 333.332 
791.668 351.988 791.668 375 c 791.668 398.012 810.32 416.668 833.332 416.668
 c 856.344 416.668 875 398.012 875 375 c h
875 375 m S
0.85098 g
1075 375 m 1075 351.988 1056.344 333.332 1033.332 333.332 c 1010.32 333.332
 991.668 351.988 991.668 375 c 991.668 398.012 1010.32 416.668 1033.332 
416.668 c 1056.344 416.668 1075 398.012 1075 375 c h
1075 375 m f
0 g
1075 375 m 1075 351.988 1056.344 333.332 1033.332 333.332 c 1010.32 333.332
 991.668 351.988 991.668 375 c 991.668 398.012 1010.32 416.668 1033.332 
416.668 c 1056.344 416.668 1075 398.012 1075 375 c h
1075 375 m S
0.85098 g
1008.332 225 m 1008.332 201.988 989.68 183.332 966.668 183.332 c 943.656
 183.332 925 201.988 925 225 c 925 248.012 943.656 266.668 966.668 266.668
 c 989.68 266.668 1008.332 248.012 1008.332 225 c h
1008.332 225 m f
0 g
1008.332 225 m 1008.332 201.988 989.68 183.332 966.668 183.332 c 943.656
 183.332 925 201.988 925 225 c 925 248.012 943.656 266.668 966.668 266.668
 c 989.68 266.668 1008.332 248.012 1008.332 225 c h
1008.332 225 m S
0.85098 g
1208.332 225 m 1208.332 201.988 1189.68 183.332 1166.668 183.332 c 1143.656
 183.332 1125 201.988 1125 225 c 1125 248.012 1143.656 266.668 1166.668 
266.668 c 1189.68 266.668 1208.332 248.012 1208.332 225 c h
1208.332 225 m f
0 g
1208.332 225 m 1208.332 201.988 1189.68 183.332 1166.668 183.332 c 1143.656
 183.332 1125 201.988 1125 225 c 1125 248.012 1143.656 266.668 1166.668 
266.668 c 1189.68 266.668 1208.332 248.012 1208.332 225 c h
1208.332 225 m S
0.85098 g
875 75 m 875 51.988 856.344 33.332 833.332 33.332 c 810.32 33.332 791.668
 51.988 791.668 75 c 791.668 98.012 810.32 116.668 833.332 116.668 c 856.344
 116.668 875 98.012 875 75 c h
875 75 m f
0 g
875 75 m 875 51.988 856.344 33.332 833.332 33.332 c 810.32 33.332 791.668
 51.988 791.668 75 c 791.668 98.012 810.32 116.668 833.332 116.668 c 856.344
 116.668 875 98.012 875 75 c h
875 75 m S
0.85098 g
1075 75 m 1075 51.988 1056.344 33.332 1033.332 33.332 c 1010.32 33.332 
991.668 51.988 991.668 75 c 991.668 98.012 1010.32 116.668 1033.332 116.668
 c 1056.344 116.668 1075 98.012 1075 75 c h
1075 75 m f
0 g
1075 75 m 1075 51.988 1056.344 33.332 1033.332 33.332 c 1010.32 33.332 
991.668 51.988 991.668 75 c 991.668 98.012 1010.32 116.668 1033.332 116.668
 c 1056.344 116.668 1075 98.012 1075 75 c h
1075 75 m S
0.85098 g
1408.332 1125 m 1408.332 1101.988 1389.68 1083.332 1366.668 1083.332 c 
1343.656 1083.332 1325 1101.988 1325 1125 c 1325 1148.012 1343.656 1166.668
 1366.668 1166.668 c 1389.68 1166.668 1408.332 1148.012 1408.332 1125 c 
h
1408.332 1125 m f
0 g
1408.332 1125 m 1408.332 1101.988 1389.68 1083.332 1366.668 1083.332 c 
1343.656 1083.332 1325 1101.988 1325 1125 c 1325 1148.012 1343.656 1166.668
 1366.668 1166.668 c 1389.68 1166.668 1408.332 1148.012 1408.332 1125 c 
h
1408.332 1125 m S
0.85098 g
1608.332 1125 m 1608.332 1101.988 1589.68 1083.332 1566.668 1083.332 c 
1543.656 1083.332 1525 1101.988 1525 1125 c 1525 1148.012 1543.656 1166.668
 1566.668 1166.668 c 1589.68 1166.668 1608.332 1148.012 1608.332 1125 c 
h
1608.332 1125 m f
0 g
1608.332 1125 m 1608.332 1101.988 1589.68 1083.332 1566.668 1083.332 c 
1543.656 1083.332 1525 1101.988 1525 1125 c 1525 1148.012 1543.656 1166.668
 1566.668 1166.668 c 1589.68 1166.668 1608.332 1148.012 1608.332 1125 c 
h
1608.332 1125 m S
0.85098 g
1275 975 m 1275 951.988 1256.344 933.332 1233.332 933.332 c 1210.32 933.332
 1191.668 951.988 1191.668 975 c 1191.668 998.012 1210.32 1016.668 1233.332
 1016.668 c 1256.344 1016.668 1275 998.012 1275 975 c h
1275 975 m f
0 g
1275 975 m 1275 951.988 1256.344 933.332 1233.332 933.332 c 1210.32 933.332
 1191.668 951.988 1191.668 975 c 1191.668 998.012 1210.32 1016.668 1233.332
 1016.668 c 1256.344 1016.668 1275 998.012 1275 975 c h
1275 975 m S
0.85098 g
1475 975 m 1475 951.988 1456.344 933.332 1433.332 933.332 c 1410.32 933.332
 1391.668 951.988 1391.668 975 c 1391.668 998.012 1410.32 1016.668 1433.332
 1016.668 c 1456.344 1016.668 1475 998.012 1475 975 c h
1475 975 m f
0 g
1475 975 m 1475 951.988 1456.344 933.332 1433.332 933.332 c 1410.32 933.332
 1391.668 951.988 1391.668 975 c 1391.668 998.012 1410.32 1016.668 1433.332
 1016.668 c 1456.344 1016.668 1475 998.012 1475 975 c h
1475 975 m S
0.85098 g
1408.332 825 m 1408.332 801.988 1389.68 783.332 1366.668 783.332 c 1343.656
 783.332 1325 801.988 1325 825 c 1325 848.012 1343.656 866.668 1366.668 
866.668 c 1389.68 866.668 1408.332 848.012 1408.332 825 c h
1408.332 825 m f
0 g
1408.332 825 m 1408.332 801.988 1389.68 783.332 1366.668 783.332 c 1343.656
 783.332 1325 801.988 1325 825 c 1325 848.012 1343.656 866.668 1366.668 
866.668 c 1389.68 866.668 1408.332 848.012 1408.332 825 c h
1408.332 825 m S
0.85098 g
1608.332 825 m 1608.332 801.988 1589.68 783.332 1566.668 783.332 c 1543.656
 783.332 1525 801.988 1525 825 c 1525 848.012 1543.656 866.668 1566.668 
866.668 c 1589.68 866.668 1608.332 848.012 1608.332 825 c h
1608.332 825 m f
0 g
1608.332 825 m 1608.332 801.988 1589.68 783.332 1566.668 783.332 c 1543.656
 783.332 1525 801.988 1525 825 c 1525 848.012 1543.656 866.668 1566.668 
866.668 c 1589.68 866.668 1608.332 848.012 1608.332 825 c h
1608.332 825 m S
0.85098 g
1275 675 m 1275 651.988 1256.344 633.332 1233.332 633.332 c 1210.32 633.332
 1191.668 651.988 1191.668 675 c 1191.668 698.012 1210.32 716.668 1233.332
 716.668 c 1256.344 716.668 1275 698.012 1275 675 c h
1275 675 m f
0 g
1275 675 m 1275 651.988 1256.344 633.332 1233.332 633.332 c 1210.32 633.332
 1191.668 651.988 1191.668 675 c 1191.668 698.012 1210.32 716.668 1233.332
 716.668 c 1256.344 716.668 1275 698.012 1275 675 c h
1275 675 m S
0.85098 g
1475 675 m 1475 651.988 1456.344 633.332 1433.332 633.332 c 1410.32 633.332
 1391.668 651.988 1391.668 675 c 1391.668 698.012 1410.32 716.668 1433.332
 716.668 c 1456.344 716.668 1475 698.012 1475 675 c h
1475 675 m f
0 g
1475 675 m 1475 651.988 1456.344 633.332 1433.332 633.332 c 1410.32 633.332
 1391.668 651.988 1391.668 675 c 1391.668 698.012 1410.32 716.668 1433.332
 716.668 c 1456.344 716.668 1475 698.012 1475 675 c h
1475 675 m S
0.85098 g
1408.332 525 m 1408.332 501.988 1389.68 483.332 1366.668 483.332 c 1343.656
 483.332 1325 501.988 1325 525 c 1325 548.012 1343.656 566.668 1366.668 
566.668 c 1389.68 566.668 1408.332 548.012 1408.332 525 c h
1408.332 525 m f
0 g
1408.332 525 m 1408.332 501.988 1389.68 483.332 1366.668 483.332 c 1343.656
 483.332 1325 501.988 1325 525 c 1325 548.012 1343.656 566.668 1366.668 
566.668 c 1389.68 566.668 1408.332 548.012 1408.332 525 c h
1408.332 525 m S
0.85098 g
1608.332 525 m 1608.332 501.988 1589.68 483.332 1566.668 483.332 c 1543.656
 483.332 1525 501.988 1525 525 c 1525 548.012 1543.656 566.668 1566.668 
566.668 c 1589.68 566.668 1608.332 548.012 1608.332 525 c h
1608.332 525 m f
0 g
1608.332 525 m 1608.332 501.988 1589.68 483.332 1566.668 483.332 c 1543.656
 483.332 1525 501.988 1525 525 c 1525 548.012 1543.656 566.668 1566.668 
566.668 c 1589.68 566.668 1608.332 548.012 1608.332 525 c h
1608.332 525 m S
0.85098 g
1275 375 m 1275 351.988 1256.344 333.332 1233.332 333.332 c 1210.32 333.332
 1191.668 351.988 1191.668 375 c 1191.668 398.012 1210.32 416.668 1233.332
 416.668 c 1256.344 416.668 1275 398.012 1275 375 c h
1275 375 m f
0 g
1275 375 m 1275 351.988 1256.344 333.332 1233.332 333.332 c 1210.32 333.332
 1191.668 351.988 1191.668 375 c 1191.668 398.012 1210.32 416.668 1233.332
 416.668 c 1256.344 416.668 1275 398.012 1275 375 c h
1275 375 m S
0.85098 g
1475 375 m 1475 351.988 1456.344 333.332 1433.332 333.332 c 1410.32 333.332
 1391.668 351.988 1391.668 375 c 1391.668 398.012 1410.32 416.668 1433.332
 416.668 c 1456.344 416.668 1475 398.012 1475 375 c h
1475 375 m f
0 g
1475 375 m 1475 351.988 1456.344 333.332 1433.332 333.332 c 1410.32 333.332
 1391.668 351.988 1391.668 375 c 1391.668 398.012 1410.32 416.668 1433.332
 416.668 c 1456.344 416.668 1475 398.012 1475 375 c h
1475 375 m S
0.85098 g
1408.332 225 m 1408.332 201.988 1389.68 183.332 1366.668 183.332 c 1343.656
 183.332 1325 201.988 1325 225 c 1325 248.012 1343.656 266.668 1366.668 
266.668 c 1389.68 266.668 1408.332 248.012 1408.332 225 c h
1408.332 225 m f
0 g
1408.332 225 m 1408.332 201.988 1389.68 183.332 1366.668 183.332 c 1343.656
 183.332 1325 201.988 1325 225 c 1325 248.012 1343.656 266.668 1366.668 
266.668 c 1389.68 266.668 1408.332 248.012 1408.332 225 c h
1408.332 225 m S
0.85098 g
1608.332 225 m 1608.332 201.988 1589.68 183.332 1566.668 183.332 c 1543.656
 183.332 1525 201.988 1525 225 c 1525 248.012 1543.656 266.668 1566.668 
266.668 c 1589.68 266.668 1608.332 248.012 1608.332 225 c h
1608.332 225 m f
0 g
1608.332 225 m 1608.332 201.988 1589.68 183.332 1566.668 183.332 c 1543.656
 183.332 1525 201.988 1525 225 c 1525 248.012 1543.656 266.668 1566.668 
266.668 c 1589.68 266.668 1608.332 248.012 1608.332 225 c h
1608.332 225 m S
0.85098 g
1275 75 m 1275 51.988 1256.344 33.332 1233.332 33.332 c 1210.32 33.332 
1191.668 51.988 1191.668 75 c 1191.668 98.012 1210.32 116.668 1233.332 116.668
 c 1256.344 116.668 1275 98.012 1275 75 c h
1275 75 m f
0 g
1275 75 m 1275 51.988 1256.344 33.332 1233.332 33.332 c 1210.32 33.332 
1191.668 51.988 1191.668 75 c 1191.668 98.012 1210.32 116.668 1233.332 116.668
 c 1256.344 116.668 1275 98.012 1275 75 c h
1275 75 m S
0.85098 g
1475 75 m 1475 51.988 1456.344 33.332 1433.332 33.332 c 1410.32 33.332 
1391.668 51.988 1391.668 75 c 1391.668 98.012 1410.32 116.668 1433.332 116.668
 c 1456.344 116.668 1475 98.012 1475 75 c h
1475 75 m f
0 g
1475 75 m 1475 51.988 1456.344 33.332 1433.332 33.332 c 1410.32 33.332 
1391.668 51.988 1391.668 75 c 1391.668 98.012 1410.32 116.668 1433.332 116.668
 c 1456.344 116.668 1475 98.012 1475 75 c h
1475 75 m S
0.85098 g
1808.332 1125 m 1808.332 1101.988 1789.68 1083.332 1766.668 1083.332 c 
1743.656 1083.332 1725 1101.988 1725 1125 c 1725 1148.012 1743.656 1166.668
 1766.668 1166.668 c 1789.68 1166.668 1808.332 1148.012 1808.332 1125 c 
h
1808.332 1125 m f
0 g
1808.332 1125 m 1808.332 1101.988 1789.68 1083.332 1766.668 1083.332 c 
1743.656 1083.332 1725 1101.988 1725 1125 c 1725 1148.012 1743.656 1166.668
 1766.668 1166.668 c 1789.68 1166.668 1808.332 1148.012 1808.332 1125 c 
h
1808.332 1125 m S
0.85098 g
2008.332 1125 m 2008.332 1101.988 1989.68 1083.332 1966.668 1083.332 c 
1943.656 1083.332 1925 1101.988 1925 1125 c 1925 1148.012 1943.656 1166.668
 1966.668 1166.668 c 1989.68 1166.668 2008.332 1148.012 2008.332 1125 c 
h
2008.332 1125 m f
0 g
2008.332 1125 m 2008.332 1101.988 1989.68 1083.332 1966.668 1083.332 c 
1943.656 1083.332 1925 1101.988 1925 1125 c 1925 1148.012 1943.656 1166.668
 1966.668 1166.668 c 1989.68 1166.668 2008.332 1148.012 2008.332 1125 c 
h
2008.332 1125 m S
0.85098 g
1675 975 m 1675 951.988 1656.344 933.332 1633.332 933.332 c 1610.32 933.332
 1591.668 951.988 1591.668 975 c 1591.668 998.012 1610.32 1016.668 1633.332
 1016.668 c 1656.344 1016.668 1675 998.012 1675 975 c h
1675 975 m f
0 g
1675 975 m 1675 951.988 1656.344 933.332 1633.332 933.332 c 1610.32 933.332
 1591.668 951.988 1591.668 975 c 1591.668 998.012 1610.32 1016.668 1633.332
 1016.668 c 1656.344 1016.668 1675 998.012 1675 975 c h
1675 975 m S
0.85098 g
1875 975 m 1875 951.988 1856.344 933.332 1833.332 933.332 c 1810.32 933.332
 1791.668 951.988 1791.668 975 c 1791.668 998.012 1810.32 1016.668 1833.332
 1016.668 c 1856.344 1016.668 1875 998.012 1875 975 c h
1875 975 m f
0 g
1875 975 m 1875 951.988 1856.344 933.332 1833.332 933.332 c 1810.32 933.332
 1791.668 951.988 1791.668 975 c 1791.668 998.012 1810.32 1016.668 1833.332
 1016.668 c 1856.344 1016.668 1875 998.012 1875 975 c h
1875 975 m S
0.85098 g
1808.332 825 m 1808.332 801.988 1789.68 783.332 1766.668 783.332 c 1743.656
 783.332 1725 801.988 1725 825 c 1725 848.012 1743.656 866.668 1766.668 
866.668 c 1789.68 866.668 1808.332 848.012 1808.332 825 c h
1808.332 825 m f
0 g
1808.332 825 m 1808.332 801.988 1789.68 783.332 1766.668 783.332 c 1743.656
 783.332 1725 801.988 1725 825 c 1725 848.012 1743.656 866.668 1766.668 
866.668 c 1789.68 866.668 1808.332 848.012 1808.332 825 c h
1808.332 825 m S
0.85098 g
2008.332 825 m 2008.332 801.988 1989.68 783.332 1966.668 783.332 c 1943.656
 783.332 1925 801.988 1925 825 c 1925 848.012 1943.656 866.668 1966.668 
866.668 c 1989.68 866.668 2008.332 848.012 2008.332 825 c h
2008.332 825 m f
0 g
2008.332 825 m 2008.332 801.988 1989.68 783.332 1966.668 783.332 c 1943.656
 783.332 1925 801.988 1925 825 c 1925 848.012 1943.656 866.668 1966.668 
866.668 c 1989.68 866.668 2008.332 848.012 2008.332 825 c h
2008.332 825 m S
0.85098 g
1675 675 m 1675 651.988 1656.344 633.332 1633.332 633.332 c 1610.32 633.332
 1591.668 651.988 1591.668 675 c 1591.668 698.012 1610.32 716.668 1633.332
 716.668 c 1656.344 716.668 1675 698.012 1675 675 c h
1675 675 m f
0 g
1675 675 m 1675 651.988 1656.344 633.332 1633.332 633.332 c 1610.32 633.332
 1591.668 651.988 1591.668 675 c 1591.668 698.012 1610.32 716.668 1633.332
 716.668 c 1656.344 716.668 1675 698.012 1675 675 c h
1675 675 m S
0.85098 g
1875 675 m 1875 651.988 1856.344 633.332 1833.332 633.332 c 1810.32 633.332
 1791.668 651.988 1791.668 675 c 1791.668 698.012 1810.32 716.668 1833.332
 716.668 c 1856.344 716.668 1875 698.012 1875 675 c h
1875 675 m f
0 g
1875 675 m 1875 651.988 1856.344 633.332 1833.332 633.332 c 1810.32 633.332
 1791.668 651.988 1791.668 675 c 1791.668 698.012 1810.32 716.668 1833.332
 716.668 c 1856.344 716.668 1875 698.012 1875 675 c h
1875 675 m S
0.85098 g
1808.332 525 m 1808.332 501.988 1789.68 483.332 1766.668 483.332 c 1743.656
 483.332 1725 501.988 1725 525 c 1725 548.012 1743.656 566.668 1766.668 
566.668 c 1789.68 566.668 1808.332 548.012 1808.332 525 c h
1808.332 525 m f
0 g
1808.332 525 m 1808.332 501.988 1789.68 483.332 1766.668 483.332 c 1743.656
 483.332 1725 501.988 1725 525 c 1725 548.012 1743.656 566.668 1766.668 
566.668 c 1789.68 566.668 1808.332 548.012 1808.332 525 c h
1808.332 525 m S
0.85098 g
2008.332 525 m 2008.332 501.988 1989.68 483.332 1966.668 483.332 c 1943.656
 483.332 1925 501.988 1925 525 c 1925 548.012 1943.656 566.668 1966.668 
566.668 c 1989.68 566.668 2008.332 548.012 2008.332 525 c h
2008.332 525 m f
0 g
2008.332 525 m 2008.332 501.988 1989.68 483.332 1966.668 483.332 c 1943.656
 483.332 1925 501.988 1925 525 c 1925 548.012 1943.656 566.668 1966.668 
566.668 c 1989.68 566.668 2008.332 548.012 2008.332 525 c h
2008.332 525 m S
0.85098 g
1675 375 m 1675 351.988 1656.344 333.332 1633.332 333.332 c 1610.32 333.332
 1591.668 351.988 1591.668 375 c 1591.668 398.012 1610.32 416.668 1633.332
 416.668 c 1656.344 416.668 1675 398.012 1675 375 c h
1675 375 m f
0 g
1675 375 m 1675 351.988 1656.344 333.332 1633.332 333.332 c 1610.32 333.332
 1591.668 351.988 1591.668 375 c 1591.668 398.012 1610.32 416.668 1633.332
 416.668 c 1656.344 416.668 1675 398.012 1675 375 c h
1675 375 m S
0.85098 g
1875 375 m 1875 351.988 1856.344 333.332 1833.332 333.332 c 1810.32 333.332
 1791.668 351.988 1791.668 375 c 1791.668 398.012 1810.32 416.668 1833.332
 416.668 c 1856.344 416.668 1875 398.012 1875 375 c h
1875 375 m f
0 g
1875 375 m 1875 351.988 1856.344 333.332 1833.332 333.332 c 1810.32 333.332
 1791.668 351.988 1791.668 375 c 1791.668 398.012 1810.32 416.668 1833.332
 416.668 c 1856.344 416.668 1875 398.012 1875 375 c h
1875 375 m S
0.85098 g
1808.332 225 m 1808.332 201.988 1789.68 183.332 1766.668 183.332 c 1743.656
 183.332 1725 201.988 1725 225 c 1725 248.012 1743.656 266.668 1766.668 
266.668 c 1789.68 266.668 1808.332 248.012 1808.332 225 c h
1808.332 225 m f
0 g
1808.332 225 m 1808.332 201.988 1789.68 183.332 1766.668 183.332 c 1743.656
 183.332 1725 201.988 1725 225 c 1725 248.012 1743.656 266.668 1766.668 
266.668 c 1789.68 266.668 1808.332 248.012 1808.332 225 c h
1808.332 225 m S
0.85098 g
2008.332 225 m 2008.332 201.988 1989.68 183.332 1966.668 183.332 c 1943.656
 183.332 1925 201.988 1925 225 c 1925 248.012 1943.656 266.668 1966.668 
266.668 c 1989.68 266.668 2008.332 248.012 2008.332 225 c h
2008.332 225 m f
0 g
2008.332 225 m 2008.332 201.988 1989.68 183.332 1966.668 183.332 c 1943.656
 183.332 1925 201.988 1925 225 c 1925 248.012 1943.656 266.668 1966.668 
266.668 c 1989.68 266.668 2008.332 248.012 2008.332 225 c h
2008.332 225 m S
0.85098 g
1675 75 m 1675 51.988 1656.344 33.332 1633.332 33.332 c 1610.32 33.332 
1591.668 51.988 1591.668 75 c 1591.668 98.012 1610.32 116.668 1633.332 116.668
 c 1656.344 116.668 1675 98.012 1675 75 c h
1675 75 m f
0 g
1675 75 m 1675 51.988 1656.344 33.332 1633.332 33.332 c 1610.32 33.332 
1591.668 51.988 1591.668 75 c 1591.668 98.012 1610.32 116.668 1633.332 116.668
 c 1656.344 116.668 1675 98.012 1675 75 c h
1675 75 m S
0.85098 g
1875 75 m 1875 51.988 1856.344 33.332 1833.332 33.332 c 1810.32 33.332 
1791.668 51.988 1791.668 75 c 1791.668 98.012 1810.32 116.668 1833.332 116.668
 c 1856.344 116.668 1875 98.012 1875 75 c h
1875 75 m f
0 g
1875 75 m 1875 51.988 1856.344 33.332 1833.332 33.332 c 1810.32 33.332 
1791.668 51.988 1791.668 75 c 1791.668 98.012 1810.32 116.668 1833.332 116.668
 c 1856.344 116.668 1875 98.012 1875 75 c h
1875 75 m S
0.85098 g
2208.332 1125 m 2208.332 1101.988 2189.68 1083.332 2166.668 1083.332 c 
2143.656 1083.332 2125 1101.988 2125 1125 c 2125 1148.012 2143.656 1166.668
 2166.668 1166.668 c 2189.68 1166.668 2208.332 1148.012 2208.332 1125 c 
h
2208.332 1125 m f
0 g
2208.332 1125 m 2208.332 1101.988 2189.68 1083.332 2166.668 1083.332 c 
2143.656 1083.332 2125 1101.988 2125 1125 c 2125 1148.012 2143.656 1166.668
 2166.668 1166.668 c 2189.68 1166.668 2208.332 1148.012 2208.332 1125 c 
h
2208.332 1125 m S
0.85098 g
2408.332 1125 m 2408.332 1101.988 2389.68 1083.332 2366.668 1083.332 c 
2343.656 1083.332 2325 1101.988 2325 1125 c 2325 1148.012 2343.656 1166.668
 2366.668 1166.668 c 2389.68 1166.668 2408.332 1148.012 2408.332 1125 c 
h
2408.332 1125 m f
0 g
2408.332 1125 m 2408.332 1101.988 2389.68 1083.332 2366.668 1083.332 c 
2343.656 1083.332 2325 1101.988 2325 1125 c 2325 1148.012 2343.656 1166.668
 2366.668 1166.668 c 2389.68 1166.668 2408.332 1148.012 2408.332 1125 c 
h
2408.332 1125 m S
0.85098 g
2075 975 m 2075 951.988 2056.344 933.332 2033.332 933.332 c 2010.32 933.332
 1991.668 951.988 1991.668 975 c 1991.668 998.012 2010.32 1016.668 2033.332
 1016.668 c 2056.344 1016.668 2075 998.012 2075 975 c h
2075 975 m f
0 g
2075 975 m 2075 951.988 2056.344 933.332 2033.332 933.332 c 2010.32 933.332
 1991.668 951.988 1991.668 975 c 1991.668 998.012 2010.32 1016.668 2033.332
 1016.668 c 2056.344 1016.668 2075 998.012 2075 975 c h
2075 975 m S
0.85098 g
2275 975 m 2275 951.988 2256.344 933.332 2233.332 933.332 c 2210.32 933.332
 2191.668 951.988 2191.668 975 c 2191.668 998.012 2210.32 1016.668 2233.332
 1016.668 c 2256.344 1016.668 2275 998.012 2275 975 c h
2275 975 m f
0 g
2275 975 m 2275 951.988 2256.344 933.332 2233.332 933.332 c 2210.32 933.332
 2191.668 951.988 2191.668 975 c 2191.668 998.012 2210.32 1016.668 2233.332
 1016.668 c 2256.344 1016.668 2275 998.012 2275 975 c h
2275 975 m S
0.85098 g
2208.332 825 m 2208.332 801.988 2189.68 783.332 2166.668 783.332 c 2143.656
 783.332 2125 801.988 2125 825 c 2125 848.012 2143.656 866.668 2166.668 
866.668 c 2189.68 866.668 2208.332 848.012 2208.332 825 c h
2208.332 825 m f
0 g
2208.332 825 m 2208.332 801.988 2189.68 783.332 2166.668 783.332 c 2143.656
 783.332 2125 801.988 2125 825 c 2125 848.012 2143.656 866.668 2166.668 
866.668 c 2189.68 866.668 2208.332 848.012 2208.332 825 c h
2208.332 825 m S
0.85098 g
2408.332 825 m 2408.332 801.988 2389.68 783.332 2366.668 783.332 c 2343.656
 783.332 2325 801.988 2325 825 c 2325 848.012 2343.656 866.668 2366.668 
866.668 c 2389.68 866.668 2408.332 848.012 2408.332 825 c h
2408.332 825 m f
0 g
2408.332 825 m 2408.332 801.988 2389.68 783.332 2366.668 783.332 c 2343.656
 783.332 2325 801.988 2325 825 c 2325 848.012 2343.656 866.668 2366.668 
866.668 c 2389.68 866.668 2408.332 848.012 2408.332 825 c h
2408.332 825 m S
0.85098 g
2075 675 m 2075 651.988 2056.344 633.332 2033.332 633.332 c 2010.32 633.332
 1991.668 651.988 1991.668 675 c 1991.668 698.012 2010.32 716.668 2033.332
 716.668 c 2056.344 716.668 2075 698.012 2075 675 c h
2075 675 m f
0 g
2075 675 m 2075 651.988 2056.344 633.332 2033.332 633.332 c 2010.32 633.332
 1991.668 651.988 1991.668 675 c 1991.668 698.012 2010.32 716.668 2033.332
 716.668 c 2056.344 716.668 2075 698.012 2075 675 c h
2075 675 m S
0.85098 g
2275 675 m 2275 651.988 2256.344 633.332 2233.332 633.332 c 2210.32 633.332
 2191.668 651.988 2191.668 675 c 2191.668 698.012 2210.32 716.668 2233.332
 716.668 c 2256.344 716.668 2275 698.012 2275 675 c h
2275 675 m f
0 g
2275 675 m 2275 651.988 2256.344 633.332 2233.332 633.332 c 2210.32 633.332
 2191.668 651.988 2191.668 675 c 2191.668 698.012 2210.32 716.668 2233.332
 716.668 c 2256.344 716.668 2275 698.012 2275 675 c h
2275 675 m S
0.85098 g
2208.332 525 m 2208.332 501.988 2189.68 483.332 2166.668 483.332 c 2143.656
 483.332 2125 501.988 2125 525 c 2125 548.012 2143.656 566.668 2166.668 
566.668 c 2189.68 566.668 2208.332 548.012 2208.332 525 c h
2208.332 525 m f
0 g
2208.332 525 m 2208.332 501.988 2189.68 483.332 2166.668 483.332 c 2143.656
 483.332 2125 501.988 2125 525 c 2125 548.012 2143.656 566.668 2166.668 
566.668 c 2189.68 566.668 2208.332 548.012 2208.332 525 c h
2208.332 525 m S
0.85098 g
2408.332 525 m 2408.332 501.988 2389.68 483.332 2366.668 483.332 c 2343.656
 483.332 2325 501.988 2325 525 c 2325 548.012 2343.656 566.668 2366.668 
566.668 c 2389.68 566.668 2408.332 548.012 2408.332 525 c h
2408.332 525 m f
0 g
2408.332 525 m 2408.332 501.988 2389.68 483.332 2366.668 483.332 c 2343.656
 483.332 2325 501.988 2325 525 c 2325 548.012 2343.656 566.668 2366.668 
566.668 c 2389.68 566.668 2408.332 548.012 2408.332 525 c h
2408.332 525 m S
0.85098 g
2075 375 m 2075 351.988 2056.344 333.332 2033.332 333.332 c 2010.32 333.332
 1991.668 351.988 1991.668 375 c 1991.668 398.012 2010.32 416.668 2033.332
 416.668 c 2056.344 416.668 2075 398.012 2075 375 c h
2075 375 m f
0 g
2075 375 m 2075 351.988 2056.344 333.332 2033.332 333.332 c 2010.32 333.332
 1991.668 351.988 1991.668 375 c 1991.668 398.012 2010.32 416.668 2033.332
 416.668 c 2056.344 416.668 2075 398.012 2075 375 c h
2075 375 m S
0.85098 g
2275 375 m 2275 351.988 2256.344 333.332 2233.332 333.332 c 2210.32 333.332
 2191.668 351.988 2191.668 375 c 2191.668 398.012 2210.32 416.668 2233.332
 416.668 c 2256.344 416.668 2275 398.012 2275 375 c h
2275 375 m f
0 g
2275 375 m 2275 351.988 2256.344 333.332 2233.332 333.332 c 2210.32 333.332
 2191.668 351.988 2191.668 375 c 2191.668 398.012 2210.32 416.668 2233.332
 416.668 c 2256.344 416.668 2275 398.012 2275 375 c h
2275 375 m S
0.85098 g
2208.332 225 m 2208.332 201.988 2189.68 183.332 2166.668 183.332 c 2143.656
 183.332 2125 201.988 2125 225 c 2125 248.012 2143.656 266.668 2166.668 
266.668 c 2189.68 266.668 2208.332 248.012 2208.332 225 c h
2208.332 225 m f
0 g
2208.332 225 m 2208.332 201.988 2189.68 183.332 2166.668 183.332 c 2143.656
 183.332 2125 201.988 2125 225 c 2125 248.012 2143.656 266.668 2166.668 
266.668 c 2189.68 266.668 2208.332 248.012 2208.332 225 c h
2208.332 225 m S
0.85098 g
2408.332 225 m 2408.332 201.988 2389.68 183.332 2366.668 183.332 c 2343.656
 183.332 2325 201.988 2325 225 c 2325 248.012 2343.656 266.668 2366.668 
266.668 c 2389.68 266.668 2408.332 248.012 2408.332 225 c h
2408.332 225 m f
0 g
2408.332 225 m 2408.332 201.988 2389.68 183.332 2366.668 183.332 c 2343.656
 183.332 2325 201.988 2325 225 c 2325 248.012 2343.656 266.668 2366.668 
266.668 c 2389.68 266.668 2408.332 248.012 2408.332 225 c h
2408.332 225 m S
0.85098 g
2075 75 m 2075 51.988 2056.344 33.332 2033.332 33.332 c 2010.32 33.332 
1991.668 51.988 1991.668 75 c 1991.668 98.012 2010.32 116.668 2033.332 116.668
 c 2056.344 116.668 2075 98.012 2075 75 c h
2075 75 m f
0 g
2075 75 m 2075 51.988 2056.344 33.332 2033.332 33.332 c 2010.32 33.332 
1991.668 51.988 1991.668 75 c 1991.668 98.012 2010.32 116.668 2033.332 116.668
 c 2056.344 116.668 2075 98.012 2075 75 c h
2075 75 m S
0.85098 g
2275 75 m 2275 51.988 2256.344 33.332 2233.332 33.332 c 2210.32 33.332 
2191.668 51.988 2191.668 75 c 2191.668 98.012 2210.32 116.668 2233.332 116.668
 c 2256.344 116.668 2275 98.012 2275 75 c h
2275 75 m f
0 g
2275 75 m 2275 51.988 2256.344 33.332 2233.332 33.332 c 2210.32 33.332 
2191.668 51.988 2191.668 75 c 2191.668 98.012 2210.32 116.668 2233.332 116.668
 c 2256.344 116.668 2275 98.012 2275 75 c h
2275 75 m S
Q Q
showpage
%%Trailer
%%Trailer
cleartomark
countdictstack
exch sub { end } repeat
restore
%%EOF
