<svg xmlns="http://www.w3.org/2000/svg" baseProfile="full" width="2400" height="1200" viewBox="-100.0 -75.0 2400.0 1200.0">
    <title>
        Pattern design from http://ornamentist.org
    </title>
    <desc>
        This file is licensed under a Creative Commons CC BY 4.0 license: http://creativecommons.org/licenses/by/4.0/
    </desc>
    <defs>
        <style>
<![CDATA[
        
polyline {
  fill:            none;
  stroke:          black;
  stroke-linecap:  round;
  stroke-linejoin: round;
  stroke-width:    2.0pt;
}


polyline.closed {
  fill:      #d9d9d9;
  fill-rule: evenodd;
}


polygon {
  fill:            #d9d9d9;
  fill-rule:       evenodd;
  stroke:          black;
  stroke-linejoin: round;
  stroke-width:    2.0pt;
}


circle {
  fill:         #d9d9d9;
  stroke:       black;
  stroke-width: 2.0pt;
}


ellipse {
  fill:         #d9d9d9;
  stroke:       black;
  stroke-width: 2.0pt;
}


path {
  fill:            none;
  stroke:          black;
  stroke-linecap:  round;
  stroke-linejoin: round;
  stroke-width:    2.0pt;
}


path.closed {
  fill:      #d9d9d9;
  fill-rule: evenodd;
}


polygon.background,
path.background
{
  fill:   #fbfbfb;
  stroke: #c9c9c9;
  stroke-width: 1.5pt;
}

        ]]>
        </style>
    </defs>
    <clipPath id="design">
        <path d="M-100-75h2400v1200H-100z"/>
    </clipPath>
    <g clip-path="url(#design)" color-rendering="optimizeQuality" shape-rendering="geometricPrecision" id="graphics">
        <path class="background closed" d="M2300-75v1200H-100V-75z"/>
        <circle cx="66.667" r="41.667" class="circle-2-1 closed"/>
        <circle cx="266.667" r="41.667" class="circle-2-1 closed"/>
        <circle cx="-66.667" cy="150" r="41.667" class="circle-2-1 closed"/>
        <circle cx="133.333" cy="150" r="41.667" class="circle-2-1 closed"/>
        <circle cx="66.667" cy="300" r="41.667" class="circle-2-1 closed"/>
        <circle cx="266.667" cy="300" r="41.667" class="circle-2-1 closed"/>
        <circle cx="-66.667" cy="450" r="41.667" class="circle-2-1 closed"/>
        <circle cx="133.333" cy="450" r="41.667" class="circle-2-1 closed"/>
        <circle cx="66.667" cy="600" r="41.667" class="circle-2-1 closed"/>
        <circle cx="266.667" cy="600" r="41.667" class="circle-2-1 closed"/>
        <circle cx="-66.667" cy="750" r="41.667" class="circle-2-1 closed"/>
        <circle cx="133.333" cy="750" r="41.667" class="circle-2-1 closed"/>
        <circle cx="66.667" cy="900" r="41.667" class="circle-2-1 closed"/>
        <circle cx="266.667" cy="900" r="41.667" class="circle-2-1 closed"/>
        <circle cx="-66.667" cy="1050" r="41.667" class="circle-2-1 closed"/>
        <circle cx="133.333" cy="1050" r="41.667" class="circle-2-1 closed"/>
        <circle cx="466.667" r="41.667" class="circle-2-1 closed"/>
        <circle cx="666.667" r="41.667" class="circle-2-1 closed"/>
        <circle cx="333.333" cy="150" r="41.667" class="circle-2-1 closed"/>
        <circle cx="533.333" cy="150" r="41.667" class="circle-2-1 closed"/>
        <circle cx="466.667" cy="300" r="41.667" class="circle-2-1 closed"/>
        <circle cx="666.667" cy="300" r="41.667" class="circle-2-1 closed"/>
        <circle cx="333.333" cy="450" r="41.667" class="circle-2-1 closed"/>
        <circle cx="533.333" cy="450" r="41.667" class="circle-2-1 closed"/>
        <circle cx="466.667" cy="600" r="41.667" class="circle-2-1 closed"/>
        <circle cx="666.667" cy="600" r="41.667" class="circle-2-1 closed"/>
        <circle cx="333.333" cy="750" r="41.667" class="circle-2-1 closed"/>
        <circle cx="533.333" cy="750" r="41.667" class="circle-2-1 closed"/>
        <circle cx="466.667" cy="900" r="41.667" class="circle-2-1 closed"/>
        <circle cx="666.667" cy="900" r="41.667" class="circle-2-1 closed"/>
        <circle cx="333.333" cy="1050" r="41.667" class="circle-2-1 closed"/>
        <circle cx="533.333" cy="1050" r="41.667" class="circle-2-1 closed"/>
        <circle cx="866.667" r="41.667" class="circle-2-1 closed"/>
        <circle cx="1066.667" r="41.667" class="circle-2-1 closed"/>
        <circle cx="733.333" cy="150" r="41.667" class="circle-2-1 closed"/>
        <circle cx="933.333" cy="150" r="41.667" class="circle-2-1 closed"/>
        <circle cx="866.667" cy="300" r="41.667" class="circle-2-1 closed"/>
        <circle cx="1066.667" cy="300" r="41.667" class="circle-2-1 closed"/>
        <circle cx="733.333" cy="450" r="41.667" class="circle-2-1 closed"/>
        <circle cx="933.333" cy="450" r="41.667" class="circle-2-1 closed"/>
        <circle cx="866.667" cy="600" r="41.667" class="circle-2-1 closed"/>
        <circle cx="1066.667" cy="600" r="41.667" class="circle-2-1 closed"/>
        <circle cx="733.333" cy="750" r="41.667" class="circle-2-1 closed"/>
        <circle cx="933.333" cy="750" r="41.667" class="circle-2-1 closed"/>
        <circle cx="866.667" cy="900" r="41.667" class="circle-2-1 closed"/>
        <circle cx="1066.667" cy="900" r="41.667" class="circle-2-1 closed"/>
        <circle cx="733.333" cy="1050" r="41.667" class="circle-2-1 closed"/>
        <circle cx="933.333" cy="1050" r="41.667" class="circle-2-1 closed"/>
        <circle cx="1266.667" r="41.667" class="circle-2-1 closed"/>
        <circle cx="1466.667" r="41.667" class="circle-2-1 closed"/>
        <circle cx="1133.333" cy="150" r="41.667" class="circle-2-1 closed"/>
        <circle cx="1333.333" cy="150" r="41.667" class="circle-2-1 closed"/>
        <circle cx="1266.667" cy="300" r="41.667" class="circle-2-1 closed"/>
        <circle cx="1466.667" cy="300" r="41.667" class="circle-2-1 closed"/>
        <circle cx="1133.333" cy="450" r="41.667" class="circle-2-1 closed"/>
        <circle cx="1333.333" cy="450" r="41.667" class="circle-2-1 closed"/>
        <circle cx="1266.667" cy="600" r="41.667" class="circle-2-1 closed"/>
        <circle cx="1466.667" cy="600" r="41.667" class="circle-2-1 closed"/>
        <circle cx="1133.333" cy="750" r="41.667" class="circle-2-1 closed"/>
        <circle cx="1333.333" cy="750" r="41.667" class="circle-2-1 closed"/>
        <circle cx="1266.667" cy="900" r="41.667" class="circle-2-1 closed"/>
        <circle cx="1466.667" cy="900" r="41.667" class="circle-2-1 closed"/>
        <circle cx="1133.333" cy="1050" r="41.667" class="circle-2-1 closed"/>
        <circle cx="1333.333" cy="1050" r="41.667" class="circle-2-1 closed"/>
        <circle cx="1666.667" r="41.667" class="circle-2-1 closed"/>
        <circle cx="1866.667" r="41.667" class="circle-2-1 closed"/>
        <circle cx="1533.333" cy="150" r="41.667" class="circle-2-1 closed"/>
        <circle cx="1733.333" cy="150" r="41.667" class="circle-2-1 closed"/>
        <circle cx="1666.667" cy="300" r="41.667" class="circle-2-1 closed"/>
        <circle cx="1866.667" cy="300" r="41.667" class="circle-2-1 closed"/>
        <circle cx="1533.333" cy="450" r="41.667" class="circle-2-1 closed"/>
        <circle cx="1733.333" cy="450" r="41.667" class="circle-2-1 closed"/>
        <circle cx="1666.667" cy="600" r="41.667" class="circle-2-1 closed"/>
        <circle cx="1866.667" cy="600" r="41.667" class="circle-2-1 closed"/>
        <circle cx="1533.333" cy="750" r="41.667" class="circle-2-1 closed"/>
        <circle cx="1733.333" cy="750" r="41.667" class="circle-2-1 closed"/>
        <circle cx="1666.667" cy="900" r="41.667" class="circle-2-1 closed"/>
        <circle cx="1866.667" cy="900" r="41.667" class="circle-2-1 closed"/>
        <circle cx="1533.333" cy="1050" r="41.667" class="circle-2-1 closed"/>
        <circle cx="1733.333" cy="1050" r="41.667" class="circle-2-1 closed"/>
        <circle cx="2066.667" r="41.667" class="circle-2-1 closed"/>
        <circle cx="2266.667" r="41.667" class="circle-2-1 closed"/>
        <circle cx="1933.333" cy="150" r="41.667" class="circle-2-1 closed"/>
        <circle cx="2133.333" cy="150" r="41.667" class="circle-2-1 closed"/>
        <circle cx="2066.667" cy="300" r="41.667" class="circle-2-1 closed"/>
        <circle cx="2266.667" cy="300" r="41.667" class="circle-2-1 closed"/>
        <circle cx="1933.333" cy="450" r="41.667" class="circle-2-1 closed"/>
        <circle cx="2133.333" cy="450" r="41.667" class="circle-2-1 closed"/>
        <circle cx="2066.667" cy="600" r="41.667" class="circle-2-1 closed"/>
        <circle cx="2266.667" cy="600" r="41.667" class="circle-2-1 closed"/>
        <circle cx="1933.333" cy="750" r="41.667" class="circle-2-1 closed"/>
        <circle cx="2133.333" cy="750" r="41.667" class="circle-2-1 closed"/>
        <circle cx="2066.667" cy="900" r="41.667" class="circle-2-1 closed"/>
        <circle cx="2266.667" cy="900" r="41.667" class="circle-2-1 closed"/>
        <circle cx="1933.333" cy="1050" r="41.667" class="circle-2-1 closed"/>
        <circle cx="2133.333" cy="1050" r="41.667" class="circle-2-1 closed"/>
    </g>
</svg>
