%!PS-Adobe-2.0 EPSF-2.0
%%BoundingBox: 0 0 2400 1200
%%HiResBoundingBox: 0.000000 0.000000 2400.000000 1200.000000
%%Creator: cairo 1.14.2 (http://cairographics.org)
%%CreationDate: Mon Sep  7 08:21:36 2015
%%DocumentData: Clean7Bit
%%LanguageLevel: 2
%%DocumentMedia: 847x423mm 2400 1200 0 () ()
%%EndComments
% EPSF created by ps2eps 1.68
%%BeginProlog
save
countdictstack
mark
newpath
/showpage {} def
/setpagedevice {pop} def
%%EndProlog
%%Page 1 1
%%BeginProlog
/languagelevel where
{ pop languagelevel } { 1 } ifelse
2 lt { /Helvetica findfont 12 scalefont setfont 50 500 moveto
  (This print job requires a PostScript Language Level 2 printer.) show
  showpage quit } if
/q { gsave } bind def
/Q { grestore } bind def
/cm { 6 array astore concat } bind def
/w { setlinewidth } bind def
/J { setlinecap } bind def
/j { setlinejoin } bind def
/M { setmiterlimit } bind def
/d { setdash } bind def
/m { moveto } bind def
/l { lineto } bind def
/c { curveto } bind def
/h { closepath } bind def
/re { exch dup neg 3 1 roll 5 3 roll moveto 0 rlineto
      0 exch rlineto 0 rlineto closepath } bind def
/S { stroke } bind def
/f { fill } bind def
/f* { eofill } bind def
/n { newpath } bind def
/W { clip } bind def
/W* { eoclip } bind def
/BT { } bind def
/ET { } bind def
/pdfmark where { pop globaldict /?pdfmark /exec load put }
    { globaldict begin /?pdfmark /pop load def /pdfmark
    /cleartomark load def end } ifelse
/BDC { mark 3 1 roll /BDC pdfmark } bind def
/EMC { mark /EMC pdfmark } bind def
/cairo_store_point { /cairo_point_y exch def /cairo_point_x exch def } def
/Tj { show currentpoint cairo_store_point } bind def
/TJ {
  {
    dup
    type /stringtype eq
    { show } { -0.001 mul 0 cairo_font_matrix dtransform rmoveto } ifelse
  } forall
  currentpoint cairo_store_point
} bind def
/cairo_selectfont { cairo_font_matrix aload pop pop pop 0 0 6 array astore
    cairo_font exch selectfont cairo_point_x cairo_point_y moveto } bind def
/Tf { pop /cairo_font exch def /cairo_font_matrix where
      { pop cairo_selectfont } if } bind def
/Td { matrix translate cairo_font_matrix matrix concatmatrix dup
      /cairo_font_matrix exch def dup 4 get exch 5 get cairo_store_point
      /cairo_font where { pop cairo_selectfont } if } bind def
/Tm { 2 copy 8 2 roll 6 array astore /cairo_font_matrix exch def
      cairo_store_point /cairo_font where { pop cairo_selectfont } if } bind def
/g { setgray } bind def
/rg { setrgbcolor } bind def
/d1 { setcachedevice } bind def
/cairo_set_page_size {
  % Change paper size, but only if different from previous paper size otherwise
  % duplex fails. PLRM specifies a tolerance of 5 pts when matching paper size
  % so we use the same when checking if the size changes.
  /setpagedevice where {
    pop currentpagedevice
    /PageSize known {
      2 copy
      currentpagedevice /PageSize get aload pop
      exch 4 1 roll
      sub abs 5 gt
      3 1 roll
      sub abs 5 gt
      or
    } {
      true
    } ifelse
    {
      2 array astore
      2 dict begin
        /PageSize exch def
        /ImagingBBox null def
      currentdict end
      setpagedevice
    } {
      pop pop
    } ifelse
  } {
    pop
  } ifelse
} def
%%EndProlog
%%BeginSetup
%%EndSetup
%%Page: 1 1
%%BeginPageSetup
%%PageMedia: 847x423mm
%%PageBoundingBox: 0 0 2400 1200
2400 1200 cairo_set_page_size
%%EndPageSetup
q 0 0 2400 1200 rectclip q
0.984314 g
0 0 2400 1200 rectfill
0.788235 g
1.875 w
0 J
1 j
[] 0.0 d
4 M 0 1200 2400 -1200 re S
0 g
2.5 w
1 J
200 1100 m 200 1050 l 200 1150 l 133.332 1200 l S
200 1100 m 200 1050 l 200 1150 l 266.668 1200 l S
200 1000 m 200 1050 l 200 950 l 133.332 900 l S
200 1000 m 200 1050 l 200 950 l 266.668 900 l S
200 800 m 200 750 l 200 850 l 133.332 900 l S
200 800 m 200 750 l 200 850 l 266.668 900 l S
200 700 m 200 750 l 200 650 l 133.332 600 l S
200 700 m 200 750 l 200 650 l 266.668 600 l S
200 500 m 200 450 l 200 550 l 133.332 600 l S
200 500 m 200 450 l 200 550 l 266.668 600 l S
200 400 m 200 450 l 200 350 l 133.332 300 l S
200 400 m 200 450 l 200 350 l 266.668 300 l S
200 200 m 200 150 l 200 250 l 133.332 300 l S
200 200 m 200 150 l 200 250 l 266.668 300 l S
200 100 m 200 150 l 200 50 l 133.332 0 l S
200 100 m 200 150 l 200 50 l 266.668 0 l S
600 1100 m 600 1050 l 600 1150 l 533.332 1200 l S
600 1100 m 600 1050 l 600 1150 l 666.668 1200 l S
600 1000 m 600 1050 l 600 950 l 533.332 900 l S
600 1000 m 600 1050 l 600 950 l 666.668 900 l S
600 800 m 600 750 l 600 850 l 533.332 900 l S
600 800 m 600 750 l 600 850 l 666.668 900 l S
600 700 m 600 750 l 600 650 l 533.332 600 l S
600 700 m 600 750 l 600 650 l 666.668 600 l S
600 500 m 600 450 l 600 550 l 533.332 600 l S
600 500 m 600 450 l 600 550 l 666.668 600 l S
600 400 m 600 450 l 600 350 l 533.332 300 l S
600 400 m 600 450 l 600 350 l 666.668 300 l S
600 200 m 600 150 l 600 250 l 533.332 300 l S
600 200 m 600 150 l 600 250 l 666.668 300 l S
600 100 m 600 150 l 600 50 l 533.332 0 l S
600 100 m 600 150 l 600 50 l 666.668 0 l S
1000 1100 m 1000 1050 l 1000 1150 l 933.332 1200 l S
1000 1100 m 1000 1050 l 1000 1150 l 1066.668 1200 l S
1000 1000 m 1000 1050 l 1000 950 l 933.332 900 l S
1000 1000 m 1000 1050 l 1000 950 l 1066.668 900 l S
1000 800 m 1000 750 l 1000 850 l 933.332 900 l S
1000 800 m 1000 750 l 1000 850 l 1066.668 900 l S
1000 700 m 1000 750 l 1000 650 l 933.332 600 l S
1000 700 m 1000 750 l 1000 650 l 1066.668 600 l S
1000 500 m 1000 450 l 1000 550 l 933.332 600 l S
1000 500 m 1000 450 l 1000 550 l 1066.668 600 l S
1000 400 m 1000 450 l 1000 350 l 933.332 300 l S
1000 400 m 1000 450 l 1000 350 l 1066.668 300 l S
1000 200 m 1000 150 l 1000 250 l 933.332 300 l S
1000 200 m 1000 150 l 1000 250 l 1066.668 300 l S
1000 100 m 1000 150 l 1000 50 l 933.332 0 l S
1000 100 m 1000 150 l 1000 50 l 1066.668 0 l S
1400 1100 m 1400 1050 l 1400 1150 l 1333.332 1200 l S
1400 1100 m 1400 1050 l 1400 1150 l 1466.668 1200 l S
1400 1000 m 1400 1050 l 1400 950 l 1333.332 900 l S
1400 1000 m 1400 1050 l 1400 950 l 1466.668 900 l S
1400 800 m 1400 750 l 1400 850 l 1333.332 900 l S
1400 800 m 1400 750 l 1400 850 l 1466.668 900 l S
1400 700 m 1400 750 l 1400 650 l 1333.332 600 l S
1400 700 m 1400 750 l 1400 650 l 1466.668 600 l S
1400 500 m 1400 450 l 1400 550 l 1333.332 600 l S
1400 500 m 1400 450 l 1400 550 l 1466.668 600 l S
1400 400 m 1400 450 l 1400 350 l 1333.332 300 l S
1400 400 m 1400 450 l 1400 350 l 1466.668 300 l S
1400 200 m 1400 150 l 1400 250 l 1333.332 300 l S
1400 200 m 1400 150 l 1400 250 l 1466.668 300 l S
1400 100 m 1400 150 l 1400 50 l 1333.332 0 l S
1400 100 m 1400 150 l 1400 50 l 1466.668 0 l S
1800 1100 m 1800 1050 l 1800 1150 l 1733.332 1200 l S
1800 1100 m 1800 1050 l 1800 1150 l 1866.668 1200 l S
1800 1000 m 1800 1050 l 1800 950 l 1733.332 900 l S
1800 1000 m 1800 1050 l 1800 950 l 1866.668 900 l S
1800 800 m 1800 750 l 1800 850 l 1733.332 900 l S
1800 800 m 1800 750 l 1800 850 l 1866.668 900 l S
1800 700 m 1800 750 l 1800 650 l 1733.332 600 l S
1800 700 m 1800 750 l 1800 650 l 1866.668 600 l S
1800 500 m 1800 450 l 1800 550 l 1733.332 600 l S
1800 500 m 1800 450 l 1800 550 l 1866.668 600 l S
1800 400 m 1800 450 l 1800 350 l 1733.332 300 l S
1800 400 m 1800 450 l 1800 350 l 1866.668 300 l S
1800 200 m 1800 150 l 1800 250 l 1733.332 300 l S
1800 200 m 1800 150 l 1800 250 l 1866.668 300 l S
1800 100 m 1800 150 l 1800 50 l 1733.332 0 l S
1800 100 m 1800 150 l 1800 50 l 1866.668 0 l S
2200 1100 m 2200 1050 l 2200 1150 l 2133.332 1200 l S
2200 1100 m 2200 1050 l 2200 1150 l 2266.668 1200 l S
2200 1000 m 2200 1050 l 2200 950 l 2133.332 900 l S
2200 1000 m 2200 1050 l 2200 950 l 2266.668 900 l S
2200 800 m 2200 750 l 2200 850 l 2133.332 900 l S
2200 800 m 2200 750 l 2200 850 l 2266.668 900 l S
2200 700 m 2200 750 l 2200 650 l 2133.332 600 l S
2200 700 m 2200 750 l 2200 650 l 2266.668 600 l S
2200 500 m 2200 450 l 2200 550 l 2133.332 600 l S
2200 500 m 2200 450 l 2200 550 l 2266.668 600 l S
2200 400 m 2200 450 l 2200 350 l 2133.332 300 l S
2200 400 m 2200 450 l 2200 350 l 2266.668 300 l S
2200 200 m 2200 150 l 2200 250 l 2133.332 300 l S
2200 200 m 2200 150 l 2200 250 l 2266.668 300 l S
2200 100 m 2200 150 l 2200 50 l 2133.332 0 l S
2200 100 m 2200 150 l 2200 50 l 2266.668 0 l S
Q Q
showpage
%%Trailer
%%Trailer
cleartomark
countdictstack
exch sub { end } repeat
restore
%%EOF
