%!PS-Adobe-2.0 EPSF-2.0
%%BoundingBox: 0 0 800 693
%%HiResBoundingBox: 0.000000 0.000000 800.000000 693.000000
%%Creator: cairo 1.14.2 (http://cairographics.org)
%%CreationDate: Mon Sep  7 08:21:36 2015
%%DocumentData: Clean7Bit
%%LanguageLevel: 2
%%DocumentMedia: 282x244mm 800 693 0 () ()
%%EndComments
% EPSF created by ps2eps 1.68
%%BeginProlog
save
countdictstack
mark
newpath
/showpage {} def
/setpagedevice {pop} def
%%EndProlog
%%Page 1 1
%%BeginProlog
/languagelevel where
{ pop languagelevel } { 1 } ifelse
2 lt { /Helvetica findfont 12 scalefont setfont 50 500 moveto
  (This print job requires a PostScript Language Level 2 printer.) show
  showpage quit } if
/q { gsave } bind def
/Q { grestore } bind def
/cm { 6 array astore concat } bind def
/w { setlinewidth } bind def
/J { setlinecap } bind def
/j { setlinejoin } bind def
/M { setmiterlimit } bind def
/d { setdash } bind def
/m { moveto } bind def
/l { lineto } bind def
/c { curveto } bind def
/h { closepath } bind def
/re { exch dup neg 3 1 roll 5 3 roll moveto 0 rlineto
      0 exch rlineto 0 rlineto closepath } bind def
/S { stroke } bind def
/f { fill } bind def
/f* { eofill } bind def
/n { newpath } bind def
/W { clip } bind def
/W* { eoclip } bind def
/BT { } bind def
/ET { } bind def
/pdfmark where { pop globaldict /?pdfmark /exec load put }
    { globaldict begin /?pdfmark /pop load def /pdfmark
    /cleartomark load def end } ifelse
/BDC { mark 3 1 roll /BDC pdfmark } bind def
/EMC { mark /EMC pdfmark } bind def
/cairo_store_point { /cairo_point_y exch def /cairo_point_x exch def } def
/Tj { show currentpoint cairo_store_point } bind def
/TJ {
  {
    dup
    type /stringtype eq
    { show } { -0.001 mul 0 cairo_font_matrix dtransform rmoveto } ifelse
  } forall
  currentpoint cairo_store_point
} bind def
/cairo_selectfont { cairo_font_matrix aload pop pop pop 0 0 6 array astore
    cairo_font exch selectfont cairo_point_x cairo_point_y moveto } bind def
/Tf { pop /cairo_font exch def /cairo_font_matrix where
      { pop cairo_selectfont } if } bind def
/Td { matrix translate cairo_font_matrix matrix concatmatrix dup
      /cairo_font_matrix exch def dup 4 get exch 5 get cairo_store_point
      /cairo_font where { pop cairo_selectfont } if } bind def
/Tm { 2 copy 8 2 roll 6 array astore /cairo_font_matrix exch def
      cairo_store_point /cairo_font where { pop cairo_selectfont } if } bind def
/g { setgray } bind def
/rg { setrgbcolor } bind def
/d1 { setcachedevice } bind def
/cairo_set_page_size {
  % Change paper size, but only if different from previous paper size otherwise
  % duplex fails. PLRM specifies a tolerance of 5 pts when matching paper size
  % so we use the same when checking if the size changes.
  /setpagedevice where {
    pop currentpagedevice
    /PageSize known {
      2 copy
      currentpagedevice /PageSize get aload pop
      exch 4 1 roll
      sub abs 5 gt
      3 1 roll
      sub abs 5 gt
      or
    } {
      true
    } ifelse
    {
      2 array astore
      2 dict begin
        /PageSize exch def
        /ImagingBBox null def
      currentdict end
      setpagedevice
    } {
      pop pop
    } ifelse
  } {
    pop
  } ifelse
} def
%%EndProlog
%%BeginSetup
%%EndSetup
%%Page: 1 1
%%BeginPageSetup
%%PageMedia: 282x244mm
%%PageBoundingBox: 0 0 800 693
800 693 cairo_set_page_size
%%EndPageSetup
q 0 0 800 693 rectclip q
Q q
0.984314 g
0 693 800 -692.82 re f*
0.788235 g
1.875 w
0 J
1 j
[] 0.0 d
4 M 0 693 800 -692.82 re S
0.85098 g
133.332 693 m 133.332 702.203 118.41 709.668 100 709.668 c 81.59 709.668
 66.668 702.203 66.668 693 c 66.668 683.797 81.59 676.332 100 676.332 c 
118.41 676.332 133.332 683.797 133.332 693 c h
133.332 693 m f
0 g
2.5 w
0 j
133.332 693 m 133.332 702.203 118.41 709.668 100 709.668 c 81.59 709.668
 66.668 702.203 66.668 693 c 66.668 683.797 81.59 676.332 100 676.332 c 
118.41 676.332 133.332 683.797 133.332 693 c h
133.332 693 m S
0.85098 g
133.332 577.531 m 141.305 572.926 155.23 582.121 164.434 598.062 c 173.637
 614.008 174.637 630.664 166.668 635.266 c 158.695 639.867 144.77 630.676
 135.566 614.73 c 126.363 598.789 125.363 582.133 133.332 577.531 c h
133.332 577.531 m f
0 g
2.165064 w
q -0.57735 -1 -1 0.57735 0 693 cm
28.867 -149.998 m 28.869 -157.972 15.942 -164.435 0.001 -164.434 c -15.943
 -164.432 -28.868 -157.97 -28.869 -150.001 c -28.867 -142.029 -15.944 -135.564
 0 -135.567 c 15.941 -135.567 28.866 -142.029 28.867 -149.998 c h
28.867 -149.998 m S Q
0.85098 g
33.332 519.793 m 33.332 529 18.41 536.461 0 536.461 c -18.41 536.461 -33.332
 529 -33.332 519.793 c -33.332 510.59 -18.41 503.129 0 503.129 c 18.41 503.129
 33.332 510.59 33.332 519.793 c h
33.332 519.793 m f
0 g
2.5 w
33.332 519.793 m 33.332 529 18.41 536.461 0 536.461 c -18.41 536.461 -33.332
 529 -33.332 519.793 c -33.332 510.59 -18.41 503.129 0 503.129 c 18.41 503.129
 33.332 510.59 33.332 519.793 c h
33.332 519.793 m S
0.85098 g
33.332 404.324 m 41.305 399.723 55.23 408.914 64.434 424.859 c 73.637 440.801
 74.637 457.457 66.668 462.059 c 58.695 466.664 44.77 457.469 35.566 441.527
 c 26.363 425.582 25.363 408.926 33.332 404.324 c h
33.332 404.324 m f
0 g
2.165064 w
q -0.57735 -1 -1 0.57735 0 693 cm
202.074 -149.999 m 202.073 -157.971 189.149 -164.436 173.205 -164.433 c
 157.264 -164.433 144.339 -157.971 144.338 -150.002 c 144.336 -142.028 157.263
 -135.565 173.204 -135.566 c 189.148 -135.568 202.073 -142.03 202.074 -149.999
 c h
202.074 -149.999 m S Q
0.85098 g
333.332 693 m 333.332 702.203 318.41 709.668 300 709.668 c 281.59 709.668
 266.668 702.203 266.668 693 c 266.668 683.797 281.59 676.332 300 676.332
 c 318.41 676.332 333.332 683.797 333.332 693 c h
333.332 693 m f
0 g
2.5 w
333.332 693 m 333.332 702.203 318.41 709.668 300 709.668 c 281.59 709.668
 266.668 702.203 266.668 693 c 266.668 683.797 281.59 676.332 300 676.332
 c 318.41 676.332 333.332 683.797 333.332 693 c h
333.332 693 m S
0.85098 g
333.332 577.531 m 341.305 572.926 355.23 582.121 364.434 598.062 c 373.637
 614.008 374.637 630.664 366.668 635.266 c 358.695 639.867 344.77 630.676
 335.566 614.73 c 326.363 598.789 325.363 582.133 333.332 577.531 c h
333.332 577.531 m f
0 g
2.165064 w
q -0.57735 -1 -1 0.57735 0 693 cm
-57.735 -299.998 m -57.734 -307.972 -70.66 -314.435 -86.601 -314.434 c 
-102.545 -314.432 -115.471 -307.97 -115.471 -300.001 c -115.47 -292.029 
-102.546 -285.564 -86.602 -285.567 c -70.661 -285.567 -57.736 -292.029 -57.735
 -299.998 c h
-57.735 -299.998 m S Q
0.85098 g
233.332 519.793 m 233.332 529 218.41 536.461 200 536.461 c 181.59 536.461
 166.668 529 166.668 519.793 c 166.668 510.59 181.59 503.129 200 503.129
 c 218.41 503.129 233.332 510.59 233.332 519.793 c h
233.332 519.793 m f
0 g
2.5 w
233.332 519.793 m 233.332 529 218.41 536.461 200 536.461 c 181.59 536.461
 166.668 529 166.668 519.793 c 166.668 510.59 181.59 503.129 200 503.129
 c 218.41 503.129 233.332 510.59 233.332 519.793 c h
233.332 519.793 m S
0.85098 g
233.332 404.324 m 241.305 399.723 255.23 408.914 264.434 424.859 c 273.637
 440.801 274.637 457.457 266.668 462.059 c 258.695 466.664 244.77 457.469
 235.566 441.527 c 226.363 425.582 225.363 408.926 233.332 404.324 c h
233.332 404.324 m f
0 g
2.165064 w
q -0.57735 -1 -1 0.57735 0 693 cm
115.471 -299.999 m 115.47 -307.971 102.546 -314.436 86.602 -314.433 c 70.661
 -314.433 57.736 -307.971 57.735 -300.002 c 57.734 -292.028 70.66 -285.565
 86.601 -285.566 c 102.545 -285.568 115.471 -292.03 115.471 -299.999 c h
115.471 -299.999 m S Q
0.85098 g
133.332 346.59 m 133.332 355.793 118.41 363.258 100 363.258 c 81.59 363.258
 66.668 355.793 66.668 346.59 c 66.668 337.387 81.59 329.922 100 329.922
 c 118.41 329.922 133.332 337.387 133.332 346.59 c h
133.332 346.59 m f
0 g
2.5 w
133.332 346.59 m 133.332 355.793 118.41 363.258 100 363.258 c 81.59 363.258
 66.668 355.793 66.668 346.59 c 66.668 337.387 81.59 329.922 100 329.922
 c 118.41 329.922 133.332 337.387 133.332 346.59 c h
133.332 346.59 m S
0.85098 g
133.332 231.121 m 141.305 226.516 155.23 235.711 164.434 251.652 c 173.637
 267.598 174.637 284.254 166.668 288.855 c 158.695 293.457 144.77 284.266
 135.566 268.32 c 126.363 252.379 125.363 235.723 133.332 231.121 c h
133.332 231.121 m f
0 g
2.165064 w
q -0.57735 -1 -1 0.57735 0 693 cm
288.675 -299.998 m 288.677 -307.972 275.75 -314.435 259.809 -314.434 c 
243.865 -314.432 230.94 -307.97 230.939 -300.001 c 230.94 -292.029 243.864
 -285.564 259.808 -285.567 c 275.749 -285.567 288.674 -292.029 288.675 -299.998
 c h
288.675 -299.998 m S Q
0.85098 g
33.332 173.383 m 33.332 182.59 18.41 190.051 0 190.051 c -18.41 190.051
 -33.332 182.59 -33.332 173.383 c -33.332 164.18 -18.41 156.719 0 156.719
 c 18.41 156.719 33.332 164.18 33.332 173.383 c h
33.332 173.383 m f
0 g
2.5 w
33.332 173.383 m 33.332 182.59 18.41 190.051 0 190.051 c -18.41 190.051
 -33.332 182.59 -33.332 173.383 c -33.332 164.18 -18.41 156.719 0 156.719
 c 18.41 156.719 33.332 164.18 33.332 173.383 c h
33.332 173.383 m S
0.85098 g
33.332 57.914 m 41.305 53.312 55.23 62.504 64.434 78.449 c 73.637 94.391
 74.637 111.047 66.668 115.648 c 58.695 120.254 44.77 111.059 35.566 95.117
 c 26.363 79.172 25.363 62.516 33.332 57.914 c h
33.332 57.914 m f
0 g
2.165064 w
q -0.57735 -1 -1 0.57735 0 693 cm
461.881 -299.999 m 461.88 -307.971 448.957 -314.436 433.013 -314.433 c 
417.071 -314.433 404.146 -307.971 404.146 -300.002 c 404.144 -292.028 417.07
 -285.565 433.011 -285.566 c 448.955 -285.568 461.881 -292.03 461.881 -299.999
 c h
461.881 -299.999 m S Q
0.85098 g
533.332 693 m 533.332 702.203 518.41 709.668 500 709.668 c 481.59 709.668
 466.668 702.203 466.668 693 c 466.668 683.797 481.59 676.332 500 676.332
 c 518.41 676.332 533.332 683.797 533.332 693 c h
533.332 693 m f
0 g
2.5 w
533.332 693 m 533.332 702.203 518.41 709.668 500 709.668 c 481.59 709.668
 466.668 702.203 466.668 693 c 466.668 683.797 481.59 676.332 500 676.332
 c 518.41 676.332 533.332 683.797 533.332 693 c h
533.332 693 m S
0.85098 g
533.332 577.531 m 541.305 572.926 555.23 582.121 564.434 598.062 c 573.637
 614.008 574.637 630.664 566.668 635.266 c 558.695 639.867 544.77 630.676
 535.566 614.73 c 526.363 598.789 525.363 582.133 533.332 577.531 c h
533.332 577.531 m f
0 g
2.165064 w
q -0.57735 -1 -1 0.57735 0 693 cm
-144.338 -449.998 m -144.336 -457.972 -157.263 -464.435 -173.204 -464.434
 c -189.148 -464.432 -202.073 -457.97 -202.074 -450.001 c -202.073 -442.029
 -189.149 -435.564 -173.205 -435.567 c -157.264 -435.567 -144.339 -442.029
 -144.338 -449.998 c h
-144.338 -449.998 m S Q
0.85098 g
433.332 519.793 m 433.332 529 418.41 536.461 400 536.461 c 381.59 536.461
 366.668 529 366.668 519.793 c 366.668 510.59 381.59 503.129 400 503.129
 c 418.41 503.129 433.332 510.59 433.332 519.793 c h
433.332 519.793 m f
0 g
2.5 w
433.332 519.793 m 433.332 529 418.41 536.461 400 536.461 c 381.59 536.461
 366.668 529 366.668 519.793 c 366.668 510.59 381.59 503.129 400 503.129
 c 418.41 503.129 433.332 510.59 433.332 519.793 c h
433.332 519.793 m S
0.85098 g
433.332 404.324 m 441.305 399.723 455.23 408.914 464.434 424.859 c 473.637
 440.801 474.637 457.457 466.668 462.059 c 458.695 466.664 444.77 457.469
 435.566 441.527 c 426.363 425.582 425.363 408.926 433.332 404.324 c h
433.332 404.324 m f
0 g
2.165064 w
q -0.57735 -1 -1 0.57735 0 693 cm
28.869 -449.999 m 28.867 -457.971 15.944 -464.436 -0 -464.433 c -15.941
 -464.433 -28.867 -457.971 -28.867 -450.002 c -28.869 -442.028 -15.942 -435.565
 -0.001 -435.566 c 15.943 -435.568 28.868 -442.03 28.869 -449.999 c h
28.869 -449.999 m S Q
0.85098 g
333.332 346.59 m 333.332 355.793 318.41 363.258 300 363.258 c 281.59 363.258
 266.668 355.793 266.668 346.59 c 266.668 337.387 281.59 329.922 300 329.922
 c 318.41 329.922 333.332 337.387 333.332 346.59 c h
333.332 346.59 m f
0 g
2.5 w
333.332 346.59 m 333.332 355.793 318.41 363.258 300 363.258 c 281.59 363.258
 266.668 355.793 266.668 346.59 c 266.668 337.387 281.59 329.922 300 329.922
 c 318.41 329.922 333.332 337.387 333.332 346.59 c h
333.332 346.59 m S
0.85098 g
333.332 231.121 m 341.305 226.516 355.23 235.711 364.434 251.652 c 373.637
 267.598 374.637 284.254 366.668 288.855 c 358.695 293.457 344.77 284.266
 335.566 268.32 c 326.363 252.379 325.363 235.723 333.332 231.121 c h
333.332 231.121 m f
0 g
2.165064 w
q -0.57735 -1 -1 0.57735 0 693 cm
202.072 -449.998 m 202.074 -457.972 189.147 -464.435 173.206 -464.434 c
 157.262 -464.432 144.337 -457.97 144.337 -450.001 c 144.338 -442.029 157.261
 -435.564 173.205 -435.567 c 189.146 -435.567 202.072 -442.029 202.072 -449.998
 c h
202.072 -449.998 m S Q
0.85098 g
233.332 173.383 m 233.332 182.59 218.41 190.051 200 190.051 c 181.59 190.051
 166.668 182.59 166.668 173.383 c 166.668 164.18 181.59 156.719 200 156.719
 c 218.41 156.719 233.332 164.18 233.332 173.383 c h
233.332 173.383 m f
0 g
2.5 w
233.332 173.383 m 233.332 182.59 218.41 190.051 200 190.051 c 181.59 190.051
 166.668 182.59 166.668 173.383 c 166.668 164.18 181.59 156.719 200 156.719
 c 218.41 156.719 233.332 164.18 233.332 173.383 c h
233.332 173.383 m S
0.85098 g
233.332 57.914 m 241.305 53.312 255.23 62.504 264.434 78.449 c 273.637 
94.391 274.637 111.047 266.668 115.648 c 258.695 120.254 244.77 111.059 
235.566 95.117 c 226.363 79.172 225.363 62.516 233.332 57.914 c h
233.332 57.914 m f
0 g
2.165064 w
q -0.57735 -1 -1 0.57735 0 693 cm
375.279 -449.999 m 375.278 -457.971 362.354 -464.436 346.41 -464.433 c 
330.469 -464.433 317.544 -457.971 317.543 -450.002 c 317.541 -442.028 330.468
 -435.565 346.409 -435.566 c 362.353 -435.568 375.278 -442.03 375.279 -449.999
 c h
375.279 -449.999 m S Q
0.85098 g
733.332 693 m 733.332 702.203 718.41 709.668 700 709.668 c 681.59 709.668
 666.668 702.203 666.668 693 c 666.668 683.797 681.59 676.332 700 676.332
 c 718.41 676.332 733.332 683.797 733.332 693 c h
733.332 693 m f
0 g
2.5 w
733.332 693 m 733.332 702.203 718.41 709.668 700 709.668 c 681.59 709.668
 666.668 702.203 666.668 693 c 666.668 683.797 681.59 676.332 700 676.332
 c 718.41 676.332 733.332 683.797 733.332 693 c h
733.332 693 m S
0.85098 g
733.332 577.531 m 741.305 572.926 755.23 582.121 764.434 598.062 c 773.637
 614.008 774.637 630.664 766.668 635.266 c 758.695 639.867 744.77 630.676
 735.566 614.73 c 726.363 598.789 725.363 582.133 733.332 577.531 c h
733.332 577.531 m f
0 g
2.165064 w
q -0.57735 -1 -1 0.57735 0 693 cm
-230.941 -599.998 m -230.939 -607.972 -243.865 -614.435 -259.806 -614.434
 c -275.75 -614.432 -288.676 -607.97 -288.676 -600.001 c -288.675 -592.029
 -275.752 -585.564 -259.807 -585.567 c -243.866 -585.567 -230.941 -592.029
 -230.941 -599.998 c h
-230.941 -599.998 m S Q
0.85098 g
633.332 519.793 m 633.332 529 618.41 536.461 600 536.461 c 581.59 536.461
 566.668 529 566.668 519.793 c 566.668 510.59 581.59 503.129 600 503.129
 c 618.41 503.129 633.332 510.59 633.332 519.793 c h
633.332 519.793 m f
0 g
2.5 w
633.332 519.793 m 633.332 529 618.41 536.461 600 536.461 c 581.59 536.461
 566.668 529 566.668 519.793 c 566.668 510.59 581.59 503.129 600 503.129
 c 618.41 503.129 633.332 510.59 633.332 519.793 c h
633.332 519.793 m S
0.85098 g
633.332 404.324 m 641.305 399.723 655.23 408.914 664.434 424.859 c 673.637
 440.801 674.637 457.457 666.668 462.059 c 658.695 466.664 644.77 457.469
 635.566 441.527 c 626.363 425.582 625.363 408.926 633.332 404.324 c h
633.332 404.324 m f
0 g
2.165064 w
q -0.57735 -1 -1 0.57735 0 693 cm
-57.734 -599.999 m -57.735 -607.971 -70.659 -614.436 -86.603 -614.433 c
 -102.544 -614.433 -115.469 -607.971 -115.47 -600.002 c -115.471 -592.028
 -102.545 -585.565 -86.604 -585.566 c -70.66 -585.568 -57.735 -592.03 -57.734
 -599.999 c h
-57.734 -599.999 m S Q
0.85098 g
533.332 346.59 m 533.332 355.793 518.41 363.258 500 363.258 c 481.59 363.258
 466.668 355.793 466.668 346.59 c 466.668 337.387 481.59 329.922 500 329.922
 c 518.41 329.922 533.332 337.387 533.332 346.59 c h
533.332 346.59 m f
0 g
2.5 w
533.332 346.59 m 533.332 355.793 518.41 363.258 500 363.258 c 481.59 363.258
 466.668 355.793 466.668 346.59 c 466.668 337.387 481.59 329.922 500 329.922
 c 518.41 329.922 533.332 337.387 533.332 346.59 c h
533.332 346.59 m S
0.85098 g
533.332 231.121 m 541.305 226.516 555.23 235.711 564.434 251.652 c 573.637
 267.598 574.637 284.254 566.668 288.855 c 558.695 293.457 544.77 284.266
 535.566 268.32 c 526.363 252.379 525.363 235.723 533.332 231.121 c h
533.332 231.121 m f
0 g
2.165064 w
q -0.57735 -1 -1 0.57735 0 693 cm
115.47 -599.998 m 115.471 -607.972 102.545 -614.435 86.604 -614.434 c 70.66
 -614.432 57.735 -607.97 57.734 -600.001 c 57.735 -592.029 70.659 -585.564
 86.603 -585.567 c 102.544 -585.567 115.469 -592.029 115.47 -599.998 c h
115.47 -599.998 m S Q
0.85098 g
433.332 173.383 m 433.332 182.59 418.41 190.051 400 190.051 c 381.59 190.051
 366.668 182.59 366.668 173.383 c 366.668 164.18 381.59 156.719 400 156.719
 c 418.41 156.719 433.332 164.18 433.332 173.383 c h
433.332 173.383 m f
0 g
2.5 w
433.332 173.383 m 433.332 182.59 418.41 190.051 400 190.051 c 381.59 190.051
 366.668 182.59 366.668 173.383 c 366.668 164.18 381.59 156.719 400 156.719
 c 418.41 156.719 433.332 164.18 433.332 173.383 c h
433.332 173.383 m S
0.85098 g
433.332 57.914 m 441.305 53.312 455.23 62.504 464.434 78.449 c 473.637 
94.391 474.637 111.047 466.668 115.648 c 458.695 120.254 444.77 111.059 
435.566 95.117 c 426.363 79.172 425.363 62.516 433.332 57.914 c h
433.332 57.914 m f
0 g
2.165064 w
q -0.57735 -1 -1 0.57735 0 693 cm
288.676 -599.999 m 288.675 -607.971 275.751 -614.436 259.807 -614.433 c
 243.866 -614.433 230.941 -607.971 230.941 -600.002 c 230.939 -592.028 243.865
 -585.565 259.806 -585.566 c 275.75 -585.568 288.676 -592.03 288.676 -599.999
 c h
288.676 -599.999 m S Q
0.85098 g
833.332 519.793 m 833.332 529 818.41 536.461 800 536.461 c 781.59 536.461
 766.668 529 766.668 519.793 c 766.668 510.59 781.59 503.129 800 503.129
 c 818.41 503.129 833.332 510.59 833.332 519.793 c h
833.332 519.793 m f
0 g
2.5 w
833.332 519.793 m 833.332 529 818.41 536.461 800 536.461 c 781.59 536.461
 766.668 529 766.668 519.793 c 766.668 510.59 781.59 503.129 800 503.129
 c 818.41 503.129 833.332 510.59 833.332 519.793 c h
833.332 519.793 m S
0.85098 g
733.332 346.59 m 733.332 355.793 718.41 363.258 700 363.258 c 681.59 363.258
 666.668 355.793 666.668 346.59 c 666.668 337.387 681.59 329.922 700 329.922
 c 718.41 329.922 733.332 337.387 733.332 346.59 c h
733.332 346.59 m f
0 g
733.332 346.59 m 733.332 355.793 718.41 363.258 700 363.258 c 681.59 363.258
 666.668 355.793 666.668 346.59 c 666.668 337.387 681.59 329.922 700 329.922
 c 718.41 329.922 733.332 337.387 733.332 346.59 c h
733.332 346.59 m S
0.85098 g
733.332 231.121 m 741.305 226.516 755.23 235.711 764.434 251.652 c 773.637
 267.598 774.637 284.254 766.668 288.855 c 758.695 293.457 744.77 284.266
 735.566 268.32 c 726.363 252.379 725.363 235.723 733.332 231.121 c h
733.332 231.121 m f
0 g
2.165064 w
q -0.57735 -1 -1 0.57735 0 693 cm
28.867 -749.998 m 28.869 -757.972 15.942 -764.435 0.001 -764.434 c -15.943
 -764.432 -28.868 -757.97 -28.869 -750.001 c -28.867 -742.029 -15.944 -735.564
 0 -735.567 c 15.941 -735.567 28.866 -742.029 28.867 -749.998 c h
28.867 -749.998 m S Q
0.85098 g
633.332 173.383 m 633.332 182.59 618.41 190.051 600 190.051 c 581.59 190.051
 566.668 182.59 566.668 173.383 c 566.668 164.18 581.59 156.719 600 156.719
 c 618.41 156.719 633.332 164.18 633.332 173.383 c h
633.332 173.383 m f
0 g
2.5 w
633.332 173.383 m 633.332 182.59 618.41 190.051 600 190.051 c 581.59 190.051
 566.668 182.59 566.668 173.383 c 566.668 164.18 581.59 156.719 600 156.719
 c 618.41 156.719 633.332 164.18 633.332 173.383 c h
633.332 173.383 m S
0.85098 g
633.332 57.914 m 641.305 53.312 655.23 62.504 664.434 78.449 c 673.637 
94.391 674.637 111.047 666.668 115.648 c 658.695 120.254 644.77 111.059 
635.566 95.117 c 626.363 79.172 625.363 62.516 633.332 57.914 c h
633.332 57.914 m f
0 g
2.165064 w
q -0.57735 -1 -1 0.57735 0 693 cm
202.074 -749.999 m 202.073 -757.971 189.149 -764.436 173.205 -764.433 c
 157.264 -764.433 144.339 -757.971 144.338 -750.002 c 144.336 -742.028 157.263
 -735.565 173.204 -735.566 c 189.148 -735.568 202.073 -742.03 202.074 -749.999
 c h
202.074 -749.999 m S Q
0.85098 g
833.332 173.383 m 833.332 182.59 818.41 190.051 800 190.051 c 781.59 190.051
 766.668 182.59 766.668 173.383 c 766.668 164.18 781.59 156.719 800 156.719
 c 818.41 156.719 833.332 164.18 833.332 173.383 c h
833.332 173.383 m f
0 g
2.5 w
833.332 173.383 m 833.332 182.59 818.41 190.051 800 190.051 c 781.59 190.051
 766.668 182.59 766.668 173.383 c 766.668 164.18 781.59 156.719 800 156.719
 c 818.41 156.719 833.332 164.18 833.332 173.383 c h
833.332 173.383 m S
Q Q
showpage
%%Trailer
%%Trailer
cleartomark
countdictstack
exch sub { end } repeat
restore
%%EOF
