%!PS-Adobe-2.0 EPSF-2.0
%%BoundingBox: 0 0 800 693
%%HiResBoundingBox: 0.000000 0.000000 800.000000 693.000000
%%Creator: cairo 1.14.2 (http://cairographics.org)
%%CreationDate: Mon Sep  7 08:21:36 2015
%%DocumentData: Clean7Bit
%%LanguageLevel: 2
%%DocumentMedia: 282x244mm 800 693 0 () ()
%%EndComments
% EPSF created by ps2eps 1.68
%%BeginProlog
save
countdictstack
mark
newpath
/showpage {} def
/setpagedevice {pop} def
%%EndProlog
%%Page 1 1
%%BeginProlog
/languagelevel where
{ pop languagelevel } { 1 } ifelse
2 lt { /Helvetica findfont 12 scalefont setfont 50 500 moveto
  (This print job requires a PostScript Language Level 2 printer.) show
  showpage quit } if
/q { gsave } bind def
/Q { grestore } bind def
/cm { 6 array astore concat } bind def
/w { setlinewidth } bind def
/J { setlinecap } bind def
/j { setlinejoin } bind def
/M { setmiterlimit } bind def
/d { setdash } bind def
/m { moveto } bind def
/l { lineto } bind def
/c { curveto } bind def
/h { closepath } bind def
/re { exch dup neg 3 1 roll 5 3 roll moveto 0 rlineto
      0 exch rlineto 0 rlineto closepath } bind def
/S { stroke } bind def
/f { fill } bind def
/f* { eofill } bind def
/n { newpath } bind def
/W { clip } bind def
/W* { eoclip } bind def
/BT { } bind def
/ET { } bind def
/pdfmark where { pop globaldict /?pdfmark /exec load put }
    { globaldict begin /?pdfmark /pop load def /pdfmark
    /cleartomark load def end } ifelse
/BDC { mark 3 1 roll /BDC pdfmark } bind def
/EMC { mark /EMC pdfmark } bind def
/cairo_store_point { /cairo_point_y exch def /cairo_point_x exch def } def
/Tj { show currentpoint cairo_store_point } bind def
/TJ {
  {
    dup
    type /stringtype eq
    { show } { -0.001 mul 0 cairo_font_matrix dtransform rmoveto } ifelse
  } forall
  currentpoint cairo_store_point
} bind def
/cairo_selectfont { cairo_font_matrix aload pop pop pop 0 0 6 array astore
    cairo_font exch selectfont cairo_point_x cairo_point_y moveto } bind def
/Tf { pop /cairo_font exch def /cairo_font_matrix where
      { pop cairo_selectfont } if } bind def
/Td { matrix translate cairo_font_matrix matrix concatmatrix dup
      /cairo_font_matrix exch def dup 4 get exch 5 get cairo_store_point
      /cairo_font where { pop cairo_selectfont } if } bind def
/Tm { 2 copy 8 2 roll 6 array astore /cairo_font_matrix exch def
      cairo_store_point /cairo_font where { pop cairo_selectfont } if } bind def
/g { setgray } bind def
/rg { setrgbcolor } bind def
/d1 { setcachedevice } bind def
/cairo_set_page_size {
  % Change paper size, but only if different from previous paper size otherwise
  % duplex fails. PLRM specifies a tolerance of 5 pts when matching paper size
  % so we use the same when checking if the size changes.
  /setpagedevice where {
    pop currentpagedevice
    /PageSize known {
      2 copy
      currentpagedevice /PageSize get aload pop
      exch 4 1 roll
      sub abs 5 gt
      3 1 roll
      sub abs 5 gt
      or
    } {
      true
    } ifelse
    {
      2 array astore
      2 dict begin
        /PageSize exch def
        /ImagingBBox null def
      currentdict end
      setpagedevice
    } {
      pop pop
    } ifelse
  } {
    pop
  } ifelse
} def
%%EndProlog
%%BeginSetup
%%EndSetup
%%Page: 1 1
%%BeginPageSetup
%%PageMedia: 282x244mm
%%PageBoundingBox: 0 0 800 693
800 693 cairo_set_page_size
%%EndPageSetup
q 0 0 800 693 rectclip q
Q q
0.984314 g
0 693 800 -692.82 re f*
0.788235 g
1.875 w
0 J
1 j
[] 0.0 d
4 M 0 693 800 -692.82 re S
0 g
2.5 w
1 J
-100 519.793 m 0 577.531 l 33.332 635.266 l 16.668 664.133 l S
200 693 m 100 635.266 l 33.332 635.266 l 16.668 664.133 l S
-100 519.793 m 0 577.531 l 66.668 577.531 l 83.332 548.664 l S
200 693 m 100 635.266 l 66.668 577.531 l 83.332 548.664 l S
100 519.793 m 0 462.059 l -66.668 462.059 l -83.332 490.926 l S
100 519.793 m 0 462.059 l -33.332 404.324 l -16.668 375.457 l S
0 346.59 m -100 288.855 l -166.668 288.855 l -183.332 317.723 l S
0 346.59 m -100 288.855 l -133.332 231.121 l -116.668 202.254 l S
100 519.793 m 200 577.531 l 233.332 635.266 l 216.668 664.133 l S
400 693 m 300 635.266 l 233.332 635.266 l 216.668 664.133 l S
100 519.793 m 200 577.531 l 266.668 577.531 l 283.332 548.664 l S
400 693 m 300 635.266 l 266.668 577.531 l 283.332 548.664 l S
0 346.59 m 100 404.324 l 133.332 462.059 l 116.668 490.926 l S
300 519.793 m 200 462.059 l 133.332 462.059 l 116.668 490.926 l S
0 346.59 m 100 404.324 l 166.668 404.324 l 183.332 375.457 l S
300 519.793 m 200 462.059 l 166.668 404.324 l 183.332 375.457 l S
-100 173.383 m 0 231.121 l 33.332 288.855 l 16.668 317.723 l S
200 346.59 m 100 288.855 l 33.332 288.855 l 16.668 317.723 l S
-100 173.383 m 0 231.121 l 66.668 231.121 l 83.332 202.254 l S
200 346.59 m 100 288.855 l 66.668 231.121 l 83.332 202.254 l S
100 173.383 m 0 115.648 l -66.668 115.648 l -83.332 144.516 l S
100 173.383 m 0 115.648 l -33.332 57.914 l -16.668 29.047 l S
300 519.793 m 400 577.531 l 433.332 635.266 l 416.668 664.133 l S
600 693 m 500 635.266 l 433.332 635.266 l 416.668 664.133 l S
300 519.793 m 400 577.531 l 466.668 577.531 l 483.332 548.664 l S
600 693 m 500 635.266 l 466.668 577.531 l 483.332 548.664 l S
200 346.59 m 300 404.324 l 333.332 462.059 l 316.668 490.926 l S
500 519.793 m 400 462.059 l 333.332 462.059 l 316.668 490.926 l S
200 346.59 m 300 404.324 l 366.668 404.324 l 383.332 375.457 l S
500 519.793 m 400 462.059 l 366.668 404.324 l 383.332 375.457 l S
100 173.383 m 200 231.121 l 233.332 288.855 l 216.668 317.723 l S
400 346.59 m 300 288.855 l 233.332 288.855 l 216.668 317.723 l S
100 173.383 m 200 231.121 l 266.668 231.121 l 283.332 202.254 l S
400 346.59 m 300 288.855 l 266.668 231.121 l 283.332 202.254 l S
Q q
0 146 135 -145.82 re W n
0 g
2.5 w
1 J
1 j
[] 0.0 d
4 M 0 0.18 m 100 57.914 l 133.332 115.648 l 116.668 144.516 l S
Q q
0 g
2.5 w
1 J
1 j
[] 0.0 d
4 M 300 173.383 m 200 115.648 l 133.332 115.648 l 116.668 144.516 l S
Q q
0 60 185 -59.82 re W n
0 g
2.5 w
1 J
1 j
[] 0.0 d
4 M 0 0.18 m 100 57.914 l 166.668 57.914 l 183.332 29.047 l S
Q q
0 g
2.5 w
1 J
1 j
[] 0.0 d
4 M 300 173.383 m 200 115.648 l 166.668 57.914 l 183.332 29.047 l S
500 519.793 m 600 577.531 l 633.332 635.266 l 616.668 664.133 l S
800 693 m 700 635.266 l 633.332 635.266 l 616.668 664.133 l S
500 519.793 m 600 577.531 l 666.668 577.531 l 683.332 548.664 l S
800 693 m 700 635.266 l 666.668 577.531 l 683.332 548.664 l S
400 346.59 m 500 404.324 l 533.332 462.059 l 516.668 490.926 l S
700 519.793 m 600 462.059 l 533.332 462.059 l 516.668 490.926 l S
400 346.59 m 500 404.324 l 566.668 404.324 l 583.332 375.457 l S
700 519.793 m 600 462.059 l 566.668 404.324 l 583.332 375.457 l S
300 173.383 m 400 231.121 l 433.332 288.855 l 416.668 317.723 l S
600 346.59 m 500 288.855 l 433.332 288.855 l 416.668 317.723 l S
300 173.383 m 400 231.121 l 466.668 231.121 l 483.332 202.254 l S
600 346.59 m 500 288.855 l 466.668 231.121 l 483.332 202.254 l S
Q q
198 146 137 -145.82 re W n
0 g
2.5 w
1 J
1 j
[] 0.0 d
4 M 200 0.18 m 300 57.914 l 333.332 115.648 l 316.668 144.516 l S
Q q
0 g
2.5 w
1 J
1 j
[] 0.0 d
4 M 500 173.383 m 400 115.648 l 333.332 115.648 l 316.668 144.516 l S
Q q
198 60 187 -59.82 re W n
0 g
2.5 w
1 J
1 j
[] 0.0 d
4 M 200 0.18 m 300 57.914 l 366.668 57.914 l 383.332 29.047 l S
Q q
0 g
2.5 w
1 J
1 j
[] 0.0 d
4 M 500 173.383 m 400 115.648 l 366.668 57.914 l 383.332 29.047 l S
700 519.793 m 800 577.531 l 833.332 635.266 l 816.668 664.133 l S
700 519.793 m 800 577.531 l 866.668 577.531 l 883.332 548.664 l S
600 346.59 m 700 404.324 l 733.332 462.059 l 716.668 490.926 l S
900 519.793 m 800 462.059 l 733.332 462.059 l 716.668 490.926 l S
600 346.59 m 700 404.324 l 766.668 404.324 l 783.332 375.457 l S
900 519.793 m 800 462.059 l 766.668 404.324 l 783.332 375.457 l S
500 173.383 m 600 231.121 l 633.332 288.855 l 616.668 317.723 l S
800 346.59 m 700 288.855 l 633.332 288.855 l 616.668 317.723 l S
500 173.383 m 600 231.121 l 666.668 231.121 l 683.332 202.254 l S
800 346.59 m 700 288.855 l 666.668 231.121 l 683.332 202.254 l S
Q q
398 146 137 -145.82 re W n
0 g
2.5 w
1 J
1 j
[] 0.0 d
4 M 400 0.18 m 500 57.914 l 533.332 115.648 l 516.668 144.516 l S
Q q
0 g
2.5 w
1 J
1 j
[] 0.0 d
4 M 700 173.383 m 600 115.648 l 533.332 115.648 l 516.668 144.516 l S
Q q
398 60 187 -59.82 re W n
0 g
2.5 w
1 J
1 j
[] 0.0 d
4 M 400 0.18 m 500 57.914 l 566.668 57.914 l 583.332 29.047 l S
Q q
0 g
2.5 w
1 J
1 j
[] 0.0 d
4 M 700 173.383 m 600 115.648 l 566.668 57.914 l 583.332 29.047 l S
800 346.59 m 900 404.324 l 933.332 462.059 l 916.668 490.926 l S
800 346.59 m 900 404.324 l 966.668 404.324 l 983.332 375.457 l S
700 173.383 m 800 231.121 l 833.332 288.855 l 816.668 317.723 l S
700 173.383 m 800 231.121 l 866.668 231.121 l 883.332 202.254 l S
Q q
598 146 137 -145.82 re W n
0 g
2.5 w
1 J
1 j
[] 0.0 d
4 M 600 0.18 m 700 57.914 l 733.332 115.648 l 716.668 144.516 l S
Q q
0 g
2.5 w
1 J
1 j
[] 0.0 d
4 M 900 173.383 m 800 115.648 l 733.332 115.648 l 716.668 144.516 l S
Q q
598 60 187 -59.82 re W n
0 g
2.5 w
1 J
1 j
[] 0.0 d
4 M 600 0.18 m 700 57.914 l 766.668 57.914 l 783.332 29.047 l S
Q q
0 g
2.5 w
1 J
1 j
[] 0.0 d
4 M 900 173.383 m 800 115.648 l 766.668 57.914 l 783.332 29.047 l S
Q Q
showpage
%%Trailer
%%Trailer
cleartomark
countdictstack
exch sub { end } repeat
restore
%%EOF
