%!PS-Adobe-2.0 EPSF-2.0
%%BoundingBox: 0 0 1200 1039
%%HiResBoundingBox: 0.000000 0.000000 1200.000000 1039.000000
%%Creator: cairo 1.14.2 (http://cairographics.org)
%%CreationDate: Mon Sep  7 08:21:36 2015
%%DocumentData: Clean7Bit
%%LanguageLevel: 2
%%DocumentMedia: 423x367mm 1200 1039 0 () ()
%%EndComments
% EPSF created by ps2eps 1.68
%%BeginProlog
save
countdictstack
mark
newpath
/showpage {} def
/setpagedevice {pop} def
%%EndProlog
%%Page 1 1
%%BeginProlog
/languagelevel where
{ pop languagelevel } { 1 } ifelse
2 lt { /Helvetica findfont 12 scalefont setfont 50 500 moveto
  (This print job requires a PostScript Language Level 2 printer.) show
  showpage quit } if
/q { gsave } bind def
/Q { grestore } bind def
/cm { 6 array astore concat } bind def
/w { setlinewidth } bind def
/J { setlinecap } bind def
/j { setlinejoin } bind def
/M { setmiterlimit } bind def
/d { setdash } bind def
/m { moveto } bind def
/l { lineto } bind def
/c { curveto } bind def
/h { closepath } bind def
/re { exch dup neg 3 1 roll 5 3 roll moveto 0 rlineto
      0 exch rlineto 0 rlineto closepath } bind def
/S { stroke } bind def
/f { fill } bind def
/f* { eofill } bind def
/n { newpath } bind def
/W { clip } bind def
/W* { eoclip } bind def
/BT { } bind def
/ET { } bind def
/pdfmark where { pop globaldict /?pdfmark /exec load put }
    { globaldict begin /?pdfmark /pop load def /pdfmark
    /cleartomark load def end } ifelse
/BDC { mark 3 1 roll /BDC pdfmark } bind def
/EMC { mark /EMC pdfmark } bind def
/cairo_store_point { /cairo_point_y exch def /cairo_point_x exch def } def
/Tj { show currentpoint cairo_store_point } bind def
/TJ {
  {
    dup
    type /stringtype eq
    { show } { -0.001 mul 0 cairo_font_matrix dtransform rmoveto } ifelse
  } forall
  currentpoint cairo_store_point
} bind def
/cairo_selectfont { cairo_font_matrix aload pop pop pop 0 0 6 array astore
    cairo_font exch selectfont cairo_point_x cairo_point_y moveto } bind def
/Tf { pop /cairo_font exch def /cairo_font_matrix where
      { pop cairo_selectfont } if } bind def
/Td { matrix translate cairo_font_matrix matrix concatmatrix dup
      /cairo_font_matrix exch def dup 4 get exch 5 get cairo_store_point
      /cairo_font where { pop cairo_selectfont } if } bind def
/Tm { 2 copy 8 2 roll 6 array astore /cairo_font_matrix exch def
      cairo_store_point /cairo_font where { pop cairo_selectfont } if } bind def
/g { setgray } bind def
/rg { setrgbcolor } bind def
/d1 { setcachedevice } bind def
/cairo_set_page_size {
  % Change paper size, but only if different from previous paper size otherwise
  % duplex fails. PLRM specifies a tolerance of 5 pts when matching paper size
  % so we use the same when checking if the size changes.
  /setpagedevice where {
    pop currentpagedevice
    /PageSize known {
      2 copy
      currentpagedevice /PageSize get aload pop
      exch 4 1 roll
      sub abs 5 gt
      3 1 roll
      sub abs 5 gt
      or
    } {
      true
    } ifelse
    {
      2 array astore
      2 dict begin
        /PageSize exch def
        /ImagingBBox null def
      currentdict end
      setpagedevice
    } {
      pop pop
    } ifelse
  } {
    pop
  } ifelse
} def
%%EndProlog
%%BeginSetup
%%EndSetup
%%Page: 1 1
%%BeginPageSetup
%%PageMedia: 423x367mm
%%PageBoundingBox: 0 0 1200 1039
1200 1039 cairo_set_page_size
%%EndPageSetup
q 0 0 1200 1039 rectclip q
0.984314 g
0 0 1200 1039 rectfill
0.788235 g
1.875 w
0 J
1 j
[] 0.0 d
4 M 0 1039 1200 -1039.23 re S
0 g
2.5 w
1 J
0 519.383 m -75 735.891 -75 562.688 -150 779.191 c S
-300 519.383 m -75 476.082 -225 562.688 0 519.383 c S
0 519.383 m -150 346.18 0 432.781 -150 259.578 c S
150 259.578 m 75 476.082 75 302.879 0 519.383 c S
-150 259.578 m 75 216.277 -75 302.879 150 259.578 c S
150 259.578 m 0 86.371 150 172.973 0 -0.23 c S
300 -0.23 m 225 216.277 225 43.07 150 259.578 c S
0 -0.23 m 225 -43.531 75 43.07 300 -0.23 c S
0 1039 m -150 865.793 0 952.398 -150 779.191 c S
150 779.191 m 75 995.699 75 822.492 0 1039 c S
-150 779.191 m 75 735.891 -75 822.492 150 779.191 c S
150 779.191 m 0 605.988 150 692.59 0 519.383 c S
300 519.383 m 225 735.891 225 562.688 150 779.191 c S
0 519.383 m 225 476.082 75 562.688 300 519.383 c S
300 519.383 m 150 346.18 300 432.781 150 259.578 c S
450 259.578 m 375 476.082 375 302.879 300 519.383 c S
150 259.578 m 375 216.277 225 302.879 450 259.578 c S
450 259.578 m 300 86.371 450 172.973 300 -0.23 c S
600 -0.23 m 525 216.277 525 43.07 450 259.578 c S
300 -0.23 m 525 -43.531 375 43.07 600 -0.23 c S
300 1039 m 150 865.793 300 952.398 150 779.191 c S
450 779.191 m 375 995.699 375 822.492 300 1039 c S
150 779.191 m 375 735.891 225 822.492 450 779.191 c S
450 779.191 m 300 605.988 450 692.59 300 519.383 c S
600 519.383 m 525 735.891 525 562.688 450 779.191 c S
300 519.383 m 525 476.082 375 562.688 600 519.383 c S
600 519.383 m 450 346.18 600 432.781 450 259.578 c S
750 259.578 m 675 476.082 675 302.879 600 519.383 c S
450 259.578 m 675 216.277 525 302.879 750 259.578 c S
750 259.578 m 600 86.371 750 172.973 600 -0.23 c S
900 -0.23 m 825 216.277 825 43.07 750 259.578 c S
600 -0.23 m 825 -43.531 675 43.07 900 -0.23 c S
600 1039 m 450 865.793 600 952.398 450 779.191 c S
750 779.191 m 675 995.699 675 822.492 600 1039 c S
450 779.191 m 675 735.891 525 822.492 750 779.191 c S
750 779.191 m 600 605.988 750 692.59 600 519.383 c S
900 519.383 m 825 735.891 825 562.688 750 779.191 c S
600 519.383 m 825 476.082 675 562.688 900 519.383 c S
900 519.383 m 750 346.18 900 432.781 750 259.578 c S
1050 259.578 m 975 476.082 975 302.879 900 519.383 c S
750 259.578 m 975 216.277 825 302.879 1050 259.578 c S
1050 259.578 m 900 86.371 1050 172.973 900 -0.23 c S
1200 -0.23 m 1125 216.277 1125 43.07 1050 259.578 c S
900 -0.23 m 1125 -43.531 975 43.07 1200 -0.23 c S
900 1039 m 750 865.793 900 952.398 750 779.191 c S
1050 779.191 m 975 995.699 975 822.492 900 1039 c S
750 779.191 m 975 735.891 825 822.492 1050 779.191 c S
1050 779.191 m 900 605.988 1050 692.59 900 519.383 c S
1200 519.383 m 1125 735.891 1125 562.688 1050 779.191 c S
900 519.383 m 1125 476.082 975 562.688 1200 519.383 c S
1200 519.383 m 1050 346.18 1200 432.781 1050 259.578 c S
1350 259.578 m 1275 476.082 1275 302.879 1200 519.383 c S
1050 259.578 m 1275 216.277 1125 302.879 1350 259.578 c S
1350 259.578 m 1200 86.371 1350 172.973 1200 -0.23 c S
1200 -0.23 m 1425 -43.531 1275 43.07 1500 -0.23 c S
1200 1039 m 1050 865.793 1200 952.398 1050 779.191 c S
1350 779.191 m 1275 995.699 1275 822.492 1200 1039 c S
1050 779.191 m 1275 735.891 1125 822.492 1350 779.191 c S
1350 779.191 m 1200 605.988 1350 692.59 1200 519.383 c S
1200 519.383 m 1425 476.082 1275 562.688 1500 519.383 c S
Q Q
showpage
%%Trailer
%%Trailer
cleartomark
countdictstack
exch sub { end } repeat
restore
%%EOF
