%!PS-Adobe-2.0 EPSF-2.0
%%BoundingBox: 0 0 1200 1039
%%HiResBoundingBox: 0.000000 0.000000 1200.000000 1039.000000
%%Creator: cairo 1.14.2 (http://cairographics.org)
%%CreationDate: Mon Sep  7 08:21:36 2015
%%DocumentData: Clean7Bit
%%LanguageLevel: 2
%%DocumentMedia: 423x367mm 1200 1039 0 () ()
%%EndComments
% EPSF created by ps2eps 1.68
%%BeginProlog
save
countdictstack
mark
newpath
/showpage {} def
/setpagedevice {pop} def
%%EndProlog
%%Page 1 1
%%BeginProlog
/languagelevel where
{ pop languagelevel } { 1 } ifelse
2 lt { /Helvetica findfont 12 scalefont setfont 50 500 moveto
  (This print job requires a PostScript Language Level 2 printer.) show
  showpage quit } if
/q { gsave } bind def
/Q { grestore } bind def
/cm { 6 array astore concat } bind def
/w { setlinewidth } bind def
/J { setlinecap } bind def
/j { setlinejoin } bind def
/M { setmiterlimit } bind def
/d { setdash } bind def
/m { moveto } bind def
/l { lineto } bind def
/c { curveto } bind def
/h { closepath } bind def
/re { exch dup neg 3 1 roll 5 3 roll moveto 0 rlineto
      0 exch rlineto 0 rlineto closepath } bind def
/S { stroke } bind def
/f { fill } bind def
/f* { eofill } bind def
/n { newpath } bind def
/W { clip } bind def
/W* { eoclip } bind def
/BT { } bind def
/ET { } bind def
/pdfmark where { pop globaldict /?pdfmark /exec load put }
    { globaldict begin /?pdfmark /pop load def /pdfmark
    /cleartomark load def end } ifelse
/BDC { mark 3 1 roll /BDC pdfmark } bind def
/EMC { mark /EMC pdfmark } bind def
/cairo_store_point { /cairo_point_y exch def /cairo_point_x exch def } def
/Tj { show currentpoint cairo_store_point } bind def
/TJ {
  {
    dup
    type /stringtype eq
    { show } { -0.001 mul 0 cairo_font_matrix dtransform rmoveto } ifelse
  } forall
  currentpoint cairo_store_point
} bind def
/cairo_selectfont { cairo_font_matrix aload pop pop pop 0 0 6 array astore
    cairo_font exch selectfont cairo_point_x cairo_point_y moveto } bind def
/Tf { pop /cairo_font exch def /cairo_font_matrix where
      { pop cairo_selectfont } if } bind def
/Td { matrix translate cairo_font_matrix matrix concatmatrix dup
      /cairo_font_matrix exch def dup 4 get exch 5 get cairo_store_point
      /cairo_font where { pop cairo_selectfont } if } bind def
/Tm { 2 copy 8 2 roll 6 array astore /cairo_font_matrix exch def
      cairo_store_point /cairo_font where { pop cairo_selectfont } if } bind def
/g { setgray } bind def
/rg { setrgbcolor } bind def
/d1 { setcachedevice } bind def
/cairo_set_page_size {
  % Change paper size, but only if different from previous paper size otherwise
  % duplex fails. PLRM specifies a tolerance of 5 pts when matching paper size
  % so we use the same when checking if the size changes.
  /setpagedevice where {
    pop currentpagedevice
    /PageSize known {
      2 copy
      currentpagedevice /PageSize get aload pop
      exch 4 1 roll
      sub abs 5 gt
      3 1 roll
      sub abs 5 gt
      or
    } {
      true
    } ifelse
    {
      2 array astore
      2 dict begin
        /PageSize exch def
        /ImagingBBox null def
      currentdict end
      setpagedevice
    } {
      pop pop
    } ifelse
  } {
    pop
  } ifelse
} def
%%EndProlog
%%BeginSetup
%%EndSetup
%%Page: 1 1
%%BeginPageSetup
%%PageMedia: 423x367mm
%%PageBoundingBox: 0 0 1200 1039
1200 1039 cairo_set_page_size
%%EndPageSetup
q 0 0 1200 1039 rectclip q
0.984314 g
0 0 1200 1039 rectfill
0.788235 g
1.875 w
0 J
1 j
[] 0.0 d
4 M 0 1039 1200 -1039.23 re S
0 g
2.5 w
1 J
0 692.59 m -100 634.855 -50 548.254 -150 779.191 c S
-150 432.781 m -150 548.254 -250 548.254 0 519.383 c S
150 432.781 m 50 375.047 100 288.445 0 519.383 c S
0 172.973 m 0 288.445 -100 288.445 150 259.578 c S
0 172.973 m 100 115.238 150 201.844 0 -0.23 c S
300 172.973 m 200 115.238 250 28.637 150 259.578 c S
150 -86.832 m 150 28.637 50 28.637 300 -0.23 c S
150 952.398 m 50 894.664 100 808.059 0 1039 c S
0 692.59 m 0 808.059 -100 808.059 150 779.191 c S
0 692.59 m 100 634.855 150 721.457 0 519.383 c S
300 692.59 m 200 634.855 250 548.254 150 779.191 c S
150 432.781 m 150 548.254 50 548.254 300 519.383 c S
150 432.781 m 250 375.047 300 461.648 150 259.578 c S
450 432.781 m 350 375.047 400 288.445 300 519.383 c S
300 172.973 m 300 288.445 200 288.445 450 259.578 c S
300 172.973 m 400 115.238 450 201.844 300 -0.23 c S
600 172.973 m 500 115.238 550 28.637 450 259.578 c S
450 -86.832 m 450 28.637 350 28.637 600 -0.23 c S
150 952.398 m 250 894.664 300 981.266 150 779.191 c S
450 952.398 m 350 894.664 400 808.059 300 1039 c S
300 692.59 m 300 808.059 200 808.059 450 779.191 c S
300 692.59 m 400 634.855 450 721.457 300 519.383 c S
600 692.59 m 500 634.855 550 548.254 450 779.191 c S
450 432.781 m 450 548.254 350 548.254 600 519.383 c S
450 432.781 m 550 375.047 600 461.648 450 259.578 c S
750 432.781 m 650 375.047 700 288.445 600 519.383 c S
600 172.973 m 600 288.445 500 288.445 750 259.578 c S
600 172.973 m 700 115.238 750 201.844 600 -0.23 c S
900 172.973 m 800 115.238 850 28.637 750 259.578 c S
750 -86.832 m 750 28.637 650 28.637 900 -0.23 c S
450 952.398 m 550 894.664 600 981.266 450 779.191 c S
750 952.398 m 650 894.664 700 808.059 600 1039 c S
600 692.59 m 600 808.059 500 808.059 750 779.191 c S
600 692.59 m 700 634.855 750 721.457 600 519.383 c S
900 692.59 m 800 634.855 850 548.254 750 779.191 c S
750 432.781 m 750 548.254 650 548.254 900 519.383 c S
750 432.781 m 850 375.047 900 461.648 750 259.578 c S
1050 432.781 m 950 375.047 1000 288.445 900 519.383 c S
900 172.973 m 900 288.445 800 288.445 1050 259.578 c S
900 172.973 m 1000 115.238 1050 201.844 900 -0.23 c S
1200 172.973 m 1100 115.238 1150 28.637 1050 259.578 c S
1050 -86.832 m 1050 28.637 950 28.637 1200 -0.23 c S
750 952.398 m 850 894.664 900 981.266 750 779.191 c S
1050 952.398 m 950 894.664 1000 808.059 900 1039 c S
900 692.59 m 900 808.059 800 808.059 1050 779.191 c S
900 692.59 m 1000 634.855 1050 721.457 900 519.383 c S
1200 692.59 m 1100 634.855 1150 548.254 1050 779.191 c S
1050 432.781 m 1050 548.254 950 548.254 1200 519.383 c S
1050 432.781 m 1150 375.047 1200 461.648 1050 259.578 c S
1350 432.781 m 1250 375.047 1300 288.445 1200 519.383 c S
1200 172.973 m 1200 288.445 1100 288.445 1350 259.578 c S
1200 172.973 m 1300 115.238 1350 201.844 1200 -0.23 c S
1050 952.398 m 1150 894.664 1200 981.266 1050 779.191 c S
1350 952.398 m 1250 894.664 1300 808.059 1200 1039 c S
1200 692.59 m 1200 808.059 1100 808.059 1350 779.191 c S
1200 692.59 m 1300 634.855 1350 721.457 1200 519.383 c S
Q Q
showpage
%%Trailer
%%Trailer
cleartomark
countdictstack
exch sub { end } repeat
restore
%%EOF
