%!PS-Adobe-2.0 EPSF-2.0
%%BoundingBox: 0 0 1200 1039
%%HiResBoundingBox: 0.000000 0.000000 1200.000000 1039.000000
%%Creator: cairo 1.14.2 (http://cairographics.org)
%%CreationDate: Mon Sep  7 08:21:36 2015
%%DocumentData: Clean7Bit
%%LanguageLevel: 2
%%DocumentMedia: 423x367mm 1200 1039 0 () ()
%%EndComments
% EPSF created by ps2eps 1.68
%%BeginProlog
save
countdictstack
mark
newpath
/showpage {} def
/setpagedevice {pop} def
%%EndProlog
%%Page 1 1
%%BeginProlog
/languagelevel where
{ pop languagelevel } { 1 } ifelse
2 lt { /Helvetica findfont 12 scalefont setfont 50 500 moveto
  (This print job requires a PostScript Language Level 2 printer.) show
  showpage quit } if
/q { gsave } bind def
/Q { grestore } bind def
/cm { 6 array astore concat } bind def
/w { setlinewidth } bind def
/J { setlinecap } bind def
/j { setlinejoin } bind def
/M { setmiterlimit } bind def
/d { setdash } bind def
/m { moveto } bind def
/l { lineto } bind def
/c { curveto } bind def
/h { closepath } bind def
/re { exch dup neg 3 1 roll 5 3 roll moveto 0 rlineto
      0 exch rlineto 0 rlineto closepath } bind def
/S { stroke } bind def
/f { fill } bind def
/f* { eofill } bind def
/n { newpath } bind def
/W { clip } bind def
/W* { eoclip } bind def
/BT { } bind def
/ET { } bind def
/pdfmark where { pop globaldict /?pdfmark /exec load put }
    { globaldict begin /?pdfmark /pop load def /pdfmark
    /cleartomark load def end } ifelse
/BDC { mark 3 1 roll /BDC pdfmark } bind def
/EMC { mark /EMC pdfmark } bind def
/cairo_store_point { /cairo_point_y exch def /cairo_point_x exch def } def
/Tj { show currentpoint cairo_store_point } bind def
/TJ {
  {
    dup
    type /stringtype eq
    { show } { -0.001 mul 0 cairo_font_matrix dtransform rmoveto } ifelse
  } forall
  currentpoint cairo_store_point
} bind def
/cairo_selectfont { cairo_font_matrix aload pop pop pop 0 0 6 array astore
    cairo_font exch selectfont cairo_point_x cairo_point_y moveto } bind def
/Tf { pop /cairo_font exch def /cairo_font_matrix where
      { pop cairo_selectfont } if } bind def
/Td { matrix translate cairo_font_matrix matrix concatmatrix dup
      /cairo_font_matrix exch def dup 4 get exch 5 get cairo_store_point
      /cairo_font where { pop cairo_selectfont } if } bind def
/Tm { 2 copy 8 2 roll 6 array astore /cairo_font_matrix exch def
      cairo_store_point /cairo_font where { pop cairo_selectfont } if } bind def
/g { setgray } bind def
/rg { setrgbcolor } bind def
/d1 { setcachedevice } bind def
/cairo_set_page_size {
  % Change paper size, but only if different from previous paper size otherwise
  % duplex fails. PLRM specifies a tolerance of 5 pts when matching paper size
  % so we use the same when checking if the size changes.
  /setpagedevice where {
    pop currentpagedevice
    /PageSize known {
      2 copy
      currentpagedevice /PageSize get aload pop
      exch 4 1 roll
      sub abs 5 gt
      3 1 roll
      sub abs 5 gt
      or
    } {
      true
    } ifelse
    {
      2 array astore
      2 dict begin
        /PageSize exch def
        /ImagingBBox null def
      currentdict end
      setpagedevice
    } {
      pop pop
    } ifelse
  } {
    pop
  } ifelse
} def
%%EndProlog
%%BeginSetup
%%EndSetup
%%Page: 1 1
%%BeginPageSetup
%%PageMedia: 423x367mm
%%PageBoundingBox: 0 0 1200 1039
1200 1039 cairo_set_page_size
%%EndPageSetup
q 0 0 1200 1039 rectclip q
0.984314 g
0 0 1200 1039 rectfill
0.788235 g
1.875 w
0 J
1 j
[] 0.0 d
4 M 0 1039 1200 -1039.23 re S
0 g
2.5 w
1 J
0 86.371 m 0 172.973 l S
75 216.277 m 0 172.973 l S
-75 216.277 m 0 172.973 l S
75 216.277 m 0 172.973 l S
0 86.371 m 0 172.973 l S
-75 216.277 m 0 172.973 l S
0 86.371 m 50 115.238 50 144.105 0 172.973 c S
75 216.277 m 75 158.539 50 144.105 0 172.973 c S
-75 216.277 m -75 158.539 -50 144.105 0 172.973 c S
75 216.277 m 25 245.145 0 230.711 0 172.973 c S
0 86.371 m -50 115.238 -50 144.105 0 172.973 c S
-75 216.277 m -25 245.145 0 230.711 0 172.973 c S
0 605.988 m 0 692.59 l S
75 735.891 m 0 692.59 l S
-75 735.891 m 0 692.59 l S
75 735.891 m 0 692.59 l S
0 605.988 m 0 692.59 l S
-75 735.891 m 0 692.59 l S
0 605.988 m 50 634.855 50 663.723 0 692.59 c S
75 735.891 m 75 678.156 50 663.723 0 692.59 c S
-75 735.891 m -75 678.156 -50 663.723 0 692.59 c S
75 735.891 m 25 764.758 0 750.324 0 692.59 c S
0 605.988 m -50 634.855 -50 663.723 0 692.59 c S
-75 735.891 m -25 764.758 0 750.324 0 692.59 c S
150 346.18 m 150 432.781 l S
225 476.082 m 150 432.781 l S
75 476.082 m 150 432.781 l S
225 476.082 m 150 432.781 l S
150 346.18 m 150 432.781 l S
75 476.082 m 150 432.781 l S
150 346.18 m 200 375.047 200 403.914 150 432.781 c S
225 476.082 m 225 418.348 200 403.914 150 432.781 c S
75 476.082 m 75 418.348 100 403.914 150 432.781 c S
225 476.082 m 175 504.949 150 490.516 150 432.781 c S
150 346.18 m 100 375.047 100 403.914 150 432.781 c S
75 476.082 m 125 504.949 150 490.516 150 432.781 c S
300 86.371 m 300 172.973 l S
375 216.277 m 300 172.973 l S
225 216.277 m 300 172.973 l S
375 216.277 m 300 172.973 l S
300 86.371 m 300 172.973 l S
225 216.277 m 300 172.973 l S
300 86.371 m 350 115.238 350 144.105 300 172.973 c S
375 216.277 m 375 158.539 350 144.105 300 172.973 c S
225 216.277 m 225 158.539 250 144.105 300 172.973 c S
375 216.277 m 325 245.145 300 230.711 300 172.973 c S
300 86.371 m 250 115.238 250 144.105 300 172.973 c S
225 216.277 m 275 245.145 300 230.711 300 172.973 c S
150 865.793 m 150 952.398 l S
225 995.699 m 150 952.398 l S
75 995.699 m 150 952.398 l S
225 995.699 m 150 952.398 l S
150 865.793 m 150 952.398 l S
75 995.699 m 150 952.398 l S
150 865.793 m 200 894.664 200 923.531 150 952.398 c S
225 995.699 m 225 937.965 200 923.531 150 952.398 c S
75 995.699 m 75 937.965 100 923.531 150 952.398 c S
225 995.699 m 175 1024.566 150 1010.133 150 952.398 c S
150 865.793 m 100 894.664 100 923.531 150 952.398 c S
75 995.699 m 125 1024.566 150 1010.133 150 952.398 c S
300 605.988 m 300 692.59 l S
375 735.891 m 300 692.59 l S
225 735.891 m 300 692.59 l S
375 735.891 m 300 692.59 l S
300 605.988 m 300 692.59 l S
225 735.891 m 300 692.59 l S
300 605.988 m 350 634.855 350 663.723 300 692.59 c S
375 735.891 m 375 678.156 350 663.723 300 692.59 c S
225 735.891 m 225 678.156 250 663.723 300 692.59 c S
375 735.891 m 325 764.758 300 750.324 300 692.59 c S
300 605.988 m 250 634.855 250 663.723 300 692.59 c S
225 735.891 m 275 764.758 300 750.324 300 692.59 c S
450 346.18 m 450 432.781 l S
525 476.082 m 450 432.781 l S
375 476.082 m 450 432.781 l S
525 476.082 m 450 432.781 l S
450 346.18 m 450 432.781 l S
375 476.082 m 450 432.781 l S
450 346.18 m 500 375.047 500 403.914 450 432.781 c S
525 476.082 m 525 418.348 500 403.914 450 432.781 c S
375 476.082 m 375 418.348 400 403.914 450 432.781 c S
525 476.082 m 475 504.949 450 490.516 450 432.781 c S
450 346.18 m 400 375.047 400 403.914 450 432.781 c S
375 476.082 m 425 504.949 450 490.516 450 432.781 c S
600 86.371 m 600 172.973 l S
675 216.277 m 600 172.973 l S
525 216.277 m 600 172.973 l S
675 216.277 m 600 172.973 l S
600 86.371 m 600 172.973 l S
525 216.277 m 600 172.973 l S
600 86.371 m 650 115.238 650 144.105 600 172.973 c S
675 216.277 m 675 158.539 650 144.105 600 172.973 c S
525 216.277 m 525 158.539 550 144.105 600 172.973 c S
675 216.277 m 625 245.145 600 230.711 600 172.973 c S
600 86.371 m 550 115.238 550 144.105 600 172.973 c S
525 216.277 m 575 245.145 600 230.711 600 172.973 c S
450 865.793 m 450 952.398 l S
525 995.699 m 450 952.398 l S
375 995.699 m 450 952.398 l S
525 995.699 m 450 952.398 l S
450 865.793 m 450 952.398 l S
375 995.699 m 450 952.398 l S
450 865.793 m 500 894.664 500 923.531 450 952.398 c S
525 995.699 m 525 937.965 500 923.531 450 952.398 c S
375 995.699 m 375 937.965 400 923.531 450 952.398 c S
525 995.699 m 475 1024.566 450 1010.133 450 952.398 c S
450 865.793 m 400 894.664 400 923.531 450 952.398 c S
375 995.699 m 425 1024.566 450 1010.133 450 952.398 c S
600 605.988 m 600 692.59 l S
675 735.891 m 600 692.59 l S
525 735.891 m 600 692.59 l S
675 735.891 m 600 692.59 l S
600 605.988 m 600 692.59 l S
525 735.891 m 600 692.59 l S
600 605.988 m 650 634.855 650 663.723 600 692.59 c S
675 735.891 m 675 678.156 650 663.723 600 692.59 c S
525 735.891 m 525 678.156 550 663.723 600 692.59 c S
675 735.891 m 625 764.758 600 750.324 600 692.59 c S
600 605.988 m 550 634.855 550 663.723 600 692.59 c S
525 735.891 m 575 764.758 600 750.324 600 692.59 c S
750 346.18 m 750 432.781 l S
825 476.082 m 750 432.781 l S
675 476.082 m 750 432.781 l S
825 476.082 m 750 432.781 l S
750 346.18 m 750 432.781 l S
675 476.082 m 750 432.781 l S
750 346.18 m 800 375.047 800 403.914 750 432.781 c S
825 476.082 m 825 418.348 800 403.914 750 432.781 c S
675 476.082 m 675 418.348 700 403.914 750 432.781 c S
825 476.082 m 775 504.949 750 490.516 750 432.781 c S
750 346.18 m 700 375.047 700 403.914 750 432.781 c S
675 476.082 m 725 504.949 750 490.516 750 432.781 c S
900 86.371 m 900 172.973 l S
975 216.277 m 900 172.973 l S
825 216.277 m 900 172.973 l S
975 216.277 m 900 172.973 l S
900 86.371 m 900 172.973 l S
825 216.277 m 900 172.973 l S
900 86.371 m 950 115.238 950 144.105 900 172.973 c S
975 216.277 m 975 158.539 950 144.105 900 172.973 c S
825 216.277 m 825 158.539 850 144.105 900 172.973 c S
975 216.277 m 925 245.145 900 230.711 900 172.973 c S
900 86.371 m 850 115.238 850 144.105 900 172.973 c S
825 216.277 m 875 245.145 900 230.711 900 172.973 c S
750 865.793 m 750 952.398 l S
825 995.699 m 750 952.398 l S
675 995.699 m 750 952.398 l S
825 995.699 m 750 952.398 l S
750 865.793 m 750 952.398 l S
675 995.699 m 750 952.398 l S
750 865.793 m 800 894.664 800 923.531 750 952.398 c S
825 995.699 m 825 937.965 800 923.531 750 952.398 c S
675 995.699 m 675 937.965 700 923.531 750 952.398 c S
825 995.699 m 775 1024.566 750 1010.133 750 952.398 c S
750 865.793 m 700 894.664 700 923.531 750 952.398 c S
675 995.699 m 725 1024.566 750 1010.133 750 952.398 c S
900 605.988 m 900 692.59 l S
975 735.891 m 900 692.59 l S
825 735.891 m 900 692.59 l S
975 735.891 m 900 692.59 l S
900 605.988 m 900 692.59 l S
825 735.891 m 900 692.59 l S
900 605.988 m 950 634.855 950 663.723 900 692.59 c S
975 735.891 m 975 678.156 950 663.723 900 692.59 c S
825 735.891 m 825 678.156 850 663.723 900 692.59 c S
975 735.891 m 925 764.758 900 750.324 900 692.59 c S
900 605.988 m 850 634.855 850 663.723 900 692.59 c S
825 735.891 m 875 764.758 900 750.324 900 692.59 c S
1050 346.18 m 1050 432.781 l S
1125 476.082 m 1050 432.781 l S
975 476.082 m 1050 432.781 l S
1125 476.082 m 1050 432.781 l S
1050 346.18 m 1050 432.781 l S
975 476.082 m 1050 432.781 l S
1050 346.18 m 1100 375.047 1100 403.914 1050 432.781 c S
1125 476.082 m 1125 418.348 1100 403.914 1050 432.781 c S
975 476.082 m 975 418.348 1000 403.914 1050 432.781 c S
1125 476.082 m 1075 504.949 1050 490.516 1050 432.781 c S
1050 346.18 m 1000 375.047 1000 403.914 1050 432.781 c S
975 476.082 m 1025 504.949 1050 490.516 1050 432.781 c S
1200 86.371 m 1200 172.973 l S
1275 216.277 m 1200 172.973 l S
1125 216.277 m 1200 172.973 l S
1275 216.277 m 1200 172.973 l S
1200 86.371 m 1200 172.973 l S
1125 216.277 m 1200 172.973 l S
1200 86.371 m 1250 115.238 1250 144.105 1200 172.973 c S
1275 216.277 m 1275 158.539 1250 144.105 1200 172.973 c S
1125 216.277 m 1125 158.539 1150 144.105 1200 172.973 c S
1275 216.277 m 1225 245.145 1200 230.711 1200 172.973 c S
1200 86.371 m 1150 115.238 1150 144.105 1200 172.973 c S
1125 216.277 m 1175 245.145 1200 230.711 1200 172.973 c S
1050 865.793 m 1050 952.398 l S
1125 995.699 m 1050 952.398 l S
975 995.699 m 1050 952.398 l S
1125 995.699 m 1050 952.398 l S
1050 865.793 m 1050 952.398 l S
975 995.699 m 1050 952.398 l S
1050 865.793 m 1100 894.664 1100 923.531 1050 952.398 c S
1125 995.699 m 1125 937.965 1100 923.531 1050 952.398 c S
975 995.699 m 975 937.965 1000 923.531 1050 952.398 c S
1125 995.699 m 1075 1024.566 1050 1010.133 1050 952.398 c S
1050 865.793 m 1000 894.664 1000 923.531 1050 952.398 c S
975 995.699 m 1025 1024.566 1050 1010.133 1050 952.398 c S
1200 605.988 m 1200 692.59 l S
1275 735.891 m 1200 692.59 l S
1125 735.891 m 1200 692.59 l S
1275 735.891 m 1200 692.59 l S
1200 605.988 m 1200 692.59 l S
1125 735.891 m 1200 692.59 l S
1200 605.988 m 1250 634.855 1250 663.723 1200 692.59 c S
1275 735.891 m 1275 678.156 1250 663.723 1200 692.59 c S
1125 735.891 m 1125 678.156 1150 663.723 1200 692.59 c S
1275 735.891 m 1225 764.758 1200 750.324 1200 692.59 c S
1200 605.988 m 1150 634.855 1150 663.723 1200 692.59 c S
1125 735.891 m 1175 764.758 1200 750.324 1200 692.59 c S
Q Q
showpage
%%Trailer
%%Trailer
cleartomark
countdictstack
exch sub { end } repeat
restore
%%EOF
