%!PS-Adobe-2.0 EPSF-2.0
%%BoundingBox: 0 0 2100 1400
%%HiResBoundingBox: 0.000000 0.000000 2100.000000 1400.000000
%%Creator: cairo 1.14.2 (http://cairographics.org)
%%CreationDate: Mon Sep  7 08:21:37 2015
%%DocumentData: Clean7Bit
%%LanguageLevel: 2
%%DocumentMedia: 741x494mm 2100 1400 0 () ()
%%EndComments
% EPSF created by ps2eps 1.68
%%BeginProlog
save
countdictstack
mark
newpath
/showpage {} def
/setpagedevice {pop} def
%%EndProlog
%%Page 1 1
%%BeginProlog
/languagelevel where
{ pop languagelevel } { 1 } ifelse
2 lt { /Helvetica findfont 12 scalefont setfont 50 500 moveto
  (This print job requires a PostScript Language Level 2 printer.) show
  showpage quit } if
/q { gsave } bind def
/Q { grestore } bind def
/cm { 6 array astore concat } bind def
/w { setlinewidth } bind def
/J { setlinecap } bind def
/j { setlinejoin } bind def
/M { setmiterlimit } bind def
/d { setdash } bind def
/m { moveto } bind def
/l { lineto } bind def
/c { curveto } bind def
/h { closepath } bind def
/re { exch dup neg 3 1 roll 5 3 roll moveto 0 rlineto
      0 exch rlineto 0 rlineto closepath } bind def
/S { stroke } bind def
/f { fill } bind def
/f* { eofill } bind def
/n { newpath } bind def
/W { clip } bind def
/W* { eoclip } bind def
/BT { } bind def
/ET { } bind def
/pdfmark where { pop globaldict /?pdfmark /exec load put }
    { globaldict begin /?pdfmark /pop load def /pdfmark
    /cleartomark load def end } ifelse
/BDC { mark 3 1 roll /BDC pdfmark } bind def
/EMC { mark /EMC pdfmark } bind def
/cairo_store_point { /cairo_point_y exch def /cairo_point_x exch def } def
/Tj { show currentpoint cairo_store_point } bind def
/TJ {
  {
    dup
    type /stringtype eq
    { show } { -0.001 mul 0 cairo_font_matrix dtransform rmoveto } ifelse
  } forall
  currentpoint cairo_store_point
} bind def
/cairo_selectfont { cairo_font_matrix aload pop pop pop 0 0 6 array astore
    cairo_font exch selectfont cairo_point_x cairo_point_y moveto } bind def
/Tf { pop /cairo_font exch def /cairo_font_matrix where
      { pop cairo_selectfont } if } bind def
/Td { matrix translate cairo_font_matrix matrix concatmatrix dup
      /cairo_font_matrix exch def dup 4 get exch 5 get cairo_store_point
      /cairo_font where { pop cairo_selectfont } if } bind def
/Tm { 2 copy 8 2 roll 6 array astore /cairo_font_matrix exch def
      cairo_store_point /cairo_font where { pop cairo_selectfont } if } bind def
/g { setgray } bind def
/rg { setrgbcolor } bind def
/d1 { setcachedevice } bind def
/cairo_set_page_size {
  % Change paper size, but only if different from previous paper size otherwise
  % duplex fails. PLRM specifies a tolerance of 5 pts when matching paper size
  % so we use the same when checking if the size changes.
  /setpagedevice where {
    pop currentpagedevice
    /PageSize known {
      2 copy
      currentpagedevice /PageSize get aload pop
      exch 4 1 roll
      sub abs 5 gt
      3 1 roll
      sub abs 5 gt
      or
    } {
      true
    } ifelse
    {
      2 array astore
      2 dict begin
        /PageSize exch def
        /ImagingBBox null def
      currentdict end
      setpagedevice
    } {
      pop pop
    } ifelse
  } {
    pop
  } ifelse
} def
%%EndProlog
%%BeginSetup
%%EndSetup
%%Page: 1 1
%%BeginPageSetup
%%PageMedia: 741x494mm
%%PageBoundingBox: 0 0 2100 1400
2100 1400 cairo_set_page_size
%%EndPageSetup
q 0 0 2100 1400 rectclip q
0.984314 g
0 0 2100 1400 rectfill
0.788235 g
1.875 w
0 J
1 j
[] 0.0 d
4 M 0 1400 2100 -1400 re S
0.85098 g
0 1341.668 m 175 1400 l 58.332 1225 l 175 1283.332 l h
0 1341.668 m f*
0 g
2.5 w
0 1341.668 m 175 1400 l 58.332 1225 l 175 1283.332 l h
0 1341.668 m S
0.85098 g
291.668 1400 m 350 1225 l 175 1341.668 l 233.332 1225 l h
291.668 1400 m f*
0 g
291.668 1400 m 350 1225 l 175 1341.668 l 233.332 1225 l h
291.668 1400 m S
0.85098 g
350 1108.332 m 175 1050 l 291.668 1225 l 175 1166.668 l h
350 1108.332 m f*
0 g
350 1108.332 m 175 1050 l 291.668 1225 l 175 1166.668 l h
350 1108.332 m S
0.85098 g
58.332 1050 m 0 1225 l 175 1108.332 l 116.668 1225 l h
58.332 1050 m f*
0 g
58.332 1050 m 0 1225 l 175 1108.332 l 116.668 1225 l h
58.332 1050 m S
0.85098 g
0 991.668 m 175 1050 l 58.332 875 l 175 933.332 l h
0 991.668 m f*
0 g
0 991.668 m 175 1050 l 58.332 875 l 175 933.332 l h
0 991.668 m S
0.85098 g
291.668 1050 m 350 875 l 175 991.668 l 233.332 875 l h
291.668 1050 m f*
0 g
291.668 1050 m 350 875 l 175 991.668 l 233.332 875 l h
291.668 1050 m S
0.85098 g
350 758.332 m 175 700 l 291.668 875 l 175 816.668 l h
350 758.332 m f*
0 g
350 758.332 m 175 700 l 291.668 875 l 175 816.668 l h
350 758.332 m S
0.85098 g
58.332 700 m 0 875 l 175 758.332 l 116.668 875 l h
58.332 700 m f*
0 g
58.332 700 m 0 875 l 175 758.332 l 116.668 875 l h
58.332 700 m S
0.85098 g
0 641.668 m 175 700 l 58.332 525 l 175 583.332 l h
0 641.668 m f*
0 g
0 641.668 m 175 700 l 58.332 525 l 175 583.332 l h
0 641.668 m S
0.85098 g
291.668 700 m 350 525 l 175 641.668 l 233.332 525 l h
291.668 700 m f*
0 g
291.668 700 m 350 525 l 175 641.668 l 233.332 525 l h
291.668 700 m S
0.85098 g
350 408.332 m 175 350 l 291.668 525 l 175 466.668 l h
350 408.332 m f*
0 g
350 408.332 m 175 350 l 291.668 525 l 175 466.668 l h
350 408.332 m S
0.85098 g
58.332 350 m 0 525 l 175 408.332 l 116.668 525 l h
58.332 350 m f*
0 g
58.332 350 m 0 525 l 175 408.332 l 116.668 525 l h
58.332 350 m S
0.85098 g
0 291.668 m 175 350 l 58.332 175 l 175 233.332 l h
0 291.668 m f*
0 g
0 291.668 m 175 350 l 58.332 175 l 175 233.332 l h
0 291.668 m S
0.85098 g
291.668 350 m 350 175 l 175 291.668 l 233.332 175 l h
291.668 350 m f*
0 g
291.668 350 m 350 175 l 175 291.668 l 233.332 175 l h
291.668 350 m S
0.85098 g
350 58.332 m 175 0 l 291.668 175 l 175 116.668 l h
350 58.332 m f*
0 g
350 58.332 m 175 0 l 291.668 175 l 175 116.668 l h
350 58.332 m S
0.85098 g
58.332 0 m 0 175 l 175 58.332 l 116.668 175 l h
58.332 0 m f*
0 g
58.332 0 m 0 175 l 175 58.332 l 116.668 175 l h
58.332 0 m S
0.85098 g
350 1341.668 m 525 1400 l 408.332 1225 l 525 1283.332 l h
350 1341.668 m f*
0 g
350 1341.668 m 525 1400 l 408.332 1225 l 525 1283.332 l h
350 1341.668 m S
0.85098 g
641.668 1400 m 700 1225 l 525 1341.668 l 583.332 1225 l h
641.668 1400 m f*
0 g
641.668 1400 m 700 1225 l 525 1341.668 l 583.332 1225 l h
641.668 1400 m S
0.85098 g
700 1108.332 m 525 1050 l 641.668 1225 l 525 1166.668 l h
700 1108.332 m f*
0 g
700 1108.332 m 525 1050 l 641.668 1225 l 525 1166.668 l h
700 1108.332 m S
0.85098 g
408.332 1050 m 350 1225 l 525 1108.332 l 466.668 1225 l h
408.332 1050 m f*
0 g
408.332 1050 m 350 1225 l 525 1108.332 l 466.668 1225 l h
408.332 1050 m S
0.85098 g
350 991.668 m 525 1050 l 408.332 875 l 525 933.332 l h
350 991.668 m f*
0 g
350 991.668 m 525 1050 l 408.332 875 l 525 933.332 l h
350 991.668 m S
0.85098 g
641.668 1050 m 700 875 l 525 991.668 l 583.332 875 l h
641.668 1050 m f*
0 g
641.668 1050 m 700 875 l 525 991.668 l 583.332 875 l h
641.668 1050 m S
0.85098 g
700 758.332 m 525 700 l 641.668 875 l 525 816.668 l h
700 758.332 m f*
0 g
700 758.332 m 525 700 l 641.668 875 l 525 816.668 l h
700 758.332 m S
0.85098 g
408.332 700 m 350 875 l 525 758.332 l 466.668 875 l h
408.332 700 m f*
0 g
408.332 700 m 350 875 l 525 758.332 l 466.668 875 l h
408.332 700 m S
0.85098 g
350 641.668 m 525 700 l 408.332 525 l 525 583.332 l h
350 641.668 m f*
0 g
350 641.668 m 525 700 l 408.332 525 l 525 583.332 l h
350 641.668 m S
0.85098 g
641.668 700 m 700 525 l 525 641.668 l 583.332 525 l h
641.668 700 m f*
0 g
641.668 700 m 700 525 l 525 641.668 l 583.332 525 l h
641.668 700 m S
0.85098 g
700 408.332 m 525 350 l 641.668 525 l 525 466.668 l h
700 408.332 m f*
0 g
700 408.332 m 525 350 l 641.668 525 l 525 466.668 l h
700 408.332 m S
0.85098 g
408.332 350 m 350 525 l 525 408.332 l 466.668 525 l h
408.332 350 m f*
0 g
408.332 350 m 350 525 l 525 408.332 l 466.668 525 l h
408.332 350 m S
0.85098 g
350 291.668 m 525 350 l 408.332 175 l 525 233.332 l h
350 291.668 m f*
0 g
350 291.668 m 525 350 l 408.332 175 l 525 233.332 l h
350 291.668 m S
0.85098 g
641.668 350 m 700 175 l 525 291.668 l 583.332 175 l h
641.668 350 m f*
0 g
641.668 350 m 700 175 l 525 291.668 l 583.332 175 l h
641.668 350 m S
0.85098 g
700 58.332 m 525 0 l 641.668 175 l 525 116.668 l h
700 58.332 m f*
0 g
700 58.332 m 525 0 l 641.668 175 l 525 116.668 l h
700 58.332 m S
0.85098 g
408.332 0 m 350 175 l 525 58.332 l 466.668 175 l h
408.332 0 m f*
0 g
408.332 0 m 350 175 l 525 58.332 l 466.668 175 l h
408.332 0 m S
0.85098 g
700 1341.668 m 875 1400 l 758.332 1225 l 875 1283.332 l h
700 1341.668 m f*
0 g
700 1341.668 m 875 1400 l 758.332 1225 l 875 1283.332 l h
700 1341.668 m S
0.85098 g
991.668 1400 m 1050 1225 l 875 1341.668 l 933.332 1225 l h
991.668 1400 m f*
0 g
991.668 1400 m 1050 1225 l 875 1341.668 l 933.332 1225 l h
991.668 1400 m S
0.85098 g
1050 1108.332 m 875 1050 l 991.668 1225 l 875 1166.668 l h
1050 1108.332 m f*
0 g
1050 1108.332 m 875 1050 l 991.668 1225 l 875 1166.668 l h
1050 1108.332 m S
0.85098 g
758.332 1050 m 700 1225 l 875 1108.332 l 816.668 1225 l h
758.332 1050 m f*
0 g
758.332 1050 m 700 1225 l 875 1108.332 l 816.668 1225 l h
758.332 1050 m S
0.85098 g
700 991.668 m 875 1050 l 758.332 875 l 875 933.332 l h
700 991.668 m f*
0 g
700 991.668 m 875 1050 l 758.332 875 l 875 933.332 l h
700 991.668 m S
0.85098 g
991.668 1050 m 1050 875 l 875 991.668 l 933.332 875 l h
991.668 1050 m f*
0 g
991.668 1050 m 1050 875 l 875 991.668 l 933.332 875 l h
991.668 1050 m S
0.85098 g
1050 758.332 m 875 700 l 991.668 875 l 875 816.668 l h
1050 758.332 m f*
0 g
1050 758.332 m 875 700 l 991.668 875 l 875 816.668 l h
1050 758.332 m S
0.85098 g
758.332 700 m 700 875 l 875 758.332 l 816.668 875 l h
758.332 700 m f*
0 g
758.332 700 m 700 875 l 875 758.332 l 816.668 875 l h
758.332 700 m S
0.85098 g
700 641.668 m 875 700 l 758.332 525 l 875 583.332 l h
700 641.668 m f*
0 g
700 641.668 m 875 700 l 758.332 525 l 875 583.332 l h
700 641.668 m S
0.85098 g
991.668 700 m 1050 525 l 875 641.668 l 933.332 525 l h
991.668 700 m f*
0 g
991.668 700 m 1050 525 l 875 641.668 l 933.332 525 l h
991.668 700 m S
0.85098 g
1050 408.332 m 875 350 l 991.668 525 l 875 466.668 l h
1050 408.332 m f*
0 g
1050 408.332 m 875 350 l 991.668 525 l 875 466.668 l h
1050 408.332 m S
0.85098 g
758.332 350 m 700 525 l 875 408.332 l 816.668 525 l h
758.332 350 m f*
0 g
758.332 350 m 700 525 l 875 408.332 l 816.668 525 l h
758.332 350 m S
0.85098 g
700 291.668 m 875 350 l 758.332 175 l 875 233.332 l h
700 291.668 m f*
0 g
700 291.668 m 875 350 l 758.332 175 l 875 233.332 l h
700 291.668 m S
0.85098 g
991.668 350 m 1050 175 l 875 291.668 l 933.332 175 l h
991.668 350 m f*
0 g
991.668 350 m 1050 175 l 875 291.668 l 933.332 175 l h
991.668 350 m S
0.85098 g
1050 58.332 m 875 0 l 991.668 175 l 875 116.668 l h
1050 58.332 m f*
0 g
1050 58.332 m 875 0 l 991.668 175 l 875 116.668 l h
1050 58.332 m S
0.85098 g
758.332 0 m 700 175 l 875 58.332 l 816.668 175 l h
758.332 0 m f*
0 g
758.332 0 m 700 175 l 875 58.332 l 816.668 175 l h
758.332 0 m S
0.85098 g
1050 1341.668 m 1225 1400 l 1108.332 1225 l 1225 1283.332 l h
1050 1341.668 m f*
0 g
1050 1341.668 m 1225 1400 l 1108.332 1225 l 1225 1283.332 l h
1050 1341.668 m S
0.85098 g
1341.668 1400 m 1400 1225 l 1225 1341.668 l 1283.332 1225 l h
1341.668 1400 m f*
0 g
1341.668 1400 m 1400 1225 l 1225 1341.668 l 1283.332 1225 l h
1341.668 1400 m S
0.85098 g
1400 1108.332 m 1225 1050 l 1341.668 1225 l 1225 1166.668 l h
1400 1108.332 m f*
0 g
1400 1108.332 m 1225 1050 l 1341.668 1225 l 1225 1166.668 l h
1400 1108.332 m S
0.85098 g
1108.332 1050 m 1050 1225 l 1225 1108.332 l 1166.668 1225 l h
1108.332 1050 m f*
0 g
1108.332 1050 m 1050 1225 l 1225 1108.332 l 1166.668 1225 l h
1108.332 1050 m S
0.85098 g
1050 991.668 m 1225 1050 l 1108.332 875 l 1225 933.332 l h
1050 991.668 m f*
0 g
1050 991.668 m 1225 1050 l 1108.332 875 l 1225 933.332 l h
1050 991.668 m S
0.85098 g
1341.668 1050 m 1400 875 l 1225 991.668 l 1283.332 875 l h
1341.668 1050 m f*
0 g
1341.668 1050 m 1400 875 l 1225 991.668 l 1283.332 875 l h
1341.668 1050 m S
0.85098 g
1400 758.332 m 1225 700 l 1341.668 875 l 1225 816.668 l h
1400 758.332 m f*
0 g
1400 758.332 m 1225 700 l 1341.668 875 l 1225 816.668 l h
1400 758.332 m S
0.85098 g
1108.332 700 m 1050 875 l 1225 758.332 l 1166.668 875 l h
1108.332 700 m f*
0 g
1108.332 700 m 1050 875 l 1225 758.332 l 1166.668 875 l h
1108.332 700 m S
0.85098 g
1050 641.668 m 1225 700 l 1108.332 525 l 1225 583.332 l h
1050 641.668 m f*
0 g
1050 641.668 m 1225 700 l 1108.332 525 l 1225 583.332 l h
1050 641.668 m S
0.85098 g
1341.668 700 m 1400 525 l 1225 641.668 l 1283.332 525 l h
1341.668 700 m f*
0 g
1341.668 700 m 1400 525 l 1225 641.668 l 1283.332 525 l h
1341.668 700 m S
0.85098 g
1400 408.332 m 1225 350 l 1341.668 525 l 1225 466.668 l h
1400 408.332 m f*
0 g
1400 408.332 m 1225 350 l 1341.668 525 l 1225 466.668 l h
1400 408.332 m S
0.85098 g
1108.332 350 m 1050 525 l 1225 408.332 l 1166.668 525 l h
1108.332 350 m f*
0 g
1108.332 350 m 1050 525 l 1225 408.332 l 1166.668 525 l h
1108.332 350 m S
0.85098 g
1050 291.668 m 1225 350 l 1108.332 175 l 1225 233.332 l h
1050 291.668 m f*
0 g
1050 291.668 m 1225 350 l 1108.332 175 l 1225 233.332 l h
1050 291.668 m S
0.85098 g
1341.668 350 m 1400 175 l 1225 291.668 l 1283.332 175 l h
1341.668 350 m f*
0 g
1341.668 350 m 1400 175 l 1225 291.668 l 1283.332 175 l h
1341.668 350 m S
0.85098 g
1400 58.332 m 1225 0 l 1341.668 175 l 1225 116.668 l h
1400 58.332 m f*
0 g
1400 58.332 m 1225 0 l 1341.668 175 l 1225 116.668 l h
1400 58.332 m S
0.85098 g
1108.332 0 m 1050 175 l 1225 58.332 l 1166.668 175 l h
1108.332 0 m f*
0 g
1108.332 0 m 1050 175 l 1225 58.332 l 1166.668 175 l h
1108.332 0 m S
0.85098 g
1400 1341.668 m 1575 1400 l 1458.332 1225 l 1575 1283.332 l h
1400 1341.668 m f*
0 g
1400 1341.668 m 1575 1400 l 1458.332 1225 l 1575 1283.332 l h
1400 1341.668 m S
0.85098 g
1691.668 1400 m 1750 1225 l 1575 1341.668 l 1633.332 1225 l h
1691.668 1400 m f*
0 g
1691.668 1400 m 1750 1225 l 1575 1341.668 l 1633.332 1225 l h
1691.668 1400 m S
0.85098 g
1750 1108.332 m 1575 1050 l 1691.668 1225 l 1575 1166.668 l h
1750 1108.332 m f*
0 g
1750 1108.332 m 1575 1050 l 1691.668 1225 l 1575 1166.668 l h
1750 1108.332 m S
0.85098 g
1458.332 1050 m 1400 1225 l 1575 1108.332 l 1516.668 1225 l h
1458.332 1050 m f*
0 g
1458.332 1050 m 1400 1225 l 1575 1108.332 l 1516.668 1225 l h
1458.332 1050 m S
0.85098 g
1400 991.668 m 1575 1050 l 1458.332 875 l 1575 933.332 l h
1400 991.668 m f*
0 g
1400 991.668 m 1575 1050 l 1458.332 875 l 1575 933.332 l h
1400 991.668 m S
0.85098 g
1691.668 1050 m 1750 875 l 1575 991.668 l 1633.332 875 l h
1691.668 1050 m f*
0 g
1691.668 1050 m 1750 875 l 1575 991.668 l 1633.332 875 l h
1691.668 1050 m S
0.85098 g
1750 758.332 m 1575 700 l 1691.668 875 l 1575 816.668 l h
1750 758.332 m f*
0 g
1750 758.332 m 1575 700 l 1691.668 875 l 1575 816.668 l h
1750 758.332 m S
0.85098 g
1458.332 700 m 1400 875 l 1575 758.332 l 1516.668 875 l h
1458.332 700 m f*
0 g
1458.332 700 m 1400 875 l 1575 758.332 l 1516.668 875 l h
1458.332 700 m S
0.85098 g
1400 641.668 m 1575 700 l 1458.332 525 l 1575 583.332 l h
1400 641.668 m f*
0 g
1400 641.668 m 1575 700 l 1458.332 525 l 1575 583.332 l h
1400 641.668 m S
0.85098 g
1691.668 700 m 1750 525 l 1575 641.668 l 1633.332 525 l h
1691.668 700 m f*
0 g
1691.668 700 m 1750 525 l 1575 641.668 l 1633.332 525 l h
1691.668 700 m S
0.85098 g
1750 408.332 m 1575 350 l 1691.668 525 l 1575 466.668 l h
1750 408.332 m f*
0 g
1750 408.332 m 1575 350 l 1691.668 525 l 1575 466.668 l h
1750 408.332 m S
0.85098 g
1458.332 350 m 1400 525 l 1575 408.332 l 1516.668 525 l h
1458.332 350 m f*
0 g
1458.332 350 m 1400 525 l 1575 408.332 l 1516.668 525 l h
1458.332 350 m S
0.85098 g
1400 291.668 m 1575 350 l 1458.332 175 l 1575 233.332 l h
1400 291.668 m f*
0 g
1400 291.668 m 1575 350 l 1458.332 175 l 1575 233.332 l h
1400 291.668 m S
0.85098 g
1691.668 350 m 1750 175 l 1575 291.668 l 1633.332 175 l h
1691.668 350 m f*
0 g
1691.668 350 m 1750 175 l 1575 291.668 l 1633.332 175 l h
1691.668 350 m S
0.85098 g
1750 58.332 m 1575 0 l 1691.668 175 l 1575 116.668 l h
1750 58.332 m f*
0 g
1750 58.332 m 1575 0 l 1691.668 175 l 1575 116.668 l h
1750 58.332 m S
0.85098 g
1458.332 0 m 1400 175 l 1575 58.332 l 1516.668 175 l h
1458.332 0 m f*
0 g
1458.332 0 m 1400 175 l 1575 58.332 l 1516.668 175 l h
1458.332 0 m S
0.85098 g
1750 1341.668 m 1925 1400 l 1808.332 1225 l 1925 1283.332 l h
1750 1341.668 m f*
0 g
1750 1341.668 m 1925 1400 l 1808.332 1225 l 1925 1283.332 l h
1750 1341.668 m S
0.85098 g
2041.668 1400 m 2100 1225 l 1925 1341.668 l 1983.332 1225 l h
2041.668 1400 m f*
0 g
2041.668 1400 m 2100 1225 l 1925 1341.668 l 1983.332 1225 l h
2041.668 1400 m S
0.85098 g
2100 1108.332 m 1925 1050 l 2041.668 1225 l 1925 1166.668 l h
2100 1108.332 m f*
0 g
2100 1108.332 m 1925 1050 l 2041.668 1225 l 1925 1166.668 l h
2100 1108.332 m S
0.85098 g
1808.332 1050 m 1750 1225 l 1925 1108.332 l 1866.668 1225 l h
1808.332 1050 m f*
0 g
1808.332 1050 m 1750 1225 l 1925 1108.332 l 1866.668 1225 l h
1808.332 1050 m S
0.85098 g
1750 991.668 m 1925 1050 l 1808.332 875 l 1925 933.332 l h
1750 991.668 m f*
0 g
1750 991.668 m 1925 1050 l 1808.332 875 l 1925 933.332 l h
1750 991.668 m S
0.85098 g
2041.668 1050 m 2100 875 l 1925 991.668 l 1983.332 875 l h
2041.668 1050 m f*
0 g
2041.668 1050 m 2100 875 l 1925 991.668 l 1983.332 875 l h
2041.668 1050 m S
0.85098 g
2100 758.332 m 1925 700 l 2041.668 875 l 1925 816.668 l h
2100 758.332 m f*
0 g
2100 758.332 m 1925 700 l 2041.668 875 l 1925 816.668 l h
2100 758.332 m S
0.85098 g
1808.332 700 m 1750 875 l 1925 758.332 l 1866.668 875 l h
1808.332 700 m f*
0 g
1808.332 700 m 1750 875 l 1925 758.332 l 1866.668 875 l h
1808.332 700 m S
0.85098 g
1750 641.668 m 1925 700 l 1808.332 525 l 1925 583.332 l h
1750 641.668 m f*
0 g
1750 641.668 m 1925 700 l 1808.332 525 l 1925 583.332 l h
1750 641.668 m S
0.85098 g
2041.668 700 m 2100 525 l 1925 641.668 l 1983.332 525 l h
2041.668 700 m f*
0 g
2041.668 700 m 2100 525 l 1925 641.668 l 1983.332 525 l h
2041.668 700 m S
0.85098 g
2100 408.332 m 1925 350 l 2041.668 525 l 1925 466.668 l h
2100 408.332 m f*
0 g
2100 408.332 m 1925 350 l 2041.668 525 l 1925 466.668 l h
2100 408.332 m S
0.85098 g
1808.332 350 m 1750 525 l 1925 408.332 l 1866.668 525 l h
1808.332 350 m f*
0 g
1808.332 350 m 1750 525 l 1925 408.332 l 1866.668 525 l h
1808.332 350 m S
0.85098 g
1750 291.668 m 1925 350 l 1808.332 175 l 1925 233.332 l h
1750 291.668 m f*
0 g
1750 291.668 m 1925 350 l 1808.332 175 l 1925 233.332 l h
1750 291.668 m S
0.85098 g
2041.668 350 m 2100 175 l 1925 291.668 l 1983.332 175 l h
2041.668 350 m f*
0 g
2041.668 350 m 2100 175 l 1925 291.668 l 1983.332 175 l h
2041.668 350 m S
0.85098 g
2100 58.332 m 1925 0 l 2041.668 175 l 1925 116.668 l h
2100 58.332 m f*
0 g
2100 58.332 m 1925 0 l 2041.668 175 l 1925 116.668 l h
2100 58.332 m S
0.85098 g
1808.332 0 m 1750 175 l 1925 58.332 l 1866.668 175 l h
1808.332 0 m f*
0 g
1808.332 0 m 1750 175 l 1925 58.332 l 1866.668 175 l h
1808.332 0 m S
Q Q
showpage
%%Trailer
%%Trailer
cleartomark
countdictstack
exch sub { end } repeat
restore
%%EOF
