%!PS-Adobe-2.0 EPSF-2.0
%%BoundingBox: 0 0 2100 1400
%%HiResBoundingBox: 0.000000 0.000000 2100.000000 1400.000000
%%Creator: cairo 1.14.2 (http://cairographics.org)
%%CreationDate: Mon Sep  7 08:21:37 2015
%%DocumentData: Clean7Bit
%%LanguageLevel: 2
%%DocumentMedia: 741x494mm 2100 1400 0 () ()
%%EndComments
% EPSF created by ps2eps 1.68
%%BeginProlog
save
countdictstack
mark
newpath
/showpage {} def
/setpagedevice {pop} def
%%EndProlog
%%Page 1 1
%%BeginProlog
/languagelevel where
{ pop languagelevel } { 1 } ifelse
2 lt { /Helvetica findfont 12 scalefont setfont 50 500 moveto
  (This print job requires a PostScript Language Level 2 printer.) show
  showpage quit } if
/q { gsave } bind def
/Q { grestore } bind def
/cm { 6 array astore concat } bind def
/w { setlinewidth } bind def
/J { setlinecap } bind def
/j { setlinejoin } bind def
/M { setmiterlimit } bind def
/d { setdash } bind def
/m { moveto } bind def
/l { lineto } bind def
/c { curveto } bind def
/h { closepath } bind def
/re { exch dup neg 3 1 roll 5 3 roll moveto 0 rlineto
      0 exch rlineto 0 rlineto closepath } bind def
/S { stroke } bind def
/f { fill } bind def
/f* { eofill } bind def
/n { newpath } bind def
/W { clip } bind def
/W* { eoclip } bind def
/BT { } bind def
/ET { } bind def
/pdfmark where { pop globaldict /?pdfmark /exec load put }
    { globaldict begin /?pdfmark /pop load def /pdfmark
    /cleartomark load def end } ifelse
/BDC { mark 3 1 roll /BDC pdfmark } bind def
/EMC { mark /EMC pdfmark } bind def
/cairo_store_point { /cairo_point_y exch def /cairo_point_x exch def } def
/Tj { show currentpoint cairo_store_point } bind def
/TJ {
  {
    dup
    type /stringtype eq
    { show } { -0.001 mul 0 cairo_font_matrix dtransform rmoveto } ifelse
  } forall
  currentpoint cairo_store_point
} bind def
/cairo_selectfont { cairo_font_matrix aload pop pop pop 0 0 6 array astore
    cairo_font exch selectfont cairo_point_x cairo_point_y moveto } bind def
/Tf { pop /cairo_font exch def /cairo_font_matrix where
      { pop cairo_selectfont } if } bind def
/Td { matrix translate cairo_font_matrix matrix concatmatrix dup
      /cairo_font_matrix exch def dup 4 get exch 5 get cairo_store_point
      /cairo_font where { pop cairo_selectfont } if } bind def
/Tm { 2 copy 8 2 roll 6 array astore /cairo_font_matrix exch def
      cairo_store_point /cairo_font where { pop cairo_selectfont } if } bind def
/g { setgray } bind def
/rg { setrgbcolor } bind def
/d1 { setcachedevice } bind def
/cairo_set_page_size {
  % Change paper size, but only if different from previous paper size otherwise
  % duplex fails. PLRM specifies a tolerance of 5 pts when matching paper size
  % so we use the same when checking if the size changes.
  /setpagedevice where {
    pop currentpagedevice
    /PageSize known {
      2 copy
      currentpagedevice /PageSize get aload pop
      exch 4 1 roll
      sub abs 5 gt
      3 1 roll
      sub abs 5 gt
      or
    } {
      true
    } ifelse
    {
      2 array astore
      2 dict begin
        /PageSize exch def
        /ImagingBBox null def
      currentdict end
      setpagedevice
    } {
      pop pop
    } ifelse
  } {
    pop
  } ifelse
} def
%%EndProlog
%%BeginSetup
%%EndSetup
%%Page: 1 1
%%BeginPageSetup
%%PageMedia: 741x494mm
%%PageBoundingBox: 0 0 2100 1400
2100 1400 cairo_set_page_size
%%EndPageSetup
q 0 0 2100 1400 rectclip q
0.984314 g
0 0 2100 1400 rectfill
0.788235 g
1.875 w
0 J
1 j
[] 0.0 d
4 M 0 1400 2100 -1400 re S
0 g
2.5 w
1 J
116.668 1283.332 m 77.777 1361.109 77.777 1400 116.668 1400 c S
233.332 1283.332 m 311.109 1322.223 350 1322.223 350 1283.332 c S
233.332 1166.668 m 272.223 1088.891 272.223 1050 233.332 1050 c S
116.668 1166.668 m 38.891 1127.777 0 1127.777 0 1166.668 c S
233.332 1166.668 m 311.109 1127.777 350 1127.777 350 1166.668 c S
116.668 1283.332 m 38.891 1322.223 0 1322.223 0 1283.332 c S
116.668 1166.668 m 77.777 1088.891 77.777 1050 116.668 1050 c S
233.332 1283.332 m 272.223 1361.109 272.223 1400 233.332 1400 c S
116.668 933.332 m 77.777 1011.109 77.777 1050 116.668 1050 c S
233.332 933.332 m 311.109 972.223 350 972.223 350 933.332 c S
233.332 816.668 m 272.223 738.891 272.223 700 233.332 700 c S
116.668 816.668 m 38.891 777.777 0 777.777 0 816.668 c S
233.332 816.668 m 311.109 777.777 350 777.777 350 816.668 c S
116.668 933.332 m 38.891 972.223 0 972.223 0 933.332 c S
116.668 816.668 m 77.777 738.891 77.777 700 116.668 700 c S
233.332 933.332 m 272.223 1011.109 272.223 1050 233.332 1050 c S
116.668 583.332 m 77.777 661.109 77.777 700 116.668 700 c S
233.332 583.332 m 311.109 622.223 350 622.223 350 583.332 c S
233.332 466.668 m 272.223 388.891 272.223 350 233.332 350 c S
116.668 466.668 m 38.891 427.777 0 427.777 0 466.668 c S
233.332 466.668 m 311.109 427.777 350 427.777 350 466.668 c S
116.668 583.332 m 38.891 622.223 0 622.223 0 583.332 c S
116.668 466.668 m 77.777 388.891 77.777 350 116.668 350 c S
233.332 583.332 m 272.223 661.109 272.223 700 233.332 700 c S
116.668 233.332 m 77.777 311.109 77.777 350 116.668 350 c S
233.332 233.332 m 311.109 272.223 350 272.223 350 233.332 c S
233.332 116.668 m 272.223 38.891 272.223 0 233.332 0 c S
116.668 116.668 m 38.891 77.777 0 77.777 0 116.668 c S
233.332 116.668 m 311.109 77.777 350 77.777 350 116.668 c S
116.668 233.332 m 38.891 272.223 0 272.223 0 233.332 c S
116.668 116.668 m 77.777 38.891 77.777 0 116.668 0 c S
233.332 233.332 m 272.223 311.109 272.223 350 233.332 350 c S
466.668 1283.332 m 427.777 1361.109 427.777 1400 466.668 1400 c S
583.332 1283.332 m 661.109 1322.223 700 1322.223 700 1283.332 c S
583.332 1166.668 m 622.223 1088.891 622.223 1050 583.332 1050 c S
466.668 1166.668 m 388.891 1127.777 350 1127.777 350 1166.668 c S
583.332 1166.668 m 661.109 1127.777 700 1127.777 700 1166.668 c S
466.668 1283.332 m 388.891 1322.223 350 1322.223 350 1283.332 c S
466.668 1166.668 m 427.777 1088.891 427.777 1050 466.668 1050 c S
583.332 1283.332 m 622.223 1361.109 622.223 1400 583.332 1400 c S
466.668 933.332 m 427.777 1011.109 427.777 1050 466.668 1050 c S
583.332 933.332 m 661.109 972.223 700 972.223 700 933.332 c S
583.332 816.668 m 622.223 738.891 622.223 700 583.332 700 c S
466.668 816.668 m 388.891 777.777 350 777.777 350 816.668 c S
583.332 816.668 m 661.109 777.777 700 777.777 700 816.668 c S
466.668 933.332 m 388.891 972.223 350 972.223 350 933.332 c S
466.668 816.668 m 427.777 738.891 427.777 700 466.668 700 c S
583.332 933.332 m 622.223 1011.109 622.223 1050 583.332 1050 c S
466.668 583.332 m 427.777 661.109 427.777 700 466.668 700 c S
583.332 583.332 m 661.109 622.223 700 622.223 700 583.332 c S
583.332 466.668 m 622.223 388.891 622.223 350 583.332 350 c S
466.668 466.668 m 388.891 427.777 350 427.777 350 466.668 c S
583.332 466.668 m 661.109 427.777 700 427.777 700 466.668 c S
466.668 583.332 m 388.891 622.223 350 622.223 350 583.332 c S
466.668 466.668 m 427.777 388.891 427.777 350 466.668 350 c S
583.332 583.332 m 622.223 661.109 622.223 700 583.332 700 c S
466.668 233.332 m 427.777 311.109 427.777 350 466.668 350 c S
583.332 233.332 m 661.109 272.223 700 272.223 700 233.332 c S
583.332 116.668 m 622.223 38.891 622.223 0 583.332 0 c S
466.668 116.668 m 388.891 77.777 350 77.777 350 116.668 c S
583.332 116.668 m 661.109 77.777 700 77.777 700 116.668 c S
466.668 233.332 m 388.891 272.223 350 272.223 350 233.332 c S
466.668 116.668 m 427.777 38.891 427.777 0 466.668 0 c S
583.332 233.332 m 622.223 311.109 622.223 350 583.332 350 c S
816.668 1283.332 m 777.777 1361.109 777.777 1400 816.668 1400 c S
933.332 1283.332 m 1011.109 1322.223 1050 1322.223 1050 1283.332 c S
933.332 1166.668 m 972.223 1088.891 972.223 1050 933.332 1050 c S
816.668 1166.668 m 738.891 1127.777 700 1127.777 700 1166.668 c S
933.332 1166.668 m 1011.109 1127.777 1050 1127.777 1050 1166.668 c S
816.668 1283.332 m 738.891 1322.223 700 1322.223 700 1283.332 c S
816.668 1166.668 m 777.777 1088.891 777.777 1050 816.668 1050 c S
933.332 1283.332 m 972.223 1361.109 972.223 1400 933.332 1400 c S
816.668 933.332 m 777.777 1011.109 777.777 1050 816.668 1050 c S
933.332 933.332 m 1011.109 972.223 1050 972.223 1050 933.332 c S
933.332 816.668 m 972.223 738.891 972.223 700 933.332 700 c S
816.668 816.668 m 738.891 777.777 700 777.777 700 816.668 c S
933.332 816.668 m 1011.109 777.777 1050 777.777 1050 816.668 c S
816.668 933.332 m 738.891 972.223 700 972.223 700 933.332 c S
816.668 816.668 m 777.777 738.891 777.777 700 816.668 700 c S
933.332 933.332 m 972.223 1011.109 972.223 1050 933.332 1050 c S
816.668 583.332 m 777.777 661.109 777.777 700 816.668 700 c S
933.332 583.332 m 1011.109 622.223 1050 622.223 1050 583.332 c S
933.332 466.668 m 972.223 388.891 972.223 350 933.332 350 c S
816.668 466.668 m 738.891 427.777 700 427.777 700 466.668 c S
933.332 466.668 m 1011.109 427.777 1050 427.777 1050 466.668 c S
816.668 583.332 m 738.891 622.223 700 622.223 700 583.332 c S
816.668 466.668 m 777.777 388.891 777.777 350 816.668 350 c S
933.332 583.332 m 972.223 661.109 972.223 700 933.332 700 c S
816.668 233.332 m 777.777 311.109 777.777 350 816.668 350 c S
933.332 233.332 m 1011.109 272.223 1050 272.223 1050 233.332 c S
933.332 116.668 m 972.223 38.891 972.223 0 933.332 0 c S
816.668 116.668 m 738.891 77.777 700 77.777 700 116.668 c S
933.332 116.668 m 1011.109 77.777 1050 77.777 1050 116.668 c S
816.668 233.332 m 738.891 272.223 700 272.223 700 233.332 c S
816.668 116.668 m 777.777 38.891 777.777 0 816.668 0 c S
933.332 233.332 m 972.223 311.109 972.223 350 933.332 350 c S
1166.668 1283.332 m 1127.777 1361.109 1127.777 1400 1166.668 1400 c S
1283.332 1283.332 m 1361.109 1322.223 1400 1322.223 1400 1283.332 c S
1283.332 1166.668 m 1322.223 1088.891 1322.223 1050 1283.332 1050 c S
1166.668 1166.668 m 1088.891 1127.777 1050 1127.777 1050 1166.668 c S
1283.332 1166.668 m 1361.109 1127.777 1400 1127.777 1400 1166.668 c S
1166.668 1283.332 m 1088.891 1322.223 1050 1322.223 1050 1283.332 c S
1166.668 1166.668 m 1127.777 1088.891 1127.777 1050 1166.668 1050 c S
1283.332 1283.332 m 1322.223 1361.109 1322.223 1400 1283.332 1400 c S
1166.668 933.332 m 1127.777 1011.109 1127.777 1050 1166.668 1050 c S
1283.332 933.332 m 1361.109 972.223 1400 972.223 1400 933.332 c S
1283.332 816.668 m 1322.223 738.891 1322.223 700 1283.332 700 c S
1166.668 816.668 m 1088.891 777.777 1050 777.777 1050 816.668 c S
1283.332 816.668 m 1361.109 777.777 1400 777.777 1400 816.668 c S
1166.668 933.332 m 1088.891 972.223 1050 972.223 1050 933.332 c S
1166.668 816.668 m 1127.777 738.891 1127.777 700 1166.668 700 c S
1283.332 933.332 m 1322.223 1011.109 1322.223 1050 1283.332 1050 c S
1166.668 583.332 m 1127.777 661.109 1127.777 700 1166.668 700 c S
1283.332 583.332 m 1361.109 622.223 1400 622.223 1400 583.332 c S
1283.332 466.668 m 1322.223 388.891 1322.223 350 1283.332 350 c S
1166.668 466.668 m 1088.891 427.777 1050 427.777 1050 466.668 c S
1283.332 466.668 m 1361.109 427.777 1400 427.777 1400 466.668 c S
1166.668 583.332 m 1088.891 622.223 1050 622.223 1050 583.332 c S
1166.668 466.668 m 1127.777 388.891 1127.777 350 1166.668 350 c S
1283.332 583.332 m 1322.223 661.109 1322.223 700 1283.332 700 c S
1166.668 233.332 m 1127.777 311.109 1127.777 350 1166.668 350 c S
1283.332 233.332 m 1361.109 272.223 1400 272.223 1400 233.332 c S
1283.332 116.668 m 1322.223 38.891 1322.223 0 1283.332 0 c S
1166.668 116.668 m 1088.891 77.777 1050 77.777 1050 116.668 c S
1283.332 116.668 m 1361.109 77.777 1400 77.777 1400 116.668 c S
1166.668 233.332 m 1088.891 272.223 1050 272.223 1050 233.332 c S
1166.668 116.668 m 1127.777 38.891 1127.777 0 1166.668 0 c S
1283.332 233.332 m 1322.223 311.109 1322.223 350 1283.332 350 c S
1516.668 1283.332 m 1477.777 1361.109 1477.777 1400 1516.668 1400 c S
1633.332 1283.332 m 1711.109 1322.223 1750 1322.223 1750 1283.332 c S
1633.332 1166.668 m 1672.223 1088.891 1672.223 1050 1633.332 1050 c S
1516.668 1166.668 m 1438.891 1127.777 1400 1127.777 1400 1166.668 c S
1633.332 1166.668 m 1711.109 1127.777 1750 1127.777 1750 1166.668 c S
1516.668 1283.332 m 1438.891 1322.223 1400 1322.223 1400 1283.332 c S
1516.668 1166.668 m 1477.777 1088.891 1477.777 1050 1516.668 1050 c S
1633.332 1283.332 m 1672.223 1361.109 1672.223 1400 1633.332 1400 c S
1516.668 933.332 m 1477.777 1011.109 1477.777 1050 1516.668 1050 c S
1633.332 933.332 m 1711.109 972.223 1750 972.223 1750 933.332 c S
1633.332 816.668 m 1672.223 738.891 1672.223 700 1633.332 700 c S
1516.668 816.668 m 1438.891 777.777 1400 777.777 1400 816.668 c S
1633.332 816.668 m 1711.109 777.777 1750 777.777 1750 816.668 c S
1516.668 933.332 m 1438.891 972.223 1400 972.223 1400 933.332 c S
1516.668 816.668 m 1477.777 738.891 1477.777 700 1516.668 700 c S
1633.332 933.332 m 1672.223 1011.109 1672.223 1050 1633.332 1050 c S
1516.668 583.332 m 1477.777 661.109 1477.777 700 1516.668 700 c S
1633.332 583.332 m 1711.109 622.223 1750 622.223 1750 583.332 c S
1633.332 466.668 m 1672.223 388.891 1672.223 350 1633.332 350 c S
1516.668 466.668 m 1438.891 427.777 1400 427.777 1400 466.668 c S
1633.332 466.668 m 1711.109 427.777 1750 427.777 1750 466.668 c S
1516.668 583.332 m 1438.891 622.223 1400 622.223 1400 583.332 c S
1516.668 466.668 m 1477.777 388.891 1477.777 350 1516.668 350 c S
1633.332 583.332 m 1672.223 661.109 1672.223 700 1633.332 700 c S
1516.668 233.332 m 1477.777 311.109 1477.777 350 1516.668 350 c S
1633.332 233.332 m 1711.109 272.223 1750 272.223 1750 233.332 c S
1633.332 116.668 m 1672.223 38.891 1672.223 0 1633.332 0 c S
1516.668 116.668 m 1438.891 77.777 1400 77.777 1400 116.668 c S
1633.332 116.668 m 1711.109 77.777 1750 77.777 1750 116.668 c S
1516.668 233.332 m 1438.891 272.223 1400 272.223 1400 233.332 c S
1516.668 116.668 m 1477.777 38.891 1477.777 0 1516.668 0 c S
1633.332 233.332 m 1672.223 311.109 1672.223 350 1633.332 350 c S
1866.668 1283.332 m 1827.777 1361.109 1827.777 1400 1866.668 1400 c S
1983.332 1283.332 m 2061.109 1322.223 2100 1322.223 2100 1283.332 c S
1983.332 1166.668 m 2022.223 1088.891 2022.223 1050 1983.332 1050 c S
1866.668 1166.668 m 1788.891 1127.777 1750 1127.777 1750 1166.668 c S
1983.332 1166.668 m 2061.109 1127.777 2100 1127.777 2100 1166.668 c S
1866.668 1283.332 m 1788.891 1322.223 1750 1322.223 1750 1283.332 c S
1866.668 1166.668 m 1827.777 1088.891 1827.777 1050 1866.668 1050 c S
1983.332 1283.332 m 2022.223 1361.109 2022.223 1400 1983.332 1400 c S
1866.668 933.332 m 1827.777 1011.109 1827.777 1050 1866.668 1050 c S
1983.332 933.332 m 2061.109 972.223 2100 972.223 2100 933.332 c S
1983.332 816.668 m 2022.223 738.891 2022.223 700 1983.332 700 c S
1866.668 816.668 m 1788.891 777.777 1750 777.777 1750 816.668 c S
1983.332 816.668 m 2061.109 777.777 2100 777.777 2100 816.668 c S
1866.668 933.332 m 1788.891 972.223 1750 972.223 1750 933.332 c S
1866.668 816.668 m 1827.777 738.891 1827.777 700 1866.668 700 c S
1983.332 933.332 m 2022.223 1011.109 2022.223 1050 1983.332 1050 c S
1866.668 583.332 m 1827.777 661.109 1827.777 700 1866.668 700 c S
1983.332 583.332 m 2061.109 622.223 2100 622.223 2100 583.332 c S
1983.332 466.668 m 2022.223 388.891 2022.223 350 1983.332 350 c S
1866.668 466.668 m 1788.891 427.777 1750 427.777 1750 466.668 c S
1983.332 466.668 m 2061.109 427.777 2100 427.777 2100 466.668 c S
1866.668 583.332 m 1788.891 622.223 1750 622.223 1750 583.332 c S
1866.668 466.668 m 1827.777 388.891 1827.777 350 1866.668 350 c S
1983.332 583.332 m 2022.223 661.109 2022.223 700 1983.332 700 c S
1866.668 233.332 m 1827.777 311.109 1827.777 350 1866.668 350 c S
1983.332 233.332 m 2061.109 272.223 2100 272.223 2100 233.332 c S
1983.332 116.668 m 2022.223 38.891 2022.223 0 1983.332 0 c S
1866.668 116.668 m 1788.891 77.777 1750 77.777 1750 116.668 c S
1983.332 116.668 m 2061.109 77.777 2100 77.777 2100 116.668 c S
1866.668 233.332 m 1788.891 272.223 1750 272.223 1750 233.332 c S
1866.668 116.668 m 1827.777 38.891 1827.777 0 1866.668 0 c S
1983.332 233.332 m 2022.223 311.109 2022.223 350 1983.332 350 c S
Q Q
showpage
%%Trailer
%%Trailer
cleartomark
countdictstack
exch sub { end } repeat
restore
%%EOF
