%!PS-Adobe-2.0 EPSF-2.0
%%BoundingBox: 0 0 1200 1039
%%HiResBoundingBox: 0.000000 0.000000 1200.000000 1039.000000
%%Creator: cairo 1.14.2 (http://cairographics.org)
%%CreationDate: Mon Sep  7 08:21:37 2015
%%DocumentData: Clean7Bit
%%LanguageLevel: 2
%%DocumentMedia: 423x367mm 1200 1039 0 () ()
%%EndComments
% EPSF created by ps2eps 1.68
%%BeginProlog
save
countdictstack
mark
newpath
/showpage {} def
/setpagedevice {pop} def
%%EndProlog
%%Page 1 1
%%BeginProlog
/languagelevel where
{ pop languagelevel } { 1 } ifelse
2 lt { /Helvetica findfont 12 scalefont setfont 50 500 moveto
  (This print job requires a PostScript Language Level 2 printer.) show
  showpage quit } if
/q { gsave } bind def
/Q { grestore } bind def
/cm { 6 array astore concat } bind def
/w { setlinewidth } bind def
/J { setlinecap } bind def
/j { setlinejoin } bind def
/M { setmiterlimit } bind def
/d { setdash } bind def
/m { moveto } bind def
/l { lineto } bind def
/c { curveto } bind def
/h { closepath } bind def
/re { exch dup neg 3 1 roll 5 3 roll moveto 0 rlineto
      0 exch rlineto 0 rlineto closepath } bind def
/S { stroke } bind def
/f { fill } bind def
/f* { eofill } bind def
/n { newpath } bind def
/W { clip } bind def
/W* { eoclip } bind def
/BT { } bind def
/ET { } bind def
/pdfmark where { pop globaldict /?pdfmark /exec load put }
    { globaldict begin /?pdfmark /pop load def /pdfmark
    /cleartomark load def end } ifelse
/BDC { mark 3 1 roll /BDC pdfmark } bind def
/EMC { mark /EMC pdfmark } bind def
/cairo_store_point { /cairo_point_y exch def /cairo_point_x exch def } def
/Tj { show currentpoint cairo_store_point } bind def
/TJ {
  {
    dup
    type /stringtype eq
    { show } { -0.001 mul 0 cairo_font_matrix dtransform rmoveto } ifelse
  } forall
  currentpoint cairo_store_point
} bind def
/cairo_selectfont { cairo_font_matrix aload pop pop pop 0 0 6 array astore
    cairo_font exch selectfont cairo_point_x cairo_point_y moveto } bind def
/Tf { pop /cairo_font exch def /cairo_font_matrix where
      { pop cairo_selectfont } if } bind def
/Td { matrix translate cairo_font_matrix matrix concatmatrix dup
      /cairo_font_matrix exch def dup 4 get exch 5 get cairo_store_point
      /cairo_font where { pop cairo_selectfont } if } bind def
/Tm { 2 copy 8 2 roll 6 array astore /cairo_font_matrix exch def
      cairo_store_point /cairo_font where { pop cairo_selectfont } if } bind def
/g { setgray } bind def
/rg { setrgbcolor } bind def
/d1 { setcachedevice } bind def
/cairo_set_page_size {
  % Change paper size, but only if different from previous paper size otherwise
  % duplex fails. PLRM specifies a tolerance of 5 pts when matching paper size
  % so we use the same when checking if the size changes.
  /setpagedevice where {
    pop currentpagedevice
    /PageSize known {
      2 copy
      currentpagedevice /PageSize get aload pop
      exch 4 1 roll
      sub abs 5 gt
      3 1 roll
      sub abs 5 gt
      or
    } {
      true
    } ifelse
    {
      2 array astore
      2 dict begin
        /PageSize exch def
        /ImagingBBox null def
      currentdict end
      setpagedevice
    } {
      pop pop
    } ifelse
  } {
    pop
  } ifelse
} def
%%EndProlog
%%BeginSetup
%%EndSetup
%%Page: 1 1
%%BeginPageSetup
%%PageMedia: 423x367mm
%%PageBoundingBox: 0 0 1200 1039
1200 1039 cairo_set_page_size
%%EndPageSetup
q 0 0 1200 1039 rectclip q
0.984314 g
0 0 1200 1039 rectfill
0.788235 g
1.875 w
0 J
1 j
[] 0.0 d
4 M 0 1039 1200 -1039.23 re S
0 g
2.5 w
1 J
0 519.383 m -50 548.254 -100 634.855 -25 562.688 c S
0 519.383 m -50 548.254 -150 548.254 -50 519.383 c S
0 519.383 m -50 490.516 -100 403.914 -25 476.082 c S
0 519.383 m -50 490.516 -150 490.516 -50 519.383 c S
150 259.578 m 100 288.445 50 375.047 125 302.879 c S
150 259.578 m 100 288.445 0 288.445 100 259.578 c S
0 519.383 m 0 461.648 -50 375.047 -25 476.082 c S
0 519.383 m 0 461.648 50 375.047 25 476.082 c S
150 259.578 m 100 230.711 50 144.105 125 216.277 c S
0 -0.23 m 0 57.504 -50 144.105 -25 43.07 c S
150 259.578 m 100 230.711 0 230.711 100 259.578 c S
0 -0.23 m 0 57.504 50 144.105 25 43.07 c S
300 -0.23 m 250 28.637 200 115.238 275 43.07 c S
300 -0.23 m 250 28.637 150 28.637 250 -0.23 c S
150 259.578 m 150 201.844 100 115.238 125 216.277 c S
0 -0.23 m 50 28.637 150 28.637 50 -0.23 c S
150 259.578 m 150 201.844 200 115.238 175 216.277 c S
0 -0.23 m 50 28.637 100 115.238 25 43.07 c S
0 1039 m -50 1010.133 -100 923.531 -25 995.699 c S
0 1039 m -50 1010.133 -150 1010.133 -50 1039 c S
150 779.191 m 100 808.059 50 894.664 125 822.492 c S
150 779.191 m 100 808.059 0 808.059 100 779.191 c S
0 1039 m 0 981.266 -50 894.664 -25 995.699 c S
0 1039 m 0 981.266 50 894.664 25 995.699 c S
150 779.191 m 100 750.324 50 663.723 125 735.891 c S
0 519.383 m 0 577.121 -50 663.723 -25 562.688 c S
150 779.191 m 100 750.324 0 750.324 100 779.191 c S
0 519.383 m 0 577.121 50 663.723 25 562.688 c S
300 519.383 m 250 548.254 200 634.855 275 562.688 c S
300 519.383 m 250 548.254 150 548.254 250 519.383 c S
150 779.191 m 150 721.457 100 634.855 125 735.891 c S
0 519.383 m 50 548.254 150 548.254 50 519.383 c S
150 779.191 m 150 721.457 200 634.855 175 735.891 c S
0 519.383 m 50 548.254 100 634.855 25 562.688 c S
0 519.383 m 50 490.516 150 490.516 50 519.383 c S
0 519.383 m 50 490.516 100 403.914 25 476.082 c S
300 519.383 m 250 490.516 200 403.914 275 476.082 c S
150 259.578 m 150 317.312 100 403.914 125 302.879 c S
300 519.383 m 250 490.516 150 490.516 250 519.383 c S
150 259.578 m 150 317.312 200 403.914 175 302.879 c S
450 259.578 m 400 288.445 350 375.047 425 302.879 c S
450 259.578 m 400 288.445 300 288.445 400 259.578 c S
300 519.383 m 300 461.648 250 375.047 275 476.082 c S
150 259.578 m 200 288.445 300 288.445 200 259.578 c S
300 519.383 m 300 461.648 350 375.047 325 476.082 c S
150 259.578 m 200 288.445 250 375.047 175 302.879 c S
150 259.578 m 200 230.711 300 230.711 200 259.578 c S
150 259.578 m 200 230.711 250 144.105 175 216.277 c S
450 259.578 m 400 230.711 350 144.105 425 216.277 c S
300 -0.23 m 300 57.504 250 144.105 275 43.07 c S
450 259.578 m 400 230.711 300 230.711 400 259.578 c S
300 -0.23 m 300 57.504 350 144.105 325 43.07 c S
600 -0.23 m 550 28.637 500 115.238 575 43.07 c S
600 -0.23 m 550 28.637 450 28.637 550 -0.23 c S
450 259.578 m 450 201.844 400 115.238 425 216.277 c S
300 -0.23 m 350 28.637 450 28.637 350 -0.23 c S
450 259.578 m 450 201.844 500 115.238 475 216.277 c S
300 -0.23 m 350 28.637 400 115.238 325 43.07 c S
0 1039 m 50 1010.133 150 1010.133 50 1039 c S
0 1039 m 50 1010.133 100 923.531 25 995.699 c S
300 1039 m 250 1010.133 200 923.531 275 995.699 c S
150 779.191 m 150 836.926 100 923.531 125 822.492 c S
300 1039 m 250 1010.133 150 1010.133 250 1039 c S
150 779.191 m 150 836.926 200 923.531 175 822.492 c S
450 779.191 m 400 808.059 350 894.664 425 822.492 c S
450 779.191 m 400 808.059 300 808.059 400 779.191 c S
300 1039 m 300 981.266 250 894.664 275 995.699 c S
150 779.191 m 200 808.059 300 808.059 200 779.191 c S
300 1039 m 300 981.266 350 894.664 325 995.699 c S
150 779.191 m 200 808.059 250 894.664 175 822.492 c S
150 779.191 m 200 750.324 300 750.324 200 779.191 c S
150 779.191 m 200 750.324 250 663.723 175 735.891 c S
450 779.191 m 400 750.324 350 663.723 425 735.891 c S
300 519.383 m 300 577.121 250 663.723 275 562.688 c S
450 779.191 m 400 750.324 300 750.324 400 779.191 c S
300 519.383 m 300 577.121 350 663.723 325 562.688 c S
600 519.383 m 550 548.254 500 634.855 575 562.688 c S
600 519.383 m 550 548.254 450 548.254 550 519.383 c S
450 779.191 m 450 721.457 400 634.855 425 735.891 c S
300 519.383 m 350 548.254 450 548.254 350 519.383 c S
450 779.191 m 450 721.457 500 634.855 475 735.891 c S
300 519.383 m 350 548.254 400 634.855 325 562.688 c S
300 519.383 m 350 490.516 450 490.516 350 519.383 c S
300 519.383 m 350 490.516 400 403.914 325 476.082 c S
600 519.383 m 550 490.516 500 403.914 575 476.082 c S
450 259.578 m 450 317.312 400 403.914 425 302.879 c S
600 519.383 m 550 490.516 450 490.516 550 519.383 c S
450 259.578 m 450 317.312 500 403.914 475 302.879 c S
750 259.578 m 700 288.445 650 375.047 725 302.879 c S
750 259.578 m 700 288.445 600 288.445 700 259.578 c S
600 519.383 m 600 461.648 550 375.047 575 476.082 c S
450 259.578 m 500 288.445 600 288.445 500 259.578 c S
600 519.383 m 600 461.648 650 375.047 625 476.082 c S
450 259.578 m 500 288.445 550 375.047 475 302.879 c S
450 259.578 m 500 230.711 600 230.711 500 259.578 c S
450 259.578 m 500 230.711 550 144.105 475 216.277 c S
750 259.578 m 700 230.711 650 144.105 725 216.277 c S
600 -0.23 m 600 57.504 550 144.105 575 43.07 c S
750 259.578 m 700 230.711 600 230.711 700 259.578 c S
600 -0.23 m 600 57.504 650 144.105 625 43.07 c S
900 -0.23 m 850 28.637 800 115.238 875 43.07 c S
900 -0.23 m 850 28.637 750 28.637 850 -0.23 c S
750 259.578 m 750 201.844 700 115.238 725 216.277 c S
600 -0.23 m 650 28.637 750 28.637 650 -0.23 c S
750 259.578 m 750 201.844 800 115.238 775 216.277 c S
600 -0.23 m 650 28.637 700 115.238 625 43.07 c S
300 1039 m 350 1010.133 450 1010.133 350 1039 c S
300 1039 m 350 1010.133 400 923.531 325 995.699 c S
600 1039 m 550 1010.133 500 923.531 575 995.699 c S
450 779.191 m 450 836.926 400 923.531 425 822.492 c S
600 1039 m 550 1010.133 450 1010.133 550 1039 c S
450 779.191 m 450 836.926 500 923.531 475 822.492 c S
750 779.191 m 700 808.059 650 894.664 725 822.492 c S
750 779.191 m 700 808.059 600 808.059 700 779.191 c S
600 1039 m 600 981.266 550 894.664 575 995.699 c S
450 779.191 m 500 808.059 600 808.059 500 779.191 c S
600 1039 m 600 981.266 650 894.664 625 995.699 c S
450 779.191 m 500 808.059 550 894.664 475 822.492 c S
450 779.191 m 500 750.324 600 750.324 500 779.191 c S
450 779.191 m 500 750.324 550 663.723 475 735.891 c S
750 779.191 m 700 750.324 650 663.723 725 735.891 c S
600 519.383 m 600 577.121 550 663.723 575 562.688 c S
750 779.191 m 700 750.324 600 750.324 700 779.191 c S
600 519.383 m 600 577.121 650 663.723 625 562.688 c S
900 519.383 m 850 548.254 800 634.855 875 562.688 c S
900 519.383 m 850 548.254 750 548.254 850 519.383 c S
750 779.191 m 750 721.457 700 634.855 725 735.891 c S
600 519.383 m 650 548.254 750 548.254 650 519.383 c S
750 779.191 m 750 721.457 800 634.855 775 735.891 c S
600 519.383 m 650 548.254 700 634.855 625 562.688 c S
600 519.383 m 650 490.516 750 490.516 650 519.383 c S
600 519.383 m 650 490.516 700 403.914 625 476.082 c S
900 519.383 m 850 490.516 800 403.914 875 476.082 c S
750 259.578 m 750 317.312 700 403.914 725 302.879 c S
900 519.383 m 850 490.516 750 490.516 850 519.383 c S
750 259.578 m 750 317.312 800 403.914 775 302.879 c S
1050 259.578 m 1000 288.445 950 375.047 1025 302.879 c S
1050 259.578 m 1000 288.445 900 288.445 1000 259.578 c S
900 519.383 m 900 461.648 850 375.047 875 476.082 c S
750 259.578 m 800 288.445 900 288.445 800 259.578 c S
900 519.383 m 900 461.648 950 375.047 925 476.082 c S
750 259.578 m 800 288.445 850 375.047 775 302.879 c S
750 259.578 m 800 230.711 900 230.711 800 259.578 c S
750 259.578 m 800 230.711 850 144.105 775 216.277 c S
1050 259.578 m 1000 230.711 950 144.105 1025 216.277 c S
900 -0.23 m 900 57.504 850 144.105 875 43.07 c S
1050 259.578 m 1000 230.711 900 230.711 1000 259.578 c S
900 -0.23 m 900 57.504 950 144.105 925 43.07 c S
1200 -0.23 m 1150 28.637 1100 115.238 1175 43.07 c S
1200 -0.23 m 1150 28.637 1050 28.637 1150 -0.23 c S
1050 259.578 m 1050 201.844 1000 115.238 1025 216.277 c S
900 -0.23 m 950 28.637 1050 28.637 950 -0.23 c S
1050 259.578 m 1050 201.844 1100 115.238 1075 216.277 c S
900 -0.23 m 950 28.637 1000 115.238 925 43.07 c S
600 1039 m 650 1010.133 750 1010.133 650 1039 c S
600 1039 m 650 1010.133 700 923.531 625 995.699 c S
900 1039 m 850 1010.133 800 923.531 875 995.699 c S
750 779.191 m 750 836.926 700 923.531 725 822.492 c S
900 1039 m 850 1010.133 750 1010.133 850 1039 c S
750 779.191 m 750 836.926 800 923.531 775 822.492 c S
1050 779.191 m 1000 808.059 950 894.664 1025 822.492 c S
1050 779.191 m 1000 808.059 900 808.059 1000 779.191 c S
900 1039 m 900 981.266 850 894.664 875 995.699 c S
750 779.191 m 800 808.059 900 808.059 800 779.191 c S
900 1039 m 900 981.266 950 894.664 925 995.699 c S
750 779.191 m 800 808.059 850 894.664 775 822.492 c S
750 779.191 m 800 750.324 900 750.324 800 779.191 c S
750 779.191 m 800 750.324 850 663.723 775 735.891 c S
1050 779.191 m 1000 750.324 950 663.723 1025 735.891 c S
900 519.383 m 900 577.121 850 663.723 875 562.688 c S
1050 779.191 m 1000 750.324 900 750.324 1000 779.191 c S
900 519.383 m 900 577.121 950 663.723 925 562.688 c S
1200 519.383 m 1150 548.254 1100 634.855 1175 562.688 c S
1200 519.383 m 1150 548.254 1050 548.254 1150 519.383 c S
1050 779.191 m 1050 721.457 1000 634.855 1025 735.891 c S
900 519.383 m 950 548.254 1050 548.254 950 519.383 c S
1050 779.191 m 1050 721.457 1100 634.855 1075 735.891 c S
900 519.383 m 950 548.254 1000 634.855 925 562.688 c S
900 519.383 m 950 490.516 1050 490.516 950 519.383 c S
900 519.383 m 950 490.516 1000 403.914 925 476.082 c S
1200 519.383 m 1150 490.516 1100 403.914 1175 476.082 c S
1050 259.578 m 1050 317.312 1000 403.914 1025 302.879 c S
1200 519.383 m 1150 490.516 1050 490.516 1150 519.383 c S
1050 259.578 m 1050 317.312 1100 403.914 1075 302.879 c S
1200 519.383 m 1200 461.648 1150 375.047 1175 476.082 c S
1050 259.578 m 1100 288.445 1200 288.445 1100 259.578 c S
1200 519.383 m 1200 461.648 1250 375.047 1225 476.082 c S
1050 259.578 m 1100 288.445 1150 375.047 1075 302.879 c S
1050 259.578 m 1100 230.711 1200 230.711 1100 259.578 c S
1050 259.578 m 1100 230.711 1150 144.105 1075 216.277 c S
1200 -0.23 m 1200 57.504 1150 144.105 1175 43.07 c S
1200 -0.23 m 1200 57.504 1250 144.105 1225 43.07 c S
1200 -0.23 m 1250 28.637 1350 28.637 1250 -0.23 c S
1200 -0.23 m 1250 28.637 1300 115.238 1225 43.07 c S
900 1039 m 950 1010.133 1050 1010.133 950 1039 c S
900 1039 m 950 1010.133 1000 923.531 925 995.699 c S
1200 1039 m 1150 1010.133 1100 923.531 1175 995.699 c S
1050 779.191 m 1050 836.926 1000 923.531 1025 822.492 c S
1200 1039 m 1150 1010.133 1050 1010.133 1150 1039 c S
1050 779.191 m 1050 836.926 1100 923.531 1075 822.492 c S
1200 1039 m 1200 981.266 1150 894.664 1175 995.699 c S
1050 779.191 m 1100 808.059 1200 808.059 1100 779.191 c S
1200 1039 m 1200 981.266 1250 894.664 1225 995.699 c S
1050 779.191 m 1100 808.059 1150 894.664 1075 822.492 c S
1050 779.191 m 1100 750.324 1200 750.324 1100 779.191 c S
1050 779.191 m 1100 750.324 1150 663.723 1075 735.891 c S
1200 519.383 m 1200 577.121 1150 663.723 1175 562.688 c S
1200 519.383 m 1200 577.121 1250 663.723 1225 562.688 c S
1200 519.383 m 1250 548.254 1350 548.254 1250 519.383 c S
1200 519.383 m 1250 548.254 1300 634.855 1225 562.688 c S
1200 519.383 m 1250 490.516 1350 490.516 1250 519.383 c S
1200 519.383 m 1250 490.516 1300 403.914 1225 476.082 c S
Q Q
showpage
%%Trailer
%%Trailer
cleartomark
countdictstack
exch sub { end } repeat
restore
%%EOF
