%!PS-Adobe-2.0 EPSF-2.0
%%BoundingBox: 0 0 1200 1039
%%HiResBoundingBox: 0.000000 0.000000 1200.000000 1039.000000
%%Creator: cairo 1.14.2 (http://cairographics.org)
%%CreationDate: Mon Sep  7 08:21:38 2015
%%DocumentData: Clean7Bit
%%LanguageLevel: 2
%%DocumentMedia: 423x367mm 1200 1039 0 () ()
%%EndComments
% EPSF created by ps2eps 1.68
%%BeginProlog
save
countdictstack
mark
newpath
/showpage {} def
/setpagedevice {pop} def
%%EndProlog
%%Page 1 1
%%BeginProlog
/languagelevel where
{ pop languagelevel } { 1 } ifelse
2 lt { /Helvetica findfont 12 scalefont setfont 50 500 moveto
  (This print job requires a PostScript Language Level 2 printer.) show
  showpage quit } if
/q { gsave } bind def
/Q { grestore } bind def
/cm { 6 array astore concat } bind def
/w { setlinewidth } bind def
/J { setlinecap } bind def
/j { setlinejoin } bind def
/M { setmiterlimit } bind def
/d { setdash } bind def
/m { moveto } bind def
/l { lineto } bind def
/c { curveto } bind def
/h { closepath } bind def
/re { exch dup neg 3 1 roll 5 3 roll moveto 0 rlineto
      0 exch rlineto 0 rlineto closepath } bind def
/S { stroke } bind def
/f { fill } bind def
/f* { eofill } bind def
/n { newpath } bind def
/W { clip } bind def
/W* { eoclip } bind def
/BT { } bind def
/ET { } bind def
/pdfmark where { pop globaldict /?pdfmark /exec load put }
    { globaldict begin /?pdfmark /pop load def /pdfmark
    /cleartomark load def end } ifelse
/BDC { mark 3 1 roll /BDC pdfmark } bind def
/EMC { mark /EMC pdfmark } bind def
/cairo_store_point { /cairo_point_y exch def /cairo_point_x exch def } def
/Tj { show currentpoint cairo_store_point } bind def
/TJ {
  {
    dup
    type /stringtype eq
    { show } { -0.001 mul 0 cairo_font_matrix dtransform rmoveto } ifelse
  } forall
  currentpoint cairo_store_point
} bind def
/cairo_selectfont { cairo_font_matrix aload pop pop pop 0 0 6 array astore
    cairo_font exch selectfont cairo_point_x cairo_point_y moveto } bind def
/Tf { pop /cairo_font exch def /cairo_font_matrix where
      { pop cairo_selectfont } if } bind def
/Td { matrix translate cairo_font_matrix matrix concatmatrix dup
      /cairo_font_matrix exch def dup 4 get exch 5 get cairo_store_point
      /cairo_font where { pop cairo_selectfont } if } bind def
/Tm { 2 copy 8 2 roll 6 array astore /cairo_font_matrix exch def
      cairo_store_point /cairo_font where { pop cairo_selectfont } if } bind def
/g { setgray } bind def
/rg { setrgbcolor } bind def
/d1 { setcachedevice } bind def
/cairo_set_page_size {
  % Change paper size, but only if different from previous paper size otherwise
  % duplex fails. PLRM specifies a tolerance of 5 pts when matching paper size
  % so we use the same when checking if the size changes.
  /setpagedevice where {
    pop currentpagedevice
    /PageSize known {
      2 copy
      currentpagedevice /PageSize get aload pop
      exch 4 1 roll
      sub abs 5 gt
      3 1 roll
      sub abs 5 gt
      or
    } {
      true
    } ifelse
    {
      2 array astore
      2 dict begin
        /PageSize exch def
        /ImagingBBox null def
      currentdict end
      setpagedevice
    } {
      pop pop
    } ifelse
  } {
    pop
  } ifelse
} def
%%EndProlog
%%BeginSetup
%%EndSetup
%%Page: 1 1
%%BeginPageSetup
%%PageMedia: 423x367mm
%%PageBoundingBox: 0 0 1200 1039
1200 1039 cairo_set_page_size
%%EndPageSetup
q 0 0 1200 1039 rectclip q
0.984314 g
0 0 1200 1039 rectfill
0.788235 g
1.875 w
0 J
1 j
[] 0.0 d
4 M 0 1039 1200 -1039.23 re S
0 g
2.5 w
1 J
100 346.18 m 50 317.312 100 288.445 25 360.613 c S
50 259.578 m 50 317.312 100 288.445 0 317.312 c S
-50 259.578 m -50 317.312 -100 288.445 0 317.312 c S
50 432.781 m 0 403.914 0 461.648 25 360.613 c S
-50 259.578 m -50 201.844 -100 230.711 0 201.844 c S
100 172.973 m 50 201.844 100 230.711 25 158.539 c S
50 259.578 m 50 201.844 100 230.711 0 201.844 c S
50 86.371 m 0 115.238 0 57.504 25 158.539 c S
250 86.371 m 200 57.504 250 28.637 175 100.805 c S
200 -0.23 m 200 57.504 250 28.637 150 57.504 c S
100 172.973 m 150 144.105 150 201.844 125 100.805 c S
100 -0.23 m 100 57.504 50 28.637 150 57.504 c S
200 172.973 m 150 144.105 150 201.844 175 100.805 c S
50 86.371 m 100 57.504 50 28.637 125 100.805 c S
100 865.793 m 50 836.926 100 808.059 25 880.23 c S
50 779.191 m 50 836.926 100 808.059 0 836.926 c S
-50 779.191 m -50 836.926 -100 808.059 0 836.926 c S
50 952.398 m 0 923.531 0 981.266 25 880.23 c S
-50 779.191 m -50 721.457 -100 750.324 0 721.457 c S
100 692.59 m 50 721.457 100 750.324 25 678.156 c S
50 779.191 m 50 721.457 100 750.324 0 721.457 c S
50 605.988 m 0 634.855 0 577.121 25 678.156 c S
250 605.988 m 200 577.121 250 548.254 175 620.422 c S
200 519.383 m 200 577.121 250 548.254 150 577.121 c S
100 692.59 m 150 663.723 150 721.457 125 620.422 c S
100 519.383 m 100 577.121 50 548.254 150 577.121 c S
200 692.59 m 150 663.723 150 721.457 175 620.422 c S
50 605.988 m 100 577.121 50 548.254 125 620.422 c S
100 519.383 m 100 461.648 50 490.516 150 461.648 c S
50 432.781 m 100 461.648 50 490.516 125 418.348 c S
250 432.781 m 200 461.648 250 490.516 175 418.348 c S
100 346.18 m 150 375.047 150 317.312 125 418.348 c S
200 519.383 m 200 461.648 250 490.516 150 461.648 c S
200 346.18 m 150 375.047 150 317.312 175 418.348 c S
400 346.18 m 350 317.312 400 288.445 325 360.613 c S
350 259.578 m 350 317.312 400 288.445 300 317.312 c S
250 432.781 m 300 403.914 300 461.648 275 360.613 c S
250 259.578 m 250 317.312 200 288.445 300 317.312 c S
350 432.781 m 300 403.914 300 461.648 325 360.613 c S
200 346.18 m 250 317.312 200 288.445 275 360.613 c S
250 259.578 m 250 201.844 200 230.711 300 201.844 c S
200 172.973 m 250 201.844 200 230.711 275 158.539 c S
400 172.973 m 350 201.844 400 230.711 325 158.539 c S
250 86.371 m 300 115.238 300 57.504 275 158.539 c S
350 259.578 m 350 201.844 400 230.711 300 201.844 c S
350 86.371 m 300 115.238 300 57.504 325 158.539 c S
550 86.371 m 500 57.504 550 28.637 475 100.805 c S
500 -0.23 m 500 57.504 550 28.637 450 57.504 c S
400 172.973 m 450 144.105 450 201.844 425 100.805 c S
400 -0.23 m 400 57.504 350 28.637 450 57.504 c S
500 172.973 m 450 144.105 450 201.844 475 100.805 c S
350 86.371 m 400 57.504 350 28.637 425 100.805 c S
100 1039 m 100 981.266 50 1010.133 150 981.266 c S
50 952.398 m 100 981.266 50 1010.133 125 937.965 c S
250 952.398 m 200 981.266 250 1010.133 175 937.965 c S
100 865.793 m 150 894.664 150 836.926 125 937.965 c S
200 1039 m 200 981.266 250 1010.133 150 981.266 c S
200 865.793 m 150 894.664 150 836.926 175 937.965 c S
400 865.793 m 350 836.926 400 808.059 325 880.23 c S
350 779.191 m 350 836.926 400 808.059 300 836.926 c S
250 952.398 m 300 923.531 300 981.266 275 880.23 c S
250 779.191 m 250 836.926 200 808.059 300 836.926 c S
350 952.398 m 300 923.531 300 981.266 325 880.23 c S
200 865.793 m 250 836.926 200 808.059 275 880.23 c S
250 779.191 m 250 721.457 200 750.324 300 721.457 c S
200 692.59 m 250 721.457 200 750.324 275 678.156 c S
400 692.59 m 350 721.457 400 750.324 325 678.156 c S
250 605.988 m 300 634.855 300 577.121 275 678.156 c S
350 779.191 m 350 721.457 400 750.324 300 721.457 c S
350 605.988 m 300 634.855 300 577.121 325 678.156 c S
550 605.988 m 500 577.121 550 548.254 475 620.422 c S
500 519.383 m 500 577.121 550 548.254 450 577.121 c S
400 692.59 m 450 663.723 450 721.457 425 620.422 c S
400 519.383 m 400 577.121 350 548.254 450 577.121 c S
500 692.59 m 450 663.723 450 721.457 475 620.422 c S
350 605.988 m 400 577.121 350 548.254 425 620.422 c S
400 519.383 m 400 461.648 350 490.516 450 461.648 c S
350 432.781 m 400 461.648 350 490.516 425 418.348 c S
550 432.781 m 500 461.648 550 490.516 475 418.348 c S
400 346.18 m 450 375.047 450 317.312 425 418.348 c S
500 519.383 m 500 461.648 550 490.516 450 461.648 c S
500 346.18 m 450 375.047 450 317.312 475 418.348 c S
700 346.18 m 650 317.312 700 288.445 625 360.613 c S
650 259.578 m 650 317.312 700 288.445 600 317.312 c S
550 432.781 m 600 403.914 600 461.648 575 360.613 c S
550 259.578 m 550 317.312 500 288.445 600 317.312 c S
650 432.781 m 600 403.914 600 461.648 625 360.613 c S
500 346.18 m 550 317.312 500 288.445 575 360.613 c S
550 259.578 m 550 201.844 500 230.711 600 201.844 c S
500 172.973 m 550 201.844 500 230.711 575 158.539 c S
700 172.973 m 650 201.844 700 230.711 625 158.539 c S
550 86.371 m 600 115.238 600 57.504 575 158.539 c S
650 259.578 m 650 201.844 700 230.711 600 201.844 c S
650 86.371 m 600 115.238 600 57.504 625 158.539 c S
850 86.371 m 800 57.504 850 28.637 775 100.805 c S
800 -0.23 m 800 57.504 850 28.637 750 57.504 c S
700 172.973 m 750 144.105 750 201.844 725 100.805 c S
700 -0.23 m 700 57.504 650 28.637 750 57.504 c S
800 172.973 m 750 144.105 750 201.844 775 100.805 c S
650 86.371 m 700 57.504 650 28.637 725 100.805 c S
400 1039 m 400 981.266 350 1010.133 450 981.266 c S
350 952.398 m 400 981.266 350 1010.133 425 937.965 c S
550 952.398 m 500 981.266 550 1010.133 475 937.965 c S
400 865.793 m 450 894.664 450 836.926 425 937.965 c S
500 1039 m 500 981.266 550 1010.133 450 981.266 c S
500 865.793 m 450 894.664 450 836.926 475 937.965 c S
700 865.793 m 650 836.926 700 808.059 625 880.23 c S
650 779.191 m 650 836.926 700 808.059 600 836.926 c S
550 952.398 m 600 923.531 600 981.266 575 880.23 c S
550 779.191 m 550 836.926 500 808.059 600 836.926 c S
650 952.398 m 600 923.531 600 981.266 625 880.23 c S
500 865.793 m 550 836.926 500 808.059 575 880.23 c S
550 779.191 m 550 721.457 500 750.324 600 721.457 c S
500 692.59 m 550 721.457 500 750.324 575 678.156 c S
700 692.59 m 650 721.457 700 750.324 625 678.156 c S
550 605.988 m 600 634.855 600 577.121 575 678.156 c S
650 779.191 m 650 721.457 700 750.324 600 721.457 c S
650 605.988 m 600 634.855 600 577.121 625 678.156 c S
850 605.988 m 800 577.121 850 548.254 775 620.422 c S
800 519.383 m 800 577.121 850 548.254 750 577.121 c S
700 692.59 m 750 663.723 750 721.457 725 620.422 c S
700 519.383 m 700 577.121 650 548.254 750 577.121 c S
800 692.59 m 750 663.723 750 721.457 775 620.422 c S
650 605.988 m 700 577.121 650 548.254 725 620.422 c S
700 519.383 m 700 461.648 650 490.516 750 461.648 c S
650 432.781 m 700 461.648 650 490.516 725 418.348 c S
850 432.781 m 800 461.648 850 490.516 775 418.348 c S
700 346.18 m 750 375.047 750 317.312 725 418.348 c S
800 519.383 m 800 461.648 850 490.516 750 461.648 c S
800 346.18 m 750 375.047 750 317.312 775 418.348 c S
1000 346.18 m 950 317.312 1000 288.445 925 360.613 c S
950 259.578 m 950 317.312 1000 288.445 900 317.312 c S
850 432.781 m 900 403.914 900 461.648 875 360.613 c S
850 259.578 m 850 317.312 800 288.445 900 317.312 c S
950 432.781 m 900 403.914 900 461.648 925 360.613 c S
800 346.18 m 850 317.312 800 288.445 875 360.613 c S
850 259.578 m 850 201.844 800 230.711 900 201.844 c S
800 172.973 m 850 201.844 800 230.711 875 158.539 c S
1000 172.973 m 950 201.844 1000 230.711 925 158.539 c S
850 86.371 m 900 115.238 900 57.504 875 158.539 c S
950 259.578 m 950 201.844 1000 230.711 900 201.844 c S
950 86.371 m 900 115.238 900 57.504 925 158.539 c S
1150 86.371 m 1100 57.504 1150 28.637 1075 100.805 c S
1100 -0.23 m 1100 57.504 1150 28.637 1050 57.504 c S
1000 172.973 m 1050 144.105 1050 201.844 1025 100.805 c S
1000 -0.23 m 1000 57.504 950 28.637 1050 57.504 c S
1100 172.973 m 1050 144.105 1050 201.844 1075 100.805 c S
950 86.371 m 1000 57.504 950 28.637 1025 100.805 c S
700 1039 m 700 981.266 650 1010.133 750 981.266 c S
650 952.398 m 700 981.266 650 1010.133 725 937.965 c S
850 952.398 m 800 981.266 850 1010.133 775 937.965 c S
700 865.793 m 750 894.664 750 836.926 725 937.965 c S
800 1039 m 800 981.266 850 1010.133 750 981.266 c S
800 865.793 m 750 894.664 750 836.926 775 937.965 c S
1000 865.793 m 950 836.926 1000 808.059 925 880.23 c S
950 779.191 m 950 836.926 1000 808.059 900 836.926 c S
850 952.398 m 900 923.531 900 981.266 875 880.23 c S
850 779.191 m 850 836.926 800 808.059 900 836.926 c S
950 952.398 m 900 923.531 900 981.266 925 880.23 c S
800 865.793 m 850 836.926 800 808.059 875 880.23 c S
850 779.191 m 850 721.457 800 750.324 900 721.457 c S
800 692.59 m 850 721.457 800 750.324 875 678.156 c S
1000 692.59 m 950 721.457 1000 750.324 925 678.156 c S
850 605.988 m 900 634.855 900 577.121 875 678.156 c S
950 779.191 m 950 721.457 1000 750.324 900 721.457 c S
950 605.988 m 900 634.855 900 577.121 925 678.156 c S
1150 605.988 m 1100 577.121 1150 548.254 1075 620.422 c S
1100 519.383 m 1100 577.121 1150 548.254 1050 577.121 c S
1000 692.59 m 1050 663.723 1050 721.457 1025 620.422 c S
1000 519.383 m 1000 577.121 950 548.254 1050 577.121 c S
1100 692.59 m 1050 663.723 1050 721.457 1075 620.422 c S
950 605.988 m 1000 577.121 950 548.254 1025 620.422 c S
1000 519.383 m 1000 461.648 950 490.516 1050 461.648 c S
950 432.781 m 1000 461.648 950 490.516 1025 418.348 c S
1150 432.781 m 1100 461.648 1150 490.516 1075 418.348 c S
1000 346.18 m 1050 375.047 1050 317.312 1025 418.348 c S
1100 519.383 m 1100 461.648 1150 490.516 1050 461.648 c S
1100 346.18 m 1050 375.047 1050 317.312 1075 418.348 c S
1250 259.578 m 1250 317.312 1300 288.445 1200 317.312 c S
1150 432.781 m 1200 403.914 1200 461.648 1175 360.613 c S
1150 259.578 m 1150 317.312 1100 288.445 1200 317.312 c S
1100 346.18 m 1150 317.312 1100 288.445 1175 360.613 c S
1150 259.578 m 1150 201.844 1100 230.711 1200 201.844 c S
1100 172.973 m 1150 201.844 1100 230.711 1175 158.539 c S
1150 86.371 m 1200 115.238 1200 57.504 1175 158.539 c S
1250 259.578 m 1250 201.844 1300 230.711 1200 201.844 c S
1000 1039 m 1000 981.266 950 1010.133 1050 981.266 c S
950 952.398 m 1000 981.266 950 1010.133 1025 937.965 c S
1150 952.398 m 1100 981.266 1150 1010.133 1075 937.965 c S
1000 865.793 m 1050 894.664 1050 836.926 1025 937.965 c S
1100 1039 m 1100 981.266 1150 1010.133 1050 981.266 c S
1100 865.793 m 1050 894.664 1050 836.926 1075 937.965 c S
1250 779.191 m 1250 836.926 1300 808.059 1200 836.926 c S
1150 952.398 m 1200 923.531 1200 981.266 1175 880.23 c S
1150 779.191 m 1150 836.926 1100 808.059 1200 836.926 c S
1100 865.793 m 1150 836.926 1100 808.059 1175 880.23 c S
1150 779.191 m 1150 721.457 1100 750.324 1200 721.457 c S
1100 692.59 m 1150 721.457 1100 750.324 1175 678.156 c S
1150 605.988 m 1200 634.855 1200 577.121 1175 678.156 c S
1250 779.191 m 1250 721.457 1300 750.324 1200 721.457 c S
Q Q
showpage
%%Trailer
%%Trailer
cleartomark
countdictstack
exch sub { end } repeat
restore
%%EOF
