%!PS-Adobe-2.0 EPSF-2.0
%%BoundingBox: 0 0 1200 1039
%%HiResBoundingBox: 0.000000 0.000000 1200.000000 1039.000000
%%Creator: cairo 1.14.2 (http://cairographics.org)
%%CreationDate: Mon Sep  7 08:21:38 2015
%%DocumentData: Clean7Bit
%%LanguageLevel: 2
%%DocumentMedia: 423x367mm 1200 1039 0 () ()
%%EndComments
% EPSF created by ps2eps 1.68
%%BeginProlog
save
countdictstack
mark
newpath
/showpage {} def
/setpagedevice {pop} def
%%EndProlog
%%Page 1 1
%%BeginProlog
/languagelevel where
{ pop languagelevel } { 1 } ifelse
2 lt { /Helvetica findfont 12 scalefont setfont 50 500 moveto
  (This print job requires a PostScript Language Level 2 printer.) show
  showpage quit } if
/q { gsave } bind def
/Q { grestore } bind def
/cm { 6 array astore concat } bind def
/w { setlinewidth } bind def
/J { setlinecap } bind def
/j { setlinejoin } bind def
/M { setmiterlimit } bind def
/d { setdash } bind def
/m { moveto } bind def
/l { lineto } bind def
/c { curveto } bind def
/h { closepath } bind def
/re { exch dup neg 3 1 roll 5 3 roll moveto 0 rlineto
      0 exch rlineto 0 rlineto closepath } bind def
/S { stroke } bind def
/f { fill } bind def
/f* { eofill } bind def
/n { newpath } bind def
/W { clip } bind def
/W* { eoclip } bind def
/BT { } bind def
/ET { } bind def
/pdfmark where { pop globaldict /?pdfmark /exec load put }
    { globaldict begin /?pdfmark /pop load def /pdfmark
    /cleartomark load def end } ifelse
/BDC { mark 3 1 roll /BDC pdfmark } bind def
/EMC { mark /EMC pdfmark } bind def
/cairo_store_point { /cairo_point_y exch def /cairo_point_x exch def } def
/Tj { show currentpoint cairo_store_point } bind def
/TJ {
  {
    dup
    type /stringtype eq
    { show } { -0.001 mul 0 cairo_font_matrix dtransform rmoveto } ifelse
  } forall
  currentpoint cairo_store_point
} bind def
/cairo_selectfont { cairo_font_matrix aload pop pop pop 0 0 6 array astore
    cairo_font exch selectfont cairo_point_x cairo_point_y moveto } bind def
/Tf { pop /cairo_font exch def /cairo_font_matrix where
      { pop cairo_selectfont } if } bind def
/Td { matrix translate cairo_font_matrix matrix concatmatrix dup
      /cairo_font_matrix exch def dup 4 get exch 5 get cairo_store_point
      /cairo_font where { pop cairo_selectfont } if } bind def
/Tm { 2 copy 8 2 roll 6 array astore /cairo_font_matrix exch def
      cairo_store_point /cairo_font where { pop cairo_selectfont } if } bind def
/g { setgray } bind def
/rg { setrgbcolor } bind def
/d1 { setcachedevice } bind def
/cairo_set_page_size {
  % Change paper size, but only if different from previous paper size otherwise
  % duplex fails. PLRM specifies a tolerance of 5 pts when matching paper size
  % so we use the same when checking if the size changes.
  /setpagedevice where {
    pop currentpagedevice
    /PageSize known {
      2 copy
      currentpagedevice /PageSize get aload pop
      exch 4 1 roll
      sub abs 5 gt
      3 1 roll
      sub abs 5 gt
      or
    } {
      true
    } ifelse
    {
      2 array astore
      2 dict begin
        /PageSize exch def
        /ImagingBBox null def
      currentdict end
      setpagedevice
    } {
      pop pop
    } ifelse
  } {
    pop
  } ifelse
} def
%%EndProlog
%%BeginSetup
%%EndSetup
%%Page: 1 1
%%BeginPageSetup
%%PageMedia: 423x367mm
%%PageBoundingBox: 0 0 1200 1039
1200 1039 cairo_set_page_size
%%EndPageSetup
q 0 0 1200 1039 rectclip q
0.984314 g
0 0 1200 1039 rectfill
0.788235 g
1.875 w
0 J
1 j
[] 0.0 d
4 M 0 1039 1200 -1039.23 re S
0 g
2.5 w
1 J
75 331.746 m 100 288.445 l 125 302.879 l S
50 288.445 m 100 288.445 l 100 259.578 l S
-25 418.348 m 0 461.648 l -25 476.082 l S
25 418.348 m 0 461.648 l 25 476.082 l S
100 346.18 m 100 288.445 0 346.18 125 302.879 c S
50 259.578 m 100 288.445 0 346.18 100 259.578 c S
50 432.781 m 0 461.648 0 346.18 25 476.082 c S
75 187.41 m 100 230.711 l 125 216.277 l S
-25 100.805 m 0 57.504 l -25 43.07 l S
50 230.711 m 100 230.711 l 100 259.578 l S
25 100.805 m 0 57.504 l 25 43.07 l S
225 71.938 m 250 28.637 l 275 43.07 l S
200 28.637 m 250 28.637 l 250 -0.23 l S
125 158.539 m 150 201.844 l 125 216.277 l S
100 28.637 m 50 28.637 l 50 -0.23 l S
175 158.539 m 150 201.844 l 175 216.277 l S
75 71.938 m 50 28.637 l 25 43.07 l S
100 172.973 m 100 230.711 0 172.973 125 216.277 c S
50 259.578 m 100 230.711 0 172.973 100 259.578 c S
50 86.371 m 0 57.504 0 172.973 25 43.07 c S
250 86.371 m 250 28.637 150 86.371 275 43.07 c S
200 -0.23 m 250 28.637 150 86.371 250 -0.23 c S
100 172.973 m 150 201.844 150 86.371 125 216.277 c S
100 -0.23 m 50 28.637 150 86.371 50 -0.23 c S
200 172.973 m 150 201.844 150 86.371 175 216.277 c S
50 86.371 m 50 28.637 150 86.371 25 43.07 c S
75 851.359 m 100 808.059 l 125 822.492 l S
50 808.059 m 100 808.059 l 100 779.191 l S
-25 937.965 m 0 981.266 l -25 995.699 l S
25 937.965 m 0 981.266 l 25 995.699 l S
100 865.793 m 100 808.059 0 865.793 125 822.492 c S
50 779.191 m 100 808.059 0 865.793 100 779.191 c S
50 952.398 m 0 981.266 0 865.793 25 995.699 c S
75 707.023 m 100 750.324 l 125 735.891 l S
-25 620.422 m 0 577.121 l -25 562.688 l S
50 750.324 m 100 750.324 l 100 779.191 l S
25 620.422 m 0 577.121 l 25 562.688 l S
225 591.555 m 250 548.254 l 275 562.688 l S
200 548.254 m 250 548.254 l 250 519.383 l S
125 678.156 m 150 721.457 l 125 735.891 l S
100 548.254 m 50 548.254 l 50 519.383 l S
175 678.156 m 150 721.457 l 175 735.891 l S
75 591.555 m 50 548.254 l 25 562.688 l S
100 692.59 m 100 750.324 0 692.59 125 735.891 c S
50 779.191 m 100 750.324 0 692.59 100 779.191 c S
50 605.988 m 0 577.121 0 692.59 25 562.688 c S
250 605.988 m 250 548.254 150 605.988 275 562.688 c S
200 519.383 m 250 548.254 150 605.988 250 519.383 c S
100 692.59 m 150 721.457 150 605.988 125 735.891 c S
100 519.383 m 50 548.254 150 605.988 50 519.383 c S
200 692.59 m 150 721.457 150 605.988 175 735.891 c S
50 605.988 m 50 548.254 150 605.988 25 562.688 c S
100 490.516 m 50 490.516 l 50 519.383 l S
75 447.215 m 50 490.516 l 25 476.082 l S
225 447.215 m 250 490.516 l 275 476.082 l S
125 360.613 m 150 317.312 l 125 302.879 l S
200 490.516 m 250 490.516 l 250 519.383 l S
175 360.613 m 150 317.312 l 175 302.879 l S
375 331.746 m 400 288.445 l 425 302.879 l S
350 288.445 m 400 288.445 l 400 259.578 l S
275 418.348 m 300 461.648 l 275 476.082 l S
250 288.445 m 200 288.445 l 200 259.578 l S
325 418.348 m 300 461.648 l 325 476.082 l S
225 331.746 m 200 288.445 l 175 302.879 l S
100 519.383 m 50 490.516 150 432.781 50 519.383 c S
50 432.781 m 50 490.516 150 432.781 25 476.082 c S
250 432.781 m 250 490.516 150 432.781 275 476.082 c S
100 346.18 m 150 317.312 150 432.781 125 302.879 c S
200 519.383 m 250 490.516 150 432.781 250 519.383 c S
200 346.18 m 150 317.312 150 432.781 175 302.879 c S
400 346.18 m 400 288.445 300 346.18 425 302.879 c S
350 259.578 m 400 288.445 300 346.18 400 259.578 c S
250 432.781 m 300 461.648 300 346.18 275 476.082 c S
250 259.578 m 200 288.445 300 346.18 200 259.578 c S
350 432.781 m 300 461.648 300 346.18 325 476.082 c S
200 346.18 m 200 288.445 300 346.18 175 302.879 c S
250 230.711 m 200 230.711 l 200 259.578 l S
225 187.41 m 200 230.711 l 175 216.277 l S
375 187.41 m 400 230.711 l 425 216.277 l S
275 100.805 m 300 57.504 l 275 43.07 l S
350 230.711 m 400 230.711 l 400 259.578 l S
325 100.805 m 300 57.504 l 325 43.07 l S
525 71.938 m 550 28.637 l 575 43.07 l S
500 28.637 m 550 28.637 l 550 -0.23 l S
425 158.539 m 450 201.844 l 425 216.277 l S
400 28.637 m 350 28.637 l 350 -0.23 l S
475 158.539 m 450 201.844 l 475 216.277 l S
375 71.938 m 350 28.637 l 325 43.07 l S
250 259.578 m 200 230.711 300 172.973 200 259.578 c S
200 172.973 m 200 230.711 300 172.973 175 216.277 c S
400 172.973 m 400 230.711 300 172.973 425 216.277 c S
250 86.371 m 300 57.504 300 172.973 275 43.07 c S
350 259.578 m 400 230.711 300 172.973 400 259.578 c S
350 86.371 m 300 57.504 300 172.973 325 43.07 c S
550 86.371 m 550 28.637 450 86.371 575 43.07 c S
500 -0.23 m 550 28.637 450 86.371 550 -0.23 c S
400 172.973 m 450 201.844 450 86.371 425 216.277 c S
400 -0.23 m 350 28.637 450 86.371 350 -0.23 c S
500 172.973 m 450 201.844 450 86.371 475 216.277 c S
350 86.371 m 350 28.637 450 86.371 325 43.07 c S
100 1010.133 m 50 1010.133 l 50 1039 l S
75 966.832 m 50 1010.133 l 25 995.699 l S
225 966.832 m 250 1010.133 l 275 995.699 l S
125 880.23 m 150 836.926 l 125 822.492 l S
200 1010.133 m 250 1010.133 l 250 1039 l S
175 880.23 m 150 836.926 l 175 822.492 l S
375 851.359 m 400 808.059 l 425 822.492 l S
350 808.059 m 400 808.059 l 400 779.191 l S
275 937.965 m 300 981.266 l 275 995.699 l S
250 808.059 m 200 808.059 l 200 779.191 l S
325 937.965 m 300 981.266 l 325 995.699 l S
225 851.359 m 200 808.059 l 175 822.492 l S
100 1039 m 50 1010.133 150 952.398 50 1039 c S
50 952.398 m 50 1010.133 150 952.398 25 995.699 c S
250 952.398 m 250 1010.133 150 952.398 275 995.699 c S
100 865.793 m 150 836.926 150 952.398 125 822.492 c S
200 1039 m 250 1010.133 150 952.398 250 1039 c S
200 865.793 m 150 836.926 150 952.398 175 822.492 c S
400 865.793 m 400 808.059 300 865.793 425 822.492 c S
350 779.191 m 400 808.059 300 865.793 400 779.191 c S
250 952.398 m 300 981.266 300 865.793 275 995.699 c S
250 779.191 m 200 808.059 300 865.793 200 779.191 c S
350 952.398 m 300 981.266 300 865.793 325 995.699 c S
200 865.793 m 200 808.059 300 865.793 175 822.492 c S
250 750.324 m 200 750.324 l 200 779.191 l S
225 707.023 m 200 750.324 l 175 735.891 l S
375 707.023 m 400 750.324 l 425 735.891 l S
275 620.422 m 300 577.121 l 275 562.688 l S
350 750.324 m 400 750.324 l 400 779.191 l S
325 620.422 m 300 577.121 l 325 562.688 l S
525 591.555 m 550 548.254 l 575 562.688 l S
500 548.254 m 550 548.254 l 550 519.383 l S
425 678.156 m 450 721.457 l 425 735.891 l S
400 548.254 m 350 548.254 l 350 519.383 l S
475 678.156 m 450 721.457 l 475 735.891 l S
375 591.555 m 350 548.254 l 325 562.688 l S
250 779.191 m 200 750.324 300 692.59 200 779.191 c S
200 692.59 m 200 750.324 300 692.59 175 735.891 c S
400 692.59 m 400 750.324 300 692.59 425 735.891 c S
250 605.988 m 300 577.121 300 692.59 275 562.688 c S
350 779.191 m 400 750.324 300 692.59 400 779.191 c S
350 605.988 m 300 577.121 300 692.59 325 562.688 c S
550 605.988 m 550 548.254 450 605.988 575 562.688 c S
500 519.383 m 550 548.254 450 605.988 550 519.383 c S
400 692.59 m 450 721.457 450 605.988 425 735.891 c S
400 519.383 m 350 548.254 450 605.988 350 519.383 c S
500 692.59 m 450 721.457 450 605.988 475 735.891 c S
350 605.988 m 350 548.254 450 605.988 325 562.688 c S
400 490.516 m 350 490.516 l 350 519.383 l S
375 447.215 m 350 490.516 l 325 476.082 l S
525 447.215 m 550 490.516 l 575 476.082 l S
425 360.613 m 450 317.312 l 425 302.879 l S
500 490.516 m 550 490.516 l 550 519.383 l S
475 360.613 m 450 317.312 l 475 302.879 l S
675 331.746 m 700 288.445 l 725 302.879 l S
650 288.445 m 700 288.445 l 700 259.578 l S
575 418.348 m 600 461.648 l 575 476.082 l S
550 288.445 m 500 288.445 l 500 259.578 l S
625 418.348 m 600 461.648 l 625 476.082 l S
525 331.746 m 500 288.445 l 475 302.879 l S
400 519.383 m 350 490.516 450 432.781 350 519.383 c S
350 432.781 m 350 490.516 450 432.781 325 476.082 c S
550 432.781 m 550 490.516 450 432.781 575 476.082 c S
400 346.18 m 450 317.312 450 432.781 425 302.879 c S
500 519.383 m 550 490.516 450 432.781 550 519.383 c S
500 346.18 m 450 317.312 450 432.781 475 302.879 c S
700 346.18 m 700 288.445 600 346.18 725 302.879 c S
650 259.578 m 700 288.445 600 346.18 700 259.578 c S
550 432.781 m 600 461.648 600 346.18 575 476.082 c S
550 259.578 m 500 288.445 600 346.18 500 259.578 c S
650 432.781 m 600 461.648 600 346.18 625 476.082 c S
500 346.18 m 500 288.445 600 346.18 475 302.879 c S
550 230.711 m 500 230.711 l 500 259.578 l S
525 187.41 m 500 230.711 l 475 216.277 l S
675 187.41 m 700 230.711 l 725 216.277 l S
575 100.805 m 600 57.504 l 575 43.07 l S
650 230.711 m 700 230.711 l 700 259.578 l S
625 100.805 m 600 57.504 l 625 43.07 l S
825 71.938 m 850 28.637 l 875 43.07 l S
800 28.637 m 850 28.637 l 850 -0.23 l S
725 158.539 m 750 201.844 l 725 216.277 l S
700 28.637 m 650 28.637 l 650 -0.23 l S
775 158.539 m 750 201.844 l 775 216.277 l S
675 71.938 m 650 28.637 l 625 43.07 l S
550 259.578 m 500 230.711 600 172.973 500 259.578 c S
500 172.973 m 500 230.711 600 172.973 475 216.277 c S
700 172.973 m 700 230.711 600 172.973 725 216.277 c S
550 86.371 m 600 57.504 600 172.973 575 43.07 c S
650 259.578 m 700 230.711 600 172.973 700 259.578 c S
650 86.371 m 600 57.504 600 172.973 625 43.07 c S
850 86.371 m 850 28.637 750 86.371 875 43.07 c S
800 -0.23 m 850 28.637 750 86.371 850 -0.23 c S
700 172.973 m 750 201.844 750 86.371 725 216.277 c S
700 -0.23 m 650 28.637 750 86.371 650 -0.23 c S
800 172.973 m 750 201.844 750 86.371 775 216.277 c S
650 86.371 m 650 28.637 750 86.371 625 43.07 c S
400 1010.133 m 350 1010.133 l 350 1039 l S
375 966.832 m 350 1010.133 l 325 995.699 l S
525 966.832 m 550 1010.133 l 575 995.699 l S
425 880.23 m 450 836.926 l 425 822.492 l S
500 1010.133 m 550 1010.133 l 550 1039 l S
475 880.23 m 450 836.926 l 475 822.492 l S
675 851.359 m 700 808.059 l 725 822.492 l S
650 808.059 m 700 808.059 l 700 779.191 l S
575 937.965 m 600 981.266 l 575 995.699 l S
550 808.059 m 500 808.059 l 500 779.191 l S
625 937.965 m 600 981.266 l 625 995.699 l S
525 851.359 m 500 808.059 l 475 822.492 l S
400 1039 m 350 1010.133 450 952.398 350 1039 c S
350 952.398 m 350 1010.133 450 952.398 325 995.699 c S
550 952.398 m 550 1010.133 450 952.398 575 995.699 c S
400 865.793 m 450 836.926 450 952.398 425 822.492 c S
500 1039 m 550 1010.133 450 952.398 550 1039 c S
500 865.793 m 450 836.926 450 952.398 475 822.492 c S
700 865.793 m 700 808.059 600 865.793 725 822.492 c S
650 779.191 m 700 808.059 600 865.793 700 779.191 c S
550 952.398 m 600 981.266 600 865.793 575 995.699 c S
550 779.191 m 500 808.059 600 865.793 500 779.191 c S
650 952.398 m 600 981.266 600 865.793 625 995.699 c S
500 865.793 m 500 808.059 600 865.793 475 822.492 c S
550 750.324 m 500 750.324 l 500 779.191 l S
525 707.023 m 500 750.324 l 475 735.891 l S
675 707.023 m 700 750.324 l 725 735.891 l S
575 620.422 m 600 577.121 l 575 562.688 l S
650 750.324 m 700 750.324 l 700 779.191 l S
625 620.422 m 600 577.121 l 625 562.688 l S
825 591.555 m 850 548.254 l 875 562.688 l S
800 548.254 m 850 548.254 l 850 519.383 l S
725 678.156 m 750 721.457 l 725 735.891 l S
700 548.254 m 650 548.254 l 650 519.383 l S
775 678.156 m 750 721.457 l 775 735.891 l S
675 591.555 m 650 548.254 l 625 562.688 l S
550 779.191 m 500 750.324 600 692.59 500 779.191 c S
500 692.59 m 500 750.324 600 692.59 475 735.891 c S
700 692.59 m 700 750.324 600 692.59 725 735.891 c S
550 605.988 m 600 577.121 600 692.59 575 562.688 c S
650 779.191 m 700 750.324 600 692.59 700 779.191 c S
650 605.988 m 600 577.121 600 692.59 625 562.688 c S
850 605.988 m 850 548.254 750 605.988 875 562.688 c S
800 519.383 m 850 548.254 750 605.988 850 519.383 c S
700 692.59 m 750 721.457 750 605.988 725 735.891 c S
700 519.383 m 650 548.254 750 605.988 650 519.383 c S
800 692.59 m 750 721.457 750 605.988 775 735.891 c S
650 605.988 m 650 548.254 750 605.988 625 562.688 c S
700 490.516 m 650 490.516 l 650 519.383 l S
675 447.215 m 650 490.516 l 625 476.082 l S
825 447.215 m 850 490.516 l 875 476.082 l S
725 360.613 m 750 317.312 l 725 302.879 l S
800 490.516 m 850 490.516 l 850 519.383 l S
775 360.613 m 750 317.312 l 775 302.879 l S
975 331.746 m 1000 288.445 l 1025 302.879 l S
950 288.445 m 1000 288.445 l 1000 259.578 l S
875 418.348 m 900 461.648 l 875 476.082 l S
850 288.445 m 800 288.445 l 800 259.578 l S
925 418.348 m 900 461.648 l 925 476.082 l S
825 331.746 m 800 288.445 l 775 302.879 l S
700 519.383 m 650 490.516 750 432.781 650 519.383 c S
650 432.781 m 650 490.516 750 432.781 625 476.082 c S
850 432.781 m 850 490.516 750 432.781 875 476.082 c S
700 346.18 m 750 317.312 750 432.781 725 302.879 c S
800 519.383 m 850 490.516 750 432.781 850 519.383 c S
800 346.18 m 750 317.312 750 432.781 775 302.879 c S
1000 346.18 m 1000 288.445 900 346.18 1025 302.879 c S
950 259.578 m 1000 288.445 900 346.18 1000 259.578 c S
850 432.781 m 900 461.648 900 346.18 875 476.082 c S
850 259.578 m 800 288.445 900 346.18 800 259.578 c S
950 432.781 m 900 461.648 900 346.18 925 476.082 c S
800 346.18 m 800 288.445 900 346.18 775 302.879 c S
850 230.711 m 800 230.711 l 800 259.578 l S
825 187.41 m 800 230.711 l 775 216.277 l S
975 187.41 m 1000 230.711 l 1025 216.277 l S
875 100.805 m 900 57.504 l 875 43.07 l S
950 230.711 m 1000 230.711 l 1000 259.578 l S
925 100.805 m 900 57.504 l 925 43.07 l S
1125 71.938 m 1150 28.637 l 1175 43.07 l S
1100 28.637 m 1150 28.637 l 1150 -0.23 l S
1025 158.539 m 1050 201.844 l 1025 216.277 l S
1000 28.637 m 950 28.637 l 950 -0.23 l S
1075 158.539 m 1050 201.844 l 1075 216.277 l S
975 71.938 m 950 28.637 l 925 43.07 l S
850 259.578 m 800 230.711 900 172.973 800 259.578 c S
800 172.973 m 800 230.711 900 172.973 775 216.277 c S
1000 172.973 m 1000 230.711 900 172.973 1025 216.277 c S
850 86.371 m 900 57.504 900 172.973 875 43.07 c S
950 259.578 m 1000 230.711 900 172.973 1000 259.578 c S
950 86.371 m 900 57.504 900 172.973 925 43.07 c S
1150 86.371 m 1150 28.637 1050 86.371 1175 43.07 c S
1100 -0.23 m 1150 28.637 1050 86.371 1150 -0.23 c S
1000 172.973 m 1050 201.844 1050 86.371 1025 216.277 c S
1000 -0.23 m 950 28.637 1050 86.371 950 -0.23 c S
1100 172.973 m 1050 201.844 1050 86.371 1075 216.277 c S
950 86.371 m 950 28.637 1050 86.371 925 43.07 c S
700 1010.133 m 650 1010.133 l 650 1039 l S
675 966.832 m 650 1010.133 l 625 995.699 l S
825 966.832 m 850 1010.133 l 875 995.699 l S
725 880.23 m 750 836.926 l 725 822.492 l S
800 1010.133 m 850 1010.133 l 850 1039 l S
775 880.23 m 750 836.926 l 775 822.492 l S
975 851.359 m 1000 808.059 l 1025 822.492 l S
950 808.059 m 1000 808.059 l 1000 779.191 l S
875 937.965 m 900 981.266 l 875 995.699 l S
850 808.059 m 800 808.059 l 800 779.191 l S
925 937.965 m 900 981.266 l 925 995.699 l S
825 851.359 m 800 808.059 l 775 822.492 l S
700 1039 m 650 1010.133 750 952.398 650 1039 c S
650 952.398 m 650 1010.133 750 952.398 625 995.699 c S
850 952.398 m 850 1010.133 750 952.398 875 995.699 c S
700 865.793 m 750 836.926 750 952.398 725 822.492 c S
800 1039 m 850 1010.133 750 952.398 850 1039 c S
800 865.793 m 750 836.926 750 952.398 775 822.492 c S
1000 865.793 m 1000 808.059 900 865.793 1025 822.492 c S
950 779.191 m 1000 808.059 900 865.793 1000 779.191 c S
850 952.398 m 900 981.266 900 865.793 875 995.699 c S
850 779.191 m 800 808.059 900 865.793 800 779.191 c S
950 952.398 m 900 981.266 900 865.793 925 995.699 c S
800 865.793 m 800 808.059 900 865.793 775 822.492 c S
850 750.324 m 800 750.324 l 800 779.191 l S
825 707.023 m 800 750.324 l 775 735.891 l S
975 707.023 m 1000 750.324 l 1025 735.891 l S
875 620.422 m 900 577.121 l 875 562.688 l S
950 750.324 m 1000 750.324 l 1000 779.191 l S
925 620.422 m 900 577.121 l 925 562.688 l S
1125 591.555 m 1150 548.254 l 1175 562.688 l S
1100 548.254 m 1150 548.254 l 1150 519.383 l S
1025 678.156 m 1050 721.457 l 1025 735.891 l S
1000 548.254 m 950 548.254 l 950 519.383 l S
1075 678.156 m 1050 721.457 l 1075 735.891 l S
975 591.555 m 950 548.254 l 925 562.688 l S
850 779.191 m 800 750.324 900 692.59 800 779.191 c S
800 692.59 m 800 750.324 900 692.59 775 735.891 c S
1000 692.59 m 1000 750.324 900 692.59 1025 735.891 c S
850 605.988 m 900 577.121 900 692.59 875 562.688 c S
950 779.191 m 1000 750.324 900 692.59 1000 779.191 c S
950 605.988 m 900 577.121 900 692.59 925 562.688 c S
1150 605.988 m 1150 548.254 1050 605.988 1175 562.688 c S
1100 519.383 m 1150 548.254 1050 605.988 1150 519.383 c S
1000 692.59 m 1050 721.457 1050 605.988 1025 735.891 c S
1000 519.383 m 950 548.254 1050 605.988 950 519.383 c S
1100 692.59 m 1050 721.457 1050 605.988 1075 735.891 c S
950 605.988 m 950 548.254 1050 605.988 925 562.688 c S
1000 490.516 m 950 490.516 l 950 519.383 l S
975 447.215 m 950 490.516 l 925 476.082 l S
1125 447.215 m 1150 490.516 l 1175 476.082 l S
1025 360.613 m 1050 317.312 l 1025 302.879 l S
1100 490.516 m 1150 490.516 l 1150 519.383 l S
1075 360.613 m 1050 317.312 l 1075 302.879 l S
1175 418.348 m 1200 461.648 l 1175 476.082 l S
1150 288.445 m 1100 288.445 l 1100 259.578 l S
1225 418.348 m 1200 461.648 l 1225 476.082 l S
1125 331.746 m 1100 288.445 l 1075 302.879 l S
1000 519.383 m 950 490.516 1050 432.781 950 519.383 c S
950 432.781 m 950 490.516 1050 432.781 925 476.082 c S
1150 432.781 m 1150 490.516 1050 432.781 1175 476.082 c S
1000 346.18 m 1050 317.312 1050 432.781 1025 302.879 c S
1100 519.383 m 1150 490.516 1050 432.781 1150 519.383 c S
1100 346.18 m 1050 317.312 1050 432.781 1075 302.879 c S
1150 432.781 m 1200 461.648 1200 346.18 1175 476.082 c S
1150 259.578 m 1100 288.445 1200 346.18 1100 259.578 c S
1100 346.18 m 1100 288.445 1200 346.18 1075 302.879 c S
1150 230.711 m 1100 230.711 l 1100 259.578 l S
1125 187.41 m 1100 230.711 l 1075 216.277 l S
1175 100.805 m 1200 57.504 l 1175 43.07 l S
1225 100.805 m 1200 57.504 l 1225 43.07 l S
1150 259.578 m 1100 230.711 1200 172.973 1100 259.578 c S
1100 172.973 m 1100 230.711 1200 172.973 1075 216.277 c S
1150 86.371 m 1200 57.504 1200 172.973 1175 43.07 c S
1000 1010.133 m 950 1010.133 l 950 1039 l S
975 966.832 m 950 1010.133 l 925 995.699 l S
1125 966.832 m 1150 1010.133 l 1175 995.699 l S
1025 880.23 m 1050 836.926 l 1025 822.492 l S
1100 1010.133 m 1150 1010.133 l 1150 1039 l S
1075 880.23 m 1050 836.926 l 1075 822.492 l S
1175 937.965 m 1200 981.266 l 1175 995.699 l S
1150 808.059 m 1100 808.059 l 1100 779.191 l S
1225 937.965 m 1200 981.266 l 1225 995.699 l S
1125 851.359 m 1100 808.059 l 1075 822.492 l S
1000 1039 m 950 1010.133 1050 952.398 950 1039 c S
950 952.398 m 950 1010.133 1050 952.398 925 995.699 c S
1150 952.398 m 1150 1010.133 1050 952.398 1175 995.699 c S
1000 865.793 m 1050 836.926 1050 952.398 1025 822.492 c S
1100 1039 m 1150 1010.133 1050 952.398 1150 1039 c S
1100 865.793 m 1050 836.926 1050 952.398 1075 822.492 c S
1150 952.398 m 1200 981.266 1200 865.793 1175 995.699 c S
1150 779.191 m 1100 808.059 1200 865.793 1100 779.191 c S
1100 865.793 m 1100 808.059 1200 865.793 1075 822.492 c S
1150 750.324 m 1100 750.324 l 1100 779.191 l S
1125 707.023 m 1100 750.324 l 1075 735.891 l S
1175 620.422 m 1200 577.121 l 1175 562.688 l S
1225 620.422 m 1200 577.121 l 1225 562.688 l S
1150 779.191 m 1100 750.324 1200 692.59 1100 779.191 c S
1100 692.59 m 1100 750.324 1200 692.59 1075 735.891 c S
1150 605.988 m 1200 577.121 1200 692.59 1175 562.688 c S
Q Q
showpage
%%Trailer
%%Trailer
cleartomark
countdictstack
exch sub { end } repeat
restore
%%EOF
