%!PS-Adobe-2.0 EPSF-2.0
%%BoundingBox: 0 0 2400 1200
%%HiResBoundingBox: 0.000000 0.000000 2400.000000 1200.000000
%%Creator: cairo 1.14.2 (http://cairographics.org)
%%CreationDate: Mon Sep  7 08:21:38 2015
%%DocumentData: Clean7Bit
%%LanguageLevel: 2
%%DocumentMedia: 847x423mm 2400 1200 0 () ()
%%EndComments
% EPSF created by ps2eps 1.68
%%BeginProlog
save
countdictstack
mark
newpath
/showpage {} def
/setpagedevice {pop} def
%%EndProlog
%%Page 1 1
%%BeginProlog
/languagelevel where
{ pop languagelevel } { 1 } ifelse
2 lt { /Helvetica findfont 12 scalefont setfont 50 500 moveto
  (This print job requires a PostScript Language Level 2 printer.) show
  showpage quit } if
/q { gsave } bind def
/Q { grestore } bind def
/cm { 6 array astore concat } bind def
/w { setlinewidth } bind def
/J { setlinecap } bind def
/j { setlinejoin } bind def
/M { setmiterlimit } bind def
/d { setdash } bind def
/m { moveto } bind def
/l { lineto } bind def
/c { curveto } bind def
/h { closepath } bind def
/re { exch dup neg 3 1 roll 5 3 roll moveto 0 rlineto
      0 exch rlineto 0 rlineto closepath } bind def
/S { stroke } bind def
/f { fill } bind def
/f* { eofill } bind def
/n { newpath } bind def
/W { clip } bind def
/W* { eoclip } bind def
/BT { } bind def
/ET { } bind def
/pdfmark where { pop globaldict /?pdfmark /exec load put }
    { globaldict begin /?pdfmark /pop load def /pdfmark
    /cleartomark load def end } ifelse
/BDC { mark 3 1 roll /BDC pdfmark } bind def
/EMC { mark /EMC pdfmark } bind def
/cairo_store_point { /cairo_point_y exch def /cairo_point_x exch def } def
/Tj { show currentpoint cairo_store_point } bind def
/TJ {
  {
    dup
    type /stringtype eq
    { show } { -0.001 mul 0 cairo_font_matrix dtransform rmoveto } ifelse
  } forall
  currentpoint cairo_store_point
} bind def
/cairo_selectfont { cairo_font_matrix aload pop pop pop 0 0 6 array astore
    cairo_font exch selectfont cairo_point_x cairo_point_y moveto } bind def
/Tf { pop /cairo_font exch def /cairo_font_matrix where
      { pop cairo_selectfont } if } bind def
/Td { matrix translate cairo_font_matrix matrix concatmatrix dup
      /cairo_font_matrix exch def dup 4 get exch 5 get cairo_store_point
      /cairo_font where { pop cairo_selectfont } if } bind def
/Tm { 2 copy 8 2 roll 6 array astore /cairo_font_matrix exch def
      cairo_store_point /cairo_font where { pop cairo_selectfont } if } bind def
/g { setgray } bind def
/rg { setrgbcolor } bind def
/d1 { setcachedevice } bind def
/cairo_set_page_size {
  % Change paper size, but only if different from previous paper size otherwise
  % duplex fails. PLRM specifies a tolerance of 5 pts when matching paper size
  % so we use the same when checking if the size changes.
  /setpagedevice where {
    pop currentpagedevice
    /PageSize known {
      2 copy
      currentpagedevice /PageSize get aload pop
      exch 4 1 roll
      sub abs 5 gt
      3 1 roll
      sub abs 5 gt
      or
    } {
      true
    } ifelse
    {
      2 array astore
      2 dict begin
        /PageSize exch def
        /ImagingBBox null def
      currentdict end
      setpagedevice
    } {
      pop pop
    } ifelse
  } {
    pop
  } ifelse
} def
%%EndProlog
%%BeginSetup
%%EndSetup
%%Page: 1 1
%%BeginPageSetup
%%PageMedia: 847x423mm
%%PageBoundingBox: 0 0 2400 1200
2400 1200 cairo_set_page_size
%%EndPageSetup
q 0 0 2400 1200 rectclip q
0.984314 g
0 0 2400 1200 rectfill
0.788235 g
1.875 w
0 J
1 j
[] 0.0 d
4 M 0 1200 2400 -1200 re S
0 g
2.5 w
1 J
0 1200 m 66.668 1100 133.332 1050 200 1050 c S
200 1050 m 266.668 1150 333.332 1200 400 1200 c S
200 1050 m 133.332 950 66.668 900 0 900 c S
400 900 m 333.332 1000 266.668 1050 200 1050 c S
0 900 m 66.668 800 133.332 750 200 750 c S
200 750 m 266.668 850 333.332 900 400 900 c S
200 750 m 133.332 650 66.668 600 0 600 c S
400 600 m 333.332 700 266.668 750 200 750 c S
0 600 m 66.668 500 133.332 450 200 450 c S
200 450 m 266.668 550 333.332 600 400 600 c S
200 450 m 133.332 350 66.668 300 0 300 c S
400 300 m 333.332 400 266.668 450 200 450 c S
0 300 m 66.668 200 133.332 150 200 150 c S
200 150 m 266.668 250 333.332 300 400 300 c S
200 150 m 133.332 50 66.668 0 0 0 c S
400 0 m 333.332 100 266.668 150 200 150 c S
400 1200 m 466.668 1100 533.332 1050 600 1050 c S
600 1050 m 666.668 1150 733.332 1200 800 1200 c S
600 1050 m 533.332 950 466.668 900 400 900 c S
800 900 m 733.332 1000 666.668 1050 600 1050 c S
400 900 m 466.668 800 533.332 750 600 750 c S
600 750 m 666.668 850 733.332 900 800 900 c S
600 750 m 533.332 650 466.668 600 400 600 c S
800 600 m 733.332 700 666.668 750 600 750 c S
400 600 m 466.668 500 533.332 450 600 450 c S
600 450 m 666.668 550 733.332 600 800 600 c S
600 450 m 533.332 350 466.668 300 400 300 c S
800 300 m 733.332 400 666.668 450 600 450 c S
400 300 m 466.668 200 533.332 150 600 150 c S
600 150 m 666.668 250 733.332 300 800 300 c S
600 150 m 533.332 50 466.668 0 400 0 c S
800 0 m 733.332 100 666.668 150 600 150 c S
800 1200 m 866.668 1100 933.332 1050 1000 1050 c S
1000 1050 m 1066.668 1150 1133.332 1200 1200 1200 c S
1000 1050 m 933.332 950 866.668 900 800 900 c S
1200 900 m 1133.332 1000 1066.668 1050 1000 1050 c S
800 900 m 866.668 800 933.332 750 1000 750 c S
1000 750 m 1066.668 850 1133.332 900 1200 900 c S
1000 750 m 933.332 650 866.668 600 800 600 c S
1200 600 m 1133.332 700 1066.668 750 1000 750 c S
800 600 m 866.668 500 933.332 450 1000 450 c S
1000 450 m 1066.668 550 1133.332 600 1200 600 c S
1000 450 m 933.332 350 866.668 300 800 300 c S
1200 300 m 1133.332 400 1066.668 450 1000 450 c S
800 300 m 866.668 200 933.332 150 1000 150 c S
1000 150 m 1066.668 250 1133.332 300 1200 300 c S
1000 150 m 933.332 50 866.668 0 800 0 c S
1200 0 m 1133.332 100 1066.668 150 1000 150 c S
1200 1200 m 1266.668 1100 1333.332 1050 1400 1050 c S
1400 1050 m 1466.668 1150 1533.332 1200 1600 1200 c S
1400 1050 m 1333.332 950 1266.668 900 1200 900 c S
1600 900 m 1533.332 1000 1466.668 1050 1400 1050 c S
1200 900 m 1266.668 800 1333.332 750 1400 750 c S
1400 750 m 1466.668 850 1533.332 900 1600 900 c S
1400 750 m 1333.332 650 1266.668 600 1200 600 c S
1600 600 m 1533.332 700 1466.668 750 1400 750 c S
1200 600 m 1266.668 500 1333.332 450 1400 450 c S
1400 450 m 1466.668 550 1533.332 600 1600 600 c S
1400 450 m 1333.332 350 1266.668 300 1200 300 c S
1600 300 m 1533.332 400 1466.668 450 1400 450 c S
1200 300 m 1266.668 200 1333.332 150 1400 150 c S
1400 150 m 1466.668 250 1533.332 300 1600 300 c S
1400 150 m 1333.332 50 1266.668 0 1200 0 c S
1600 0 m 1533.332 100 1466.668 150 1400 150 c S
1600 1200 m 1666.668 1100 1733.332 1050 1800 1050 c S
1800 1050 m 1866.668 1150 1933.332 1200 2000 1200 c S
1800 1050 m 1733.332 950 1666.668 900 1600 900 c S
2000 900 m 1933.332 1000 1866.668 1050 1800 1050 c S
1600 900 m 1666.668 800 1733.332 750 1800 750 c S
1800 750 m 1866.668 850 1933.332 900 2000 900 c S
1800 750 m 1733.332 650 1666.668 600 1600 600 c S
2000 600 m 1933.332 700 1866.668 750 1800 750 c S
1600 600 m 1666.668 500 1733.332 450 1800 450 c S
1800 450 m 1866.668 550 1933.332 600 2000 600 c S
1800 450 m 1733.332 350 1666.668 300 1600 300 c S
2000 300 m 1933.332 400 1866.668 450 1800 450 c S
1600 300 m 1666.668 200 1733.332 150 1800 150 c S
1800 150 m 1866.668 250 1933.332 300 2000 300 c S
1800 150 m 1733.332 50 1666.668 0 1600 0 c S
2000 0 m 1933.332 100 1866.668 150 1800 150 c S
2000 1200 m 2066.668 1100 2133.332 1050 2200 1050 c S
2200 1050 m 2266.668 1150 2333.332 1200 2400 1200 c S
2200 1050 m 2133.332 950 2066.668 900 2000 900 c S
2400 900 m 2333.332 1000 2266.668 1050 2200 1050 c S
2000 900 m 2066.668 800 2133.332 750 2200 750 c S
2200 750 m 2266.668 850 2333.332 900 2400 900 c S
2200 750 m 2133.332 650 2066.668 600 2000 600 c S
2400 600 m 2333.332 700 2266.668 750 2200 750 c S
2000 600 m 2066.668 500 2133.332 450 2200 450 c S
2200 450 m 2266.668 550 2333.332 600 2400 600 c S
2200 450 m 2133.332 350 2066.668 300 2000 300 c S
2400 300 m 2333.332 400 2266.668 450 2200 450 c S
2000 300 m 2066.668 200 2133.332 150 2200 150 c S
2200 150 m 2266.668 250 2333.332 300 2400 300 c S
2200 150 m 2133.332 50 2066.668 0 2000 0 c S
2400 0 m 2333.332 100 2266.668 150 2200 150 c S
Q Q
showpage
%%Trailer
%%Trailer
cleartomark
countdictstack
exch sub { end } repeat
restore
%%EOF
