%!PS-Adobe-2.0 EPSF-2.0
%%BoundingBox: 0 0 2400 1200
%%HiResBoundingBox: 0.000000 0.000000 2400.000000 1200.000000
%%Creator: cairo 1.14.2 (http://cairographics.org)
%%CreationDate: Mon Sep  7 08:21:38 2015
%%DocumentData: Clean7Bit
%%LanguageLevel: 2
%%DocumentMedia: 847x423mm 2400 1200 0 () ()
%%EndComments
% EPSF created by ps2eps 1.68
%%BeginProlog
save
countdictstack
mark
newpath
/showpage {} def
/setpagedevice {pop} def
%%EndProlog
%%Page 1 1
%%BeginProlog
/languagelevel where
{ pop languagelevel } { 1 } ifelse
2 lt { /Helvetica findfont 12 scalefont setfont 50 500 moveto
  (This print job requires a PostScript Language Level 2 printer.) show
  showpage quit } if
/q { gsave } bind def
/Q { grestore } bind def
/cm { 6 array astore concat } bind def
/w { setlinewidth } bind def
/J { setlinecap } bind def
/j { setlinejoin } bind def
/M { setmiterlimit } bind def
/d { setdash } bind def
/m { moveto } bind def
/l { lineto } bind def
/c { curveto } bind def
/h { closepath } bind def
/re { exch dup neg 3 1 roll 5 3 roll moveto 0 rlineto
      0 exch rlineto 0 rlineto closepath } bind def
/S { stroke } bind def
/f { fill } bind def
/f* { eofill } bind def
/n { newpath } bind def
/W { clip } bind def
/W* { eoclip } bind def
/BT { } bind def
/ET { } bind def
/pdfmark where { pop globaldict /?pdfmark /exec load put }
    { globaldict begin /?pdfmark /pop load def /pdfmark
    /cleartomark load def end } ifelse
/BDC { mark 3 1 roll /BDC pdfmark } bind def
/EMC { mark /EMC pdfmark } bind def
/cairo_store_point { /cairo_point_y exch def /cairo_point_x exch def } def
/Tj { show currentpoint cairo_store_point } bind def
/TJ {
  {
    dup
    type /stringtype eq
    { show } { -0.001 mul 0 cairo_font_matrix dtransform rmoveto } ifelse
  } forall
  currentpoint cairo_store_point
} bind def
/cairo_selectfont { cairo_font_matrix aload pop pop pop 0 0 6 array astore
    cairo_font exch selectfont cairo_point_x cairo_point_y moveto } bind def
/Tf { pop /cairo_font exch def /cairo_font_matrix where
      { pop cairo_selectfont } if } bind def
/Td { matrix translate cairo_font_matrix matrix concatmatrix dup
      /cairo_font_matrix exch def dup 4 get exch 5 get cairo_store_point
      /cairo_font where { pop cairo_selectfont } if } bind def
/Tm { 2 copy 8 2 roll 6 array astore /cairo_font_matrix exch def
      cairo_store_point /cairo_font where { pop cairo_selectfont } if } bind def
/g { setgray } bind def
/rg { setrgbcolor } bind def
/d1 { setcachedevice } bind def
/cairo_set_page_size {
  % Change paper size, but only if different from previous paper size otherwise
  % duplex fails. PLRM specifies a tolerance of 5 pts when matching paper size
  % so we use the same when checking if the size changes.
  /setpagedevice where {
    pop currentpagedevice
    /PageSize known {
      2 copy
      currentpagedevice /PageSize get aload pop
      exch 4 1 roll
      sub abs 5 gt
      3 1 roll
      sub abs 5 gt
      or
    } {
      true
    } ifelse
    {
      2 array astore
      2 dict begin
        /PageSize exch def
        /ImagingBBox null def
      currentdict end
      setpagedevice
    } {
      pop pop
    } ifelse
  } {
    pop
  } ifelse
} def
%%EndProlog
%%BeginSetup
%%EndSetup
%%Page: 1 1
%%BeginPageSetup
%%PageMedia: 847x423mm
%%PageBoundingBox: 0 0 2400 1200
2400 1200 cairo_set_page_size
%%EndPageSetup
q 0 0 2400 1200 rectclip q
0.984314 g
0 0 2400 1200 rectfill
0.788235 g
1.875 w
0 J
1 j
[] 0.0 d
4 M 0 1200 2400 -1200 re S
0 g
2.5 w
1 J
200 1050 m 100 1200 200 1125 100 1050 c S
200 1050 m 100 900 200 975 100 1050 c S
200 900 m 300 1050 200 975 300 900 c S
200 1200 m 300 1050 200 1125 300 1200 c S
200 750 m 100 900 200 825 100 750 c S
200 750 m 100 600 200 675 100 750 c S
200 600 m 300 750 200 675 300 600 c S
200 900 m 300 750 200 825 300 900 c S
200 450 m 100 600 200 525 100 450 c S
200 450 m 100 300 200 375 100 450 c S
200 300 m 300 450 200 375 300 300 c S
200 600 m 300 450 200 525 300 600 c S
200 150 m 100 300 200 225 100 150 c S
200 150 m 100 0 200 75 100 150 c S
200 0 m 300 150 200 75 300 0 c S
200 300 m 300 150 200 225 300 300 c S
600 1050 m 500 1200 600 1125 500 1050 c S
600 1050 m 500 900 600 975 500 1050 c S
600 900 m 700 1050 600 975 700 900 c S
600 1200 m 700 1050 600 1125 700 1200 c S
600 750 m 500 900 600 825 500 750 c S
600 750 m 500 600 600 675 500 750 c S
600 600 m 700 750 600 675 700 600 c S
600 900 m 700 750 600 825 700 900 c S
600 450 m 500 600 600 525 500 450 c S
600 450 m 500 300 600 375 500 450 c S
600 300 m 700 450 600 375 700 300 c S
600 600 m 700 450 600 525 700 600 c S
600 150 m 500 300 600 225 500 150 c S
600 150 m 500 0 600 75 500 150 c S
600 0 m 700 150 600 75 700 0 c S
600 300 m 700 150 600 225 700 300 c S
1000 1050 m 900 1200 1000 1125 900 1050 c S
1000 1050 m 900 900 1000 975 900 1050 c S
1000 900 m 1100 1050 1000 975 1100 900 c S
1000 1200 m 1100 1050 1000 1125 1100 1200 c S
1000 750 m 900 900 1000 825 900 750 c S
1000 750 m 900 600 1000 675 900 750 c S
1000 600 m 1100 750 1000 675 1100 600 c S
1000 900 m 1100 750 1000 825 1100 900 c S
1000 450 m 900 600 1000 525 900 450 c S
1000 450 m 900 300 1000 375 900 450 c S
1000 300 m 1100 450 1000 375 1100 300 c S
1000 600 m 1100 450 1000 525 1100 600 c S
1000 150 m 900 300 1000 225 900 150 c S
1000 150 m 900 0 1000 75 900 150 c S
1000 0 m 1100 150 1000 75 1100 0 c S
1000 300 m 1100 150 1000 225 1100 300 c S
1400 1050 m 1300 1200 1400 1125 1300 1050 c S
1400 1050 m 1300 900 1400 975 1300 1050 c S
1400 900 m 1500 1050 1400 975 1500 900 c S
1400 1200 m 1500 1050 1400 1125 1500 1200 c S
1400 750 m 1300 900 1400 825 1300 750 c S
1400 750 m 1300 600 1400 675 1300 750 c S
1400 600 m 1500 750 1400 675 1500 600 c S
1400 900 m 1500 750 1400 825 1500 900 c S
1400 450 m 1300 600 1400 525 1300 450 c S
1400 450 m 1300 300 1400 375 1300 450 c S
1400 300 m 1500 450 1400 375 1500 300 c S
1400 600 m 1500 450 1400 525 1500 600 c S
1400 150 m 1300 300 1400 225 1300 150 c S
1400 150 m 1300 0 1400 75 1300 150 c S
1400 0 m 1500 150 1400 75 1500 0 c S
1400 300 m 1500 150 1400 225 1500 300 c S
1800 1050 m 1700 1200 1800 1125 1700 1050 c S
1800 1050 m 1700 900 1800 975 1700 1050 c S
1800 900 m 1900 1050 1800 975 1900 900 c S
1800 1200 m 1900 1050 1800 1125 1900 1200 c S
1800 750 m 1700 900 1800 825 1700 750 c S
1800 750 m 1700 600 1800 675 1700 750 c S
1800 600 m 1900 750 1800 675 1900 600 c S
1800 900 m 1900 750 1800 825 1900 900 c S
1800 450 m 1700 600 1800 525 1700 450 c S
1800 450 m 1700 300 1800 375 1700 450 c S
1800 300 m 1900 450 1800 375 1900 300 c S
1800 600 m 1900 450 1800 525 1900 600 c S
1800 150 m 1700 300 1800 225 1700 150 c S
1800 150 m 1700 0 1800 75 1700 150 c S
1800 0 m 1900 150 1800 75 1900 0 c S
1800 300 m 1900 150 1800 225 1900 300 c S
2200 1050 m 2100 1200 2200 1125 2100 1050 c S
2200 1050 m 2100 900 2200 975 2100 1050 c S
2200 900 m 2300 1050 2200 975 2300 900 c S
2200 1200 m 2300 1050 2200 1125 2300 1200 c S
2200 750 m 2100 900 2200 825 2100 750 c S
2200 750 m 2100 600 2200 675 2100 750 c S
2200 600 m 2300 750 2200 675 2300 600 c S
2200 900 m 2300 750 2200 825 2300 900 c S
2200 450 m 2100 600 2200 525 2100 450 c S
2200 450 m 2100 300 2200 375 2100 450 c S
2200 300 m 2300 450 2200 375 2300 300 c S
2200 600 m 2300 450 2200 525 2300 600 c S
2200 150 m 2100 300 2200 225 2100 150 c S
2200 150 m 2100 0 2200 75 2100 150 c S
2200 0 m 2300 150 2200 75 2300 0 c S
2200 300 m 2300 150 2200 225 2300 300 c S
Q Q
showpage
%%Trailer
%%Trailer
cleartomark
countdictstack
exch sub { end } repeat
restore
%%EOF
