%!PS-Adobe-2.0 EPSF-2.0
%%BoundingBox: 0 0 800 693
%%HiResBoundingBox: 0.000000 0.000000 800.000000 693.000000
%%Creator: cairo 1.14.2 (http://cairographics.org)
%%CreationDate: Mon Sep  7 08:21:31 2015
%%DocumentData: Clean7Bit
%%LanguageLevel: 2
%%DocumentMedia: 282x244mm 800 693 0 () ()
%%EndComments
% EPSF created by ps2eps 1.68
%%BeginProlog
save
countdictstack
mark
newpath
/showpage {} def
/setpagedevice {pop} def
%%EndProlog
%%Page 1 1
%%BeginProlog
/languagelevel where
{ pop languagelevel } { 1 } ifelse
2 lt { /Helvetica findfont 12 scalefont setfont 50 500 moveto
  (This print job requires a PostScript Language Level 2 printer.) show
  showpage quit } if
/q { gsave } bind def
/Q { grestore } bind def
/cm { 6 array astore concat } bind def
/w { setlinewidth } bind def
/J { setlinecap } bind def
/j { setlinejoin } bind def
/M { setmiterlimit } bind def
/d { setdash } bind def
/m { moveto } bind def
/l { lineto } bind def
/c { curveto } bind def
/h { closepath } bind def
/re { exch dup neg 3 1 roll 5 3 roll moveto 0 rlineto
      0 exch rlineto 0 rlineto closepath } bind def
/S { stroke } bind def
/f { fill } bind def
/f* { eofill } bind def
/n { newpath } bind def
/W { clip } bind def
/W* { eoclip } bind def
/BT { } bind def
/ET { } bind def
/pdfmark where { pop globaldict /?pdfmark /exec load put }
    { globaldict begin /?pdfmark /pop load def /pdfmark
    /cleartomark load def end } ifelse
/BDC { mark 3 1 roll /BDC pdfmark } bind def
/EMC { mark /EMC pdfmark } bind def
/cairo_store_point { /cairo_point_y exch def /cairo_point_x exch def } def
/Tj { show currentpoint cairo_store_point } bind def
/TJ {
  {
    dup
    type /stringtype eq
    { show } { -0.001 mul 0 cairo_font_matrix dtransform rmoveto } ifelse
  } forall
  currentpoint cairo_store_point
} bind def
/cairo_selectfont { cairo_font_matrix aload pop pop pop 0 0 6 array astore
    cairo_font exch selectfont cairo_point_x cairo_point_y moveto } bind def
/Tf { pop /cairo_font exch def /cairo_font_matrix where
      { pop cairo_selectfont } if } bind def
/Td { matrix translate cairo_font_matrix matrix concatmatrix dup
      /cairo_font_matrix exch def dup 4 get exch 5 get cairo_store_point
      /cairo_font where { pop cairo_selectfont } if } bind def
/Tm { 2 copy 8 2 roll 6 array astore /cairo_font_matrix exch def
      cairo_store_point /cairo_font where { pop cairo_selectfont } if } bind def
/g { setgray } bind def
/rg { setrgbcolor } bind def
/d1 { setcachedevice } bind def
/cairo_set_page_size {
  % Change paper size, but only if different from previous paper size otherwise
  % duplex fails. PLRM specifies a tolerance of 5 pts when matching paper size
  % so we use the same when checking if the size changes.
  /setpagedevice where {
    pop currentpagedevice
    /PageSize known {
      2 copy
      currentpagedevice /PageSize get aload pop
      exch 4 1 roll
      sub abs 5 gt
      3 1 roll
      sub abs 5 gt
      or
    } {
      true
    } ifelse
    {
      2 array astore
      2 dict begin
        /PageSize exch def
        /ImagingBBox null def
      currentdict end
      setpagedevice
    } {
      pop pop
    } ifelse
  } {
    pop
  } ifelse
} def
%%EndProlog
%%BeginSetup
%%EndSetup
%%Page: 1 1
%%BeginPageSetup
%%PageMedia: 282x244mm
%%PageBoundingBox: 0 0 800 693
800 693 cairo_set_page_size
%%EndPageSetup
q 0 0 800 693 rectclip q
Q q
0.984314 g
0 693 800 -692.82 re f*
0.788235 g
1.875 w
0 J
1 j
[] 0.0 d
4 M 0 693 800 -692.82 re S
0.85098 g
33.332 635.266 m 33.332 616.855 18.41 601.93 0 601.93 c -18.41 601.93 -33.332
 616.855 -33.332 635.266 c -33.332 653.676 -18.41 668.598 0 668.598 c 18.41
 668.598 33.332 653.676 33.332 635.266 c h
33.332 635.266 m f
0 g
2.5 w
0 j
33.332 635.266 m 33.332 616.855 18.41 601.93 0 601.93 c -18.41 601.93 -33.332
 616.855 -33.332 635.266 c -33.332 653.676 -18.41 668.598 0 668.598 c 18.41
 668.598 33.332 653.676 33.332 635.266 c h
33.332 635.266 m S
0.85098 g
83.332 548.664 m 83.332 530.254 68.41 515.328 50 515.328 c 31.59 515.328
 16.668 530.254 16.668 548.664 c 16.668 567.07 31.59 581.996 50 581.996 
c 68.41 581.996 83.332 567.07 83.332 548.664 c h
83.332 548.664 m f
0 g
83.332 548.664 m 83.332 530.254 68.41 515.328 50 515.328 c 31.59 515.328
 16.668 530.254 16.668 548.664 c 16.668 567.07 31.59 581.996 50 581.996 
c 68.41 581.996 83.332 567.07 83.332 548.664 c h
83.332 548.664 m S
0.85098 g
233.332 635.266 m 233.332 616.855 218.41 601.93 200 601.93 c 181.59 601.93
 166.668 616.855 166.668 635.266 c 166.668 653.676 181.59 668.598 200 668.598
 c 218.41 668.598 233.332 653.676 233.332 635.266 c h
233.332 635.266 m f
0 g
233.332 635.266 m 233.332 616.855 218.41 601.93 200 601.93 c 181.59 601.93
 166.668 616.855 166.668 635.266 c 166.668 653.676 181.59 668.598 200 668.598
 c 218.41 668.598 233.332 653.676 233.332 635.266 c h
233.332 635.266 m S
0.85098 g
283.332 548.664 m 283.332 530.254 268.41 515.328 250 515.328 c 231.59 515.328
 216.668 530.254 216.668 548.664 c 216.668 567.07 231.59 581.996 250 581.996
 c 268.41 581.996 283.332 567.07 283.332 548.664 c h
283.332 548.664 m f
0 g
283.332 548.664 m 283.332 530.254 268.41 515.328 250 515.328 c 231.59 515.328
 216.668 530.254 216.668 548.664 c 216.668 567.07 231.59 581.996 250 581.996
 c 268.41 581.996 283.332 567.07 283.332 548.664 c h
283.332 548.664 m S
0.85098 g
133.332 462.059 m 133.332 443.652 118.41 428.727 100 428.727 c 81.59 428.727
 66.668 443.652 66.668 462.059 c 66.668 480.469 81.59 495.395 100 495.395
 c 118.41 495.395 133.332 480.469 133.332 462.059 c h
133.332 462.059 m f
0 g
133.332 462.059 m 133.332 443.652 118.41 428.727 100 428.727 c 81.59 428.727
 66.668 443.652 66.668 462.059 c 66.668 480.469 81.59 495.395 100 495.395
 c 118.41 495.395 133.332 480.469 133.332 462.059 c h
133.332 462.059 m S
0.85098 g
183.332 375.457 m 183.332 357.047 168.41 342.125 150 342.125 c 131.59 342.125
 116.668 357.047 116.668 375.457 c 116.668 393.867 131.59 408.789 150 408.789
 c 168.41 408.789 183.332 393.867 183.332 375.457 c h
183.332 375.457 m f
0 g
183.332 375.457 m 183.332 357.047 168.41 342.125 150 342.125 c 131.59 342.125
 116.668 357.047 116.668 375.457 c 116.668 393.867 131.59 408.789 150 408.789
 c 168.41 408.789 183.332 393.867 183.332 375.457 c h
183.332 375.457 m S
0.85098 g
33.332 288.855 m 33.332 270.445 18.41 255.52 0 255.52 c -18.41 255.52 -33.332
 270.445 -33.332 288.855 c -33.332 307.266 -18.41 322.188 0 322.188 c 18.41
 322.188 33.332 307.266 33.332 288.855 c h
33.332 288.855 m f
0 g
33.332 288.855 m 33.332 270.445 18.41 255.52 0 255.52 c -18.41 255.52 -33.332
 270.445 -33.332 288.855 c -33.332 307.266 -18.41 322.188 0 322.188 c 18.41
 322.188 33.332 307.266 33.332 288.855 c h
33.332 288.855 m S
0.85098 g
83.332 202.254 m 83.332 183.844 68.41 168.918 50 168.918 c 31.59 168.918
 16.668 183.844 16.668 202.254 c 16.668 220.66 31.59 235.586 50 235.586 
c 68.41 235.586 83.332 220.66 83.332 202.254 c h
83.332 202.254 m f
0 g
83.332 202.254 m 83.332 183.844 68.41 168.918 50 168.918 c 31.59 168.918
 16.668 183.844 16.668 202.254 c 16.668 220.66 31.59 235.586 50 235.586 
c 68.41 235.586 83.332 220.66 83.332 202.254 c h
83.332 202.254 m S
0.85098 g
433.332 635.266 m 433.332 616.855 418.41 601.93 400 601.93 c 381.59 601.93
 366.668 616.855 366.668 635.266 c 366.668 653.676 381.59 668.598 400 668.598
 c 418.41 668.598 433.332 653.676 433.332 635.266 c h
433.332 635.266 m f
0 g
433.332 635.266 m 433.332 616.855 418.41 601.93 400 601.93 c 381.59 601.93
 366.668 616.855 366.668 635.266 c 366.668 653.676 381.59 668.598 400 668.598
 c 418.41 668.598 433.332 653.676 433.332 635.266 c h
433.332 635.266 m S
0.85098 g
483.332 548.664 m 483.332 530.254 468.41 515.328 450 515.328 c 431.59 515.328
 416.668 530.254 416.668 548.664 c 416.668 567.07 431.59 581.996 450 581.996
 c 468.41 581.996 483.332 567.07 483.332 548.664 c h
483.332 548.664 m f
0 g
483.332 548.664 m 483.332 530.254 468.41 515.328 450 515.328 c 431.59 515.328
 416.668 530.254 416.668 548.664 c 416.668 567.07 431.59 581.996 450 581.996
 c 468.41 581.996 483.332 567.07 483.332 548.664 c h
483.332 548.664 m S
0.85098 g
333.332 462.059 m 333.332 443.652 318.41 428.727 300 428.727 c 281.59 428.727
 266.668 443.652 266.668 462.059 c 266.668 480.469 281.59 495.395 300 495.395
 c 318.41 495.395 333.332 480.469 333.332 462.059 c h
333.332 462.059 m f
0 g
333.332 462.059 m 333.332 443.652 318.41 428.727 300 428.727 c 281.59 428.727
 266.668 443.652 266.668 462.059 c 266.668 480.469 281.59 495.395 300 495.395
 c 318.41 495.395 333.332 480.469 333.332 462.059 c h
333.332 462.059 m S
0.85098 g
383.332 375.457 m 383.332 357.047 368.41 342.125 350 342.125 c 331.59 342.125
 316.668 357.047 316.668 375.457 c 316.668 393.867 331.59 408.789 350 408.789
 c 368.41 408.789 383.332 393.867 383.332 375.457 c h
383.332 375.457 m f
0 g
383.332 375.457 m 383.332 357.047 368.41 342.125 350 342.125 c 331.59 342.125
 316.668 357.047 316.668 375.457 c 316.668 393.867 331.59 408.789 350 408.789
 c 368.41 408.789 383.332 393.867 383.332 375.457 c h
383.332 375.457 m S
0.85098 g
233.332 288.855 m 233.332 270.445 218.41 255.52 200 255.52 c 181.59 255.52
 166.668 270.445 166.668 288.855 c 166.668 307.266 181.59 322.188 200 322.188
 c 218.41 322.188 233.332 307.266 233.332 288.855 c h
233.332 288.855 m f
0 g
233.332 288.855 m 233.332 270.445 218.41 255.52 200 255.52 c 181.59 255.52
 166.668 270.445 166.668 288.855 c 166.668 307.266 181.59 322.188 200 322.188
 c 218.41 322.188 233.332 307.266 233.332 288.855 c h
233.332 288.855 m S
0.85098 g
283.332 202.254 m 283.332 183.844 268.41 168.918 250 168.918 c 231.59 168.918
 216.668 183.844 216.668 202.254 c 216.668 220.66 231.59 235.586 250 235.586
 c 268.41 235.586 283.332 220.66 283.332 202.254 c h
283.332 202.254 m f
0 g
283.332 202.254 m 283.332 183.844 268.41 168.918 250 168.918 c 231.59 168.918
 216.668 183.844 216.668 202.254 c 216.668 220.66 231.59 235.586 250 235.586
 c 268.41 235.586 283.332 220.66 283.332 202.254 c h
283.332 202.254 m S
0.85098 g
133.332 115.648 m 133.332 97.242 118.41 82.316 100 82.316 c 81.59 82.316
 66.668 97.242 66.668 115.648 c 66.668 134.059 81.59 148.984 100 148.984
 c 118.41 148.984 133.332 134.059 133.332 115.648 c h
133.332 115.648 m f
0 g
133.332 115.648 m 133.332 97.242 118.41 82.316 100 82.316 c 81.59 82.316
 66.668 97.242 66.668 115.648 c 66.668 134.059 81.59 148.984 100 148.984
 c 118.41 148.984 133.332 134.059 133.332 115.648 c h
133.332 115.648 m S
Q q
116 63 68 -62.82 re W n
0.85098 g
183.332 29.047 m 183.332 10.637 168.41 -4.285 150 -4.285 c 131.59 -4.285
 116.668 10.637 116.668 29.047 c 116.668 47.457 131.59 62.379 150 62.379
 c 168.41 62.379 183.332 47.457 183.332 29.047 c h
183.332 29.047 m f
Q q
115 64 70 -63.82 re W n
0 g
2.5 w
0 J
0 j
[] 0.0 d
4 M 183.332 29.047 m 183.332 10.637 168.41 -4.285 150 -4.285 c 131.59 -4.285
 116.668 10.637 116.668 29.047 c 116.668 47.457 131.59 62.379 150 62.379
 c 168.41 62.379 183.332 47.457 183.332 29.047 c h
183.332 29.047 m S
Q q
0.85098 g
633.332 635.266 m 633.332 616.855 618.41 601.93 600 601.93 c 581.59 601.93
 566.668 616.855 566.668 635.266 c 566.668 653.676 581.59 668.598 600 668.598
 c 618.41 668.598 633.332 653.676 633.332 635.266 c h
633.332 635.266 m f
0 g
2.5 w
0 J
0 j
[] 0.0 d
4 M 633.332 635.266 m 633.332 616.855 618.41 601.93 600 601.93 c 581.59 601.93
 566.668 616.855 566.668 635.266 c 566.668 653.676 581.59 668.598 600 668.598
 c 618.41 668.598 633.332 653.676 633.332 635.266 c h
633.332 635.266 m S
0.85098 g
683.332 548.664 m 683.332 530.254 668.41 515.328 650 515.328 c 631.59 515.328
 616.668 530.254 616.668 548.664 c 616.668 567.07 631.59 581.996 650 581.996
 c 668.41 581.996 683.332 567.07 683.332 548.664 c h
683.332 548.664 m f
0 g
683.332 548.664 m 683.332 530.254 668.41 515.328 650 515.328 c 631.59 515.328
 616.668 530.254 616.668 548.664 c 616.668 567.07 631.59 581.996 650 581.996
 c 668.41 581.996 683.332 567.07 683.332 548.664 c h
683.332 548.664 m S
0.85098 g
533.332 462.059 m 533.332 443.652 518.41 428.727 500 428.727 c 481.59 428.727
 466.668 443.652 466.668 462.059 c 466.668 480.469 481.59 495.395 500 495.395
 c 518.41 495.395 533.332 480.469 533.332 462.059 c h
533.332 462.059 m f
0 g
533.332 462.059 m 533.332 443.652 518.41 428.727 500 428.727 c 481.59 428.727
 466.668 443.652 466.668 462.059 c 466.668 480.469 481.59 495.395 500 495.395
 c 518.41 495.395 533.332 480.469 533.332 462.059 c h
533.332 462.059 m S
0.85098 g
583.332 375.457 m 583.332 357.047 568.41 342.125 550 342.125 c 531.59 342.125
 516.668 357.047 516.668 375.457 c 516.668 393.867 531.59 408.789 550 408.789
 c 568.41 408.789 583.332 393.867 583.332 375.457 c h
583.332 375.457 m f
0 g
583.332 375.457 m 583.332 357.047 568.41 342.125 550 342.125 c 531.59 342.125
 516.668 357.047 516.668 375.457 c 516.668 393.867 531.59 408.789 550 408.789
 c 568.41 408.789 583.332 393.867 583.332 375.457 c h
583.332 375.457 m S
0.85098 g
433.332 288.855 m 433.332 270.445 418.41 255.52 400 255.52 c 381.59 255.52
 366.668 270.445 366.668 288.855 c 366.668 307.266 381.59 322.188 400 322.188
 c 418.41 322.188 433.332 307.266 433.332 288.855 c h
433.332 288.855 m f
0 g
433.332 288.855 m 433.332 270.445 418.41 255.52 400 255.52 c 381.59 255.52
 366.668 270.445 366.668 288.855 c 366.668 307.266 381.59 322.188 400 322.188
 c 418.41 322.188 433.332 307.266 433.332 288.855 c h
433.332 288.855 m S
0.85098 g
483.332 202.254 m 483.332 183.844 468.41 168.918 450 168.918 c 431.59 168.918
 416.668 183.844 416.668 202.254 c 416.668 220.66 431.59 235.586 450 235.586
 c 468.41 235.586 483.332 220.66 483.332 202.254 c h
483.332 202.254 m f
0 g
483.332 202.254 m 483.332 183.844 468.41 168.918 450 168.918 c 431.59 168.918
 416.668 183.844 416.668 202.254 c 416.668 220.66 431.59 235.586 450 235.586
 c 468.41 235.586 483.332 220.66 483.332 202.254 c h
483.332 202.254 m S
0.85098 g
333.332 115.648 m 333.332 97.242 318.41 82.316 300 82.316 c 281.59 82.316
 266.668 97.242 266.668 115.648 c 266.668 134.059 281.59 148.984 300 148.984
 c 318.41 148.984 333.332 134.059 333.332 115.648 c h
333.332 115.648 m f
0 g
333.332 115.648 m 333.332 97.242 318.41 82.316 300 82.316 c 281.59 82.316
 266.668 97.242 266.668 115.648 c 266.668 134.059 281.59 148.984 300 148.984
 c 318.41 148.984 333.332 134.059 333.332 115.648 c h
333.332 115.648 m S
Q q
316 63 68 -62.82 re W n
0.85098 g
383.332 29.047 m 383.332 10.637 368.41 -4.285 350 -4.285 c 331.59 -4.285
 316.668 10.637 316.668 29.047 c 316.668 47.457 331.59 62.379 350 62.379
 c 368.41 62.379 383.332 47.457 383.332 29.047 c h
383.332 29.047 m f
Q q
315 64 70 -63.82 re W n
0 g
2.5 w
0 J
0 j
[] 0.0 d
4 M 383.332 29.047 m 383.332 10.637 368.41 -4.285 350 -4.285 c 331.59 -4.285
 316.668 10.637 316.668 29.047 c 316.668 47.457 331.59 62.379 350 62.379
 c 368.41 62.379 383.332 47.457 383.332 29.047 c h
383.332 29.047 m S
Q q
0.85098 g
833.332 635.266 m 833.332 616.855 818.41 601.93 800 601.93 c 781.59 601.93
 766.668 616.855 766.668 635.266 c 766.668 653.676 781.59 668.598 800 668.598
 c 818.41 668.598 833.332 653.676 833.332 635.266 c h
833.332 635.266 m f
0 g
2.5 w
0 J
0 j
[] 0.0 d
4 M 833.332 635.266 m 833.332 616.855 818.41 601.93 800 601.93 c 781.59 601.93
 766.668 616.855 766.668 635.266 c 766.668 653.676 781.59 668.598 800 668.598
 c 818.41 668.598 833.332 653.676 833.332 635.266 c h
833.332 635.266 m S
0.85098 g
733.332 462.059 m 733.332 443.652 718.41 428.727 700 428.727 c 681.59 428.727
 666.668 443.652 666.668 462.059 c 666.668 480.469 681.59 495.395 700 495.395
 c 718.41 495.395 733.332 480.469 733.332 462.059 c h
733.332 462.059 m f
0 g
733.332 462.059 m 733.332 443.652 718.41 428.727 700 428.727 c 681.59 428.727
 666.668 443.652 666.668 462.059 c 666.668 480.469 681.59 495.395 700 495.395
 c 718.41 495.395 733.332 480.469 733.332 462.059 c h
733.332 462.059 m S
0.85098 g
783.332 375.457 m 783.332 357.047 768.41 342.125 750 342.125 c 731.59 342.125
 716.668 357.047 716.668 375.457 c 716.668 393.867 731.59 408.789 750 408.789
 c 768.41 408.789 783.332 393.867 783.332 375.457 c h
783.332 375.457 m f
0 g
783.332 375.457 m 783.332 357.047 768.41 342.125 750 342.125 c 731.59 342.125
 716.668 357.047 716.668 375.457 c 716.668 393.867 731.59 408.789 750 408.789
 c 768.41 408.789 783.332 393.867 783.332 375.457 c h
783.332 375.457 m S
0.85098 g
633.332 288.855 m 633.332 270.445 618.41 255.52 600 255.52 c 581.59 255.52
 566.668 270.445 566.668 288.855 c 566.668 307.266 581.59 322.188 600 322.188
 c 618.41 322.188 633.332 307.266 633.332 288.855 c h
633.332 288.855 m f
0 g
633.332 288.855 m 633.332 270.445 618.41 255.52 600 255.52 c 581.59 255.52
 566.668 270.445 566.668 288.855 c 566.668 307.266 581.59 322.188 600 322.188
 c 618.41 322.188 633.332 307.266 633.332 288.855 c h
633.332 288.855 m S
0.85098 g
683.332 202.254 m 683.332 183.844 668.41 168.918 650 168.918 c 631.59 168.918
 616.668 183.844 616.668 202.254 c 616.668 220.66 631.59 235.586 650 235.586
 c 668.41 235.586 683.332 220.66 683.332 202.254 c h
683.332 202.254 m f
0 g
683.332 202.254 m 683.332 183.844 668.41 168.918 650 168.918 c 631.59 168.918
 616.668 183.844 616.668 202.254 c 616.668 220.66 631.59 235.586 650 235.586
 c 668.41 235.586 683.332 220.66 683.332 202.254 c h
683.332 202.254 m S
0.85098 g
533.332 115.648 m 533.332 97.242 518.41 82.316 500 82.316 c 481.59 82.316
 466.668 97.242 466.668 115.648 c 466.668 134.059 481.59 148.984 500 148.984
 c 518.41 148.984 533.332 134.059 533.332 115.648 c h
533.332 115.648 m f
0 g
533.332 115.648 m 533.332 97.242 518.41 82.316 500 82.316 c 481.59 82.316
 466.668 97.242 466.668 115.648 c 466.668 134.059 481.59 148.984 500 148.984
 c 518.41 148.984 533.332 134.059 533.332 115.648 c h
533.332 115.648 m S
Q q
516 63 68 -62.82 re W n
0.85098 g
583.332 29.047 m 583.332 10.637 568.41 -4.285 550 -4.285 c 531.59 -4.285
 516.668 10.637 516.668 29.047 c 516.668 47.457 531.59 62.379 550 62.379
 c 568.41 62.379 583.332 47.457 583.332 29.047 c h
583.332 29.047 m f
Q q
515 64 70 -63.82 re W n
0 g
2.5 w
0 J
0 j
[] 0.0 d
4 M 583.332 29.047 m 583.332 10.637 568.41 -4.285 550 -4.285 c 531.59 -4.285
 516.668 10.637 516.668 29.047 c 516.668 47.457 531.59 62.379 550 62.379
 c 568.41 62.379 583.332 47.457 583.332 29.047 c h
583.332 29.047 m S
Q q
0.85098 g
833.332 288.855 m 833.332 270.445 818.41 255.52 800 255.52 c 781.59 255.52
 766.668 270.445 766.668 288.855 c 766.668 307.266 781.59 322.188 800 322.188
 c 818.41 322.188 833.332 307.266 833.332 288.855 c h
833.332 288.855 m f
0 g
2.5 w
0 J
0 j
[] 0.0 d
4 M 833.332 288.855 m 833.332 270.445 818.41 255.52 800 255.52 c 781.59 255.52
 766.668 270.445 766.668 288.855 c 766.668 307.266 781.59 322.188 800 322.188
 c 818.41 322.188 833.332 307.266 833.332 288.855 c h
833.332 288.855 m S
0.85098 g
733.332 115.648 m 733.332 97.242 718.41 82.316 700 82.316 c 681.59 82.316
 666.668 97.242 666.668 115.648 c 666.668 134.059 681.59 148.984 700 148.984
 c 718.41 148.984 733.332 134.059 733.332 115.648 c h
733.332 115.648 m f
0 g
733.332 115.648 m 733.332 97.242 718.41 82.316 700 82.316 c 681.59 82.316
 666.668 97.242 666.668 115.648 c 666.668 134.059 681.59 148.984 700 148.984
 c 718.41 148.984 733.332 134.059 733.332 115.648 c h
733.332 115.648 m S
Q q
716 63 68 -62.82 re W n
0.85098 g
783.332 29.047 m 783.332 10.637 768.41 -4.285 750 -4.285 c 731.59 -4.285
 716.668 10.637 716.668 29.047 c 716.668 47.457 731.59 62.379 750 62.379
 c 768.41 62.379 783.332 47.457 783.332 29.047 c h
783.332 29.047 m f
Q q
715 64 70 -63.82 re W n
0 g
2.5 w
0 J
0 j
[] 0.0 d
4 M 783.332 29.047 m 783.332 10.637 768.41 -4.285 750 -4.285 c 731.59 -4.285
 716.668 10.637 716.668 29.047 c 716.668 47.457 731.59 62.379 750 62.379
 c 768.41 62.379 783.332 47.457 783.332 29.047 c h
783.332 29.047 m S
Q Q
showpage
%%Trailer
%%Trailer
cleartomark
countdictstack
exch sub { end } repeat
restore
%%EOF
