%!PS-Adobe-2.0 EPSF-2.0
%%BoundingBox: 0 0 800 693
%%HiResBoundingBox: 0.000000 0.000000 800.000000 693.000000
%%Creator: cairo 1.14.2 (http://cairographics.org)
%%CreationDate: Mon Sep  7 08:21:31 2015
%%DocumentData: Clean7Bit
%%LanguageLevel: 2
%%DocumentMedia: 282x244mm 800 693 0 () ()
%%EndComments
% EPSF created by ps2eps 1.68
%%BeginProlog
save
countdictstack
mark
newpath
/showpage {} def
/setpagedevice {pop} def
%%EndProlog
%%Page 1 1
%%BeginProlog
/languagelevel where
{ pop languagelevel } { 1 } ifelse
2 lt { /Helvetica findfont 12 scalefont setfont 50 500 moveto
  (This print job requires a PostScript Language Level 2 printer.) show
  showpage quit } if
/q { gsave } bind def
/Q { grestore } bind def
/cm { 6 array astore concat } bind def
/w { setlinewidth } bind def
/J { setlinecap } bind def
/j { setlinejoin } bind def
/M { setmiterlimit } bind def
/d { setdash } bind def
/m { moveto } bind def
/l { lineto } bind def
/c { curveto } bind def
/h { closepath } bind def
/re { exch dup neg 3 1 roll 5 3 roll moveto 0 rlineto
      0 exch rlineto 0 rlineto closepath } bind def
/S { stroke } bind def
/f { fill } bind def
/f* { eofill } bind def
/n { newpath } bind def
/W { clip } bind def
/W* { eoclip } bind def
/BT { } bind def
/ET { } bind def
/pdfmark where { pop globaldict /?pdfmark /exec load put }
    { globaldict begin /?pdfmark /pop load def /pdfmark
    /cleartomark load def end } ifelse
/BDC { mark 3 1 roll /BDC pdfmark } bind def
/EMC { mark /EMC pdfmark } bind def
/cairo_store_point { /cairo_point_y exch def /cairo_point_x exch def } def
/Tj { show currentpoint cairo_store_point } bind def
/TJ {
  {
    dup
    type /stringtype eq
    { show } { -0.001 mul 0 cairo_font_matrix dtransform rmoveto } ifelse
  } forall
  currentpoint cairo_store_point
} bind def
/cairo_selectfont { cairo_font_matrix aload pop pop pop 0 0 6 array astore
    cairo_font exch selectfont cairo_point_x cairo_point_y moveto } bind def
/Tf { pop /cairo_font exch def /cairo_font_matrix where
      { pop cairo_selectfont } if } bind def
/Td { matrix translate cairo_font_matrix matrix concatmatrix dup
      /cairo_font_matrix exch def dup 4 get exch 5 get cairo_store_point
      /cairo_font where { pop cairo_selectfont } if } bind def
/Tm { 2 copy 8 2 roll 6 array astore /cairo_font_matrix exch def
      cairo_store_point /cairo_font where { pop cairo_selectfont } if } bind def
/g { setgray } bind def
/rg { setrgbcolor } bind def
/d1 { setcachedevice } bind def
/cairo_set_page_size {
  % Change paper size, but only if different from previous paper size otherwise
  % duplex fails. PLRM specifies a tolerance of 5 pts when matching paper size
  % so we use the same when checking if the size changes.
  /setpagedevice where {
    pop currentpagedevice
    /PageSize known {
      2 copy
      currentpagedevice /PageSize get aload pop
      exch 4 1 roll
      sub abs 5 gt
      3 1 roll
      sub abs 5 gt
      or
    } {
      true
    } ifelse
    {
      2 array astore
      2 dict begin
        /PageSize exch def
        /ImagingBBox null def
      currentdict end
      setpagedevice
    } {
      pop pop
    } ifelse
  } {
    pop
  } ifelse
} def
%%EndProlog
%%BeginSetup
%%EndSetup
%%Page: 1 1
%%BeginPageSetup
%%PageMedia: 282x244mm
%%PageBoundingBox: 0 0 800 693
800 693 cairo_set_page_size
%%EndPageSetup
q 0 0 800 693 rectclip q
Q q
0.984314 g
0 693 800 -692.82 re f*
0.788235 g
1.875 w
0 J
1 j
[] 0.0 d
4 M 0 693 800 -692.82 re S
0 g
2.5 w
1 J
66.668 693 m 200 693 -100 519.793 -66.668 577.531 c S
133.332 577.531 m 200 693 -100 519.793 -33.332 519.793 c S
-33.332 519.793 m 100 519.793 -200 346.59 -166.668 404.324 c S
33.332 404.324 m 100 519.793 -200 346.59 -133.332 346.59 c S
266.668 693 m 400 693 100 519.793 133.332 577.531 c S
333.332 577.531 m 400 693 100 519.793 166.668 519.793 c S
166.668 519.793 m 300 519.793 0 346.59 33.332 404.324 c S
233.332 404.324 m 300 519.793 0 346.59 66.668 346.59 c S
66.668 346.59 m 200 346.59 -100 173.383 -66.668 231.121 c S
133.332 231.121 m 200 346.59 -100 173.383 -33.332 173.383 c S
-33.332 173.383 m 100 173.383 -200 0.18 -166.668 57.914 c S
Q q
0 99 45 -98.82 re W n
0 g
2.5 w
1 J
1 j
[] 0.0 d
4 M 33.332 57.914 m 100 173.383 -200 0.18 -133.332 0.18 c S
Q q
0 g
2.5 w
1 J
1 j
[] 0.0 d
4 M 466.668 693 m 600 693 300 519.793 333.332 577.531 c S
533.332 577.531 m 600 693 300 519.793 366.668 519.793 c S
366.668 519.793 m 500 519.793 200 346.59 233.332 404.324 c S
433.332 404.324 m 500 519.793 200 346.59 266.668 346.59 c S
266.668 346.59 m 400 346.59 100 173.383 133.332 231.121 c S
333.332 231.121 m 400 346.59 100 173.383 166.668 173.383 c S
166.668 173.383 m 300 173.383 0 0.18 33.332 57.914 c S
Q q
55 99 190 -98.82 re W n
0 g
2.5 w
1 J
1 j
[] 0.0 d
4 M 233.332 57.914 m 300 173.383 0 0.18 66.668 0.18 c S
Q q
0 g
2.5 w
1 J
1 j
[] 0.0 d
4 M 666.668 693 m 800 693 500 519.793 533.332 577.531 c S
733.332 577.531 m 800 693 500 519.793 566.668 519.793 c S
566.668 519.793 m 700 519.793 400 346.59 433.332 404.324 c S
633.332 404.324 m 700 519.793 400 346.59 466.668 346.59 c S
466.668 346.59 m 600 346.59 300 173.383 333.332 231.121 c S
533.332 231.121 m 600 346.59 300 173.383 366.668 173.383 c S
366.668 173.383 m 500 173.383 200 0.18 233.332 57.914 c S
Q q
255 99 190 -98.82 re W n
0 g
2.5 w
1 J
1 j
[] 0.0 d
4 M 433.332 57.914 m 500 173.383 200 0.18 266.668 0.18 c S
Q q
0 g
2.5 w
1 J
1 j
[] 0.0 d
4 M 866.668 693 m 1000 693 700 519.793 733.332 577.531 c S
933.332 577.531 m 1000 693 700 519.793 766.668 519.793 c S
766.668 519.793 m 900 519.793 600 346.59 633.332 404.324 c S
833.332 404.324 m 900 519.793 600 346.59 666.668 346.59 c S
666.668 346.59 m 800 346.59 500 173.383 533.332 231.121 c S
733.332 231.121 m 800 346.59 500 173.383 566.668 173.383 c S
566.668 173.383 m 700 173.383 400 0.18 433.332 57.914 c S
Q q
455 99 190 -98.82 re W n
0 g
2.5 w
1 J
1 j
[] 0.0 d
4 M 633.332 57.914 m 700 173.383 400 0.18 466.668 0.18 c S
Q q
0 g
2.5 w
1 J
1 j
[] 0.0 d
4 M 866.668 346.59 m 1000 346.59 700 173.383 733.332 231.121 c S
933.332 231.121 m 1000 346.59 700 173.383 766.668 173.383 c S
766.668 173.383 m 900 173.383 600 0.18 633.332 57.914 c S
Q q
655 99 145 -98.82 re W n
0 g
2.5 w
1 J
1 j
[] 0.0 d
4 M 833.332 57.914 m 900 173.383 600 0.18 666.668 0.18 c S
Q Q
showpage
%%Trailer
%%Trailer
cleartomark
countdictstack
exch sub { end } repeat
restore
%%EOF
