%!PS-Adobe-2.0 EPSF-2.0
%%BoundingBox: 0 0 800 693
%%HiResBoundingBox: 0.000000 0.000000 800.000000 693.000000
%%Creator: cairo 1.14.2 (http://cairographics.org)
%%CreationDate: Mon Sep  7 08:21:31 2015
%%DocumentData: Clean7Bit
%%LanguageLevel: 2
%%DocumentMedia: 282x244mm 800 693 0 () ()
%%EndComments
% EPSF created by ps2eps 1.68
%%BeginProlog
save
countdictstack
mark
newpath
/showpage {} def
/setpagedevice {pop} def
%%EndProlog
%%Page 1 1
%%BeginProlog
/languagelevel where
{ pop languagelevel } { 1 } ifelse
2 lt { /Helvetica findfont 12 scalefont setfont 50 500 moveto
  (This print job requires a PostScript Language Level 2 printer.) show
  showpage quit } if
/q { gsave } bind def
/Q { grestore } bind def
/cm { 6 array astore concat } bind def
/w { setlinewidth } bind def
/J { setlinecap } bind def
/j { setlinejoin } bind def
/M { setmiterlimit } bind def
/d { setdash } bind def
/m { moveto } bind def
/l { lineto } bind def
/c { curveto } bind def
/h { closepath } bind def
/re { exch dup neg 3 1 roll 5 3 roll moveto 0 rlineto
      0 exch rlineto 0 rlineto closepath } bind def
/S { stroke } bind def
/f { fill } bind def
/f* { eofill } bind def
/n { newpath } bind def
/W { clip } bind def
/W* { eoclip } bind def
/BT { } bind def
/ET { } bind def
/pdfmark where { pop globaldict /?pdfmark /exec load put }
    { globaldict begin /?pdfmark /pop load def /pdfmark
    /cleartomark load def end } ifelse
/BDC { mark 3 1 roll /BDC pdfmark } bind def
/EMC { mark /EMC pdfmark } bind def
/cairo_store_point { /cairo_point_y exch def /cairo_point_x exch def } def
/Tj { show currentpoint cairo_store_point } bind def
/TJ {
  {
    dup
    type /stringtype eq
    { show } { -0.001 mul 0 cairo_font_matrix dtransform rmoveto } ifelse
  } forall
  currentpoint cairo_store_point
} bind def
/cairo_selectfont { cairo_font_matrix aload pop pop pop 0 0 6 array astore
    cairo_font exch selectfont cairo_point_x cairo_point_y moveto } bind def
/Tf { pop /cairo_font exch def /cairo_font_matrix where
      { pop cairo_selectfont } if } bind def
/Td { matrix translate cairo_font_matrix matrix concatmatrix dup
      /cairo_font_matrix exch def dup 4 get exch 5 get cairo_store_point
      /cairo_font where { pop cairo_selectfont } if } bind def
/Tm { 2 copy 8 2 roll 6 array astore /cairo_font_matrix exch def
      cairo_store_point /cairo_font where { pop cairo_selectfont } if } bind def
/g { setgray } bind def
/rg { setrgbcolor } bind def
/d1 { setcachedevice } bind def
/cairo_set_page_size {
  % Change paper size, but only if different from previous paper size otherwise
  % duplex fails. PLRM specifies a tolerance of 5 pts when matching paper size
  % so we use the same when checking if the size changes.
  /setpagedevice where {
    pop currentpagedevice
    /PageSize known {
      2 copy
      currentpagedevice /PageSize get aload pop
      exch 4 1 roll
      sub abs 5 gt
      3 1 roll
      sub abs 5 gt
      or
    } {
      true
    } ifelse
    {
      2 array astore
      2 dict begin
        /PageSize exch def
        /ImagingBBox null def
      currentdict end
      setpagedevice
    } {
      pop pop
    } ifelse
  } {
    pop
  } ifelse
} def
%%EndProlog
%%BeginSetup
%%EndSetup
%%Page: 1 1
%%BeginPageSetup
%%PageMedia: 282x244mm
%%PageBoundingBox: 0 0 800 693
800 693 cairo_set_page_size
%%EndPageSetup
q 0 0 800 693 rectclip q
Q q
0.984314 g
0 693 800 -692.82 re f*
0.788235 g
1.875 w
0 J
1 j
[] 0.0 d
4 M 0 693 800 -692.82 re S
0.85098 g
16.668 664.133 m 0 693 l 33.332 635.266 l 0 577.531 l -33.332 635.266 l
 h
16.668 664.133 m f*
0 g
2.5 w
16.668 664.133 m 0 693 l 33.332 635.266 l 0 577.531 l -33.332 635.266 l
 h
16.668 664.133 m S
0.85098 g
16.668 664.133 m 66.668 693 l 100 635.266 l 33.332 635.266 l 0 693 l h
16.668 664.133 m f*
0 g
16.668 664.133 m 66.668 693 l 100 635.266 l 33.332 635.266 l 0 693 l h
16.668 664.133 m S
0.85098 g
83.332 548.664 m 33.332 519.793 l 0 577.531 l 66.668 577.531 l 100 519.793
 l h
83.332 548.664 m f*
0 g
83.332 548.664 m 33.332 519.793 l 0 577.531 l 66.668 577.531 l 100 519.793
 l h
83.332 548.664 m S
0.85098 g
83.332 548.664 m 100 519.793 l 66.668 577.531 l 100 635.266 l 133.332 577.531
 l h
83.332 548.664 m f*
0 g
83.332 548.664 m 100 519.793 l 66.668 577.531 l 100 635.266 l 133.332 577.531
 l h
83.332 548.664 m S
-83.332 490.926 m -33.332 519.793 l 0 462.059 l -66.668 462.059 l -100 
519.793 l h
-83.332 490.926 m S
-16.668 375.457 m -66.668 346.59 l -100 404.324 l -33.332 404.324 l 0 346.59
 l h
-16.668 375.457 m S
0.85098 g
-16.668 375.457 m 0 346.59 l -33.332 404.324 l 0 462.059 l 33.332 404.324
 l h
-16.668 375.457 m f*
0 g
-16.668 375.457 m 0 346.59 l -33.332 404.324 l 0 462.059 l 33.332 404.324
 l h
-16.668 375.457 m S
0.85098 g
216.668 664.133 m 200 693 l 233.332 635.266 l 200 577.531 l 166.668 635.266
 l h
216.668 664.133 m f*
0 g
216.668 664.133 m 200 693 l 233.332 635.266 l 200 577.531 l 166.668 635.266
 l h
216.668 664.133 m S
0.85098 g
216.668 664.133 m 266.668 693 l 300 635.266 l 233.332 635.266 l 200 693
 l h
216.668 664.133 m f*
0 g
216.668 664.133 m 266.668 693 l 300 635.266 l 233.332 635.266 l 200 693
 l h
216.668 664.133 m S
0.85098 g
283.332 548.664 m 233.332 519.793 l 200 577.531 l 266.668 577.531 l 300
 519.793 l h
283.332 548.664 m f*
0 g
283.332 548.664 m 233.332 519.793 l 200 577.531 l 266.668 577.531 l 300
 519.793 l h
283.332 548.664 m S
0.85098 g
283.332 548.664 m 300 519.793 l 266.668 577.531 l 300 635.266 l 333.332
 577.531 l h
283.332 548.664 m f*
0 g
283.332 548.664 m 300 519.793 l 266.668 577.531 l 300 635.266 l 333.332
 577.531 l h
283.332 548.664 m S
0.85098 g
116.668 490.926 m 100 519.793 l 133.332 462.059 l 100 404.324 l 66.668 
462.059 l h
116.668 490.926 m f*
0 g
116.668 490.926 m 100 519.793 l 133.332 462.059 l 100 404.324 l 66.668 
462.059 l h
116.668 490.926 m S
0.85098 g
116.668 490.926 m 166.668 519.793 l 200 462.059 l 133.332 462.059 l 100
 519.793 l h
116.668 490.926 m f*
0 g
116.668 490.926 m 166.668 519.793 l 200 462.059 l 133.332 462.059 l 100
 519.793 l h
116.668 490.926 m S
0.85098 g
183.332 375.457 m 133.332 346.59 l 100 404.324 l 166.668 404.324 l 200 
346.59 l h
183.332 375.457 m f*
0 g
183.332 375.457 m 133.332 346.59 l 100 404.324 l 166.668 404.324 l 200 
346.59 l h
183.332 375.457 m S
0.85098 g
183.332 375.457 m 200 346.59 l 166.668 404.324 l 200 462.059 l 233.332 
404.324 l h
183.332 375.457 m f*
0 g
183.332 375.457 m 200 346.59 l 166.668 404.324 l 200 462.059 l 233.332 
404.324 l h
183.332 375.457 m S
0.85098 g
16.668 317.723 m 0 346.59 l 33.332 288.855 l 0 231.121 l -33.332 288.855
 l h
16.668 317.723 m f*
0 g
16.668 317.723 m 0 346.59 l 33.332 288.855 l 0 231.121 l -33.332 288.855
 l h
16.668 317.723 m S
0.85098 g
16.668 317.723 m 66.668 346.59 l 100 288.855 l 33.332 288.855 l 0 346.59
 l h
16.668 317.723 m f*
0 g
16.668 317.723 m 66.668 346.59 l 100 288.855 l 33.332 288.855 l 0 346.59
 l h
16.668 317.723 m S
0.85098 g
83.332 202.254 m 33.332 173.383 l 0 231.121 l 66.668 231.121 l 100 173.383
 l h
83.332 202.254 m f*
0 g
83.332 202.254 m 33.332 173.383 l 0 231.121 l 66.668 231.121 l 100 173.383
 l h
83.332 202.254 m S
0.85098 g
83.332 202.254 m 100 173.383 l 66.668 231.121 l 100 288.855 l 133.332 231.121
 l h
83.332 202.254 m f*
0 g
83.332 202.254 m 100 173.383 l 66.668 231.121 l 100 288.855 l 133.332 231.121
 l h
83.332 202.254 m S
-83.332 144.516 m -33.332 173.383 l 0 115.648 l -66.668 115.648 l -100 
173.383 l h
-83.332 144.516 m S
Q q
0 60 2 -59.82 re W n
0 g
2.5 w
0 J
1 j
[] 0.0 d
4 M -16.668 29.047 m -66.668 0.18 l -100 57.914 l -33.332 57.914 l 0 0.18 l
 h
-16.668 29.047 m S
Q q
0 116 34 -115.82 re W n
0.85098 g
-16.668 29.047 m 0 0.18 l -33.332 57.914 l 0 115.648 l 33.332 57.914 l 
h
-16.668 29.047 m f*
Q q
0 117 35 -116.82 re W n
0 g
2.5 w
0 J
1 j
[] 0.0 d
4 M -16.668 29.047 m 0 0.18 l -33.332 57.914 l 0 115.648 l 33.332 57.914 l 
h
-16.668 29.047 m S
Q q
0.85098 g
416.668 664.133 m 400 693 l 433.332 635.266 l 400 577.531 l 366.668 635.266
 l h
416.668 664.133 m f*
0 g
2.5 w
0 J
1 j
[] 0.0 d
4 M 416.668 664.133 m 400 693 l 433.332 635.266 l 400 577.531 l 366.668 635.266
 l h
416.668 664.133 m S
0.85098 g
416.668 664.133 m 466.668 693 l 500 635.266 l 433.332 635.266 l 400 693
 l h
416.668 664.133 m f*
0 g
416.668 664.133 m 466.668 693 l 500 635.266 l 433.332 635.266 l 400 693
 l h
416.668 664.133 m S
0.85098 g
483.332 548.664 m 433.332 519.793 l 400 577.531 l 466.668 577.531 l 500
 519.793 l h
483.332 548.664 m f*
0 g
483.332 548.664 m 433.332 519.793 l 400 577.531 l 466.668 577.531 l 500
 519.793 l h
483.332 548.664 m S
0.85098 g
483.332 548.664 m 500 519.793 l 466.668 577.531 l 500 635.266 l 533.332
 577.531 l h
483.332 548.664 m f*
0 g
483.332 548.664 m 500 519.793 l 466.668 577.531 l 500 635.266 l 533.332
 577.531 l h
483.332 548.664 m S
0.85098 g
316.668 490.926 m 300 519.793 l 333.332 462.059 l 300 404.324 l 266.668
 462.059 l h
316.668 490.926 m f*
0 g
316.668 490.926 m 300 519.793 l 333.332 462.059 l 300 404.324 l 266.668
 462.059 l h
316.668 490.926 m S
0.85098 g
316.668 490.926 m 366.668 519.793 l 400 462.059 l 333.332 462.059 l 300
 519.793 l h
316.668 490.926 m f*
0 g
316.668 490.926 m 366.668 519.793 l 400 462.059 l 333.332 462.059 l 300
 519.793 l h
316.668 490.926 m S
0.85098 g
383.332 375.457 m 333.332 346.59 l 300 404.324 l 366.668 404.324 l 400 
346.59 l h
383.332 375.457 m f*
0 g
383.332 375.457 m 333.332 346.59 l 300 404.324 l 366.668 404.324 l 400 
346.59 l h
383.332 375.457 m S
0.85098 g
383.332 375.457 m 400 346.59 l 366.668 404.324 l 400 462.059 l 433.332 
404.324 l h
383.332 375.457 m f*
0 g
383.332 375.457 m 400 346.59 l 366.668 404.324 l 400 462.059 l 433.332 
404.324 l h
383.332 375.457 m S
0.85098 g
216.668 317.723 m 200 346.59 l 233.332 288.855 l 200 231.121 l 166.668 
288.855 l h
216.668 317.723 m f*
0 g
216.668 317.723 m 200 346.59 l 233.332 288.855 l 200 231.121 l 166.668 
288.855 l h
216.668 317.723 m S
0.85098 g
216.668 317.723 m 266.668 346.59 l 300 288.855 l 233.332 288.855 l 200 
346.59 l h
216.668 317.723 m f*
0 g
216.668 317.723 m 266.668 346.59 l 300 288.855 l 233.332 288.855 l 200 
346.59 l h
216.668 317.723 m S
0.85098 g
283.332 202.254 m 233.332 173.383 l 200 231.121 l 266.668 231.121 l 300
 173.383 l h
283.332 202.254 m f*
0 g
283.332 202.254 m 233.332 173.383 l 200 231.121 l 266.668 231.121 l 300
 173.383 l h
283.332 202.254 m S
0.85098 g
283.332 202.254 m 300 173.383 l 266.668 231.121 l 300 288.855 l 333.332
 231.121 l h
283.332 202.254 m f*
0 g
283.332 202.254 m 300 173.383 l 266.668 231.121 l 300 288.855 l 333.332
 231.121 l h
283.332 202.254 m S
0.85098 g
116.668 144.516 m 100 173.383 l 133.332 115.648 l 100 57.914 l 66.668 115.648
 l h
116.668 144.516 m f*
0 g
116.668 144.516 m 100 173.383 l 133.332 115.648 l 100 57.914 l 66.668 115.648
 l h
116.668 144.516 m S
0.85098 g
116.668 144.516 m 166.668 173.383 l 200 115.648 l 133.332 115.648 l 100
 173.383 l h
116.668 144.516 m f*
0 g
116.668 144.516 m 166.668 173.383 l 200 115.648 l 133.332 115.648 l 100
 173.383 l h
116.668 144.516 m S
Q q
100 58 100 -57.82 re W n
0.85098 g
183.332 29.047 m 133.332 0.18 l 100 57.914 l 166.668 57.914 l 200 0.18 
l h
183.332 29.047 m f*
Q q
98 60 104 -59.82 re W n
0 g
2.5 w
0 J
1 j
[] 0.0 d
4 M 183.332 29.047 m 133.332 0.18 l 100 57.914 l 166.668 57.914 l 200 0.18 
l h
183.332 29.047 m S
Q q
166 116 68 -115.82 re W n
0.85098 g
183.332 29.047 m 200 0.18 l 166.668 57.914 l 200 115.648 l 233.332 57.914
 l h
183.332 29.047 m f*
Q q
165 117 70 -116.82 re W n
0 g
2.5 w
0 J
1 j
[] 0.0 d
4 M 183.332 29.047 m 200 0.18 l 166.668 57.914 l 200 115.648 l 233.332 57.914
 l h
183.332 29.047 m S
Q q
0.85098 g
616.668 664.133 m 600 693 l 633.332 635.266 l 600 577.531 l 566.668 635.266
 l h
616.668 664.133 m f*
0 g
2.5 w
0 J
1 j
[] 0.0 d
4 M 616.668 664.133 m 600 693 l 633.332 635.266 l 600 577.531 l 566.668 635.266
 l h
616.668 664.133 m S
0.85098 g
616.668 664.133 m 666.668 693 l 700 635.266 l 633.332 635.266 l 600 693
 l h
616.668 664.133 m f*
0 g
616.668 664.133 m 666.668 693 l 700 635.266 l 633.332 635.266 l 600 693
 l h
616.668 664.133 m S
0.85098 g
683.332 548.664 m 633.332 519.793 l 600 577.531 l 666.668 577.531 l 700
 519.793 l h
683.332 548.664 m f*
0 g
683.332 548.664 m 633.332 519.793 l 600 577.531 l 666.668 577.531 l 700
 519.793 l h
683.332 548.664 m S
0.85098 g
683.332 548.664 m 700 519.793 l 666.668 577.531 l 700 635.266 l 733.332
 577.531 l h
683.332 548.664 m f*
0 g
683.332 548.664 m 700 519.793 l 666.668 577.531 l 700 635.266 l 733.332
 577.531 l h
683.332 548.664 m S
0.85098 g
516.668 490.926 m 500 519.793 l 533.332 462.059 l 500 404.324 l 466.668
 462.059 l h
516.668 490.926 m f*
0 g
516.668 490.926 m 500 519.793 l 533.332 462.059 l 500 404.324 l 466.668
 462.059 l h
516.668 490.926 m S
0.85098 g
516.668 490.926 m 566.668 519.793 l 600 462.059 l 533.332 462.059 l 500
 519.793 l h
516.668 490.926 m f*
0 g
516.668 490.926 m 566.668 519.793 l 600 462.059 l 533.332 462.059 l 500
 519.793 l h
516.668 490.926 m S
0.85098 g
583.332 375.457 m 533.332 346.59 l 500 404.324 l 566.668 404.324 l 600 
346.59 l h
583.332 375.457 m f*
0 g
583.332 375.457 m 533.332 346.59 l 500 404.324 l 566.668 404.324 l 600 
346.59 l h
583.332 375.457 m S
0.85098 g
583.332 375.457 m 600 346.59 l 566.668 404.324 l 600 462.059 l 633.332 
404.324 l h
583.332 375.457 m f*
0 g
583.332 375.457 m 600 346.59 l 566.668 404.324 l 600 462.059 l 633.332 
404.324 l h
583.332 375.457 m S
0.85098 g
416.668 317.723 m 400 346.59 l 433.332 288.855 l 400 231.121 l 366.668 
288.855 l h
416.668 317.723 m f*
0 g
416.668 317.723 m 400 346.59 l 433.332 288.855 l 400 231.121 l 366.668 
288.855 l h
416.668 317.723 m S
0.85098 g
416.668 317.723 m 466.668 346.59 l 500 288.855 l 433.332 288.855 l 400 
346.59 l h
416.668 317.723 m f*
0 g
416.668 317.723 m 466.668 346.59 l 500 288.855 l 433.332 288.855 l 400 
346.59 l h
416.668 317.723 m S
0.85098 g
483.332 202.254 m 433.332 173.383 l 400 231.121 l 466.668 231.121 l 500
 173.383 l h
483.332 202.254 m f*
0 g
483.332 202.254 m 433.332 173.383 l 400 231.121 l 466.668 231.121 l 500
 173.383 l h
483.332 202.254 m S
0.85098 g
483.332 202.254 m 500 173.383 l 466.668 231.121 l 500 288.855 l 533.332
 231.121 l h
483.332 202.254 m f*
0 g
483.332 202.254 m 500 173.383 l 466.668 231.121 l 500 288.855 l 533.332
 231.121 l h
483.332 202.254 m S
0.85098 g
316.668 144.516 m 300 173.383 l 333.332 115.648 l 300 57.914 l 266.668 
115.648 l h
316.668 144.516 m f*
0 g
316.668 144.516 m 300 173.383 l 333.332 115.648 l 300 57.914 l 266.668 
115.648 l h
316.668 144.516 m S
0.85098 g
316.668 144.516 m 366.668 173.383 l 400 115.648 l 333.332 115.648 l 300
 173.383 l h
316.668 144.516 m f*
0 g
316.668 144.516 m 366.668 173.383 l 400 115.648 l 333.332 115.648 l 300
 173.383 l h
316.668 144.516 m S
Q q
300 58 100 -57.82 re W n
0.85098 g
383.332 29.047 m 333.332 0.18 l 300 57.914 l 366.668 57.914 l 400 0.18 
l h
383.332 29.047 m f*
Q q
298 60 104 -59.82 re W n
0 g
2.5 w
0 J
1 j
[] 0.0 d
4 M 383.332 29.047 m 333.332 0.18 l 300 57.914 l 366.668 57.914 l 400 0.18 
l h
383.332 29.047 m S
Q q
366 116 68 -115.82 re W n
0.85098 g
383.332 29.047 m 400 0.18 l 366.668 57.914 l 400 115.648 l 433.332 57.914
 l h
383.332 29.047 m f*
Q q
365 117 70 -116.82 re W n
0 g
2.5 w
0 J
1 j
[] 0.0 d
4 M 383.332 29.047 m 400 0.18 l 366.668 57.914 l 400 115.648 l 433.332 57.914
 l h
383.332 29.047 m S
Q q
0.85098 g
816.668 664.133 m 800 693 l 833.332 635.266 l 800 577.531 l 766.668 635.266
 l h
816.668 664.133 m f*
0 g
2.5 w
0 J
1 j
[] 0.0 d
4 M 816.668 664.133 m 800 693 l 833.332 635.266 l 800 577.531 l 766.668 635.266
 l h
816.668 664.133 m S
816.668 664.133 m 866.668 693 l 900 635.266 l 833.332 635.266 l 800 693
 l h
816.668 664.133 m S
883.332 548.664 m 833.332 519.793 l 800 577.531 l 866.668 577.531 l 900
 519.793 l h
883.332 548.664 m S
0.85098 g
716.668 490.926 m 700 519.793 l 733.332 462.059 l 700 404.324 l 666.668
 462.059 l h
716.668 490.926 m f*
0 g
716.668 490.926 m 700 519.793 l 733.332 462.059 l 700 404.324 l 666.668
 462.059 l h
716.668 490.926 m S
0.85098 g
716.668 490.926 m 766.668 519.793 l 800 462.059 l 733.332 462.059 l 700
 519.793 l h
716.668 490.926 m f*
0 g
716.668 490.926 m 766.668 519.793 l 800 462.059 l 733.332 462.059 l 700
 519.793 l h
716.668 490.926 m S
0.85098 g
783.332 375.457 m 733.332 346.59 l 700 404.324 l 766.668 404.324 l 800 
346.59 l h
783.332 375.457 m f*
0 g
783.332 375.457 m 733.332 346.59 l 700 404.324 l 766.668 404.324 l 800 
346.59 l h
783.332 375.457 m S
0.85098 g
783.332 375.457 m 800 346.59 l 766.668 404.324 l 800 462.059 l 833.332 
404.324 l h
783.332 375.457 m f*
0 g
783.332 375.457 m 800 346.59 l 766.668 404.324 l 800 462.059 l 833.332 
404.324 l h
783.332 375.457 m S
0.85098 g
616.668 317.723 m 600 346.59 l 633.332 288.855 l 600 231.121 l 566.668 
288.855 l h
616.668 317.723 m f*
0 g
616.668 317.723 m 600 346.59 l 633.332 288.855 l 600 231.121 l 566.668 
288.855 l h
616.668 317.723 m S
0.85098 g
616.668 317.723 m 666.668 346.59 l 700 288.855 l 633.332 288.855 l 600 
346.59 l h
616.668 317.723 m f*
0 g
616.668 317.723 m 666.668 346.59 l 700 288.855 l 633.332 288.855 l 600 
346.59 l h
616.668 317.723 m S
0.85098 g
683.332 202.254 m 633.332 173.383 l 600 231.121 l 666.668 231.121 l 700
 173.383 l h
683.332 202.254 m f*
0 g
683.332 202.254 m 633.332 173.383 l 600 231.121 l 666.668 231.121 l 700
 173.383 l h
683.332 202.254 m S
0.85098 g
683.332 202.254 m 700 173.383 l 666.668 231.121 l 700 288.855 l 733.332
 231.121 l h
683.332 202.254 m f*
0 g
683.332 202.254 m 700 173.383 l 666.668 231.121 l 700 288.855 l 733.332
 231.121 l h
683.332 202.254 m S
0.85098 g
516.668 144.516 m 500 173.383 l 533.332 115.648 l 500 57.914 l 466.668 
115.648 l h
516.668 144.516 m f*
0 g
516.668 144.516 m 500 173.383 l 533.332 115.648 l 500 57.914 l 466.668 
115.648 l h
516.668 144.516 m S
0.85098 g
516.668 144.516 m 566.668 173.383 l 600 115.648 l 533.332 115.648 l 500
 173.383 l h
516.668 144.516 m f*
0 g
516.668 144.516 m 566.668 173.383 l 600 115.648 l 533.332 115.648 l 500
 173.383 l h
516.668 144.516 m S
Q q
500 58 100 -57.82 re W n
0.85098 g
583.332 29.047 m 533.332 0.18 l 500 57.914 l 566.668 57.914 l 600 0.18 
l h
583.332 29.047 m f*
Q q
498 60 104 -59.82 re W n
0 g
2.5 w
0 J
1 j
[] 0.0 d
4 M 583.332 29.047 m 533.332 0.18 l 500 57.914 l 566.668 57.914 l 600 0.18 
l h
583.332 29.047 m S
Q q
566 116 68 -115.82 re W n
0.85098 g
583.332 29.047 m 600 0.18 l 566.668 57.914 l 600 115.648 l 633.332 57.914
 l h
583.332 29.047 m f*
Q q
565 117 70 -116.82 re W n
0 g
2.5 w
0 J
1 j
[] 0.0 d
4 M 583.332 29.047 m 600 0.18 l 566.668 57.914 l 600 115.648 l 633.332 57.914
 l h
583.332 29.047 m S
Q q
0.85098 g
816.668 317.723 m 800 346.59 l 833.332 288.855 l 800 231.121 l 766.668 
288.855 l h
816.668 317.723 m f*
0 g
2.5 w
0 J
1 j
[] 0.0 d
4 M 816.668 317.723 m 800 346.59 l 833.332 288.855 l 800 231.121 l 766.668 
288.855 l h
816.668 317.723 m S
816.668 317.723 m 866.668 346.59 l 900 288.855 l 833.332 288.855 l 800 
346.59 l h
816.668 317.723 m S
883.332 202.254 m 833.332 173.383 l 800 231.121 l 866.668 231.121 l 900
 173.383 l h
883.332 202.254 m S
0.85098 g
716.668 144.516 m 700 173.383 l 733.332 115.648 l 700 57.914 l 666.668 
115.648 l h
716.668 144.516 m f*
0 g
716.668 144.516 m 700 173.383 l 733.332 115.648 l 700 57.914 l 666.668 
115.648 l h
716.668 144.516 m S
0.85098 g
716.668 144.516 m 766.668 173.383 l 800 115.648 l 733.332 115.648 l 700
 173.383 l h
716.668 144.516 m f*
0 g
716.668 144.516 m 766.668 173.383 l 800 115.648 l 733.332 115.648 l 700
 173.383 l h
716.668 144.516 m S
Q q
700 58 100 -57.82 re W n
0.85098 g
783.332 29.047 m 733.332 0.18 l 700 57.914 l 766.668 57.914 l 800 0.18 
l h
783.332 29.047 m f*
Q q
698 60 102 -59.82 re W n
0 g
2.5 w
0 J
1 j
[] 0.0 d
4 M 783.332 29.047 m 733.332 0.18 l 700 57.914 l 766.668 57.914 l 800 0.18 
l h
783.332 29.047 m S
Q q
766 116 34 -115.82 re W n
0.85098 g
783.332 29.047 m 800 0.18 l 766.668 57.914 l 800 115.648 l 833.332 57.914
 l h
783.332 29.047 m f*
Q q
765 117 35 -116.82 re W n
0 g
2.5 w
0 J
1 j
[] 0.0 d
4 M 783.332 29.047 m 800 0.18 l 766.668 57.914 l 800 115.648 l 833.332 57.914
 l h
783.332 29.047 m S
Q Q
showpage
%%Trailer
%%Trailer
cleartomark
countdictstack
exch sub { end } repeat
restore
%%EOF
