%!PS-Adobe-2.0 EPSF-2.0
%%BoundingBox: 0 0 800 693
%%HiResBoundingBox: 0.000000 0.000000 800.000000 693.000000
%%Creator: cairo 1.14.2 (http://cairographics.org)
%%CreationDate: Mon Sep  7 08:21:31 2015
%%DocumentData: Clean7Bit
%%LanguageLevel: 2
%%DocumentMedia: 282x244mm 800 693 0 () ()
%%EndComments
% EPSF created by ps2eps 1.68
%%BeginProlog
save
countdictstack
mark
newpath
/showpage {} def
/setpagedevice {pop} def
%%EndProlog
%%Page 1 1
%%BeginProlog
/languagelevel where
{ pop languagelevel } { 1 } ifelse
2 lt { /Helvetica findfont 12 scalefont setfont 50 500 moveto
  (This print job requires a PostScript Language Level 2 printer.) show
  showpage quit } if
/q { gsave } bind def
/Q { grestore } bind def
/cm { 6 array astore concat } bind def
/w { setlinewidth } bind def
/J { setlinecap } bind def
/j { setlinejoin } bind def
/M { setmiterlimit } bind def
/d { setdash } bind def
/m { moveto } bind def
/l { lineto } bind def
/c { curveto } bind def
/h { closepath } bind def
/re { exch dup neg 3 1 roll 5 3 roll moveto 0 rlineto
      0 exch rlineto 0 rlineto closepath } bind def
/S { stroke } bind def
/f { fill } bind def
/f* { eofill } bind def
/n { newpath } bind def
/W { clip } bind def
/W* { eoclip } bind def
/BT { } bind def
/ET { } bind def
/pdfmark where { pop globaldict /?pdfmark /exec load put }
    { globaldict begin /?pdfmark /pop load def /pdfmark
    /cleartomark load def end } ifelse
/BDC { mark 3 1 roll /BDC pdfmark } bind def
/EMC { mark /EMC pdfmark } bind def
/cairo_store_point { /cairo_point_y exch def /cairo_point_x exch def } def
/Tj { show currentpoint cairo_store_point } bind def
/TJ {
  {
    dup
    type /stringtype eq
    { show } { -0.001 mul 0 cairo_font_matrix dtransform rmoveto } ifelse
  } forall
  currentpoint cairo_store_point
} bind def
/cairo_selectfont { cairo_font_matrix aload pop pop pop 0 0 6 array astore
    cairo_font exch selectfont cairo_point_x cairo_point_y moveto } bind def
/Tf { pop /cairo_font exch def /cairo_font_matrix where
      { pop cairo_selectfont } if } bind def
/Td { matrix translate cairo_font_matrix matrix concatmatrix dup
      /cairo_font_matrix exch def dup 4 get exch 5 get cairo_store_point
      /cairo_font where { pop cairo_selectfont } if } bind def
/Tm { 2 copy 8 2 roll 6 array astore /cairo_font_matrix exch def
      cairo_store_point /cairo_font where { pop cairo_selectfont } if } bind def
/g { setgray } bind def
/rg { setrgbcolor } bind def
/d1 { setcachedevice } bind def
/cairo_set_page_size {
  % Change paper size, but only if different from previous paper size otherwise
  % duplex fails. PLRM specifies a tolerance of 5 pts when matching paper size
  % so we use the same when checking if the size changes.
  /setpagedevice where {
    pop currentpagedevice
    /PageSize known {
      2 copy
      currentpagedevice /PageSize get aload pop
      exch 4 1 roll
      sub abs 5 gt
      3 1 roll
      sub abs 5 gt
      or
    } {
      true
    } ifelse
    {
      2 array astore
      2 dict begin
        /PageSize exch def
        /ImagingBBox null def
      currentdict end
      setpagedevice
    } {
      pop pop
    } ifelse
  } {
    pop
  } ifelse
} def
%%EndProlog
%%BeginSetup
%%EndSetup
%%Page: 1 1
%%BeginPageSetup
%%PageMedia: 282x244mm
%%PageBoundingBox: 0 0 800 693
800 693 cairo_set_page_size
%%EndPageSetup
q 0 0 800 693 rectclip q
Q q
0.984314 g
0 693 800 -692.82 re f*
0.788235 g
1.875 w
0 J
1 j
[] 0.0 d
4 M 0 693 800 -692.82 re S
0 g
2.5 w
1 J
16.668 664.133 m 0 693 l 33.332 635.266 l 0 577.531 l S
16.668 664.133 m 0 693 l 33.332 635.266 l 100 635.266 l S
83.332 548.664 m 100 519.793 l 66.668 577.531 l 0 577.531 l S
83.332 548.664 m 100 519.793 l 66.668 577.531 l 100 635.266 l S
-83.332 490.926 m -100 519.793 l -66.668 462.059 l 0 462.059 l S
-16.668 375.457 m 0 346.59 l -33.332 404.324 l -100 404.324 l S
-16.668 375.457 m 0 346.59 l -33.332 404.324 l 0 462.059 l S
216.668 664.133 m 200 693 l 233.332 635.266 l 200 577.531 l S
216.668 664.133 m 200 693 l 233.332 635.266 l 300 635.266 l S
283.332 548.664 m 300 519.793 l 266.668 577.531 l 200 577.531 l S
283.332 548.664 m 300 519.793 l 266.668 577.531 l 300 635.266 l S
116.668 490.926 m 100 519.793 l 133.332 462.059 l 100 404.324 l S
116.668 490.926 m 100 519.793 l 133.332 462.059 l 200 462.059 l S
183.332 375.457 m 200 346.59 l 166.668 404.324 l 100 404.324 l S
183.332 375.457 m 200 346.59 l 166.668 404.324 l 200 462.059 l S
16.668 317.723 m 0 346.59 l 33.332 288.855 l 0 231.121 l S
16.668 317.723 m 0 346.59 l 33.332 288.855 l 100 288.855 l S
83.332 202.254 m 100 173.383 l 66.668 231.121 l 0 231.121 l S
83.332 202.254 m 100 173.383 l 66.668 231.121 l 100 288.855 l S
-83.332 144.516 m -100 173.383 l -66.668 115.648 l 0 115.648 l S
Q q
0 60 2 -59.82 re W n
0 g
2.5 w
1 J
1 j
[] 0.0 d
4 M -16.668 29.047 m 0 0.18 l -33.332 57.914 l -100 57.914 l S
Q q
0 117 2 -116.82 re W n
0 g
2.5 w
1 J
1 j
[] 0.0 d
4 M -16.668 29.047 m 0 0.18 l -33.332 57.914 l 0 115.648 l S
Q q
0 g
2.5 w
1 J
1 j
[] 0.0 d
4 M 416.668 664.133 m 400 693 l 433.332 635.266 l 400 577.531 l S
416.668 664.133 m 400 693 l 433.332 635.266 l 500 635.266 l S
483.332 548.664 m 500 519.793 l 466.668 577.531 l 400 577.531 l S
483.332 548.664 m 500 519.793 l 466.668 577.531 l 500 635.266 l S
316.668 490.926 m 300 519.793 l 333.332 462.059 l 300 404.324 l S
316.668 490.926 m 300 519.793 l 333.332 462.059 l 400 462.059 l S
383.332 375.457 m 400 346.59 l 366.668 404.324 l 300 404.324 l S
383.332 375.457 m 400 346.59 l 366.668 404.324 l 400 462.059 l S
216.668 317.723 m 200 346.59 l 233.332 288.855 l 200 231.121 l S
216.668 317.723 m 200 346.59 l 233.332 288.855 l 300 288.855 l S
283.332 202.254 m 300 173.383 l 266.668 231.121 l 200 231.121 l S
283.332 202.254 m 300 173.383 l 266.668 231.121 l 300 288.855 l S
116.668 144.516 m 100 173.383 l 133.332 115.648 l 100 57.914 l S
116.668 144.516 m 100 173.383 l 133.332 115.648 l 200 115.648 l S
Q q
98 60 104 -59.82 re W n
0 g
2.5 w
1 J
1 j
[] 0.0 d
4 M 183.332 29.047 m 200 0.18 l 166.668 57.914 l 100 57.914 l S
Q q
165 117 37 -116.82 re W n
0 g
2.5 w
1 J
1 j
[] 0.0 d
4 M 183.332 29.047 m 200 0.18 l 166.668 57.914 l 200 115.648 l S
Q q
0 g
2.5 w
1 J
1 j
[] 0.0 d
4 M 616.668 664.133 m 600 693 l 633.332 635.266 l 600 577.531 l S
616.668 664.133 m 600 693 l 633.332 635.266 l 700 635.266 l S
683.332 548.664 m 700 519.793 l 666.668 577.531 l 600 577.531 l S
683.332 548.664 m 700 519.793 l 666.668 577.531 l 700 635.266 l S
516.668 490.926 m 500 519.793 l 533.332 462.059 l 500 404.324 l S
516.668 490.926 m 500 519.793 l 533.332 462.059 l 600 462.059 l S
583.332 375.457 m 600 346.59 l 566.668 404.324 l 500 404.324 l S
583.332 375.457 m 600 346.59 l 566.668 404.324 l 600 462.059 l S
416.668 317.723 m 400 346.59 l 433.332 288.855 l 400 231.121 l S
416.668 317.723 m 400 346.59 l 433.332 288.855 l 500 288.855 l S
483.332 202.254 m 500 173.383 l 466.668 231.121 l 400 231.121 l S
483.332 202.254 m 500 173.383 l 466.668 231.121 l 500 288.855 l S
316.668 144.516 m 300 173.383 l 333.332 115.648 l 300 57.914 l S
316.668 144.516 m 300 173.383 l 333.332 115.648 l 400 115.648 l S
Q q
298 60 104 -59.82 re W n
0 g
2.5 w
1 J
1 j
[] 0.0 d
4 M 383.332 29.047 m 400 0.18 l 366.668 57.914 l 300 57.914 l S
Q q
365 117 37 -116.82 re W n
0 g
2.5 w
1 J
1 j
[] 0.0 d
4 M 383.332 29.047 m 400 0.18 l 366.668 57.914 l 400 115.648 l S
Q q
0 g
2.5 w
1 J
1 j
[] 0.0 d
4 M 816.668 664.133 m 800 693 l 833.332 635.266 l 800 577.531 l S
816.668 664.133 m 800 693 l 833.332 635.266 l 900 635.266 l S
883.332 548.664 m 900 519.793 l 866.668 577.531 l 800 577.531 l S
716.668 490.926 m 700 519.793 l 733.332 462.059 l 700 404.324 l S
716.668 490.926 m 700 519.793 l 733.332 462.059 l 800 462.059 l S
783.332 375.457 m 800 346.59 l 766.668 404.324 l 700 404.324 l S
783.332 375.457 m 800 346.59 l 766.668 404.324 l 800 462.059 l S
616.668 317.723 m 600 346.59 l 633.332 288.855 l 600 231.121 l S
616.668 317.723 m 600 346.59 l 633.332 288.855 l 700 288.855 l S
683.332 202.254 m 700 173.383 l 666.668 231.121 l 600 231.121 l S
683.332 202.254 m 700 173.383 l 666.668 231.121 l 700 288.855 l S
516.668 144.516 m 500 173.383 l 533.332 115.648 l 500 57.914 l S
516.668 144.516 m 500 173.383 l 533.332 115.648 l 600 115.648 l S
Q q
498 60 104 -59.82 re W n
0 g
2.5 w
1 J
1 j
[] 0.0 d
4 M 583.332 29.047 m 600 0.18 l 566.668 57.914 l 500 57.914 l S
Q q
565 117 37 -116.82 re W n
0 g
2.5 w
1 J
1 j
[] 0.0 d
4 M 583.332 29.047 m 600 0.18 l 566.668 57.914 l 600 115.648 l S
Q q
0 g
2.5 w
1 J
1 j
[] 0.0 d
4 M 816.668 317.723 m 800 346.59 l 833.332 288.855 l 800 231.121 l S
816.668 317.723 m 800 346.59 l 833.332 288.855 l 900 288.855 l S
883.332 202.254 m 900 173.383 l 866.668 231.121 l 800 231.121 l S
716.668 144.516 m 700 173.383 l 733.332 115.648 l 700 57.914 l S
716.668 144.516 m 700 173.383 l 733.332 115.648 l 800 115.648 l S
Q q
698 60 102 -59.82 re W n
0 g
2.5 w
1 J
1 j
[] 0.0 d
4 M 783.332 29.047 m 800 0.18 l 766.668 57.914 l 700 57.914 l S
Q q
765 117 35 -116.82 re W n
0 g
2.5 w
1 J
1 j
[] 0.0 d
4 M 783.332 29.047 m 800 0.18 l 766.668 57.914 l 800 115.648 l S
Q Q
showpage
%%Trailer
%%Trailer
cleartomark
countdictstack
exch sub { end } repeat
restore
%%EOF
