%!PS-Adobe-2.0 EPSF-2.0
%%BoundingBox: 0 0 1200 1039
%%HiResBoundingBox: 0.000000 0.000000 1200.000000 1039.000000
%%Creator: cairo 1.14.2 (http://cairographics.org)
%%CreationDate: Mon Sep  7 08:21:31 2015
%%DocumentData: Clean7Bit
%%LanguageLevel: 2
%%DocumentMedia: 423x367mm 1200 1039 0 () ()
%%EndComments
% EPSF created by ps2eps 1.68
%%BeginProlog
save
countdictstack
mark
newpath
/showpage {} def
/setpagedevice {pop} def
%%EndProlog
%%Page 1 1
%%BeginProlog
/languagelevel where
{ pop languagelevel } { 1 } ifelse
2 lt { /Helvetica findfont 12 scalefont setfont 50 500 moveto
  (This print job requires a PostScript Language Level 2 printer.) show
  showpage quit } if
/q { gsave } bind def
/Q { grestore } bind def
/cm { 6 array astore concat } bind def
/w { setlinewidth } bind def
/J { setlinecap } bind def
/j { setlinejoin } bind def
/M { setmiterlimit } bind def
/d { setdash } bind def
/m { moveto } bind def
/l { lineto } bind def
/c { curveto } bind def
/h { closepath } bind def
/re { exch dup neg 3 1 roll 5 3 roll moveto 0 rlineto
      0 exch rlineto 0 rlineto closepath } bind def
/S { stroke } bind def
/f { fill } bind def
/f* { eofill } bind def
/n { newpath } bind def
/W { clip } bind def
/W* { eoclip } bind def
/BT { } bind def
/ET { } bind def
/pdfmark where { pop globaldict /?pdfmark /exec load put }
    { globaldict begin /?pdfmark /pop load def /pdfmark
    /cleartomark load def end } ifelse
/BDC { mark 3 1 roll /BDC pdfmark } bind def
/EMC { mark /EMC pdfmark } bind def
/cairo_store_point { /cairo_point_y exch def /cairo_point_x exch def } def
/Tj { show currentpoint cairo_store_point } bind def
/TJ {
  {
    dup
    type /stringtype eq
    { show } { -0.001 mul 0 cairo_font_matrix dtransform rmoveto } ifelse
  } forall
  currentpoint cairo_store_point
} bind def
/cairo_selectfont { cairo_font_matrix aload pop pop pop 0 0 6 array astore
    cairo_font exch selectfont cairo_point_x cairo_point_y moveto } bind def
/Tf { pop /cairo_font exch def /cairo_font_matrix where
      { pop cairo_selectfont } if } bind def
/Td { matrix translate cairo_font_matrix matrix concatmatrix dup
      /cairo_font_matrix exch def dup 4 get exch 5 get cairo_store_point
      /cairo_font where { pop cairo_selectfont } if } bind def
/Tm { 2 copy 8 2 roll 6 array astore /cairo_font_matrix exch def
      cairo_store_point /cairo_font where { pop cairo_selectfont } if } bind def
/g { setgray } bind def
/rg { setrgbcolor } bind def
/d1 { setcachedevice } bind def
/cairo_set_page_size {
  % Change paper size, but only if different from previous paper size otherwise
  % duplex fails. PLRM specifies a tolerance of 5 pts when matching paper size
  % so we use the same when checking if the size changes.
  /setpagedevice where {
    pop currentpagedevice
    /PageSize known {
      2 copy
      currentpagedevice /PageSize get aload pop
      exch 4 1 roll
      sub abs 5 gt
      3 1 roll
      sub abs 5 gt
      or
    } {
      true
    } ifelse
    {
      2 array astore
      2 dict begin
        /PageSize exch def
        /ImagingBBox null def
      currentdict end
      setpagedevice
    } {
      pop pop
    } ifelse
  } {
    pop
  } ifelse
} def
%%EndProlog
%%BeginSetup
%%EndSetup
%%Page: 1 1
%%BeginPageSetup
%%PageMedia: 423x367mm
%%PageBoundingBox: 0 0 1200 1039
1200 1039 cairo_set_page_size
%%EndPageSetup
q 0 0 1200 1039 rectclip q
0.984314 g
0 0 1200 1039 rectfill
0.788235 g
1.875 w
0 J
1 j
[] 0.0 d
4 M 0 1039 1200 -1039.23 re S
0 g
2.5 w
1 J
-150 490.516 m -300 519.383 -150 432.781 0 519.383 c S
-150 548.254 m -300 519.383 -150 605.988 0 519.383 c S
50 144.105 m 150 259.578 0 172.973 0 -0.23 c S
100 115.238 m 150 259.578 150 86.371 0 -0.23 c S
0 230.711 m -150 259.578 0 172.973 150 259.578 c S
0 288.445 m -150 259.578 0 346.18 150 259.578 c S
-150 1010.133 m -300 1039 -150 952.398 0 1039 c S
-150 1067.867 m -300 1039 -150 1125.602 0 1039 c S
50 663.723 m 150 779.191 0 692.59 0 519.383 c S
100 634.855 m 150 779.191 150 605.988 0 519.383 c S
0 750.324 m -150 779.191 0 692.59 150 779.191 c S
0 808.059 m -150 779.191 0 865.793 150 779.191 c S
200 403.914 m 300 519.383 150 432.781 150 259.578 c S
250 375.047 m 300 519.383 300 346.18 150 259.578 c S
100 403.914 m 150 259.578 150 432.781 0 519.383 c S
150 490.516 m 0 519.383 150 432.781 300 519.383 c S
50 375.047 m 150 259.578 0 346.18 0 519.383 c S
150 548.254 m 0 519.383 150 605.988 300 519.383 c S
350 144.105 m 450 259.578 300 172.973 300 -0.23 c S
400 115.238 m 450 259.578 450 86.371 300 -0.23 c S
250 144.105 m 300 -0.23 300 172.973 150 259.578 c S
300 230.711 m 150 259.578 300 172.973 450 259.578 c S
200 115.238 m 300 -0.23 150 86.371 150 259.578 c S
300 288.445 m 150 259.578 300 346.18 450 259.578 c S
200 923.531 m 300 1039 150 952.398 150 779.191 c S
250 894.664 m 300 1039 300 865.793 150 779.191 c S
100 923.531 m 150 779.191 150 952.398 0 1039 c S
150 1010.133 m 0 1039 150 952.398 300 1039 c S
50 894.664 m 150 779.191 0 865.793 0 1039 c S
150 1067.867 m 0 1039 150 1125.602 300 1039 c S
350 663.723 m 450 779.191 300 692.59 300 519.383 c S
400 634.855 m 450 779.191 450 605.988 300 519.383 c S
250 663.723 m 300 519.383 300 692.59 150 779.191 c S
300 750.324 m 150 779.191 300 692.59 450 779.191 c S
200 634.855 m 300 519.383 150 605.988 150 779.191 c S
300 808.059 m 150 779.191 300 865.793 450 779.191 c S
500 403.914 m 600 519.383 450 432.781 450 259.578 c S
550 375.047 m 600 519.383 600 346.18 450 259.578 c S
400 403.914 m 450 259.578 450 432.781 300 519.383 c S
450 490.516 m 300 519.383 450 432.781 600 519.383 c S
350 375.047 m 450 259.578 300 346.18 300 519.383 c S
450 548.254 m 300 519.383 450 605.988 600 519.383 c S
650 144.105 m 750 259.578 600 172.973 600 -0.23 c S
700 115.238 m 750 259.578 750 86.371 600 -0.23 c S
550 144.105 m 600 -0.23 600 172.973 450 259.578 c S
600 230.711 m 450 259.578 600 172.973 750 259.578 c S
500 115.238 m 600 -0.23 450 86.371 450 259.578 c S
600 288.445 m 450 259.578 600 346.18 750 259.578 c S
500 923.531 m 600 1039 450 952.398 450 779.191 c S
550 894.664 m 600 1039 600 865.793 450 779.191 c S
400 923.531 m 450 779.191 450 952.398 300 1039 c S
450 1010.133 m 300 1039 450 952.398 600 1039 c S
350 894.664 m 450 779.191 300 865.793 300 1039 c S
450 1067.867 m 300 1039 450 1125.602 600 1039 c S
650 663.723 m 750 779.191 600 692.59 600 519.383 c S
700 634.855 m 750 779.191 750 605.988 600 519.383 c S
550 663.723 m 600 519.383 600 692.59 450 779.191 c S
600 750.324 m 450 779.191 600 692.59 750 779.191 c S
500 634.855 m 600 519.383 450 605.988 450 779.191 c S
600 808.059 m 450 779.191 600 865.793 750 779.191 c S
800 403.914 m 900 519.383 750 432.781 750 259.578 c S
850 375.047 m 900 519.383 900 346.18 750 259.578 c S
700 403.914 m 750 259.578 750 432.781 600 519.383 c S
750 490.516 m 600 519.383 750 432.781 900 519.383 c S
650 375.047 m 750 259.578 600 346.18 600 519.383 c S
750 548.254 m 600 519.383 750 605.988 900 519.383 c S
950 144.105 m 1050 259.578 900 172.973 900 -0.23 c S
1000 115.238 m 1050 259.578 1050 86.371 900 -0.23 c S
850 144.105 m 900 -0.23 900 172.973 750 259.578 c S
900 230.711 m 750 259.578 900 172.973 1050 259.578 c S
800 115.238 m 900 -0.23 750 86.371 750 259.578 c S
900 288.445 m 750 259.578 900 346.18 1050 259.578 c S
800 923.531 m 900 1039 750 952.398 750 779.191 c S
850 894.664 m 900 1039 900 865.793 750 779.191 c S
700 923.531 m 750 779.191 750 952.398 600 1039 c S
750 1010.133 m 600 1039 750 952.398 900 1039 c S
650 894.664 m 750 779.191 600 865.793 600 1039 c S
750 1067.867 m 600 1039 750 1125.602 900 1039 c S
950 663.723 m 1050 779.191 900 692.59 900 519.383 c S
1000 634.855 m 1050 779.191 1050 605.988 900 519.383 c S
850 663.723 m 900 519.383 900 692.59 750 779.191 c S
900 750.324 m 750 779.191 900 692.59 1050 779.191 c S
800 634.855 m 900 519.383 750 605.988 750 779.191 c S
900 808.059 m 750 779.191 900 865.793 1050 779.191 c S
1100 403.914 m 1200 519.383 1050 432.781 1050 259.578 c S
1150 375.047 m 1200 519.383 1200 346.18 1050 259.578 c S
1000 403.914 m 1050 259.578 1050 432.781 900 519.383 c S
1050 490.516 m 900 519.383 1050 432.781 1200 519.383 c S
950 375.047 m 1050 259.578 900 346.18 900 519.383 c S
1050 548.254 m 900 519.383 1050 605.988 1200 519.383 c S
1250 144.105 m 1350 259.578 1200 172.973 1200 -0.23 c S
1300 115.238 m 1350 259.578 1350 86.371 1200 -0.23 c S
1150 144.105 m 1200 -0.23 1200 172.973 1050 259.578 c S
1200 230.711 m 1050 259.578 1200 172.973 1350 259.578 c S
1100 115.238 m 1200 -0.23 1050 86.371 1050 259.578 c S
1200 288.445 m 1050 259.578 1200 346.18 1350 259.578 c S
1100 923.531 m 1200 1039 1050 952.398 1050 779.191 c S
1150 894.664 m 1200 1039 1200 865.793 1050 779.191 c S
1000 923.531 m 1050 779.191 1050 952.398 900 1039 c S
1050 1010.133 m 900 1039 1050 952.398 1200 1039 c S
950 894.664 m 1050 779.191 900 865.793 900 1039 c S
1050 1067.867 m 900 1039 1050 1125.602 1200 1039 c S
1250 663.723 m 1350 779.191 1200 692.59 1200 519.383 c S
1300 634.855 m 1350 779.191 1350 605.988 1200 519.383 c S
1150 663.723 m 1200 519.383 1200 692.59 1050 779.191 c S
1200 750.324 m 1050 779.191 1200 692.59 1350 779.191 c S
1100 634.855 m 1200 519.383 1050 605.988 1050 779.191 c S
1200 808.059 m 1050 779.191 1200 865.793 1350 779.191 c S
1300 403.914 m 1350 259.578 1350 432.781 1200 519.383 c S
1250 375.047 m 1350 259.578 1200 346.18 1200 519.383 c S
Q Q
showpage
%%Trailer
%%Trailer
cleartomark
countdictstack
exch sub { end } repeat
restore
%%EOF
