%!PS-Adobe-2.0 EPSF-2.0
%%BoundingBox: 0 0 1200 1039
%%HiResBoundingBox: 0.000000 0.000000 1200.000000 1039.000000
%%Creator: cairo 1.14.2 (http://cairographics.org)
%%CreationDate: Mon Sep  7 08:21:32 2015
%%DocumentData: Clean7Bit
%%LanguageLevel: 2
%%DocumentMedia: 423x367mm 1200 1039 0 () ()
%%EndComments
% EPSF created by ps2eps 1.68
%%BeginProlog
save
countdictstack
mark
newpath
/showpage {} def
/setpagedevice {pop} def
%%EndProlog
%%Page 1 1
%%BeginProlog
/languagelevel where
{ pop languagelevel } { 1 } ifelse
2 lt { /Helvetica findfont 12 scalefont setfont 50 500 moveto
  (This print job requires a PostScript Language Level 2 printer.) show
  showpage quit } if
/q { gsave } bind def
/Q { grestore } bind def
/cm { 6 array astore concat } bind def
/w { setlinewidth } bind def
/J { setlinecap } bind def
/j { setlinejoin } bind def
/M { setmiterlimit } bind def
/d { setdash } bind def
/m { moveto } bind def
/l { lineto } bind def
/c { curveto } bind def
/h { closepath } bind def
/re { exch dup neg 3 1 roll 5 3 roll moveto 0 rlineto
      0 exch rlineto 0 rlineto closepath } bind def
/S { stroke } bind def
/f { fill } bind def
/f* { eofill } bind def
/n { newpath } bind def
/W { clip } bind def
/W* { eoclip } bind def
/BT { } bind def
/ET { } bind def
/pdfmark where { pop globaldict /?pdfmark /exec load put }
    { globaldict begin /?pdfmark /pop load def /pdfmark
    /cleartomark load def end } ifelse
/BDC { mark 3 1 roll /BDC pdfmark } bind def
/EMC { mark /EMC pdfmark } bind def
/cairo_store_point { /cairo_point_y exch def /cairo_point_x exch def } def
/Tj { show currentpoint cairo_store_point } bind def
/TJ {
  {
    dup
    type /stringtype eq
    { show } { -0.001 mul 0 cairo_font_matrix dtransform rmoveto } ifelse
  } forall
  currentpoint cairo_store_point
} bind def
/cairo_selectfont { cairo_font_matrix aload pop pop pop 0 0 6 array astore
    cairo_font exch selectfont cairo_point_x cairo_point_y moveto } bind def
/Tf { pop /cairo_font exch def /cairo_font_matrix where
      { pop cairo_selectfont } if } bind def
/Td { matrix translate cairo_font_matrix matrix concatmatrix dup
      /cairo_font_matrix exch def dup 4 get exch 5 get cairo_store_point
      /cairo_font where { pop cairo_selectfont } if } bind def
/Tm { 2 copy 8 2 roll 6 array astore /cairo_font_matrix exch def
      cairo_store_point /cairo_font where { pop cairo_selectfont } if } bind def
/g { setgray } bind def
/rg { setrgbcolor } bind def
/d1 { setcachedevice } bind def
/cairo_set_page_size {
  % Change paper size, but only if different from previous paper size otherwise
  % duplex fails. PLRM specifies a tolerance of 5 pts when matching paper size
  % so we use the same when checking if the size changes.
  /setpagedevice where {
    pop currentpagedevice
    /PageSize known {
      2 copy
      currentpagedevice /PageSize get aload pop
      exch 4 1 roll
      sub abs 5 gt
      3 1 roll
      sub abs 5 gt
      or
    } {
      true
    } ifelse
    {
      2 array astore
      2 dict begin
        /PageSize exch def
        /ImagingBBox null def
      currentdict end
      setpagedevice
    } {
      pop pop
    } ifelse
  } {
    pop
  } ifelse
} def
%%EndProlog
%%BeginSetup
%%EndSetup
%%Page: 1 1
%%BeginPageSetup
%%PageMedia: 423x367mm
%%PageBoundingBox: 0 0 1200 1039
1200 1039 cairo_set_page_size
%%EndPageSetup
q 0 0 1200 1039 rectclip q
0.984314 g
0 0 1200 1039 rectfill
0.788235 g
1.875 w
0 J
1 j
[] 0.0 d
4 M 0 1039 1200 -1039.23 re S
0 g
2.5 w
1 J
0 403.914 m 0 346.18 l -50 317.312 l -50 432.781 l S
50 201.844 m 0 172.973 l 0 115.238 l 100 172.973 l S
150 144.105 m 150 86.371 l 100 57.504 l 100 172.973 l S
0 115.238 m 0 172.973 l -50 201.844 l -50 86.371 l S
-50 201.844 m 0 172.973 l 50 201.844 l -50 259.578 l S
-50 317.312 m 0 346.18 l 50 317.312 l -50 259.578 l S
0 923.531 m 0 865.793 l -50 836.926 l -50 952.398 l S
50 721.457 m 0 692.59 l 0 634.855 l 100 692.59 l S
150 663.723 m 150 605.988 l 100 577.121 l 100 692.59 l S
0 634.855 m 0 692.59 l -50 721.457 l -50 605.988 l S
-50 721.457 m 0 692.59 l 50 721.457 l -50 779.191 l S
-50 836.926 m 0 865.793 l 50 836.926 l -50 779.191 l S
200 461.648 m 150 432.781 l 150 375.047 l 250 432.781 l S
300 403.914 m 300 346.18 l 250 317.312 l 250 432.781 l S
150 375.047 m 150 432.781 l 100 461.648 l 100 346.18 l S
100 461.648 m 150 432.781 l 200 461.648 l 100 519.383 l S
50 317.312 m 0 346.18 l 0 403.914 l 100 346.18 l S
100 577.121 m 150 605.988 l 200 577.121 l 100 519.383 l S
350 201.844 m 300 172.973 l 300 115.238 l 400 172.973 l S
450 144.105 m 450 86.371 l 400 57.504 l 400 172.973 l S
300 115.238 m 300 172.973 l 250 201.844 l 250 86.371 l S
250 201.844 m 300 172.973 l 350 201.844 l 250 259.578 l S
200 57.504 m 150 86.371 l 150 144.105 l 250 86.371 l S
250 317.312 m 300 346.18 l 350 317.312 l 250 259.578 l S
200 981.266 m 150 952.398 l 150 894.664 l 250 952.398 l S
300 923.531 m 300 865.793 l 250 836.926 l 250 952.398 l S
150 894.664 m 150 952.398 l 100 981.266 l 100 865.793 l S
100 981.266 m 150 952.398 l 200 981.266 l 100 1039 l S
50 836.926 m 0 865.793 l 0 923.531 l 100 865.793 l S
100 1096.734 m 150 1125.602 l 200 1096.734 l 100 1039 l S
350 721.457 m 300 692.59 l 300 634.855 l 400 692.59 l S
450 663.723 m 450 605.988 l 400 577.121 l 400 692.59 l S
300 634.855 m 300 692.59 l 250 721.457 l 250 605.988 l S
250 721.457 m 300 692.59 l 350 721.457 l 250 779.191 l S
200 577.121 m 150 605.988 l 150 663.723 l 250 605.988 l S
250 836.926 m 300 865.793 l 350 836.926 l 250 779.191 l S
500 461.648 m 450 432.781 l 450 375.047 l 550 432.781 l S
600 403.914 m 600 346.18 l 550 317.312 l 550 432.781 l S
450 375.047 m 450 432.781 l 400 461.648 l 400 346.18 l S
400 461.648 m 450 432.781 l 500 461.648 l 400 519.383 l S
350 317.312 m 300 346.18 l 300 403.914 l 400 346.18 l S
400 577.121 m 450 605.988 l 500 577.121 l 400 519.383 l S
650 201.844 m 600 172.973 l 600 115.238 l 700 172.973 l S
750 144.105 m 750 86.371 l 700 57.504 l 700 172.973 l S
600 115.238 m 600 172.973 l 550 201.844 l 550 86.371 l S
550 201.844 m 600 172.973 l 650 201.844 l 550 259.578 l S
500 57.504 m 450 86.371 l 450 144.105 l 550 86.371 l S
550 317.312 m 600 346.18 l 650 317.312 l 550 259.578 l S
500 981.266 m 450 952.398 l 450 894.664 l 550 952.398 l S
600 923.531 m 600 865.793 l 550 836.926 l 550 952.398 l S
450 894.664 m 450 952.398 l 400 981.266 l 400 865.793 l S
400 981.266 m 450 952.398 l 500 981.266 l 400 1039 l S
350 836.926 m 300 865.793 l 300 923.531 l 400 865.793 l S
400 1096.734 m 450 1125.602 l 500 1096.734 l 400 1039 l S
650 721.457 m 600 692.59 l 600 634.855 l 700 692.59 l S
750 663.723 m 750 605.988 l 700 577.121 l 700 692.59 l S
600 634.855 m 600 692.59 l 550 721.457 l 550 605.988 l S
550 721.457 m 600 692.59 l 650 721.457 l 550 779.191 l S
500 577.121 m 450 605.988 l 450 663.723 l 550 605.988 l S
550 836.926 m 600 865.793 l 650 836.926 l 550 779.191 l S
800 461.648 m 750 432.781 l 750 375.047 l 850 432.781 l S
900 403.914 m 900 346.18 l 850 317.312 l 850 432.781 l S
750 375.047 m 750 432.781 l 700 461.648 l 700 346.18 l S
700 461.648 m 750 432.781 l 800 461.648 l 700 519.383 l S
650 317.312 m 600 346.18 l 600 403.914 l 700 346.18 l S
700 577.121 m 750 605.988 l 800 577.121 l 700 519.383 l S
950 201.844 m 900 172.973 l 900 115.238 l 1000 172.973 l S
1050 144.105 m 1050 86.371 l 1000 57.504 l 1000 172.973 l S
900 115.238 m 900 172.973 l 850 201.844 l 850 86.371 l S
850 201.844 m 900 172.973 l 950 201.844 l 850 259.578 l S
800 57.504 m 750 86.371 l 750 144.105 l 850 86.371 l S
850 317.312 m 900 346.18 l 950 317.312 l 850 259.578 l S
800 981.266 m 750 952.398 l 750 894.664 l 850 952.398 l S
900 923.531 m 900 865.793 l 850 836.926 l 850 952.398 l S
750 894.664 m 750 952.398 l 700 981.266 l 700 865.793 l S
700 981.266 m 750 952.398 l 800 981.266 l 700 1039 l S
650 836.926 m 600 865.793 l 600 923.531 l 700 865.793 l S
700 1096.734 m 750 1125.602 l 800 1096.734 l 700 1039 l S
950 721.457 m 900 692.59 l 900 634.855 l 1000 692.59 l S
1050 663.723 m 1050 605.988 l 1000 577.121 l 1000 692.59 l S
900 634.855 m 900 692.59 l 850 721.457 l 850 605.988 l S
850 721.457 m 900 692.59 l 950 721.457 l 850 779.191 l S
800 577.121 m 750 605.988 l 750 663.723 l 850 605.988 l S
850 836.926 m 900 865.793 l 950 836.926 l 850 779.191 l S
1100 461.648 m 1050 432.781 l 1050 375.047 l 1150 432.781 l S
1200 403.914 m 1200 346.18 l 1150 317.312 l 1150 432.781 l S
1050 375.047 m 1050 432.781 l 1000 461.648 l 1000 346.18 l S
1000 461.648 m 1050 432.781 l 1100 461.648 l 1000 519.383 l S
950 317.312 m 900 346.18 l 900 403.914 l 1000 346.18 l S
1000 577.121 m 1050 605.988 l 1100 577.121 l 1000 519.383 l S
1250 201.844 m 1200 172.973 l 1200 115.238 l 1300 172.973 l S
1200 115.238 m 1200 172.973 l 1150 201.844 l 1150 86.371 l S
1150 201.844 m 1200 172.973 l 1250 201.844 l 1150 259.578 l S
1100 57.504 m 1050 86.371 l 1050 144.105 l 1150 86.371 l S
1150 317.312 m 1200 346.18 l 1250 317.312 l 1150 259.578 l S
1100 981.266 m 1050 952.398 l 1050 894.664 l 1150 952.398 l S
1200 923.531 m 1200 865.793 l 1150 836.926 l 1150 952.398 l S
1050 894.664 m 1050 952.398 l 1000 981.266 l 1000 865.793 l S
1000 981.266 m 1050 952.398 l 1100 981.266 l 1000 1039 l S
950 836.926 m 900 865.793 l 900 923.531 l 1000 865.793 l S
1000 1096.734 m 1050 1125.602 l 1100 1096.734 l 1000 1039 l S
1250 721.457 m 1200 692.59 l 1200 634.855 l 1300 692.59 l S
1200 634.855 m 1200 692.59 l 1150 721.457 l 1150 605.988 l S
1150 721.457 m 1200 692.59 l 1250 721.457 l 1150 779.191 l S
1100 577.121 m 1050 605.988 l 1050 663.723 l 1150 605.988 l S
1150 836.926 m 1200 865.793 l 1250 836.926 l 1150 779.191 l S
1250 317.312 m 1200 346.18 l 1200 403.914 l 1300 346.18 l S
Q Q
showpage
%%Trailer
%%Trailer
cleartomark
countdictstack
exch sub { end } repeat
restore
%%EOF
