<svg xmlns="http://www.w3.org/2000/svg" baseProfile="full" width="1200" height="1039.23" viewBox="375.0000000000001 -129.9038105676658 1200.0 1039.2304845413264">
    <title>
        Pattern design from http://ornamentist.org
    </title>
    <desc>
        This file is licensed under a Creative Commons CC BY 4.0 license: http://creativecommons.org/licenses/by/4.0/
    </desc>
    <defs>
        <style>
<![CDATA[
        
polyline {
  fill:            none;
  stroke:          black;
  stroke-linecap:  round;
  stroke-linejoin: round;
  stroke-width:    2.0pt;
}


polyline.closed {
  fill:      #d9d9d9;
  fill-rule: evenodd;
}


polygon {
  fill:            #d9d9d9;
  fill-rule:       evenodd;
  stroke:          black;
  stroke-linejoin: round;
  stroke-width:    2.0pt;
}


circle {
  fill:         #d9d9d9;
  stroke:       black;
  stroke-width: 2.0pt;
}


ellipse {
  fill:         #d9d9d9;
  stroke:       black;
  stroke-width: 2.0pt;
}


path {
  fill:            none;
  stroke:          black;
  stroke-linecap:  round;
  stroke-linejoin: round;
  stroke-width:    2.0pt;
}


path.closed {
  fill:      #d9d9d9;
  fill-rule: evenodd;
}


polygon.background,
path.background
{
  fill:   #fbfbfb;
  stroke: #c9c9c9;
  stroke-width: 1.5pt;
}

        ]]>
        </style>
    </defs>
    <clipPath id="design">
        <path d="M375-129.904h1200v1039.23H375z"/>
    </clipPath>
    <g clip-path="url(#design)" color-rendering="optimizeQuality" shape-rendering="geometricPrecision" id="graphics">
        <path class="background closed" d="M1575-129.904v1039.23H375v-1039.23z"/>
        <path d="M-25 43.3c50-28.866-50-86.6-50 86.604M25-43.3c0 57.734-100 0 50-86.604M-175-43.3c0 57.734 100 0-50-86.604M-25-129.904c-50-28.867-50 86.603 100 0M-125 43.3c-50-28.866 50-86.6 50 86.604M-125-129.904c50-28.867 50 86.603-100 0M125 303.11c50-28.87-50-86.604-50 86.6M175 216.506c0 57.735-100 0 50-86.602M-25 216.506c0 57.735 100 0-50-86.602M125 129.904c-50-28.868-50 86.602 100 0M25 303.11c-50-28.87 50-86.604 50 86.6M25 129.904c50-28.868 50 86.602-100 0M275 562.917c50-28.868-50-86.603-50 86.602M325 476.314c0 57.735-100 0 50-86.603M125 476.314c0 57.735 100 0-50-86.603M275 389.71c-50-28.866-50 86.604 100 0M175 562.917c-50-28.868 50-86.603 50 86.602M175 389.71c50-28.866 50 86.604-100 0M425 822.724c50-28.867-50-86.602-50 86.603M475 736.122c0 57.735-100 0 50-86.603M275 736.122c0 57.735 100 0-50-86.603M425 649.52c-50-28.868-50 86.602 100 0M325 822.724c-50-28.867 50-86.602 50 86.603M325 649.52c50-28.868 50 86.602-100 0M275 43.3c50-28.866-50-86.6-50 86.604M325-43.3c0 57.734-100 0 50-86.604M125-43.3c0 57.734 100 0-50-86.604M275-129.904c-50-28.867-50 86.603 100 0M175 43.3c-50-28.866 50-86.6 50 86.604M175-129.904c50-28.867 50 86.603-100 0M425 303.11c50-28.87-50-86.604-50 86.6M475 216.506c0 57.735-100 0 50-86.602M275 216.506c0 57.735 100 0-50-86.602M425 129.904c-50-28.868-50 86.602 100 0M325 303.11c-50-28.87 50-86.604 50 86.6M325 129.904c50-28.868 50 86.602-100 0M575 562.917c50-28.868-50-86.603-50 86.602M625 476.314c0 57.735-100 0 50-86.603M425 476.314c0 57.735 100 0-50-86.603M575 389.71c-50-28.866-50 86.604 100 0M475 562.917c-50-28.868 50-86.603 50 86.602M475 389.71c50-28.866 50 86.604-100 0M725 822.724c50-28.867-50-86.602-50 86.603M775 736.122c0 57.735-100 0 50-86.603M575 736.122c0 57.735 100 0-50-86.603M725 649.52c-50-28.868-50 86.602 100 0M625 822.724c-50-28.867 50-86.602 50 86.603M625 649.52c50-28.868 50 86.602-100 0M575 43.3c50-28.866-50-86.6-50 86.604M625-43.3c0 57.734-100 0 50-86.604M425-43.3c0 57.734 100 0-50-86.604M575-129.904c-50-28.867-50 86.603 100 0M475 43.3c-50-28.866 50-86.6 50 86.604M475-129.904c50-28.867 50 86.603-100 0M725 303.11c50-28.87-50-86.604-50 86.6M775 216.506c0 57.735-100 0 50-86.602M575 216.506c0 57.735 100 0-50-86.602M725 129.904c-50-28.868-50 86.602 100 0M625 303.11c-50-28.87 50-86.604 50 86.6M625 129.904c50-28.868 50 86.602-100 0M875 562.917c50-28.868-50-86.603-50 86.602M925 476.314c0 57.735-100 0 50-86.603M725 476.314c0 57.735 100 0-50-86.603M875 389.71c-50-28.866-50 86.604 100 0M775 562.917c-50-28.868 50-86.603 50 86.602M775 389.71c50-28.866 50 86.604-100 0M1025 822.724c50-28.867-50-86.602-50 86.603M1075 736.122c0 57.735-100 0 50-86.603M875 736.122c0 57.735 100 0-50-86.603M1025 649.52c-50-28.868-50 86.602 100 0M925 822.724c-50-28.867 50-86.602 50 86.603M925 649.52c50-28.868 50 86.602-100 0M875 43.3c50-28.866-50-86.6-50 86.604M925-43.3c0 57.734-100 0 50-86.604M725-43.3c0 57.734 100 0-50-86.604M875-129.904c-50-28.867-50 86.603 100 0M775 43.3c-50-28.866 50-86.6 50 86.604M775-129.904c50-28.867 50 86.603-100 0M1025 303.11c50-28.87-50-86.604-50 86.6M1075 216.506c0 57.735-100 0 50-86.602M875 216.506c0 57.735 100 0-50-86.602M1025 129.904c-50-28.868-50 86.602 100 0M925 303.11c-50-28.87 50-86.604 50 86.6M925 129.904c50-28.868 50 86.602-100 0M1175 562.917c50-28.868-50-86.603-50 86.602M1225 476.314c0 57.735-100 0 50-86.603M1025 476.314c0 57.735 100 0-50-86.603M1175 389.71c-50-28.866-50 86.604 100 0M1075 562.917c-50-28.868 50-86.603 50 86.602M1075 389.71c50-28.866 50 86.604-100 0M1325 822.724c50-28.867-50-86.602-50 86.603M1375 736.122c0 57.735-100 0 50-86.603M1175 736.122c0 57.735 100 0-50-86.603M1325 649.52c-50-28.868-50 86.602 100 0M1225 822.724c-50-28.867 50-86.602 50 86.603M1225 649.52c50-28.868 50 86.602-100 0M1175 43.3c50-28.866-50-86.6-50 86.604M1225-43.3c0 57.734-100 0 50-86.604M1025-43.3c0 57.734 100 0-50-86.604M1175-129.904c-50-28.867-50 86.603 100 0M1075 43.3c-50-28.866 50-86.6 50 86.604M1075-129.904c50-28.867 50 86.603-100 0M1325 303.11c50-28.87-50-86.604-50 86.6M1375 216.506c0 57.735-100 0 50-86.602M1175 216.506c0 57.735 100 0-50-86.602M1325 129.904c-50-28.868-50 86.602 100 0M1225 303.11c-50-28.87 50-86.604 50 86.6M1225 129.904c50-28.868 50 86.602-100 0M1475 562.917c50-28.868-50-86.603-50 86.602M1525 476.314c0 57.735-100 0 50-86.603M1325 476.314c0 57.735 100 0-50-86.603M1475 389.71c-50-28.866-50 86.604 100 0M1375 562.917c-50-28.868 50-86.603 50 86.602M1375 389.71c50-28.866 50 86.604-100 0M1625 822.724c50-28.867-50-86.602-50 86.603M1675 736.122c0 57.735-100 0 50-86.603M1475 736.122c0 57.735 100 0-50-86.603M1625 649.52c-50-28.868-50 86.602 100 0M1525 822.724c-50-28.867 50-86.602 50 86.603M1525 649.52c50-28.868 50 86.602-100 0M1475 43.3c50-28.866-50-86.6-50 86.604M1525-43.3c0 57.734-100 0 50-86.604M1325-43.3c0 57.734 100 0-50-86.604M1475-129.904c-50-28.867-50 86.603 100 0M1375 43.3c-50-28.866 50-86.6 50 86.604M1375-129.904c50-28.867 50 86.603-100 0M1625 303.11c50-28.87-50-86.604-50 86.6M1675 216.506c0 57.735-100 0 50-86.602M1475 216.506c0 57.735 100 0-50-86.602M1625 129.904c-50-28.868-50 86.602 100 0M1525 303.11c-50-28.87 50-86.604 50 86.6M1525 129.904c50-28.868 50 86.602-100 0M1775 562.917c50-28.868-50-86.603-50 86.602M1825 476.314c0 57.735-100 0 50-86.603M1625 476.314c0 57.735 100 0-50-86.603M1775 389.71c-50-28.866-50 86.604 100 0M1675 562.917c-50-28.868 50-86.603 50 86.602M1675 389.71c50-28.866 50 86.604-100 0M1925 822.724c50-28.867-50-86.602-50 86.603M1975 736.122c0 57.735-100 0 50-86.603M1775 736.122c0 57.735 100 0-50-86.603M1925 649.52c-50-28.868-50 86.602 100 0M1825 822.724c-50-28.867 50-86.602 50 86.603M1825 649.52c50-28.868 50 86.602-100 0" class="bezier-3-1 open"/>
    </g>
</svg>
