%!PS-Adobe-2.0 EPSF-2.0
%%BoundingBox: 0 0 1200 1039
%%HiResBoundingBox: 0.000000 0.000000 1200.000000 1039.000000
%%Creator: cairo 1.14.2 (http://cairographics.org)
%%CreationDate: Mon Sep  7 08:21:32 2015
%%DocumentData: Clean7Bit
%%LanguageLevel: 2
%%DocumentMedia: 423x367mm 1200 1039 0 () ()
%%EndComments
% EPSF created by ps2eps 1.68
%%BeginProlog
save
countdictstack
mark
newpath
/showpage {} def
/setpagedevice {pop} def
%%EndProlog
%%Page 1 1
%%BeginProlog
/languagelevel where
{ pop languagelevel } { 1 } ifelse
2 lt { /Helvetica findfont 12 scalefont setfont 50 500 moveto
  (This print job requires a PostScript Language Level 2 printer.) show
  showpage quit } if
/q { gsave } bind def
/Q { grestore } bind def
/cm { 6 array astore concat } bind def
/w { setlinewidth } bind def
/J { setlinecap } bind def
/j { setlinejoin } bind def
/M { setmiterlimit } bind def
/d { setdash } bind def
/m { moveto } bind def
/l { lineto } bind def
/c { curveto } bind def
/h { closepath } bind def
/re { exch dup neg 3 1 roll 5 3 roll moveto 0 rlineto
      0 exch rlineto 0 rlineto closepath } bind def
/S { stroke } bind def
/f { fill } bind def
/f* { eofill } bind def
/n { newpath } bind def
/W { clip } bind def
/W* { eoclip } bind def
/BT { } bind def
/ET { } bind def
/pdfmark where { pop globaldict /?pdfmark /exec load put }
    { globaldict begin /?pdfmark /pop load def /pdfmark
    /cleartomark load def end } ifelse
/BDC { mark 3 1 roll /BDC pdfmark } bind def
/EMC { mark /EMC pdfmark } bind def
/cairo_store_point { /cairo_point_y exch def /cairo_point_x exch def } def
/Tj { show currentpoint cairo_store_point } bind def
/TJ {
  {
    dup
    type /stringtype eq
    { show } { -0.001 mul 0 cairo_font_matrix dtransform rmoveto } ifelse
  } forall
  currentpoint cairo_store_point
} bind def
/cairo_selectfont { cairo_font_matrix aload pop pop pop 0 0 6 array astore
    cairo_font exch selectfont cairo_point_x cairo_point_y moveto } bind def
/Tf { pop /cairo_font exch def /cairo_font_matrix where
      { pop cairo_selectfont } if } bind def
/Td { matrix translate cairo_font_matrix matrix concatmatrix dup
      /cairo_font_matrix exch def dup 4 get exch 5 get cairo_store_point
      /cairo_font where { pop cairo_selectfont } if } bind def
/Tm { 2 copy 8 2 roll 6 array astore /cairo_font_matrix exch def
      cairo_store_point /cairo_font where { pop cairo_selectfont } if } bind def
/g { setgray } bind def
/rg { setrgbcolor } bind def
/d1 { setcachedevice } bind def
/cairo_set_page_size {
  % Change paper size, but only if different from previous paper size otherwise
  % duplex fails. PLRM specifies a tolerance of 5 pts when matching paper size
  % so we use the same when checking if the size changes.
  /setpagedevice where {
    pop currentpagedevice
    /PageSize known {
      2 copy
      currentpagedevice /PageSize get aload pop
      exch 4 1 roll
      sub abs 5 gt
      3 1 roll
      sub abs 5 gt
      or
    } {
      true
    } ifelse
    {
      2 array astore
      2 dict begin
        /PageSize exch def
        /ImagingBBox null def
      currentdict end
      setpagedevice
    } {
      pop pop
    } ifelse
  } {
    pop
  } ifelse
} def
%%EndProlog
%%BeginSetup
%%EndSetup
%%Page: 1 1
%%BeginPageSetup
%%PageMedia: 423x367mm
%%PageBoundingBox: 0 0 1200 1039
1200 1039 cairo_set_page_size
%%EndPageSetup
q 0 0 1200 1039 rectclip q
0.984314 g
0 0 1200 1039 rectfill
0.788235 g
1.875 w
0 J
1 j
[] 0.0 d
4 M 0 1039 1200 -1039.23 re S
0 g
2.5 w
1 J
-50 432.781 m -50 375.047 -150 432.781 0 519.383 c S
-100 519.383 m -150 548.254 -150 432.781 0 519.383 c S
50 86.371 m 100 115.238 0 172.973 0 -0.23 c S
100 172.973 m 100 115.238 0 172.973 150 259.578 c S
50 259.578 m 0 288.445 0 172.973 150 259.578 c S
-50 86.371 m -100 115.238 0 172.973 0 -0.23 c S
-50 952.398 m -50 894.664 -150 952.398 0 1039 c S
-100 1039 m -150 1067.867 -150 952.398 0 1039 c S
50 605.988 m 100 634.855 0 692.59 0 519.383 c S
100 692.59 m 100 634.855 0 692.59 150 779.191 c S
50 779.191 m 0 808.059 0 692.59 150 779.191 c S
-50 605.988 m -100 634.855 0 692.59 0 519.383 c S
200 346.18 m 250 375.047 150 432.781 150 259.578 c S
250 432.781 m 250 375.047 150 432.781 300 519.383 c S
50 432.781 m 50 375.047 150 432.781 0 519.383 c S
200 519.383 m 150 548.254 150 432.781 300 519.383 c S
100 346.18 m 50 375.047 150 432.781 150 259.578 c S
100 519.383 m 150 548.254 150 432.781 0 519.383 c S
350 86.371 m 400 115.238 300 172.973 300 -0.23 c S
400 172.973 m 400 115.238 300 172.973 450 259.578 c S
200 172.973 m 200 115.238 300 172.973 150 259.578 c S
350 259.578 m 300 288.445 300 172.973 450 259.578 c S
250 86.371 m 200 115.238 300 172.973 300 -0.23 c S
250 259.578 m 300 288.445 300 172.973 150 259.578 c S
200 865.793 m 250 894.664 150 952.398 150 779.191 c S
250 952.398 m 250 894.664 150 952.398 300 1039 c S
50 952.398 m 50 894.664 150 952.398 0 1039 c S
200 1039 m 150 1067.867 150 952.398 300 1039 c S
100 865.793 m 50 894.664 150 952.398 150 779.191 c S
100 1039 m 150 1067.867 150 952.398 0 1039 c S
350 605.988 m 400 634.855 300 692.59 300 519.383 c S
400 692.59 m 400 634.855 300 692.59 450 779.191 c S
200 692.59 m 200 634.855 300 692.59 150 779.191 c S
350 779.191 m 300 808.059 300 692.59 450 779.191 c S
250 605.988 m 200 634.855 300 692.59 300 519.383 c S
250 779.191 m 300 808.059 300 692.59 150 779.191 c S
500 346.18 m 550 375.047 450 432.781 450 259.578 c S
550 432.781 m 550 375.047 450 432.781 600 519.383 c S
350 432.781 m 350 375.047 450 432.781 300 519.383 c S
500 519.383 m 450 548.254 450 432.781 600 519.383 c S
400 346.18 m 350 375.047 450 432.781 450 259.578 c S
400 519.383 m 450 548.254 450 432.781 300 519.383 c S
650 86.371 m 700 115.238 600 172.973 600 -0.23 c S
700 172.973 m 700 115.238 600 172.973 750 259.578 c S
500 172.973 m 500 115.238 600 172.973 450 259.578 c S
650 259.578 m 600 288.445 600 172.973 750 259.578 c S
550 86.371 m 500 115.238 600 172.973 600 -0.23 c S
550 259.578 m 600 288.445 600 172.973 450 259.578 c S
500 865.793 m 550 894.664 450 952.398 450 779.191 c S
550 952.398 m 550 894.664 450 952.398 600 1039 c S
350 952.398 m 350 894.664 450 952.398 300 1039 c S
500 1039 m 450 1067.867 450 952.398 600 1039 c S
400 865.793 m 350 894.664 450 952.398 450 779.191 c S
400 1039 m 450 1067.867 450 952.398 300 1039 c S
650 605.988 m 700 634.855 600 692.59 600 519.383 c S
700 692.59 m 700 634.855 600 692.59 750 779.191 c S
500 692.59 m 500 634.855 600 692.59 450 779.191 c S
650 779.191 m 600 808.059 600 692.59 750 779.191 c S
550 605.988 m 500 634.855 600 692.59 600 519.383 c S
550 779.191 m 600 808.059 600 692.59 450 779.191 c S
800 346.18 m 850 375.047 750 432.781 750 259.578 c S
850 432.781 m 850 375.047 750 432.781 900 519.383 c S
650 432.781 m 650 375.047 750 432.781 600 519.383 c S
800 519.383 m 750 548.254 750 432.781 900 519.383 c S
700 346.18 m 650 375.047 750 432.781 750 259.578 c S
700 519.383 m 750 548.254 750 432.781 600 519.383 c S
950 86.371 m 1000 115.238 900 172.973 900 -0.23 c S
1000 172.973 m 1000 115.238 900 172.973 1050 259.578 c S
800 172.973 m 800 115.238 900 172.973 750 259.578 c S
950 259.578 m 900 288.445 900 172.973 1050 259.578 c S
850 86.371 m 800 115.238 900 172.973 900 -0.23 c S
850 259.578 m 900 288.445 900 172.973 750 259.578 c S
800 865.793 m 850 894.664 750 952.398 750 779.191 c S
850 952.398 m 850 894.664 750 952.398 900 1039 c S
650 952.398 m 650 894.664 750 952.398 600 1039 c S
800 1039 m 750 1067.867 750 952.398 900 1039 c S
700 865.793 m 650 894.664 750 952.398 750 779.191 c S
700 1039 m 750 1067.867 750 952.398 600 1039 c S
950 605.988 m 1000 634.855 900 692.59 900 519.383 c S
1000 692.59 m 1000 634.855 900 692.59 1050 779.191 c S
800 692.59 m 800 634.855 900 692.59 750 779.191 c S
950 779.191 m 900 808.059 900 692.59 1050 779.191 c S
850 605.988 m 800 634.855 900 692.59 900 519.383 c S
850 779.191 m 900 808.059 900 692.59 750 779.191 c S
1100 346.18 m 1150 375.047 1050 432.781 1050 259.578 c S
1150 432.781 m 1150 375.047 1050 432.781 1200 519.383 c S
950 432.781 m 950 375.047 1050 432.781 900 519.383 c S
1100 519.383 m 1050 548.254 1050 432.781 1200 519.383 c S
1000 346.18 m 950 375.047 1050 432.781 1050 259.578 c S
1000 519.383 m 1050 548.254 1050 432.781 900 519.383 c S
1250 86.371 m 1300 115.238 1200 172.973 1200 -0.23 c S
1100 172.973 m 1100 115.238 1200 172.973 1050 259.578 c S
1150 86.371 m 1100 115.238 1200 172.973 1200 -0.23 c S
1150 259.578 m 1200 288.445 1200 172.973 1050 259.578 c S
1100 865.793 m 1150 894.664 1050 952.398 1050 779.191 c S
1150 952.398 m 1150 894.664 1050 952.398 1200 1039 c S
950 952.398 m 950 894.664 1050 952.398 900 1039 c S
1100 1039 m 1050 1067.867 1050 952.398 1200 1039 c S
1000 865.793 m 950 894.664 1050 952.398 1050 779.191 c S
1000 1039 m 1050 1067.867 1050 952.398 900 1039 c S
1250 605.988 m 1300 634.855 1200 692.59 1200 519.383 c S
1100 692.59 m 1100 634.855 1200 692.59 1050 779.191 c S
1150 605.988 m 1100 634.855 1200 692.59 1200 519.383 c S
1150 779.191 m 1200 808.059 1200 692.59 1050 779.191 c S
1250 432.781 m 1250 375.047 1350 432.781 1200 519.383 c S
1300 519.383 m 1350 548.254 1350 432.781 1200 519.383 c S
Q Q
showpage
%%Trailer
%%Trailer
cleartomark
countdictstack
exch sub { end } repeat
restore
%%EOF
