%!PS-Adobe-2.0 EPSF-2.0
%%BoundingBox: 0 0 2100 1400
%%HiResBoundingBox: 0.000000 0.000000 2100.000000 1400.000000
%%Creator: cairo 1.14.2 (http://cairographics.org)
%%CreationDate: Mon Sep  7 08:21:32 2015
%%DocumentData: Clean7Bit
%%LanguageLevel: 2
%%DocumentMedia: 741x494mm 2100 1400 0 () ()
%%EndComments
% EPSF created by ps2eps 1.68
%%BeginProlog
save
countdictstack
mark
newpath
/showpage {} def
/setpagedevice {pop} def
%%EndProlog
%%Page 1 1
%%BeginProlog
/languagelevel where
{ pop languagelevel } { 1 } ifelse
2 lt { /Helvetica findfont 12 scalefont setfont 50 500 moveto
  (This print job requires a PostScript Language Level 2 printer.) show
  showpage quit } if
/q { gsave } bind def
/Q { grestore } bind def
/cm { 6 array astore concat } bind def
/w { setlinewidth } bind def
/J { setlinecap } bind def
/j { setlinejoin } bind def
/M { setmiterlimit } bind def
/d { setdash } bind def
/m { moveto } bind def
/l { lineto } bind def
/c { curveto } bind def
/h { closepath } bind def
/re { exch dup neg 3 1 roll 5 3 roll moveto 0 rlineto
      0 exch rlineto 0 rlineto closepath } bind def
/S { stroke } bind def
/f { fill } bind def
/f* { eofill } bind def
/n { newpath } bind def
/W { clip } bind def
/W* { eoclip } bind def
/BT { } bind def
/ET { } bind def
/pdfmark where { pop globaldict /?pdfmark /exec load put }
    { globaldict begin /?pdfmark /pop load def /pdfmark
    /cleartomark load def end } ifelse
/BDC { mark 3 1 roll /BDC pdfmark } bind def
/EMC { mark /EMC pdfmark } bind def
/cairo_store_point { /cairo_point_y exch def /cairo_point_x exch def } def
/Tj { show currentpoint cairo_store_point } bind def
/TJ {
  {
    dup
    type /stringtype eq
    { show } { -0.001 mul 0 cairo_font_matrix dtransform rmoveto } ifelse
  } forall
  currentpoint cairo_store_point
} bind def
/cairo_selectfont { cairo_font_matrix aload pop pop pop 0 0 6 array astore
    cairo_font exch selectfont cairo_point_x cairo_point_y moveto } bind def
/Tf { pop /cairo_font exch def /cairo_font_matrix where
      { pop cairo_selectfont } if } bind def
/Td { matrix translate cairo_font_matrix matrix concatmatrix dup
      /cairo_font_matrix exch def dup 4 get exch 5 get cairo_store_point
      /cairo_font where { pop cairo_selectfont } if } bind def
/Tm { 2 copy 8 2 roll 6 array astore /cairo_font_matrix exch def
      cairo_store_point /cairo_font where { pop cairo_selectfont } if } bind def
/g { setgray } bind def
/rg { setrgbcolor } bind def
/d1 { setcachedevice } bind def
/cairo_set_page_size {
  % Change paper size, but only if different from previous paper size otherwise
  % duplex fails. PLRM specifies a tolerance of 5 pts when matching paper size
  % so we use the same when checking if the size changes.
  /setpagedevice where {
    pop currentpagedevice
    /PageSize known {
      2 copy
      currentpagedevice /PageSize get aload pop
      exch 4 1 roll
      sub abs 5 gt
      3 1 roll
      sub abs 5 gt
      or
    } {
      true
    } ifelse
    {
      2 array astore
      2 dict begin
        /PageSize exch def
        /ImagingBBox null def
      currentdict end
      setpagedevice
    } {
      pop pop
    } ifelse
  } {
    pop
  } ifelse
} def
%%EndProlog
%%BeginSetup
%%EndSetup
%%Page: 1 1
%%BeginPageSetup
%%PageMedia: 741x494mm
%%PageBoundingBox: 0 0 2100 1400
2100 1400 cairo_set_page_size
%%EndPageSetup
q 0 0 2100 1400 rectclip q
0.984314 g
0 0 2100 1400 rectfill
0.788235 g
1.875 w
0 J
1 j
[] 0.0 d
4 M 0 1400 2100 -1400 re S
0 g
2.5 w
1 J
116.668 1341.668 m 175 1400 58.332 1400 116.668 1283.332 c S
291.668 1283.332 m 350 1225 350 1341.668 233.332 1283.332 c S
233.332 1108.332 m 175 1050 291.668 1050 233.332 1166.668 c S
58.332 1166.668 m 0 1225 0 1108.332 116.668 1166.668 c S
291.668 1166.668 m 350 1225 350 1108.332 233.332 1166.668 c S
58.332 1283.332 m 0 1225 0 1341.668 116.668 1283.332 c S
116.668 1108.332 m 175 1050 58.332 1050 116.668 1166.668 c S
233.332 1341.668 m 175 1400 291.668 1400 233.332 1283.332 c S
116.668 991.668 m 175 1050 58.332 1050 116.668 933.332 c S
291.668 933.332 m 350 875 350 991.668 233.332 933.332 c S
233.332 758.332 m 175 700 291.668 700 233.332 816.668 c S
58.332 816.668 m 0 875 0 758.332 116.668 816.668 c S
291.668 816.668 m 350 875 350 758.332 233.332 816.668 c S
58.332 933.332 m 0 875 0 991.668 116.668 933.332 c S
116.668 758.332 m 175 700 58.332 700 116.668 816.668 c S
233.332 991.668 m 175 1050 291.668 1050 233.332 933.332 c S
116.668 641.668 m 175 700 58.332 700 116.668 583.332 c S
291.668 583.332 m 350 525 350 641.668 233.332 583.332 c S
233.332 408.332 m 175 350 291.668 350 233.332 466.668 c S
58.332 466.668 m 0 525 0 408.332 116.668 466.668 c S
291.668 466.668 m 350 525 350 408.332 233.332 466.668 c S
58.332 583.332 m 0 525 0 641.668 116.668 583.332 c S
116.668 408.332 m 175 350 58.332 350 116.668 466.668 c S
233.332 641.668 m 175 700 291.668 700 233.332 583.332 c S
116.668 291.668 m 175 350 58.332 350 116.668 233.332 c S
291.668 233.332 m 350 175 350 291.668 233.332 233.332 c S
233.332 58.332 m 175 0 291.668 0 233.332 116.668 c S
58.332 116.668 m 0 175 0 58.332 116.668 116.668 c S
291.668 116.668 m 350 175 350 58.332 233.332 116.668 c S
58.332 233.332 m 0 175 0 291.668 116.668 233.332 c S
116.668 58.332 m 175 0 58.332 0 116.668 116.668 c S
233.332 291.668 m 175 350 291.668 350 233.332 233.332 c S
466.668 1341.668 m 525 1400 408.332 1400 466.668 1283.332 c S
641.668 1283.332 m 700 1225 700 1341.668 583.332 1283.332 c S
583.332 1108.332 m 525 1050 641.668 1050 583.332 1166.668 c S
408.332 1166.668 m 350 1225 350 1108.332 466.668 1166.668 c S
641.668 1166.668 m 700 1225 700 1108.332 583.332 1166.668 c S
408.332 1283.332 m 350 1225 350 1341.668 466.668 1283.332 c S
466.668 1108.332 m 525 1050 408.332 1050 466.668 1166.668 c S
583.332 1341.668 m 525 1400 641.668 1400 583.332 1283.332 c S
466.668 991.668 m 525 1050 408.332 1050 466.668 933.332 c S
641.668 933.332 m 700 875 700 991.668 583.332 933.332 c S
583.332 758.332 m 525 700 641.668 700 583.332 816.668 c S
408.332 816.668 m 350 875 350 758.332 466.668 816.668 c S
641.668 816.668 m 700 875 700 758.332 583.332 816.668 c S
408.332 933.332 m 350 875 350 991.668 466.668 933.332 c S
466.668 758.332 m 525 700 408.332 700 466.668 816.668 c S
583.332 991.668 m 525 1050 641.668 1050 583.332 933.332 c S
466.668 641.668 m 525 700 408.332 700 466.668 583.332 c S
641.668 583.332 m 700 525 700 641.668 583.332 583.332 c S
583.332 408.332 m 525 350 641.668 350 583.332 466.668 c S
408.332 466.668 m 350 525 350 408.332 466.668 466.668 c S
641.668 466.668 m 700 525 700 408.332 583.332 466.668 c S
408.332 583.332 m 350 525 350 641.668 466.668 583.332 c S
466.668 408.332 m 525 350 408.332 350 466.668 466.668 c S
583.332 641.668 m 525 700 641.668 700 583.332 583.332 c S
466.668 291.668 m 525 350 408.332 350 466.668 233.332 c S
641.668 233.332 m 700 175 700 291.668 583.332 233.332 c S
583.332 58.332 m 525 0 641.668 0 583.332 116.668 c S
408.332 116.668 m 350 175 350 58.332 466.668 116.668 c S
641.668 116.668 m 700 175 700 58.332 583.332 116.668 c S
408.332 233.332 m 350 175 350 291.668 466.668 233.332 c S
466.668 58.332 m 525 0 408.332 0 466.668 116.668 c S
583.332 291.668 m 525 350 641.668 350 583.332 233.332 c S
816.668 1341.668 m 875 1400 758.332 1400 816.668 1283.332 c S
991.668 1283.332 m 1050 1225 1050 1341.668 933.332 1283.332 c S
933.332 1108.332 m 875 1050 991.668 1050 933.332 1166.668 c S
758.332 1166.668 m 700 1225 700 1108.332 816.668 1166.668 c S
991.668 1166.668 m 1050 1225 1050 1108.332 933.332 1166.668 c S
758.332 1283.332 m 700 1225 700 1341.668 816.668 1283.332 c S
816.668 1108.332 m 875 1050 758.332 1050 816.668 1166.668 c S
933.332 1341.668 m 875 1400 991.668 1400 933.332 1283.332 c S
816.668 991.668 m 875 1050 758.332 1050 816.668 933.332 c S
991.668 933.332 m 1050 875 1050 991.668 933.332 933.332 c S
933.332 758.332 m 875 700 991.668 700 933.332 816.668 c S
758.332 816.668 m 700 875 700 758.332 816.668 816.668 c S
991.668 816.668 m 1050 875 1050 758.332 933.332 816.668 c S
758.332 933.332 m 700 875 700 991.668 816.668 933.332 c S
816.668 758.332 m 875 700 758.332 700 816.668 816.668 c S
933.332 991.668 m 875 1050 991.668 1050 933.332 933.332 c S
816.668 641.668 m 875 700 758.332 700 816.668 583.332 c S
991.668 583.332 m 1050 525 1050 641.668 933.332 583.332 c S
933.332 408.332 m 875 350 991.668 350 933.332 466.668 c S
758.332 466.668 m 700 525 700 408.332 816.668 466.668 c S
991.668 466.668 m 1050 525 1050 408.332 933.332 466.668 c S
758.332 583.332 m 700 525 700 641.668 816.668 583.332 c S
816.668 408.332 m 875 350 758.332 350 816.668 466.668 c S
933.332 641.668 m 875 700 991.668 700 933.332 583.332 c S
816.668 291.668 m 875 350 758.332 350 816.668 233.332 c S
991.668 233.332 m 1050 175 1050 291.668 933.332 233.332 c S
933.332 58.332 m 875 0 991.668 0 933.332 116.668 c S
758.332 116.668 m 700 175 700 58.332 816.668 116.668 c S
991.668 116.668 m 1050 175 1050 58.332 933.332 116.668 c S
758.332 233.332 m 700 175 700 291.668 816.668 233.332 c S
816.668 58.332 m 875 0 758.332 0 816.668 116.668 c S
933.332 291.668 m 875 350 991.668 350 933.332 233.332 c S
1166.668 1341.668 m 1225 1400 1108.332 1400 1166.668 1283.332 c S
1341.668 1283.332 m 1400 1225 1400 1341.668 1283.332 1283.332 c S
1283.332 1108.332 m 1225 1050 1341.668 1050 1283.332 1166.668 c S
1108.332 1166.668 m 1050 1225 1050 1108.332 1166.668 1166.668 c S
1341.668 1166.668 m 1400 1225 1400 1108.332 1283.332 1166.668 c S
1108.332 1283.332 m 1050 1225 1050 1341.668 1166.668 1283.332 c S
1166.668 1108.332 m 1225 1050 1108.332 1050 1166.668 1166.668 c S
1283.332 1341.668 m 1225 1400 1341.668 1400 1283.332 1283.332 c S
1166.668 991.668 m 1225 1050 1108.332 1050 1166.668 933.332 c S
1341.668 933.332 m 1400 875 1400 991.668 1283.332 933.332 c S
1283.332 758.332 m 1225 700 1341.668 700 1283.332 816.668 c S
1108.332 816.668 m 1050 875 1050 758.332 1166.668 816.668 c S
1341.668 816.668 m 1400 875 1400 758.332 1283.332 816.668 c S
1108.332 933.332 m 1050 875 1050 991.668 1166.668 933.332 c S
1166.668 758.332 m 1225 700 1108.332 700 1166.668 816.668 c S
1283.332 991.668 m 1225 1050 1341.668 1050 1283.332 933.332 c S
1166.668 641.668 m 1225 700 1108.332 700 1166.668 583.332 c S
1341.668 583.332 m 1400 525 1400 641.668 1283.332 583.332 c S
1283.332 408.332 m 1225 350 1341.668 350 1283.332 466.668 c S
1108.332 466.668 m 1050 525 1050 408.332 1166.668 466.668 c S
1341.668 466.668 m 1400 525 1400 408.332 1283.332 466.668 c S
1108.332 583.332 m 1050 525 1050 641.668 1166.668 583.332 c S
1166.668 408.332 m 1225 350 1108.332 350 1166.668 466.668 c S
1283.332 641.668 m 1225 700 1341.668 700 1283.332 583.332 c S
1166.668 291.668 m 1225 350 1108.332 350 1166.668 233.332 c S
1341.668 233.332 m 1400 175 1400 291.668 1283.332 233.332 c S
1283.332 58.332 m 1225 0 1341.668 0 1283.332 116.668 c S
1108.332 116.668 m 1050 175 1050 58.332 1166.668 116.668 c S
1341.668 116.668 m 1400 175 1400 58.332 1283.332 116.668 c S
1108.332 233.332 m 1050 175 1050 291.668 1166.668 233.332 c S
1166.668 58.332 m 1225 0 1108.332 0 1166.668 116.668 c S
1283.332 291.668 m 1225 350 1341.668 350 1283.332 233.332 c S
1516.668 1341.668 m 1575 1400 1458.332 1400 1516.668 1283.332 c S
1691.668 1283.332 m 1750 1225 1750 1341.668 1633.332 1283.332 c S
1633.332 1108.332 m 1575 1050 1691.668 1050 1633.332 1166.668 c S
1458.332 1166.668 m 1400 1225 1400 1108.332 1516.668 1166.668 c S
1691.668 1166.668 m 1750 1225 1750 1108.332 1633.332 1166.668 c S
1458.332 1283.332 m 1400 1225 1400 1341.668 1516.668 1283.332 c S
1516.668 1108.332 m 1575 1050 1458.332 1050 1516.668 1166.668 c S
1633.332 1341.668 m 1575 1400 1691.668 1400 1633.332 1283.332 c S
1516.668 991.668 m 1575 1050 1458.332 1050 1516.668 933.332 c S
1691.668 933.332 m 1750 875 1750 991.668 1633.332 933.332 c S
1633.332 758.332 m 1575 700 1691.668 700 1633.332 816.668 c S
1458.332 816.668 m 1400 875 1400 758.332 1516.668 816.668 c S
1691.668 816.668 m 1750 875 1750 758.332 1633.332 816.668 c S
1458.332 933.332 m 1400 875 1400 991.668 1516.668 933.332 c S
1516.668 758.332 m 1575 700 1458.332 700 1516.668 816.668 c S
1633.332 991.668 m 1575 1050 1691.668 1050 1633.332 933.332 c S
1516.668 641.668 m 1575 700 1458.332 700 1516.668 583.332 c S
1691.668 583.332 m 1750 525 1750 641.668 1633.332 583.332 c S
1633.332 408.332 m 1575 350 1691.668 350 1633.332 466.668 c S
1458.332 466.668 m 1400 525 1400 408.332 1516.668 466.668 c S
1691.668 466.668 m 1750 525 1750 408.332 1633.332 466.668 c S
1458.332 583.332 m 1400 525 1400 641.668 1516.668 583.332 c S
1516.668 408.332 m 1575 350 1458.332 350 1516.668 466.668 c S
1633.332 641.668 m 1575 700 1691.668 700 1633.332 583.332 c S
1516.668 291.668 m 1575 350 1458.332 350 1516.668 233.332 c S
1691.668 233.332 m 1750 175 1750 291.668 1633.332 233.332 c S
1633.332 58.332 m 1575 0 1691.668 0 1633.332 116.668 c S
1458.332 116.668 m 1400 175 1400 58.332 1516.668 116.668 c S
1691.668 116.668 m 1750 175 1750 58.332 1633.332 116.668 c S
1458.332 233.332 m 1400 175 1400 291.668 1516.668 233.332 c S
1516.668 58.332 m 1575 0 1458.332 0 1516.668 116.668 c S
1633.332 291.668 m 1575 350 1691.668 350 1633.332 233.332 c S
1866.668 1341.668 m 1925 1400 1808.332 1400 1866.668 1283.332 c S
2041.668 1283.332 m 2100 1225 2100 1341.668 1983.332 1283.332 c S
1983.332 1108.332 m 1925 1050 2041.668 1050 1983.332 1166.668 c S
1808.332 1166.668 m 1750 1225 1750 1108.332 1866.668 1166.668 c S
2041.668 1166.668 m 2100 1225 2100 1108.332 1983.332 1166.668 c S
1808.332 1283.332 m 1750 1225 1750 1341.668 1866.668 1283.332 c S
1866.668 1108.332 m 1925 1050 1808.332 1050 1866.668 1166.668 c S
1983.332 1341.668 m 1925 1400 2041.668 1400 1983.332 1283.332 c S
1866.668 991.668 m 1925 1050 1808.332 1050 1866.668 933.332 c S
2041.668 933.332 m 2100 875 2100 991.668 1983.332 933.332 c S
1983.332 758.332 m 1925 700 2041.668 700 1983.332 816.668 c S
1808.332 816.668 m 1750 875 1750 758.332 1866.668 816.668 c S
2041.668 816.668 m 2100 875 2100 758.332 1983.332 816.668 c S
1808.332 933.332 m 1750 875 1750 991.668 1866.668 933.332 c S
1866.668 758.332 m 1925 700 1808.332 700 1866.668 816.668 c S
1983.332 991.668 m 1925 1050 2041.668 1050 1983.332 933.332 c S
1866.668 641.668 m 1925 700 1808.332 700 1866.668 583.332 c S
2041.668 583.332 m 2100 525 2100 641.668 1983.332 583.332 c S
1983.332 408.332 m 1925 350 2041.668 350 1983.332 466.668 c S
1808.332 466.668 m 1750 525 1750 408.332 1866.668 466.668 c S
2041.668 466.668 m 2100 525 2100 408.332 1983.332 466.668 c S
1808.332 583.332 m 1750 525 1750 641.668 1866.668 583.332 c S
1866.668 408.332 m 1925 350 1808.332 350 1866.668 466.668 c S
1983.332 641.668 m 1925 700 2041.668 700 1983.332 583.332 c S
1866.668 291.668 m 1925 350 1808.332 350 1866.668 233.332 c S
2041.668 233.332 m 2100 175 2100 291.668 1983.332 233.332 c S
1983.332 58.332 m 1925 0 2041.668 0 1983.332 116.668 c S
1808.332 116.668 m 1750 175 1750 58.332 1866.668 116.668 c S
2041.668 116.668 m 2100 175 2100 58.332 1983.332 116.668 c S
1808.332 233.332 m 1750 175 1750 291.668 1866.668 233.332 c S
1866.668 58.332 m 1925 0 1808.332 0 1866.668 116.668 c S
1983.332 291.668 m 1925 350 2041.668 350 1983.332 233.332 c S
Q Q
showpage
%%Trailer
%%Trailer
cleartomark
countdictstack
exch sub { end } repeat
restore
%%EOF
