%!PS-Adobe-2.0 EPSF-2.0
%%BoundingBox: 0 0 1200 1039
%%HiResBoundingBox: 0.000000 0.000000 1200.000000 1039.000000
%%Creator: cairo 1.14.2 (http://cairographics.org)
%%CreationDate: Mon Sep  7 08:21:32 2015
%%DocumentData: Clean7Bit
%%LanguageLevel: 2
%%DocumentMedia: 423x367mm 1200 1039 0 () ()
%%EndComments
% EPSF created by ps2eps 1.68
%%BeginProlog
save
countdictstack
mark
newpath
/showpage {} def
/setpagedevice {pop} def
%%EndProlog
%%Page 1 1
%%BeginProlog
/languagelevel where
{ pop languagelevel } { 1 } ifelse
2 lt { /Helvetica findfont 12 scalefont setfont 50 500 moveto
  (This print job requires a PostScript Language Level 2 printer.) show
  showpage quit } if
/q { gsave } bind def
/Q { grestore } bind def
/cm { 6 array astore concat } bind def
/w { setlinewidth } bind def
/J { setlinecap } bind def
/j { setlinejoin } bind def
/M { setmiterlimit } bind def
/d { setdash } bind def
/m { moveto } bind def
/l { lineto } bind def
/c { curveto } bind def
/h { closepath } bind def
/re { exch dup neg 3 1 roll 5 3 roll moveto 0 rlineto
      0 exch rlineto 0 rlineto closepath } bind def
/S { stroke } bind def
/f { fill } bind def
/f* { eofill } bind def
/n { newpath } bind def
/W { clip } bind def
/W* { eoclip } bind def
/BT { } bind def
/ET { } bind def
/pdfmark where { pop globaldict /?pdfmark /exec load put }
    { globaldict begin /?pdfmark /pop load def /pdfmark
    /cleartomark load def end } ifelse
/BDC { mark 3 1 roll /BDC pdfmark } bind def
/EMC { mark /EMC pdfmark } bind def
/cairo_store_point { /cairo_point_y exch def /cairo_point_x exch def } def
/Tj { show currentpoint cairo_store_point } bind def
/TJ {
  {
    dup
    type /stringtype eq
    { show } { -0.001 mul 0 cairo_font_matrix dtransform rmoveto } ifelse
  } forall
  currentpoint cairo_store_point
} bind def
/cairo_selectfont { cairo_font_matrix aload pop pop pop 0 0 6 array astore
    cairo_font exch selectfont cairo_point_x cairo_point_y moveto } bind def
/Tf { pop /cairo_font exch def /cairo_font_matrix where
      { pop cairo_selectfont } if } bind def
/Td { matrix translate cairo_font_matrix matrix concatmatrix dup
      /cairo_font_matrix exch def dup 4 get exch 5 get cairo_store_point
      /cairo_font where { pop cairo_selectfont } if } bind def
/Tm { 2 copy 8 2 roll 6 array astore /cairo_font_matrix exch def
      cairo_store_point /cairo_font where { pop cairo_selectfont } if } bind def
/g { setgray } bind def
/rg { setrgbcolor } bind def
/d1 { setcachedevice } bind def
/cairo_set_page_size {
  % Change paper size, but only if different from previous paper size otherwise
  % duplex fails. PLRM specifies a tolerance of 5 pts when matching paper size
  % so we use the same when checking if the size changes.
  /setpagedevice where {
    pop currentpagedevice
    /PageSize known {
      2 copy
      currentpagedevice /PageSize get aload pop
      exch 4 1 roll
      sub abs 5 gt
      3 1 roll
      sub abs 5 gt
      or
    } {
      true
    } ifelse
    {
      2 array astore
      2 dict begin
        /PageSize exch def
        /ImagingBBox null def
      currentdict end
      setpagedevice
    } {
      pop pop
    } ifelse
  } {
    pop
  } ifelse
} def
%%EndProlog
%%BeginSetup
%%EndSetup
%%Page: 1 1
%%BeginPageSetup
%%PageMedia: 423x367mm
%%PageBoundingBox: 0 0 1200 1039
1200 1039 cairo_set_page_size
%%EndPageSetup
q 0 0 1200 1039 rectclip q
0.984314 g
0 0 1200 1039 rectfill
0.788235 g
1.875 w
0 J
1 j
[] 0.0 d
4 M 0 1039 1200 -1039.23 re S
0 g
2.5 w
1 J
125 302.879 m 100 288.445 0 346.18 50 317.312 c S
100 259.578 m 100 288.445 0 346.18 50 317.312 c S
-25 476.082 m 0 461.648 0 346.18 0 403.914 c S
25 476.082 m 0 461.648 0 346.18 0 403.914 c S
125 216.277 m 100 230.711 0 172.973 50 201.844 c S
-25 43.07 m 0 57.504 0 172.973 0 115.238 c S
100 259.578 m 100 230.711 0 172.973 50 201.844 c S
25 43.07 m 0 57.504 0 172.973 0 115.238 c S
275 43.07 m 250 28.637 150 86.371 200 57.504 c S
250 -0.23 m 250 28.637 150 86.371 200 57.504 c S
125 216.277 m 150 201.844 150 86.371 150 144.105 c S
50 -0.23 m 50 28.637 150 86.371 100 57.504 c S
175 216.277 m 150 201.844 150 86.371 150 144.105 c S
25 43.07 m 50 28.637 150 86.371 100 57.504 c S
125 822.492 m 100 808.059 0 865.793 50 836.926 c S
100 779.191 m 100 808.059 0 865.793 50 836.926 c S
-25 995.699 m 0 981.266 0 865.793 0 923.531 c S
25 995.699 m 0 981.266 0 865.793 0 923.531 c S
125 735.891 m 100 750.324 0 692.59 50 721.457 c S
-25 562.688 m 0 577.121 0 692.59 0 634.855 c S
100 779.191 m 100 750.324 0 692.59 50 721.457 c S
25 562.688 m 0 577.121 0 692.59 0 634.855 c S
275 562.688 m 250 548.254 150 605.988 200 577.121 c S
250 519.383 m 250 548.254 150 605.988 200 577.121 c S
125 735.891 m 150 721.457 150 605.988 150 663.723 c S
50 519.383 m 50 548.254 150 605.988 100 577.121 c S
175 735.891 m 150 721.457 150 605.988 150 663.723 c S
25 562.688 m 50 548.254 150 605.988 100 577.121 c S
50 519.383 m 50 490.516 150 432.781 100 461.648 c S
25 476.082 m 50 490.516 150 432.781 100 461.648 c S
275 476.082 m 250 490.516 150 432.781 200 461.648 c S
125 302.879 m 150 317.312 150 432.781 150 375.047 c S
250 519.383 m 250 490.516 150 432.781 200 461.648 c S
175 302.879 m 150 317.312 150 432.781 150 375.047 c S
425 302.879 m 400 288.445 300 346.18 350 317.312 c S
400 259.578 m 400 288.445 300 346.18 350 317.312 c S
275 476.082 m 300 461.648 300 346.18 300 403.914 c S
200 259.578 m 200 288.445 300 346.18 250 317.312 c S
325 476.082 m 300 461.648 300 346.18 300 403.914 c S
175 302.879 m 200 288.445 300 346.18 250 317.312 c S
200 259.578 m 200 230.711 300 172.973 250 201.844 c S
175 216.277 m 200 230.711 300 172.973 250 201.844 c S
425 216.277 m 400 230.711 300 172.973 350 201.844 c S
275 43.07 m 300 57.504 300 172.973 300 115.238 c S
400 259.578 m 400 230.711 300 172.973 350 201.844 c S
325 43.07 m 300 57.504 300 172.973 300 115.238 c S
575 43.07 m 550 28.637 450 86.371 500 57.504 c S
550 -0.23 m 550 28.637 450 86.371 500 57.504 c S
425 216.277 m 450 201.844 450 86.371 450 144.105 c S
350 -0.23 m 350 28.637 450 86.371 400 57.504 c S
475 216.277 m 450 201.844 450 86.371 450 144.105 c S
325 43.07 m 350 28.637 450 86.371 400 57.504 c S
50 1039 m 50 1010.133 150 952.398 100 981.266 c S
25 995.699 m 50 1010.133 150 952.398 100 981.266 c S
275 995.699 m 250 1010.133 150 952.398 200 981.266 c S
125 822.492 m 150 836.926 150 952.398 150 894.664 c S
250 1039 m 250 1010.133 150 952.398 200 981.266 c S
175 822.492 m 150 836.926 150 952.398 150 894.664 c S
425 822.492 m 400 808.059 300 865.793 350 836.926 c S
400 779.191 m 400 808.059 300 865.793 350 836.926 c S
275 995.699 m 300 981.266 300 865.793 300 923.531 c S
200 779.191 m 200 808.059 300 865.793 250 836.926 c S
325 995.699 m 300 981.266 300 865.793 300 923.531 c S
175 822.492 m 200 808.059 300 865.793 250 836.926 c S
200 779.191 m 200 750.324 300 692.59 250 721.457 c S
175 735.891 m 200 750.324 300 692.59 250 721.457 c S
425 735.891 m 400 750.324 300 692.59 350 721.457 c S
275 562.688 m 300 577.121 300 692.59 300 634.855 c S
400 779.191 m 400 750.324 300 692.59 350 721.457 c S
325 562.688 m 300 577.121 300 692.59 300 634.855 c S
575 562.688 m 550 548.254 450 605.988 500 577.121 c S
550 519.383 m 550 548.254 450 605.988 500 577.121 c S
425 735.891 m 450 721.457 450 605.988 450 663.723 c S
350 519.383 m 350 548.254 450 605.988 400 577.121 c S
475 735.891 m 450 721.457 450 605.988 450 663.723 c S
325 562.688 m 350 548.254 450 605.988 400 577.121 c S
350 519.383 m 350 490.516 450 432.781 400 461.648 c S
325 476.082 m 350 490.516 450 432.781 400 461.648 c S
575 476.082 m 550 490.516 450 432.781 500 461.648 c S
425 302.879 m 450 317.312 450 432.781 450 375.047 c S
550 519.383 m 550 490.516 450 432.781 500 461.648 c S
475 302.879 m 450 317.312 450 432.781 450 375.047 c S
725 302.879 m 700 288.445 600 346.18 650 317.312 c S
700 259.578 m 700 288.445 600 346.18 650 317.312 c S
575 476.082 m 600 461.648 600 346.18 600 403.914 c S
500 259.578 m 500 288.445 600 346.18 550 317.312 c S
625 476.082 m 600 461.648 600 346.18 600 403.914 c S
475 302.879 m 500 288.445 600 346.18 550 317.312 c S
500 259.578 m 500 230.711 600 172.973 550 201.844 c S
475 216.277 m 500 230.711 600 172.973 550 201.844 c S
725 216.277 m 700 230.711 600 172.973 650 201.844 c S
575 43.07 m 600 57.504 600 172.973 600 115.238 c S
700 259.578 m 700 230.711 600 172.973 650 201.844 c S
625 43.07 m 600 57.504 600 172.973 600 115.238 c S
875 43.07 m 850 28.637 750 86.371 800 57.504 c S
850 -0.23 m 850 28.637 750 86.371 800 57.504 c S
725 216.277 m 750 201.844 750 86.371 750 144.105 c S
650 -0.23 m 650 28.637 750 86.371 700 57.504 c S
775 216.277 m 750 201.844 750 86.371 750 144.105 c S
625 43.07 m 650 28.637 750 86.371 700 57.504 c S
350 1039 m 350 1010.133 450 952.398 400 981.266 c S
325 995.699 m 350 1010.133 450 952.398 400 981.266 c S
575 995.699 m 550 1010.133 450 952.398 500 981.266 c S
425 822.492 m 450 836.926 450 952.398 450 894.664 c S
550 1039 m 550 1010.133 450 952.398 500 981.266 c S
475 822.492 m 450 836.926 450 952.398 450 894.664 c S
725 822.492 m 700 808.059 600 865.793 650 836.926 c S
700 779.191 m 700 808.059 600 865.793 650 836.926 c S
575 995.699 m 600 981.266 600 865.793 600 923.531 c S
500 779.191 m 500 808.059 600 865.793 550 836.926 c S
625 995.699 m 600 981.266 600 865.793 600 923.531 c S
475 822.492 m 500 808.059 600 865.793 550 836.926 c S
500 779.191 m 500 750.324 600 692.59 550 721.457 c S
475 735.891 m 500 750.324 600 692.59 550 721.457 c S
725 735.891 m 700 750.324 600 692.59 650 721.457 c S
575 562.688 m 600 577.121 600 692.59 600 634.855 c S
700 779.191 m 700 750.324 600 692.59 650 721.457 c S
625 562.688 m 600 577.121 600 692.59 600 634.855 c S
875 562.688 m 850 548.254 750 605.988 800 577.121 c S
850 519.383 m 850 548.254 750 605.988 800 577.121 c S
725 735.891 m 750 721.457 750 605.988 750 663.723 c S
650 519.383 m 650 548.254 750 605.988 700 577.121 c S
775 735.891 m 750 721.457 750 605.988 750 663.723 c S
625 562.688 m 650 548.254 750 605.988 700 577.121 c S
650 519.383 m 650 490.516 750 432.781 700 461.648 c S
625 476.082 m 650 490.516 750 432.781 700 461.648 c S
875 476.082 m 850 490.516 750 432.781 800 461.648 c S
725 302.879 m 750 317.312 750 432.781 750 375.047 c S
850 519.383 m 850 490.516 750 432.781 800 461.648 c S
775 302.879 m 750 317.312 750 432.781 750 375.047 c S
1025 302.879 m 1000 288.445 900 346.18 950 317.312 c S
1000 259.578 m 1000 288.445 900 346.18 950 317.312 c S
875 476.082 m 900 461.648 900 346.18 900 403.914 c S
800 259.578 m 800 288.445 900 346.18 850 317.312 c S
925 476.082 m 900 461.648 900 346.18 900 403.914 c S
775 302.879 m 800 288.445 900 346.18 850 317.312 c S
800 259.578 m 800 230.711 900 172.973 850 201.844 c S
775 216.277 m 800 230.711 900 172.973 850 201.844 c S
1025 216.277 m 1000 230.711 900 172.973 950 201.844 c S
875 43.07 m 900 57.504 900 172.973 900 115.238 c S
1000 259.578 m 1000 230.711 900 172.973 950 201.844 c S
925 43.07 m 900 57.504 900 172.973 900 115.238 c S
1175 43.07 m 1150 28.637 1050 86.371 1100 57.504 c S
1150 -0.23 m 1150 28.637 1050 86.371 1100 57.504 c S
1025 216.277 m 1050 201.844 1050 86.371 1050 144.105 c S
950 -0.23 m 950 28.637 1050 86.371 1000 57.504 c S
1075 216.277 m 1050 201.844 1050 86.371 1050 144.105 c S
925 43.07 m 950 28.637 1050 86.371 1000 57.504 c S
650 1039 m 650 1010.133 750 952.398 700 981.266 c S
625 995.699 m 650 1010.133 750 952.398 700 981.266 c S
875 995.699 m 850 1010.133 750 952.398 800 981.266 c S
725 822.492 m 750 836.926 750 952.398 750 894.664 c S
850 1039 m 850 1010.133 750 952.398 800 981.266 c S
775 822.492 m 750 836.926 750 952.398 750 894.664 c S
1025 822.492 m 1000 808.059 900 865.793 950 836.926 c S
1000 779.191 m 1000 808.059 900 865.793 950 836.926 c S
875 995.699 m 900 981.266 900 865.793 900 923.531 c S
800 779.191 m 800 808.059 900 865.793 850 836.926 c S
925 995.699 m 900 981.266 900 865.793 900 923.531 c S
775 822.492 m 800 808.059 900 865.793 850 836.926 c S
800 779.191 m 800 750.324 900 692.59 850 721.457 c S
775 735.891 m 800 750.324 900 692.59 850 721.457 c S
1025 735.891 m 1000 750.324 900 692.59 950 721.457 c S
875 562.688 m 900 577.121 900 692.59 900 634.855 c S
1000 779.191 m 1000 750.324 900 692.59 950 721.457 c S
925 562.688 m 900 577.121 900 692.59 900 634.855 c S
1175 562.688 m 1150 548.254 1050 605.988 1100 577.121 c S
1150 519.383 m 1150 548.254 1050 605.988 1100 577.121 c S
1025 735.891 m 1050 721.457 1050 605.988 1050 663.723 c S
950 519.383 m 950 548.254 1050 605.988 1000 577.121 c S
1075 735.891 m 1050 721.457 1050 605.988 1050 663.723 c S
925 562.688 m 950 548.254 1050 605.988 1000 577.121 c S
950 519.383 m 950 490.516 1050 432.781 1000 461.648 c S
925 476.082 m 950 490.516 1050 432.781 1000 461.648 c S
1175 476.082 m 1150 490.516 1050 432.781 1100 461.648 c S
1025 302.879 m 1050 317.312 1050 432.781 1050 375.047 c S
1150 519.383 m 1150 490.516 1050 432.781 1100 461.648 c S
1075 302.879 m 1050 317.312 1050 432.781 1050 375.047 c S
1175 476.082 m 1200 461.648 1200 346.18 1200 403.914 c S
1100 259.578 m 1100 288.445 1200 346.18 1150 317.312 c S
1225 476.082 m 1200 461.648 1200 346.18 1200 403.914 c S
1075 302.879 m 1100 288.445 1200 346.18 1150 317.312 c S
1100 259.578 m 1100 230.711 1200 172.973 1150 201.844 c S
1075 216.277 m 1100 230.711 1200 172.973 1150 201.844 c S
1175 43.07 m 1200 57.504 1200 172.973 1200 115.238 c S
1225 43.07 m 1200 57.504 1200 172.973 1200 115.238 c S
950 1039 m 950 1010.133 1050 952.398 1000 981.266 c S
925 995.699 m 950 1010.133 1050 952.398 1000 981.266 c S
1175 995.699 m 1150 1010.133 1050 952.398 1100 981.266 c S
1025 822.492 m 1050 836.926 1050 952.398 1050 894.664 c S
1150 1039 m 1150 1010.133 1050 952.398 1100 981.266 c S
1075 822.492 m 1050 836.926 1050 952.398 1050 894.664 c S
1175 995.699 m 1200 981.266 1200 865.793 1200 923.531 c S
1100 779.191 m 1100 808.059 1200 865.793 1150 836.926 c S
1225 995.699 m 1200 981.266 1200 865.793 1200 923.531 c S
1075 822.492 m 1100 808.059 1200 865.793 1150 836.926 c S
1100 779.191 m 1100 750.324 1200 692.59 1150 721.457 c S
1075 735.891 m 1100 750.324 1200 692.59 1150 721.457 c S
1175 562.688 m 1200 577.121 1200 692.59 1200 634.855 c S
1225 562.688 m 1200 577.121 1200 692.59 1200 634.855 c S
Q Q
showpage
%%Trailer
%%Trailer
cleartomark
countdictstack
exch sub { end } repeat
restore
%%EOF
