%!PS-Adobe-2.0 EPSF-2.0
%%BoundingBox: 0 0 1200 1039
%%HiResBoundingBox: 0.000000 0.000000 1200.000000 1039.000000
%%Creator: cairo 1.14.2 (http://cairographics.org)
%%CreationDate: Mon Sep  7 08:21:32 2015
%%DocumentData: Clean7Bit
%%LanguageLevel: 2
%%DocumentMedia: 423x367mm 1200 1039 0 () ()
%%EndComments
% EPSF created by ps2eps 1.68
%%BeginProlog
save
countdictstack
mark
newpath
/showpage {} def
/setpagedevice {pop} def
%%EndProlog
%%Page 1 1
%%BeginProlog
/languagelevel where
{ pop languagelevel } { 1 } ifelse
2 lt { /Helvetica findfont 12 scalefont setfont 50 500 moveto
  (This print job requires a PostScript Language Level 2 printer.) show
  showpage quit } if
/q { gsave } bind def
/Q { grestore } bind def
/cm { 6 array astore concat } bind def
/w { setlinewidth } bind def
/J { setlinecap } bind def
/j { setlinejoin } bind def
/M { setmiterlimit } bind def
/d { setdash } bind def
/m { moveto } bind def
/l { lineto } bind def
/c { curveto } bind def
/h { closepath } bind def
/re { exch dup neg 3 1 roll 5 3 roll moveto 0 rlineto
      0 exch rlineto 0 rlineto closepath } bind def
/S { stroke } bind def
/f { fill } bind def
/f* { eofill } bind def
/n { newpath } bind def
/W { clip } bind def
/W* { eoclip } bind def
/BT { } bind def
/ET { } bind def
/pdfmark where { pop globaldict /?pdfmark /exec load put }
    { globaldict begin /?pdfmark /pop load def /pdfmark
    /cleartomark load def end } ifelse
/BDC { mark 3 1 roll /BDC pdfmark } bind def
/EMC { mark /EMC pdfmark } bind def
/cairo_store_point { /cairo_point_y exch def /cairo_point_x exch def } def
/Tj { show currentpoint cairo_store_point } bind def
/TJ {
  {
    dup
    type /stringtype eq
    { show } { -0.001 mul 0 cairo_font_matrix dtransform rmoveto } ifelse
  } forall
  currentpoint cairo_store_point
} bind def
/cairo_selectfont { cairo_font_matrix aload pop pop pop 0 0 6 array astore
    cairo_font exch selectfont cairo_point_x cairo_point_y moveto } bind def
/Tf { pop /cairo_font exch def /cairo_font_matrix where
      { pop cairo_selectfont } if } bind def
/Td { matrix translate cairo_font_matrix matrix concatmatrix dup
      /cairo_font_matrix exch def dup 4 get exch 5 get cairo_store_point
      /cairo_font where { pop cairo_selectfont } if } bind def
/Tm { 2 copy 8 2 roll 6 array astore /cairo_font_matrix exch def
      cairo_store_point /cairo_font where { pop cairo_selectfont } if } bind def
/g { setgray } bind def
/rg { setrgbcolor } bind def
/d1 { setcachedevice } bind def
/cairo_set_page_size {
  % Change paper size, but only if different from previous paper size otherwise
  % duplex fails. PLRM specifies a tolerance of 5 pts when matching paper size
  % so we use the same when checking if the size changes.
  /setpagedevice where {
    pop currentpagedevice
    /PageSize known {
      2 copy
      currentpagedevice /PageSize get aload pop
      exch 4 1 roll
      sub abs 5 gt
      3 1 roll
      sub abs 5 gt
      or
    } {
      true
    } ifelse
    {
      2 array astore
      2 dict begin
        /PageSize exch def
        /ImagingBBox null def
      currentdict end
      setpagedevice
    } {
      pop pop
    } ifelse
  } {
    pop
  } ifelse
} def
%%EndProlog
%%BeginSetup
%%EndSetup
%%Page: 1 1
%%BeginPageSetup
%%PageMedia: 423x367mm
%%PageBoundingBox: 0 0 1200 1039
1200 1039 cairo_set_page_size
%%EndPageSetup
q 0 0 1200 1039 rectclip q
0.984314 g
0 0 1200 1039 rectfill
0.788235 g
1.875 w
0 J
1 j
[] 0.0 d
4 M 0 1039 1200 -1039.23 re S
0 g
2.5 w
1 J
50 375.047 m 100 288.445 50 317.312 100 346.18 c S
0 288.445 m 100 288.445 50 317.312 50 259.578 c S
0 288.445 m -100 288.445 -50 317.312 -50 259.578 c S
50 375.047 m 0 461.648 0 403.914 50 432.781 c S
0 230.711 m -100 230.711 -50 201.844 -50 259.578 c S
50 144.105 m 100 230.711 50 201.844 100 172.973 c S
0 230.711 m 100 230.711 50 201.844 50 259.578 c S
50 144.105 m 0 57.504 0 115.238 50 86.371 c S
200 115.238 m 250 28.637 200 57.504 250 86.371 c S
150 28.637 m 250 28.637 200 57.504 200 -0.23 c S
100 115.238 m 150 201.844 150 144.105 100 172.973 c S
150 28.637 m 50 28.637 100 57.504 100 -0.23 c S
200 115.238 m 150 201.844 150 144.105 200 172.973 c S
100 115.238 m 50 28.637 100 57.504 50 86.371 c S
50 894.664 m 100 808.059 50 836.926 100 865.793 c S
0 808.059 m 100 808.059 50 836.926 50 779.191 c S
0 808.059 m -100 808.059 -50 836.926 -50 779.191 c S
50 894.664 m 0 981.266 0 923.531 50 952.398 c S
0 750.324 m -100 750.324 -50 721.457 -50 779.191 c S
50 663.723 m 100 750.324 50 721.457 100 692.59 c S
0 750.324 m 100 750.324 50 721.457 50 779.191 c S
50 663.723 m 0 577.121 0 634.855 50 605.988 c S
200 634.855 m 250 548.254 200 577.121 250 605.988 c S
150 548.254 m 250 548.254 200 577.121 200 519.383 c S
100 634.855 m 150 721.457 150 663.723 100 692.59 c S
150 548.254 m 50 548.254 100 577.121 100 519.383 c S
200 634.855 m 150 721.457 150 663.723 200 692.59 c S
100 634.855 m 50 548.254 100 577.121 50 605.988 c S
150 490.516 m 50 490.516 100 461.648 100 519.383 c S
100 403.914 m 50 490.516 100 461.648 50 432.781 c S
200 403.914 m 250 490.516 200 461.648 250 432.781 c S
100 403.914 m 150 317.312 150 375.047 100 346.18 c S
150 490.516 m 250 490.516 200 461.648 200 519.383 c S
200 403.914 m 150 317.312 150 375.047 200 346.18 c S
350 375.047 m 400 288.445 350 317.312 400 346.18 c S
300 288.445 m 400 288.445 350 317.312 350 259.578 c S
250 375.047 m 300 461.648 300 403.914 250 432.781 c S
300 288.445 m 200 288.445 250 317.312 250 259.578 c S
350 375.047 m 300 461.648 300 403.914 350 432.781 c S
250 375.047 m 200 288.445 250 317.312 200 346.18 c S
300 230.711 m 200 230.711 250 201.844 250 259.578 c S
250 144.105 m 200 230.711 250 201.844 200 172.973 c S
350 144.105 m 400 230.711 350 201.844 400 172.973 c S
250 144.105 m 300 57.504 300 115.238 250 86.371 c S
300 230.711 m 400 230.711 350 201.844 350 259.578 c S
350 144.105 m 300 57.504 300 115.238 350 86.371 c S
500 115.238 m 550 28.637 500 57.504 550 86.371 c S
450 28.637 m 550 28.637 500 57.504 500 -0.23 c S
400 115.238 m 450 201.844 450 144.105 400 172.973 c S
450 28.637 m 350 28.637 400 57.504 400 -0.23 c S
500 115.238 m 450 201.844 450 144.105 500 172.973 c S
400 115.238 m 350 28.637 400 57.504 350 86.371 c S
150 1010.133 m 50 1010.133 100 981.266 100 1039 c S
100 923.531 m 50 1010.133 100 981.266 50 952.398 c S
200 923.531 m 250 1010.133 200 981.266 250 952.398 c S
100 923.531 m 150 836.926 150 894.664 100 865.793 c S
150 1010.133 m 250 1010.133 200 981.266 200 1039 c S
200 923.531 m 150 836.926 150 894.664 200 865.793 c S
350 894.664 m 400 808.059 350 836.926 400 865.793 c S
300 808.059 m 400 808.059 350 836.926 350 779.191 c S
250 894.664 m 300 981.266 300 923.531 250 952.398 c S
300 808.059 m 200 808.059 250 836.926 250 779.191 c S
350 894.664 m 300 981.266 300 923.531 350 952.398 c S
250 894.664 m 200 808.059 250 836.926 200 865.793 c S
300 750.324 m 200 750.324 250 721.457 250 779.191 c S
250 663.723 m 200 750.324 250 721.457 200 692.59 c S
350 663.723 m 400 750.324 350 721.457 400 692.59 c S
250 663.723 m 300 577.121 300 634.855 250 605.988 c S
300 750.324 m 400 750.324 350 721.457 350 779.191 c S
350 663.723 m 300 577.121 300 634.855 350 605.988 c S
500 634.855 m 550 548.254 500 577.121 550 605.988 c S
450 548.254 m 550 548.254 500 577.121 500 519.383 c S
400 634.855 m 450 721.457 450 663.723 400 692.59 c S
450 548.254 m 350 548.254 400 577.121 400 519.383 c S
500 634.855 m 450 721.457 450 663.723 500 692.59 c S
400 634.855 m 350 548.254 400 577.121 350 605.988 c S
450 490.516 m 350 490.516 400 461.648 400 519.383 c S
400 403.914 m 350 490.516 400 461.648 350 432.781 c S
500 403.914 m 550 490.516 500 461.648 550 432.781 c S
400 403.914 m 450 317.312 450 375.047 400 346.18 c S
450 490.516 m 550 490.516 500 461.648 500 519.383 c S
500 403.914 m 450 317.312 450 375.047 500 346.18 c S
650 375.047 m 700 288.445 650 317.312 700 346.18 c S
600 288.445 m 700 288.445 650 317.312 650 259.578 c S
550 375.047 m 600 461.648 600 403.914 550 432.781 c S
600 288.445 m 500 288.445 550 317.312 550 259.578 c S
650 375.047 m 600 461.648 600 403.914 650 432.781 c S
550 375.047 m 500 288.445 550 317.312 500 346.18 c S
600 230.711 m 500 230.711 550 201.844 550 259.578 c S
550 144.105 m 500 230.711 550 201.844 500 172.973 c S
650 144.105 m 700 230.711 650 201.844 700 172.973 c S
550 144.105 m 600 57.504 600 115.238 550 86.371 c S
600 230.711 m 700 230.711 650 201.844 650 259.578 c S
650 144.105 m 600 57.504 600 115.238 650 86.371 c S
800 115.238 m 850 28.637 800 57.504 850 86.371 c S
750 28.637 m 850 28.637 800 57.504 800 -0.23 c S
700 115.238 m 750 201.844 750 144.105 700 172.973 c S
750 28.637 m 650 28.637 700 57.504 700 -0.23 c S
800 115.238 m 750 201.844 750 144.105 800 172.973 c S
700 115.238 m 650 28.637 700 57.504 650 86.371 c S
450 1010.133 m 350 1010.133 400 981.266 400 1039 c S
400 923.531 m 350 1010.133 400 981.266 350 952.398 c S
500 923.531 m 550 1010.133 500 981.266 550 952.398 c S
400 923.531 m 450 836.926 450 894.664 400 865.793 c S
450 1010.133 m 550 1010.133 500 981.266 500 1039 c S
500 923.531 m 450 836.926 450 894.664 500 865.793 c S
650 894.664 m 700 808.059 650 836.926 700 865.793 c S
600 808.059 m 700 808.059 650 836.926 650 779.191 c S
550 894.664 m 600 981.266 600 923.531 550 952.398 c S
600 808.059 m 500 808.059 550 836.926 550 779.191 c S
650 894.664 m 600 981.266 600 923.531 650 952.398 c S
550 894.664 m 500 808.059 550 836.926 500 865.793 c S
600 750.324 m 500 750.324 550 721.457 550 779.191 c S
550 663.723 m 500 750.324 550 721.457 500 692.59 c S
650 663.723 m 700 750.324 650 721.457 700 692.59 c S
550 663.723 m 600 577.121 600 634.855 550 605.988 c S
600 750.324 m 700 750.324 650 721.457 650 779.191 c S
650 663.723 m 600 577.121 600 634.855 650 605.988 c S
800 634.855 m 850 548.254 800 577.121 850 605.988 c S
750 548.254 m 850 548.254 800 577.121 800 519.383 c S
700 634.855 m 750 721.457 750 663.723 700 692.59 c S
750 548.254 m 650 548.254 700 577.121 700 519.383 c S
800 634.855 m 750 721.457 750 663.723 800 692.59 c S
700 634.855 m 650 548.254 700 577.121 650 605.988 c S
750 490.516 m 650 490.516 700 461.648 700 519.383 c S
700 403.914 m 650 490.516 700 461.648 650 432.781 c S
800 403.914 m 850 490.516 800 461.648 850 432.781 c S
700 403.914 m 750 317.312 750 375.047 700 346.18 c S
750 490.516 m 850 490.516 800 461.648 800 519.383 c S
800 403.914 m 750 317.312 750 375.047 800 346.18 c S
950 375.047 m 1000 288.445 950 317.312 1000 346.18 c S
900 288.445 m 1000 288.445 950 317.312 950 259.578 c S
850 375.047 m 900 461.648 900 403.914 850 432.781 c S
900 288.445 m 800 288.445 850 317.312 850 259.578 c S
950 375.047 m 900 461.648 900 403.914 950 432.781 c S
850 375.047 m 800 288.445 850 317.312 800 346.18 c S
900 230.711 m 800 230.711 850 201.844 850 259.578 c S
850 144.105 m 800 230.711 850 201.844 800 172.973 c S
950 144.105 m 1000 230.711 950 201.844 1000 172.973 c S
850 144.105 m 900 57.504 900 115.238 850 86.371 c S
900 230.711 m 1000 230.711 950 201.844 950 259.578 c S
950 144.105 m 900 57.504 900 115.238 950 86.371 c S
1100 115.238 m 1150 28.637 1100 57.504 1150 86.371 c S
1050 28.637 m 1150 28.637 1100 57.504 1100 -0.23 c S
1000 115.238 m 1050 201.844 1050 144.105 1000 172.973 c S
1050 28.637 m 950 28.637 1000 57.504 1000 -0.23 c S
1100 115.238 m 1050 201.844 1050 144.105 1100 172.973 c S
1000 115.238 m 950 28.637 1000 57.504 950 86.371 c S
750 1010.133 m 650 1010.133 700 981.266 700 1039 c S
700 923.531 m 650 1010.133 700 981.266 650 952.398 c S
800 923.531 m 850 1010.133 800 981.266 850 952.398 c S
700 923.531 m 750 836.926 750 894.664 700 865.793 c S
750 1010.133 m 850 1010.133 800 981.266 800 1039 c S
800 923.531 m 750 836.926 750 894.664 800 865.793 c S
950 894.664 m 1000 808.059 950 836.926 1000 865.793 c S
900 808.059 m 1000 808.059 950 836.926 950 779.191 c S
850 894.664 m 900 981.266 900 923.531 850 952.398 c S
900 808.059 m 800 808.059 850 836.926 850 779.191 c S
950 894.664 m 900 981.266 900 923.531 950 952.398 c S
850 894.664 m 800 808.059 850 836.926 800 865.793 c S
900 750.324 m 800 750.324 850 721.457 850 779.191 c S
850 663.723 m 800 750.324 850 721.457 800 692.59 c S
950 663.723 m 1000 750.324 950 721.457 1000 692.59 c S
850 663.723 m 900 577.121 900 634.855 850 605.988 c S
900 750.324 m 1000 750.324 950 721.457 950 779.191 c S
950 663.723 m 900 577.121 900 634.855 950 605.988 c S
1100 634.855 m 1150 548.254 1100 577.121 1150 605.988 c S
1050 548.254 m 1150 548.254 1100 577.121 1100 519.383 c S
1000 634.855 m 1050 721.457 1050 663.723 1000 692.59 c S
1050 548.254 m 950 548.254 1000 577.121 1000 519.383 c S
1100 634.855 m 1050 721.457 1050 663.723 1100 692.59 c S
1000 634.855 m 950 548.254 1000 577.121 950 605.988 c S
1050 490.516 m 950 490.516 1000 461.648 1000 519.383 c S
1000 403.914 m 950 490.516 1000 461.648 950 432.781 c S
1100 403.914 m 1150 490.516 1100 461.648 1150 432.781 c S
1000 403.914 m 1050 317.312 1050 375.047 1000 346.18 c S
1050 490.516 m 1150 490.516 1100 461.648 1100 519.383 c S
1100 403.914 m 1050 317.312 1050 375.047 1100 346.18 c S
1200 288.445 m 1300 288.445 1250 317.312 1250 259.578 c S
1150 375.047 m 1200 461.648 1200 403.914 1150 432.781 c S
1200 288.445 m 1100 288.445 1150 317.312 1150 259.578 c S
1150 375.047 m 1100 288.445 1150 317.312 1100 346.18 c S
1200 230.711 m 1100 230.711 1150 201.844 1150 259.578 c S
1150 144.105 m 1100 230.711 1150 201.844 1100 172.973 c S
1150 144.105 m 1200 57.504 1200 115.238 1150 86.371 c S
1200 230.711 m 1300 230.711 1250 201.844 1250 259.578 c S
1050 1010.133 m 950 1010.133 1000 981.266 1000 1039 c S
1000 923.531 m 950 1010.133 1000 981.266 950 952.398 c S
1100 923.531 m 1150 1010.133 1100 981.266 1150 952.398 c S
1000 923.531 m 1050 836.926 1050 894.664 1000 865.793 c S
1050 1010.133 m 1150 1010.133 1100 981.266 1100 1039 c S
1100 923.531 m 1050 836.926 1050 894.664 1100 865.793 c S
1200 808.059 m 1300 808.059 1250 836.926 1250 779.191 c S
1150 894.664 m 1200 981.266 1200 923.531 1150 952.398 c S
1200 808.059 m 1100 808.059 1150 836.926 1150 779.191 c S
1150 894.664 m 1100 808.059 1150 836.926 1100 865.793 c S
1200 750.324 m 1100 750.324 1150 721.457 1150 779.191 c S
1150 663.723 m 1100 750.324 1150 721.457 1100 692.59 c S
1150 663.723 m 1200 577.121 1200 634.855 1150 605.988 c S
1200 750.324 m 1300 750.324 1250 721.457 1250 779.191 c S
Q Q
showpage
%%Trailer
%%Trailer
cleartomark
countdictstack
exch sub { end } repeat
restore
%%EOF
