%!PS-Adobe-2.0 EPSF-2.0
%%BoundingBox: 0 0 2400 1200
%%HiResBoundingBox: 0.000000 0.000000 2400.000000 1200.000000
%%Creator: cairo 1.14.2 (http://cairographics.org)
%%CreationDate: Mon Sep  7 08:21:32 2015
%%DocumentData: Clean7Bit
%%LanguageLevel: 2
%%DocumentMedia: 847x423mm 2400 1200 0 () ()
%%EndComments
% EPSF created by ps2eps 1.68
%%BeginProlog
save
countdictstack
mark
newpath
/showpage {} def
/setpagedevice {pop} def
%%EndProlog
%%Page 1 1
%%BeginProlog
/languagelevel where
{ pop languagelevel } { 1 } ifelse
2 lt { /Helvetica findfont 12 scalefont setfont 50 500 moveto
  (This print job requires a PostScript Language Level 2 printer.) show
  showpage quit } if
/q { gsave } bind def
/Q { grestore } bind def
/cm { 6 array astore concat } bind def
/w { setlinewidth } bind def
/J { setlinecap } bind def
/j { setlinejoin } bind def
/M { setmiterlimit } bind def
/d { setdash } bind def
/m { moveto } bind def
/l { lineto } bind def
/c { curveto } bind def
/h { closepath } bind def
/re { exch dup neg 3 1 roll 5 3 roll moveto 0 rlineto
      0 exch rlineto 0 rlineto closepath } bind def
/S { stroke } bind def
/f { fill } bind def
/f* { eofill } bind def
/n { newpath } bind def
/W { clip } bind def
/W* { eoclip } bind def
/BT { } bind def
/ET { } bind def
/pdfmark where { pop globaldict /?pdfmark /exec load put }
    { globaldict begin /?pdfmark /pop load def /pdfmark
    /cleartomark load def end } ifelse
/BDC { mark 3 1 roll /BDC pdfmark } bind def
/EMC { mark /EMC pdfmark } bind def
/cairo_store_point { /cairo_point_y exch def /cairo_point_x exch def } def
/Tj { show currentpoint cairo_store_point } bind def
/TJ {
  {
    dup
    type /stringtype eq
    { show } { -0.001 mul 0 cairo_font_matrix dtransform rmoveto } ifelse
  } forall
  currentpoint cairo_store_point
} bind def
/cairo_selectfont { cairo_font_matrix aload pop pop pop 0 0 6 array astore
    cairo_font exch selectfont cairo_point_x cairo_point_y moveto } bind def
/Tf { pop /cairo_font exch def /cairo_font_matrix where
      { pop cairo_selectfont } if } bind def
/Td { matrix translate cairo_font_matrix matrix concatmatrix dup
      /cairo_font_matrix exch def dup 4 get exch 5 get cairo_store_point
      /cairo_font where { pop cairo_selectfont } if } bind def
/Tm { 2 copy 8 2 roll 6 array astore /cairo_font_matrix exch def
      cairo_store_point /cairo_font where { pop cairo_selectfont } if } bind def
/g { setgray } bind def
/rg { setrgbcolor } bind def
/d1 { setcachedevice } bind def
/cairo_set_page_size {
  % Change paper size, but only if different from previous paper size otherwise
  % duplex fails. PLRM specifies a tolerance of 5 pts when matching paper size
  % so we use the same when checking if the size changes.
  /setpagedevice where {
    pop currentpagedevice
    /PageSize known {
      2 copy
      currentpagedevice /PageSize get aload pop
      exch 4 1 roll
      sub abs 5 gt
      3 1 roll
      sub abs 5 gt
      or
    } {
      true
    } ifelse
    {
      2 array astore
      2 dict begin
        /PageSize exch def
        /ImagingBBox null def
      currentdict end
      setpagedevice
    } {
      pop pop
    } ifelse
  } {
    pop
  } ifelse
} def
%%EndProlog
%%BeginSetup
%%EndSetup
%%Page: 1 1
%%BeginPageSetup
%%PageMedia: 847x423mm
%%PageBoundingBox: 0 0 2400 1200
2400 1200 cairo_set_page_size
%%EndPageSetup
q 0 0 2400 1200 rectclip q
0.984314 g
0 0 2400 1200 rectfill
0.788235 g
1.875 w
0 J
1 j
[] 0.0 d
4 M 0 1200 2400 -1200 re S
0.85098 g
100 1200 100 -75 re f*
0 g
2.5 w
100 1200 100 -75 re S
0.85098 g
300 1125 100 -75 re f*
0 g
300 1125 100 -75 re S
0.85098 g
0 1050 100 -75 re f*
0 g
0 1050 100 -75 re S
0.85098 g
200 975 100 -75 re f*
0 g
200 975 100 -75 re S
0.85098 g
100 900 100 -75 re f*
0 g
100 900 100 -75 re S
0.85098 g
300 825 100 -75 re f*
0 g
300 825 100 -75 re S
0.85098 g
0 750 100 -75 re f*
0 g
0 750 100 -75 re S
0.85098 g
200 675 100 -75 re f*
0 g
200 675 100 -75 re S
0.85098 g
100 600 100 -75 re f*
0 g
100 600 100 -75 re S
0.85098 g
300 525 100 -75 re f*
0 g
300 525 100 -75 re S
0.85098 g
0 450 100 -75 re f*
0 g
0 450 100 -75 re S
0.85098 g
200 375 100 -75 re f*
0 g
200 375 100 -75 re S
0.85098 g
100 300 100 -75 re f*
0 g
100 300 100 -75 re S
0.85098 g
300 225 100 -75 re f*
0 g
300 225 100 -75 re S
0.85098 g
0 150 100 -75 re f*
0 g
0 150 100 -75 re S
0.85098 g
200 75 100 -75 re f*
0 g
200 75 100 -75 re S
0.85098 g
500 1200 100 -75 re f*
0 g
500 1200 100 -75 re S
0.85098 g
700 1125 100 -75 re f*
0 g
700 1125 100 -75 re S
0.85098 g
400 1050 100 -75 re f*
0 g
400 1050 100 -75 re S
0.85098 g
600 975 100 -75 re f*
0 g
600 975 100 -75 re S
0.85098 g
500 900 100 -75 re f*
0 g
500 900 100 -75 re S
0.85098 g
700 825 100 -75 re f*
0 g
700 825 100 -75 re S
0.85098 g
400 750 100 -75 re f*
0 g
400 750 100 -75 re S
0.85098 g
600 675 100 -75 re f*
0 g
600 675 100 -75 re S
0.85098 g
500 600 100 -75 re f*
0 g
500 600 100 -75 re S
0.85098 g
700 525 100 -75 re f*
0 g
700 525 100 -75 re S
0.85098 g
400 450 100 -75 re f*
0 g
400 450 100 -75 re S
0.85098 g
600 375 100 -75 re f*
0 g
600 375 100 -75 re S
0.85098 g
500 300 100 -75 re f*
0 g
500 300 100 -75 re S
0.85098 g
700 225 100 -75 re f*
0 g
700 225 100 -75 re S
0.85098 g
400 150 100 -75 re f*
0 g
400 150 100 -75 re S
0.85098 g
600 75 100 -75 re f*
0 g
600 75 100 -75 re S
0.85098 g
900 1200 100 -75 re f*
0 g
900 1200 100 -75 re S
0.85098 g
1100 1125 100 -75 re f*
0 g
1100 1125 100 -75 re S
0.85098 g
800 1050 100 -75 re f*
0 g
800 1050 100 -75 re S
0.85098 g
1000 975 100 -75 re f*
0 g
1000 975 100 -75 re S
0.85098 g
900 900 100 -75 re f*
0 g
900 900 100 -75 re S
0.85098 g
1100 825 100 -75 re f*
0 g
1100 825 100 -75 re S
0.85098 g
800 750 100 -75 re f*
0 g
800 750 100 -75 re S
0.85098 g
1000 675 100 -75 re f*
0 g
1000 675 100 -75 re S
0.85098 g
900 600 100 -75 re f*
0 g
900 600 100 -75 re S
0.85098 g
1100 525 100 -75 re f*
0 g
1100 525 100 -75 re S
0.85098 g
800 450 100 -75 re f*
0 g
800 450 100 -75 re S
0.85098 g
1000 375 100 -75 re f*
0 g
1000 375 100 -75 re S
0.85098 g
900 300 100 -75 re f*
0 g
900 300 100 -75 re S
0.85098 g
1100 225 100 -75 re f*
0 g
1100 225 100 -75 re S
0.85098 g
800 150 100 -75 re f*
0 g
800 150 100 -75 re S
0.85098 g
1000 75 100 -75 re f*
0 g
1000 75 100 -75 re S
0.85098 g
1300 1200 100 -75 re f*
0 g
1300 1200 100 -75 re S
0.85098 g
1500 1125 100 -75 re f*
0 g
1500 1125 100 -75 re S
0.85098 g
1200 1050 100 -75 re f*
0 g
1200 1050 100 -75 re S
0.85098 g
1400 975 100 -75 re f*
0 g
1400 975 100 -75 re S
0.85098 g
1300 900 100 -75 re f*
0 g
1300 900 100 -75 re S
0.85098 g
1500 825 100 -75 re f*
0 g
1500 825 100 -75 re S
0.85098 g
1200 750 100 -75 re f*
0 g
1200 750 100 -75 re S
0.85098 g
1400 675 100 -75 re f*
0 g
1400 675 100 -75 re S
0.85098 g
1300 600 100 -75 re f*
0 g
1300 600 100 -75 re S
0.85098 g
1500 525 100 -75 re f*
0 g
1500 525 100 -75 re S
0.85098 g
1200 450 100 -75 re f*
0 g
1200 450 100 -75 re S
0.85098 g
1400 375 100 -75 re f*
0 g
1400 375 100 -75 re S
0.85098 g
1300 300 100 -75 re f*
0 g
1300 300 100 -75 re S
0.85098 g
1500 225 100 -75 re f*
0 g
1500 225 100 -75 re S
0.85098 g
1200 150 100 -75 re f*
0 g
1200 150 100 -75 re S
0.85098 g
1400 75 100 -75 re f*
0 g
1400 75 100 -75 re S
0.85098 g
1700 1200 100 -75 re f*
0 g
1700 1200 100 -75 re S
0.85098 g
1900 1125 100 -75 re f*
0 g
1900 1125 100 -75 re S
0.85098 g
1600 1050 100 -75 re f*
0 g
1600 1050 100 -75 re S
0.85098 g
1800 975 100 -75 re f*
0 g
1800 975 100 -75 re S
0.85098 g
1700 900 100 -75 re f*
0 g
1700 900 100 -75 re S
0.85098 g
1900 825 100 -75 re f*
0 g
1900 825 100 -75 re S
0.85098 g
1600 750 100 -75 re f*
0 g
1600 750 100 -75 re S
0.85098 g
1800 675 100 -75 re f*
0 g
1800 675 100 -75 re S
0.85098 g
1700 600 100 -75 re f*
0 g
1700 600 100 -75 re S
0.85098 g
1900 525 100 -75 re f*
0 g
1900 525 100 -75 re S
0.85098 g
1600 450 100 -75 re f*
0 g
1600 450 100 -75 re S
0.85098 g
1800 375 100 -75 re f*
0 g
1800 375 100 -75 re S
0.85098 g
1700 300 100 -75 re f*
0 g
1700 300 100 -75 re S
0.85098 g
1900 225 100 -75 re f*
0 g
1900 225 100 -75 re S
0.85098 g
1600 150 100 -75 re f*
0 g
1600 150 100 -75 re S
0.85098 g
1800 75 100 -75 re f*
0 g
1800 75 100 -75 re S
0.85098 g
2100 1200 100 -75 re f*
0 g
2100 1200 100 -75 re S
0.85098 g
2300 1125 100 -75 re f*
0 g
2300 1125 100 -75 re S
0.85098 g
2000 1050 100 -75 re f*
0 g
2000 1050 100 -75 re S
0.85098 g
2200 975 100 -75 re f*
0 g
2200 975 100 -75 re S
0.85098 g
2100 900 100 -75 re f*
0 g
2100 900 100 -75 re S
0.85098 g
2300 825 100 -75 re f*
0 g
2300 825 100 -75 re S
0.85098 g
2000 750 100 -75 re f*
0 g
2000 750 100 -75 re S
0.85098 g
2200 675 100 -75 re f*
0 g
2200 675 100 -75 re S
0.85098 g
2100 600 100 -75 re f*
0 g
2100 600 100 -75 re S
0.85098 g
2300 525 100 -75 re f*
0 g
2300 525 100 -75 re S
0.85098 g
2000 450 100 -75 re f*
0 g
2000 450 100 -75 re S
0.85098 g
2200 375 100 -75 re f*
0 g
2200 375 100 -75 re S
0.85098 g
2100 300 100 -75 re f*
0 g
2100 300 100 -75 re S
0.85098 g
2300 225 100 -75 re f*
0 g
2300 225 100 -75 re S
0.85098 g
2000 150 100 -75 re f*
0 g
2000 150 100 -75 re S
0.85098 g
2200 75 100 -75 re f*
0 g
2200 75 100 -75 re S
Q Q
showpage
%%Trailer
%%Trailer
cleartomark
countdictstack
exch sub { end } repeat
restore
%%EOF
