%!PS-Adobe-2.0 EPSF-2.0
%%BoundingBox: 0 0 2400 1200
%%HiResBoundingBox: 0.000000 0.000000 2400.000000 1200.000000
%%Creator: cairo 1.14.2 (http://cairographics.org)
%%CreationDate: Mon Sep  7 08:21:33 2015
%%DocumentData: Clean7Bit
%%LanguageLevel: 2
%%DocumentMedia: 847x423mm 2400 1200 0 () ()
%%EndComments
% EPSF created by ps2eps 1.68
%%BeginProlog
save
countdictstack
mark
newpath
/showpage {} def
/setpagedevice {pop} def
%%EndProlog
%%Page 1 1
%%BeginProlog
/languagelevel where
{ pop languagelevel } { 1 } ifelse
2 lt { /Helvetica findfont 12 scalefont setfont 50 500 moveto
  (This print job requires a PostScript Language Level 2 printer.) show
  showpage quit } if
/q { gsave } bind def
/Q { grestore } bind def
/cm { 6 array astore concat } bind def
/w { setlinewidth } bind def
/J { setlinecap } bind def
/j { setlinejoin } bind def
/M { setmiterlimit } bind def
/d { setdash } bind def
/m { moveto } bind def
/l { lineto } bind def
/c { curveto } bind def
/h { closepath } bind def
/re { exch dup neg 3 1 roll 5 3 roll moveto 0 rlineto
      0 exch rlineto 0 rlineto closepath } bind def
/S { stroke } bind def
/f { fill } bind def
/f* { eofill } bind def
/n { newpath } bind def
/W { clip } bind def
/W* { eoclip } bind def
/BT { } bind def
/ET { } bind def
/pdfmark where { pop globaldict /?pdfmark /exec load put }
    { globaldict begin /?pdfmark /pop load def /pdfmark
    /cleartomark load def end } ifelse
/BDC { mark 3 1 roll /BDC pdfmark } bind def
/EMC { mark /EMC pdfmark } bind def
/cairo_store_point { /cairo_point_y exch def /cairo_point_x exch def } def
/Tj { show currentpoint cairo_store_point } bind def
/TJ {
  {
    dup
    type /stringtype eq
    { show } { -0.001 mul 0 cairo_font_matrix dtransform rmoveto } ifelse
  } forall
  currentpoint cairo_store_point
} bind def
/cairo_selectfont { cairo_font_matrix aload pop pop pop 0 0 6 array astore
    cairo_font exch selectfont cairo_point_x cairo_point_y moveto } bind def
/Tf { pop /cairo_font exch def /cairo_font_matrix where
      { pop cairo_selectfont } if } bind def
/Td { matrix translate cairo_font_matrix matrix concatmatrix dup
      /cairo_font_matrix exch def dup 4 get exch 5 get cairo_store_point
      /cairo_font where { pop cairo_selectfont } if } bind def
/Tm { 2 copy 8 2 roll 6 array astore /cairo_font_matrix exch def
      cairo_store_point /cairo_font where { pop cairo_selectfont } if } bind def
/g { setgray } bind def
/rg { setrgbcolor } bind def
/d1 { setcachedevice } bind def
/cairo_set_page_size {
  % Change paper size, but only if different from previous paper size otherwise
  % duplex fails. PLRM specifies a tolerance of 5 pts when matching paper size
  % so we use the same when checking if the size changes.
  /setpagedevice where {
    pop currentpagedevice
    /PageSize known {
      2 copy
      currentpagedevice /PageSize get aload pop
      exch 4 1 roll
      sub abs 5 gt
      3 1 roll
      sub abs 5 gt
      or
    } {
      true
    } ifelse
    {
      2 array astore
      2 dict begin
        /PageSize exch def
        /ImagingBBox null def
      currentdict end
      setpagedevice
    } {
      pop pop
    } ifelse
  } {
    pop
  } ifelse
} def
%%EndProlog
%%BeginSetup
%%EndSetup
%%Page: 1 1
%%BeginPageSetup
%%PageMedia: 847x423mm
%%PageBoundingBox: 0 0 2400 1200
2400 1200 cairo_set_page_size
%%EndPageSetup
q 0 0 2400 1200 rectclip q
0.984314 g
0 0 2400 1200 rectfill
0.788235 g
1.875 w
0 J
1 j
[] 0.0 d
4 M 0 1200 2400 -1200 re S
0.85098 g
0 1100 m 0 1050 l 0 1200 l 133.332 1200 l 133.332 1100 l h
0 1100 m f*
0 g
2.5 w
0 1100 m 0 1050 l 0 1200 l 133.332 1200 l 133.332 1100 l h
0 1100 m S
0.85098 g
200 1150 m 333.332 1150 l 333.332 1050 l 200 1050 l 200 1200 l h
200 1150 m f*
0 g
200 1150 m 333.332 1150 l 333.332 1050 l 200 1050 l 200 1200 l h
200 1150 m S
0.85098 g
200 950 m 66.668 950 l 66.668 1050 l 200 1050 l 200 900 l h
200 950 m f*
0 g
200 950 m 66.668 950 l 66.668 1050 l 200 1050 l 200 900 l h
200 950 m S
0.85098 g
400 1000 m 400 1050 l 400 900 l 266.668 900 l 266.668 1000 l h
400 1000 m f*
0 g
400 1000 m 400 1050 l 400 900 l 266.668 900 l 266.668 1000 l h
400 1000 m S
0.85098 g
0 800 m 0 750 l 0 900 l 133.332 900 l 133.332 800 l h
0 800 m f*
0 g
0 800 m 0 750 l 0 900 l 133.332 900 l 133.332 800 l h
0 800 m S
0.85098 g
200 850 m 333.332 850 l 333.332 750 l 200 750 l 200 900 l h
200 850 m f*
0 g
200 850 m 333.332 850 l 333.332 750 l 200 750 l 200 900 l h
200 850 m S
0.85098 g
200 650 m 66.668 650 l 66.668 750 l 200 750 l 200 600 l h
200 650 m f*
0 g
200 650 m 66.668 650 l 66.668 750 l 200 750 l 200 600 l h
200 650 m S
0.85098 g
400 700 m 400 750 l 400 600 l 266.668 600 l 266.668 700 l h
400 700 m f*
0 g
400 700 m 400 750 l 400 600 l 266.668 600 l 266.668 700 l h
400 700 m S
0.85098 g
0 500 m 0 450 l 0 600 l 133.332 600 l 133.332 500 l h
0 500 m f*
0 g
0 500 m 0 450 l 0 600 l 133.332 600 l 133.332 500 l h
0 500 m S
0.85098 g
200 550 m 333.332 550 l 333.332 450 l 200 450 l 200 600 l h
200 550 m f*
0 g
200 550 m 333.332 550 l 333.332 450 l 200 450 l 200 600 l h
200 550 m S
0.85098 g
200 350 m 66.668 350 l 66.668 450 l 200 450 l 200 300 l h
200 350 m f*
0 g
200 350 m 66.668 350 l 66.668 450 l 200 450 l 200 300 l h
200 350 m S
0.85098 g
400 400 m 400 450 l 400 300 l 266.668 300 l 266.668 400 l h
400 400 m f*
0 g
400 400 m 400 450 l 400 300 l 266.668 300 l 266.668 400 l h
400 400 m S
0.85098 g
0 200 m 0 150 l 0 300 l 133.332 300 l 133.332 200 l h
0 200 m f*
0 g
0 200 m 0 150 l 0 300 l 133.332 300 l 133.332 200 l h
0 200 m S
0.85098 g
200 250 m 333.332 250 l 333.332 150 l 200 150 l 200 300 l h
200 250 m f*
0 g
200 250 m 333.332 250 l 333.332 150 l 200 150 l 200 300 l h
200 250 m S
0.85098 g
200 50 m 66.668 50 l 66.668 150 l 200 150 l 200 0 l h
200 50 m f*
0 g
200 50 m 66.668 50 l 66.668 150 l 200 150 l 200 0 l h
200 50 m S
0.85098 g
400 100 m 400 150 l 400 0 l 266.668 0 l 266.668 100 l h
400 100 m f*
0 g
400 100 m 400 150 l 400 0 l 266.668 0 l 266.668 100 l h
400 100 m S
0.85098 g
400 1100 m 400 1050 l 400 1200 l 533.332 1200 l 533.332 1100 l h
400 1100 m f*
0 g
400 1100 m 400 1050 l 400 1200 l 533.332 1200 l 533.332 1100 l h
400 1100 m S
0.85098 g
600 1150 m 733.332 1150 l 733.332 1050 l 600 1050 l 600 1200 l h
600 1150 m f*
0 g
600 1150 m 733.332 1150 l 733.332 1050 l 600 1050 l 600 1200 l h
600 1150 m S
0.85098 g
600 950 m 466.668 950 l 466.668 1050 l 600 1050 l 600 900 l h
600 950 m f*
0 g
600 950 m 466.668 950 l 466.668 1050 l 600 1050 l 600 900 l h
600 950 m S
0.85098 g
800 1000 m 800 1050 l 800 900 l 666.668 900 l 666.668 1000 l h
800 1000 m f*
0 g
800 1000 m 800 1050 l 800 900 l 666.668 900 l 666.668 1000 l h
800 1000 m S
0.85098 g
400 800 m 400 750 l 400 900 l 533.332 900 l 533.332 800 l h
400 800 m f*
0 g
400 800 m 400 750 l 400 900 l 533.332 900 l 533.332 800 l h
400 800 m S
0.85098 g
600 850 m 733.332 850 l 733.332 750 l 600 750 l 600 900 l h
600 850 m f*
0 g
600 850 m 733.332 850 l 733.332 750 l 600 750 l 600 900 l h
600 850 m S
0.85098 g
600 650 m 466.668 650 l 466.668 750 l 600 750 l 600 600 l h
600 650 m f*
0 g
600 650 m 466.668 650 l 466.668 750 l 600 750 l 600 600 l h
600 650 m S
0.85098 g
800 700 m 800 750 l 800 600 l 666.668 600 l 666.668 700 l h
800 700 m f*
0 g
800 700 m 800 750 l 800 600 l 666.668 600 l 666.668 700 l h
800 700 m S
0.85098 g
400 500 m 400 450 l 400 600 l 533.332 600 l 533.332 500 l h
400 500 m f*
0 g
400 500 m 400 450 l 400 600 l 533.332 600 l 533.332 500 l h
400 500 m S
0.85098 g
600 550 m 733.332 550 l 733.332 450 l 600 450 l 600 600 l h
600 550 m f*
0 g
600 550 m 733.332 550 l 733.332 450 l 600 450 l 600 600 l h
600 550 m S
0.85098 g
600 350 m 466.668 350 l 466.668 450 l 600 450 l 600 300 l h
600 350 m f*
0 g
600 350 m 466.668 350 l 466.668 450 l 600 450 l 600 300 l h
600 350 m S
0.85098 g
800 400 m 800 450 l 800 300 l 666.668 300 l 666.668 400 l h
800 400 m f*
0 g
800 400 m 800 450 l 800 300 l 666.668 300 l 666.668 400 l h
800 400 m S
0.85098 g
400 200 m 400 150 l 400 300 l 533.332 300 l 533.332 200 l h
400 200 m f*
0 g
400 200 m 400 150 l 400 300 l 533.332 300 l 533.332 200 l h
400 200 m S
0.85098 g
600 250 m 733.332 250 l 733.332 150 l 600 150 l 600 300 l h
600 250 m f*
0 g
600 250 m 733.332 250 l 733.332 150 l 600 150 l 600 300 l h
600 250 m S
0.85098 g
600 50 m 466.668 50 l 466.668 150 l 600 150 l 600 0 l h
600 50 m f*
0 g
600 50 m 466.668 50 l 466.668 150 l 600 150 l 600 0 l h
600 50 m S
0.85098 g
800 100 m 800 150 l 800 0 l 666.668 0 l 666.668 100 l h
800 100 m f*
0 g
800 100 m 800 150 l 800 0 l 666.668 0 l 666.668 100 l h
800 100 m S
0.85098 g
800 1100 m 800 1050 l 800 1200 l 933.332 1200 l 933.332 1100 l h
800 1100 m f*
0 g
800 1100 m 800 1050 l 800 1200 l 933.332 1200 l 933.332 1100 l h
800 1100 m S
0.85098 g
1000 1150 m 1133.332 1150 l 1133.332 1050 l 1000 1050 l 1000 1200 l h
1000 1150 m f*
0 g
1000 1150 m 1133.332 1150 l 1133.332 1050 l 1000 1050 l 1000 1200 l h
1000 1150 m S
0.85098 g
1000 950 m 866.668 950 l 866.668 1050 l 1000 1050 l 1000 900 l h
1000 950 m f*
0 g
1000 950 m 866.668 950 l 866.668 1050 l 1000 1050 l 1000 900 l h
1000 950 m S
0.85098 g
1200 1000 m 1200 1050 l 1200 900 l 1066.668 900 l 1066.668 1000 l h
1200 1000 m f*
0 g
1200 1000 m 1200 1050 l 1200 900 l 1066.668 900 l 1066.668 1000 l h
1200 1000 m S
0.85098 g
800 800 m 800 750 l 800 900 l 933.332 900 l 933.332 800 l h
800 800 m f*
0 g
800 800 m 800 750 l 800 900 l 933.332 900 l 933.332 800 l h
800 800 m S
0.85098 g
1000 850 m 1133.332 850 l 1133.332 750 l 1000 750 l 1000 900 l h
1000 850 m f*
0 g
1000 850 m 1133.332 850 l 1133.332 750 l 1000 750 l 1000 900 l h
1000 850 m S
0.85098 g
1000 650 m 866.668 650 l 866.668 750 l 1000 750 l 1000 600 l h
1000 650 m f*
0 g
1000 650 m 866.668 650 l 866.668 750 l 1000 750 l 1000 600 l h
1000 650 m S
0.85098 g
1200 700 m 1200 750 l 1200 600 l 1066.668 600 l 1066.668 700 l h
1200 700 m f*
0 g
1200 700 m 1200 750 l 1200 600 l 1066.668 600 l 1066.668 700 l h
1200 700 m S
0.85098 g
800 500 m 800 450 l 800 600 l 933.332 600 l 933.332 500 l h
800 500 m f*
0 g
800 500 m 800 450 l 800 600 l 933.332 600 l 933.332 500 l h
800 500 m S
0.85098 g
1000 550 m 1133.332 550 l 1133.332 450 l 1000 450 l 1000 600 l h
1000 550 m f*
0 g
1000 550 m 1133.332 550 l 1133.332 450 l 1000 450 l 1000 600 l h
1000 550 m S
0.85098 g
1000 350 m 866.668 350 l 866.668 450 l 1000 450 l 1000 300 l h
1000 350 m f*
0 g
1000 350 m 866.668 350 l 866.668 450 l 1000 450 l 1000 300 l h
1000 350 m S
0.85098 g
1200 400 m 1200 450 l 1200 300 l 1066.668 300 l 1066.668 400 l h
1200 400 m f*
0 g
1200 400 m 1200 450 l 1200 300 l 1066.668 300 l 1066.668 400 l h
1200 400 m S
0.85098 g
800 200 m 800 150 l 800 300 l 933.332 300 l 933.332 200 l h
800 200 m f*
0 g
800 200 m 800 150 l 800 300 l 933.332 300 l 933.332 200 l h
800 200 m S
0.85098 g
1000 250 m 1133.332 250 l 1133.332 150 l 1000 150 l 1000 300 l h
1000 250 m f*
0 g
1000 250 m 1133.332 250 l 1133.332 150 l 1000 150 l 1000 300 l h
1000 250 m S
0.85098 g
1000 50 m 866.668 50 l 866.668 150 l 1000 150 l 1000 0 l h
1000 50 m f*
0 g
1000 50 m 866.668 50 l 866.668 150 l 1000 150 l 1000 0 l h
1000 50 m S
0.85098 g
1200 100 m 1200 150 l 1200 0 l 1066.668 0 l 1066.668 100 l h
1200 100 m f*
0 g
1200 100 m 1200 150 l 1200 0 l 1066.668 0 l 1066.668 100 l h
1200 100 m S
0.85098 g
1200 1100 m 1200 1050 l 1200 1200 l 1333.332 1200 l 1333.332 1100 l h
1200 1100 m f*
0 g
1200 1100 m 1200 1050 l 1200 1200 l 1333.332 1200 l 1333.332 1100 l h
1200 1100 m S
0.85098 g
1400 1150 m 1533.332 1150 l 1533.332 1050 l 1400 1050 l 1400 1200 l h
1400 1150 m f*
0 g
1400 1150 m 1533.332 1150 l 1533.332 1050 l 1400 1050 l 1400 1200 l h
1400 1150 m S
0.85098 g
1400 950 m 1266.668 950 l 1266.668 1050 l 1400 1050 l 1400 900 l h
1400 950 m f*
0 g
1400 950 m 1266.668 950 l 1266.668 1050 l 1400 1050 l 1400 900 l h
1400 950 m S
0.85098 g
1600 1000 m 1600 1050 l 1600 900 l 1466.668 900 l 1466.668 1000 l h
1600 1000 m f*
0 g
1600 1000 m 1600 1050 l 1600 900 l 1466.668 900 l 1466.668 1000 l h
1600 1000 m S
0.85098 g
1200 800 m 1200 750 l 1200 900 l 1333.332 900 l 1333.332 800 l h
1200 800 m f*
0 g
1200 800 m 1200 750 l 1200 900 l 1333.332 900 l 1333.332 800 l h
1200 800 m S
0.85098 g
1400 850 m 1533.332 850 l 1533.332 750 l 1400 750 l 1400 900 l h
1400 850 m f*
0 g
1400 850 m 1533.332 850 l 1533.332 750 l 1400 750 l 1400 900 l h
1400 850 m S
0.85098 g
1400 650 m 1266.668 650 l 1266.668 750 l 1400 750 l 1400 600 l h
1400 650 m f*
0 g
1400 650 m 1266.668 650 l 1266.668 750 l 1400 750 l 1400 600 l h
1400 650 m S
0.85098 g
1600 700 m 1600 750 l 1600 600 l 1466.668 600 l 1466.668 700 l h
1600 700 m f*
0 g
1600 700 m 1600 750 l 1600 600 l 1466.668 600 l 1466.668 700 l h
1600 700 m S
0.85098 g
1200 500 m 1200 450 l 1200 600 l 1333.332 600 l 1333.332 500 l h
1200 500 m f*
0 g
1200 500 m 1200 450 l 1200 600 l 1333.332 600 l 1333.332 500 l h
1200 500 m S
0.85098 g
1400 550 m 1533.332 550 l 1533.332 450 l 1400 450 l 1400 600 l h
1400 550 m f*
0 g
1400 550 m 1533.332 550 l 1533.332 450 l 1400 450 l 1400 600 l h
1400 550 m S
0.85098 g
1400 350 m 1266.668 350 l 1266.668 450 l 1400 450 l 1400 300 l h
1400 350 m f*
0 g
1400 350 m 1266.668 350 l 1266.668 450 l 1400 450 l 1400 300 l h
1400 350 m S
0.85098 g
1600 400 m 1600 450 l 1600 300 l 1466.668 300 l 1466.668 400 l h
1600 400 m f*
0 g
1600 400 m 1600 450 l 1600 300 l 1466.668 300 l 1466.668 400 l h
1600 400 m S
0.85098 g
1200 200 m 1200 150 l 1200 300 l 1333.332 300 l 1333.332 200 l h
1200 200 m f*
0 g
1200 200 m 1200 150 l 1200 300 l 1333.332 300 l 1333.332 200 l h
1200 200 m S
0.85098 g
1400 250 m 1533.332 250 l 1533.332 150 l 1400 150 l 1400 300 l h
1400 250 m f*
0 g
1400 250 m 1533.332 250 l 1533.332 150 l 1400 150 l 1400 300 l h
1400 250 m S
0.85098 g
1400 50 m 1266.668 50 l 1266.668 150 l 1400 150 l 1400 0 l h
1400 50 m f*
0 g
1400 50 m 1266.668 50 l 1266.668 150 l 1400 150 l 1400 0 l h
1400 50 m S
0.85098 g
1600 100 m 1600 150 l 1600 0 l 1466.668 0 l 1466.668 100 l h
1600 100 m f*
0 g
1600 100 m 1600 150 l 1600 0 l 1466.668 0 l 1466.668 100 l h
1600 100 m S
0.85098 g
1600 1100 m 1600 1050 l 1600 1200 l 1733.332 1200 l 1733.332 1100 l h
1600 1100 m f*
0 g
1600 1100 m 1600 1050 l 1600 1200 l 1733.332 1200 l 1733.332 1100 l h
1600 1100 m S
0.85098 g
1800 1150 m 1933.332 1150 l 1933.332 1050 l 1800 1050 l 1800 1200 l h
1800 1150 m f*
0 g
1800 1150 m 1933.332 1150 l 1933.332 1050 l 1800 1050 l 1800 1200 l h
1800 1150 m S
0.85098 g
1800 950 m 1666.668 950 l 1666.668 1050 l 1800 1050 l 1800 900 l h
1800 950 m f*
0 g
1800 950 m 1666.668 950 l 1666.668 1050 l 1800 1050 l 1800 900 l h
1800 950 m S
0.85098 g
2000 1000 m 2000 1050 l 2000 900 l 1866.668 900 l 1866.668 1000 l h
2000 1000 m f*
0 g
2000 1000 m 2000 1050 l 2000 900 l 1866.668 900 l 1866.668 1000 l h
2000 1000 m S
0.85098 g
1600 800 m 1600 750 l 1600 900 l 1733.332 900 l 1733.332 800 l h
1600 800 m f*
0 g
1600 800 m 1600 750 l 1600 900 l 1733.332 900 l 1733.332 800 l h
1600 800 m S
0.85098 g
1800 850 m 1933.332 850 l 1933.332 750 l 1800 750 l 1800 900 l h
1800 850 m f*
0 g
1800 850 m 1933.332 850 l 1933.332 750 l 1800 750 l 1800 900 l h
1800 850 m S
0.85098 g
1800 650 m 1666.668 650 l 1666.668 750 l 1800 750 l 1800 600 l h
1800 650 m f*
0 g
1800 650 m 1666.668 650 l 1666.668 750 l 1800 750 l 1800 600 l h
1800 650 m S
0.85098 g
2000 700 m 2000 750 l 2000 600 l 1866.668 600 l 1866.668 700 l h
2000 700 m f*
0 g
2000 700 m 2000 750 l 2000 600 l 1866.668 600 l 1866.668 700 l h
2000 700 m S
0.85098 g
1600 500 m 1600 450 l 1600 600 l 1733.332 600 l 1733.332 500 l h
1600 500 m f*
0 g
1600 500 m 1600 450 l 1600 600 l 1733.332 600 l 1733.332 500 l h
1600 500 m S
0.85098 g
1800 550 m 1933.332 550 l 1933.332 450 l 1800 450 l 1800 600 l h
1800 550 m f*
0 g
1800 550 m 1933.332 550 l 1933.332 450 l 1800 450 l 1800 600 l h
1800 550 m S
0.85098 g
1800 350 m 1666.668 350 l 1666.668 450 l 1800 450 l 1800 300 l h
1800 350 m f*
0 g
1800 350 m 1666.668 350 l 1666.668 450 l 1800 450 l 1800 300 l h
1800 350 m S
0.85098 g
2000 400 m 2000 450 l 2000 300 l 1866.668 300 l 1866.668 400 l h
2000 400 m f*
0 g
2000 400 m 2000 450 l 2000 300 l 1866.668 300 l 1866.668 400 l h
2000 400 m S
0.85098 g
1600 200 m 1600 150 l 1600 300 l 1733.332 300 l 1733.332 200 l h
1600 200 m f*
0 g
1600 200 m 1600 150 l 1600 300 l 1733.332 300 l 1733.332 200 l h
1600 200 m S
0.85098 g
1800 250 m 1933.332 250 l 1933.332 150 l 1800 150 l 1800 300 l h
1800 250 m f*
0 g
1800 250 m 1933.332 250 l 1933.332 150 l 1800 150 l 1800 300 l h
1800 250 m S
0.85098 g
1800 50 m 1666.668 50 l 1666.668 150 l 1800 150 l 1800 0 l h
1800 50 m f*
0 g
1800 50 m 1666.668 50 l 1666.668 150 l 1800 150 l 1800 0 l h
1800 50 m S
0.85098 g
2000 100 m 2000 150 l 2000 0 l 1866.668 0 l 1866.668 100 l h
2000 100 m f*
0 g
2000 100 m 2000 150 l 2000 0 l 1866.668 0 l 1866.668 100 l h
2000 100 m S
0.85098 g
2000 1100 m 2000 1050 l 2000 1200 l 2133.332 1200 l 2133.332 1100 l h
2000 1100 m f*
0 g
2000 1100 m 2000 1050 l 2000 1200 l 2133.332 1200 l 2133.332 1100 l h
2000 1100 m S
0.85098 g
2200 1150 m 2333.332 1150 l 2333.332 1050 l 2200 1050 l 2200 1200 l h
2200 1150 m f*
0 g
2200 1150 m 2333.332 1150 l 2333.332 1050 l 2200 1050 l 2200 1200 l h
2200 1150 m S
0.85098 g
2200 950 m 2066.668 950 l 2066.668 1050 l 2200 1050 l 2200 900 l h
2200 950 m f*
0 g
2200 950 m 2066.668 950 l 2066.668 1050 l 2200 1050 l 2200 900 l h
2200 950 m S
0.85098 g
2400 1000 m 2400 1050 l 2400 900 l 2266.668 900 l 2266.668 1000 l h
2400 1000 m f*
0 g
2400 1000 m 2400 1050 l 2400 900 l 2266.668 900 l 2266.668 1000 l h
2400 1000 m S
0.85098 g
2000 800 m 2000 750 l 2000 900 l 2133.332 900 l 2133.332 800 l h
2000 800 m f*
0 g
2000 800 m 2000 750 l 2000 900 l 2133.332 900 l 2133.332 800 l h
2000 800 m S
0.85098 g
2200 850 m 2333.332 850 l 2333.332 750 l 2200 750 l 2200 900 l h
2200 850 m f*
0 g
2200 850 m 2333.332 850 l 2333.332 750 l 2200 750 l 2200 900 l h
2200 850 m S
0.85098 g
2200 650 m 2066.668 650 l 2066.668 750 l 2200 750 l 2200 600 l h
2200 650 m f*
0 g
2200 650 m 2066.668 650 l 2066.668 750 l 2200 750 l 2200 600 l h
2200 650 m S
0.85098 g
2400 700 m 2400 750 l 2400 600 l 2266.668 600 l 2266.668 700 l h
2400 700 m f*
0 g
2400 700 m 2400 750 l 2400 600 l 2266.668 600 l 2266.668 700 l h
2400 700 m S
0.85098 g
2000 500 m 2000 450 l 2000 600 l 2133.332 600 l 2133.332 500 l h
2000 500 m f*
0 g
2000 500 m 2000 450 l 2000 600 l 2133.332 600 l 2133.332 500 l h
2000 500 m S
0.85098 g
2200 550 m 2333.332 550 l 2333.332 450 l 2200 450 l 2200 600 l h
2200 550 m f*
0 g
2200 550 m 2333.332 550 l 2333.332 450 l 2200 450 l 2200 600 l h
2200 550 m S
0.85098 g
2200 350 m 2066.668 350 l 2066.668 450 l 2200 450 l 2200 300 l h
2200 350 m f*
0 g
2200 350 m 2066.668 350 l 2066.668 450 l 2200 450 l 2200 300 l h
2200 350 m S
0.85098 g
2400 400 m 2400 450 l 2400 300 l 2266.668 300 l 2266.668 400 l h
2400 400 m f*
0 g
2400 400 m 2400 450 l 2400 300 l 2266.668 300 l 2266.668 400 l h
2400 400 m S
0.85098 g
2000 200 m 2000 150 l 2000 300 l 2133.332 300 l 2133.332 200 l h
2000 200 m f*
0 g
2000 200 m 2000 150 l 2000 300 l 2133.332 300 l 2133.332 200 l h
2000 200 m S
0.85098 g
2200 250 m 2333.332 250 l 2333.332 150 l 2200 150 l 2200 300 l h
2200 250 m f*
0 g
2200 250 m 2333.332 250 l 2333.332 150 l 2200 150 l 2200 300 l h
2200 250 m S
0.85098 g
2200 50 m 2066.668 50 l 2066.668 150 l 2200 150 l 2200 0 l h
2200 50 m f*
0 g
2200 50 m 2066.668 50 l 2066.668 150 l 2200 150 l 2200 0 l h
2200 50 m S
0.85098 g
2400 100 m 2400 150 l 2400 0 l 2266.668 0 l 2266.668 100 l h
2400 100 m f*
0 g
2400 100 m 2400 150 l 2400 0 l 2266.668 0 l 2266.668 100 l h
2400 100 m S
Q Q
showpage
%%Trailer
%%Trailer
cleartomark
countdictstack
exch sub { end } repeat
restore
%%EOF
