<svg xmlns="http://www.w3.org/2000/svg" baseProfile="full" width="2400" height="1200" viewBox="-100.0 -75.0 2400.0 1200.0">
    <title>
        Pattern design from http://ornamentist.org
    </title>
    <desc>
        This file is licensed under a Creative Commons CC BY 4.0 license: http://creativecommons.org/licenses/by/4.0/
    </desc>
    <defs>
        <style>
<![CDATA[
        
polyline {
  fill:            none;
  stroke:          black;
  stroke-linecap:  round;
  stroke-linejoin: round;
  stroke-width:    2.0pt;
}


polyline.closed {
  fill:      #d9d9d9;
  fill-rule: evenodd;
}


polygon {
  fill:            #d9d9d9;
  fill-rule:       evenodd;
  stroke:          black;
  stroke-linejoin: round;
  stroke-width:    2.0pt;
}


circle {
  fill:         #d9d9d9;
  stroke:       black;
  stroke-width: 2.0pt;
}


ellipse {
  fill:         #d9d9d9;
  stroke:       black;
  stroke-width: 2.0pt;
}


path {
  fill:            none;
  stroke:          black;
  stroke-linecap:  round;
  stroke-linejoin: round;
  stroke-width:    2.0pt;
}


path.closed {
  fill:      #d9d9d9;
  fill-rule: evenodd;
}


polygon.background,
path.background
{
  fill:   #fbfbfb;
  stroke: #c9c9c9;
  stroke-width: 1.5pt;
}

        ]]>
        </style>
    </defs>
    <clipPath id="design">
        <path d="M-100-75h2400v1200H-100z"/>
    </clipPath>
    <g clip-path="url(#design)" color-rendering="optimizeQuality" shape-rendering="geometricPrecision" id="graphics">
        <path class="background closed" d="M2300-75v1200H-100V-75z"/>
        <path class="polygon-5-1 closed" d="M-100 25v50-150H33.333V25zM100-25h133.333V75H100V-75zM100 175H-33.333V75H100v150zM300 125V75v150H166.667V125zM-100 325v50-150H33.333v100zM100 275h133.333v100H100V225zM100 475H-33.333V375H100v150zM300 425v-50 150H166.667V425zM-100 625v50-150H33.333v100zM100 575h133.333v100H100V525zM100 775H-33.333V675H100v150zM300 725v-50 150H166.667V725zM-100 925v50-150H33.333v100zM100 875h133.333v100H100V825zM100 1075H-33.333V975H100v150zM300 1025v-50 150H166.667v-100zM300 25v50-150h133.333V25zM500-25h133.333V75H500V-75zM500 175H366.667V75H500v150zM700 125V75v150H566.667V125zM300 325v50-150h133.333v100zM500 275h133.333v100H500V225zM500 475H366.667V375H500v150zM700 425v-50 150H566.667V425zM300 625v50-150h133.333v100zM500 575h133.333v100H500V525zM500 775H366.667V675H500v150zM700 725v-50 150H566.667V725zM300 925v50-150h133.333v100zM500 875h133.333v100H500V825zM500 1075H366.667V975H500v150zM700 1025v-50 150H566.667v-100zM700 25v50-150h133.333V25zM900-25h133.333V75H900V-75zM900 175H766.667V75H900v150zM1100 125V75v150H966.667V125zM700 325v50-150h133.333v100zM900 275h133.333v100H900V225zM900 475H766.667V375H900v150zM1100 425v-50 150H966.667V425zM700 625v50-150h133.333v100zM900 575h133.333v100H900V525zM900 775H766.667V675H900v150zM1100 725v-50 150H966.667V725zM700 925v50-150h133.333v100zM900 875h133.333v100H900V825zM900 1075H766.667V975H900v150zM1100 1025v-50 150H966.667v-100zM1100 25v50-150h133.333V25zM1300-25h133.333V75H1300V-75zM1300 175h-133.333V75H1300v150zM1500 125V75v150h-133.333V125zM1100 325v50-150h133.333v100zM1300 275h133.333v100H1300V225zM1300 475h-133.333V375H1300v150zM1500 425v-50 150h-133.333V425zM1100 625v50-150h133.333v100zM1300 575h133.333v100H1300V525zM1300 775h-133.333V675H1300v150zM1500 725v-50 150h-133.333V725zM1100 925v50-150h133.333v100zM1300 875h133.333v100H1300V825zM1300 1075h-133.333V975H1300v150zM1500 1025v-50 150h-133.333v-100zM1500 25v50-150h133.333V25zM1700-25h133.333V75H1700V-75zM1700 175h-133.333V75H1700v150zM1900 125V75v150h-133.333V125zM1500 325v50-150h133.333v100zM1700 275h133.333v100H1700V225zM1700 475h-133.333V375H1700v150zM1900 425v-50 150h-133.333V425zM1500 625v50-150h133.333v100zM1700 575h133.333v100H1700V525zM1700 775h-133.333V675H1700v150zM1900 725v-50 150h-133.333V725zM1500 925v50-150h133.333v100zM1700 875h133.333v100H1700V825zM1700 1075h-133.333V975H1700v150zM1900 1025v-50 150h-133.333v-100zM1900 25v50-150h133.333V25zM2100-25h133.333V75H2100V-75zM2100 175h-133.333V75H2100v150zM2300 125V75v150h-133.333V125zM1900 325v50-150h133.333v100zM2100 275h133.333v100H2100V225zM2100 475h-133.333V375H2100v150zM2300 425v-50 150h-133.333V425zM1900 625v50-150h133.333v100zM2100 575h133.333v100H2100V525zM2100 775h-133.333V675H2100v150zM2300 725v-50 150h-133.333V725zM1900 925v50-150h133.333v100zM2100 875h133.333v100H2100V825zM2100 1075h-133.333V975H2100v150zM2300 1025v-50 150h-133.333v-100z"/>
    </g>
</svg>
