%!PS-Adobe-2.0 EPSF-2.0
%%BoundingBox: 0 0 2400 1200
%%HiResBoundingBox: 0.000000 0.000000 2400.000000 1200.000000
%%Creator: cairo 1.14.2 (http://cairographics.org)
%%CreationDate: Mon Sep  7 08:21:33 2015
%%DocumentData: Clean7Bit
%%LanguageLevel: 2
%%DocumentMedia: 847x423mm 2400 1200 0 () ()
%%EndComments
% EPSF created by ps2eps 1.68
%%BeginProlog
save
countdictstack
mark
newpath
/showpage {} def
/setpagedevice {pop} def
%%EndProlog
%%Page 1 1
%%BeginProlog
/languagelevel where
{ pop languagelevel } { 1 } ifelse
2 lt { /Helvetica findfont 12 scalefont setfont 50 500 moveto
  (This print job requires a PostScript Language Level 2 printer.) show
  showpage quit } if
/q { gsave } bind def
/Q { grestore } bind def
/cm { 6 array astore concat } bind def
/w { setlinewidth } bind def
/J { setlinecap } bind def
/j { setlinejoin } bind def
/M { setmiterlimit } bind def
/d { setdash } bind def
/m { moveto } bind def
/l { lineto } bind def
/c { curveto } bind def
/h { closepath } bind def
/re { exch dup neg 3 1 roll 5 3 roll moveto 0 rlineto
      0 exch rlineto 0 rlineto closepath } bind def
/S { stroke } bind def
/f { fill } bind def
/f* { eofill } bind def
/n { newpath } bind def
/W { clip } bind def
/W* { eoclip } bind def
/BT { } bind def
/ET { } bind def
/pdfmark where { pop globaldict /?pdfmark /exec load put }
    { globaldict begin /?pdfmark /pop load def /pdfmark
    /cleartomark load def end } ifelse
/BDC { mark 3 1 roll /BDC pdfmark } bind def
/EMC { mark /EMC pdfmark } bind def
/cairo_store_point { /cairo_point_y exch def /cairo_point_x exch def } def
/Tj { show currentpoint cairo_store_point } bind def
/TJ {
  {
    dup
    type /stringtype eq
    { show } { -0.001 mul 0 cairo_font_matrix dtransform rmoveto } ifelse
  } forall
  currentpoint cairo_store_point
} bind def
/cairo_selectfont { cairo_font_matrix aload pop pop pop 0 0 6 array astore
    cairo_font exch selectfont cairo_point_x cairo_point_y moveto } bind def
/Tf { pop /cairo_font exch def /cairo_font_matrix where
      { pop cairo_selectfont } if } bind def
/Td { matrix translate cairo_font_matrix matrix concatmatrix dup
      /cairo_font_matrix exch def dup 4 get exch 5 get cairo_store_point
      /cairo_font where { pop cairo_selectfont } if } bind def
/Tm { 2 copy 8 2 roll 6 array astore /cairo_font_matrix exch def
      cairo_store_point /cairo_font where { pop cairo_selectfont } if } bind def
/g { setgray } bind def
/rg { setrgbcolor } bind def
/d1 { setcachedevice } bind def
/cairo_set_page_size {
  % Change paper size, but only if different from previous paper size otherwise
  % duplex fails. PLRM specifies a tolerance of 5 pts when matching paper size
  % so we use the same when checking if the size changes.
  /setpagedevice where {
    pop currentpagedevice
    /PageSize known {
      2 copy
      currentpagedevice /PageSize get aload pop
      exch 4 1 roll
      sub abs 5 gt
      3 1 roll
      sub abs 5 gt
      or
    } {
      true
    } ifelse
    {
      2 array astore
      2 dict begin
        /PageSize exch def
        /ImagingBBox null def
      currentdict end
      setpagedevice
    } {
      pop pop
    } ifelse
  } {
    pop
  } ifelse
} def
%%EndProlog
%%BeginSetup
%%EndSetup
%%Page: 1 1
%%BeginPageSetup
%%PageMedia: 847x423mm
%%PageBoundingBox: 0 0 2400 1200
2400 1200 cairo_set_page_size
%%EndPageSetup
q 0 0 2400 1200 rectclip q
0.984314 g
0 0 2400 1200 rectfill
0.788235 g
1.875 w
0 J
1 j
[] 0.0 d
4 M 0 1200 2400 -1200 re S
0.85098 g
200 1200 m 200 1150 l 66.668 1100 l h
200 1200 m f*
0 g
2.5 w
200 1200 m 200 1150 l 66.668 1100 l h
200 1200 m S
0.85098 g
400 1050 m 266.668 1150 l 400 1100 l h
400 1050 m f*
0 g
400 1050 m 266.668 1150 l 400 1100 l h
400 1050 m S
0.85098 g
0 1050 m 133.332 950 l 0 1000 l h
0 1050 m f*
0 g
0 1050 m 133.332 950 l 0 1000 l h
0 1050 m S
0.85098 g
200 900 m 200 950 l 333.332 1000 l h
200 900 m f*
0 g
200 900 m 200 950 l 333.332 1000 l h
200 900 m S
0.85098 g
200 900 m 200 850 l 66.668 800 l h
200 900 m f*
0 g
200 900 m 200 850 l 66.668 800 l h
200 900 m S
0.85098 g
400 750 m 266.668 850 l 400 800 l h
400 750 m f*
0 g
400 750 m 266.668 850 l 400 800 l h
400 750 m S
0.85098 g
0 750 m 133.332 650 l 0 700 l h
0 750 m f*
0 g
0 750 m 133.332 650 l 0 700 l h
0 750 m S
0.85098 g
200 600 m 200 650 l 333.332 700 l h
200 600 m f*
0 g
200 600 m 200 650 l 333.332 700 l h
200 600 m S
0.85098 g
200 600 m 200 550 l 66.668 500 l h
200 600 m f*
0 g
200 600 m 200 550 l 66.668 500 l h
200 600 m S
0.85098 g
400 450 m 266.668 550 l 400 500 l h
400 450 m f*
0 g
400 450 m 266.668 550 l 400 500 l h
400 450 m S
0.85098 g
0 450 m 133.332 350 l 0 400 l h
0 450 m f*
0 g
0 450 m 133.332 350 l 0 400 l h
0 450 m S
0.85098 g
200 300 m 200 350 l 333.332 400 l h
200 300 m f*
0 g
200 300 m 200 350 l 333.332 400 l h
200 300 m S
0.85098 g
200 300 m 200 250 l 66.668 200 l h
200 300 m f*
0 g
200 300 m 200 250 l 66.668 200 l h
200 300 m S
0.85098 g
400 150 m 266.668 250 l 400 200 l h
400 150 m f*
0 g
400 150 m 266.668 250 l 400 200 l h
400 150 m S
0.85098 g
0 150 m 133.332 50 l 0 100 l h
0 150 m f*
0 g
0 150 m 133.332 50 l 0 100 l h
0 150 m S
0.85098 g
200 0 m 200 50 l 333.332 100 l h
200 0 m f*
0 g
200 0 m 200 50 l 333.332 100 l h
200 0 m S
0.85098 g
600 1200 m 600 1150 l 466.668 1100 l h
600 1200 m f*
0 g
600 1200 m 600 1150 l 466.668 1100 l h
600 1200 m S
0.85098 g
800 1050 m 666.668 1150 l 800 1100 l h
800 1050 m f*
0 g
800 1050 m 666.668 1150 l 800 1100 l h
800 1050 m S
0.85098 g
400 1050 m 533.332 950 l 400 1000 l h
400 1050 m f*
0 g
400 1050 m 533.332 950 l 400 1000 l h
400 1050 m S
0.85098 g
600 900 m 600 950 l 733.332 1000 l h
600 900 m f*
0 g
600 900 m 600 950 l 733.332 1000 l h
600 900 m S
0.85098 g
600 900 m 600 850 l 466.668 800 l h
600 900 m f*
0 g
600 900 m 600 850 l 466.668 800 l h
600 900 m S
0.85098 g
800 750 m 666.668 850 l 800 800 l h
800 750 m f*
0 g
800 750 m 666.668 850 l 800 800 l h
800 750 m S
0.85098 g
400 750 m 533.332 650 l 400 700 l h
400 750 m f*
0 g
400 750 m 533.332 650 l 400 700 l h
400 750 m S
0.85098 g
600 600 m 600 650 l 733.332 700 l h
600 600 m f*
0 g
600 600 m 600 650 l 733.332 700 l h
600 600 m S
0.85098 g
600 600 m 600 550 l 466.668 500 l h
600 600 m f*
0 g
600 600 m 600 550 l 466.668 500 l h
600 600 m S
0.85098 g
800 450 m 666.668 550 l 800 500 l h
800 450 m f*
0 g
800 450 m 666.668 550 l 800 500 l h
800 450 m S
0.85098 g
400 450 m 533.332 350 l 400 400 l h
400 450 m f*
0 g
400 450 m 533.332 350 l 400 400 l h
400 450 m S
0.85098 g
600 300 m 600 350 l 733.332 400 l h
600 300 m f*
0 g
600 300 m 600 350 l 733.332 400 l h
600 300 m S
0.85098 g
600 300 m 600 250 l 466.668 200 l h
600 300 m f*
0 g
600 300 m 600 250 l 466.668 200 l h
600 300 m S
0.85098 g
800 150 m 666.668 250 l 800 200 l h
800 150 m f*
0 g
800 150 m 666.668 250 l 800 200 l h
800 150 m S
0.85098 g
400 150 m 533.332 50 l 400 100 l h
400 150 m f*
0 g
400 150 m 533.332 50 l 400 100 l h
400 150 m S
0.85098 g
600 0 m 600 50 l 733.332 100 l h
600 0 m f*
0 g
600 0 m 600 50 l 733.332 100 l h
600 0 m S
0.85098 g
1000 1200 m 1000 1150 l 866.668 1100 l h
1000 1200 m f*
0 g
1000 1200 m 1000 1150 l 866.668 1100 l h
1000 1200 m S
0.85098 g
1200 1050 m 1066.668 1150 l 1200 1100 l h
1200 1050 m f*
0 g
1200 1050 m 1066.668 1150 l 1200 1100 l h
1200 1050 m S
0.85098 g
800 1050 m 933.332 950 l 800 1000 l h
800 1050 m f*
0 g
800 1050 m 933.332 950 l 800 1000 l h
800 1050 m S
0.85098 g
1000 900 m 1000 950 l 1133.332 1000 l h
1000 900 m f*
0 g
1000 900 m 1000 950 l 1133.332 1000 l h
1000 900 m S
0.85098 g
1000 900 m 1000 850 l 866.668 800 l h
1000 900 m f*
0 g
1000 900 m 1000 850 l 866.668 800 l h
1000 900 m S
0.85098 g
1200 750 m 1066.668 850 l 1200 800 l h
1200 750 m f*
0 g
1200 750 m 1066.668 850 l 1200 800 l h
1200 750 m S
0.85098 g
800 750 m 933.332 650 l 800 700 l h
800 750 m f*
0 g
800 750 m 933.332 650 l 800 700 l h
800 750 m S
0.85098 g
1000 600 m 1000 650 l 1133.332 700 l h
1000 600 m f*
0 g
1000 600 m 1000 650 l 1133.332 700 l h
1000 600 m S
0.85098 g
1000 600 m 1000 550 l 866.668 500 l h
1000 600 m f*
0 g
1000 600 m 1000 550 l 866.668 500 l h
1000 600 m S
0.85098 g
1200 450 m 1066.668 550 l 1200 500 l h
1200 450 m f*
0 g
1200 450 m 1066.668 550 l 1200 500 l h
1200 450 m S
0.85098 g
800 450 m 933.332 350 l 800 400 l h
800 450 m f*
0 g
800 450 m 933.332 350 l 800 400 l h
800 450 m S
0.85098 g
1000 300 m 1000 350 l 1133.332 400 l h
1000 300 m f*
0 g
1000 300 m 1000 350 l 1133.332 400 l h
1000 300 m S
0.85098 g
1000 300 m 1000 250 l 866.668 200 l h
1000 300 m f*
0 g
1000 300 m 1000 250 l 866.668 200 l h
1000 300 m S
0.85098 g
1200 150 m 1066.668 250 l 1200 200 l h
1200 150 m f*
0 g
1200 150 m 1066.668 250 l 1200 200 l h
1200 150 m S
0.85098 g
800 150 m 933.332 50 l 800 100 l h
800 150 m f*
0 g
800 150 m 933.332 50 l 800 100 l h
800 150 m S
0.85098 g
1000 0 m 1000 50 l 1133.332 100 l h
1000 0 m f*
0 g
1000 0 m 1000 50 l 1133.332 100 l h
1000 0 m S
0.85098 g
1400 1200 m 1400 1150 l 1266.668 1100 l h
1400 1200 m f*
0 g
1400 1200 m 1400 1150 l 1266.668 1100 l h
1400 1200 m S
0.85098 g
1600 1050 m 1466.668 1150 l 1600 1100 l h
1600 1050 m f*
0 g
1600 1050 m 1466.668 1150 l 1600 1100 l h
1600 1050 m S
0.85098 g
1200 1050 m 1333.332 950 l 1200 1000 l h
1200 1050 m f*
0 g
1200 1050 m 1333.332 950 l 1200 1000 l h
1200 1050 m S
0.85098 g
1400 900 m 1400 950 l 1533.332 1000 l h
1400 900 m f*
0 g
1400 900 m 1400 950 l 1533.332 1000 l h
1400 900 m S
0.85098 g
1400 900 m 1400 850 l 1266.668 800 l h
1400 900 m f*
0 g
1400 900 m 1400 850 l 1266.668 800 l h
1400 900 m S
0.85098 g
1600 750 m 1466.668 850 l 1600 800 l h
1600 750 m f*
0 g
1600 750 m 1466.668 850 l 1600 800 l h
1600 750 m S
0.85098 g
1200 750 m 1333.332 650 l 1200 700 l h
1200 750 m f*
0 g
1200 750 m 1333.332 650 l 1200 700 l h
1200 750 m S
0.85098 g
1400 600 m 1400 650 l 1533.332 700 l h
1400 600 m f*
0 g
1400 600 m 1400 650 l 1533.332 700 l h
1400 600 m S
0.85098 g
1400 600 m 1400 550 l 1266.668 500 l h
1400 600 m f*
0 g
1400 600 m 1400 550 l 1266.668 500 l h
1400 600 m S
0.85098 g
1600 450 m 1466.668 550 l 1600 500 l h
1600 450 m f*
0 g
1600 450 m 1466.668 550 l 1600 500 l h
1600 450 m S
0.85098 g
1200 450 m 1333.332 350 l 1200 400 l h
1200 450 m f*
0 g
1200 450 m 1333.332 350 l 1200 400 l h
1200 450 m S
0.85098 g
1400 300 m 1400 350 l 1533.332 400 l h
1400 300 m f*
0 g
1400 300 m 1400 350 l 1533.332 400 l h
1400 300 m S
0.85098 g
1400 300 m 1400 250 l 1266.668 200 l h
1400 300 m f*
0 g
1400 300 m 1400 250 l 1266.668 200 l h
1400 300 m S
0.85098 g
1600 150 m 1466.668 250 l 1600 200 l h
1600 150 m f*
0 g
1600 150 m 1466.668 250 l 1600 200 l h
1600 150 m S
0.85098 g
1200 150 m 1333.332 50 l 1200 100 l h
1200 150 m f*
0 g
1200 150 m 1333.332 50 l 1200 100 l h
1200 150 m S
0.85098 g
1400 0 m 1400 50 l 1533.332 100 l h
1400 0 m f*
0 g
1400 0 m 1400 50 l 1533.332 100 l h
1400 0 m S
0.85098 g
1800 1200 m 1800 1150 l 1666.668 1100 l h
1800 1200 m f*
0 g
1800 1200 m 1800 1150 l 1666.668 1100 l h
1800 1200 m S
0.85098 g
2000 1050 m 1866.668 1150 l 2000 1100 l h
2000 1050 m f*
0 g
2000 1050 m 1866.668 1150 l 2000 1100 l h
2000 1050 m S
0.85098 g
1600 1050 m 1733.332 950 l 1600 1000 l h
1600 1050 m f*
0 g
1600 1050 m 1733.332 950 l 1600 1000 l h
1600 1050 m S
0.85098 g
1800 900 m 1800 950 l 1933.332 1000 l h
1800 900 m f*
0 g
1800 900 m 1800 950 l 1933.332 1000 l h
1800 900 m S
0.85098 g
1800 900 m 1800 850 l 1666.668 800 l h
1800 900 m f*
0 g
1800 900 m 1800 850 l 1666.668 800 l h
1800 900 m S
0.85098 g
2000 750 m 1866.668 850 l 2000 800 l h
2000 750 m f*
0 g
2000 750 m 1866.668 850 l 2000 800 l h
2000 750 m S
0.85098 g
1600 750 m 1733.332 650 l 1600 700 l h
1600 750 m f*
0 g
1600 750 m 1733.332 650 l 1600 700 l h
1600 750 m S
0.85098 g
1800 600 m 1800 650 l 1933.332 700 l h
1800 600 m f*
0 g
1800 600 m 1800 650 l 1933.332 700 l h
1800 600 m S
0.85098 g
1800 600 m 1800 550 l 1666.668 500 l h
1800 600 m f*
0 g
1800 600 m 1800 550 l 1666.668 500 l h
1800 600 m S
0.85098 g
2000 450 m 1866.668 550 l 2000 500 l h
2000 450 m f*
0 g
2000 450 m 1866.668 550 l 2000 500 l h
2000 450 m S
0.85098 g
1600 450 m 1733.332 350 l 1600 400 l h
1600 450 m f*
0 g
1600 450 m 1733.332 350 l 1600 400 l h
1600 450 m S
0.85098 g
1800 300 m 1800 350 l 1933.332 400 l h
1800 300 m f*
0 g
1800 300 m 1800 350 l 1933.332 400 l h
1800 300 m S
0.85098 g
1800 300 m 1800 250 l 1666.668 200 l h
1800 300 m f*
0 g
1800 300 m 1800 250 l 1666.668 200 l h
1800 300 m S
0.85098 g
2000 150 m 1866.668 250 l 2000 200 l h
2000 150 m f*
0 g
2000 150 m 1866.668 250 l 2000 200 l h
2000 150 m S
0.85098 g
1600 150 m 1733.332 50 l 1600 100 l h
1600 150 m f*
0 g
1600 150 m 1733.332 50 l 1600 100 l h
1600 150 m S
0.85098 g
1800 0 m 1800 50 l 1933.332 100 l h
1800 0 m f*
0 g
1800 0 m 1800 50 l 1933.332 100 l h
1800 0 m S
0.85098 g
2200 1200 m 2200 1150 l 2066.668 1100 l h
2200 1200 m f*
0 g
2200 1200 m 2200 1150 l 2066.668 1100 l h
2200 1200 m S
0.85098 g
2400 1050 m 2266.668 1150 l 2400 1100 l h
2400 1050 m f*
0 g
2400 1050 m 2266.668 1150 l 2400 1100 l h
2400 1050 m S
0.85098 g
2000 1050 m 2133.332 950 l 2000 1000 l h
2000 1050 m f*
0 g
2000 1050 m 2133.332 950 l 2000 1000 l h
2000 1050 m S
0.85098 g
2200 900 m 2200 950 l 2333.332 1000 l h
2200 900 m f*
0 g
2200 900 m 2200 950 l 2333.332 1000 l h
2200 900 m S
0.85098 g
2200 900 m 2200 850 l 2066.668 800 l h
2200 900 m f*
0 g
2200 900 m 2200 850 l 2066.668 800 l h
2200 900 m S
0.85098 g
2400 750 m 2266.668 850 l 2400 800 l h
2400 750 m f*
0 g
2400 750 m 2266.668 850 l 2400 800 l h
2400 750 m S
0.85098 g
2000 750 m 2133.332 650 l 2000 700 l h
2000 750 m f*
0 g
2000 750 m 2133.332 650 l 2000 700 l h
2000 750 m S
0.85098 g
2200 600 m 2200 650 l 2333.332 700 l h
2200 600 m f*
0 g
2200 600 m 2200 650 l 2333.332 700 l h
2200 600 m S
0.85098 g
2200 600 m 2200 550 l 2066.668 500 l h
2200 600 m f*
0 g
2200 600 m 2200 550 l 2066.668 500 l h
2200 600 m S
0.85098 g
2400 450 m 2266.668 550 l 2400 500 l h
2400 450 m f*
0 g
2400 450 m 2266.668 550 l 2400 500 l h
2400 450 m S
0.85098 g
2000 450 m 2133.332 350 l 2000 400 l h
2000 450 m f*
0 g
2000 450 m 2133.332 350 l 2000 400 l h
2000 450 m S
0.85098 g
2200 300 m 2200 350 l 2333.332 400 l h
2200 300 m f*
0 g
2200 300 m 2200 350 l 2333.332 400 l h
2200 300 m S
0.85098 g
2200 300 m 2200 250 l 2066.668 200 l h
2200 300 m f*
0 g
2200 300 m 2200 250 l 2066.668 200 l h
2200 300 m S
0.85098 g
2400 150 m 2266.668 250 l 2400 200 l h
2400 150 m f*
0 g
2400 150 m 2266.668 250 l 2400 200 l h
2400 150 m S
0.85098 g
2000 150 m 2133.332 50 l 2000 100 l h
2000 150 m f*
0 g
2000 150 m 2133.332 50 l 2000 100 l h
2000 150 m S
0.85098 g
2200 0 m 2200 50 l 2333.332 100 l h
2200 0 m f*
0 g
2200 0 m 2200 50 l 2333.332 100 l h
2200 0 m S
Q Q
showpage
%%Trailer
%%Trailer
cleartomark
countdictstack
exch sub { end } repeat
restore
%%EOF
