%!PS-Adobe-2.0 EPSF-2.0
%%BoundingBox: 0 0 2400 1200
%%HiResBoundingBox: 0.000000 0.000000 2400.000000 1200.000000
%%Creator: cairo 1.14.2 (http://cairographics.org)
%%CreationDate: Mon Sep  7 08:21:33 2015
%%DocumentData: Clean7Bit
%%LanguageLevel: 2
%%DocumentMedia: 847x423mm 2400 1200 0 () ()
%%EndComments
% EPSF created by ps2eps 1.68
%%BeginProlog
save
countdictstack
mark
newpath
/showpage {} def
/setpagedevice {pop} def
%%EndProlog
%%Page 1 1
%%BeginProlog
/languagelevel where
{ pop languagelevel } { 1 } ifelse
2 lt { /Helvetica findfont 12 scalefont setfont 50 500 moveto
  (This print job requires a PostScript Language Level 2 printer.) show
  showpage quit } if
/q { gsave } bind def
/Q { grestore } bind def
/cm { 6 array astore concat } bind def
/w { setlinewidth } bind def
/J { setlinecap } bind def
/j { setlinejoin } bind def
/M { setmiterlimit } bind def
/d { setdash } bind def
/m { moveto } bind def
/l { lineto } bind def
/c { curveto } bind def
/h { closepath } bind def
/re { exch dup neg 3 1 roll 5 3 roll moveto 0 rlineto
      0 exch rlineto 0 rlineto closepath } bind def
/S { stroke } bind def
/f { fill } bind def
/f* { eofill } bind def
/n { newpath } bind def
/W { clip } bind def
/W* { eoclip } bind def
/BT { } bind def
/ET { } bind def
/pdfmark where { pop globaldict /?pdfmark /exec load put }
    { globaldict begin /?pdfmark /pop load def /pdfmark
    /cleartomark load def end } ifelse
/BDC { mark 3 1 roll /BDC pdfmark } bind def
/EMC { mark /EMC pdfmark } bind def
/cairo_store_point { /cairo_point_y exch def /cairo_point_x exch def } def
/Tj { show currentpoint cairo_store_point } bind def
/TJ {
  {
    dup
    type /stringtype eq
    { show } { -0.001 mul 0 cairo_font_matrix dtransform rmoveto } ifelse
  } forall
  currentpoint cairo_store_point
} bind def
/cairo_selectfont { cairo_font_matrix aload pop pop pop 0 0 6 array astore
    cairo_font exch selectfont cairo_point_x cairo_point_y moveto } bind def
/Tf { pop /cairo_font exch def /cairo_font_matrix where
      { pop cairo_selectfont } if } bind def
/Td { matrix translate cairo_font_matrix matrix concatmatrix dup
      /cairo_font_matrix exch def dup 4 get exch 5 get cairo_store_point
      /cairo_font where { pop cairo_selectfont } if } bind def
/Tm { 2 copy 8 2 roll 6 array astore /cairo_font_matrix exch def
      cairo_store_point /cairo_font where { pop cairo_selectfont } if } bind def
/g { setgray } bind def
/rg { setrgbcolor } bind def
/d1 { setcachedevice } bind def
/cairo_set_page_size {
  % Change paper size, but only if different from previous paper size otherwise
  % duplex fails. PLRM specifies a tolerance of 5 pts when matching paper size
  % so we use the same when checking if the size changes.
  /setpagedevice where {
    pop currentpagedevice
    /PageSize known {
      2 copy
      currentpagedevice /PageSize get aload pop
      exch 4 1 roll
      sub abs 5 gt
      3 1 roll
      sub abs 5 gt
      or
    } {
      true
    } ifelse
    {
      2 array astore
      2 dict begin
        /PageSize exch def
        /ImagingBBox null def
      currentdict end
      setpagedevice
    } {
      pop pop
    } ifelse
  } {
    pop
  } ifelse
} def
%%EndProlog
%%BeginSetup
%%EndSetup
%%Page: 1 1
%%BeginPageSetup
%%PageMedia: 847x423mm
%%PageBoundingBox: 0 0 2400 1200
2400 1200 cairo_set_page_size
%%EndPageSetup
q 0 0 2400 1200 rectclip q
0.984314 g
0 0 2400 1200 rectfill
0.788235 g
1.875 w
0 J
1 j
[] 0.0 d
4 M 0 1200 2400 -1200 re S
0 g
2.5 w
1 J
100 1200 m 200 1050 l 100 1050 l 0 1200 l S
100 900 m 200 1050 l 100 1050 l 0 900 l S
300 1050 m 200 900 l 300 900 l 400 1050 l S
300 1050 m 200 1200 l 300 1200 l 400 1050 l S
100 900 m 200 750 l 100 750 l 0 900 l S
100 600 m 200 750 l 100 750 l 0 600 l S
300 750 m 200 600 l 300 600 l 400 750 l S
300 750 m 200 900 l 300 900 l 400 750 l S
100 600 m 200 450 l 100 450 l 0 600 l S
100 300 m 200 450 l 100 450 l 0 300 l S
300 450 m 200 300 l 300 300 l 400 450 l S
300 450 m 200 600 l 300 600 l 400 450 l S
100 300 m 200 150 l 100 150 l 0 300 l S
100 0 m 200 150 l 100 150 l 0 0 l S
300 150 m 200 0 l 300 0 l 400 150 l S
300 150 m 200 300 l 300 300 l 400 150 l S
500 1200 m 600 1050 l 500 1050 l 400 1200 l S
500 900 m 600 1050 l 500 1050 l 400 900 l S
700 1050 m 600 900 l 700 900 l 800 1050 l S
700 1050 m 600 1200 l 700 1200 l 800 1050 l S
500 900 m 600 750 l 500 750 l 400 900 l S
500 600 m 600 750 l 500 750 l 400 600 l S
700 750 m 600 600 l 700 600 l 800 750 l S
700 750 m 600 900 l 700 900 l 800 750 l S
500 600 m 600 450 l 500 450 l 400 600 l S
500 300 m 600 450 l 500 450 l 400 300 l S
700 450 m 600 300 l 700 300 l 800 450 l S
700 450 m 600 600 l 700 600 l 800 450 l S
500 300 m 600 150 l 500 150 l 400 300 l S
500 0 m 600 150 l 500 150 l 400 0 l S
700 150 m 600 0 l 700 0 l 800 150 l S
700 150 m 600 300 l 700 300 l 800 150 l S
900 1200 m 1000 1050 l 900 1050 l 800 1200 l S
900 900 m 1000 1050 l 900 1050 l 800 900 l S
1100 1050 m 1000 900 l 1100 900 l 1200 1050 l S
1100 1050 m 1000 1200 l 1100 1200 l 1200 1050 l S
900 900 m 1000 750 l 900 750 l 800 900 l S
900 600 m 1000 750 l 900 750 l 800 600 l S
1100 750 m 1000 600 l 1100 600 l 1200 750 l S
1100 750 m 1000 900 l 1100 900 l 1200 750 l S
900 600 m 1000 450 l 900 450 l 800 600 l S
900 300 m 1000 450 l 900 450 l 800 300 l S
1100 450 m 1000 300 l 1100 300 l 1200 450 l S
1100 450 m 1000 600 l 1100 600 l 1200 450 l S
900 300 m 1000 150 l 900 150 l 800 300 l S
900 0 m 1000 150 l 900 150 l 800 0 l S
1100 150 m 1000 0 l 1100 0 l 1200 150 l S
1100 150 m 1000 300 l 1100 300 l 1200 150 l S
1300 1200 m 1400 1050 l 1300 1050 l 1200 1200 l S
1300 900 m 1400 1050 l 1300 1050 l 1200 900 l S
1500 1050 m 1400 900 l 1500 900 l 1600 1050 l S
1500 1050 m 1400 1200 l 1500 1200 l 1600 1050 l S
1300 900 m 1400 750 l 1300 750 l 1200 900 l S
1300 600 m 1400 750 l 1300 750 l 1200 600 l S
1500 750 m 1400 600 l 1500 600 l 1600 750 l S
1500 750 m 1400 900 l 1500 900 l 1600 750 l S
1300 600 m 1400 450 l 1300 450 l 1200 600 l S
1300 300 m 1400 450 l 1300 450 l 1200 300 l S
1500 450 m 1400 300 l 1500 300 l 1600 450 l S
1500 450 m 1400 600 l 1500 600 l 1600 450 l S
1300 300 m 1400 150 l 1300 150 l 1200 300 l S
1300 0 m 1400 150 l 1300 150 l 1200 0 l S
1500 150 m 1400 0 l 1500 0 l 1600 150 l S
1500 150 m 1400 300 l 1500 300 l 1600 150 l S
1700 1200 m 1800 1050 l 1700 1050 l 1600 1200 l S
1700 900 m 1800 1050 l 1700 1050 l 1600 900 l S
1900 1050 m 1800 900 l 1900 900 l 2000 1050 l S
1900 1050 m 1800 1200 l 1900 1200 l 2000 1050 l S
1700 900 m 1800 750 l 1700 750 l 1600 900 l S
1700 600 m 1800 750 l 1700 750 l 1600 600 l S
1900 750 m 1800 600 l 1900 600 l 2000 750 l S
1900 750 m 1800 900 l 1900 900 l 2000 750 l S
1700 600 m 1800 450 l 1700 450 l 1600 600 l S
1700 300 m 1800 450 l 1700 450 l 1600 300 l S
1900 450 m 1800 300 l 1900 300 l 2000 450 l S
1900 450 m 1800 600 l 1900 600 l 2000 450 l S
1700 300 m 1800 150 l 1700 150 l 1600 300 l S
1700 0 m 1800 150 l 1700 150 l 1600 0 l S
1900 150 m 1800 0 l 1900 0 l 2000 150 l S
1900 150 m 1800 300 l 1900 300 l 2000 150 l S
2100 1200 m 2200 1050 l 2100 1050 l 2000 1200 l S
2100 900 m 2200 1050 l 2100 1050 l 2000 900 l S
2300 1050 m 2200 900 l 2300 900 l 2400 1050 l S
2300 1050 m 2200 1200 l 2300 1200 l 2400 1050 l S
2100 900 m 2200 750 l 2100 750 l 2000 900 l S
2100 600 m 2200 750 l 2100 750 l 2000 600 l S
2300 750 m 2200 600 l 2300 600 l 2400 750 l S
2300 750 m 2200 900 l 2300 900 l 2400 750 l S
2100 600 m 2200 450 l 2100 450 l 2000 600 l S
2100 300 m 2200 450 l 2100 450 l 2000 300 l S
2300 450 m 2200 300 l 2300 300 l 2400 450 l S
2300 450 m 2200 600 l 2300 600 l 2400 450 l S
2100 300 m 2200 150 l 2100 150 l 2000 300 l S
2100 0 m 2200 150 l 2100 150 l 2000 0 l S
2300 150 m 2200 0 l 2300 0 l 2400 150 l S
2300 150 m 2200 300 l 2300 300 l 2400 150 l S
Q Q
showpage
%%Trailer
%%Trailer
cleartomark
countdictstack
exch sub { end } repeat
restore
%%EOF
