%!PS-Adobe-2.0 EPSF-2.0
%%BoundingBox: 0 0 2400 1200
%%HiResBoundingBox: 0.000000 0.000000 2400.000000 1200.000000
%%Creator: cairo 1.14.2 (http://cairographics.org)
%%CreationDate: Mon Sep  7 08:21:33 2015
%%DocumentData: Clean7Bit
%%LanguageLevel: 2
%%DocumentMedia: 847x423mm 2400 1200 0 () ()
%%EndComments
% EPSF created by ps2eps 1.68
%%BeginProlog
save
countdictstack
mark
newpath
/showpage {} def
/setpagedevice {pop} def
%%EndProlog
%%Page 1 1
%%BeginProlog
/languagelevel where
{ pop languagelevel } { 1 } ifelse
2 lt { /Helvetica findfont 12 scalefont setfont 50 500 moveto
  (This print job requires a PostScript Language Level 2 printer.) show
  showpage quit } if
/q { gsave } bind def
/Q { grestore } bind def
/cm { 6 array astore concat } bind def
/w { setlinewidth } bind def
/J { setlinecap } bind def
/j { setlinejoin } bind def
/M { setmiterlimit } bind def
/d { setdash } bind def
/m { moveto } bind def
/l { lineto } bind def
/c { curveto } bind def
/h { closepath } bind def
/re { exch dup neg 3 1 roll 5 3 roll moveto 0 rlineto
      0 exch rlineto 0 rlineto closepath } bind def
/S { stroke } bind def
/f { fill } bind def
/f* { eofill } bind def
/n { newpath } bind def
/W { clip } bind def
/W* { eoclip } bind def
/BT { } bind def
/ET { } bind def
/pdfmark where { pop globaldict /?pdfmark /exec load put }
    { globaldict begin /?pdfmark /pop load def /pdfmark
    /cleartomark load def end } ifelse
/BDC { mark 3 1 roll /BDC pdfmark } bind def
/EMC { mark /EMC pdfmark } bind def
/cairo_store_point { /cairo_point_y exch def /cairo_point_x exch def } def
/Tj { show currentpoint cairo_store_point } bind def
/TJ {
  {
    dup
    type /stringtype eq
    { show } { -0.001 mul 0 cairo_font_matrix dtransform rmoveto } ifelse
  } forall
  currentpoint cairo_store_point
} bind def
/cairo_selectfont { cairo_font_matrix aload pop pop pop 0 0 6 array astore
    cairo_font exch selectfont cairo_point_x cairo_point_y moveto } bind def
/Tf { pop /cairo_font exch def /cairo_font_matrix where
      { pop cairo_selectfont } if } bind def
/Td { matrix translate cairo_font_matrix matrix concatmatrix dup
      /cairo_font_matrix exch def dup 4 get exch 5 get cairo_store_point
      /cairo_font where { pop cairo_selectfont } if } bind def
/Tm { 2 copy 8 2 roll 6 array astore /cairo_font_matrix exch def
      cairo_store_point /cairo_font where { pop cairo_selectfont } if } bind def
/g { setgray } bind def
/rg { setrgbcolor } bind def
/d1 { setcachedevice } bind def
/cairo_set_page_size {
  % Change paper size, but only if different from previous paper size otherwise
  % duplex fails. PLRM specifies a tolerance of 5 pts when matching paper size
  % so we use the same when checking if the size changes.
  /setpagedevice where {
    pop currentpagedevice
    /PageSize known {
      2 copy
      currentpagedevice /PageSize get aload pop
      exch 4 1 roll
      sub abs 5 gt
      3 1 roll
      sub abs 5 gt
      or
    } {
      true
    } ifelse
    {
      2 array astore
      2 dict begin
        /PageSize exch def
        /ImagingBBox null def
      currentdict end
      setpagedevice
    } {
      pop pop
    } ifelse
  } {
    pop
  } ifelse
} def
%%EndProlog
%%BeginSetup
%%EndSetup
%%Page: 1 1
%%BeginPageSetup
%%PageMedia: 847x423mm
%%PageBoundingBox: 0 0 2400 1200
2400 1200 cairo_set_page_size
%%EndPageSetup
q 0 0 2400 1200 rectclip q
0.984314 g
0 0 2400 1200 rectfill
0.788235 g
1.875 w
0 J
1 j
[] 0.0 d
4 M 0 1200 2400 -1200 re S
0 g
2.5 w
1 J
200 1200 m 100 1125 l 0 1200 l S
200 900 m 100 975 l 0 900 l S
200 1050 m 300 975 l 400 1050 l S
200 1050 m 300 1125 l 400 1050 l S
200 900 m 100 825 l 0 900 l S
200 600 m 100 675 l 0 600 l S
200 750 m 300 675 l 400 750 l S
200 750 m 300 825 l 400 750 l S
200 600 m 100 525 l 0 600 l S
200 300 m 100 375 l 0 300 l S
200 450 m 300 375 l 400 450 l S
200 450 m 300 525 l 400 450 l S
200 300 m 100 225 l 0 300 l S
200 0 m 100 75 l 0 0 l S
200 150 m 300 75 l 400 150 l S
200 150 m 300 225 l 400 150 l S
600 1200 m 500 1125 l 400 1200 l S
600 900 m 500 975 l 400 900 l S
600 1050 m 700 975 l 800 1050 l S
600 1050 m 700 1125 l 800 1050 l S
600 900 m 500 825 l 400 900 l S
600 600 m 500 675 l 400 600 l S
600 750 m 700 675 l 800 750 l S
600 750 m 700 825 l 800 750 l S
600 600 m 500 525 l 400 600 l S
600 300 m 500 375 l 400 300 l S
600 450 m 700 375 l 800 450 l S
600 450 m 700 525 l 800 450 l S
600 300 m 500 225 l 400 300 l S
600 0 m 500 75 l 400 0 l S
600 150 m 700 75 l 800 150 l S
600 150 m 700 225 l 800 150 l S
1000 1200 m 900 1125 l 800 1200 l S
1000 900 m 900 975 l 800 900 l S
1000 1050 m 1100 975 l 1200 1050 l S
1000 1050 m 1100 1125 l 1200 1050 l S
1000 900 m 900 825 l 800 900 l S
1000 600 m 900 675 l 800 600 l S
1000 750 m 1100 675 l 1200 750 l S
1000 750 m 1100 825 l 1200 750 l S
1000 600 m 900 525 l 800 600 l S
1000 300 m 900 375 l 800 300 l S
1000 450 m 1100 375 l 1200 450 l S
1000 450 m 1100 525 l 1200 450 l S
1000 300 m 900 225 l 800 300 l S
1000 0 m 900 75 l 800 0 l S
1000 150 m 1100 75 l 1200 150 l S
1000 150 m 1100 225 l 1200 150 l S
1400 1200 m 1300 1125 l 1200 1200 l S
1400 900 m 1300 975 l 1200 900 l S
1400 1050 m 1500 975 l 1600 1050 l S
1400 1050 m 1500 1125 l 1600 1050 l S
1400 900 m 1300 825 l 1200 900 l S
1400 600 m 1300 675 l 1200 600 l S
1400 750 m 1500 675 l 1600 750 l S
1400 750 m 1500 825 l 1600 750 l S
1400 600 m 1300 525 l 1200 600 l S
1400 300 m 1300 375 l 1200 300 l S
1400 450 m 1500 375 l 1600 450 l S
1400 450 m 1500 525 l 1600 450 l S
1400 300 m 1300 225 l 1200 300 l S
1400 0 m 1300 75 l 1200 0 l S
1400 150 m 1500 75 l 1600 150 l S
1400 150 m 1500 225 l 1600 150 l S
1800 1200 m 1700 1125 l 1600 1200 l S
1800 900 m 1700 975 l 1600 900 l S
1800 1050 m 1900 975 l 2000 1050 l S
1800 1050 m 1900 1125 l 2000 1050 l S
1800 900 m 1700 825 l 1600 900 l S
1800 600 m 1700 675 l 1600 600 l S
1800 750 m 1900 675 l 2000 750 l S
1800 750 m 1900 825 l 2000 750 l S
1800 600 m 1700 525 l 1600 600 l S
1800 300 m 1700 375 l 1600 300 l S
1800 450 m 1900 375 l 2000 450 l S
1800 450 m 1900 525 l 2000 450 l S
1800 300 m 1700 225 l 1600 300 l S
1800 0 m 1700 75 l 1600 0 l S
1800 150 m 1900 75 l 2000 150 l S
1800 150 m 1900 225 l 2000 150 l S
2200 1200 m 2100 1125 l 2000 1200 l S
2200 900 m 2100 975 l 2000 900 l S
2200 1050 m 2300 975 l 2400 1050 l S
2200 1050 m 2300 1125 l 2400 1050 l S
2200 900 m 2100 825 l 2000 900 l S
2200 600 m 2100 675 l 2000 600 l S
2200 750 m 2300 675 l 2400 750 l S
2200 750 m 2300 825 l 2400 750 l S
2200 600 m 2100 525 l 2000 600 l S
2200 300 m 2100 375 l 2000 300 l S
2200 450 m 2300 375 l 2400 450 l S
2200 450 m 2300 525 l 2400 450 l S
2200 300 m 2100 225 l 2000 300 l S
2200 0 m 2100 75 l 2000 0 l S
2200 150 m 2300 75 l 2400 150 l S
2200 150 m 2300 225 l 2400 150 l S
Q Q
showpage
%%Trailer
%%Trailer
cleartomark
countdictstack
exch sub { end } repeat
restore
%%EOF
