%!PS-Adobe-2.0 EPSF-2.0
%%BoundingBox: 0 0 2400 1200
%%HiResBoundingBox: 0.000000 0.000000 2400.000000 1200.000000
%%Creator: cairo 1.14.2 (http://cairographics.org)
%%CreationDate: Mon Sep  7 08:21:33 2015
%%DocumentData: Clean7Bit
%%LanguageLevel: 2
%%DocumentMedia: 847x423mm 2400 1200 0 () ()
%%EndComments
% EPSF created by ps2eps 1.68
%%BeginProlog
save
countdictstack
mark
newpath
/showpage {} def
/setpagedevice {pop} def
%%EndProlog
%%Page 1 1
%%BeginProlog
/languagelevel where
{ pop languagelevel } { 1 } ifelse
2 lt { /Helvetica findfont 12 scalefont setfont 50 500 moveto
  (This print job requires a PostScript Language Level 2 printer.) show
  showpage quit } if
/q { gsave } bind def
/Q { grestore } bind def
/cm { 6 array astore concat } bind def
/w { setlinewidth } bind def
/J { setlinecap } bind def
/j { setlinejoin } bind def
/M { setmiterlimit } bind def
/d { setdash } bind def
/m { moveto } bind def
/l { lineto } bind def
/c { curveto } bind def
/h { closepath } bind def
/re { exch dup neg 3 1 roll 5 3 roll moveto 0 rlineto
      0 exch rlineto 0 rlineto closepath } bind def
/S { stroke } bind def
/f { fill } bind def
/f* { eofill } bind def
/n { newpath } bind def
/W { clip } bind def
/W* { eoclip } bind def
/BT { } bind def
/ET { } bind def
/pdfmark where { pop globaldict /?pdfmark /exec load put }
    { globaldict begin /?pdfmark /pop load def /pdfmark
    /cleartomark load def end } ifelse
/BDC { mark 3 1 roll /BDC pdfmark } bind def
/EMC { mark /EMC pdfmark } bind def
/cairo_store_point { /cairo_point_y exch def /cairo_point_x exch def } def
/Tj { show currentpoint cairo_store_point } bind def
/TJ {
  {
    dup
    type /stringtype eq
    { show } { -0.001 mul 0 cairo_font_matrix dtransform rmoveto } ifelse
  } forall
  currentpoint cairo_store_point
} bind def
/cairo_selectfont { cairo_font_matrix aload pop pop pop 0 0 6 array astore
    cairo_font exch selectfont cairo_point_x cairo_point_y moveto } bind def
/Tf { pop /cairo_font exch def /cairo_font_matrix where
      { pop cairo_selectfont } if } bind def
/Td { matrix translate cairo_font_matrix matrix concatmatrix dup
      /cairo_font_matrix exch def dup 4 get exch 5 get cairo_store_point
      /cairo_font where { pop cairo_selectfont } if } bind def
/Tm { 2 copy 8 2 roll 6 array astore /cairo_font_matrix exch def
      cairo_store_point /cairo_font where { pop cairo_selectfont } if } bind def
/g { setgray } bind def
/rg { setrgbcolor } bind def
/d1 { setcachedevice } bind def
/cairo_set_page_size {
  % Change paper size, but only if different from previous paper size otherwise
  % duplex fails. PLRM specifies a tolerance of 5 pts when matching paper size
  % so we use the same when checking if the size changes.
  /setpagedevice where {
    pop currentpagedevice
    /PageSize known {
      2 copy
      currentpagedevice /PageSize get aload pop
      exch 4 1 roll
      sub abs 5 gt
      3 1 roll
      sub abs 5 gt
      or
    } {
      true
    } ifelse
    {
      2 array astore
      2 dict begin
        /PageSize exch def
        /ImagingBBox null def
      currentdict end
      setpagedevice
    } {
      pop pop
    } ifelse
  } {
    pop
  } ifelse
} def
%%EndProlog
%%BeginSetup
%%EndSetup
%%Page: 1 1
%%BeginPageSetup
%%PageMedia: 847x423mm
%%PageBoundingBox: 0 0 2400 1200
2400 1200 cairo_set_page_size
%%EndPageSetup
q 0 0 2400 1200 rectclip q
0.984314 g
0 0 2400 1200 rectfill
0.788235 g
1.875 w
0 J
1 j
[] 0.0 d
4 M 0 1200 2400 -1200 re S
0 g
2.5 w
1 J
200 1050 m 0 1050 200 1200 133.332 1100 c S
200 1050 m 400 1050 200 1200 266.668 1100 c S
200 1050 m 0 1050 200 900 133.332 1000 c S
200 1050 m 400 1050 200 900 266.668 1000 c S
200 750 m 0 750 200 900 133.332 800 c S
200 750 m 400 750 200 900 266.668 800 c S
200 750 m 0 750 200 600 133.332 700 c S
200 750 m 400 750 200 600 266.668 700 c S
200 450 m 0 450 200 600 133.332 500 c S
200 450 m 400 450 200 600 266.668 500 c S
200 450 m 0 450 200 300 133.332 400 c S
200 450 m 400 450 200 300 266.668 400 c S
200 150 m 0 150 200 300 133.332 200 c S
200 150 m 400 150 200 300 266.668 200 c S
200 150 m 0 150 200 0 133.332 100 c S
200 150 m 400 150 200 0 266.668 100 c S
600 1050 m 400 1050 600 1200 533.332 1100 c S
600 1050 m 800 1050 600 1200 666.668 1100 c S
600 1050 m 400 1050 600 900 533.332 1000 c S
600 1050 m 800 1050 600 900 666.668 1000 c S
600 750 m 400 750 600 900 533.332 800 c S
600 750 m 800 750 600 900 666.668 800 c S
600 750 m 400 750 600 600 533.332 700 c S
600 750 m 800 750 600 600 666.668 700 c S
600 450 m 400 450 600 600 533.332 500 c S
600 450 m 800 450 600 600 666.668 500 c S
600 450 m 400 450 600 300 533.332 400 c S
600 450 m 800 450 600 300 666.668 400 c S
600 150 m 400 150 600 300 533.332 200 c S
600 150 m 800 150 600 300 666.668 200 c S
600 150 m 400 150 600 0 533.332 100 c S
600 150 m 800 150 600 0 666.668 100 c S
1000 1050 m 800 1050 1000 1200 933.332 1100 c S
1000 1050 m 1200 1050 1000 1200 1066.668 1100 c S
1000 1050 m 800 1050 1000 900 933.332 1000 c S
1000 1050 m 1200 1050 1000 900 1066.668 1000 c S
1000 750 m 800 750 1000 900 933.332 800 c S
1000 750 m 1200 750 1000 900 1066.668 800 c S
1000 750 m 800 750 1000 600 933.332 700 c S
1000 750 m 1200 750 1000 600 1066.668 700 c S
1000 450 m 800 450 1000 600 933.332 500 c S
1000 450 m 1200 450 1000 600 1066.668 500 c S
1000 450 m 800 450 1000 300 933.332 400 c S
1000 450 m 1200 450 1000 300 1066.668 400 c S
1000 150 m 800 150 1000 300 933.332 200 c S
1000 150 m 1200 150 1000 300 1066.668 200 c S
1000 150 m 800 150 1000 0 933.332 100 c S
1000 150 m 1200 150 1000 0 1066.668 100 c S
1400 1050 m 1200 1050 1400 1200 1333.332 1100 c S
1400 1050 m 1600 1050 1400 1200 1466.668 1100 c S
1400 1050 m 1200 1050 1400 900 1333.332 1000 c S
1400 1050 m 1600 1050 1400 900 1466.668 1000 c S
1400 750 m 1200 750 1400 900 1333.332 800 c S
1400 750 m 1600 750 1400 900 1466.668 800 c S
1400 750 m 1200 750 1400 600 1333.332 700 c S
1400 750 m 1600 750 1400 600 1466.668 700 c S
1400 450 m 1200 450 1400 600 1333.332 500 c S
1400 450 m 1600 450 1400 600 1466.668 500 c S
1400 450 m 1200 450 1400 300 1333.332 400 c S
1400 450 m 1600 450 1400 300 1466.668 400 c S
1400 150 m 1200 150 1400 300 1333.332 200 c S
1400 150 m 1600 150 1400 300 1466.668 200 c S
1400 150 m 1200 150 1400 0 1333.332 100 c S
1400 150 m 1600 150 1400 0 1466.668 100 c S
1800 1050 m 1600 1050 1800 1200 1733.332 1100 c S
1800 1050 m 2000 1050 1800 1200 1866.668 1100 c S
1800 1050 m 1600 1050 1800 900 1733.332 1000 c S
1800 1050 m 2000 1050 1800 900 1866.668 1000 c S
1800 750 m 1600 750 1800 900 1733.332 800 c S
1800 750 m 2000 750 1800 900 1866.668 800 c S
1800 750 m 1600 750 1800 600 1733.332 700 c S
1800 750 m 2000 750 1800 600 1866.668 700 c S
1800 450 m 1600 450 1800 600 1733.332 500 c S
1800 450 m 2000 450 1800 600 1866.668 500 c S
1800 450 m 1600 450 1800 300 1733.332 400 c S
1800 450 m 2000 450 1800 300 1866.668 400 c S
1800 150 m 1600 150 1800 300 1733.332 200 c S
1800 150 m 2000 150 1800 300 1866.668 200 c S
1800 150 m 1600 150 1800 0 1733.332 100 c S
1800 150 m 2000 150 1800 0 1866.668 100 c S
2200 1050 m 2000 1050 2200 1200 2133.332 1100 c S
2200 1050 m 2400 1050 2200 1200 2266.668 1100 c S
2200 1050 m 2000 1050 2200 900 2133.332 1000 c S
2200 1050 m 2400 1050 2200 900 2266.668 1000 c S
2200 750 m 2000 750 2200 900 2133.332 800 c S
2200 750 m 2400 750 2200 900 2266.668 800 c S
2200 750 m 2000 750 2200 600 2133.332 700 c S
2200 750 m 2400 750 2200 600 2266.668 700 c S
2200 450 m 2000 450 2200 600 2133.332 500 c S
2200 450 m 2400 450 2200 600 2266.668 500 c S
2200 450 m 2000 450 2200 300 2133.332 400 c S
2200 450 m 2400 450 2200 300 2266.668 400 c S
2200 150 m 2000 150 2200 300 2133.332 200 c S
2200 150 m 2400 150 2200 300 2266.668 200 c S
2200 150 m 2000 150 2200 0 2133.332 100 c S
2200 150 m 2400 150 2200 0 2266.668 100 c S
Q Q
showpage
%%Trailer
%%Trailer
cleartomark
countdictstack
exch sub { end } repeat
restore
%%EOF
