%!PS-Adobe-2.0 EPSF-2.0
%%BoundingBox: 0 0 2400 1200
%%HiResBoundingBox: 0.000000 0.000000 2400.000000 1200.000000
%%Creator: cairo 1.14.2 (http://cairographics.org)
%%CreationDate: Mon Sep  7 08:21:33 2015
%%DocumentData: Clean7Bit
%%LanguageLevel: 2
%%DocumentMedia: 847x423mm 2400 1200 0 () ()
%%EndComments
% EPSF created by ps2eps 1.68
%%BeginProlog
save
countdictstack
mark
newpath
/showpage {} def
/setpagedevice {pop} def
%%EndProlog
%%Page 1 1
%%BeginProlog
/languagelevel where
{ pop languagelevel } { 1 } ifelse
2 lt { /Helvetica findfont 12 scalefont setfont 50 500 moveto
  (This print job requires a PostScript Language Level 2 printer.) show
  showpage quit } if
/q { gsave } bind def
/Q { grestore } bind def
/cm { 6 array astore concat } bind def
/w { setlinewidth } bind def
/J { setlinecap } bind def
/j { setlinejoin } bind def
/M { setmiterlimit } bind def
/d { setdash } bind def
/m { moveto } bind def
/l { lineto } bind def
/c { curveto } bind def
/h { closepath } bind def
/re { exch dup neg 3 1 roll 5 3 roll moveto 0 rlineto
      0 exch rlineto 0 rlineto closepath } bind def
/S { stroke } bind def
/f { fill } bind def
/f* { eofill } bind def
/n { newpath } bind def
/W { clip } bind def
/W* { eoclip } bind def
/BT { } bind def
/ET { } bind def
/pdfmark where { pop globaldict /?pdfmark /exec load put }
    { globaldict begin /?pdfmark /pop load def /pdfmark
    /cleartomark load def end } ifelse
/BDC { mark 3 1 roll /BDC pdfmark } bind def
/EMC { mark /EMC pdfmark } bind def
/cairo_store_point { /cairo_point_y exch def /cairo_point_x exch def } def
/Tj { show currentpoint cairo_store_point } bind def
/TJ {
  {
    dup
    type /stringtype eq
    { show } { -0.001 mul 0 cairo_font_matrix dtransform rmoveto } ifelse
  } forall
  currentpoint cairo_store_point
} bind def
/cairo_selectfont { cairo_font_matrix aload pop pop pop 0 0 6 array astore
    cairo_font exch selectfont cairo_point_x cairo_point_y moveto } bind def
/Tf { pop /cairo_font exch def /cairo_font_matrix where
      { pop cairo_selectfont } if } bind def
/Td { matrix translate cairo_font_matrix matrix concatmatrix dup
      /cairo_font_matrix exch def dup 4 get exch 5 get cairo_store_point
      /cairo_font where { pop cairo_selectfont } if } bind def
/Tm { 2 copy 8 2 roll 6 array astore /cairo_font_matrix exch def
      cairo_store_point /cairo_font where { pop cairo_selectfont } if } bind def
/g { setgray } bind def
/rg { setrgbcolor } bind def
/d1 { setcachedevice } bind def
/cairo_set_page_size {
  % Change paper size, but only if different from previous paper size otherwise
  % duplex fails. PLRM specifies a tolerance of 5 pts when matching paper size
  % so we use the same when checking if the size changes.
  /setpagedevice where {
    pop currentpagedevice
    /PageSize known {
      2 copy
      currentpagedevice /PageSize get aload pop
      exch 4 1 roll
      sub abs 5 gt
      3 1 roll
      sub abs 5 gt
      or
    } {
      true
    } ifelse
    {
      2 array astore
      2 dict begin
        /PageSize exch def
        /ImagingBBox null def
      currentdict end
      setpagedevice
    } {
      pop pop
    } ifelse
  } {
    pop
  } ifelse
} def
%%EndProlog
%%BeginSetup
%%EndSetup
%%Page: 1 1
%%BeginPageSetup
%%PageMedia: 847x423mm
%%PageBoundingBox: 0 0 2400 1200
2400 1200 cairo_set_page_size
%%EndPageSetup
q 0 0 2400 1200 rectclip q
0.984314 g
0 0 2400 1200 rectfill
0.788235 g
1.875 w
0 J
1 j
[] 0.0 d
4 M 0 1200 2400 -1200 re S
0 g
2.5 w
1 J
0 1050 m 200 1200 66.668 1100 200 1100 c S
400 1050 m 200 1200 333.332 1100 200 1100 c S
0 1050 m 200 900 66.668 1000 200 1000 c S
400 1050 m 200 900 333.332 1000 200 1000 c S
0 750 m 200 900 66.668 800 200 800 c S
400 750 m 200 900 333.332 800 200 800 c S
0 750 m 200 600 66.668 700 200 700 c S
400 750 m 200 600 333.332 700 200 700 c S
0 450 m 200 600 66.668 500 200 500 c S
400 450 m 200 600 333.332 500 200 500 c S
0 450 m 200 300 66.668 400 200 400 c S
400 450 m 200 300 333.332 400 200 400 c S
0 150 m 200 300 66.668 200 200 200 c S
400 150 m 200 300 333.332 200 200 200 c S
0 150 m 200 0 66.668 100 200 100 c S
400 150 m 200 0 333.332 100 200 100 c S
400 1050 m 600 1200 466.668 1100 600 1100 c S
800 1050 m 600 1200 733.332 1100 600 1100 c S
400 1050 m 600 900 466.668 1000 600 1000 c S
800 1050 m 600 900 733.332 1000 600 1000 c S
400 750 m 600 900 466.668 800 600 800 c S
800 750 m 600 900 733.332 800 600 800 c S
400 750 m 600 600 466.668 700 600 700 c S
800 750 m 600 600 733.332 700 600 700 c S
400 450 m 600 600 466.668 500 600 500 c S
800 450 m 600 600 733.332 500 600 500 c S
400 450 m 600 300 466.668 400 600 400 c S
800 450 m 600 300 733.332 400 600 400 c S
400 150 m 600 300 466.668 200 600 200 c S
800 150 m 600 300 733.332 200 600 200 c S
400 150 m 600 0 466.668 100 600 100 c S
800 150 m 600 0 733.332 100 600 100 c S
800 1050 m 1000 1200 866.668 1100 1000 1100 c S
1200 1050 m 1000 1200 1133.332 1100 1000 1100 c S
800 1050 m 1000 900 866.668 1000 1000 1000 c S
1200 1050 m 1000 900 1133.332 1000 1000 1000 c S
800 750 m 1000 900 866.668 800 1000 800 c S
1200 750 m 1000 900 1133.332 800 1000 800 c S
800 750 m 1000 600 866.668 700 1000 700 c S
1200 750 m 1000 600 1133.332 700 1000 700 c S
800 450 m 1000 600 866.668 500 1000 500 c S
1200 450 m 1000 600 1133.332 500 1000 500 c S
800 450 m 1000 300 866.668 400 1000 400 c S
1200 450 m 1000 300 1133.332 400 1000 400 c S
800 150 m 1000 300 866.668 200 1000 200 c S
1200 150 m 1000 300 1133.332 200 1000 200 c S
800 150 m 1000 0 866.668 100 1000 100 c S
1200 150 m 1000 0 1133.332 100 1000 100 c S
1200 1050 m 1400 1200 1266.668 1100 1400 1100 c S
1600 1050 m 1400 1200 1533.332 1100 1400 1100 c S
1200 1050 m 1400 900 1266.668 1000 1400 1000 c S
1600 1050 m 1400 900 1533.332 1000 1400 1000 c S
1200 750 m 1400 900 1266.668 800 1400 800 c S
1600 750 m 1400 900 1533.332 800 1400 800 c S
1200 750 m 1400 600 1266.668 700 1400 700 c S
1600 750 m 1400 600 1533.332 700 1400 700 c S
1200 450 m 1400 600 1266.668 500 1400 500 c S
1600 450 m 1400 600 1533.332 500 1400 500 c S
1200 450 m 1400 300 1266.668 400 1400 400 c S
1600 450 m 1400 300 1533.332 400 1400 400 c S
1200 150 m 1400 300 1266.668 200 1400 200 c S
1600 150 m 1400 300 1533.332 200 1400 200 c S
1200 150 m 1400 0 1266.668 100 1400 100 c S
1600 150 m 1400 0 1533.332 100 1400 100 c S
1600 1050 m 1800 1200 1666.668 1100 1800 1100 c S
2000 1050 m 1800 1200 1933.332 1100 1800 1100 c S
1600 1050 m 1800 900 1666.668 1000 1800 1000 c S
2000 1050 m 1800 900 1933.332 1000 1800 1000 c S
1600 750 m 1800 900 1666.668 800 1800 800 c S
2000 750 m 1800 900 1933.332 800 1800 800 c S
1600 750 m 1800 600 1666.668 700 1800 700 c S
2000 750 m 1800 600 1933.332 700 1800 700 c S
1600 450 m 1800 600 1666.668 500 1800 500 c S
2000 450 m 1800 600 1933.332 500 1800 500 c S
1600 450 m 1800 300 1666.668 400 1800 400 c S
2000 450 m 1800 300 1933.332 400 1800 400 c S
1600 150 m 1800 300 1666.668 200 1800 200 c S
2000 150 m 1800 300 1933.332 200 1800 200 c S
1600 150 m 1800 0 1666.668 100 1800 100 c S
2000 150 m 1800 0 1933.332 100 1800 100 c S
2000 1050 m 2200 1200 2066.668 1100 2200 1100 c S
2400 1050 m 2200 1200 2333.332 1100 2200 1100 c S
2000 1050 m 2200 900 2066.668 1000 2200 1000 c S
2400 1050 m 2200 900 2333.332 1000 2200 1000 c S
2000 750 m 2200 900 2066.668 800 2200 800 c S
2400 750 m 2200 900 2333.332 800 2200 800 c S
2000 750 m 2200 600 2066.668 700 2200 700 c S
2400 750 m 2200 600 2333.332 700 2200 700 c S
2000 450 m 2200 600 2066.668 500 2200 500 c S
2400 450 m 2200 600 2333.332 500 2200 500 c S
2000 450 m 2200 300 2066.668 400 2200 400 c S
2400 450 m 2200 300 2333.332 400 2200 400 c S
2000 150 m 2200 300 2066.668 200 2200 200 c S
2400 150 m 2200 300 2333.332 200 2200 200 c S
2000 150 m 2200 0 2066.668 100 2200 100 c S
2400 150 m 2200 0 2333.332 100 2200 100 c S
Q Q
showpage
%%Trailer
%%Trailer
cleartomark
countdictstack
exch sub { end } repeat
restore
%%EOF
