%!PS-Adobe-2.0 EPSF-2.0
%%BoundingBox: 0 0 800 693
%%HiResBoundingBox: 0.000000 0.000000 800.000000 693.000000
%%Creator: cairo 1.14.2 (http://cairographics.org)
%%CreationDate: Mon Sep  7 08:21:40 2015
%%DocumentData: Clean7Bit
%%LanguageLevel: 2
%%DocumentMedia: 282x244mm 800 693 0 () ()
%%EndComments
% EPSF created by ps2eps 1.68
%%BeginProlog
save
countdictstack
mark
newpath
/showpage {} def
/setpagedevice {pop} def
%%EndProlog
%%Page 1 1
%%BeginProlog
/languagelevel where
{ pop languagelevel } { 1 } ifelse
2 lt { /Helvetica findfont 12 scalefont setfont 50 500 moveto
  (This print job requires a PostScript Language Level 2 printer.) show
  showpage quit } if
/q { gsave } bind def
/Q { grestore } bind def
/cm { 6 array astore concat } bind def
/w { setlinewidth } bind def
/J { setlinecap } bind def
/j { setlinejoin } bind def
/M { setmiterlimit } bind def
/d { setdash } bind def
/m { moveto } bind def
/l { lineto } bind def
/c { curveto } bind def
/h { closepath } bind def
/re { exch dup neg 3 1 roll 5 3 roll moveto 0 rlineto
      0 exch rlineto 0 rlineto closepath } bind def
/S { stroke } bind def
/f { fill } bind def
/f* { eofill } bind def
/n { newpath } bind def
/W { clip } bind def
/W* { eoclip } bind def
/BT { } bind def
/ET { } bind def
/pdfmark where { pop globaldict /?pdfmark /exec load put }
    { globaldict begin /?pdfmark /pop load def /pdfmark
    /cleartomark load def end } ifelse
/BDC { mark 3 1 roll /BDC pdfmark } bind def
/EMC { mark /EMC pdfmark } bind def
/cairo_store_point { /cairo_point_y exch def /cairo_point_x exch def } def
/Tj { show currentpoint cairo_store_point } bind def
/TJ {
  {
    dup
    type /stringtype eq
    { show } { -0.001 mul 0 cairo_font_matrix dtransform rmoveto } ifelse
  } forall
  currentpoint cairo_store_point
} bind def
/cairo_selectfont { cairo_font_matrix aload pop pop pop 0 0 6 array astore
    cairo_font exch selectfont cairo_point_x cairo_point_y moveto } bind def
/Tf { pop /cairo_font exch def /cairo_font_matrix where
      { pop cairo_selectfont } if } bind def
/Td { matrix translate cairo_font_matrix matrix concatmatrix dup
      /cairo_font_matrix exch def dup 4 get exch 5 get cairo_store_point
      /cairo_font where { pop cairo_selectfont } if } bind def
/Tm { 2 copy 8 2 roll 6 array astore /cairo_font_matrix exch def
      cairo_store_point /cairo_font where { pop cairo_selectfont } if } bind def
/g { setgray } bind def
/rg { setrgbcolor } bind def
/d1 { setcachedevice } bind def
/cairo_set_page_size {
  % Change paper size, but only if different from previous paper size otherwise
  % duplex fails. PLRM specifies a tolerance of 5 pts when matching paper size
  % so we use the same when checking if the size changes.
  /setpagedevice where {
    pop currentpagedevice
    /PageSize known {
      2 copy
      currentpagedevice /PageSize get aload pop
      exch 4 1 roll
      sub abs 5 gt
      3 1 roll
      sub abs 5 gt
      or
    } {
      true
    } ifelse
    {
      2 array astore
      2 dict begin
        /PageSize exch def
        /ImagingBBox null def
      currentdict end
      setpagedevice
    } {
      pop pop
    } ifelse
  } {
    pop
  } ifelse
} def
%%EndProlog
%%BeginSetup
%%EndSetup
%%Page: 1 1
%%BeginPageSetup
%%PageMedia: 282x244mm
%%PageBoundingBox: 0 0 800 693
800 693 cairo_set_page_size
%%EndPageSetup
q 0 0 800 693 rectclip q
Q q
0.984314 g
0 693 800 -692.82 re f*
0.788235 g
1.875 w
0 J
1 j
[] 0.0 d
4 M 0 693 800 -692.82 re S
0 g
2.5 w
1 J
133.332 693 m 66.668 693 l 83.332 664.133 l 150 664.133 l S
-33.332 519.793 m 33.332 519.793 l 16.668 548.664 l -50 548.664 l S
166.668 635.266 m 133.332 577.531 l 116.668 606.398 l 150 664.133 l S
33.332 519.793 m -33.332 519.793 l -16.668 490.926 l 50 490.926 l S
66.668 462.059 m 33.332 404.324 l 16.668 433.191 l 50 490.926 l S
133.332 577.531 m 166.668 635.266 l 183.332 606.398 l 150 548.664 l S
333.332 693 m 266.668 693 l 283.332 664.133 l 350 664.133 l S
166.668 519.793 m 233.332 519.793 l 216.668 548.664 l 150 548.664 l S
366.668 635.266 m 333.332 577.531 l 316.668 606.398 l 350 664.133 l S
33.332 404.324 m 66.668 462.059 l 83.332 433.191 l 50 375.457 l S
233.332 519.793 m 166.668 519.793 l 183.332 490.926 l 250 490.926 l S
66.668 346.59 m 133.332 346.59 l 116.668 375.457 l 50 375.457 l S
266.668 462.059 m 233.332 404.324 l 216.668 433.191 l 250 490.926 l S
133.332 346.59 m 66.668 346.59 l 83.332 317.723 l 150 317.723 l S
-33.332 173.383 m 33.332 173.383 l 16.668 202.254 l -50 202.254 l S
166.668 288.855 m 133.332 231.121 l 116.668 259.988 l 150 317.723 l S
33.332 173.383 m -33.332 173.383 l -16.668 144.516 l 50 144.516 l S
66.668 115.648 m 33.332 57.914 l 16.668 86.781 l 50 144.516 l S
333.332 577.531 m 366.668 635.266 l 383.332 606.398 l 350 548.664 l S
533.332 693 m 466.668 693 l 483.332 664.133 l 550 664.133 l S
366.668 519.793 m 433.332 519.793 l 416.668 548.664 l 350 548.664 l S
566.668 635.266 m 533.332 577.531 l 516.668 606.398 l 550 664.133 l S
233.332 404.324 m 266.668 462.059 l 283.332 433.191 l 250 375.457 l S
433.332 519.793 m 366.668 519.793 l 383.332 490.926 l 450 490.926 l S
266.668 346.59 m 333.332 346.59 l 316.668 375.457 l 250 375.457 l S
466.668 462.059 m 433.332 404.324 l 416.668 433.191 l 450 490.926 l S
133.332 231.121 m 166.668 288.855 l 183.332 259.988 l 150 202.254 l S
333.332 346.59 m 266.668 346.59 l 283.332 317.723 l 350 317.723 l S
166.668 173.383 m 233.332 173.383 l 216.668 202.254 l 150 202.254 l S
366.668 288.855 m 333.332 231.121 l 316.668 259.988 l 350 317.723 l S
33.332 57.914 m 66.668 115.648 l 83.332 86.781 l 50 29.047 l S
233.332 173.383 m 166.668 173.383 l 183.332 144.516 l 250 144.516 l S
Q q
48 31 87 -30.82 re W n
0 g
2.5 w
1 J
1 j
[] 0.0 d
4 M 66.668 0.18 m 133.332 0.18 l 116.668 29.047 l 50 29.047 l S
Q q
0 g
2.5 w
1 J
1 j
[] 0.0 d
4 M 266.668 115.648 m 233.332 57.914 l 216.668 86.781 l 250 144.516 l S
533.332 577.531 m 566.668 635.266 l 583.332 606.398 l 550 548.664 l S
733.332 693 m 666.668 693 l 683.332 664.133 l 750 664.133 l S
566.668 519.793 m 633.332 519.793 l 616.668 548.664 l 550 548.664 l S
766.668 635.266 m 733.332 577.531 l 716.668 606.398 l 750 664.133 l S
433.332 404.324 m 466.668 462.059 l 483.332 433.191 l 450 375.457 l S
633.332 519.793 m 566.668 519.793 l 583.332 490.926 l 650 490.926 l S
466.668 346.59 m 533.332 346.59 l 516.668 375.457 l 450 375.457 l S
666.668 462.059 m 633.332 404.324 l 616.668 433.191 l 650 490.926 l S
333.332 231.121 m 366.668 288.855 l 383.332 259.988 l 350 202.254 l S
533.332 346.59 m 466.668 346.59 l 483.332 317.723 l 550 317.723 l S
366.668 173.383 m 433.332 173.383 l 416.668 202.254 l 350 202.254 l S
566.668 288.855 m 533.332 231.121 l 516.668 259.988 l 550 317.723 l S
233.332 57.914 m 266.668 115.648 l 283.332 86.781 l 250 29.047 l S
433.332 173.383 m 366.668 173.383 l 383.332 144.516 l 450 144.516 l S
Q q
248 31 87 -30.82 re W n
0 g
2.5 w
1 J
1 j
[] 0.0 d
4 M 266.668 0.18 m 333.332 0.18 l 316.668 29.047 l 250 29.047 l S
Q q
0 g
2.5 w
1 J
1 j
[] 0.0 d
4 M 466.668 115.648 m 433.332 57.914 l 416.668 86.781 l 450 144.516 l S
733.332 577.531 m 766.668 635.266 l 783.332 606.398 l 750 548.664 l S
766.668 519.793 m 833.332 519.793 l 816.668 548.664 l 750 548.664 l S
633.332 404.324 m 666.668 462.059 l 683.332 433.191 l 650 375.457 l S
833.332 519.793 m 766.668 519.793 l 783.332 490.926 l 850 490.926 l S
666.668 346.59 m 733.332 346.59 l 716.668 375.457 l 650 375.457 l S
533.332 231.121 m 566.668 288.855 l 583.332 259.988 l 550 202.254 l S
733.332 346.59 m 666.668 346.59 l 683.332 317.723 l 750 317.723 l S
566.668 173.383 m 633.332 173.383 l 616.668 202.254 l 550 202.254 l S
766.668 288.855 m 733.332 231.121 l 716.668 259.988 l 750 317.723 l S
433.332 57.914 m 466.668 115.648 l 483.332 86.781 l 450 29.047 l S
633.332 173.383 m 566.668 173.383 l 583.332 144.516 l 650 144.516 l S
Q q
448 31 87 -30.82 re W n
0 g
2.5 w
1 J
1 j
[] 0.0 d
4 M 466.668 0.18 m 533.332 0.18 l 516.668 29.047 l 450 29.047 l S
Q q
0 g
2.5 w
1 J
1 j
[] 0.0 d
4 M 666.668 115.648 m 633.332 57.914 l 616.668 86.781 l 650 144.516 l S
733.332 231.121 m 766.668 288.855 l 783.332 259.988 l 750 202.254 l S
766.668 173.383 m 833.332 173.383 l 816.668 202.254 l 750 202.254 l S
633.332 57.914 m 666.668 115.648 l 683.332 86.781 l 650 29.047 l S
833.332 173.383 m 766.668 173.383 l 783.332 144.516 l 850 144.516 l S
Q q
648 31 87 -30.82 re W n
0 g
2.5 w
1 J
1 j
[] 0.0 d
4 M 666.668 0.18 m 733.332 0.18 l 716.668 29.047 l 650 29.047 l S
Q Q
showpage
%%Trailer
%%Trailer
cleartomark
countdictstack
exch sub { end } repeat
restore
%%EOF
