%!PS-Adobe-2.0 EPSF-2.0
%%BoundingBox: 0 0 800 693
%%HiResBoundingBox: 0.000000 0.000000 800.000000 693.000000
%%Creator: cairo 1.14.2 (http://cairographics.org)
%%CreationDate: Mon Sep  7 08:21:40 2015
%%DocumentData: Clean7Bit
%%LanguageLevel: 2
%%DocumentMedia: 282x244mm 800 693 0 () ()
%%EndComments
% EPSF created by ps2eps 1.68
%%BeginProlog
save
countdictstack
mark
newpath
/showpage {} def
/setpagedevice {pop} def
%%EndProlog
%%Page 1 1
%%BeginProlog
/languagelevel where
{ pop languagelevel } { 1 } ifelse
2 lt { /Helvetica findfont 12 scalefont setfont 50 500 moveto
  (This print job requires a PostScript Language Level 2 printer.) show
  showpage quit } if
/q { gsave } bind def
/Q { grestore } bind def
/cm { 6 array astore concat } bind def
/w { setlinewidth } bind def
/J { setlinecap } bind def
/j { setlinejoin } bind def
/M { setmiterlimit } bind def
/d { setdash } bind def
/m { moveto } bind def
/l { lineto } bind def
/c { curveto } bind def
/h { closepath } bind def
/re { exch dup neg 3 1 roll 5 3 roll moveto 0 rlineto
      0 exch rlineto 0 rlineto closepath } bind def
/S { stroke } bind def
/f { fill } bind def
/f* { eofill } bind def
/n { newpath } bind def
/W { clip } bind def
/W* { eoclip } bind def
/BT { } bind def
/ET { } bind def
/pdfmark where { pop globaldict /?pdfmark /exec load put }
    { globaldict begin /?pdfmark /pop load def /pdfmark
    /cleartomark load def end } ifelse
/BDC { mark 3 1 roll /BDC pdfmark } bind def
/EMC { mark /EMC pdfmark } bind def
/cairo_store_point { /cairo_point_y exch def /cairo_point_x exch def } def
/Tj { show currentpoint cairo_store_point } bind def
/TJ {
  {
    dup
    type /stringtype eq
    { show } { -0.001 mul 0 cairo_font_matrix dtransform rmoveto } ifelse
  } forall
  currentpoint cairo_store_point
} bind def
/cairo_selectfont { cairo_font_matrix aload pop pop pop 0 0 6 array astore
    cairo_font exch selectfont cairo_point_x cairo_point_y moveto } bind def
/Tf { pop /cairo_font exch def /cairo_font_matrix where
      { pop cairo_selectfont } if } bind def
/Td { matrix translate cairo_font_matrix matrix concatmatrix dup
      /cairo_font_matrix exch def dup 4 get exch 5 get cairo_store_point
      /cairo_font where { pop cairo_selectfont } if } bind def
/Tm { 2 copy 8 2 roll 6 array astore /cairo_font_matrix exch def
      cairo_store_point /cairo_font where { pop cairo_selectfont } if } bind def
/g { setgray } bind def
/rg { setrgbcolor } bind def
/d1 { setcachedevice } bind def
/cairo_set_page_size {
  % Change paper size, but only if different from previous paper size otherwise
  % duplex fails. PLRM specifies a tolerance of 5 pts when matching paper size
  % so we use the same when checking if the size changes.
  /setpagedevice where {
    pop currentpagedevice
    /PageSize known {
      2 copy
      currentpagedevice /PageSize get aload pop
      exch 4 1 roll
      sub abs 5 gt
      3 1 roll
      sub abs 5 gt
      or
    } {
      true
    } ifelse
    {
      2 array astore
      2 dict begin
        /PageSize exch def
        /ImagingBBox null def
      currentdict end
      setpagedevice
    } {
      pop pop
    } ifelse
  } {
    pop
  } ifelse
} def
%%EndProlog
%%BeginSetup
%%EndSetup
%%Page: 1 1
%%BeginPageSetup
%%PageMedia: 282x244mm
%%PageBoundingBox: 0 0 800 693
800 693 cairo_set_page_size
%%EndPageSetup
q 0 0 800 693 rectclip q
Q q
0.984314 g
0 693 800 -692.82 re f*
0.788235 g
1.875 w
0 J
1 j
[] 0.0 d
4 M 0 693 800 -692.82 re S
0 g
2.5 w
1 J
16.668 664.133 m -16.668 606.398 33.332 635.266 50 606.398 c S
16.668 664.133 m 83.332 664.133 33.332 635.266 50 606.398 c S
83.332 548.664 m 16.668 548.664 66.668 577.531 50 606.398 c S
83.332 548.664 m 116.668 606.398 66.668 577.531 50 606.398 c S
216.668 664.133 m 183.332 606.398 233.332 635.266 250 606.398 c S
216.668 664.133 m 283.332 664.133 233.332 635.266 250 606.398 c S
283.332 548.664 m 216.668 548.664 266.668 577.531 250 606.398 c S
283.332 548.664 m 316.668 606.398 266.668 577.531 250 606.398 c S
116.668 490.926 m 83.332 433.191 133.332 462.059 150 433.191 c S
116.668 490.926 m 183.332 490.926 133.332 462.059 150 433.191 c S
183.332 375.457 m 116.668 375.457 166.668 404.324 150 433.191 c S
183.332 375.457 m 216.668 433.191 166.668 404.324 150 433.191 c S
16.668 317.723 m -16.668 259.988 33.332 288.855 50 259.988 c S
16.668 317.723 m 83.332 317.723 33.332 288.855 50 259.988 c S
83.332 202.254 m 16.668 202.254 66.668 231.121 50 259.988 c S
83.332 202.254 m 116.668 259.988 66.668 231.121 50 259.988 c S
416.668 664.133 m 383.332 606.398 433.332 635.266 450 606.398 c S
416.668 664.133 m 483.332 664.133 433.332 635.266 450 606.398 c S
483.332 548.664 m 416.668 548.664 466.668 577.531 450 606.398 c S
483.332 548.664 m 516.668 606.398 466.668 577.531 450 606.398 c S
316.668 490.926 m 283.332 433.191 333.332 462.059 350 433.191 c S
316.668 490.926 m 383.332 490.926 333.332 462.059 350 433.191 c S
383.332 375.457 m 316.668 375.457 366.668 404.324 350 433.191 c S
383.332 375.457 m 416.668 433.191 366.668 404.324 350 433.191 c S
216.668 317.723 m 183.332 259.988 233.332 288.855 250 259.988 c S
216.668 317.723 m 283.332 317.723 233.332 288.855 250 259.988 c S
283.332 202.254 m 216.668 202.254 266.668 231.121 250 259.988 c S
283.332 202.254 m 316.668 259.988 266.668 231.121 250 259.988 c S
116.668 144.516 m 83.332 86.781 133.332 115.648 150 86.781 c S
116.668 144.516 m 183.332 144.516 133.332 115.648 150 86.781 c S
183.332 29.047 m 116.668 29.047 166.668 57.914 150 86.781 c S
183.332 29.047 m 216.668 86.781 166.668 57.914 150 86.781 c S
616.668 664.133 m 583.332 606.398 633.332 635.266 650 606.398 c S
616.668 664.133 m 683.332 664.133 633.332 635.266 650 606.398 c S
683.332 548.664 m 616.668 548.664 666.668 577.531 650 606.398 c S
683.332 548.664 m 716.668 606.398 666.668 577.531 650 606.398 c S
516.668 490.926 m 483.332 433.191 533.332 462.059 550 433.191 c S
516.668 490.926 m 583.332 490.926 533.332 462.059 550 433.191 c S
583.332 375.457 m 516.668 375.457 566.668 404.324 550 433.191 c S
583.332 375.457 m 616.668 433.191 566.668 404.324 550 433.191 c S
416.668 317.723 m 383.332 259.988 433.332 288.855 450 259.988 c S
416.668 317.723 m 483.332 317.723 433.332 288.855 450 259.988 c S
483.332 202.254 m 416.668 202.254 466.668 231.121 450 259.988 c S
483.332 202.254 m 516.668 259.988 466.668 231.121 450 259.988 c S
316.668 144.516 m 283.332 86.781 333.332 115.648 350 86.781 c S
316.668 144.516 m 383.332 144.516 333.332 115.648 350 86.781 c S
383.332 29.047 m 316.668 29.047 366.668 57.914 350 86.781 c S
383.332 29.047 m 416.668 86.781 366.668 57.914 350 86.781 c S
716.668 490.926 m 683.332 433.191 733.332 462.059 750 433.191 c S
716.668 490.926 m 783.332 490.926 733.332 462.059 750 433.191 c S
783.332 375.457 m 716.668 375.457 766.668 404.324 750 433.191 c S
783.332 375.457 m 816.668 433.191 766.668 404.324 750 433.191 c S
616.668 317.723 m 583.332 259.988 633.332 288.855 650 259.988 c S
616.668 317.723 m 683.332 317.723 633.332 288.855 650 259.988 c S
683.332 202.254 m 616.668 202.254 666.668 231.121 650 259.988 c S
683.332 202.254 m 716.668 259.988 666.668 231.121 650 259.988 c S
516.668 144.516 m 483.332 86.781 533.332 115.648 550 86.781 c S
516.668 144.516 m 583.332 144.516 533.332 115.648 550 86.781 c S
583.332 29.047 m 516.668 29.047 566.668 57.914 550 86.781 c S
583.332 29.047 m 616.668 86.781 566.668 57.914 550 86.781 c S
716.668 144.516 m 683.332 86.781 733.332 115.648 750 86.781 c S
716.668 144.516 m 783.332 144.516 733.332 115.648 750 86.781 c S
783.332 29.047 m 716.668 29.047 766.668 57.914 750 86.781 c S
783.332 29.047 m 816.668 86.781 766.668 57.914 750 86.781 c S
Q Q
showpage
%%Trailer
%%Trailer
cleartomark
countdictstack
exch sub { end } repeat
restore
%%EOF
