%!PS-Adobe-2.0 EPSF-2.0
%%BoundingBox: 0 0 1350 779
%%HiResBoundingBox: 0.000000 0.000000 1350.000000 779.000000
%%Creator: cairo 1.14.2 (http://cairographics.org)
%%CreationDate: Mon Sep  7 08:21:41 2015
%%DocumentData: Clean7Bit
%%LanguageLevel: 2
%%DocumentMedia: 476x275mm 1350 779 0 () ()
%%EndComments
% EPSF created by ps2eps 1.68
%%BeginProlog
save
countdictstack
mark
newpath
/showpage {} def
/setpagedevice {pop} def
%%EndProlog
%%Page 1 1
%%BeginProlog
/languagelevel where
{ pop languagelevel } { 1 } ifelse
2 lt { /Helvetica findfont 12 scalefont setfont 50 500 moveto
  (This print job requires a PostScript Language Level 2 printer.) show
  showpage quit } if
/q { gsave } bind def
/Q { grestore } bind def
/cm { 6 array astore concat } bind def
/w { setlinewidth } bind def
/J { setlinecap } bind def
/j { setlinejoin } bind def
/M { setmiterlimit } bind def
/d { setdash } bind def
/m { moveto } bind def
/l { lineto } bind def
/c { curveto } bind def
/h { closepath } bind def
/re { exch dup neg 3 1 roll 5 3 roll moveto 0 rlineto
      0 exch rlineto 0 rlineto closepath } bind def
/S { stroke } bind def
/f { fill } bind def
/f* { eofill } bind def
/n { newpath } bind def
/W { clip } bind def
/W* { eoclip } bind def
/BT { } bind def
/ET { } bind def
/pdfmark where { pop globaldict /?pdfmark /exec load put }
    { globaldict begin /?pdfmark /pop load def /pdfmark
    /cleartomark load def end } ifelse
/BDC { mark 3 1 roll /BDC pdfmark } bind def
/EMC { mark /EMC pdfmark } bind def
/cairo_store_point { /cairo_point_y exch def /cairo_point_x exch def } def
/Tj { show currentpoint cairo_store_point } bind def
/TJ {
  {
    dup
    type /stringtype eq
    { show } { -0.001 mul 0 cairo_font_matrix dtransform rmoveto } ifelse
  } forall
  currentpoint cairo_store_point
} bind def
/cairo_selectfont { cairo_font_matrix aload pop pop pop 0 0 6 array astore
    cairo_font exch selectfont cairo_point_x cairo_point_y moveto } bind def
/Tf { pop /cairo_font exch def /cairo_font_matrix where
      { pop cairo_selectfont } if } bind def
/Td { matrix translate cairo_font_matrix matrix concatmatrix dup
      /cairo_font_matrix exch def dup 4 get exch 5 get cairo_store_point
      /cairo_font where { pop cairo_selectfont } if } bind def
/Tm { 2 copy 8 2 roll 6 array astore /cairo_font_matrix exch def
      cairo_store_point /cairo_font where { pop cairo_selectfont } if } bind def
/g { setgray } bind def
/rg { setrgbcolor } bind def
/d1 { setcachedevice } bind def
/cairo_set_page_size {
  % Change paper size, but only if different from previous paper size otherwise
  % duplex fails. PLRM specifies a tolerance of 5 pts when matching paper size
  % so we use the same when checking if the size changes.
  /setpagedevice where {
    pop currentpagedevice
    /PageSize known {
      2 copy
      currentpagedevice /PageSize get aload pop
      exch 4 1 roll
      sub abs 5 gt
      3 1 roll
      sub abs 5 gt
      or
    } {
      true
    } ifelse
    {
      2 array astore
      2 dict begin
        /PageSize exch def
        /ImagingBBox null def
      currentdict end
      setpagedevice
    } {
      pop pop
    } ifelse
  } {
    pop
  } ifelse
} def
%%EndProlog
%%BeginSetup
%%EndSetup
%%Page: 1 1
%%BeginPageSetup
%%PageMedia: 476x275mm
%%PageBoundingBox: 0 0 1350 779
1350 779 cairo_set_page_size
%%EndPageSetup
q 0 0 1350 779 rectclip q
0.984314 g
0 0 1350 779 rectfill
0.788235 g
1.875 w
0 J
1 j
[] 0.0 d
4 M q 1 0 0 -1 0 779 cm
0 0 1350 779.422 re S Q
0.85098 g
37.5 324.336 m 37.5 310.531 26.309 299.336 12.5 299.336 c -1.309 299.336
 -12.5 310.531 -12.5 324.336 c -12.5 338.145 -1.309 349.336 12.5 349.336
 c 26.309 349.336 37.5 338.145 37.5 324.336 c h
37.5 324.336 m f
0 g
2.5 w
0 j
q 1 0 0 -1 0 779 cm
37.5 454.664 m 37.5 468.469 26.309 479.664 12.5 479.664 c -1.309 479.664
 -12.5 468.469 -12.5 454.664 c -12.5 440.855 -1.309 429.664 12.5 429.664
 c 26.309 429.664 37.5 440.855 37.5 454.664 c h
37.5 454.664 m S Q
0.85098 g
87.5 237.734 m 87.5 223.926 76.309 212.734 62.5 212.734 c 48.691 212.734
 37.5 223.926 37.5 237.734 c 37.5 251.543 48.691 262.734 62.5 262.734 c 
76.309 262.734 87.5 251.543 87.5 237.734 c h
87.5 237.734 m f
0 g
q 1 0 0 -1 0 779 cm
87.5 541.266 m 87.5 555.074 76.309 566.266 62.5 566.266 c 48.691 566.266
 37.5 555.074 37.5 541.266 c 37.5 527.457 48.691 516.266 62.5 516.266 c 
76.309 516.266 87.5 527.457 87.5 541.266 c h
87.5 541.266 m S Q
0.85098 g
137.5 151.133 m 137.5 137.324 126.309 126.133 112.5 126.133 c 98.691 126.133
 87.5 137.324 87.5 151.133 c 87.5 164.938 98.691 176.133 112.5 176.133 c
 126.309 176.133 137.5 164.938 137.5 151.133 c h
137.5 151.133 m f
0 g
q 1 0 0 -1 0 779 cm
137.5 627.867 m 137.5 641.676 126.309 652.867 112.5 652.867 c 98.691 652.867
 87.5 641.676 87.5 627.867 c 87.5 614.062 98.691 602.867 112.5 602.867 c
 126.309 602.867 137.5 614.062 137.5 627.867 c h
137.5 627.867 m S Q
0.85098 g
187.5 64.527 m 187.5 50.723 176.309 39.527 162.5 39.527 c 148.691 39.527
 137.5 50.723 137.5 64.527 c 137.5 78.336 148.691 89.527 162.5 89.527 c 
176.309 89.527 187.5 78.336 187.5 64.527 c h
187.5 64.527 m f
0 g
q 1 0 0 -1 0 779 cm
187.5 714.473 m 187.5 728.277 176.309 739.473 162.5 739.473 c 148.691 739.473
 137.5 728.277 137.5 714.473 c 137.5 700.664 148.691 689.473 162.5 689.473
 c 176.309 689.473 187.5 700.664 187.5 714.473 c h
187.5 714.473 m S Q
0.85098 g
37.5 670.746 m 37.5 656.941 26.309 645.746 12.5 645.746 c -1.309 645.746
 -12.5 656.941 -12.5 670.746 c -12.5 684.555 -1.309 695.746 12.5 695.746
 c 26.309 695.746 37.5 684.555 37.5 670.746 c h
37.5 670.746 m f
0 g
q 1 0 0 -1 0 779 cm
37.5 108.254 m 37.5 122.059 26.309 133.254 12.5 133.254 c -1.309 133.254
 -12.5 122.059 -12.5 108.254 c -12.5 94.445 -1.309 83.254 12.5 83.254 c 
26.309 83.254 37.5 94.445 37.5 108.254 c h
37.5 108.254 m S Q
0.85098 g
87.5 584.145 m 87.5 570.336 76.309 559.145 62.5 559.145 c 48.691 559.145
 37.5 570.336 37.5 584.145 c 37.5 597.953 48.691 609.145 62.5 609.145 c 
76.309 609.145 87.5 597.953 87.5 584.145 c h
87.5 584.145 m f
0 g
q 1 0 0 -1 0 779 cm
87.5 194.855 m 87.5 208.664 76.309 219.855 62.5 219.855 c 48.691 219.855
 37.5 208.664 37.5 194.855 c 37.5 181.047 48.691 169.855 62.5 169.855 c 
76.309 169.855 87.5 181.047 87.5 194.855 c h
87.5 194.855 m S Q
0.85098 g
137.5 497.543 m 137.5 483.734 126.309 472.543 112.5 472.543 c 98.691 472.543
 87.5 483.734 87.5 497.543 c 87.5 511.348 98.691 522.543 112.5 522.543 c
 126.309 522.543 137.5 511.348 137.5 497.543 c h
137.5 497.543 m f
0 g
q 1 0 0 -1 0 779 cm
137.5 281.457 m 137.5 295.266 126.309 306.457 112.5 306.457 c 98.691 306.457
 87.5 295.266 87.5 281.457 c 87.5 267.652 98.691 256.457 112.5 256.457 c
 126.309 256.457 137.5 267.652 137.5 281.457 c h
137.5 281.457 m S Q
0.85098 g
187.5 410.938 m 187.5 397.133 176.309 385.938 162.5 385.938 c 148.691 385.938
 137.5 397.133 137.5 410.938 c 137.5 424.746 148.691 435.938 162.5 435.938
 c 176.309 435.938 187.5 424.746 187.5 410.938 c h
187.5 410.938 m f
0 g
q 1 0 0 -1 0 779 cm
187.5 368.062 m 187.5 381.867 176.309 393.062 162.5 393.062 c 148.691 393.062
 137.5 381.867 137.5 368.062 c 137.5 354.254 148.691 343.062 162.5 343.062
 c 176.309 343.062 187.5 354.254 187.5 368.062 c h
187.5 368.062 m S Q
0.85098 g
237.5 324.336 m 237.5 310.531 226.309 299.336 212.5 299.336 c 198.691 299.336
 187.5 310.531 187.5 324.336 c 187.5 338.145 198.691 349.336 212.5 349.336
 c 226.309 349.336 237.5 338.145 237.5 324.336 c h
237.5 324.336 m f
0 g
q 1 0 0 -1 0 779 cm
237.5 454.664 m 237.5 468.469 226.309 479.664 212.5 479.664 c 198.691 479.664
 187.5 468.469 187.5 454.664 c 187.5 440.855 198.691 429.664 212.5 429.664
 c 226.309 429.664 237.5 440.855 237.5 454.664 c h
237.5 454.664 m S Q
0.85098 g
287.5 237.734 m 287.5 223.926 276.309 212.734 262.5 212.734 c 248.691 212.734
 237.5 223.926 237.5 237.734 c 237.5 251.543 248.691 262.734 262.5 262.734
 c 276.309 262.734 287.5 251.543 287.5 237.734 c h
287.5 237.734 m f
0 g
q 1 0 0 -1 0 779 cm
287.5 541.266 m 287.5 555.074 276.309 566.266 262.5 566.266 c 248.691 566.266
 237.5 555.074 237.5 541.266 c 237.5 527.457 248.691 516.266 262.5 516.266
 c 276.309 516.266 287.5 527.457 287.5 541.266 c h
287.5 541.266 m S Q
0.85098 g
337.5 151.133 m 337.5 137.324 326.309 126.133 312.5 126.133 c 298.691 126.133
 287.5 137.324 287.5 151.133 c 287.5 164.938 298.691 176.133 312.5 176.133
 c 326.309 176.133 337.5 164.938 337.5 151.133 c h
337.5 151.133 m f
0 g
q 1 0 0 -1 0 779 cm
337.5 627.867 m 337.5 641.676 326.309 652.867 312.5 652.867 c 298.691 652.867
 287.5 641.676 287.5 627.867 c 287.5 614.062 298.691 602.867 312.5 602.867
 c 326.309 602.867 337.5 614.062 337.5 627.867 c h
337.5 627.867 m S Q
0.85098 g
387.5 64.527 m 387.5 50.723 376.309 39.527 362.5 39.527 c 348.691 39.527
 337.5 50.723 337.5 64.527 c 337.5 78.336 348.691 89.527 362.5 89.527 c 
376.309 89.527 387.5 78.336 387.5 64.527 c h
387.5 64.527 m f
0 g
q 1 0 0 -1 0 779 cm
387.5 714.473 m 387.5 728.277 376.309 739.473 362.5 739.473 c 348.691 739.473
 337.5 728.277 337.5 714.473 c 337.5 700.664 348.691 689.473 362.5 689.473
 c 376.309 689.473 387.5 700.664 387.5 714.473 c h
387.5 714.473 m S Q
0.85098 g
187.5 757.348 m 187.5 743.543 176.309 732.348 162.5 732.348 c 148.691 732.348
 137.5 743.543 137.5 757.348 c 137.5 771.156 148.691 782.348 162.5 782.348
 c 176.309 782.348 187.5 771.156 187.5 757.348 c h
187.5 757.348 m f
0 g
q 1 0 0 -1 0 779 cm
187.5 21.652 m 187.5 35.457 176.309 46.652 162.5 46.652 c 148.691 46.652
 137.5 35.457 137.5 21.652 c 137.5 7.844 148.691 -3.348 162.5 -3.348 c 176.309
 -3.348 187.5 7.844 187.5 21.652 c h
187.5 21.652 m S Q
0.85098 g
237.5 670.746 m 237.5 656.941 226.309 645.746 212.5 645.746 c 198.691 645.746
 187.5 656.941 187.5 670.746 c 187.5 684.555 198.691 695.746 212.5 695.746
 c 226.309 695.746 237.5 684.555 237.5 670.746 c h
237.5 670.746 m f
0 g
q 1 0 0 -1 0 779 cm
237.5 108.254 m 237.5 122.059 226.309 133.254 212.5 133.254 c 198.691 133.254
 187.5 122.059 187.5 108.254 c 187.5 94.445 198.691 83.254 212.5 83.254 
c 226.309 83.254 237.5 94.445 237.5 108.254 c h
237.5 108.254 m S Q
0.85098 g
287.5 584.145 m 287.5 570.336 276.309 559.145 262.5 559.145 c 248.691 559.145
 237.5 570.336 237.5 584.145 c 237.5 597.953 248.691 609.145 262.5 609.145
 c 276.309 609.145 287.5 597.953 287.5 584.145 c h
287.5 584.145 m f
0 g
q 1 0 0 -1 0 779 cm
287.5 194.855 m 287.5 208.664 276.309 219.855 262.5 219.855 c 248.691 219.855
 237.5 208.664 237.5 194.855 c 237.5 181.047 248.691 169.855 262.5 169.855
 c 276.309 169.855 287.5 181.047 287.5 194.855 c h
287.5 194.855 m S Q
0.85098 g
337.5 497.543 m 337.5 483.734 326.309 472.543 312.5 472.543 c 298.691 472.543
 287.5 483.734 287.5 497.543 c 287.5 511.348 298.691 522.543 312.5 522.543
 c 326.309 522.543 337.5 511.348 337.5 497.543 c h
337.5 497.543 m f
0 g
q 1 0 0 -1 0 779 cm
337.5 281.457 m 337.5 295.266 326.309 306.457 312.5 306.457 c 298.691 306.457
 287.5 295.266 287.5 281.457 c 287.5 267.652 298.691 256.457 312.5 256.457
 c 326.309 256.457 337.5 267.652 337.5 281.457 c h
337.5 281.457 m S Q
0.85098 g
387.5 410.938 m 387.5 397.133 376.309 385.938 362.5 385.938 c 348.691 385.938
 337.5 397.133 337.5 410.938 c 337.5 424.746 348.691 435.938 362.5 435.938
 c 376.309 435.938 387.5 424.746 387.5 410.938 c h
387.5 410.938 m f
0 g
q 1 0 0 -1 0 779 cm
387.5 368.062 m 387.5 381.867 376.309 393.062 362.5 393.062 c 348.691 393.062
 337.5 381.867 337.5 368.062 c 337.5 354.254 348.691 343.062 362.5 343.062
 c 376.309 343.062 387.5 354.254 387.5 368.062 c h
387.5 368.062 m S Q
0.85098 g
437.5 324.336 m 437.5 310.531 426.309 299.336 412.5 299.336 c 398.691 299.336
 387.5 310.531 387.5 324.336 c 387.5 338.145 398.691 349.336 412.5 349.336
 c 426.309 349.336 437.5 338.145 437.5 324.336 c h
437.5 324.336 m f
0 g
q 1 0 0 -1 0 779 cm
437.5 454.664 m 437.5 468.469 426.309 479.664 412.5 479.664 c 398.691 479.664
 387.5 468.469 387.5 454.664 c 387.5 440.855 398.691 429.664 412.5 429.664
 c 426.309 429.664 437.5 440.855 437.5 454.664 c h
437.5 454.664 m S Q
0.85098 g
487.5 237.734 m 487.5 223.926 476.309 212.734 462.5 212.734 c 448.691 212.734
 437.5 223.926 437.5 237.734 c 437.5 251.543 448.691 262.734 462.5 262.734
 c 476.309 262.734 487.5 251.543 487.5 237.734 c h
487.5 237.734 m f
0 g
q 1 0 0 -1 0 779 cm
487.5 541.266 m 487.5 555.074 476.309 566.266 462.5 566.266 c 448.691 566.266
 437.5 555.074 437.5 541.266 c 437.5 527.457 448.691 516.266 462.5 516.266
 c 476.309 516.266 487.5 527.457 487.5 541.266 c h
487.5 541.266 m S Q
0.85098 g
537.5 151.133 m 537.5 137.324 526.309 126.133 512.5 126.133 c 498.691 126.133
 487.5 137.324 487.5 151.133 c 487.5 164.938 498.691 176.133 512.5 176.133
 c 526.309 176.133 537.5 164.938 537.5 151.133 c h
537.5 151.133 m f
0 g
q 1 0 0 -1 0 779 cm
537.5 627.867 m 537.5 641.676 526.309 652.867 512.5 652.867 c 498.691 652.867
 487.5 641.676 487.5 627.867 c 487.5 614.062 498.691 602.867 512.5 602.867
 c 526.309 602.867 537.5 614.062 537.5 627.867 c h
537.5 627.867 m S Q
0.85098 g
587.5 64.527 m 587.5 50.723 576.309 39.527 562.5 39.527 c 548.691 39.527
 537.5 50.723 537.5 64.527 c 537.5 78.336 548.691 89.527 562.5 89.527 c 
576.309 89.527 587.5 78.336 587.5 64.527 c h
587.5 64.527 m f
0 g
q 1 0 0 -1 0 779 cm
587.5 714.473 m 587.5 728.277 576.309 739.473 562.5 739.473 c 548.691 739.473
 537.5 728.277 537.5 714.473 c 537.5 700.664 548.691 689.473 562.5 689.473
 c 576.309 689.473 587.5 700.664 587.5 714.473 c h
587.5 714.473 m S Q
0.85098 g
387.5 757.348 m 387.5 743.543 376.309 732.348 362.5 732.348 c 348.691 732.348
 337.5 743.543 337.5 757.348 c 337.5 771.156 348.691 782.348 362.5 782.348
 c 376.309 782.348 387.5 771.156 387.5 757.348 c h
387.5 757.348 m f
0 g
q 1 0 0 -1 0 779 cm
387.5 21.652 m 387.5 35.457 376.309 46.652 362.5 46.652 c 348.691 46.652
 337.5 35.457 337.5 21.652 c 337.5 7.844 348.691 -3.348 362.5 -3.348 c 376.309
 -3.348 387.5 7.844 387.5 21.652 c h
387.5 21.652 m S Q
0.85098 g
437.5 670.746 m 437.5 656.941 426.309 645.746 412.5 645.746 c 398.691 645.746
 387.5 656.941 387.5 670.746 c 387.5 684.555 398.691 695.746 412.5 695.746
 c 426.309 695.746 437.5 684.555 437.5 670.746 c h
437.5 670.746 m f
0 g
q 1 0 0 -1 0 779 cm
437.5 108.254 m 437.5 122.059 426.309 133.254 412.5 133.254 c 398.691 133.254
 387.5 122.059 387.5 108.254 c 387.5 94.445 398.691 83.254 412.5 83.254 
c 426.309 83.254 437.5 94.445 437.5 108.254 c h
437.5 108.254 m S Q
0.85098 g
487.5 584.145 m 487.5 570.336 476.309 559.145 462.5 559.145 c 448.691 559.145
 437.5 570.336 437.5 584.145 c 437.5 597.953 448.691 609.145 462.5 609.145
 c 476.309 609.145 487.5 597.953 487.5 584.145 c h
487.5 584.145 m f
0 g
q 1 0 0 -1 0 779 cm
487.5 194.855 m 487.5 208.664 476.309 219.855 462.5 219.855 c 448.691 219.855
 437.5 208.664 437.5 194.855 c 437.5 181.047 448.691 169.855 462.5 169.855
 c 476.309 169.855 487.5 181.047 487.5 194.855 c h
487.5 194.855 m S Q
0.85098 g
537.5 497.543 m 537.5 483.734 526.309 472.543 512.5 472.543 c 498.691 472.543
 487.5 483.734 487.5 497.543 c 487.5 511.348 498.691 522.543 512.5 522.543
 c 526.309 522.543 537.5 511.348 537.5 497.543 c h
537.5 497.543 m f
0 g
q 1 0 0 -1 0 779 cm
537.5 281.457 m 537.5 295.266 526.309 306.457 512.5 306.457 c 498.691 306.457
 487.5 295.266 487.5 281.457 c 487.5 267.652 498.691 256.457 512.5 256.457
 c 526.309 256.457 537.5 267.652 537.5 281.457 c h
537.5 281.457 m S Q
0.85098 g
587.5 410.938 m 587.5 397.133 576.309 385.938 562.5 385.938 c 548.691 385.938
 537.5 397.133 537.5 410.938 c 537.5 424.746 548.691 435.938 562.5 435.938
 c 576.309 435.938 587.5 424.746 587.5 410.938 c h
587.5 410.938 m f
0 g
q 1 0 0 -1 0 779 cm
587.5 368.062 m 587.5 381.867 576.309 393.062 562.5 393.062 c 548.691 393.062
 537.5 381.867 537.5 368.062 c 537.5 354.254 548.691 343.062 562.5 343.062
 c 576.309 343.062 587.5 354.254 587.5 368.062 c h
587.5 368.062 m S Q
0.85098 g
637.5 324.336 m 637.5 310.531 626.309 299.336 612.5 299.336 c 598.691 299.336
 587.5 310.531 587.5 324.336 c 587.5 338.145 598.691 349.336 612.5 349.336
 c 626.309 349.336 637.5 338.145 637.5 324.336 c h
637.5 324.336 m f
0 g
q 1 0 0 -1 0 779 cm
637.5 454.664 m 637.5 468.469 626.309 479.664 612.5 479.664 c 598.691 479.664
 587.5 468.469 587.5 454.664 c 587.5 440.855 598.691 429.664 612.5 429.664
 c 626.309 429.664 637.5 440.855 637.5 454.664 c h
637.5 454.664 m S Q
0.85098 g
687.5 237.734 m 687.5 223.926 676.309 212.734 662.5 212.734 c 648.691 212.734
 637.5 223.926 637.5 237.734 c 637.5 251.543 648.691 262.734 662.5 262.734
 c 676.309 262.734 687.5 251.543 687.5 237.734 c h
687.5 237.734 m f
0 g
q 1 0 0 -1 0 779 cm
687.5 541.266 m 687.5 555.074 676.309 566.266 662.5 566.266 c 648.691 566.266
 637.5 555.074 637.5 541.266 c 637.5 527.457 648.691 516.266 662.5 516.266
 c 676.309 516.266 687.5 527.457 687.5 541.266 c h
687.5 541.266 m S Q
0.85098 g
737.5 151.133 m 737.5 137.324 726.309 126.133 712.5 126.133 c 698.691 126.133
 687.5 137.324 687.5 151.133 c 687.5 164.938 698.691 176.133 712.5 176.133
 c 726.309 176.133 737.5 164.938 737.5 151.133 c h
737.5 151.133 m f
0 g
q 1 0 0 -1 0 779 cm
737.5 627.867 m 737.5 641.676 726.309 652.867 712.5 652.867 c 698.691 652.867
 687.5 641.676 687.5 627.867 c 687.5 614.062 698.691 602.867 712.5 602.867
 c 726.309 602.867 737.5 614.062 737.5 627.867 c h
737.5 627.867 m S Q
0.85098 g
787.5 64.527 m 787.5 50.723 776.309 39.527 762.5 39.527 c 748.691 39.527
 737.5 50.723 737.5 64.527 c 737.5 78.336 748.691 89.527 762.5 89.527 c 
776.309 89.527 787.5 78.336 787.5 64.527 c h
787.5 64.527 m f
0 g
q 1 0 0 -1 0 779 cm
787.5 714.473 m 787.5 728.277 776.309 739.473 762.5 739.473 c 748.691 739.473
 737.5 728.277 737.5 714.473 c 737.5 700.664 748.691 689.473 762.5 689.473
 c 776.309 689.473 787.5 700.664 787.5 714.473 c h
787.5 714.473 m S Q
0.85098 g
587.5 757.348 m 587.5 743.543 576.309 732.348 562.5 732.348 c 548.691 732.348
 537.5 743.543 537.5 757.348 c 537.5 771.156 548.691 782.348 562.5 782.348
 c 576.309 782.348 587.5 771.156 587.5 757.348 c h
587.5 757.348 m f
0 g
q 1 0 0 -1 0 779 cm
587.5 21.652 m 587.5 35.457 576.309 46.652 562.5 46.652 c 548.691 46.652
 537.5 35.457 537.5 21.652 c 537.5 7.844 548.691 -3.348 562.5 -3.348 c 576.309
 -3.348 587.5 7.844 587.5 21.652 c h
587.5 21.652 m S Q
0.85098 g
637.5 670.746 m 637.5 656.941 626.309 645.746 612.5 645.746 c 598.691 645.746
 587.5 656.941 587.5 670.746 c 587.5 684.555 598.691 695.746 612.5 695.746
 c 626.309 695.746 637.5 684.555 637.5 670.746 c h
637.5 670.746 m f
0 g
q 1 0 0 -1 0 779 cm
637.5 108.254 m 637.5 122.059 626.309 133.254 612.5 133.254 c 598.691 133.254
 587.5 122.059 587.5 108.254 c 587.5 94.445 598.691 83.254 612.5 83.254 
c 626.309 83.254 637.5 94.445 637.5 108.254 c h
637.5 108.254 m S Q
0.85098 g
687.5 584.145 m 687.5 570.336 676.309 559.145 662.5 559.145 c 648.691 559.145
 637.5 570.336 637.5 584.145 c 637.5 597.953 648.691 609.145 662.5 609.145
 c 676.309 609.145 687.5 597.953 687.5 584.145 c h
687.5 584.145 m f
0 g
q 1 0 0 -1 0 779 cm
687.5 194.855 m 687.5 208.664 676.309 219.855 662.5 219.855 c 648.691 219.855
 637.5 208.664 637.5 194.855 c 637.5 181.047 648.691 169.855 662.5 169.855
 c 676.309 169.855 687.5 181.047 687.5 194.855 c h
687.5 194.855 m S Q
0.85098 g
737.5 497.543 m 737.5 483.734 726.309 472.543 712.5 472.543 c 698.691 472.543
 687.5 483.734 687.5 497.543 c 687.5 511.348 698.691 522.543 712.5 522.543
 c 726.309 522.543 737.5 511.348 737.5 497.543 c h
737.5 497.543 m f
0 g
q 1 0 0 -1 0 779 cm
737.5 281.457 m 737.5 295.266 726.309 306.457 712.5 306.457 c 698.691 306.457
 687.5 295.266 687.5 281.457 c 687.5 267.652 698.691 256.457 712.5 256.457
 c 726.309 256.457 737.5 267.652 737.5 281.457 c h
737.5 281.457 m S Q
0.85098 g
787.5 410.938 m 787.5 397.133 776.309 385.938 762.5 385.938 c 748.691 385.938
 737.5 397.133 737.5 410.938 c 737.5 424.746 748.691 435.938 762.5 435.938
 c 776.309 435.938 787.5 424.746 787.5 410.938 c h
787.5 410.938 m f
0 g
q 1 0 0 -1 0 779 cm
787.5 368.062 m 787.5 381.867 776.309 393.062 762.5 393.062 c 748.691 393.062
 737.5 381.867 737.5 368.062 c 737.5 354.254 748.691 343.062 762.5 343.062
 c 776.309 343.062 787.5 354.254 787.5 368.062 c h
787.5 368.062 m S Q
0.85098 g
837.5 324.336 m 837.5 310.531 826.309 299.336 812.5 299.336 c 798.691 299.336
 787.5 310.531 787.5 324.336 c 787.5 338.145 798.691 349.336 812.5 349.336
 c 826.309 349.336 837.5 338.145 837.5 324.336 c h
837.5 324.336 m f
0 g
q 1 0 0 -1 0 779 cm
837.5 454.664 m 837.5 468.469 826.309 479.664 812.5 479.664 c 798.691 479.664
 787.5 468.469 787.5 454.664 c 787.5 440.855 798.691 429.664 812.5 429.664
 c 826.309 429.664 837.5 440.855 837.5 454.664 c h
837.5 454.664 m S Q
0.85098 g
887.5 237.734 m 887.5 223.926 876.309 212.734 862.5 212.734 c 848.691 212.734
 837.5 223.926 837.5 237.734 c 837.5 251.543 848.691 262.734 862.5 262.734
 c 876.309 262.734 887.5 251.543 887.5 237.734 c h
887.5 237.734 m f
0 g
q 1 0 0 -1 0 779 cm
887.5 541.266 m 887.5 555.074 876.309 566.266 862.5 566.266 c 848.691 566.266
 837.5 555.074 837.5 541.266 c 837.5 527.457 848.691 516.266 862.5 516.266
 c 876.309 516.266 887.5 527.457 887.5 541.266 c h
887.5 541.266 m S Q
0.85098 g
937.5 151.133 m 937.5 137.324 926.309 126.133 912.5 126.133 c 898.691 126.133
 887.5 137.324 887.5 151.133 c 887.5 164.938 898.691 176.133 912.5 176.133
 c 926.309 176.133 937.5 164.938 937.5 151.133 c h
937.5 151.133 m f
0 g
q 1 0 0 -1 0 779 cm
937.5 627.867 m 937.5 641.676 926.309 652.867 912.5 652.867 c 898.691 652.867
 887.5 641.676 887.5 627.867 c 887.5 614.062 898.691 602.867 912.5 602.867
 c 926.309 602.867 937.5 614.062 937.5 627.867 c h
937.5 627.867 m S Q
0.85098 g
987.5 64.527 m 987.5 50.723 976.309 39.527 962.5 39.527 c 948.691 39.527
 937.5 50.723 937.5 64.527 c 937.5 78.336 948.691 89.527 962.5 89.527 c 
976.309 89.527 987.5 78.336 987.5 64.527 c h
987.5 64.527 m f
0 g
q 1 0 0 -1 0 779 cm
987.5 714.473 m 987.5 728.277 976.309 739.473 962.5 739.473 c 948.691 739.473
 937.5 728.277 937.5 714.473 c 937.5 700.664 948.691 689.473 962.5 689.473
 c 976.309 689.473 987.5 700.664 987.5 714.473 c h
987.5 714.473 m S Q
0.85098 g
787.5 757.348 m 787.5 743.543 776.309 732.348 762.5 732.348 c 748.691 732.348
 737.5 743.543 737.5 757.348 c 737.5 771.156 748.691 782.348 762.5 782.348
 c 776.309 782.348 787.5 771.156 787.5 757.348 c h
787.5 757.348 m f
0 g
q 1 0 0 -1 0 779 cm
787.5 21.652 m 787.5 35.457 776.309 46.652 762.5 46.652 c 748.691 46.652
 737.5 35.457 737.5 21.652 c 737.5 7.844 748.691 -3.348 762.5 -3.348 c 776.309
 -3.348 787.5 7.844 787.5 21.652 c h
787.5 21.652 m S Q
0.85098 g
837.5 670.746 m 837.5 656.941 826.309 645.746 812.5 645.746 c 798.691 645.746
 787.5 656.941 787.5 670.746 c 787.5 684.555 798.691 695.746 812.5 695.746
 c 826.309 695.746 837.5 684.555 837.5 670.746 c h
837.5 670.746 m f
0 g
q 1 0 0 -1 0 779 cm
837.5 108.254 m 837.5 122.059 826.309 133.254 812.5 133.254 c 798.691 133.254
 787.5 122.059 787.5 108.254 c 787.5 94.445 798.691 83.254 812.5 83.254 
c 826.309 83.254 837.5 94.445 837.5 108.254 c h
837.5 108.254 m S Q
0.85098 g
887.5 584.145 m 887.5 570.336 876.309 559.145 862.5 559.145 c 848.691 559.145
 837.5 570.336 837.5 584.145 c 837.5 597.953 848.691 609.145 862.5 609.145
 c 876.309 609.145 887.5 597.953 887.5 584.145 c h
887.5 584.145 m f
0 g
q 1 0 0 -1 0 779 cm
887.5 194.855 m 887.5 208.664 876.309 219.855 862.5 219.855 c 848.691 219.855
 837.5 208.664 837.5 194.855 c 837.5 181.047 848.691 169.855 862.5 169.855
 c 876.309 169.855 887.5 181.047 887.5 194.855 c h
887.5 194.855 m S Q
0.85098 g
937.5 497.543 m 937.5 483.734 926.309 472.543 912.5 472.543 c 898.691 472.543
 887.5 483.734 887.5 497.543 c 887.5 511.348 898.691 522.543 912.5 522.543
 c 926.309 522.543 937.5 511.348 937.5 497.543 c h
937.5 497.543 m f
0 g
q 1 0 0 -1 0 779 cm
937.5 281.457 m 937.5 295.266 926.309 306.457 912.5 306.457 c 898.691 306.457
 887.5 295.266 887.5 281.457 c 887.5 267.652 898.691 256.457 912.5 256.457
 c 926.309 256.457 937.5 267.652 937.5 281.457 c h
937.5 281.457 m S Q
0.85098 g
987.5 410.938 m 987.5 397.133 976.309 385.938 962.5 385.938 c 948.691 385.938
 937.5 397.133 937.5 410.938 c 937.5 424.746 948.691 435.938 962.5 435.938
 c 976.309 435.938 987.5 424.746 987.5 410.938 c h
987.5 410.938 m f
0 g
q 1 0 0 -1 0 779 cm
987.5 368.062 m 987.5 381.867 976.309 393.062 962.5 393.062 c 948.691 393.062
 937.5 381.867 937.5 368.062 c 937.5 354.254 948.691 343.062 962.5 343.062
 c 976.309 343.062 987.5 354.254 987.5 368.062 c h
987.5 368.062 m S Q
0.85098 g
1037.5 324.336 m 1037.5 310.531 1026.309 299.336 1012.5 299.336 c 998.691
 299.336 987.5 310.531 987.5 324.336 c 987.5 338.145 998.691 349.336 1012.5
 349.336 c 1026.309 349.336 1037.5 338.145 1037.5 324.336 c h
1037.5 324.336 m f
0 g
q 1 0 0 -1 0 779 cm
1037.5 454.664 m 1037.5 468.469 1026.309 479.664 1012.5 479.664 c 998.691
 479.664 987.5 468.469 987.5 454.664 c 987.5 440.855 998.691 429.664 1012.5
 429.664 c 1026.309 429.664 1037.5 440.855 1037.5 454.664 c h
1037.5 454.664 m S Q
0.85098 g
1087.5 237.734 m 1087.5 223.926 1076.309 212.734 1062.5 212.734 c 1048.691
 212.734 1037.5 223.926 1037.5 237.734 c 1037.5 251.543 1048.691 262.734
 1062.5 262.734 c 1076.309 262.734 1087.5 251.543 1087.5 237.734 c h
1087.5 237.734 m f
0 g
q 1 0 0 -1 0 779 cm
1087.5 541.266 m 1087.5 555.074 1076.309 566.266 1062.5 566.266 c 1048.691
 566.266 1037.5 555.074 1037.5 541.266 c 1037.5 527.457 1048.691 516.266
 1062.5 516.266 c 1076.309 516.266 1087.5 527.457 1087.5 541.266 c h
1087.5 541.266 m S Q
0.85098 g
1137.5 151.133 m 1137.5 137.324 1126.309 126.133 1112.5 126.133 c 1098.691
 126.133 1087.5 137.324 1087.5 151.133 c 1087.5 164.938 1098.691 176.133
 1112.5 176.133 c 1126.309 176.133 1137.5 164.938 1137.5 151.133 c h
1137.5 151.133 m f
0 g
q 1 0 0 -1 0 779 cm
1137.5 627.867 m 1137.5 641.676 1126.309 652.867 1112.5 652.867 c 1098.691
 652.867 1087.5 641.676 1087.5 627.867 c 1087.5 614.062 1098.691 602.867
 1112.5 602.867 c 1126.309 602.867 1137.5 614.062 1137.5 627.867 c h
1137.5 627.867 m S Q
0.85098 g
1187.5 64.527 m 1187.5 50.723 1176.309 39.527 1162.5 39.527 c 1148.691 
39.527 1137.5 50.723 1137.5 64.527 c 1137.5 78.336 1148.691 89.527 1162.5
 89.527 c 1176.309 89.527 1187.5 78.336 1187.5 64.527 c h
1187.5 64.527 m f
0 g
q 1 0 0 -1 0 779 cm
1187.5 714.473 m 1187.5 728.277 1176.309 739.473 1162.5 739.473 c 1148.691
 739.473 1137.5 728.277 1137.5 714.473 c 1137.5 700.664 1148.691 689.473
 1162.5 689.473 c 1176.309 689.473 1187.5 700.664 1187.5 714.473 c h
1187.5 714.473 m S Q
0.85098 g
987.5 757.348 m 987.5 743.543 976.309 732.348 962.5 732.348 c 948.691 732.348
 937.5 743.543 937.5 757.348 c 937.5 771.156 948.691 782.348 962.5 782.348
 c 976.309 782.348 987.5 771.156 987.5 757.348 c h
987.5 757.348 m f
0 g
q 1 0 0 -1 0 779 cm
987.5 21.652 m 987.5 35.457 976.309 46.652 962.5 46.652 c 948.691 46.652
 937.5 35.457 937.5 21.652 c 937.5 7.844 948.691 -3.348 962.5 -3.348 c 976.309
 -3.348 987.5 7.844 987.5 21.652 c h
987.5 21.652 m S Q
0.85098 g
1037.5 670.746 m 1037.5 656.941 1026.309 645.746 1012.5 645.746 c 998.691
 645.746 987.5 656.941 987.5 670.746 c 987.5 684.555 998.691 695.746 1012.5
 695.746 c 1026.309 695.746 1037.5 684.555 1037.5 670.746 c h
1037.5 670.746 m f
0 g
q 1 0 0 -1 0 779 cm
1037.5 108.254 m 1037.5 122.059 1026.309 133.254 1012.5 133.254 c 998.691
 133.254 987.5 122.059 987.5 108.254 c 987.5 94.445 998.691 83.254 1012.5
 83.254 c 1026.309 83.254 1037.5 94.445 1037.5 108.254 c h
1037.5 108.254 m S Q
0.85098 g
1087.5 584.145 m 1087.5 570.336 1076.309 559.145 1062.5 559.145 c 1048.691
 559.145 1037.5 570.336 1037.5 584.145 c 1037.5 597.953 1048.691 609.145
 1062.5 609.145 c 1076.309 609.145 1087.5 597.953 1087.5 584.145 c h
1087.5 584.145 m f
0 g
q 1 0 0 -1 0 779 cm
1087.5 194.855 m 1087.5 208.664 1076.309 219.855 1062.5 219.855 c 1048.691
 219.855 1037.5 208.664 1037.5 194.855 c 1037.5 181.047 1048.691 169.855
 1062.5 169.855 c 1076.309 169.855 1087.5 181.047 1087.5 194.855 c h
1087.5 194.855 m S Q
0.85098 g
1137.5 497.543 m 1137.5 483.734 1126.309 472.543 1112.5 472.543 c 1098.691
 472.543 1087.5 483.734 1087.5 497.543 c 1087.5 511.348 1098.691 522.543
 1112.5 522.543 c 1126.309 522.543 1137.5 511.348 1137.5 497.543 c h
1137.5 497.543 m f
0 g
q 1 0 0 -1 0 779 cm
1137.5 281.457 m 1137.5 295.266 1126.309 306.457 1112.5 306.457 c 1098.691
 306.457 1087.5 295.266 1087.5 281.457 c 1087.5 267.652 1098.691 256.457
 1112.5 256.457 c 1126.309 256.457 1137.5 267.652 1137.5 281.457 c h
1137.5 281.457 m S Q
0.85098 g
1187.5 410.938 m 1187.5 397.133 1176.309 385.938 1162.5 385.938 c 1148.691
 385.938 1137.5 397.133 1137.5 410.938 c 1137.5 424.746 1148.691 435.938
 1162.5 435.938 c 1176.309 435.938 1187.5 424.746 1187.5 410.938 c h
1187.5 410.938 m f
0 g
q 1 0 0 -1 0 779 cm
1187.5 368.062 m 1187.5 381.867 1176.309 393.062 1162.5 393.062 c 1148.691
 393.062 1137.5 381.867 1137.5 368.062 c 1137.5 354.254 1148.691 343.062
 1162.5 343.062 c 1176.309 343.062 1187.5 354.254 1187.5 368.062 c h
1187.5 368.062 m S Q
0.85098 g
1237.5 324.336 m 1237.5 310.531 1226.309 299.336 1212.5 299.336 c 1198.691
 299.336 1187.5 310.531 1187.5 324.336 c 1187.5 338.145 1198.691 349.336
 1212.5 349.336 c 1226.309 349.336 1237.5 338.145 1237.5 324.336 c h
1237.5 324.336 m f
0 g
q 1 0 0 -1 0 779 cm
1237.5 454.664 m 1237.5 468.469 1226.309 479.664 1212.5 479.664 c 1198.691
 479.664 1187.5 468.469 1187.5 454.664 c 1187.5 440.855 1198.691 429.664
 1212.5 429.664 c 1226.309 429.664 1237.5 440.855 1237.5 454.664 c h
1237.5 454.664 m S Q
0.85098 g
1287.5 237.734 m 1287.5 223.926 1276.309 212.734 1262.5 212.734 c 1248.691
 212.734 1237.5 223.926 1237.5 237.734 c 1237.5 251.543 1248.691 262.734
 1262.5 262.734 c 1276.309 262.734 1287.5 251.543 1287.5 237.734 c h
1287.5 237.734 m f
0 g
q 1 0 0 -1 0 779 cm
1287.5 541.266 m 1287.5 555.074 1276.309 566.266 1262.5 566.266 c 1248.691
 566.266 1237.5 555.074 1237.5 541.266 c 1237.5 527.457 1248.691 516.266
 1262.5 516.266 c 1276.309 516.266 1287.5 527.457 1287.5 541.266 c h
1287.5 541.266 m S Q
0.85098 g
1337.5 151.133 m 1337.5 137.324 1326.309 126.133 1312.5 126.133 c 1298.691
 126.133 1287.5 137.324 1287.5 151.133 c 1287.5 164.938 1298.691 176.133
 1312.5 176.133 c 1326.309 176.133 1337.5 164.938 1337.5 151.133 c h
1337.5 151.133 m f
0 g
q 1 0 0 -1 0 779 cm
1337.5 627.867 m 1337.5 641.676 1326.309 652.867 1312.5 652.867 c 1298.691
 652.867 1287.5 641.676 1287.5 627.867 c 1287.5 614.062 1298.691 602.867
 1312.5 602.867 c 1326.309 602.867 1337.5 614.062 1337.5 627.867 c h
1337.5 627.867 m S Q
0.85098 g
1387.5 64.527 m 1387.5 50.723 1376.309 39.527 1362.5 39.527 c 1348.691 
39.527 1337.5 50.723 1337.5 64.527 c 1337.5 78.336 1348.691 89.527 1362.5
 89.527 c 1376.309 89.527 1387.5 78.336 1387.5 64.527 c h
1387.5 64.527 m f
0 g
q 1 0 0 -1 0 779 cm
1387.5 714.473 m 1387.5 728.277 1376.309 739.473 1362.5 739.473 c 1348.691
 739.473 1337.5 728.277 1337.5 714.473 c 1337.5 700.664 1348.691 689.473
 1362.5 689.473 c 1376.309 689.473 1387.5 700.664 1387.5 714.473 c h
1387.5 714.473 m S Q
0.85098 g
1187.5 757.348 m 1187.5 743.543 1176.309 732.348 1162.5 732.348 c 1148.691
 732.348 1137.5 743.543 1137.5 757.348 c 1137.5 771.156 1148.691 782.348
 1162.5 782.348 c 1176.309 782.348 1187.5 771.156 1187.5 757.348 c h
1187.5 757.348 m f
0 g
q 1 0 0 -1 0 779 cm
1187.5 21.652 m 1187.5 35.457 1176.309 46.652 1162.5 46.652 c 1148.691 
46.652 1137.5 35.457 1137.5 21.652 c 1137.5 7.844 1148.691 -3.348 1162.5
 -3.348 c 1176.309 -3.348 1187.5 7.844 1187.5 21.652 c h
1187.5 21.652 m S Q
0.85098 g
1237.5 670.746 m 1237.5 656.941 1226.309 645.746 1212.5 645.746 c 1198.691
 645.746 1187.5 656.941 1187.5 670.746 c 1187.5 684.555 1198.691 695.746
 1212.5 695.746 c 1226.309 695.746 1237.5 684.555 1237.5 670.746 c h
1237.5 670.746 m f
0 g
q 1 0 0 -1 0 779 cm
1237.5 108.254 m 1237.5 122.059 1226.309 133.254 1212.5 133.254 c 1198.691
 133.254 1187.5 122.059 1187.5 108.254 c 1187.5 94.445 1198.691 83.254 1212.5
 83.254 c 1226.309 83.254 1237.5 94.445 1237.5 108.254 c h
1237.5 108.254 m S Q
0.85098 g
1287.5 584.145 m 1287.5 570.336 1276.309 559.145 1262.5 559.145 c 1248.691
 559.145 1237.5 570.336 1237.5 584.145 c 1237.5 597.953 1248.691 609.145
 1262.5 609.145 c 1276.309 609.145 1287.5 597.953 1287.5 584.145 c h
1287.5 584.145 m f
0 g
q 1 0 0 -1 0 779 cm
1287.5 194.855 m 1287.5 208.664 1276.309 219.855 1262.5 219.855 c 1248.691
 219.855 1237.5 208.664 1237.5 194.855 c 1237.5 181.047 1248.691 169.855
 1262.5 169.855 c 1276.309 169.855 1287.5 181.047 1287.5 194.855 c h
1287.5 194.855 m S Q
0.85098 g
1337.5 497.543 m 1337.5 483.734 1326.309 472.543 1312.5 472.543 c 1298.691
 472.543 1287.5 483.734 1287.5 497.543 c 1287.5 511.348 1298.691 522.543
 1312.5 522.543 c 1326.309 522.543 1337.5 511.348 1337.5 497.543 c h
1337.5 497.543 m f
0 g
q 1 0 0 -1 0 779 cm
1337.5 281.457 m 1337.5 295.266 1326.309 306.457 1312.5 306.457 c 1298.691
 306.457 1287.5 295.266 1287.5 281.457 c 1287.5 267.652 1298.691 256.457
 1312.5 256.457 c 1326.309 256.457 1337.5 267.652 1337.5 281.457 c h
1337.5 281.457 m S Q
0.85098 g
1387.5 410.938 m 1387.5 397.133 1376.309 385.938 1362.5 385.938 c 1348.691
 385.938 1337.5 397.133 1337.5 410.938 c 1337.5 424.746 1348.691 435.938
 1362.5 435.938 c 1376.309 435.938 1387.5 424.746 1387.5 410.938 c h
1387.5 410.938 m f
0 g
q 1 0 0 -1 0 779 cm
1387.5 368.062 m 1387.5 381.867 1376.309 393.062 1362.5 393.062 c 1348.691
 393.062 1337.5 381.867 1337.5 368.062 c 1337.5 354.254 1348.691 343.062
 1362.5 343.062 c 1376.309 343.062 1387.5 354.254 1387.5 368.062 c h
1387.5 368.062 m S Q
Q Q
showpage
%%Trailer
%%Trailer
cleartomark
countdictstack
exch sub { end } repeat
restore
%%EOF
