%!PS-Adobe-2.0 EPSF-2.0
%%BoundingBox: 0 0 1164 636
%%HiResBoundingBox: 0.000000 0.000000 1164.000000 636.000000
%%Creator: cairo 1.14.2 (http://cairographics.org)
%%CreationDate: Mon Sep  7 08:21:41 2015
%%DocumentData: Clean7Bit
%%LanguageLevel: 2
%%DocumentMedia: 411x224mm 1164 636 0 () ()
%%EndComments
% EPSF created by ps2eps 1.68
%%BeginProlog
save
countdictstack
mark
newpath
/showpage {} def
/setpagedevice {pop} def
%%EndProlog
%%Page 1 1
%%BeginProlog
/languagelevel where
{ pop languagelevel } { 1 } ifelse
2 lt { /Helvetica findfont 12 scalefont setfont 50 500 moveto
  (This print job requires a PostScript Language Level 2 printer.) show
  showpage quit } if
/q { gsave } bind def
/Q { grestore } bind def
/cm { 6 array astore concat } bind def
/w { setlinewidth } bind def
/J { setlinecap } bind def
/j { setlinejoin } bind def
/M { setmiterlimit } bind def
/d { setdash } bind def
/m { moveto } bind def
/l { lineto } bind def
/c { curveto } bind def
/h { closepath } bind def
/re { exch dup neg 3 1 roll 5 3 roll moveto 0 rlineto
      0 exch rlineto 0 rlineto closepath } bind def
/S { stroke } bind def
/f { fill } bind def
/f* { eofill } bind def
/n { newpath } bind def
/W { clip } bind def
/W* { eoclip } bind def
/BT { } bind def
/ET { } bind def
/pdfmark where { pop globaldict /?pdfmark /exec load put }
    { globaldict begin /?pdfmark /pop load def /pdfmark
    /cleartomark load def end } ifelse
/BDC { mark 3 1 roll /BDC pdfmark } bind def
/EMC { mark /EMC pdfmark } bind def
/cairo_store_point { /cairo_point_y exch def /cairo_point_x exch def } def
/Tj { show currentpoint cairo_store_point } bind def
/TJ {
  {
    dup
    type /stringtype eq
    { show } { -0.001 mul 0 cairo_font_matrix dtransform rmoveto } ifelse
  } forall
  currentpoint cairo_store_point
} bind def
/cairo_selectfont { cairo_font_matrix aload pop pop pop 0 0 6 array astore
    cairo_font exch selectfont cairo_point_x cairo_point_y moveto } bind def
/Tf { pop /cairo_font exch def /cairo_font_matrix where
      { pop cairo_selectfont } if } bind def
/Td { matrix translate cairo_font_matrix matrix concatmatrix dup
      /cairo_font_matrix exch def dup 4 get exch 5 get cairo_store_point
      /cairo_font where { pop cairo_selectfont } if } bind def
/Tm { 2 copy 8 2 roll 6 array astore /cairo_font_matrix exch def
      cairo_store_point /cairo_font where { pop cairo_selectfont } if } bind def
/g { setgray } bind def
/rg { setrgbcolor } bind def
/d1 { setcachedevice } bind def
/cairo_set_page_size {
  % Change paper size, but only if different from previous paper size otherwise
  % duplex fails. PLRM specifies a tolerance of 5 pts when matching paper size
  % so we use the same when checking if the size changes.
  /setpagedevice where {
    pop currentpagedevice
    /PageSize known {
      2 copy
      currentpagedevice /PageSize get aload pop
      exch 4 1 roll
      sub abs 5 gt
      3 1 roll
      sub abs 5 gt
      or
    } {
      true
    } ifelse
    {
      2 array astore
      2 dict begin
        /PageSize exch def
        /ImagingBBox null def
      currentdict end
      setpagedevice
    } {
      pop pop
    } ifelse
  } {
    pop
  } ifelse
} def
%%EndProlog
%%BeginSetup
%%EndSetup
%%Page: 1 1
%%BeginPageSetup
%%PageMedia: 411x224mm
%%PageBoundingBox: 0 0 1164 636
1164 636 cairo_set_page_size
%%EndPageSetup
q 0 0 1164 636 rectclip q
Q q
0.984314 g
0 636 1163.605 -636.395 re f*
0.788235 g
1.875 w
0 J
1 j
[] 0.0 d
4 M 0 636 1163.605 -636.395 re S
0 g
2.5 w
1 J
25.246 141.023 m -8.09 141.023 -55.227 188.164 -12.133 211.734 c S
95.957 70.316 m 62.621 70.316 15.48 117.453 58.578 141.023 c S
-37.379 70.316 m -4.043 70.316 43.098 23.176 0 -0.395 c S
166.668 -0.395 m 133.332 -0.395 86.191 46.746 129.289 70.316 c S
13.113 353.156 m -20.219 353.156 -67.359 400.297 -24.266 423.867 c S
83.824 282.445 m 50.492 282.445 3.352 329.586 46.445 353.156 c S
-49.508 282.445 m -16.176 282.445 30.965 235.305 -12.133 211.734 c S
154.535 211.734 m 121.203 211.734 74.062 258.875 117.156 282.445 c S
21.203 211.734 m 54.535 211.734 101.676 164.594 58.578 141.023 c S
225.246 141.023 m 191.91 141.023 144.773 188.164 187.867 211.734 c S
91.91 141.023 m 125.246 141.023 172.387 93.887 129.289 70.316 c S
295.957 70.316 m 262.621 70.316 215.48 117.453 258.578 141.023 c S
162.621 70.316 m 195.957 70.316 243.098 23.176 200 -0.395 c S
366.668 -0.395 m 333.332 -0.395 286.191 46.746 329.289 70.316 c S
0.98 565.289 m -32.352 565.289 -79.492 612.43 -36.395 636 c S
71.691 494.578 m 38.359 494.578 -8.781 541.719 34.316 565.289 c S
142.402 423.867 m 109.07 423.867 61.93 471.008 105.023 494.578 c S
9.07 423.867 m 42.402 423.867 89.543 376.727 46.445 353.156 c S
213.113 353.156 m 179.781 353.156 132.641 400.297 175.734 423.867 c S
79.781 353.156 m 113.113 353.156 160.254 306.016 117.156 282.445 c S
283.824 282.445 m 250.492 282.445 203.352 329.586 246.445 353.156 c S
150.492 282.445 m 183.824 282.445 230.965 235.305 187.867 211.734 c S
354.535 211.734 m 321.203 211.734 274.062 258.875 317.156 282.445 c S
221.203 211.734 m 254.535 211.734 301.676 164.594 258.578 141.023 c S
425.246 141.023 m 391.91 141.023 344.773 188.164 387.867 211.734 c S
291.91 141.023 m 325.246 141.023 372.387 93.887 329.289 70.316 c S
495.957 70.316 m 462.621 70.316 415.48 117.453 458.578 141.023 c S
362.621 70.316 m 395.957 70.316 443.098 23.176 400 -0.395 c S
566.668 -0.395 m 533.332 -0.395 486.191 46.746 529.289 70.316 c S
-3.062 636 m 30.27 636 77.41 588.859 34.316 565.289 c S
200.98 565.289 m 167.648 565.289 120.508 612.43 163.605 636 c S
67.648 565.289 m 100.98 565.289 148.121 518.148 105.023 494.578 c S
271.691 494.578 m 238.359 494.578 191.219 541.719 234.316 565.289 c S
138.359 494.578 m 171.691 494.578 218.832 447.438 175.734 423.867 c S
342.402 423.867 m 309.07 423.867 261.93 471.008 305.023 494.578 c S
209.07 423.867 m 242.402 423.867 289.543 376.727 246.445 353.156 c S
413.113 353.156 m 379.781 353.156 332.641 400.297 375.734 423.867 c S
279.781 353.156 m 313.113 353.156 360.254 306.016 317.156 282.445 c S
483.824 282.445 m 450.492 282.445 403.352 329.586 446.445 353.156 c S
350.492 282.445 m 383.824 282.445 430.965 235.305 387.867 211.734 c S
554.535 211.734 m 521.203 211.734 474.062 258.875 517.156 282.445 c S
421.203 211.734 m 454.535 211.734 501.676 164.594 458.578 141.023 c S
625.246 141.023 m 591.91 141.023 544.773 188.164 587.867 211.734 c S
491.91 141.023 m 525.246 141.023 572.387 93.887 529.289 70.316 c S
695.957 70.316 m 662.621 70.316 615.48 117.453 658.578 141.023 c S
562.621 70.316 m 595.957 70.316 643.098 23.176 600 -0.395 c S
766.668 -0.395 m 733.332 -0.395 686.191 46.746 729.289 70.316 c S
196.938 636 m 230.27 636 277.41 588.859 234.316 565.289 c S
400.98 565.289 m 367.648 565.289 320.508 612.43 363.605 636 c S
267.648 565.289 m 300.98 565.289 348.121 518.148 305.023 494.578 c S
471.691 494.578 m 438.359 494.578 391.219 541.719 434.316 565.289 c S
338.359 494.578 m 371.691 494.578 418.832 447.438 375.734 423.867 c S
542.402 423.867 m 509.07 423.867 461.93 471.008 505.023 494.578 c S
409.07 423.867 m 442.402 423.867 489.543 376.727 446.445 353.156 c S
613.113 353.156 m 579.781 353.156 532.641 400.297 575.734 423.867 c S
479.781 353.156 m 513.113 353.156 560.254 306.016 517.156 282.445 c S
683.824 282.445 m 650.492 282.445 603.352 329.586 646.445 353.156 c S
550.492 282.445 m 583.824 282.445 630.965 235.305 587.867 211.734 c S
754.535 211.734 m 721.203 211.734 674.062 258.875 717.156 282.445 c S
621.203 211.734 m 654.535 211.734 701.676 164.594 658.578 141.023 c S
825.246 141.023 m 791.91 141.023 744.773 188.164 787.867 211.734 c S
691.91 141.023 m 725.246 141.023 772.387 93.887 729.289 70.316 c S
895.957 70.316 m 862.621 70.316 815.48 117.453 858.578 141.023 c S
762.621 70.316 m 795.957 70.316 843.098 23.176 800 -0.395 c S
966.668 -0.395 m 933.332 -0.395 886.191 46.746 929.289 70.316 c S
396.938 636 m 430.27 636 477.41 588.859 434.316 565.289 c S
600.98 565.289 m 567.648 565.289 520.508 612.43 563.605 636 c S
467.648 565.289 m 500.98 565.289 548.121 518.148 505.023 494.578 c S
671.691 494.578 m 638.359 494.578 591.219 541.719 634.316 565.289 c S
538.359 494.578 m 571.691 494.578 618.832 447.438 575.734 423.867 c S
742.402 423.867 m 709.07 423.867 661.93 471.008 705.023 494.578 c S
609.07 423.867 m 642.402 423.867 689.543 376.727 646.445 353.156 c S
813.113 353.156 m 779.781 353.156 732.641 400.297 775.734 423.867 c S
679.781 353.156 m 713.113 353.156 760.254 306.016 717.156 282.445 c S
883.824 282.445 m 850.492 282.445 803.352 329.586 846.445 353.156 c S
750.492 282.445 m 783.824 282.445 830.965 235.305 787.867 211.734 c S
954.535 211.734 m 921.203 211.734 874.062 258.875 917.156 282.445 c S
821.203 211.734 m 854.535 211.734 901.676 164.594 858.578 141.023 c S
1025.246 141.023 m 991.91 141.023 944.773 188.164 987.867 211.734 c S
891.91 141.023 m 925.246 141.023 972.387 93.887 929.289 70.316 c S
1095.957 70.316 m 1062.621 70.316 1015.48 117.453 1058.578 141.023 c S
962.621 70.316 m 995.957 70.316 1043.098 23.176 1000 -0.395 c S
Q q
1110 72 53.605 -72 re W n
0 g
2.5 w
1 J
1 j
[] 0.0 d
4 M 1166.668 -0.395 m 1133.332 -0.395 1086.191 46.746 1129.289 70.316 c S
Q q
0 g
2.5 w
1 J
1 j
[] 0.0 d
4 M 596.938 636 m 630.27 636 677.41 588.859 634.316 565.289 c S
800.98 565.289 m 767.648 565.289 720.508 612.43 763.605 636 c S
667.648 565.289 m 700.98 565.289 748.121 518.148 705.023 494.578 c S
871.691 494.578 m 838.359 494.578 791.219 541.719 834.316 565.289 c S
738.359 494.578 m 771.691 494.578 818.832 447.438 775.734 423.867 c S
942.402 423.867 m 909.07 423.867 861.93 471.008 905.023 494.578 c S
809.07 423.867 m 842.402 423.867 889.543 376.727 846.445 353.156 c S
1013.113 353.156 m 979.781 353.156 932.641 400.297 975.734 423.867 c S
879.781 353.156 m 913.113 353.156 960.254 306.016 917.156 282.445 c S
1083.824 282.445 m 1050.492 282.445 1003.352 329.586 1046.445 353.156 c
 S
950.492 282.445 m 983.824 282.445 1030.965 235.305 987.867 211.734 c S
1154.535 211.734 m 1121.203 211.734 1074.062 258.875 1117.156 282.445 c
 S
1021.203 211.734 m 1054.535 211.734 1101.676 164.594 1058.578 141.023 c
 S
1091.91 141.023 m 1125.246 141.023 1172.387 93.887 1129.289 70.316 c S
Q q
1161 72 2.605 -72 re W n
0 g
2.5 w
1 J
1 j
[] 0.0 d
4 M 1162.621 70.316 m 1195.957 70.316 1243.098 23.176 1200 -0.395 c S
Q q
0 g
2.5 w
1 J
1 j
[] 0.0 d
4 M 796.938 636 m 830.27 636 877.41 588.859 834.316 565.289 c S
1000.98 565.289 m 967.648 565.289 920.508 612.43 963.605 636 c S
867.648 565.289 m 900.98 565.289 948.121 518.148 905.023 494.578 c S
1071.691 494.578 m 1038.359 494.578 991.219 541.719 1034.316 565.289 c S
938.359 494.578 m 971.691 494.578 1018.832 447.438 975.734 423.867 c S
1142.402 423.867 m 1109.07 423.867 1061.93 471.008 1105.023 494.578 c S
1009.07 423.867 m 1042.402 423.867 1089.543 376.727 1046.445 353.156 c S
Q q
1157 426 6.605 -75 re W n
0 g
2.5 w
1 J
1 j
[] 0.0 d
4 M 1213.113 353.156 m 1179.781 353.156 1132.641 400.297 1175.734 423.867 c
 S
Q q
0 g
2.5 w
1 J
1 j
[] 0.0 d
4 M 1079.781 353.156 m 1113.113 353.156 1160.254 306.016 1117.156 282.445 c
 S
Q q
1149 284 14.605 -74 re W n
0 g
2.5 w
1 J
1 j
[] 0.0 d
4 M 1150.492 282.445 m 1183.824 282.445 1230.965 235.305 1187.867 211.734 c
 S
Q q
0 g
2.5 w
1 J
1 j
[] 0.0 d
4 M 996.938 636 m 1030.27 636 1077.41 588.859 1034.316 565.289 c S
Q q
1145 636 18.605 -72 re W n
0 g
2.5 w
1 J
1 j
[] 0.0 d
4 M 1200.98 565.289 m 1167.648 565.289 1120.508 612.43 1163.605 636 c S
Q q
0 g
2.5 w
1 J
1 j
[] 0.0 d
4 M 1067.648 565.289 m 1100.98 565.289 1148.121 518.148 1105.023 494.578 c S
Q q
1137 496 26.605 -74 re W n
0 g
2.5 w
1 J
1 j
[] 0.0 d
4 M 1138.359 494.578 m 1171.691 494.578 1218.832 447.438 1175.734 423.867 c
 S
Q Q
showpage
%%Trailer
%%Trailer
cleartomark
countdictstack
exch sub { end } repeat
restore
%%EOF
