%!PS-Adobe-2.0 EPSF-2.0
%%BoundingBox: 0 0 1200 1039
%%HiResBoundingBox: 0.000000 0.000000 1200.000000 1039.000000
%%Creator: cairo 1.14.2 (http://cairographics.org)
%%CreationDate: Mon Sep  7 08:21:41 2015
%%DocumentData: Clean7Bit
%%LanguageLevel: 2
%%DocumentMedia: 423x367mm 1200 1039 0 () ()
%%EndComments
% EPSF created by ps2eps 1.68
%%BeginProlog
save
countdictstack
mark
newpath
/showpage {} def
/setpagedevice {pop} def
%%EndProlog
%%Page 1 1
%%BeginProlog
/languagelevel where
{ pop languagelevel } { 1 } ifelse
2 lt { /Helvetica findfont 12 scalefont setfont 50 500 moveto
  (This print job requires a PostScript Language Level 2 printer.) show
  showpage quit } if
/q { gsave } bind def
/Q { grestore } bind def
/cm { 6 array astore concat } bind def
/w { setlinewidth } bind def
/J { setlinecap } bind def
/j { setlinejoin } bind def
/M { setmiterlimit } bind def
/d { setdash } bind def
/m { moveto } bind def
/l { lineto } bind def
/c { curveto } bind def
/h { closepath } bind def
/re { exch dup neg 3 1 roll 5 3 roll moveto 0 rlineto
      0 exch rlineto 0 rlineto closepath } bind def
/S { stroke } bind def
/f { fill } bind def
/f* { eofill } bind def
/n { newpath } bind def
/W { clip } bind def
/W* { eoclip } bind def
/BT { } bind def
/ET { } bind def
/pdfmark where { pop globaldict /?pdfmark /exec load put }
    { globaldict begin /?pdfmark /pop load def /pdfmark
    /cleartomark load def end } ifelse
/BDC { mark 3 1 roll /BDC pdfmark } bind def
/EMC { mark /EMC pdfmark } bind def
/cairo_store_point { /cairo_point_y exch def /cairo_point_x exch def } def
/Tj { show currentpoint cairo_store_point } bind def
/TJ {
  {
    dup
    type /stringtype eq
    { show } { -0.001 mul 0 cairo_font_matrix dtransform rmoveto } ifelse
  } forall
  currentpoint cairo_store_point
} bind def
/cairo_selectfont { cairo_font_matrix aload pop pop pop 0 0 6 array astore
    cairo_font exch selectfont cairo_point_x cairo_point_y moveto } bind def
/Tf { pop /cairo_font exch def /cairo_font_matrix where
      { pop cairo_selectfont } if } bind def
/Td { matrix translate cairo_font_matrix matrix concatmatrix dup
      /cairo_font_matrix exch def dup 4 get exch 5 get cairo_store_point
      /cairo_font where { pop cairo_selectfont } if } bind def
/Tm { 2 copy 8 2 roll 6 array astore /cairo_font_matrix exch def
      cairo_store_point /cairo_font where { pop cairo_selectfont } if } bind def
/g { setgray } bind def
/rg { setrgbcolor } bind def
/d1 { setcachedevice } bind def
/cairo_set_page_size {
  % Change paper size, but only if different from previous paper size otherwise
  % duplex fails. PLRM specifies a tolerance of 5 pts when matching paper size
  % so we use the same when checking if the size changes.
  /setpagedevice where {
    pop currentpagedevice
    /PageSize known {
      2 copy
      currentpagedevice /PageSize get aload pop
      exch 4 1 roll
      sub abs 5 gt
      3 1 roll
      sub abs 5 gt
      or
    } {
      true
    } ifelse
    {
      2 array astore
      2 dict begin
        /PageSize exch def
        /ImagingBBox null def
      currentdict end
      setpagedevice
    } {
      pop pop
    } ifelse
  } {
    pop
  } ifelse
} def
%%EndProlog
%%BeginSetup
%%EndSetup
%%Page: 1 1
%%BeginPageSetup
%%PageMedia: 423x367mm
%%PageBoundingBox: 0 0 1200 1039
1200 1039 cairo_set_page_size
%%EndPageSetup
q 0 0 1200 1039 rectclip q
0.984314 g
0 0 1200 1039 rectfill
0.788235 g
1.875 w
0 J
1 j
[] 0.0 d
4 M 0 1039 1200 -1039.23 re S
0 g
2.5 w
1 J
0 692.59 m 0 519.383 -75 649.289 -150 605.988 c S
-150 432.781 m 0 519.383 -75 389.48 0 346.18 c S
150 432.781 m 150 259.578 75 389.48 0 346.18 c S
0 172.973 m -150 259.578 0 259.578 0 346.18 c S
0 172.973 m 150 259.578 75 129.672 150 86.371 c S
300 172.973 m 300 -0.23 225 129.672 150 86.371 c S
150 -86.832 m 0 -0.23 150 -0.23 150 86.371 c S
-150 952.398 m 0 1039 -75 909.098 0 865.793 c S
150 952.398 m 150 779.191 75 909.098 0 865.793 c S
0 692.59 m -150 779.191 0 779.191 0 865.793 c S
0 692.59 m 150 779.191 75 649.289 150 605.988 c S
300 692.59 m 300 519.383 225 649.289 150 605.988 c S
150 432.781 m 0 519.383 150 519.383 150 605.988 c S
150 432.781 m 300 519.383 225 389.48 300 346.18 c S
450 432.781 m 450 259.578 375 389.48 300 346.18 c S
300 172.973 m 150 259.578 300 259.578 300 346.18 c S
300 172.973 m 450 259.578 375 129.672 450 86.371 c S
600 172.973 m 600 -0.23 525 129.672 450 86.371 c S
450 -86.832 m 300 -0.23 450 -0.23 450 86.371 c S
150 952.398 m 300 1039 225 909.098 300 865.793 c S
450 952.398 m 450 779.191 375 909.098 300 865.793 c S
300 692.59 m 150 779.191 300 779.191 300 865.793 c S
300 692.59 m 450 779.191 375 649.289 450 605.988 c S
600 692.59 m 600 519.383 525 649.289 450 605.988 c S
450 432.781 m 300 519.383 450 519.383 450 605.988 c S
450 432.781 m 600 519.383 525 389.48 600 346.18 c S
750 432.781 m 750 259.578 675 389.48 600 346.18 c S
600 172.973 m 450 259.578 600 259.578 600 346.18 c S
600 172.973 m 750 259.578 675 129.672 750 86.371 c S
900 172.973 m 900 -0.23 825 129.672 750 86.371 c S
750 -86.832 m 600 -0.23 750 -0.23 750 86.371 c S
450 952.398 m 600 1039 525 909.098 600 865.793 c S
750 952.398 m 750 779.191 675 909.098 600 865.793 c S
600 692.59 m 450 779.191 600 779.191 600 865.793 c S
600 692.59 m 750 779.191 675 649.289 750 605.988 c S
900 692.59 m 900 519.383 825 649.289 750 605.988 c S
750 432.781 m 600 519.383 750 519.383 750 605.988 c S
750 432.781 m 900 519.383 825 389.48 900 346.18 c S
1050 432.781 m 1050 259.578 975 389.48 900 346.18 c S
900 172.973 m 750 259.578 900 259.578 900 346.18 c S
900 172.973 m 1050 259.578 975 129.672 1050 86.371 c S
1200 172.973 m 1200 -0.23 1125 129.672 1050 86.371 c S
1050 -86.832 m 900 -0.23 1050 -0.23 1050 86.371 c S
750 952.398 m 900 1039 825 909.098 900 865.793 c S
1050 952.398 m 1050 779.191 975 909.098 900 865.793 c S
900 692.59 m 750 779.191 900 779.191 900 865.793 c S
900 692.59 m 1050 779.191 975 649.289 1050 605.988 c S
1200 692.59 m 1200 519.383 1125 649.289 1050 605.988 c S
1050 432.781 m 900 519.383 1050 519.383 1050 605.988 c S
1050 432.781 m 1200 519.383 1125 389.48 1200 346.18 c S
1350 432.781 m 1350 259.578 1275 389.48 1200 346.18 c S
1200 172.973 m 1050 259.578 1200 259.578 1200 346.18 c S
1200 172.973 m 1350 259.578 1275 129.672 1350 86.371 c S
1050 952.398 m 1200 1039 1125 909.098 1200 865.793 c S
1350 952.398 m 1350 779.191 1275 909.098 1200 865.793 c S
1200 692.59 m 1050 779.191 1200 779.191 1200 865.793 c S
1200 692.59 m 1350 779.191 1275 649.289 1350 605.988 c S
Q Q
showpage
%%Trailer
%%Trailer
cleartomark
countdictstack
exch sub { end } repeat
restore
%%EOF
