%!PS-Adobe-2.0 EPSF-2.0
%%BoundingBox: 0 0 1200 1039
%%HiResBoundingBox: 0.000000 0.000000 1200.000000 1039.000000
%%Creator: cairo 1.14.2 (http://cairographics.org)
%%CreationDate: Mon Sep  7 08:21:41 2015
%%DocumentData: Clean7Bit
%%LanguageLevel: 2
%%DocumentMedia: 423x367mm 1200 1039 0 () ()
%%EndComments
% EPSF created by ps2eps 1.68
%%BeginProlog
save
countdictstack
mark
newpath
/showpage {} def
/setpagedevice {pop} def
%%EndProlog
%%Page 1 1
%%BeginProlog
/languagelevel where
{ pop languagelevel } { 1 } ifelse
2 lt { /Helvetica findfont 12 scalefont setfont 50 500 moveto
  (This print job requires a PostScript Language Level 2 printer.) show
  showpage quit } if
/q { gsave } bind def
/Q { grestore } bind def
/cm { 6 array astore concat } bind def
/w { setlinewidth } bind def
/J { setlinecap } bind def
/j { setlinejoin } bind def
/M { setmiterlimit } bind def
/d { setdash } bind def
/m { moveto } bind def
/l { lineto } bind def
/c { curveto } bind def
/h { closepath } bind def
/re { exch dup neg 3 1 roll 5 3 roll moveto 0 rlineto
      0 exch rlineto 0 rlineto closepath } bind def
/S { stroke } bind def
/f { fill } bind def
/f* { eofill } bind def
/n { newpath } bind def
/W { clip } bind def
/W* { eoclip } bind def
/BT { } bind def
/ET { } bind def
/pdfmark where { pop globaldict /?pdfmark /exec load put }
    { globaldict begin /?pdfmark /pop load def /pdfmark
    /cleartomark load def end } ifelse
/BDC { mark 3 1 roll /BDC pdfmark } bind def
/EMC { mark /EMC pdfmark } bind def
/cairo_store_point { /cairo_point_y exch def /cairo_point_x exch def } def
/Tj { show currentpoint cairo_store_point } bind def
/TJ {
  {
    dup
    type /stringtype eq
    { show } { -0.001 mul 0 cairo_font_matrix dtransform rmoveto } ifelse
  } forall
  currentpoint cairo_store_point
} bind def
/cairo_selectfont { cairo_font_matrix aload pop pop pop 0 0 6 array astore
    cairo_font exch selectfont cairo_point_x cairo_point_y moveto } bind def
/Tf { pop /cairo_font exch def /cairo_font_matrix where
      { pop cairo_selectfont } if } bind def
/Td { matrix translate cairo_font_matrix matrix concatmatrix dup
      /cairo_font_matrix exch def dup 4 get exch 5 get cairo_store_point
      /cairo_font where { pop cairo_selectfont } if } bind def
/Tm { 2 copy 8 2 roll 6 array astore /cairo_font_matrix exch def
      cairo_store_point /cairo_font where { pop cairo_selectfont } if } bind def
/g { setgray } bind def
/rg { setrgbcolor } bind def
/d1 { setcachedevice } bind def
/cairo_set_page_size {
  % Change paper size, but only if different from previous paper size otherwise
  % duplex fails. PLRM specifies a tolerance of 5 pts when matching paper size
  % so we use the same when checking if the size changes.
  /setpagedevice where {
    pop currentpagedevice
    /PageSize known {
      2 copy
      currentpagedevice /PageSize get aload pop
      exch 4 1 roll
      sub abs 5 gt
      3 1 roll
      sub abs 5 gt
      or
    } {
      true
    } ifelse
    {
      2 array astore
      2 dict begin
        /PageSize exch def
        /ImagingBBox null def
      currentdict end
      setpagedevice
    } {
      pop pop
    } ifelse
  } {
    pop
  } ifelse
} def
%%EndProlog
%%BeginSetup
%%EndSetup
%%Page: 1 1
%%BeginPageSetup
%%PageMedia: 423x367mm
%%PageBoundingBox: 0 0 1200 1039
1200 1039 cairo_set_page_size
%%EndPageSetup
q 0 0 1200 1039 rectclip q
0.984314 g
0 0 1200 1039 rectfill
0.788235 g
1.875 w
0 J
1 j
[] 0.0 d
4 M 0 1039 1200 -1039.23 re S
0 g
2.5 w
1 J
0 519.383 m -75 735.891 -150 692.59 -75 649.289 c S
0 519.383 m -150 346.18 -75 302.879 -75 389.48 c S
150 259.578 m 75 476.082 0 432.781 75 389.48 c S
-150 259.578 m 75 216.277 75 302.879 0 259.578 c S
150 259.578 m 0 86.371 75 43.07 75 129.672 c S
300 -0.23 m 225 216.277 150 172.973 225 129.672 c S
0 -0.23 m 225 -43.531 225 43.07 150 -0.23 c S
0 1039 m -150 865.793 -75 822.492 -75 909.098 c S
150 779.191 m 75 995.699 0 952.398 75 909.098 c S
-150 779.191 m 75 735.891 75 822.492 0 779.191 c S
150 779.191 m 0 605.988 75 562.688 75 649.289 c S
300 519.383 m 225 735.891 150 692.59 225 649.289 c S
0 519.383 m 225 476.082 225 562.688 150 519.383 c S
300 519.383 m 150 346.18 225 302.879 225 389.48 c S
450 259.578 m 375 476.082 300 432.781 375 389.48 c S
150 259.578 m 375 216.277 375 302.879 300 259.578 c S
450 259.578 m 300 86.371 375 43.07 375 129.672 c S
600 -0.23 m 525 216.277 450 172.973 525 129.672 c S
300 -0.23 m 525 -43.531 525 43.07 450 -0.23 c S
300 1039 m 150 865.793 225 822.492 225 909.098 c S
450 779.191 m 375 995.699 300 952.398 375 909.098 c S
150 779.191 m 375 735.891 375 822.492 300 779.191 c S
450 779.191 m 300 605.988 375 562.688 375 649.289 c S
600 519.383 m 525 735.891 450 692.59 525 649.289 c S
300 519.383 m 525 476.082 525 562.688 450 519.383 c S
600 519.383 m 450 346.18 525 302.879 525 389.48 c S
750 259.578 m 675 476.082 600 432.781 675 389.48 c S
450 259.578 m 675 216.277 675 302.879 600 259.578 c S
750 259.578 m 600 86.371 675 43.07 675 129.672 c S
900 -0.23 m 825 216.277 750 172.973 825 129.672 c S
600 -0.23 m 825 -43.531 825 43.07 750 -0.23 c S
600 1039 m 450 865.793 525 822.492 525 909.098 c S
750 779.191 m 675 995.699 600 952.398 675 909.098 c S
450 779.191 m 675 735.891 675 822.492 600 779.191 c S
750 779.191 m 600 605.988 675 562.688 675 649.289 c S
900 519.383 m 825 735.891 750 692.59 825 649.289 c S
600 519.383 m 825 476.082 825 562.688 750 519.383 c S
900 519.383 m 750 346.18 825 302.879 825 389.48 c S
1050 259.578 m 975 476.082 900 432.781 975 389.48 c S
750 259.578 m 975 216.277 975 302.879 900 259.578 c S
1050 259.578 m 900 86.371 975 43.07 975 129.672 c S
1200 -0.23 m 1125 216.277 1050 172.973 1125 129.672 c S
900 -0.23 m 1125 -43.531 1125 43.07 1050 -0.23 c S
900 1039 m 750 865.793 825 822.492 825 909.098 c S
1050 779.191 m 975 995.699 900 952.398 975 909.098 c S
750 779.191 m 975 735.891 975 822.492 900 779.191 c S
1050 779.191 m 900 605.988 975 562.688 975 649.289 c S
1200 519.383 m 1125 735.891 1050 692.59 1125 649.289 c S
900 519.383 m 1125 476.082 1125 562.688 1050 519.383 c S
1200 519.383 m 1050 346.18 1125 302.879 1125 389.48 c S
1050 259.578 m 1275 216.277 1275 302.879 1200 259.578 c S
1200 -0.23 m 1425 -43.531 1425 43.07 1350 -0.23 c S
1200 1039 m 1050 865.793 1125 822.492 1125 909.098 c S
1050 779.191 m 1275 735.891 1275 822.492 1200 779.191 c S
1200 519.383 m 1425 476.082 1425 562.688 1350 519.383 c S
Q Q
showpage
%%Trailer
%%Trailer
cleartomark
countdictstack
exch sub { end } repeat
restore
%%EOF
