%!PS-Adobe-2.0 EPSF-2.0
%%BoundingBox: 0 0 1200 1039
%%HiResBoundingBox: 0.000000 0.000000 1200.000000 1039.000000
%%Creator: cairo 1.14.2 (http://cairographics.org)
%%CreationDate: Mon Sep  7 08:21:41 2015
%%DocumentData: Clean7Bit
%%LanguageLevel: 2
%%DocumentMedia: 423x367mm 1200 1039 0 () ()
%%EndComments
% EPSF created by ps2eps 1.68
%%BeginProlog
save
countdictstack
mark
newpath
/showpage {} def
/setpagedevice {pop} def
%%EndProlog
%%Page 1 1
%%BeginProlog
/languagelevel where
{ pop languagelevel } { 1 } ifelse
2 lt { /Helvetica findfont 12 scalefont setfont 50 500 moveto
  (This print job requires a PostScript Language Level 2 printer.) show
  showpage quit } if
/q { gsave } bind def
/Q { grestore } bind def
/cm { 6 array astore concat } bind def
/w { setlinewidth } bind def
/J { setlinecap } bind def
/j { setlinejoin } bind def
/M { setmiterlimit } bind def
/d { setdash } bind def
/m { moveto } bind def
/l { lineto } bind def
/c { curveto } bind def
/h { closepath } bind def
/re { exch dup neg 3 1 roll 5 3 roll moveto 0 rlineto
      0 exch rlineto 0 rlineto closepath } bind def
/S { stroke } bind def
/f { fill } bind def
/f* { eofill } bind def
/n { newpath } bind def
/W { clip } bind def
/W* { eoclip } bind def
/BT { } bind def
/ET { } bind def
/pdfmark where { pop globaldict /?pdfmark /exec load put }
    { globaldict begin /?pdfmark /pop load def /pdfmark
    /cleartomark load def end } ifelse
/BDC { mark 3 1 roll /BDC pdfmark } bind def
/EMC { mark /EMC pdfmark } bind def
/cairo_store_point { /cairo_point_y exch def /cairo_point_x exch def } def
/Tj { show currentpoint cairo_store_point } bind def
/TJ {
  {
    dup
    type /stringtype eq
    { show } { -0.001 mul 0 cairo_font_matrix dtransform rmoveto } ifelse
  } forall
  currentpoint cairo_store_point
} bind def
/cairo_selectfont { cairo_font_matrix aload pop pop pop 0 0 6 array astore
    cairo_font exch selectfont cairo_point_x cairo_point_y moveto } bind def
/Tf { pop /cairo_font exch def /cairo_font_matrix where
      { pop cairo_selectfont } if } bind def
/Td { matrix translate cairo_font_matrix matrix concatmatrix dup
      /cairo_font_matrix exch def dup 4 get exch 5 get cairo_store_point
      /cairo_font where { pop cairo_selectfont } if } bind def
/Tm { 2 copy 8 2 roll 6 array astore /cairo_font_matrix exch def
      cairo_store_point /cairo_font where { pop cairo_selectfont } if } bind def
/g { setgray } bind def
/rg { setrgbcolor } bind def
/d1 { setcachedevice } bind def
/cairo_set_page_size {
  % Change paper size, but only if different from previous paper size otherwise
  % duplex fails. PLRM specifies a tolerance of 5 pts when matching paper size
  % so we use the same when checking if the size changes.
  /setpagedevice where {
    pop currentpagedevice
    /PageSize known {
      2 copy
      currentpagedevice /PageSize get aload pop
      exch 4 1 roll
      sub abs 5 gt
      3 1 roll
      sub abs 5 gt
      or
    } {
      true
    } ifelse
    {
      2 array astore
      2 dict begin
        /PageSize exch def
        /ImagingBBox null def
      currentdict end
      setpagedevice
    } {
      pop pop
    } ifelse
  } {
    pop
  } ifelse
} def
%%EndProlog
%%BeginSetup
%%EndSetup
%%Page: 1 1
%%BeginPageSetup
%%PageMedia: 423x367mm
%%PageBoundingBox: 0 0 1200 1039
1200 1039 cairo_set_page_size
%%EndPageSetup
q 0 0 1200 1039 rectclip q
0.984314 g
0 0 1200 1039 rectfill
0.788235 g
1.875 w
0 J
1 j
[] 0.0 d
4 M 0 1039 1200 -1039.23 re S
0 g
2.5 w
1 J
0 432.781 m 0 490.516 -25 504.949 -75 476.082 c S
75 43.07 m 25 14.203 0 28.637 0 86.371 c S
150 172.973 m 150 230.711 125 245.145 75 216.277 c S
75 302.879 m 125 274.012 125 245.145 75 216.277 c S
-75 43.07 m -25 14.203 0 28.637 0 86.371 c S
0 952.398 m 0 1010.133 -25 1024.566 -75 995.699 c S
75 562.688 m 25 533.82 0 548.254 0 605.988 c S
150 692.59 m 150 750.324 125 764.758 75 735.891 c S
75 822.492 m 125 793.625 125 764.758 75 735.891 c S
-75 562.688 m -25 533.82 0 548.254 0 605.988 c S
225 302.879 m 175 274.012 150 288.445 150 346.18 c S
300 432.781 m 300 490.516 275 504.949 225 476.082 c S
0 432.781 m 0 490.516 25 504.949 75 476.082 c S
225 562.688 m 275 533.82 275 504.949 225 476.082 c S
75 302.879 m 125 274.012 150 288.445 150 346.18 c S
75 562.688 m 25 533.82 25 504.949 75 476.082 c S
375 43.07 m 325 14.203 300 28.637 300 86.371 c S
450 172.973 m 450 230.711 425 245.145 375 216.277 c S
150 172.973 m 150 230.711 175 245.145 225 216.277 c S
375 302.879 m 425 274.012 425 245.145 375 216.277 c S
225 43.07 m 275 14.203 300 28.637 300 86.371 c S
225 302.879 m 175 274.012 175 245.145 225 216.277 c S
225 822.492 m 175 793.625 150 808.059 150 865.793 c S
300 952.398 m 300 1010.133 275 1024.566 225 995.699 c S
0 952.398 m 0 1010.133 25 1024.566 75 995.699 c S
225 1082.301 m 275 1053.434 275 1024.566 225 995.699 c S
75 822.492 m 125 793.625 150 808.059 150 865.793 c S
75 1082.301 m 25 1053.434 25 1024.566 75 995.699 c S
375 562.688 m 325 533.82 300 548.254 300 605.988 c S
450 692.59 m 450 750.324 425 764.758 375 735.891 c S
150 692.59 m 150 750.324 175 764.758 225 735.891 c S
375 822.492 m 425 793.625 425 764.758 375 735.891 c S
225 562.688 m 275 533.82 300 548.254 300 605.988 c S
225 822.492 m 175 793.625 175 764.758 225 735.891 c S
525 302.879 m 475 274.012 450 288.445 450 346.18 c S
600 432.781 m 600 490.516 575 504.949 525 476.082 c S
300 432.781 m 300 490.516 325 504.949 375 476.082 c S
525 562.688 m 575 533.82 575 504.949 525 476.082 c S
375 302.879 m 425 274.012 450 288.445 450 346.18 c S
375 562.688 m 325 533.82 325 504.949 375 476.082 c S
675 43.07 m 625 14.203 600 28.637 600 86.371 c S
750 172.973 m 750 230.711 725 245.145 675 216.277 c S
450 172.973 m 450 230.711 475 245.145 525 216.277 c S
675 302.879 m 725 274.012 725 245.145 675 216.277 c S
525 43.07 m 575 14.203 600 28.637 600 86.371 c S
525 302.879 m 475 274.012 475 245.145 525 216.277 c S
525 822.492 m 475 793.625 450 808.059 450 865.793 c S
600 952.398 m 600 1010.133 575 1024.566 525 995.699 c S
300 952.398 m 300 1010.133 325 1024.566 375 995.699 c S
525 1082.301 m 575 1053.434 575 1024.566 525 995.699 c S
375 822.492 m 425 793.625 450 808.059 450 865.793 c S
375 1082.301 m 325 1053.434 325 1024.566 375 995.699 c S
675 562.688 m 625 533.82 600 548.254 600 605.988 c S
750 692.59 m 750 750.324 725 764.758 675 735.891 c S
450 692.59 m 450 750.324 475 764.758 525 735.891 c S
675 822.492 m 725 793.625 725 764.758 675 735.891 c S
525 562.688 m 575 533.82 600 548.254 600 605.988 c S
525 822.492 m 475 793.625 475 764.758 525 735.891 c S
825 302.879 m 775 274.012 750 288.445 750 346.18 c S
900 432.781 m 900 490.516 875 504.949 825 476.082 c S
600 432.781 m 600 490.516 625 504.949 675 476.082 c S
825 562.688 m 875 533.82 875 504.949 825 476.082 c S
675 302.879 m 725 274.012 750 288.445 750 346.18 c S
675 562.688 m 625 533.82 625 504.949 675 476.082 c S
975 43.07 m 925 14.203 900 28.637 900 86.371 c S
1050 172.973 m 1050 230.711 1025 245.145 975 216.277 c S
750 172.973 m 750 230.711 775 245.145 825 216.277 c S
975 302.879 m 1025 274.012 1025 245.145 975 216.277 c S
825 43.07 m 875 14.203 900 28.637 900 86.371 c S
825 302.879 m 775 274.012 775 245.145 825 216.277 c S
825 822.492 m 775 793.625 750 808.059 750 865.793 c S
900 952.398 m 900 1010.133 875 1024.566 825 995.699 c S
600 952.398 m 600 1010.133 625 1024.566 675 995.699 c S
825 1082.301 m 875 1053.434 875 1024.566 825 995.699 c S
675 822.492 m 725 793.625 750 808.059 750 865.793 c S
675 1082.301 m 625 1053.434 625 1024.566 675 995.699 c S
975 562.688 m 925 533.82 900 548.254 900 605.988 c S
1050 692.59 m 1050 750.324 1025 764.758 975 735.891 c S
750 692.59 m 750 750.324 775 764.758 825 735.891 c S
975 822.492 m 1025 793.625 1025 764.758 975 735.891 c S
825 562.688 m 875 533.82 900 548.254 900 605.988 c S
825 822.492 m 775 793.625 775 764.758 825 735.891 c S
1125 302.879 m 1075 274.012 1050 288.445 1050 346.18 c S
1200 432.781 m 1200 490.516 1175 504.949 1125 476.082 c S
900 432.781 m 900 490.516 925 504.949 975 476.082 c S
1125 562.688 m 1175 533.82 1175 504.949 1125 476.082 c S
975 302.879 m 1025 274.012 1050 288.445 1050 346.18 c S
975 562.688 m 925 533.82 925 504.949 975 476.082 c S
1275 43.07 m 1225 14.203 1200 28.637 1200 86.371 c S
1050 172.973 m 1050 230.711 1075 245.145 1125 216.277 c S
1125 43.07 m 1175 14.203 1200 28.637 1200 86.371 c S
1125 302.879 m 1075 274.012 1075 245.145 1125 216.277 c S
1125 822.492 m 1075 793.625 1050 808.059 1050 865.793 c S
1200 952.398 m 1200 1010.133 1175 1024.566 1125 995.699 c S
900 952.398 m 900 1010.133 925 1024.566 975 995.699 c S
1125 1082.301 m 1175 1053.434 1175 1024.566 1125 995.699 c S
975 822.492 m 1025 793.625 1050 808.059 1050 865.793 c S
975 1082.301 m 925 1053.434 925 1024.566 975 995.699 c S
1275 562.688 m 1225 533.82 1200 548.254 1200 605.988 c S
1050 692.59 m 1050 750.324 1075 764.758 1125 735.891 c S
1125 562.688 m 1175 533.82 1200 548.254 1200 605.988 c S
1125 822.492 m 1075 793.625 1075 764.758 1125 735.891 c S
1200 432.781 m 1200 490.516 1225 504.949 1275 476.082 c S
Q Q
showpage
%%Trailer
%%Trailer
cleartomark
countdictstack
exch sub { end } repeat
restore
%%EOF
