%!PS-Adobe-2.0 EPSF-2.0
%%BoundingBox: 0 0 1200 1039
%%HiResBoundingBox: 0.000000 0.000000 1200.000000 1039.000000
%%Creator: cairo 1.14.2 (http://cairographics.org)
%%CreationDate: Mon Sep  7 08:21:41 2015
%%DocumentData: Clean7Bit
%%LanguageLevel: 2
%%DocumentMedia: 423x367mm 1200 1039 0 () ()
%%EndComments
% EPSF created by ps2eps 1.68
%%BeginProlog
save
countdictstack
mark
newpath
/showpage {} def
/setpagedevice {pop} def
%%EndProlog
%%Page 1 1
%%BeginProlog
/languagelevel where
{ pop languagelevel } { 1 } ifelse
2 lt { /Helvetica findfont 12 scalefont setfont 50 500 moveto
  (This print job requires a PostScript Language Level 2 printer.) show
  showpage quit } if
/q { gsave } bind def
/Q { grestore } bind def
/cm { 6 array astore concat } bind def
/w { setlinewidth } bind def
/J { setlinecap } bind def
/j { setlinejoin } bind def
/M { setmiterlimit } bind def
/d { setdash } bind def
/m { moveto } bind def
/l { lineto } bind def
/c { curveto } bind def
/h { closepath } bind def
/re { exch dup neg 3 1 roll 5 3 roll moveto 0 rlineto
      0 exch rlineto 0 rlineto closepath } bind def
/S { stroke } bind def
/f { fill } bind def
/f* { eofill } bind def
/n { newpath } bind def
/W { clip } bind def
/W* { eoclip } bind def
/BT { } bind def
/ET { } bind def
/pdfmark where { pop globaldict /?pdfmark /exec load put }
    { globaldict begin /?pdfmark /pop load def /pdfmark
    /cleartomark load def end } ifelse
/BDC { mark 3 1 roll /BDC pdfmark } bind def
/EMC { mark /EMC pdfmark } bind def
/cairo_store_point { /cairo_point_y exch def /cairo_point_x exch def } def
/Tj { show currentpoint cairo_store_point } bind def
/TJ {
  {
    dup
    type /stringtype eq
    { show } { -0.001 mul 0 cairo_font_matrix dtransform rmoveto } ifelse
  } forall
  currentpoint cairo_store_point
} bind def
/cairo_selectfont { cairo_font_matrix aload pop pop pop 0 0 6 array astore
    cairo_font exch selectfont cairo_point_x cairo_point_y moveto } bind def
/Tf { pop /cairo_font exch def /cairo_font_matrix where
      { pop cairo_selectfont } if } bind def
/Td { matrix translate cairo_font_matrix matrix concatmatrix dup
      /cairo_font_matrix exch def dup 4 get exch 5 get cairo_store_point
      /cairo_font where { pop cairo_selectfont } if } bind def
/Tm { 2 copy 8 2 roll 6 array astore /cairo_font_matrix exch def
      cairo_store_point /cairo_font where { pop cairo_selectfont } if } bind def
/g { setgray } bind def
/rg { setrgbcolor } bind def
/d1 { setcachedevice } bind def
/cairo_set_page_size {
  % Change paper size, but only if different from previous paper size otherwise
  % duplex fails. PLRM specifies a tolerance of 5 pts when matching paper size
  % so we use the same when checking if the size changes.
  /setpagedevice where {
    pop currentpagedevice
    /PageSize known {
      2 copy
      currentpagedevice /PageSize get aload pop
      exch 4 1 roll
      sub abs 5 gt
      3 1 roll
      sub abs 5 gt
      or
    } {
      true
    } ifelse
    {
      2 array astore
      2 dict begin
        /PageSize exch def
        /ImagingBBox null def
      currentdict end
      setpagedevice
    } {
      pop pop
    } ifelse
  } {
    pop
  } ifelse
} def
%%EndProlog
%%BeginSetup
%%EndSetup
%%Page: 1 1
%%BeginPageSetup
%%PageMedia: 423x367mm
%%PageBoundingBox: 0 0 1200 1039
1200 1039 cairo_set_page_size
%%EndPageSetup
q 0 0 1200 1039 rectclip q
0.984314 g
0 0 1200 1039 rectfill
0.788235 g
1.875 w
0 J
1 j
[] 0.0 d
4 M 0 1039 1200 -1039.23 re S
0 g
2.5 w
0 461.648 m 0 403.914 l -50 432.781 l -50 490.516 l h
0 461.648 m S
0.85098 g
50 28.637 m 0 57.504 l 50 86.371 l 100 57.504 l h
50 28.637 m f*
0 g
50 28.637 m 0 57.504 l 50 86.371 l 100 57.504 l h
50 28.637 m S
0.85098 g
150 201.844 m 150 144.105 l 100 172.973 l 100 230.711 l h
150 201.844 m f*
0 g
150 201.844 m 150 144.105 l 100 172.973 l 100 230.711 l h
150 201.844 m S
0.85098 g
100 288.445 m 100 230.711 l 50 259.578 l 50 317.312 l h
100 288.445 m f*
0 g
100 288.445 m 100 230.711 l 50 259.578 l 50 317.312 l h
100 288.445 m S
-50 28.637 m -100 57.504 l -50 86.371 l 0 57.504 l h
-50 28.637 m S
0 981.266 m 0 923.531 l -50 952.398 l -50 1010.133 l h
0 981.266 m S
0.85098 g
50 548.254 m 0 577.121 l 50 605.988 l 100 577.121 l h
50 548.254 m f*
0 g
50 548.254 m 0 577.121 l 50 605.988 l 100 577.121 l h
50 548.254 m S
0.85098 g
150 721.457 m 150 663.723 l 100 692.59 l 100 750.324 l h
150 721.457 m f*
0 g
150 721.457 m 150 663.723 l 100 692.59 l 100 750.324 l h
150 721.457 m S
0.85098 g
100 808.059 m 100 750.324 l 50 779.191 l 50 836.926 l h
100 808.059 m f*
0 g
100 808.059 m 100 750.324 l 50 779.191 l 50 836.926 l h
100 808.059 m S
-50 548.254 m -100 577.121 l -50 605.988 l 0 577.121 l h
-50 548.254 m S
0.85098 g
200 288.445 m 150 317.312 l 200 346.18 l 250 317.312 l h
200 288.445 m f*
0 g
200 288.445 m 150 317.312 l 200 346.18 l 250 317.312 l h
200 288.445 m S
0.85098 g
300 461.648 m 300 403.914 l 250 432.781 l 250 490.516 l h
300 461.648 m f*
0 g
300 461.648 m 300 403.914 l 250 432.781 l 250 490.516 l h
300 461.648 m S
0.85098 g
0 461.648 m 50 490.516 l 50 432.781 l 0 403.914 l h
0 461.648 m f*
0 g
0 461.648 m 50 490.516 l 50 432.781 l 0 403.914 l h
0 461.648 m S
0.85098 g
250 548.254 m 250 490.516 l 200 519.383 l 200 577.121 l h
250 548.254 m f*
0 g
250 548.254 m 250 490.516 l 200 519.383 l 200 577.121 l h
250 548.254 m S
0.85098 g
100 288.445 m 50 317.312 l 100 346.18 l 150 317.312 l h
100 288.445 m f*
0 g
100 288.445 m 50 317.312 l 100 346.18 l 150 317.312 l h
100 288.445 m S
0.85098 g
50 548.254 m 100 577.121 l 100 519.383 l 50 490.516 l h
50 548.254 m f*
0 g
50 548.254 m 100 577.121 l 100 519.383 l 50 490.516 l h
50 548.254 m S
0.85098 g
350 28.637 m 300 57.504 l 350 86.371 l 400 57.504 l h
350 28.637 m f*
0 g
350 28.637 m 300 57.504 l 350 86.371 l 400 57.504 l h
350 28.637 m S
0.85098 g
450 201.844 m 450 144.105 l 400 172.973 l 400 230.711 l h
450 201.844 m f*
0 g
450 201.844 m 450 144.105 l 400 172.973 l 400 230.711 l h
450 201.844 m S
0.85098 g
150 201.844 m 200 230.711 l 200 172.973 l 150 144.105 l h
150 201.844 m f*
0 g
150 201.844 m 200 230.711 l 200 172.973 l 150 144.105 l h
150 201.844 m S
0.85098 g
400 288.445 m 400 230.711 l 350 259.578 l 350 317.312 l h
400 288.445 m f*
0 g
400 288.445 m 400 230.711 l 350 259.578 l 350 317.312 l h
400 288.445 m S
0.85098 g
250 28.637 m 200 57.504 l 250 86.371 l 300 57.504 l h
250 28.637 m f*
0 g
250 28.637 m 200 57.504 l 250 86.371 l 300 57.504 l h
250 28.637 m S
0.85098 g
200 288.445 m 250 317.312 l 250 259.578 l 200 230.711 l h
200 288.445 m f*
0 g
200 288.445 m 250 317.312 l 250 259.578 l 200 230.711 l h
200 288.445 m S
0.85098 g
200 808.059 m 150 836.926 l 200 865.793 l 250 836.926 l h
200 808.059 m f*
0 g
200 808.059 m 150 836.926 l 200 865.793 l 250 836.926 l h
200 808.059 m S
0.85098 g
300 981.266 m 300 923.531 l 250 952.398 l 250 1010.133 l h
300 981.266 m f*
0 g
300 981.266 m 300 923.531 l 250 952.398 l 250 1010.133 l h
300 981.266 m S
0.85098 g
0 981.266 m 50 1010.133 l 50 952.398 l 0 923.531 l h
0 981.266 m f*
0 g
0 981.266 m 50 1010.133 l 50 952.398 l 0 923.531 l h
0 981.266 m S
0.85098 g
250 1067.867 m 250 1010.133 l 200 1039 l 200 1096.734 l h
250 1067.867 m f*
0 g
250 1067.867 m 250 1010.133 l 200 1039 l 200 1096.734 l h
250 1067.867 m S
0.85098 g
100 808.059 m 50 836.926 l 100 865.793 l 150 836.926 l h
100 808.059 m f*
0 g
100 808.059 m 50 836.926 l 100 865.793 l 150 836.926 l h
100 808.059 m S
0.85098 g
50 1067.867 m 100 1096.734 l 100 1039 l 50 1010.133 l h
50 1067.867 m f*
0 g
50 1067.867 m 100 1096.734 l 100 1039 l 50 1010.133 l h
50 1067.867 m S
0.85098 g
350 548.254 m 300 577.121 l 350 605.988 l 400 577.121 l h
350 548.254 m f*
0 g
350 548.254 m 300 577.121 l 350 605.988 l 400 577.121 l h
350 548.254 m S
0.85098 g
450 721.457 m 450 663.723 l 400 692.59 l 400 750.324 l h
450 721.457 m f*
0 g
450 721.457 m 450 663.723 l 400 692.59 l 400 750.324 l h
450 721.457 m S
0.85098 g
150 721.457 m 200 750.324 l 200 692.59 l 150 663.723 l h
150 721.457 m f*
0 g
150 721.457 m 200 750.324 l 200 692.59 l 150 663.723 l h
150 721.457 m S
0.85098 g
400 808.059 m 400 750.324 l 350 779.191 l 350 836.926 l h
400 808.059 m f*
0 g
400 808.059 m 400 750.324 l 350 779.191 l 350 836.926 l h
400 808.059 m S
0.85098 g
250 548.254 m 200 577.121 l 250 605.988 l 300 577.121 l h
250 548.254 m f*
0 g
250 548.254 m 200 577.121 l 250 605.988 l 300 577.121 l h
250 548.254 m S
0.85098 g
200 808.059 m 250 836.926 l 250 779.191 l 200 750.324 l h
200 808.059 m f*
0 g
200 808.059 m 250 836.926 l 250 779.191 l 200 750.324 l h
200 808.059 m S
0.85098 g
500 288.445 m 450 317.312 l 500 346.18 l 550 317.312 l h
500 288.445 m f*
0 g
500 288.445 m 450 317.312 l 500 346.18 l 550 317.312 l h
500 288.445 m S
0.85098 g
600 461.648 m 600 403.914 l 550 432.781 l 550 490.516 l h
600 461.648 m f*
0 g
600 461.648 m 600 403.914 l 550 432.781 l 550 490.516 l h
600 461.648 m S
0.85098 g
300 461.648 m 350 490.516 l 350 432.781 l 300 403.914 l h
300 461.648 m f*
0 g
300 461.648 m 350 490.516 l 350 432.781 l 300 403.914 l h
300 461.648 m S
0.85098 g
550 548.254 m 550 490.516 l 500 519.383 l 500 577.121 l h
550 548.254 m f*
0 g
550 548.254 m 550 490.516 l 500 519.383 l 500 577.121 l h
550 548.254 m S
0.85098 g
400 288.445 m 350 317.312 l 400 346.18 l 450 317.312 l h
400 288.445 m f*
0 g
400 288.445 m 350 317.312 l 400 346.18 l 450 317.312 l h
400 288.445 m S
0.85098 g
350 548.254 m 400 577.121 l 400 519.383 l 350 490.516 l h
350 548.254 m f*
0 g
350 548.254 m 400 577.121 l 400 519.383 l 350 490.516 l h
350 548.254 m S
0.85098 g
650 28.637 m 600 57.504 l 650 86.371 l 700 57.504 l h
650 28.637 m f*
0 g
650 28.637 m 600 57.504 l 650 86.371 l 700 57.504 l h
650 28.637 m S
0.85098 g
750 201.844 m 750 144.105 l 700 172.973 l 700 230.711 l h
750 201.844 m f*
0 g
750 201.844 m 750 144.105 l 700 172.973 l 700 230.711 l h
750 201.844 m S
0.85098 g
450 201.844 m 500 230.711 l 500 172.973 l 450 144.105 l h
450 201.844 m f*
0 g
450 201.844 m 500 230.711 l 500 172.973 l 450 144.105 l h
450 201.844 m S
0.85098 g
700 288.445 m 700 230.711 l 650 259.578 l 650 317.312 l h
700 288.445 m f*
0 g
700 288.445 m 700 230.711 l 650 259.578 l 650 317.312 l h
700 288.445 m S
0.85098 g
550 28.637 m 500 57.504 l 550 86.371 l 600 57.504 l h
550 28.637 m f*
0 g
550 28.637 m 500 57.504 l 550 86.371 l 600 57.504 l h
550 28.637 m S
0.85098 g
500 288.445 m 550 317.312 l 550 259.578 l 500 230.711 l h
500 288.445 m f*
0 g
500 288.445 m 550 317.312 l 550 259.578 l 500 230.711 l h
500 288.445 m S
0.85098 g
500 808.059 m 450 836.926 l 500 865.793 l 550 836.926 l h
500 808.059 m f*
0 g
500 808.059 m 450 836.926 l 500 865.793 l 550 836.926 l h
500 808.059 m S
0.85098 g
600 981.266 m 600 923.531 l 550 952.398 l 550 1010.133 l h
600 981.266 m f*
0 g
600 981.266 m 600 923.531 l 550 952.398 l 550 1010.133 l h
600 981.266 m S
0.85098 g
300 981.266 m 350 1010.133 l 350 952.398 l 300 923.531 l h
300 981.266 m f*
0 g
300 981.266 m 350 1010.133 l 350 952.398 l 300 923.531 l h
300 981.266 m S
0.85098 g
550 1067.867 m 550 1010.133 l 500 1039 l 500 1096.734 l h
550 1067.867 m f*
0 g
550 1067.867 m 550 1010.133 l 500 1039 l 500 1096.734 l h
550 1067.867 m S
0.85098 g
400 808.059 m 350 836.926 l 400 865.793 l 450 836.926 l h
400 808.059 m f*
0 g
400 808.059 m 350 836.926 l 400 865.793 l 450 836.926 l h
400 808.059 m S
0.85098 g
350 1067.867 m 400 1096.734 l 400 1039 l 350 1010.133 l h
350 1067.867 m f*
0 g
350 1067.867 m 400 1096.734 l 400 1039 l 350 1010.133 l h
350 1067.867 m S
0.85098 g
650 548.254 m 600 577.121 l 650 605.988 l 700 577.121 l h
650 548.254 m f*
0 g
650 548.254 m 600 577.121 l 650 605.988 l 700 577.121 l h
650 548.254 m S
0.85098 g
750 721.457 m 750 663.723 l 700 692.59 l 700 750.324 l h
750 721.457 m f*
0 g
750 721.457 m 750 663.723 l 700 692.59 l 700 750.324 l h
750 721.457 m S
0.85098 g
450 721.457 m 500 750.324 l 500 692.59 l 450 663.723 l h
450 721.457 m f*
0 g
450 721.457 m 500 750.324 l 500 692.59 l 450 663.723 l h
450 721.457 m S
0.85098 g
700 808.059 m 700 750.324 l 650 779.191 l 650 836.926 l h
700 808.059 m f*
0 g
700 808.059 m 700 750.324 l 650 779.191 l 650 836.926 l h
700 808.059 m S
0.85098 g
550 548.254 m 500 577.121 l 550 605.988 l 600 577.121 l h
550 548.254 m f*
0 g
550 548.254 m 500 577.121 l 550 605.988 l 600 577.121 l h
550 548.254 m S
0.85098 g
500 808.059 m 550 836.926 l 550 779.191 l 500 750.324 l h
500 808.059 m f*
0 g
500 808.059 m 550 836.926 l 550 779.191 l 500 750.324 l h
500 808.059 m S
0.85098 g
800 288.445 m 750 317.312 l 800 346.18 l 850 317.312 l h
800 288.445 m f*
0 g
800 288.445 m 750 317.312 l 800 346.18 l 850 317.312 l h
800 288.445 m S
0.85098 g
900 461.648 m 900 403.914 l 850 432.781 l 850 490.516 l h
900 461.648 m f*
0 g
900 461.648 m 900 403.914 l 850 432.781 l 850 490.516 l h
900 461.648 m S
0.85098 g
600 461.648 m 650 490.516 l 650 432.781 l 600 403.914 l h
600 461.648 m f*
0 g
600 461.648 m 650 490.516 l 650 432.781 l 600 403.914 l h
600 461.648 m S
0.85098 g
850 548.254 m 850 490.516 l 800 519.383 l 800 577.121 l h
850 548.254 m f*
0 g
850 548.254 m 850 490.516 l 800 519.383 l 800 577.121 l h
850 548.254 m S
0.85098 g
700 288.445 m 650 317.312 l 700 346.18 l 750 317.312 l h
700 288.445 m f*
0 g
700 288.445 m 650 317.312 l 700 346.18 l 750 317.312 l h
700 288.445 m S
0.85098 g
650 548.254 m 700 577.121 l 700 519.383 l 650 490.516 l h
650 548.254 m f*
0 g
650 548.254 m 700 577.121 l 700 519.383 l 650 490.516 l h
650 548.254 m S
0.85098 g
950 28.637 m 900 57.504 l 950 86.371 l 1000 57.504 l h
950 28.637 m f*
0 g
950 28.637 m 900 57.504 l 950 86.371 l 1000 57.504 l h
950 28.637 m S
0.85098 g
1050 201.844 m 1050 144.105 l 1000 172.973 l 1000 230.711 l h
1050 201.844 m f*
0 g
1050 201.844 m 1050 144.105 l 1000 172.973 l 1000 230.711 l h
1050 201.844 m S
0.85098 g
750 201.844 m 800 230.711 l 800 172.973 l 750 144.105 l h
750 201.844 m f*
0 g
750 201.844 m 800 230.711 l 800 172.973 l 750 144.105 l h
750 201.844 m S
0.85098 g
1000 288.445 m 1000 230.711 l 950 259.578 l 950 317.312 l h
1000 288.445 m f*
0 g
1000 288.445 m 1000 230.711 l 950 259.578 l 950 317.312 l h
1000 288.445 m S
0.85098 g
850 28.637 m 800 57.504 l 850 86.371 l 900 57.504 l h
850 28.637 m f*
0 g
850 28.637 m 800 57.504 l 850 86.371 l 900 57.504 l h
850 28.637 m S
0.85098 g
800 288.445 m 850 317.312 l 850 259.578 l 800 230.711 l h
800 288.445 m f*
0 g
800 288.445 m 850 317.312 l 850 259.578 l 800 230.711 l h
800 288.445 m S
0.85098 g
800 808.059 m 750 836.926 l 800 865.793 l 850 836.926 l h
800 808.059 m f*
0 g
800 808.059 m 750 836.926 l 800 865.793 l 850 836.926 l h
800 808.059 m S
0.85098 g
900 981.266 m 900 923.531 l 850 952.398 l 850 1010.133 l h
900 981.266 m f*
0 g
900 981.266 m 900 923.531 l 850 952.398 l 850 1010.133 l h
900 981.266 m S
0.85098 g
600 981.266 m 650 1010.133 l 650 952.398 l 600 923.531 l h
600 981.266 m f*
0 g
600 981.266 m 650 1010.133 l 650 952.398 l 600 923.531 l h
600 981.266 m S
0.85098 g
850 1067.867 m 850 1010.133 l 800 1039 l 800 1096.734 l h
850 1067.867 m f*
0 g
850 1067.867 m 850 1010.133 l 800 1039 l 800 1096.734 l h
850 1067.867 m S
0.85098 g
700 808.059 m 650 836.926 l 700 865.793 l 750 836.926 l h
700 808.059 m f*
0 g
700 808.059 m 650 836.926 l 700 865.793 l 750 836.926 l h
700 808.059 m S
0.85098 g
650 1067.867 m 700 1096.734 l 700 1039 l 650 1010.133 l h
650 1067.867 m f*
0 g
650 1067.867 m 700 1096.734 l 700 1039 l 650 1010.133 l h
650 1067.867 m S
0.85098 g
950 548.254 m 900 577.121 l 950 605.988 l 1000 577.121 l h
950 548.254 m f*
0 g
950 548.254 m 900 577.121 l 950 605.988 l 1000 577.121 l h
950 548.254 m S
0.85098 g
1050 721.457 m 1050 663.723 l 1000 692.59 l 1000 750.324 l h
1050 721.457 m f*
0 g
1050 721.457 m 1050 663.723 l 1000 692.59 l 1000 750.324 l h
1050 721.457 m S
0.85098 g
750 721.457 m 800 750.324 l 800 692.59 l 750 663.723 l h
750 721.457 m f*
0 g
750 721.457 m 800 750.324 l 800 692.59 l 750 663.723 l h
750 721.457 m S
0.85098 g
1000 808.059 m 1000 750.324 l 950 779.191 l 950 836.926 l h
1000 808.059 m f*
0 g
1000 808.059 m 1000 750.324 l 950 779.191 l 950 836.926 l h
1000 808.059 m S
0.85098 g
850 548.254 m 800 577.121 l 850 605.988 l 900 577.121 l h
850 548.254 m f*
0 g
850 548.254 m 800 577.121 l 850 605.988 l 900 577.121 l h
850 548.254 m S
0.85098 g
800 808.059 m 850 836.926 l 850 779.191 l 800 750.324 l h
800 808.059 m f*
0 g
800 808.059 m 850 836.926 l 850 779.191 l 800 750.324 l h
800 808.059 m S
0.85098 g
1100 288.445 m 1050 317.312 l 1100 346.18 l 1150 317.312 l h
1100 288.445 m f*
0 g
1100 288.445 m 1050 317.312 l 1100 346.18 l 1150 317.312 l h
1100 288.445 m S
0.85098 g
1200 461.648 m 1200 403.914 l 1150 432.781 l 1150 490.516 l h
1200 461.648 m f*
0 g
1200 461.648 m 1200 403.914 l 1150 432.781 l 1150 490.516 l h
1200 461.648 m S
0.85098 g
900 461.648 m 950 490.516 l 950 432.781 l 900 403.914 l h
900 461.648 m f*
0 g
900 461.648 m 950 490.516 l 950 432.781 l 900 403.914 l h
900 461.648 m S
0.85098 g
1150 548.254 m 1150 490.516 l 1100 519.383 l 1100 577.121 l h
1150 548.254 m f*
0 g
1150 548.254 m 1150 490.516 l 1100 519.383 l 1100 577.121 l h
1150 548.254 m S
0.85098 g
1000 288.445 m 950 317.312 l 1000 346.18 l 1050 317.312 l h
1000 288.445 m f*
0 g
1000 288.445 m 950 317.312 l 1000 346.18 l 1050 317.312 l h
1000 288.445 m S
0.85098 g
950 548.254 m 1000 577.121 l 1000 519.383 l 950 490.516 l h
950 548.254 m f*
0 g
950 548.254 m 1000 577.121 l 1000 519.383 l 950 490.516 l h
950 548.254 m S
1250 28.637 m 1200 57.504 l 1250 86.371 l 1300 57.504 l h
1250 28.637 m S
0.85098 g
1050 201.844 m 1100 230.711 l 1100 172.973 l 1050 144.105 l h
1050 201.844 m f*
0 g
1050 201.844 m 1100 230.711 l 1100 172.973 l 1050 144.105 l h
1050 201.844 m S
0.85098 g
1150 28.637 m 1100 57.504 l 1150 86.371 l 1200 57.504 l h
1150 28.637 m f*
0 g
1150 28.637 m 1100 57.504 l 1150 86.371 l 1200 57.504 l h
1150 28.637 m S
0.85098 g
1100 288.445 m 1150 317.312 l 1150 259.578 l 1100 230.711 l h
1100 288.445 m f*
0 g
1100 288.445 m 1150 317.312 l 1150 259.578 l 1100 230.711 l h
1100 288.445 m S
0.85098 g
1100 808.059 m 1050 836.926 l 1100 865.793 l 1150 836.926 l h
1100 808.059 m f*
0 g
1100 808.059 m 1050 836.926 l 1100 865.793 l 1150 836.926 l h
1100 808.059 m S
0.85098 g
1200 981.266 m 1200 923.531 l 1150 952.398 l 1150 1010.133 l h
1200 981.266 m f*
0 g
1200 981.266 m 1200 923.531 l 1150 952.398 l 1150 1010.133 l h
1200 981.266 m S
0.85098 g
900 981.266 m 950 1010.133 l 950 952.398 l 900 923.531 l h
900 981.266 m f*
0 g
900 981.266 m 950 1010.133 l 950 952.398 l 900 923.531 l h
900 981.266 m S
0.85098 g
1150 1067.867 m 1150 1010.133 l 1100 1039 l 1100 1096.734 l h
1150 1067.867 m f*
0 g
1150 1067.867 m 1150 1010.133 l 1100 1039 l 1100 1096.734 l h
1150 1067.867 m S
0.85098 g
1000 808.059 m 950 836.926 l 1000 865.793 l 1050 836.926 l h
1000 808.059 m f*
0 g
1000 808.059 m 950 836.926 l 1000 865.793 l 1050 836.926 l h
1000 808.059 m S
0.85098 g
950 1067.867 m 1000 1096.734 l 1000 1039 l 950 1010.133 l h
950 1067.867 m f*
0 g
950 1067.867 m 1000 1096.734 l 1000 1039 l 950 1010.133 l h
950 1067.867 m S
1250 548.254 m 1200 577.121 l 1250 605.988 l 1300 577.121 l h
1250 548.254 m S
0.85098 g
1050 721.457 m 1100 750.324 l 1100 692.59 l 1050 663.723 l h
1050 721.457 m f*
0 g
1050 721.457 m 1100 750.324 l 1100 692.59 l 1050 663.723 l h
1050 721.457 m S
0.85098 g
1150 548.254 m 1100 577.121 l 1150 605.988 l 1200 577.121 l h
1150 548.254 m f*
0 g
1150 548.254 m 1100 577.121 l 1150 605.988 l 1200 577.121 l h
1150 548.254 m S
0.85098 g
1100 808.059 m 1150 836.926 l 1150 779.191 l 1100 750.324 l h
1100 808.059 m f*
0 g
1100 808.059 m 1150 836.926 l 1150 779.191 l 1100 750.324 l h
1100 808.059 m S
1200 461.648 m 1250 490.516 l 1250 432.781 l 1200 403.914 l h
1200 461.648 m S
Q Q
showpage
%%Trailer
%%Trailer
cleartomark
countdictstack
exch sub { end } repeat
restore
%%EOF
