%!PS-Adobe-2.0 EPSF-2.0
%%BoundingBox: 0 0 2100 1400
%%HiResBoundingBox: 0.000000 0.000000 2100.000000 1400.000000
%%Creator: cairo 1.14.2 (http://cairographics.org)
%%CreationDate: Mon Sep  7 08:21:41 2015
%%DocumentData: Clean7Bit
%%LanguageLevel: 2
%%DocumentMedia: 741x494mm 2100 1400 0 () ()
%%EndComments
% EPSF created by ps2eps 1.68
%%BeginProlog
save
countdictstack
mark
newpath
/showpage {} def
/setpagedevice {pop} def
%%EndProlog
%%Page 1 1
%%BeginProlog
/languagelevel where
{ pop languagelevel } { 1 } ifelse
2 lt { /Helvetica findfont 12 scalefont setfont 50 500 moveto
  (This print job requires a PostScript Language Level 2 printer.) show
  showpage quit } if
/q { gsave } bind def
/Q { grestore } bind def
/cm { 6 array astore concat } bind def
/w { setlinewidth } bind def
/J { setlinecap } bind def
/j { setlinejoin } bind def
/M { setmiterlimit } bind def
/d { setdash } bind def
/m { moveto } bind def
/l { lineto } bind def
/c { curveto } bind def
/h { closepath } bind def
/re { exch dup neg 3 1 roll 5 3 roll moveto 0 rlineto
      0 exch rlineto 0 rlineto closepath } bind def
/S { stroke } bind def
/f { fill } bind def
/f* { eofill } bind def
/n { newpath } bind def
/W { clip } bind def
/W* { eoclip } bind def
/BT { } bind def
/ET { } bind def
/pdfmark where { pop globaldict /?pdfmark /exec load put }
    { globaldict begin /?pdfmark /pop load def /pdfmark
    /cleartomark load def end } ifelse
/BDC { mark 3 1 roll /BDC pdfmark } bind def
/EMC { mark /EMC pdfmark } bind def
/cairo_store_point { /cairo_point_y exch def /cairo_point_x exch def } def
/Tj { show currentpoint cairo_store_point } bind def
/TJ {
  {
    dup
    type /stringtype eq
    { show } { -0.001 mul 0 cairo_font_matrix dtransform rmoveto } ifelse
  } forall
  currentpoint cairo_store_point
} bind def
/cairo_selectfont { cairo_font_matrix aload pop pop pop 0 0 6 array astore
    cairo_font exch selectfont cairo_point_x cairo_point_y moveto } bind def
/Tf { pop /cairo_font exch def /cairo_font_matrix where
      { pop cairo_selectfont } if } bind def
/Td { matrix translate cairo_font_matrix matrix concatmatrix dup
      /cairo_font_matrix exch def dup 4 get exch 5 get cairo_store_point
      /cairo_font where { pop cairo_selectfont } if } bind def
/Tm { 2 copy 8 2 roll 6 array astore /cairo_font_matrix exch def
      cairo_store_point /cairo_font where { pop cairo_selectfont } if } bind def
/g { setgray } bind def
/rg { setrgbcolor } bind def
/d1 { setcachedevice } bind def
/cairo_set_page_size {
  % Change paper size, but only if different from previous paper size otherwise
  % duplex fails. PLRM specifies a tolerance of 5 pts when matching paper size
  % so we use the same when checking if the size changes.
  /setpagedevice where {
    pop currentpagedevice
    /PageSize known {
      2 copy
      currentpagedevice /PageSize get aload pop
      exch 4 1 roll
      sub abs 5 gt
      3 1 roll
      sub abs 5 gt
      or
    } {
      true
    } ifelse
    {
      2 array astore
      2 dict begin
        /PageSize exch def
        /ImagingBBox null def
      currentdict end
      setpagedevice
    } {
      pop pop
    } ifelse
  } {
    pop
  } ifelse
} def
%%EndProlog
%%BeginSetup
%%EndSetup
%%Page: 1 1
%%BeginPageSetup
%%PageMedia: 741x494mm
%%PageBoundingBox: 0 0 2100 1400
2100 1400 cairo_set_page_size
%%EndPageSetup
q 0 0 2100 1400 rectclip q
0.984314 g
0 0 2100 1400 rectfill
0.788235 g
1.875 w
0 J
1 j
[] 0.0 d
4 M 0 1400 2100 -1400 re S
0 g
2.5 w
1 J
175 1341.668 m 175 1380.555 116.668 1400 0 1400 c S
291.668 1225 m 330.555 1225 350 1283.332 350 1400 c S
175 1108.332 m 175 1069.445 233.332 1050 350 1050 c S
58.332 1225 m 19.445 1225 0 1166.668 0 1050 c S
291.668 1225 m 330.555 1225 350 1166.668 350 1050 c S
58.332 1225 m 19.445 1225 0 1283.332 0 1400 c S
175 1108.332 m 175 1069.445 116.668 1050 0 1050 c S
175 1341.668 m 175 1380.555 233.332 1400 350 1400 c S
175 991.668 m 175 1030.555 116.668 1050 0 1050 c S
291.668 875 m 330.555 875 350 933.332 350 1050 c S
175 758.332 m 175 719.445 233.332 700 350 700 c S
58.332 875 m 19.445 875 0 816.668 0 700 c S
291.668 875 m 330.555 875 350 816.668 350 700 c S
58.332 875 m 19.445 875 0 933.332 0 1050 c S
175 758.332 m 175 719.445 116.668 700 0 700 c S
175 991.668 m 175 1030.555 233.332 1050 350 1050 c S
175 641.668 m 175 680.555 116.668 700 0 700 c S
291.668 525 m 330.555 525 350 583.332 350 700 c S
175 408.332 m 175 369.445 233.332 350 350 350 c S
58.332 525 m 19.445 525 0 466.668 0 350 c S
291.668 525 m 330.555 525 350 466.668 350 350 c S
58.332 525 m 19.445 525 0 583.332 0 700 c S
175 408.332 m 175 369.445 116.668 350 0 350 c S
175 641.668 m 175 680.555 233.332 700 350 700 c S
175 291.668 m 175 330.555 116.668 350 0 350 c S
291.668 175 m 330.555 175 350 233.332 350 350 c S
175 58.332 m 175 19.445 233.332 0 350 0 c S
58.332 175 m 19.445 175 0 116.668 0 0 c S
291.668 175 m 330.555 175 350 116.668 350 0 c S
58.332 175 m 19.445 175 0 233.332 0 350 c S
175 58.332 m 175 19.445 116.668 0 0 0 c S
175 291.668 m 175 330.555 233.332 350 350 350 c S
525 1341.668 m 525 1380.555 466.668 1400 350 1400 c S
641.668 1225 m 680.555 1225 700 1283.332 700 1400 c S
525 1108.332 m 525 1069.445 583.332 1050 700 1050 c S
408.332 1225 m 369.445 1225 350 1166.668 350 1050 c S
641.668 1225 m 680.555 1225 700 1166.668 700 1050 c S
408.332 1225 m 369.445 1225 350 1283.332 350 1400 c S
525 1108.332 m 525 1069.445 466.668 1050 350 1050 c S
525 1341.668 m 525 1380.555 583.332 1400 700 1400 c S
525 991.668 m 525 1030.555 466.668 1050 350 1050 c S
641.668 875 m 680.555 875 700 933.332 700 1050 c S
525 758.332 m 525 719.445 583.332 700 700 700 c S
408.332 875 m 369.445 875 350 816.668 350 700 c S
641.668 875 m 680.555 875 700 816.668 700 700 c S
408.332 875 m 369.445 875 350 933.332 350 1050 c S
525 758.332 m 525 719.445 466.668 700 350 700 c S
525 991.668 m 525 1030.555 583.332 1050 700 1050 c S
525 641.668 m 525 680.555 466.668 700 350 700 c S
641.668 525 m 680.555 525 700 583.332 700 700 c S
525 408.332 m 525 369.445 583.332 350 700 350 c S
408.332 525 m 369.445 525 350 466.668 350 350 c S
641.668 525 m 680.555 525 700 466.668 700 350 c S
408.332 525 m 369.445 525 350 583.332 350 700 c S
525 408.332 m 525 369.445 466.668 350 350 350 c S
525 641.668 m 525 680.555 583.332 700 700 700 c S
525 291.668 m 525 330.555 466.668 350 350 350 c S
641.668 175 m 680.555 175 700 233.332 700 350 c S
525 58.332 m 525 19.445 583.332 0 700 0 c S
408.332 175 m 369.445 175 350 116.668 350 0 c S
641.668 175 m 680.555 175 700 116.668 700 0 c S
408.332 175 m 369.445 175 350 233.332 350 350 c S
525 58.332 m 525 19.445 466.668 0 350 0 c S
525 291.668 m 525 330.555 583.332 350 700 350 c S
875 1341.668 m 875 1380.555 816.668 1400 700 1400 c S
991.668 1225 m 1030.555 1225 1050 1283.332 1050 1400 c S
875 1108.332 m 875 1069.445 933.332 1050 1050 1050 c S
758.332 1225 m 719.445 1225 700 1166.668 700 1050 c S
991.668 1225 m 1030.555 1225 1050 1166.668 1050 1050 c S
758.332 1225 m 719.445 1225 700 1283.332 700 1400 c S
875 1108.332 m 875 1069.445 816.668 1050 700 1050 c S
875 1341.668 m 875 1380.555 933.332 1400 1050 1400 c S
875 991.668 m 875 1030.555 816.668 1050 700 1050 c S
991.668 875 m 1030.555 875 1050 933.332 1050 1050 c S
875 758.332 m 875 719.445 933.332 700 1050 700 c S
758.332 875 m 719.445 875 700 816.668 700 700 c S
991.668 875 m 1030.555 875 1050 816.668 1050 700 c S
758.332 875 m 719.445 875 700 933.332 700 1050 c S
875 758.332 m 875 719.445 816.668 700 700 700 c S
875 991.668 m 875 1030.555 933.332 1050 1050 1050 c S
875 641.668 m 875 680.555 816.668 700 700 700 c S
991.668 525 m 1030.555 525 1050 583.332 1050 700 c S
875 408.332 m 875 369.445 933.332 350 1050 350 c S
758.332 525 m 719.445 525 700 466.668 700 350 c S
991.668 525 m 1030.555 525 1050 466.668 1050 350 c S
758.332 525 m 719.445 525 700 583.332 700 700 c S
875 408.332 m 875 369.445 816.668 350 700 350 c S
875 641.668 m 875 680.555 933.332 700 1050 700 c S
875 291.668 m 875 330.555 816.668 350 700 350 c S
991.668 175 m 1030.555 175 1050 233.332 1050 350 c S
875 58.332 m 875 19.445 933.332 0 1050 0 c S
758.332 175 m 719.445 175 700 116.668 700 0 c S
991.668 175 m 1030.555 175 1050 116.668 1050 0 c S
758.332 175 m 719.445 175 700 233.332 700 350 c S
875 58.332 m 875 19.445 816.668 0 700 0 c S
875 291.668 m 875 330.555 933.332 350 1050 350 c S
1225 1341.668 m 1225 1380.555 1166.668 1400 1050 1400 c S
1341.668 1225 m 1380.555 1225 1400 1283.332 1400 1400 c S
1225 1108.332 m 1225 1069.445 1283.332 1050 1400 1050 c S
1108.332 1225 m 1069.445 1225 1050 1166.668 1050 1050 c S
1341.668 1225 m 1380.555 1225 1400 1166.668 1400 1050 c S
1108.332 1225 m 1069.445 1225 1050 1283.332 1050 1400 c S
1225 1108.332 m 1225 1069.445 1166.668 1050 1050 1050 c S
1225 1341.668 m 1225 1380.555 1283.332 1400 1400 1400 c S
1225 991.668 m 1225 1030.555 1166.668 1050 1050 1050 c S
1341.668 875 m 1380.555 875 1400 933.332 1400 1050 c S
1225 758.332 m 1225 719.445 1283.332 700 1400 700 c S
1108.332 875 m 1069.445 875 1050 816.668 1050 700 c S
1341.668 875 m 1380.555 875 1400 816.668 1400 700 c S
1108.332 875 m 1069.445 875 1050 933.332 1050 1050 c S
1225 758.332 m 1225 719.445 1166.668 700 1050 700 c S
1225 991.668 m 1225 1030.555 1283.332 1050 1400 1050 c S
1225 641.668 m 1225 680.555 1166.668 700 1050 700 c S
1341.668 525 m 1380.555 525 1400 583.332 1400 700 c S
1225 408.332 m 1225 369.445 1283.332 350 1400 350 c S
1108.332 525 m 1069.445 525 1050 466.668 1050 350 c S
1341.668 525 m 1380.555 525 1400 466.668 1400 350 c S
1108.332 525 m 1069.445 525 1050 583.332 1050 700 c S
1225 408.332 m 1225 369.445 1166.668 350 1050 350 c S
1225 641.668 m 1225 680.555 1283.332 700 1400 700 c S
1225 291.668 m 1225 330.555 1166.668 350 1050 350 c S
1341.668 175 m 1380.555 175 1400 233.332 1400 350 c S
1225 58.332 m 1225 19.445 1283.332 0 1400 0 c S
1108.332 175 m 1069.445 175 1050 116.668 1050 0 c S
1341.668 175 m 1380.555 175 1400 116.668 1400 0 c S
1108.332 175 m 1069.445 175 1050 233.332 1050 350 c S
1225 58.332 m 1225 19.445 1166.668 0 1050 0 c S
1225 291.668 m 1225 330.555 1283.332 350 1400 350 c S
1575 1341.668 m 1575 1380.555 1516.668 1400 1400 1400 c S
1691.668 1225 m 1730.555 1225 1750 1283.332 1750 1400 c S
1575 1108.332 m 1575 1069.445 1633.332 1050 1750 1050 c S
1458.332 1225 m 1419.445 1225 1400 1166.668 1400 1050 c S
1691.668 1225 m 1730.555 1225 1750 1166.668 1750 1050 c S
1458.332 1225 m 1419.445 1225 1400 1283.332 1400 1400 c S
1575 1108.332 m 1575 1069.445 1516.668 1050 1400 1050 c S
1575 1341.668 m 1575 1380.555 1633.332 1400 1750 1400 c S
1575 991.668 m 1575 1030.555 1516.668 1050 1400 1050 c S
1691.668 875 m 1730.555 875 1750 933.332 1750 1050 c S
1575 758.332 m 1575 719.445 1633.332 700 1750 700 c S
1458.332 875 m 1419.445 875 1400 816.668 1400 700 c S
1691.668 875 m 1730.555 875 1750 816.668 1750 700 c S
1458.332 875 m 1419.445 875 1400 933.332 1400 1050 c S
1575 758.332 m 1575 719.445 1516.668 700 1400 700 c S
1575 991.668 m 1575 1030.555 1633.332 1050 1750 1050 c S
1575 641.668 m 1575 680.555 1516.668 700 1400 700 c S
1691.668 525 m 1730.555 525 1750 583.332 1750 700 c S
1575 408.332 m 1575 369.445 1633.332 350 1750 350 c S
1458.332 525 m 1419.445 525 1400 466.668 1400 350 c S
1691.668 525 m 1730.555 525 1750 466.668 1750 350 c S
1458.332 525 m 1419.445 525 1400 583.332 1400 700 c S
1575 408.332 m 1575 369.445 1516.668 350 1400 350 c S
1575 641.668 m 1575 680.555 1633.332 700 1750 700 c S
1575 291.668 m 1575 330.555 1516.668 350 1400 350 c S
1691.668 175 m 1730.555 175 1750 233.332 1750 350 c S
1575 58.332 m 1575 19.445 1633.332 0 1750 0 c S
1458.332 175 m 1419.445 175 1400 116.668 1400 0 c S
1691.668 175 m 1730.555 175 1750 116.668 1750 0 c S
1458.332 175 m 1419.445 175 1400 233.332 1400 350 c S
1575 58.332 m 1575 19.445 1516.668 0 1400 0 c S
1575 291.668 m 1575 330.555 1633.332 350 1750 350 c S
1925 1341.668 m 1925 1380.555 1866.668 1400 1750 1400 c S
2041.668 1225 m 2080.555 1225 2100 1283.332 2100 1400 c S
1925 1108.332 m 1925 1069.445 1983.332 1050 2100 1050 c S
1808.332 1225 m 1769.445 1225 1750 1166.668 1750 1050 c S
2041.668 1225 m 2080.555 1225 2100 1166.668 2100 1050 c S
1808.332 1225 m 1769.445 1225 1750 1283.332 1750 1400 c S
1925 1108.332 m 1925 1069.445 1866.668 1050 1750 1050 c S
1925 1341.668 m 1925 1380.555 1983.332 1400 2100 1400 c S
1925 991.668 m 1925 1030.555 1866.668 1050 1750 1050 c S
2041.668 875 m 2080.555 875 2100 933.332 2100 1050 c S
1925 758.332 m 1925 719.445 1983.332 700 2100 700 c S
1808.332 875 m 1769.445 875 1750 816.668 1750 700 c S
2041.668 875 m 2080.555 875 2100 816.668 2100 700 c S
1808.332 875 m 1769.445 875 1750 933.332 1750 1050 c S
1925 758.332 m 1925 719.445 1866.668 700 1750 700 c S
1925 991.668 m 1925 1030.555 1983.332 1050 2100 1050 c S
1925 641.668 m 1925 680.555 1866.668 700 1750 700 c S
2041.668 525 m 2080.555 525 2100 583.332 2100 700 c S
1925 408.332 m 1925 369.445 1983.332 350 2100 350 c S
1808.332 525 m 1769.445 525 1750 466.668 1750 350 c S
2041.668 525 m 2080.555 525 2100 466.668 2100 350 c S
1808.332 525 m 1769.445 525 1750 583.332 1750 700 c S
1925 408.332 m 1925 369.445 1866.668 350 1750 350 c S
1925 641.668 m 1925 680.555 1983.332 700 2100 700 c S
1925 291.668 m 1925 330.555 1866.668 350 1750 350 c S
2041.668 175 m 2080.555 175 2100 233.332 2100 350 c S
1925 58.332 m 1925 19.445 1983.332 0 2100 0 c S
1808.332 175 m 1769.445 175 1750 116.668 1750 0 c S
2041.668 175 m 2080.555 175 2100 116.668 2100 0 c S
1808.332 175 m 1769.445 175 1750 233.332 1750 350 c S
1925 58.332 m 1925 19.445 1866.668 0 1750 0 c S
1925 291.668 m 1925 330.555 1983.332 350 2100 350 c S
Q Q
showpage
%%Trailer
%%Trailer
cleartomark
countdictstack
exch sub { end } repeat
restore
%%EOF
