%!PS-Adobe-2.0 EPSF-2.0
%%BoundingBox: 0 0 1200 1039
%%HiResBoundingBox: 0.000000 0.000000 1200.000000 1039.000000
%%Creator: cairo 1.14.2 (http://cairographics.org)
%%CreationDate: Mon Sep  7 08:21:42 2015
%%DocumentData: Clean7Bit
%%LanguageLevel: 2
%%DocumentMedia: 423x367mm 1200 1039 0 () ()
%%EndComments
% EPSF created by ps2eps 1.68
%%BeginProlog
save
countdictstack
mark
newpath
/showpage {} def
/setpagedevice {pop} def
%%EndProlog
%%Page 1 1
%%BeginProlog
/languagelevel where
{ pop languagelevel } { 1 } ifelse
2 lt { /Helvetica findfont 12 scalefont setfont 50 500 moveto
  (This print job requires a PostScript Language Level 2 printer.) show
  showpage quit } if
/q { gsave } bind def
/Q { grestore } bind def
/cm { 6 array astore concat } bind def
/w { setlinewidth } bind def
/J { setlinecap } bind def
/j { setlinejoin } bind def
/M { setmiterlimit } bind def
/d { setdash } bind def
/m { moveto } bind def
/l { lineto } bind def
/c { curveto } bind def
/h { closepath } bind def
/re { exch dup neg 3 1 roll 5 3 roll moveto 0 rlineto
      0 exch rlineto 0 rlineto closepath } bind def
/S { stroke } bind def
/f { fill } bind def
/f* { eofill } bind def
/n { newpath } bind def
/W { clip } bind def
/W* { eoclip } bind def
/BT { } bind def
/ET { } bind def
/pdfmark where { pop globaldict /?pdfmark /exec load put }
    { globaldict begin /?pdfmark /pop load def /pdfmark
    /cleartomark load def end } ifelse
/BDC { mark 3 1 roll /BDC pdfmark } bind def
/EMC { mark /EMC pdfmark } bind def
/cairo_store_point { /cairo_point_y exch def /cairo_point_x exch def } def
/Tj { show currentpoint cairo_store_point } bind def
/TJ {
  {
    dup
    type /stringtype eq
    { show } { -0.001 mul 0 cairo_font_matrix dtransform rmoveto } ifelse
  } forall
  currentpoint cairo_store_point
} bind def
/cairo_selectfont { cairo_font_matrix aload pop pop pop 0 0 6 array astore
    cairo_font exch selectfont cairo_point_x cairo_point_y moveto } bind def
/Tf { pop /cairo_font exch def /cairo_font_matrix where
      { pop cairo_selectfont } if } bind def
/Td { matrix translate cairo_font_matrix matrix concatmatrix dup
      /cairo_font_matrix exch def dup 4 get exch 5 get cairo_store_point
      /cairo_font where { pop cairo_selectfont } if } bind def
/Tm { 2 copy 8 2 roll 6 array astore /cairo_font_matrix exch def
      cairo_store_point /cairo_font where { pop cairo_selectfont } if } bind def
/g { setgray } bind def
/rg { setrgbcolor } bind def
/d1 { setcachedevice } bind def
/cairo_set_page_size {
  % Change paper size, but only if different from previous paper size otherwise
  % duplex fails. PLRM specifies a tolerance of 5 pts when matching paper size
  % so we use the same when checking if the size changes.
  /setpagedevice where {
    pop currentpagedevice
    /PageSize known {
      2 copy
      currentpagedevice /PageSize get aload pop
      exch 4 1 roll
      sub abs 5 gt
      3 1 roll
      sub abs 5 gt
      or
    } {
      true
    } ifelse
    {
      2 array astore
      2 dict begin
        /PageSize exch def
        /ImagingBBox null def
      currentdict end
      setpagedevice
    } {
      pop pop
    } ifelse
  } {
    pop
  } ifelse
} def
%%EndProlog
%%BeginSetup
%%EndSetup
%%Page: 1 1
%%BeginPageSetup
%%PageMedia: 423x367mm
%%PageBoundingBox: 0 0 1200 1039
1200 1039 cairo_set_page_size
%%EndPageSetup
q 0 0 1200 1039 rectclip q
0.984314 g
0 0 1200 1039 rectfill
0.788235 g
1.875 w
0 J
1 j
[] 0.0 d
4 M 0 1039 1200 -1039.23 re S
0 g
2.5 w
1 J
-100 288.445 m 0 346.18 150 259.578 50 259.578 c S
0 461.648 m 0 346.18 -150 259.578 -100 346.18 c S
100 288.445 m 0 346.18 0 519.383 50 432.781 c S
100 230.711 m 0 172.973 -150 259.578 -50 259.578 c S
0 57.504 m 0 172.973 150 259.578 100 172.973 c S
50 28.637 m 150 86.371 300 -0.23 200 -0.23 c S
150 201.844 m 150 86.371 0 -0.23 50 86.371 c S
250 28.637 m 150 86.371 150 259.578 200 172.973 c S
-100 808.059 m 0 865.793 150 779.191 50 779.191 c S
0 981.266 m 0 865.793 -150 779.191 -100 865.793 c S
100 808.059 m 0 865.793 0 1039 50 952.398 c S
100 750.324 m 0 692.59 -150 779.191 -50 779.191 c S
0 577.121 m 0 692.59 150 779.191 100 692.59 c S
50 548.254 m 150 605.988 300 519.383 200 519.383 c S
150 721.457 m 150 605.988 0 519.383 50 605.988 c S
250 548.254 m 150 605.988 150 779.191 200 692.59 c S
250 490.516 m 150 432.781 0 519.383 100 519.383 c S
150 317.312 m 150 432.781 300 519.383 250 432.781 c S
50 490.516 m 150 432.781 150 259.578 100 346.18 c S
200 288.445 m 300 346.18 450 259.578 350 259.578 c S
300 461.648 m 300 346.18 150 259.578 200 346.18 c S
400 288.445 m 300 346.18 300 519.383 350 432.781 c S
400 230.711 m 300 172.973 150 259.578 250 259.578 c S
300 57.504 m 300 172.973 450 259.578 400 172.973 c S
200 230.711 m 300 172.973 300 -0.23 250 86.371 c S
350 28.637 m 450 86.371 600 -0.23 500 -0.23 c S
450 201.844 m 450 86.371 300 -0.23 350 86.371 c S
550 28.637 m 450 86.371 450 259.578 500 172.973 c S
250 1010.133 m 150 952.398 0 1039 100 1039 c S
150 836.926 m 150 952.398 300 1039 250 952.398 c S
50 1010.133 m 150 952.398 150 779.191 100 865.793 c S
200 808.059 m 300 865.793 450 779.191 350 779.191 c S
300 981.266 m 300 865.793 150 779.191 200 865.793 c S
400 808.059 m 300 865.793 300 1039 350 952.398 c S
400 750.324 m 300 692.59 150 779.191 250 779.191 c S
300 577.121 m 300 692.59 450 779.191 400 692.59 c S
200 750.324 m 300 692.59 300 519.383 250 605.988 c S
350 548.254 m 450 605.988 600 519.383 500 519.383 c S
450 721.457 m 450 605.988 300 519.383 350 605.988 c S
550 548.254 m 450 605.988 450 779.191 500 692.59 c S
550 490.516 m 450 432.781 300 519.383 400 519.383 c S
450 317.312 m 450 432.781 600 519.383 550 432.781 c S
350 490.516 m 450 432.781 450 259.578 400 346.18 c S
500 288.445 m 600 346.18 750 259.578 650 259.578 c S
600 461.648 m 600 346.18 450 259.578 500 346.18 c S
700 288.445 m 600 346.18 600 519.383 650 432.781 c S
700 230.711 m 600 172.973 450 259.578 550 259.578 c S
600 57.504 m 600 172.973 750 259.578 700 172.973 c S
500 230.711 m 600 172.973 600 -0.23 550 86.371 c S
650 28.637 m 750 86.371 900 -0.23 800 -0.23 c S
750 201.844 m 750 86.371 600 -0.23 650 86.371 c S
850 28.637 m 750 86.371 750 259.578 800 172.973 c S
550 1010.133 m 450 952.398 300 1039 400 1039 c S
450 836.926 m 450 952.398 600 1039 550 952.398 c S
350 1010.133 m 450 952.398 450 779.191 400 865.793 c S
500 808.059 m 600 865.793 750 779.191 650 779.191 c S
600 981.266 m 600 865.793 450 779.191 500 865.793 c S
700 808.059 m 600 865.793 600 1039 650 952.398 c S
700 750.324 m 600 692.59 450 779.191 550 779.191 c S
600 577.121 m 600 692.59 750 779.191 700 692.59 c S
500 750.324 m 600 692.59 600 519.383 550 605.988 c S
650 548.254 m 750 605.988 900 519.383 800 519.383 c S
750 721.457 m 750 605.988 600 519.383 650 605.988 c S
850 548.254 m 750 605.988 750 779.191 800 692.59 c S
850 490.516 m 750 432.781 600 519.383 700 519.383 c S
750 317.312 m 750 432.781 900 519.383 850 432.781 c S
650 490.516 m 750 432.781 750 259.578 700 346.18 c S
800 288.445 m 900 346.18 1050 259.578 950 259.578 c S
900 461.648 m 900 346.18 750 259.578 800 346.18 c S
1000 288.445 m 900 346.18 900 519.383 950 432.781 c S
1000 230.711 m 900 172.973 750 259.578 850 259.578 c S
900 57.504 m 900 172.973 1050 259.578 1000 172.973 c S
800 230.711 m 900 172.973 900 -0.23 850 86.371 c S
950 28.637 m 1050 86.371 1200 -0.23 1100 -0.23 c S
1050 201.844 m 1050 86.371 900 -0.23 950 86.371 c S
1150 28.637 m 1050 86.371 1050 259.578 1100 172.973 c S
850 1010.133 m 750 952.398 600 1039 700 1039 c S
750 836.926 m 750 952.398 900 1039 850 952.398 c S
650 1010.133 m 750 952.398 750 779.191 700 865.793 c S
800 808.059 m 900 865.793 1050 779.191 950 779.191 c S
900 981.266 m 900 865.793 750 779.191 800 865.793 c S
1000 808.059 m 900 865.793 900 1039 950 952.398 c S
1000 750.324 m 900 692.59 750 779.191 850 779.191 c S
900 577.121 m 900 692.59 1050 779.191 1000 692.59 c S
800 750.324 m 900 692.59 900 519.383 850 605.988 c S
950 548.254 m 1050 605.988 1200 519.383 1100 519.383 c S
1050 721.457 m 1050 605.988 900 519.383 950 605.988 c S
1150 548.254 m 1050 605.988 1050 779.191 1100 692.59 c S
1150 490.516 m 1050 432.781 900 519.383 1000 519.383 c S
1050 317.312 m 1050 432.781 1200 519.383 1150 432.781 c S
950 490.516 m 1050 432.781 1050 259.578 1000 346.18 c S
1100 288.445 m 1200 346.18 1350 259.578 1250 259.578 c S
1200 461.648 m 1200 346.18 1050 259.578 1100 346.18 c S
1300 230.711 m 1200 172.973 1050 259.578 1150 259.578 c S
1200 57.504 m 1200 172.973 1350 259.578 1300 172.973 c S
1100 230.711 m 1200 172.973 1200 -0.23 1150 86.371 c S
1150 1010.133 m 1050 952.398 900 1039 1000 1039 c S
1050 836.926 m 1050 952.398 1200 1039 1150 952.398 c S
950 1010.133 m 1050 952.398 1050 779.191 1000 865.793 c S
1100 808.059 m 1200 865.793 1350 779.191 1250 779.191 c S
1200 981.266 m 1200 865.793 1050 779.191 1100 865.793 c S
1300 750.324 m 1200 692.59 1050 779.191 1150 779.191 c S
1200 577.121 m 1200 692.59 1350 779.191 1300 692.59 c S
1100 750.324 m 1200 692.59 1200 519.383 1150 605.988 c S
Q Q
showpage
%%Trailer
%%Trailer
cleartomark
countdictstack
exch sub { end } repeat
restore
%%EOF
