%!PS-Adobe-2.0 EPSF-2.0
%%BoundingBox: 0 0 1200 1039
%%HiResBoundingBox: 0.000000 0.000000 1200.000000 1039.000000
%%Creator: cairo 1.14.2 (http://cairographics.org)
%%CreationDate: Mon Sep  7 08:21:42 2015
%%DocumentData: Clean7Bit
%%LanguageLevel: 2
%%DocumentMedia: 423x367mm 1200 1039 0 () ()
%%EndComments
% EPSF created by ps2eps 1.68
%%BeginProlog
save
countdictstack
mark
newpath
/showpage {} def
/setpagedevice {pop} def
%%EndProlog
%%Page 1 1
%%BeginProlog
/languagelevel where
{ pop languagelevel } { 1 } ifelse
2 lt { /Helvetica findfont 12 scalefont setfont 50 500 moveto
  (This print job requires a PostScript Language Level 2 printer.) show
  showpage quit } if
/q { gsave } bind def
/Q { grestore } bind def
/cm { 6 array astore concat } bind def
/w { setlinewidth } bind def
/J { setlinecap } bind def
/j { setlinejoin } bind def
/M { setmiterlimit } bind def
/d { setdash } bind def
/m { moveto } bind def
/l { lineto } bind def
/c { curveto } bind def
/h { closepath } bind def
/re { exch dup neg 3 1 roll 5 3 roll moveto 0 rlineto
      0 exch rlineto 0 rlineto closepath } bind def
/S { stroke } bind def
/f { fill } bind def
/f* { eofill } bind def
/n { newpath } bind def
/W { clip } bind def
/W* { eoclip } bind def
/BT { } bind def
/ET { } bind def
/pdfmark where { pop globaldict /?pdfmark /exec load put }
    { globaldict begin /?pdfmark /pop load def /pdfmark
    /cleartomark load def end } ifelse
/BDC { mark 3 1 roll /BDC pdfmark } bind def
/EMC { mark /EMC pdfmark } bind def
/cairo_store_point { /cairo_point_y exch def /cairo_point_x exch def } def
/Tj { show currentpoint cairo_store_point } bind def
/TJ {
  {
    dup
    type /stringtype eq
    { show } { -0.001 mul 0 cairo_font_matrix dtransform rmoveto } ifelse
  } forall
  currentpoint cairo_store_point
} bind def
/cairo_selectfont { cairo_font_matrix aload pop pop pop 0 0 6 array astore
    cairo_font exch selectfont cairo_point_x cairo_point_y moveto } bind def
/Tf { pop /cairo_font exch def /cairo_font_matrix where
      { pop cairo_selectfont } if } bind def
/Td { matrix translate cairo_font_matrix matrix concatmatrix dup
      /cairo_font_matrix exch def dup 4 get exch 5 get cairo_store_point
      /cairo_font where { pop cairo_selectfont } if } bind def
/Tm { 2 copy 8 2 roll 6 array astore /cairo_font_matrix exch def
      cairo_store_point /cairo_font where { pop cairo_selectfont } if } bind def
/g { setgray } bind def
/rg { setrgbcolor } bind def
/d1 { setcachedevice } bind def
/cairo_set_page_size {
  % Change paper size, but only if different from previous paper size otherwise
  % duplex fails. PLRM specifies a tolerance of 5 pts when matching paper size
  % so we use the same when checking if the size changes.
  /setpagedevice where {
    pop currentpagedevice
    /PageSize known {
      2 copy
      currentpagedevice /PageSize get aload pop
      exch 4 1 roll
      sub abs 5 gt
      3 1 roll
      sub abs 5 gt
      or
    } {
      true
    } ifelse
    {
      2 array astore
      2 dict begin
        /PageSize exch def
        /ImagingBBox null def
      currentdict end
      setpagedevice
    } {
      pop pop
    } ifelse
  } {
    pop
  } ifelse
} def
%%EndProlog
%%BeginSetup
%%EndSetup
%%Page: 1 1
%%BeginPageSetup
%%PageMedia: 423x367mm
%%PageBoundingBox: 0 0 1200 1039
1200 1039 cairo_set_page_size
%%EndPageSetup
q 0 0 1200 1039 rectclip q
0.984314 g
0 0 1200 1039 rectfill
0.788235 g
1.875 w
0 J
1 j
[] 0.0 d
4 M 0 1039 1200 -1039.23 re S
0 g
2.5 w
1 J
0 519.383 m -35.871 498.676 -81.742 510.965 -102.453 546.836 c -123.164
 582.707 -110.871 628.578 -75 649.289 c S
0 519.383 m 0 477.965 -33.578 444.383 -75 444.383 c -116.422 444.383 -150
 477.965 -150 519.383 c S
0 519.383 m 35.871 498.676 48.164 452.805 27.453 416.934 c 6.742 381.062
 -39.129 368.77 -75 389.48 c S
0 519.383 m 0 477.965 -33.578 444.383 -75 444.383 c -116.422 444.383 -150
 477.965 -150 519.383 c S
150 259.578 m 114.129 238.867 68.258 251.156 47.547 287.027 c 26.836 322.902
 39.129 368.77 75 389.48 c S
150 259.578 m 150 218.156 116.422 184.578 75 184.578 c 33.578 184.578 0
 218.156 0 259.578 c S
0 519.383 m 35.871 498.676 48.164 452.805 27.453 416.934 c 6.742 381.062
 -39.129 368.77 -75 389.48 c S
-150 259.578 m -150 301 -116.422 334.578 -75 334.578 c -33.578 334.578 
0 301 0 259.578 c S
0 519.383 m 35.871 540.094 81.742 527.805 102.453 491.934 c 123.164 456.062
 110.871 410.191 75 389.48 c S
-150 259.578 m -150 301 -116.422 334.578 -75 334.578 c -33.578 334.578 
0 301 0 259.578 c S
150 259.578 m 185.871 238.867 198.164 192.996 177.453 157.125 c 156.742
 121.254 110.871 108.961 75 129.672 c S
0 -0.23 m -35.871 -20.941 -81.742 -8.652 -102.453 27.223 c -123.164 63.094
 -110.871 108.961 -75 129.672 c S
150 259.578 m 150 218.156 116.422 184.578 75 184.578 c 33.578 184.578 0
 218.156 0 259.578 c S
0 -0.23 m -35.871 20.48 -48.164 66.348 -27.453 102.223 c -6.742 138.094
 39.129 150.383 75 129.672 c S
300 -0.23 m 264.129 -20.941 218.258 -8.652 197.547 27.223 c 176.836 63.094
 189.129 108.961 225 129.672 c S
300 -0.23 m 300 -41.652 266.422 -75.23 225 -75.23 c 183.578 -75.23 150 
-41.652 150 -0.23 c S
150 259.578 m 185.871 238.867 198.164 192.996 177.453 157.125 c 156.742
 121.254 110.871 108.961 75 129.672 c S
0 -0.23 m 0 41.191 33.578 74.77 75 74.77 c 116.422 74.77 150 41.191 150
 -0.23 c S
150 259.578 m 185.871 280.289 231.742 267.996 252.453 232.125 c 273.164
 196.254 260.871 150.383 225 129.672 c S
0 -0.23 m -35.871 20.48 -48.164 66.348 -27.453 102.223 c -6.742 138.094
 39.129 150.383 75 129.672 c S
0 1039 m 35.871 1018.289 48.164 972.422 27.453 936.547 c 6.742 900.676 
-39.129 888.387 -75 909.098 c S
0 1039 m 0 997.578 -33.578 964 -75 964 c -116.422 964 -150 997.578 -150
 1039 c S
150 779.191 m 114.129 758.48 68.258 770.773 47.547 806.645 c 26.836 842.516
 39.129 888.387 75 909.098 c S
150 779.191 m 150 737.77 116.422 704.191 75 704.191 c 33.578 704.191 0 
737.77 0 779.191 c S
0 1039 m 35.871 1018.289 48.164 972.422 27.453 936.547 c 6.742 900.676 
-39.129 888.387 -75 909.098 c S
-150 779.191 m -150 820.613 -116.422 854.191 -75 854.191 c -33.578 854.191
 0 820.613 0 779.191 c S
0 1039 m 35.871 1059.711 81.742 1047.422 102.453 1011.547 c 123.164 975.676
 110.871 929.809 75 909.098 c S
-150 779.191 m -150 820.613 -116.422 854.191 -75 854.191 c -33.578 854.191
 0 820.613 0 779.191 c S
150 779.191 m 185.871 758.48 198.164 712.613 177.453 676.742 c 156.742 
640.867 110.871 628.578 75 649.289 c S
0 519.383 m -35.871 498.676 -81.742 510.965 -102.453 546.836 c -123.164
 582.707 -110.871 628.578 -75 649.289 c S
150 779.191 m 150 737.77 116.422 704.191 75 704.191 c 33.578 704.191 0 
737.77 0 779.191 c S
0 519.383 m -35.871 540.094 -48.164 585.965 -27.453 621.836 c -6.742 657.707
 39.129 670 75 649.289 c S
300 519.383 m 264.129 498.676 218.258 510.965 197.547 546.836 c 176.836
 582.707 189.129 628.578 225 649.289 c S
300 519.383 m 300 477.965 266.422 444.383 225 444.383 c 183.578 444.383
 150 477.965 150 519.383 c S
150 779.191 m 185.871 758.48 198.164 712.613 177.453 676.742 c 156.742 
640.867 110.871 628.578 75 649.289 c S
0 519.383 m 0 560.805 33.578 594.383 75 594.383 c 116.422 594.383 150 560.805
 150 519.383 c S
150 779.191 m 185.871 799.902 231.742 787.613 252.453 751.742 c 273.164
 715.867 260.871 670 225 649.289 c S
0 519.383 m -35.871 540.094 -48.164 585.965 -27.453 621.836 c -6.742 657.707
 39.129 670 75 649.289 c S
0 519.383 m 0 560.805 33.578 594.383 75 594.383 c 116.422 594.383 150 560.805
 150 519.383 c S
0 519.383 m 35.871 540.094 81.742 527.805 102.453 491.934 c 123.164 456.062
 110.871 410.191 75 389.48 c S
300 519.383 m 335.871 498.676 348.164 452.805 327.453 416.934 c 306.742
 381.062 260.871 368.77 225 389.48 c S
150 259.578 m 114.129 238.867 68.258 251.156 47.547 287.027 c 26.836 322.902
 39.129 368.77 75 389.48 c S
300 519.383 m 300 477.965 266.422 444.383 225 444.383 c 183.578 444.383
 150 477.965 150 519.383 c S
150 259.578 m 114.129 280.289 101.836 326.156 122.547 362.027 c 143.258
 397.902 189.129 410.191 225 389.48 c S
450 259.578 m 414.129 238.867 368.258 251.156 347.547 287.027 c 326.836
 322.902 339.129 368.77 375 389.48 c S
450 259.578 m 450 218.156 416.422 184.578 375 184.578 c 333.578 184.578
 300 218.156 300 259.578 c S
300 519.383 m 335.871 498.676 348.164 452.805 327.453 416.934 c 306.742
 381.062 260.871 368.77 225 389.48 c S
150 259.578 m 150 301 183.578 334.578 225 334.578 c 266.422 334.578 300
 301 300 259.578 c S
300 519.383 m 335.871 540.094 381.742 527.805 402.453 491.934 c 423.164
 456.062 410.871 410.191 375 389.48 c S
150 259.578 m 114.129 280.289 101.836 326.156 122.547 362.027 c 143.258
 397.902 189.129 410.191 225 389.48 c S
150 259.578 m 150 301 183.578 334.578 225 334.578 c 266.422 334.578 300
 301 300 259.578 c S
150 259.578 m 185.871 280.289 231.742 267.996 252.453 232.125 c 273.164
 196.254 260.871 150.383 225 129.672 c S
450 259.578 m 485.871 238.867 498.164 192.996 477.453 157.125 c 456.742
 121.254 410.871 108.961 375 129.672 c S
300 -0.23 m 264.129 -20.941 218.258 -8.652 197.547 27.223 c 176.836 63.094
 189.129 108.961 225 129.672 c S
450 259.578 m 450 218.156 416.422 184.578 375 184.578 c 333.578 184.578
 300 218.156 300 259.578 c S
300 -0.23 m 264.129 20.48 251.836 66.348 272.547 102.223 c 293.258 138.094
 339.129 150.383 375 129.672 c S
600 -0.23 m 564.129 -20.941 518.258 -8.652 497.547 27.223 c 476.836 63.094
 489.129 108.961 525 129.672 c S
600 -0.23 m 600 -41.652 566.422 -75.23 525 -75.23 c 483.578 -75.23 450 
-41.652 450 -0.23 c S
450 259.578 m 485.871 238.867 498.164 192.996 477.453 157.125 c 456.742
 121.254 410.871 108.961 375 129.672 c S
300 -0.23 m 300 41.191 333.578 74.77 375 74.77 c 416.422 74.77 450 41.191
 450 -0.23 c S
450 259.578 m 485.871 280.289 531.742 267.996 552.453 232.125 c 573.164
 196.254 560.871 150.383 525 129.672 c S
300 -0.23 m 264.129 20.48 251.836 66.348 272.547 102.223 c 293.258 138.094
 339.129 150.383 375 129.672 c S
0 1039 m 0 1080.422 33.578 1114 75 1114 c 116.422 1114 150 1080.422 150
 1039 c S
0 1039 m 35.871 1059.711 81.742 1047.422 102.453 1011.547 c 123.164 975.676
 110.871 929.809 75 909.098 c S
300 1039 m 335.871 1018.289 348.164 972.422 327.453 936.547 c 306.742 900.676
 260.871 888.387 225 909.098 c S
150 779.191 m 114.129 758.48 68.258 770.773 47.547 806.645 c 26.836 842.516
 39.129 888.387 75 909.098 c S
300 1039 m 300 997.578 266.422 964 225 964 c 183.578 964 150 997.578 150
 1039 c S
150 779.191 m 114.129 799.902 101.836 845.773 122.547 881.645 c 143.258
 917.516 189.129 929.809 225 909.098 c S
450 779.191 m 414.129 758.48 368.258 770.773 347.547 806.645 c 326.836 
842.516 339.129 888.387 375 909.098 c S
450 779.191 m 450 737.77 416.422 704.191 375 704.191 c 333.578 704.191 
300 737.77 300 779.191 c S
300 1039 m 335.871 1018.289 348.164 972.422 327.453 936.547 c 306.742 900.676
 260.871 888.387 225 909.098 c S
150 779.191 m 150 820.613 183.578 854.191 225 854.191 c 266.422 854.191
 300 820.613 300 779.191 c S
300 1039 m 335.871 1059.711 381.742 1047.422 402.453 1011.547 c 423.164
 975.676 410.871 929.809 375 909.098 c S
150 779.191 m 114.129 799.902 101.836 845.773 122.547 881.645 c 143.258
 917.516 189.129 929.809 225 909.098 c S
150 779.191 m 150 820.613 183.578 854.191 225 854.191 c 266.422 854.191
 300 820.613 300 779.191 c S
150 779.191 m 185.871 799.902 231.742 787.613 252.453 751.742 c 273.164
 715.867 260.871 670 225 649.289 c S
450 779.191 m 485.871 758.48 498.164 712.613 477.453 676.742 c 456.742 
640.867 410.871 628.578 375 649.289 c S
300 519.383 m 264.129 498.676 218.258 510.965 197.547 546.836 c 176.836
 582.707 189.129 628.578 225 649.289 c S
450 779.191 m 450 737.77 416.422 704.191 375 704.191 c 333.578 704.191 
300 737.77 300 779.191 c S
300 519.383 m 264.129 540.094 251.836 585.965 272.547 621.836 c 293.258
 657.707 339.129 670 375 649.289 c S
600 519.383 m 564.129 498.676 518.258 510.965 497.547 546.836 c 476.836
 582.707 489.129 628.578 525 649.289 c S
600 519.383 m 600 477.965 566.422 444.383 525 444.383 c 483.578 444.383
 450 477.965 450 519.383 c S
450 779.191 m 485.871 758.48 498.164 712.613 477.453 676.742 c 456.742 
640.867 410.871 628.578 375 649.289 c S
300 519.383 m 300 560.805 333.578 594.383 375 594.383 c 416.422 594.383
 450 560.805 450 519.383 c S
450 779.191 m 485.871 799.902 531.742 787.613 552.453 751.742 c 573.164
 715.867 560.871 670 525 649.289 c S
300 519.383 m 264.129 540.094 251.836 585.965 272.547 621.836 c 293.258
 657.707 339.129 670 375 649.289 c S
300 519.383 m 300 560.805 333.578 594.383 375 594.383 c 416.422 594.383
 450 560.805 450 519.383 c S
300 519.383 m 335.871 540.094 381.742 527.805 402.453 491.934 c 423.164
 456.062 410.871 410.191 375 389.48 c S
600 519.383 m 635.871 498.676 648.164 452.805 627.453 416.934 c 606.742
 381.062 560.871 368.77 525 389.48 c S
450 259.578 m 414.129 238.867 368.258 251.156 347.547 287.027 c 326.836
 322.902 339.129 368.77 375 389.48 c S
600 519.383 m 600 477.965 566.422 444.383 525 444.383 c 483.578 444.383
 450 477.965 450 519.383 c S
450 259.578 m 414.129 280.289 401.836 326.156 422.547 362.027 c 443.258
 397.902 489.129 410.191 525 389.48 c S
750 259.578 m 714.129 238.867 668.258 251.156 647.547 287.027 c 626.836
 322.902 639.129 368.77 675 389.48 c S
750 259.578 m 750 218.156 716.422 184.578 675 184.578 c 633.578 184.578
 600 218.156 600 259.578 c S
600 519.383 m 635.871 498.676 648.164 452.805 627.453 416.934 c 606.742
 381.062 560.871 368.77 525 389.48 c S
450 259.578 m 450 301 483.578 334.578 525 334.578 c 566.422 334.578 600
 301 600 259.578 c S
600 519.383 m 635.871 540.094 681.742 527.805 702.453 491.934 c 723.164
 456.062 710.871 410.191 675 389.48 c S
450 259.578 m 414.129 280.289 401.836 326.156 422.547 362.027 c 443.258
 397.902 489.129 410.191 525 389.48 c S
450 259.578 m 450 301 483.578 334.578 525 334.578 c 566.422 334.578 600
 301 600 259.578 c S
450 259.578 m 485.871 280.289 531.742 267.996 552.453 232.125 c 573.164
 196.254 560.871 150.383 525 129.672 c S
750 259.578 m 785.871 238.867 798.164 192.996 777.453 157.125 c 756.742
 121.254 710.871 108.961 675 129.672 c S
600 -0.23 m 564.129 -20.941 518.258 -8.652 497.547 27.223 c 476.836 63.094
 489.129 108.961 525 129.672 c S
750 259.578 m 750 218.156 716.422 184.578 675 184.578 c 633.578 184.578
 600 218.156 600 259.578 c S
600 -0.23 m 564.129 20.48 551.836 66.348 572.547 102.223 c 593.258 138.094
 639.129 150.383 675 129.672 c S
900 -0.23 m 864.129 -20.941 818.258 -8.652 797.547 27.223 c 776.836 63.094
 789.129 108.961 825 129.672 c S
900 -0.23 m 900 -41.652 866.422 -75.23 825 -75.23 c 783.578 -75.23 750 
-41.652 750 -0.23 c S
750 259.578 m 785.871 238.867 798.164 192.996 777.453 157.125 c 756.742
 121.254 710.871 108.961 675 129.672 c S
600 -0.23 m 600 41.191 633.578 74.77 675 74.77 c 716.422 74.77 750 41.191
 750 -0.23 c S
750 259.578 m 785.871 280.289 831.742 267.996 852.453 232.125 c 873.164
 196.254 860.871 150.383 825 129.672 c S
600 -0.23 m 564.129 20.48 551.836 66.348 572.547 102.223 c 593.258 138.094
 639.129 150.383 675 129.672 c S
300 1039 m 300 1080.422 333.578 1114 375 1114 c 416.422 1114 450 1080.422
 450 1039 c S
300 1039 m 335.871 1059.711 381.742 1047.422 402.453 1011.547 c 423.164
 975.676 410.871 929.809 375 909.098 c S
600 1039 m 635.871 1018.289 648.164 972.422 627.453 936.547 c 606.742 900.676
 560.871 888.387 525 909.098 c S
450 779.191 m 414.129 758.48 368.258 770.773 347.547 806.645 c 326.836 
842.516 339.129 888.387 375 909.098 c S
600 1039 m 600 997.578 566.422 964 525 964 c 483.578 964 450 997.578 450
 1039 c S
450 779.191 m 414.129 799.902 401.836 845.773 422.547 881.645 c 443.258
 917.516 489.129 929.809 525 909.098 c S
750 779.191 m 714.129 758.48 668.258 770.773 647.547 806.645 c 626.836 
842.516 639.129 888.387 675 909.098 c S
750 779.191 m 750 737.77 716.422 704.191 675 704.191 c 633.578 704.191 
600 737.77 600 779.191 c S
600 1039 m 635.871 1018.289 648.164 972.422 627.453 936.547 c 606.742 900.676
 560.871 888.387 525 909.098 c S
450 779.191 m 450 820.613 483.578 854.191 525 854.191 c 566.422 854.191
 600 820.613 600 779.191 c S
600 1039 m 635.871 1059.711 681.742 1047.422 702.453 1011.547 c 723.164
 975.676 710.871 929.809 675 909.098 c S
450 779.191 m 414.129 799.902 401.836 845.773 422.547 881.645 c 443.258
 917.516 489.129 929.809 525 909.098 c S
450 779.191 m 450 820.613 483.578 854.191 525 854.191 c 566.422 854.191
 600 820.613 600 779.191 c S
450 779.191 m 485.871 799.902 531.742 787.613 552.453 751.742 c 573.164
 715.867 560.871 670 525 649.289 c S
750 779.191 m 785.871 758.48 798.164 712.613 777.453 676.742 c 756.742 
640.867 710.871 628.578 675 649.289 c S
600 519.383 m 564.129 498.676 518.258 510.965 497.547 546.836 c 476.836
 582.707 489.129 628.578 525 649.289 c S
750 779.191 m 750 737.77 716.422 704.191 675 704.191 c 633.578 704.191 
600 737.77 600 779.191 c S
600 519.383 m 564.129 540.094 551.836 585.965 572.547 621.836 c 593.258
 657.707 639.129 670 675 649.289 c S
900 519.383 m 864.129 498.676 818.258 510.965 797.547 546.836 c 776.836
 582.707 789.129 628.578 825 649.289 c S
900 519.383 m 900 477.965 866.422 444.383 825 444.383 c 783.578 444.383
 750 477.965 750 519.383 c S
750 779.191 m 785.871 758.48 798.164 712.613 777.453 676.742 c 756.742 
640.867 710.871 628.578 675 649.289 c S
600 519.383 m 600 560.805 633.578 594.383 675 594.383 c 716.422 594.383
 750 560.805 750 519.383 c S
750 779.191 m 785.871 799.902 831.742 787.613 852.453 751.742 c 873.164
 715.867 860.871 670 825 649.289 c S
600 519.383 m 564.129 540.094 551.836 585.965 572.547 621.836 c 593.258
 657.707 639.129 670 675 649.289 c S
600 519.383 m 600 560.805 633.578 594.383 675 594.383 c 716.422 594.383
 750 560.805 750 519.383 c S
600 519.383 m 635.871 540.094 681.742 527.805 702.453 491.934 c 723.164
 456.062 710.871 410.191 675 389.48 c S
900 519.383 m 935.871 498.676 948.164 452.805 927.453 416.934 c 906.742
 381.062 860.871 368.77 825 389.48 c S
750 259.578 m 714.129 238.867 668.258 251.156 647.547 287.027 c 626.836
 322.902 639.129 368.77 675 389.48 c S
900 519.383 m 900 477.965 866.422 444.383 825 444.383 c 783.578 444.383
 750 477.965 750 519.383 c S
750 259.578 m 714.129 280.289 701.836 326.156 722.547 362.027 c 743.258
 397.902 789.129 410.191 825 389.48 c S
1050 259.578 m 1014.129 238.867 968.258 251.156 947.547 287.027 c 926.836
 322.902 939.129 368.77 975 389.48 c S
1050 259.578 m 1050 218.156 1016.422 184.578 975 184.578 c 933.578 184.578
 900 218.156 900 259.578 c S
900 519.383 m 935.871 498.676 948.164 452.805 927.453 416.934 c 906.742
 381.062 860.871 368.77 825 389.48 c S
750 259.578 m 750 301 783.578 334.578 825 334.578 c 866.422 334.578 900
 301 900 259.578 c S
900 519.383 m 935.871 540.094 981.742 527.805 1002.453 491.934 c 1023.164
 456.062 1010.871 410.191 975 389.48 c S
750 259.578 m 714.129 280.289 701.836 326.156 722.547 362.027 c 743.258
 397.902 789.129 410.191 825 389.48 c S
750 259.578 m 750 301 783.578 334.578 825 334.578 c 866.422 334.578 900
 301 900 259.578 c S
750 259.578 m 785.871 280.289 831.742 267.996 852.453 232.125 c 873.164
 196.254 860.871 150.383 825 129.672 c S
1050 259.578 m 1085.871 238.867 1098.164 192.996 1077.453 157.125 c 1056.742
 121.254 1010.871 108.961 975 129.672 c S
900 -0.23 m 864.129 -20.941 818.258 -8.652 797.547 27.223 c 776.836 63.094
 789.129 108.961 825 129.672 c S
1050 259.578 m 1050 218.156 1016.422 184.578 975 184.578 c 933.578 184.578
 900 218.156 900 259.578 c S
900 -0.23 m 864.129 20.48 851.836 66.348 872.547 102.223 c 893.258 138.094
 939.129 150.383 975 129.672 c S
1200 -0.23 m 1164.129 -20.941 1118.258 -8.652 1097.547 27.223 c 1076.836
 63.094 1089.129 108.961 1125 129.672 c S
1200 -0.23 m 1200 -41.652 1166.422 -75.23 1125 -75.23 c 1083.578 -75.23
 1050 -41.652 1050 -0.23 c S
1050 259.578 m 1085.871 238.867 1098.164 192.996 1077.453 157.125 c 1056.742
 121.254 1010.871 108.961 975 129.672 c S
900 -0.23 m 900 41.191 933.578 74.77 975 74.77 c 1016.422 74.77 1050 41.191
 1050 -0.23 c S
1050 259.578 m 1085.871 280.289 1131.742 267.996 1152.453 232.125 c 1173.164
 196.254 1160.871 150.383 1125 129.672 c S
900 -0.23 m 864.129 20.48 851.836 66.348 872.547 102.223 c 893.258 138.094
 939.129 150.383 975 129.672 c S
600 1039 m 600 1080.422 633.578 1114 675 1114 c 716.422 1114 750 1080.422
 750 1039 c S
600 1039 m 635.871 1059.711 681.742 1047.422 702.453 1011.547 c 723.164
 975.676 710.871 929.809 675 909.098 c S
900 1039 m 935.871 1018.289 948.164 972.422 927.453 936.547 c 906.742 900.676
 860.871 888.387 825 909.098 c S
750 779.191 m 714.129 758.48 668.258 770.773 647.547 806.645 c 626.836 
842.516 639.129 888.387 675 909.098 c S
900 1039 m 900 997.578 866.422 964 825 964 c 783.578 964 750 997.578 750
 1039 c S
750 779.191 m 714.129 799.902 701.836 845.773 722.547 881.645 c 743.258
 917.516 789.129 929.809 825 909.098 c S
1050 779.191 m 1014.129 758.48 968.258 770.773 947.547 806.645 c 926.836
 842.516 939.129 888.387 975 909.098 c S
1050 779.191 m 1050 737.77 1016.422 704.191 975 704.191 c 933.578 704.191
 900 737.77 900 779.191 c S
900 1039 m 935.871 1018.289 948.164 972.422 927.453 936.547 c 906.742 900.676
 860.871 888.387 825 909.098 c S
750 779.191 m 750 820.613 783.578 854.191 825 854.191 c 866.422 854.191
 900 820.613 900 779.191 c S
900 1039 m 935.871 1059.711 981.742 1047.422 1002.453 1011.547 c 1023.164
 975.676 1010.871 929.809 975 909.098 c S
750 779.191 m 714.129 799.902 701.836 845.773 722.547 881.645 c 743.258
 917.516 789.129 929.809 825 909.098 c S
750 779.191 m 750 820.613 783.578 854.191 825 854.191 c 866.422 854.191
 900 820.613 900 779.191 c S
750 779.191 m 785.871 799.902 831.742 787.613 852.453 751.742 c 873.164
 715.867 860.871 670 825 649.289 c S
1050 779.191 m 1085.871 758.48 1098.164 712.613 1077.453 676.742 c 1056.742
 640.867 1010.871 628.578 975 649.289 c S
900 519.383 m 864.129 498.676 818.258 510.965 797.547 546.836 c 776.836
 582.707 789.129 628.578 825 649.289 c S
1050 779.191 m 1050 737.77 1016.422 704.191 975 704.191 c 933.578 704.191
 900 737.77 900 779.191 c S
900 519.383 m 864.129 540.094 851.836 585.965 872.547 621.836 c 893.258
 657.707 939.129 670 975 649.289 c S
1200 519.383 m 1164.129 498.676 1118.258 510.965 1097.547 546.836 c 1076.836
 582.707 1089.129 628.578 1125 649.289 c S
1200 519.383 m 1200 477.965 1166.422 444.383 1125 444.383 c 1083.578 444.383
 1050 477.965 1050 519.383 c S
1050 779.191 m 1085.871 758.48 1098.164 712.613 1077.453 676.742 c 1056.742
 640.867 1010.871 628.578 975 649.289 c S
900 519.383 m 900 560.805 933.578 594.383 975 594.383 c 1016.422 594.383
 1050 560.805 1050 519.383 c S
1050 779.191 m 1085.871 799.902 1131.742 787.613 1152.453 751.742 c 1173.164
 715.867 1160.871 670 1125 649.289 c S
900 519.383 m 864.129 540.094 851.836 585.965 872.547 621.836 c 893.258
 657.707 939.129 670 975 649.289 c S
900 519.383 m 900 560.805 933.578 594.383 975 594.383 c 1016.422 594.383
 1050 560.805 1050 519.383 c S
900 519.383 m 935.871 540.094 981.742 527.805 1002.453 491.934 c 1023.164
 456.062 1010.871 410.191 975 389.48 c S
1200 519.383 m 1235.871 498.676 1248.164 452.805 1227.453 416.934 c 1206.742
 381.062 1160.871 368.77 1125 389.48 c S
1050 259.578 m 1014.129 238.867 968.258 251.156 947.547 287.027 c 926.836
 322.902 939.129 368.77 975 389.48 c S
1200 519.383 m 1200 477.965 1166.422 444.383 1125 444.383 c 1083.578 444.383
 1050 477.965 1050 519.383 c S
1050 259.578 m 1014.129 280.289 1001.836 326.156 1022.547 362.027 c 1043.258
 397.902 1089.129 410.191 1125 389.48 c S
1350 259.578 m 1350 218.156 1316.422 184.578 1275 184.578 c 1233.578 184.578
 1200 218.156 1200 259.578 c S
1200 519.383 m 1235.871 498.676 1248.164 452.805 1227.453 416.934 c 1206.742
 381.062 1160.871 368.77 1125 389.48 c S
1050 259.578 m 1050 301 1083.578 334.578 1125 334.578 c 1166.422 334.578
 1200 301 1200 259.578 c S
1200 519.383 m 1235.871 540.094 1281.742 527.805 1302.453 491.934 c 1323.164
 456.062 1310.871 410.191 1275 389.48 c S
1050 259.578 m 1014.129 280.289 1001.836 326.156 1022.547 362.027 c 1043.258
 397.902 1089.129 410.191 1125 389.48 c S
1050 259.578 m 1050 301 1083.578 334.578 1125 334.578 c 1166.422 334.578
 1200 301 1200 259.578 c S
1050 259.578 m 1085.871 280.289 1131.742 267.996 1152.453 232.125 c 1173.164
 196.254 1160.871 150.383 1125 129.672 c S
1200 -0.23 m 1164.129 -20.941 1118.258 -8.652 1097.547 27.223 c 1076.836
 63.094 1089.129 108.961 1125 129.672 c S
1350 259.578 m 1350 218.156 1316.422 184.578 1275 184.578 c 1233.578 184.578
 1200 218.156 1200 259.578 c S
1200 -0.23 m 1164.129 20.48 1151.836 66.348 1172.547 102.223 c 1193.258
 138.094 1239.129 150.383 1275 129.672 c S
1200 -0.23 m 1200 41.191 1233.578 74.77 1275 74.77 c 1316.422 74.77 1350
 41.191 1350 -0.23 c S
1200 -0.23 m 1164.129 20.48 1151.836 66.348 1172.547 102.223 c 1193.258
 138.094 1239.129 150.383 1275 129.672 c S
900 1039 m 900 1080.422 933.578 1114 975 1114 c 1016.422 1114 1050 1080.422
 1050 1039 c S
900 1039 m 935.871 1059.711 981.742 1047.422 1002.453 1011.547 c 1023.164
 975.676 1010.871 929.809 975 909.098 c S
1200 1039 m 1235.871 1018.289 1248.164 972.422 1227.453 936.547 c 1206.742
 900.676 1160.871 888.387 1125 909.098 c S
1050 779.191 m 1014.129 758.48 968.258 770.773 947.547 806.645 c 926.836
 842.516 939.129 888.387 975 909.098 c S
1200 1039 m 1200 997.578 1166.422 964 1125 964 c 1083.578 964 1050 997.578
 1050 1039 c S
1050 779.191 m 1014.129 799.902 1001.836 845.773 1022.547 881.645 c 1043.258
 917.516 1089.129 929.809 1125 909.098 c S
1350 779.191 m 1350 737.77 1316.422 704.191 1275 704.191 c 1233.578 704.191
 1200 737.77 1200 779.191 c S
1200 1039 m 1235.871 1018.289 1248.164 972.422 1227.453 936.547 c 1206.742
 900.676 1160.871 888.387 1125 909.098 c S
1050 779.191 m 1050 820.613 1083.578 854.191 1125 854.191 c 1166.422 854.191
 1200 820.613 1200 779.191 c S
1200 1039 m 1235.871 1059.711 1281.742 1047.422 1302.453 1011.547 c 1323.164
 975.676 1310.871 929.809 1275 909.098 c S
1050 779.191 m 1014.129 799.902 1001.836 845.773 1022.547 881.645 c 1043.258
 917.516 1089.129 929.809 1125 909.098 c S
1050 779.191 m 1050 820.613 1083.578 854.191 1125 854.191 c 1166.422 854.191
 1200 820.613 1200 779.191 c S
1050 779.191 m 1085.871 799.902 1131.742 787.613 1152.453 751.742 c 1173.164
 715.867 1160.871 670 1125 649.289 c S
1200 519.383 m 1164.129 498.676 1118.258 510.965 1097.547 546.836 c 1076.836
 582.707 1089.129 628.578 1125 649.289 c S
1350 779.191 m 1350 737.77 1316.422 704.191 1275 704.191 c 1233.578 704.191
 1200 737.77 1200 779.191 c S
1200 519.383 m 1164.129 540.094 1151.836 585.965 1172.547 621.836 c 1193.258
 657.707 1239.129 670 1275 649.289 c S
1200 519.383 m 1200 560.805 1233.578 594.383 1275 594.383 c 1316.422 594.383
 1350 560.805 1350 519.383 c S
1200 519.383 m 1164.129 540.094 1151.836 585.965 1172.547 621.836 c 1193.258
 657.707 1239.129 670 1275 649.289 c S
1200 519.383 m 1200 560.805 1233.578 594.383 1275 594.383 c 1316.422 594.383
 1350 560.805 1350 519.383 c S
1200 519.383 m 1235.871 540.094 1281.742 527.805 1302.453 491.934 c 1323.164
 456.062 1310.871 410.191 1275 389.48 c S
Q Q
showpage
%%Trailer
%%Trailer
cleartomark
countdictstack
exch sub { end } repeat
restore
%%EOF
