<svg xmlns="http://www.w3.org/2000/svg" baseProfile="full" width="1200" height="1039.23" viewBox="375.0000000000001 -129.9038105676658 1200.0 1039.2304845413264">
    <title>
        Pattern design from http://ornamentist.org
    </title>
    <desc>
        This file is licensed under a Creative Commons CC BY 4.0 license: http://creativecommons.org/licenses/by/4.0/
    </desc>
    <defs>
        <style>
<![CDATA[
        
polyline {
  fill:            none;
  stroke:          black;
  stroke-linecap:  round;
  stroke-linejoin: round;
  stroke-width:    2.0pt;
}


polyline.closed {
  fill:      #d9d9d9;
  fill-rule: evenodd;
}


polygon {
  fill:            #d9d9d9;
  fill-rule:       evenodd;
  stroke:          black;
  stroke-linejoin: round;
  stroke-width:    2.0pt;
}


circle {
  fill:         #d9d9d9;
  stroke:       black;
  stroke-width: 2.0pt;
}


ellipse {
  fill:         #d9d9d9;
  stroke:       black;
  stroke-width: 2.0pt;
}


path {
  fill:            none;
  stroke:          black;
  stroke-linecap:  round;
  stroke-linejoin: round;
  stroke-width:    2.0pt;
}


path.closed {
  fill:      #d9d9d9;
  fill-rule: evenodd;
}


polygon.background,
path.background
{
  fill:   #fbfbfb;
  stroke: #c9c9c9;
  stroke-width: 1.5pt;
}

        ]]>
        </style>
    </defs>
    <clipPath id="design">
        <path d="M375-129.904h1200v1039.23H375z"/>
    </clipPath>
    <g clip-path="url(#design)" color-rendering="optimizeQuality" shape-rendering="geometricPrecision" id="graphics">
        <path class="background closed" d="M1575-129.904v1039.23H375v-1039.23z"/>
        <path d="M-175-129.904h-50l50 28.868M-200-86.603l-25-43.3 50 28.867M50-86.603l25-43.3-50 28.867M-100 86.603l25 43.3V72.17M25-129.904h50l-50 28.868M-50 86.603l-25 43.3V72.17M200 86.603l25 43.3-50-28.867M175 129.904h50l-50-28.868" class="polyline-3-1 open"/>
        <path d="M50-86.603l25-43.3v57.734M-25 129.904h-50l50-28.868M100-86.603l-25-43.3v57.734M-50 86.603l-25 43.3 50-28.867M-25 129.904h-50l50 28.867M-50 173.205l-25-43.3 50 28.866M200 173.205l25-43.3-50 28.866M50 346.41l25 43.3v-57.734M175 129.904h50l-50 28.867M100 346.41l-25 43.3v-57.734M350 346.41l25 43.3-50-28.866" class="polyline-3-1 open"/>
        <path d="M325 389.71h50l-50-28.866M200 173.205l25-43.3v57.734M125 389.71H75l50-28.866M250 173.205l-25-43.3v57.734" class="polyline-3-1 open"/>
        <path d="M100 346.41l-25 43.3 50-28.866" class="polyline-3-1 open"/>
        <path d="M125 389.71H75l50 28.87M100 433.013L75 389.71l50 28.87M350 433.013l25-43.302-50 28.87M200 606.218l25 43.3v-57.734M325 389.71h50l-50 28.87M250 606.218l-25 43.3v-57.734M500 606.218l25 43.3-50-28.866M475 649.52h50l-50-28.868" class="polyline-3-1 open"/>
        <path d="M350 433.013l25-43.302v57.736M275 649.52h-50l50-28.868M400 433.013l-25-43.302v57.736M250 606.218l-25 43.3 50-28.866M275 649.52h-50l50 28.867M250 692.82l-25-43.3 50 28.867M500 692.82l25-43.3-50 28.867M350 866.025l25 43.302v-57.735M475 649.52h50l-50 28.867M400 866.025l-25 43.302v-57.735M650 866.025l25 43.302-50-28.868" class="polyline-3-1 open"/>
        <path d="M625 909.327h50l-50-28.868M500 692.82l25-43.3v57.734M425 909.327h-50l50-28.868M550 692.82l-25-43.3v57.734" class="polyline-3-1 open"/>
        <path d="M400 866.025l-25 43.302 50-28.868M125-129.904H75l50 28.868M100-86.603l-25-43.3 50 28.867M350-86.603l25-43.3-50 28.867M200 86.603l25 43.3V72.17M325-129.904h50l-50 28.868M250 86.603l-25 43.3V72.17M500 86.603l25 43.3-50-28.867M475 129.904h50l-50-28.868" class="polyline-3-1 open"/>
        <path d="M350-86.603l25-43.3v57.734M275 129.904h-50l50-28.868M400-86.603l-25-43.3v57.734M250 86.603l-25 43.3 50-28.867M275 129.904h-50l50 28.867M250 173.205l-25-43.3 50 28.866M500 173.205l25-43.3-50 28.866M350 346.41l25 43.3v-57.734M475 129.904h50l-50 28.867M400 346.41l-25 43.3v-57.734M650 346.41l25 43.3-50-28.866" class="polyline-3-1 open"/>
        <path d="M625 389.71h50l-50-28.866M500 173.205l25-43.3v57.734M425 389.71h-50l50-28.866M550 173.205l-25-43.3v57.734" class="polyline-3-1 open"/>
        <path d="M400 346.41l-25 43.3 50-28.866" class="polyline-3-1 open"/>
        <path d="M425 389.71h-50l50 28.87M400 433.013l-25-43.302 50 28.87M650 433.013l25-43.302-50 28.87M500 606.218l25 43.3v-57.734M625 389.71h50l-50 28.87M550 606.218l-25 43.3v-57.734M800 606.218l25 43.3-50-28.866M775 649.52h50l-50-28.868" class="polyline-3-1 open"/>
        <path d="M650 433.013l25-43.302v57.736M575 649.52h-50l50-28.868M700 433.013l-25-43.302v57.736M550 606.218l-25 43.3 50-28.866M575 649.52h-50l50 28.867M550 692.82l-25-43.3 50 28.867M800 692.82l25-43.3-50 28.867M650 866.025l25 43.302v-57.735M775 649.52h50l-50 28.867M700 866.025l-25 43.302v-57.735M950 866.025l25 43.302-50-28.868" class="polyline-3-1 open"/>
        <path d="M925 909.327h50l-50-28.868M800 692.82l25-43.3v57.734M725 909.327h-50l50-28.868M850 692.82l-25-43.3v57.734" class="polyline-3-1 open"/>
        <path d="M700 866.025l-25 43.302 50-28.868M425-129.904h-50l50 28.868M400-86.603l-25-43.3 50 28.867M650-86.603l25-43.3-50 28.867M500 86.603l25 43.3V72.17M625-129.904h50l-50 28.868M550 86.603l-25 43.3V72.17M800 86.603l25 43.3-50-28.867M775 129.904h50l-50-28.868" class="polyline-3-1 open"/>
        <path d="M650-86.603l25-43.3v57.734M575 129.904h-50l50-28.868M700-86.603l-25-43.3v57.734M550 86.603l-25 43.3 50-28.867M575 129.904h-50l50 28.867M550 173.205l-25-43.3 50 28.866M800 173.205l25-43.3-50 28.866M650 346.41l25 43.3v-57.734M775 129.904h50l-50 28.867M700 346.41l-25 43.3v-57.734M950 346.41l25 43.3-50-28.866" class="polyline-3-1 open"/>
        <path d="M925 389.71h50l-50-28.866M800 173.205l25-43.3v57.734M725 389.71h-50l50-28.866M850 173.205l-25-43.3v57.734" class="polyline-3-1 open"/>
        <path d="M700 346.41l-25 43.3 50-28.866" class="polyline-3-1 open"/>
        <path d="M725 389.71h-50l50 28.87M700 433.013l-25-43.302 50 28.87M950 433.013l25-43.302-50 28.87M800 606.218l25 43.3v-57.734M925 389.71h50l-50 28.87M850 606.218l-25 43.3v-57.734M1100 606.218l25 43.3-50-28.866M1075 649.52h50l-50-28.868" class="polyline-3-1 open"/>
        <path d="M950 433.013l25-43.302v57.736M875 649.52h-50l50-28.868M1000 433.013l-25-43.302v57.736M850 606.218l-25 43.3 50-28.866M875 649.52h-50l50 28.867M850 692.82l-25-43.3 50 28.867M1100 692.82l25-43.3-50 28.867M950 866.025l25 43.302v-57.735M1075 649.52h50l-50 28.867M1000 866.025l-25 43.302v-57.735M1250 866.025l25 43.302-50-28.868" class="polyline-3-1 open"/>
        <path d="M1225 909.327h50l-50-28.868M1100 692.82l25-43.3v57.734M1025 909.327h-50l50-28.868M1150 692.82l-25-43.3v57.734" class="polyline-3-1 open"/>
        <path d="M1000 866.025l-25 43.302 50-28.868M725-129.904h-50l50 28.868M700-86.603l-25-43.3 50 28.867M950-86.603l25-43.3-50 28.867M800 86.603l25 43.3V72.17M925-129.904h50l-50 28.868M850 86.603l-25 43.3V72.17M1100 86.603l25 43.3-50-28.867M1075 129.904h50l-50-28.868" class="polyline-3-1 open"/>
        <path d="M950-86.603l25-43.3v57.734M875 129.904h-50l50-28.868M1000-86.603l-25-43.3v57.734M850 86.603l-25 43.3 50-28.867M875 129.904h-50l50 28.867M850 173.205l-25-43.3 50 28.866M1100 173.205l25-43.3-50 28.866M950 346.41l25 43.3v-57.734M1075 129.904h50l-50 28.867M1000 346.41l-25 43.3v-57.734M1250 346.41l25 43.3-50-28.866" class="polyline-3-1 open"/>
        <path d="M1225 389.71h50l-50-28.866M1100 173.205l25-43.3v57.734M1025 389.71h-50l50-28.866M1150 173.205l-25-43.3v57.734" class="polyline-3-1 open"/>
        <path d="M1000 346.41l-25 43.3 50-28.866" class="polyline-3-1 open"/>
        <path d="M1025 389.71h-50l50 28.87M1000 433.013l-25-43.302 50 28.87M1250 433.013l25-43.302-50 28.87M1100 606.218l25 43.3v-57.734M1225 389.71h50l-50 28.87M1150 606.218l-25 43.3v-57.734M1400 606.218l25 43.3-50-28.866M1375 649.52h50l-50-28.868" class="polyline-3-1 open"/>
        <path d="M1250 433.013l25-43.302v57.736M1175 649.52h-50l50-28.868M1300 433.013l-25-43.302v57.736M1150 606.218l-25 43.3 50-28.866M1175 649.52h-50l50 28.867M1150 692.82l-25-43.3 50 28.867M1400 692.82l25-43.3-50 28.867M1250 866.025l25 43.302v-57.735M1375 649.52h50l-50 28.867M1300 866.025l-25 43.302v-57.735M1550 866.025l25 43.302-50-28.868" class="polyline-3-1 open"/>
        <path d="M1525 909.327h50l-50-28.868M1400 692.82l25-43.3v57.734M1325 909.327h-50l50-28.868M1450 692.82l-25-43.3v57.734" class="polyline-3-1 open"/>
        <path d="M1300 866.025l-25 43.302 50-28.868M1025-129.904h-50l50 28.868M1000-86.603l-25-43.3 50 28.867M1250-86.603l25-43.3-50 28.867M1100 86.603l25 43.3V72.17M1225-129.904h50l-50 28.868M1150 86.603l-25 43.3V72.17M1400 86.603l25 43.3-50-28.867M1375 129.904h50l-50-28.868" class="polyline-3-1 open"/>
        <path d="M1250-86.603l25-43.3v57.734M1175 129.904h-50l50-28.868M1300-86.603l-25-43.3v57.734M1150 86.603l-25 43.3 50-28.867M1175 129.904h-50l50 28.867M1150 173.205l-25-43.3 50 28.866M1400 173.205l25-43.3-50 28.866M1250 346.41l25 43.3v-57.734M1375 129.904h50l-50 28.867M1300 346.41l-25 43.3v-57.734M1550 346.41l25 43.3-50-28.866" class="polyline-3-1 open"/>
        <path d="M1525 389.71h50l-50-28.866M1400 173.205l25-43.3v57.734M1325 389.71h-50l50-28.866M1450 173.205l-25-43.3v57.734" class="polyline-3-1 open"/>
        <path d="M1300 346.41l-25 43.3 50-28.866" class="polyline-3-1 open"/>
        <path d="M1325 389.71h-50l50 28.87M1300 433.013l-25-43.302 50 28.87M1550 433.013l25-43.302-50 28.87M1400 606.218l25 43.3v-57.734M1525 389.71h50l-50 28.87M1450 606.218l-25 43.3v-57.734M1700 606.218l25 43.3-50-28.866M1675 649.52h50l-50-28.868" class="polyline-3-1 open"/>
        <path d="M1550 433.013l25-43.302v57.736M1475 649.52h-50l50-28.868M1600 433.013l-25-43.302v57.736M1450 606.218l-25 43.3 50-28.866M1475 649.52h-50l50 28.867M1450 692.82l-25-43.3 50 28.867M1700 692.82l25-43.3-50 28.867M1550 866.025l25 43.302v-57.735M1675 649.52h50l-50 28.867M1600 866.025l-25 43.302v-57.735M1850 866.025l25 43.302-50-28.868" class="polyline-3-1 open"/>
        <path d="M1825 909.327h50l-50-28.868M1700 692.82l25-43.3v57.734M1625 909.327h-50l50-28.868M1750 692.82l-25-43.3v57.734" class="polyline-3-1 open"/>
        <path d="M1600 866.025l-25 43.302 50-28.868M1325-129.904h-50l50 28.868M1300-86.603l-25-43.3 50 28.867M1550-86.603l25-43.3-50 28.867M1400 86.603l25 43.3V72.17M1525-129.904h50l-50 28.868M1450 86.603l-25 43.3V72.17M1700 86.603l25 43.3-50-28.867M1675 129.904h50l-50-28.868" class="polyline-3-1 open"/>
        <path d="M1550-86.603l25-43.3v57.734M1475 129.904h-50l50-28.868M1600-86.603l-25-43.3v57.734M1450 86.603l-25 43.3 50-28.867M1475 129.904h-50l50 28.867M1450 173.205l-25-43.3 50 28.866M1700 173.205l25-43.3-50 28.866M1550 346.41l25 43.3v-57.734M1675 129.904h50l-50 28.867M1600 346.41l-25 43.3v-57.734M1850 346.41l25 43.3-50-28.866" class="polyline-3-1 open"/>
        <path d="M1825 389.71h50l-50-28.866M1700 173.205l25-43.3v57.734M1625 389.71h-50l50-28.866M1750 173.205l-25-43.3v57.734" class="polyline-3-1 open"/>
        <path d="M1600 346.41l-25 43.3 50-28.866" class="polyline-3-1 open"/>
        <path d="M1625 389.71h-50l50 28.87M1600 433.013l-25-43.302 50 28.87M1850 433.013l25-43.302-50 28.87M1700 606.218l25 43.3v-57.734M1825 389.71h50l-50 28.87M1750 606.218l-25 43.3v-57.734M2000 606.218l25 43.3-50-28.866M1975 649.52h50l-50-28.868" class="polyline-3-1 open"/>
        <path d="M1850 433.013l25-43.302v57.736M1775 649.52h-50l50-28.868M1900 433.013l-25-43.302v57.736M1750 606.218l-25 43.3 50-28.866M1775 649.52h-50l50 28.867M1750 692.82l-25-43.3 50 28.867M2000 692.82l25-43.3-50 28.867M1850 866.025l25 43.302v-57.735M1975 649.52h50l-50 28.867M1900 866.025l-25 43.302v-57.735M2150 866.025l25 43.302-50-28.868" class="polyline-3-1 open"/>
        <path d="M2125 909.327h50l-50-28.868M2000 692.82l25-43.3v57.734M1925 909.327h-50l50-28.868M2050 692.82l-25-43.3v57.734" class="polyline-3-1 open"/>
        <path d="M1900 866.025l-25 43.302 50-28.868" class="polyline-3-1 open"/>
    </g>
</svg>
