%!PS-Adobe-2.0 EPSF-2.0
%%BoundingBox: 0 0 1200 1039
%%HiResBoundingBox: 0.000000 0.000000 1200.000000 1039.000000
%%Creator: cairo 1.14.2 (http://cairographics.org)
%%CreationDate: Mon Sep  7 08:21:42 2015
%%DocumentData: Clean7Bit
%%LanguageLevel: 2
%%DocumentMedia: 423x367mm 1200 1039 0 () ()
%%EndComments
% EPSF created by ps2eps 1.68
%%BeginProlog
save
countdictstack
mark
newpath
/showpage {} def
/setpagedevice {pop} def
%%EndProlog
%%Page 1 1
%%BeginProlog
/languagelevel where
{ pop languagelevel } { 1 } ifelse
2 lt { /Helvetica findfont 12 scalefont setfont 50 500 moveto
  (This print job requires a PostScript Language Level 2 printer.) show
  showpage quit } if
/q { gsave } bind def
/Q { grestore } bind def
/cm { 6 array astore concat } bind def
/w { setlinewidth } bind def
/J { setlinecap } bind def
/j { setlinejoin } bind def
/M { setmiterlimit } bind def
/d { setdash } bind def
/m { moveto } bind def
/l { lineto } bind def
/c { curveto } bind def
/h { closepath } bind def
/re { exch dup neg 3 1 roll 5 3 roll moveto 0 rlineto
      0 exch rlineto 0 rlineto closepath } bind def
/S { stroke } bind def
/f { fill } bind def
/f* { eofill } bind def
/n { newpath } bind def
/W { clip } bind def
/W* { eoclip } bind def
/BT { } bind def
/ET { } bind def
/pdfmark where { pop globaldict /?pdfmark /exec load put }
    { globaldict begin /?pdfmark /pop load def /pdfmark
    /cleartomark load def end } ifelse
/BDC { mark 3 1 roll /BDC pdfmark } bind def
/EMC { mark /EMC pdfmark } bind def
/cairo_store_point { /cairo_point_y exch def /cairo_point_x exch def } def
/Tj { show currentpoint cairo_store_point } bind def
/TJ {
  {
    dup
    type /stringtype eq
    { show } { -0.001 mul 0 cairo_font_matrix dtransform rmoveto } ifelse
  } forall
  currentpoint cairo_store_point
} bind def
/cairo_selectfont { cairo_font_matrix aload pop pop pop 0 0 6 array astore
    cairo_font exch selectfont cairo_point_x cairo_point_y moveto } bind def
/Tf { pop /cairo_font exch def /cairo_font_matrix where
      { pop cairo_selectfont } if } bind def
/Td { matrix translate cairo_font_matrix matrix concatmatrix dup
      /cairo_font_matrix exch def dup 4 get exch 5 get cairo_store_point
      /cairo_font where { pop cairo_selectfont } if } bind def
/Tm { 2 copy 8 2 roll 6 array astore /cairo_font_matrix exch def
      cairo_store_point /cairo_font where { pop cairo_selectfont } if } bind def
/g { setgray } bind def
/rg { setrgbcolor } bind def
/d1 { setcachedevice } bind def
/cairo_set_page_size {
  % Change paper size, but only if different from previous paper size otherwise
  % duplex fails. PLRM specifies a tolerance of 5 pts when matching paper size
  % so we use the same when checking if the size changes.
  /setpagedevice where {
    pop currentpagedevice
    /PageSize known {
      2 copy
      currentpagedevice /PageSize get aload pop
      exch 4 1 roll
      sub abs 5 gt
      3 1 roll
      sub abs 5 gt
      or
    } {
      true
    } ifelse
    {
      2 array astore
      2 dict begin
        /PageSize exch def
        /ImagingBBox null def
      currentdict end
      setpagedevice
    } {
      pop pop
    } ifelse
  } {
    pop
  } ifelse
} def
%%EndProlog
%%BeginSetup
%%EndSetup
%%Page: 1 1
%%BeginPageSetup
%%PageMedia: 423x367mm
%%PageBoundingBox: 0 0 1200 1039
1200 1039 cairo_set_page_size
%%EndPageSetup
q 0 0 1200 1039 rectclip q
0.984314 g
0 0 1200 1039 rectfill
0.788235 g
1.875 w
0 J
1 j
[] 0.0 d
4 M 0 1039 1200 -1039.23 re S
0 g
2.5 w
1 J
-25 562.688 m 0 519.383 l -50 548.254 l S
-50 519.383 m 0 519.383 l -50 548.254 l S
-25 476.082 m 0 519.383 l -50 490.516 l S
-50 519.383 m 0 519.383 l -50 490.516 l S
125 302.879 m 150 259.578 l 100 288.445 l S
100 259.578 m 150 259.578 l 100 288.445 l S
-25 476.082 m 0 519.383 l 0 461.648 l S
25 476.082 m 0 519.383 l 0 461.648 l S
125 216.277 m 150 259.578 l 100 230.711 l S
-25 43.07 m 0 -0.23 l 0 57.504 l S
100 259.578 m 150 259.578 l 100 230.711 l S
25 43.07 m 0 -0.23 l 0 57.504 l S
275 43.07 m 300 -0.23 l 250 28.637 l S
250 -0.23 m 300 -0.23 l 250 28.637 l S
125 216.277 m 150 259.578 l 150 201.844 l S
50 -0.23 m 0 -0.23 l 50 28.637 l S
175 216.277 m 150 259.578 l 150 201.844 l S
25 43.07 m 0 -0.23 l 50 28.637 l S
-25 995.699 m 0 1039 l -50 1010.133 l S
-50 1039 m 0 1039 l -50 1010.133 l S
125 822.492 m 150 779.191 l 100 808.059 l S
100 779.191 m 150 779.191 l 100 808.059 l S
-25 995.699 m 0 1039 l 0 981.266 l S
25 995.699 m 0 1039 l 0 981.266 l S
125 735.891 m 150 779.191 l 100 750.324 l S
-25 562.688 m 0 519.383 l 0 577.121 l S
100 779.191 m 150 779.191 l 100 750.324 l S
25 562.688 m 0 519.383 l 0 577.121 l S
275 562.688 m 300 519.383 l 250 548.254 l S
250 519.383 m 300 519.383 l 250 548.254 l S
125 735.891 m 150 779.191 l 150 721.457 l S
50 519.383 m 0 519.383 l 50 548.254 l S
175 735.891 m 150 779.191 l 150 721.457 l S
25 562.688 m 0 519.383 l 50 548.254 l S
50 519.383 m 0 519.383 l 50 490.516 l S
25 476.082 m 0 519.383 l 50 490.516 l S
275 476.082 m 300 519.383 l 250 490.516 l S
125 302.879 m 150 259.578 l 150 317.312 l S
250 519.383 m 300 519.383 l 250 490.516 l S
175 302.879 m 150 259.578 l 150 317.312 l S
425 302.879 m 450 259.578 l 400 288.445 l S
400 259.578 m 450 259.578 l 400 288.445 l S
275 476.082 m 300 519.383 l 300 461.648 l S
200 259.578 m 150 259.578 l 200 288.445 l S
325 476.082 m 300 519.383 l 300 461.648 l S
175 302.879 m 150 259.578 l 200 288.445 l S
200 259.578 m 150 259.578 l 200 230.711 l S
175 216.277 m 150 259.578 l 200 230.711 l S
425 216.277 m 450 259.578 l 400 230.711 l S
275 43.07 m 300 -0.23 l 300 57.504 l S
400 259.578 m 450 259.578 l 400 230.711 l S
325 43.07 m 300 -0.23 l 300 57.504 l S
575 43.07 m 600 -0.23 l 550 28.637 l S
550 -0.23 m 600 -0.23 l 550 28.637 l S
425 216.277 m 450 259.578 l 450 201.844 l S
350 -0.23 m 300 -0.23 l 350 28.637 l S
475 216.277 m 450 259.578 l 450 201.844 l S
325 43.07 m 300 -0.23 l 350 28.637 l S
50 1039 m 0 1039 l 50 1010.133 l S
25 995.699 m 0 1039 l 50 1010.133 l S
275 995.699 m 300 1039 l 250 1010.133 l S
125 822.492 m 150 779.191 l 150 836.926 l S
250 1039 m 300 1039 l 250 1010.133 l S
175 822.492 m 150 779.191 l 150 836.926 l S
425 822.492 m 450 779.191 l 400 808.059 l S
400 779.191 m 450 779.191 l 400 808.059 l S
275 995.699 m 300 1039 l 300 981.266 l S
200 779.191 m 150 779.191 l 200 808.059 l S
325 995.699 m 300 1039 l 300 981.266 l S
175 822.492 m 150 779.191 l 200 808.059 l S
200 779.191 m 150 779.191 l 200 750.324 l S
175 735.891 m 150 779.191 l 200 750.324 l S
425 735.891 m 450 779.191 l 400 750.324 l S
275 562.688 m 300 519.383 l 300 577.121 l S
400 779.191 m 450 779.191 l 400 750.324 l S
325 562.688 m 300 519.383 l 300 577.121 l S
575 562.688 m 600 519.383 l 550 548.254 l S
550 519.383 m 600 519.383 l 550 548.254 l S
425 735.891 m 450 779.191 l 450 721.457 l S
350 519.383 m 300 519.383 l 350 548.254 l S
475 735.891 m 450 779.191 l 450 721.457 l S
325 562.688 m 300 519.383 l 350 548.254 l S
350 519.383 m 300 519.383 l 350 490.516 l S
325 476.082 m 300 519.383 l 350 490.516 l S
575 476.082 m 600 519.383 l 550 490.516 l S
425 302.879 m 450 259.578 l 450 317.312 l S
550 519.383 m 600 519.383 l 550 490.516 l S
475 302.879 m 450 259.578 l 450 317.312 l S
725 302.879 m 750 259.578 l 700 288.445 l S
700 259.578 m 750 259.578 l 700 288.445 l S
575 476.082 m 600 519.383 l 600 461.648 l S
500 259.578 m 450 259.578 l 500 288.445 l S
625 476.082 m 600 519.383 l 600 461.648 l S
475 302.879 m 450 259.578 l 500 288.445 l S
500 259.578 m 450 259.578 l 500 230.711 l S
475 216.277 m 450 259.578 l 500 230.711 l S
725 216.277 m 750 259.578 l 700 230.711 l S
575 43.07 m 600 -0.23 l 600 57.504 l S
700 259.578 m 750 259.578 l 700 230.711 l S
625 43.07 m 600 -0.23 l 600 57.504 l S
875 43.07 m 900 -0.23 l 850 28.637 l S
850 -0.23 m 900 -0.23 l 850 28.637 l S
725 216.277 m 750 259.578 l 750 201.844 l S
650 -0.23 m 600 -0.23 l 650 28.637 l S
775 216.277 m 750 259.578 l 750 201.844 l S
625 43.07 m 600 -0.23 l 650 28.637 l S
350 1039 m 300 1039 l 350 1010.133 l S
325 995.699 m 300 1039 l 350 1010.133 l S
575 995.699 m 600 1039 l 550 1010.133 l S
425 822.492 m 450 779.191 l 450 836.926 l S
550 1039 m 600 1039 l 550 1010.133 l S
475 822.492 m 450 779.191 l 450 836.926 l S
725 822.492 m 750 779.191 l 700 808.059 l S
700 779.191 m 750 779.191 l 700 808.059 l S
575 995.699 m 600 1039 l 600 981.266 l S
500 779.191 m 450 779.191 l 500 808.059 l S
625 995.699 m 600 1039 l 600 981.266 l S
475 822.492 m 450 779.191 l 500 808.059 l S
500 779.191 m 450 779.191 l 500 750.324 l S
475 735.891 m 450 779.191 l 500 750.324 l S
725 735.891 m 750 779.191 l 700 750.324 l S
575 562.688 m 600 519.383 l 600 577.121 l S
700 779.191 m 750 779.191 l 700 750.324 l S
625 562.688 m 600 519.383 l 600 577.121 l S
875 562.688 m 900 519.383 l 850 548.254 l S
850 519.383 m 900 519.383 l 850 548.254 l S
725 735.891 m 750 779.191 l 750 721.457 l S
650 519.383 m 600 519.383 l 650 548.254 l S
775 735.891 m 750 779.191 l 750 721.457 l S
625 562.688 m 600 519.383 l 650 548.254 l S
650 519.383 m 600 519.383 l 650 490.516 l S
625 476.082 m 600 519.383 l 650 490.516 l S
875 476.082 m 900 519.383 l 850 490.516 l S
725 302.879 m 750 259.578 l 750 317.312 l S
850 519.383 m 900 519.383 l 850 490.516 l S
775 302.879 m 750 259.578 l 750 317.312 l S
1025 302.879 m 1050 259.578 l 1000 288.445 l S
1000 259.578 m 1050 259.578 l 1000 288.445 l S
875 476.082 m 900 519.383 l 900 461.648 l S
800 259.578 m 750 259.578 l 800 288.445 l S
925 476.082 m 900 519.383 l 900 461.648 l S
775 302.879 m 750 259.578 l 800 288.445 l S
800 259.578 m 750 259.578 l 800 230.711 l S
775 216.277 m 750 259.578 l 800 230.711 l S
1025 216.277 m 1050 259.578 l 1000 230.711 l S
875 43.07 m 900 -0.23 l 900 57.504 l S
1000 259.578 m 1050 259.578 l 1000 230.711 l S
925 43.07 m 900 -0.23 l 900 57.504 l S
1175 43.07 m 1200 -0.23 l 1150 28.637 l S
1150 -0.23 m 1200 -0.23 l 1150 28.637 l S
1025 216.277 m 1050 259.578 l 1050 201.844 l S
950 -0.23 m 900 -0.23 l 950 28.637 l S
1075 216.277 m 1050 259.578 l 1050 201.844 l S
925 43.07 m 900 -0.23 l 950 28.637 l S
650 1039 m 600 1039 l 650 1010.133 l S
625 995.699 m 600 1039 l 650 1010.133 l S
875 995.699 m 900 1039 l 850 1010.133 l S
725 822.492 m 750 779.191 l 750 836.926 l S
850 1039 m 900 1039 l 850 1010.133 l S
775 822.492 m 750 779.191 l 750 836.926 l S
1025 822.492 m 1050 779.191 l 1000 808.059 l S
1000 779.191 m 1050 779.191 l 1000 808.059 l S
875 995.699 m 900 1039 l 900 981.266 l S
800 779.191 m 750 779.191 l 800 808.059 l S
925 995.699 m 900 1039 l 900 981.266 l S
775 822.492 m 750 779.191 l 800 808.059 l S
800 779.191 m 750 779.191 l 800 750.324 l S
775 735.891 m 750 779.191 l 800 750.324 l S
1025 735.891 m 1050 779.191 l 1000 750.324 l S
875 562.688 m 900 519.383 l 900 577.121 l S
1000 779.191 m 1050 779.191 l 1000 750.324 l S
925 562.688 m 900 519.383 l 900 577.121 l S
1175 562.688 m 1200 519.383 l 1150 548.254 l S
1150 519.383 m 1200 519.383 l 1150 548.254 l S
1025 735.891 m 1050 779.191 l 1050 721.457 l S
950 519.383 m 900 519.383 l 950 548.254 l S
1075 735.891 m 1050 779.191 l 1050 721.457 l S
925 562.688 m 900 519.383 l 950 548.254 l S
950 519.383 m 900 519.383 l 950 490.516 l S
925 476.082 m 900 519.383 l 950 490.516 l S
1175 476.082 m 1200 519.383 l 1150 490.516 l S
1025 302.879 m 1050 259.578 l 1050 317.312 l S
1150 519.383 m 1200 519.383 l 1150 490.516 l S
1075 302.879 m 1050 259.578 l 1050 317.312 l S
1175 476.082 m 1200 519.383 l 1200 461.648 l S
1100 259.578 m 1050 259.578 l 1100 288.445 l S
1225 476.082 m 1200 519.383 l 1200 461.648 l S
1075 302.879 m 1050 259.578 l 1100 288.445 l S
1100 259.578 m 1050 259.578 l 1100 230.711 l S
1075 216.277 m 1050 259.578 l 1100 230.711 l S
1175 43.07 m 1200 -0.23 l 1200 57.504 l S
1225 43.07 m 1200 -0.23 l 1200 57.504 l S
1250 -0.23 m 1200 -0.23 l 1250 28.637 l S
1225 43.07 m 1200 -0.23 l 1250 28.637 l S
950 1039 m 900 1039 l 950 1010.133 l S
925 995.699 m 900 1039 l 950 1010.133 l S
1175 995.699 m 1200 1039 l 1150 1010.133 l S
1025 822.492 m 1050 779.191 l 1050 836.926 l S
1150 1039 m 1200 1039 l 1150 1010.133 l S
1075 822.492 m 1050 779.191 l 1050 836.926 l S
1175 995.699 m 1200 1039 l 1200 981.266 l S
1100 779.191 m 1050 779.191 l 1100 808.059 l S
1225 995.699 m 1200 1039 l 1200 981.266 l S
1075 822.492 m 1050 779.191 l 1100 808.059 l S
1100 779.191 m 1050 779.191 l 1100 750.324 l S
1075 735.891 m 1050 779.191 l 1100 750.324 l S
1175 562.688 m 1200 519.383 l 1200 577.121 l S
1225 562.688 m 1200 519.383 l 1200 577.121 l S
1250 519.383 m 1200 519.383 l 1250 548.254 l S
1225 562.688 m 1200 519.383 l 1250 548.254 l S
1250 519.383 m 1200 519.383 l 1250 490.516 l S
1225 476.082 m 1200 519.383 l 1250 490.516 l S
Q Q
showpage
%%Trailer
%%Trailer
cleartomark
countdictstack
exch sub { end } repeat
restore
%%EOF
