%!PS-Adobe-2.0 EPSF-2.0
%%BoundingBox: 0 0 1200 1039
%%HiResBoundingBox: 0.000000 0.000000 1200.000000 1039.000000
%%Creator: cairo 1.14.2 (http://cairographics.org)
%%CreationDate: Mon Sep  7 08:21:42 2015
%%DocumentData: Clean7Bit
%%LanguageLevel: 2
%%DocumentMedia: 423x367mm 1200 1039 0 () ()
%%EndComments
% EPSF created by ps2eps 1.68
%%BeginProlog
save
countdictstack
mark
newpath
/showpage {} def
/setpagedevice {pop} def
%%EndProlog
%%Page 1 1
%%BeginProlog
/languagelevel where
{ pop languagelevel } { 1 } ifelse
2 lt { /Helvetica findfont 12 scalefont setfont 50 500 moveto
  (This print job requires a PostScript Language Level 2 printer.) show
  showpage quit } if
/q { gsave } bind def
/Q { grestore } bind def
/cm { 6 array astore concat } bind def
/w { setlinewidth } bind def
/J { setlinecap } bind def
/j { setlinejoin } bind def
/M { setmiterlimit } bind def
/d { setdash } bind def
/m { moveto } bind def
/l { lineto } bind def
/c { curveto } bind def
/h { closepath } bind def
/re { exch dup neg 3 1 roll 5 3 roll moveto 0 rlineto
      0 exch rlineto 0 rlineto closepath } bind def
/S { stroke } bind def
/f { fill } bind def
/f* { eofill } bind def
/n { newpath } bind def
/W { clip } bind def
/W* { eoclip } bind def
/BT { } bind def
/ET { } bind def
/pdfmark where { pop globaldict /?pdfmark /exec load put }
    { globaldict begin /?pdfmark /pop load def /pdfmark
    /cleartomark load def end } ifelse
/BDC { mark 3 1 roll /BDC pdfmark } bind def
/EMC { mark /EMC pdfmark } bind def
/cairo_store_point { /cairo_point_y exch def /cairo_point_x exch def } def
/Tj { show currentpoint cairo_store_point } bind def
/TJ {
  {
    dup
    type /stringtype eq
    { show } { -0.001 mul 0 cairo_font_matrix dtransform rmoveto } ifelse
  } forall
  currentpoint cairo_store_point
} bind def
/cairo_selectfont { cairo_font_matrix aload pop pop pop 0 0 6 array astore
    cairo_font exch selectfont cairo_point_x cairo_point_y moveto } bind def
/Tf { pop /cairo_font exch def /cairo_font_matrix where
      { pop cairo_selectfont } if } bind def
/Td { matrix translate cairo_font_matrix matrix concatmatrix dup
      /cairo_font_matrix exch def dup 4 get exch 5 get cairo_store_point
      /cairo_font where { pop cairo_selectfont } if } bind def
/Tm { 2 copy 8 2 roll 6 array astore /cairo_font_matrix exch def
      cairo_store_point /cairo_font where { pop cairo_selectfont } if } bind def
/g { setgray } bind def
/rg { setrgbcolor } bind def
/d1 { setcachedevice } bind def
/cairo_set_page_size {
  % Change paper size, but only if different from previous paper size otherwise
  % duplex fails. PLRM specifies a tolerance of 5 pts when matching paper size
  % so we use the same when checking if the size changes.
  /setpagedevice where {
    pop currentpagedevice
    /PageSize known {
      2 copy
      currentpagedevice /PageSize get aload pop
      exch 4 1 roll
      sub abs 5 gt
      3 1 roll
      sub abs 5 gt
      or
    } {
      true
    } ifelse
    {
      2 array astore
      2 dict begin
        /PageSize exch def
        /ImagingBBox null def
      currentdict end
      setpagedevice
    } {
      pop pop
    } ifelse
  } {
    pop
  } ifelse
} def
%%EndProlog
%%BeginSetup
%%EndSetup
%%Page: 1 1
%%BeginPageSetup
%%PageMedia: 423x367mm
%%PageBoundingBox: 0 0 1200 1039
1200 1039 cairo_set_page_size
%%EndPageSetup
q 0 0 1200 1039 rectclip q
0.984314 g
0 0 1200 1039 rectfill
0.788235 g
1.875 w
0 J
1 j
[] 0.0 d
4 M 0 1039 1200 -1039.23 re S
0.85098 g
125 302.879 m 100 288.445 l 25 360.613 l 50 375.047 l h
125 302.879 m f*
0 g
2.5 w
125 302.879 m 100 288.445 l 25 360.613 l 50 375.047 l h
125 302.879 m S
0.85098 g
100 259.578 m 0 288.445 l 0 317.312 l 100 288.445 l h
100 259.578 m f*
0 g
100 259.578 m 0 288.445 l 0 317.312 l 100 288.445 l h
100 259.578 m S
-25 476.082 m 0 461.648 l -25 360.613 l -50 375.047 l h
-25 476.082 m S
-100 259.578 m -100 288.445 l 0 317.312 l 0 288.445 l h
-100 259.578 m S
0.85098 g
25 476.082 m 50 375.047 l 25 360.613 l 0 461.648 l h
25 476.082 m f*
0 g
25 476.082 m 50 375.047 l 25 360.613 l 0 461.648 l h
25 476.082 m S
-100 259.578 m 0 230.711 l 0 201.844 l -100 230.711 l h
-100 259.578 m S
0.85098 g
125 216.277 m 50 144.105 l 25 158.539 l 100 230.711 l h
125 216.277 m f*
0 g
125 216.277 m 50 144.105 l 25 158.539 l 100 230.711 l h
125 216.277 m S
-25 43.07 m -50 144.105 l -25 158.539 l 0 57.504 l h
-25 43.07 m S
0.85098 g
100 259.578 m 100 230.711 l 0 201.844 l 0 230.711 l h
100 259.578 m f*
0 g
100 259.578 m 100 230.711 l 0 201.844 l 0 230.711 l h
100 259.578 m S
0.85098 g
25 43.07 m 0 57.504 l 25 158.539 l 50 144.105 l h
25 43.07 m f*
0 g
25 43.07 m 0 57.504 l 25 158.539 l 50 144.105 l h
25 43.07 m S
0.85098 g
275 43.07 m 250 28.637 l 175 100.805 l 200 115.238 l h
275 43.07 m f*
0 g
275 43.07 m 250 28.637 l 175 100.805 l 200 115.238 l h
275 43.07 m S
0.85098 g
250 -0.23 m 150 28.637 l 150 57.504 l 250 28.637 l h
250 -0.23 m f*
0 g
250 -0.23 m 150 28.637 l 150 57.504 l 250 28.637 l h
250 -0.23 m S
0.85098 g
125 216.277 m 150 201.844 l 125 100.805 l 100 115.238 l h
125 216.277 m f*
0 g
125 216.277 m 150 201.844 l 125 100.805 l 100 115.238 l h
125 216.277 m S
0.85098 g
50 -0.23 m 50 28.637 l 150 57.504 l 150 28.637 l h
50 -0.23 m f*
0 g
50 -0.23 m 50 28.637 l 150 57.504 l 150 28.637 l h
50 -0.23 m S
0.85098 g
175 216.277 m 200 115.238 l 175 100.805 l 150 201.844 l h
175 216.277 m f*
0 g
175 216.277 m 200 115.238 l 175 100.805 l 150 201.844 l h
175 216.277 m S
0.85098 g
25 43.07 m 100 115.238 l 125 100.805 l 50 28.637 l h
25 43.07 m f*
0 g
25 43.07 m 100 115.238 l 125 100.805 l 50 28.637 l h
25 43.07 m S
0.85098 g
125 822.492 m 100 808.059 l 25 880.23 l 50 894.664 l h
125 822.492 m f*
0 g
125 822.492 m 100 808.059 l 25 880.23 l 50 894.664 l h
125 822.492 m S
0.85098 g
100 779.191 m 0 808.059 l 0 836.926 l 100 808.059 l h
100 779.191 m f*
0 g
100 779.191 m 0 808.059 l 0 836.926 l 100 808.059 l h
100 779.191 m S
-25 995.699 m 0 981.266 l -25 880.23 l -50 894.664 l h
-25 995.699 m S
-100 779.191 m -100 808.059 l 0 836.926 l 0 808.059 l h
-100 779.191 m S
0.85098 g
25 995.699 m 50 894.664 l 25 880.23 l 0 981.266 l h
25 995.699 m f*
0 g
25 995.699 m 50 894.664 l 25 880.23 l 0 981.266 l h
25 995.699 m S
-100 779.191 m 0 750.324 l 0 721.457 l -100 750.324 l h
-100 779.191 m S
0.85098 g
125 735.891 m 50 663.723 l 25 678.156 l 100 750.324 l h
125 735.891 m f*
0 g
125 735.891 m 50 663.723 l 25 678.156 l 100 750.324 l h
125 735.891 m S
-25 562.688 m -50 663.723 l -25 678.156 l 0 577.121 l h
-25 562.688 m S
0.85098 g
100 779.191 m 100 750.324 l 0 721.457 l 0 750.324 l h
100 779.191 m f*
0 g
100 779.191 m 100 750.324 l 0 721.457 l 0 750.324 l h
100 779.191 m S
0.85098 g
25 562.688 m 0 577.121 l 25 678.156 l 50 663.723 l h
25 562.688 m f*
0 g
25 562.688 m 0 577.121 l 25 678.156 l 50 663.723 l h
25 562.688 m S
0.85098 g
275 562.688 m 250 548.254 l 175 620.422 l 200 634.855 l h
275 562.688 m f*
0 g
275 562.688 m 250 548.254 l 175 620.422 l 200 634.855 l h
275 562.688 m S
0.85098 g
250 519.383 m 150 548.254 l 150 577.121 l 250 548.254 l h
250 519.383 m f*
0 g
250 519.383 m 150 548.254 l 150 577.121 l 250 548.254 l h
250 519.383 m S
0.85098 g
125 735.891 m 150 721.457 l 125 620.422 l 100 634.855 l h
125 735.891 m f*
0 g
125 735.891 m 150 721.457 l 125 620.422 l 100 634.855 l h
125 735.891 m S
0.85098 g
50 519.383 m 50 548.254 l 150 577.121 l 150 548.254 l h
50 519.383 m f*
0 g
50 519.383 m 50 548.254 l 150 577.121 l 150 548.254 l h
50 519.383 m S
0.85098 g
175 735.891 m 200 634.855 l 175 620.422 l 150 721.457 l h
175 735.891 m f*
0 g
175 735.891 m 200 634.855 l 175 620.422 l 150 721.457 l h
175 735.891 m S
0.85098 g
25 562.688 m 100 634.855 l 125 620.422 l 50 548.254 l h
25 562.688 m f*
0 g
25 562.688 m 100 634.855 l 125 620.422 l 50 548.254 l h
25 562.688 m S
0.85098 g
50 519.383 m 150 490.516 l 150 461.648 l 50 490.516 l h
50 519.383 m f*
0 g
50 519.383 m 150 490.516 l 150 461.648 l 50 490.516 l h
50 519.383 m S
0.85098 g
25 476.082 m 50 490.516 l 125 418.348 l 100 403.914 l h
25 476.082 m f*
0 g
25 476.082 m 50 490.516 l 125 418.348 l 100 403.914 l h
25 476.082 m S
0.85098 g
275 476.082 m 200 403.914 l 175 418.348 l 250 490.516 l h
275 476.082 m f*
0 g
275 476.082 m 200 403.914 l 175 418.348 l 250 490.516 l h
275 476.082 m S
0.85098 g
125 302.879 m 100 403.914 l 125 418.348 l 150 317.312 l h
125 302.879 m f*
0 g
125 302.879 m 100 403.914 l 125 418.348 l 150 317.312 l h
125 302.879 m S
0.85098 g
250 519.383 m 250 490.516 l 150 461.648 l 150 490.516 l h
250 519.383 m f*
0 g
250 519.383 m 250 490.516 l 150 461.648 l 150 490.516 l h
250 519.383 m S
0.85098 g
175 302.879 m 150 317.312 l 175 418.348 l 200 403.914 l h
175 302.879 m f*
0 g
175 302.879 m 150 317.312 l 175 418.348 l 200 403.914 l h
175 302.879 m S
0.85098 g
425 302.879 m 400 288.445 l 325 360.613 l 350 375.047 l h
425 302.879 m f*
0 g
425 302.879 m 400 288.445 l 325 360.613 l 350 375.047 l h
425 302.879 m S
0.85098 g
400 259.578 m 300 288.445 l 300 317.312 l 400 288.445 l h
400 259.578 m f*
0 g
400 259.578 m 300 288.445 l 300 317.312 l 400 288.445 l h
400 259.578 m S
0.85098 g
275 476.082 m 300 461.648 l 275 360.613 l 250 375.047 l h
275 476.082 m f*
0 g
275 476.082 m 300 461.648 l 275 360.613 l 250 375.047 l h
275 476.082 m S
0.85098 g
200 259.578 m 200 288.445 l 300 317.312 l 300 288.445 l h
200 259.578 m f*
0 g
200 259.578 m 200 288.445 l 300 317.312 l 300 288.445 l h
200 259.578 m S
0.85098 g
325 476.082 m 350 375.047 l 325 360.613 l 300 461.648 l h
325 476.082 m f*
0 g
325 476.082 m 350 375.047 l 325 360.613 l 300 461.648 l h
325 476.082 m S
0.85098 g
175 302.879 m 250 375.047 l 275 360.613 l 200 288.445 l h
175 302.879 m f*
0 g
175 302.879 m 250 375.047 l 275 360.613 l 200 288.445 l h
175 302.879 m S
0.85098 g
200 259.578 m 300 230.711 l 300 201.844 l 200 230.711 l h
200 259.578 m f*
0 g
200 259.578 m 300 230.711 l 300 201.844 l 200 230.711 l h
200 259.578 m S
0.85098 g
175 216.277 m 200 230.711 l 275 158.539 l 250 144.105 l h
175 216.277 m f*
0 g
175 216.277 m 200 230.711 l 275 158.539 l 250 144.105 l h
175 216.277 m S
0.85098 g
425 216.277 m 350 144.105 l 325 158.539 l 400 230.711 l h
425 216.277 m f*
0 g
425 216.277 m 350 144.105 l 325 158.539 l 400 230.711 l h
425 216.277 m S
0.85098 g
275 43.07 m 250 144.105 l 275 158.539 l 300 57.504 l h
275 43.07 m f*
0 g
275 43.07 m 250 144.105 l 275 158.539 l 300 57.504 l h
275 43.07 m S
0.85098 g
400 259.578 m 400 230.711 l 300 201.844 l 300 230.711 l h
400 259.578 m f*
0 g
400 259.578 m 400 230.711 l 300 201.844 l 300 230.711 l h
400 259.578 m S
0.85098 g
325 43.07 m 300 57.504 l 325 158.539 l 350 144.105 l h
325 43.07 m f*
0 g
325 43.07 m 300 57.504 l 325 158.539 l 350 144.105 l h
325 43.07 m S
0.85098 g
575 43.07 m 550 28.637 l 475 100.805 l 500 115.238 l h
575 43.07 m f*
0 g
575 43.07 m 550 28.637 l 475 100.805 l 500 115.238 l h
575 43.07 m S
0.85098 g
550 -0.23 m 450 28.637 l 450 57.504 l 550 28.637 l h
550 -0.23 m f*
0 g
550 -0.23 m 450 28.637 l 450 57.504 l 550 28.637 l h
550 -0.23 m S
0.85098 g
425 216.277 m 450 201.844 l 425 100.805 l 400 115.238 l h
425 216.277 m f*
0 g
425 216.277 m 450 201.844 l 425 100.805 l 400 115.238 l h
425 216.277 m S
0.85098 g
350 -0.23 m 350 28.637 l 450 57.504 l 450 28.637 l h
350 -0.23 m f*
0 g
350 -0.23 m 350 28.637 l 450 57.504 l 450 28.637 l h
350 -0.23 m S
0.85098 g
475 216.277 m 500 115.238 l 475 100.805 l 450 201.844 l h
475 216.277 m f*
0 g
475 216.277 m 500 115.238 l 475 100.805 l 450 201.844 l h
475 216.277 m S
0.85098 g
325 43.07 m 400 115.238 l 425 100.805 l 350 28.637 l h
325 43.07 m f*
0 g
325 43.07 m 400 115.238 l 425 100.805 l 350 28.637 l h
325 43.07 m S
0.85098 g
50 1039 m 150 1010.133 l 150 981.266 l 50 1010.133 l h
50 1039 m f*
0 g
50 1039 m 150 1010.133 l 150 981.266 l 50 1010.133 l h
50 1039 m S
0.85098 g
25 995.699 m 50 1010.133 l 125 937.965 l 100 923.531 l h
25 995.699 m f*
0 g
25 995.699 m 50 1010.133 l 125 937.965 l 100 923.531 l h
25 995.699 m S
0.85098 g
275 995.699 m 200 923.531 l 175 937.965 l 250 1010.133 l h
275 995.699 m f*
0 g
275 995.699 m 200 923.531 l 175 937.965 l 250 1010.133 l h
275 995.699 m S
0.85098 g
125 822.492 m 100 923.531 l 125 937.965 l 150 836.926 l h
125 822.492 m f*
0 g
125 822.492 m 100 923.531 l 125 937.965 l 150 836.926 l h
125 822.492 m S
0.85098 g
250 1039 m 250 1010.133 l 150 981.266 l 150 1010.133 l h
250 1039 m f*
0 g
250 1039 m 250 1010.133 l 150 981.266 l 150 1010.133 l h
250 1039 m S
0.85098 g
175 822.492 m 150 836.926 l 175 937.965 l 200 923.531 l h
175 822.492 m f*
0 g
175 822.492 m 150 836.926 l 175 937.965 l 200 923.531 l h
175 822.492 m S
0.85098 g
425 822.492 m 400 808.059 l 325 880.23 l 350 894.664 l h
425 822.492 m f*
0 g
425 822.492 m 400 808.059 l 325 880.23 l 350 894.664 l h
425 822.492 m S
0.85098 g
400 779.191 m 300 808.059 l 300 836.926 l 400 808.059 l h
400 779.191 m f*
0 g
400 779.191 m 300 808.059 l 300 836.926 l 400 808.059 l h
400 779.191 m S
0.85098 g
275 995.699 m 300 981.266 l 275 880.23 l 250 894.664 l h
275 995.699 m f*
0 g
275 995.699 m 300 981.266 l 275 880.23 l 250 894.664 l h
275 995.699 m S
0.85098 g
200 779.191 m 200 808.059 l 300 836.926 l 300 808.059 l h
200 779.191 m f*
0 g
200 779.191 m 200 808.059 l 300 836.926 l 300 808.059 l h
200 779.191 m S
0.85098 g
325 995.699 m 350 894.664 l 325 880.23 l 300 981.266 l h
325 995.699 m f*
0 g
325 995.699 m 350 894.664 l 325 880.23 l 300 981.266 l h
325 995.699 m S
0.85098 g
175 822.492 m 250 894.664 l 275 880.23 l 200 808.059 l h
175 822.492 m f*
0 g
175 822.492 m 250 894.664 l 275 880.23 l 200 808.059 l h
175 822.492 m S
0.85098 g
200 779.191 m 300 750.324 l 300 721.457 l 200 750.324 l h
200 779.191 m f*
0 g
200 779.191 m 300 750.324 l 300 721.457 l 200 750.324 l h
200 779.191 m S
0.85098 g
175 735.891 m 200 750.324 l 275 678.156 l 250 663.723 l h
175 735.891 m f*
0 g
175 735.891 m 200 750.324 l 275 678.156 l 250 663.723 l h
175 735.891 m S
0.85098 g
425 735.891 m 350 663.723 l 325 678.156 l 400 750.324 l h
425 735.891 m f*
0 g
425 735.891 m 350 663.723 l 325 678.156 l 400 750.324 l h
425 735.891 m S
0.85098 g
275 562.688 m 250 663.723 l 275 678.156 l 300 577.121 l h
275 562.688 m f*
0 g
275 562.688 m 250 663.723 l 275 678.156 l 300 577.121 l h
275 562.688 m S
0.85098 g
400 779.191 m 400 750.324 l 300 721.457 l 300 750.324 l h
400 779.191 m f*
0 g
400 779.191 m 400 750.324 l 300 721.457 l 300 750.324 l h
400 779.191 m S
0.85098 g
325 562.688 m 300 577.121 l 325 678.156 l 350 663.723 l h
325 562.688 m f*
0 g
325 562.688 m 300 577.121 l 325 678.156 l 350 663.723 l h
325 562.688 m S
0.85098 g
575 562.688 m 550 548.254 l 475 620.422 l 500 634.855 l h
575 562.688 m f*
0 g
575 562.688 m 550 548.254 l 475 620.422 l 500 634.855 l h
575 562.688 m S
0.85098 g
550 519.383 m 450 548.254 l 450 577.121 l 550 548.254 l h
550 519.383 m f*
0 g
550 519.383 m 450 548.254 l 450 577.121 l 550 548.254 l h
550 519.383 m S
0.85098 g
425 735.891 m 450 721.457 l 425 620.422 l 400 634.855 l h
425 735.891 m f*
0 g
425 735.891 m 450 721.457 l 425 620.422 l 400 634.855 l h
425 735.891 m S
0.85098 g
350 519.383 m 350 548.254 l 450 577.121 l 450 548.254 l h
350 519.383 m f*
0 g
350 519.383 m 350 548.254 l 450 577.121 l 450 548.254 l h
350 519.383 m S
0.85098 g
475 735.891 m 500 634.855 l 475 620.422 l 450 721.457 l h
475 735.891 m f*
0 g
475 735.891 m 500 634.855 l 475 620.422 l 450 721.457 l h
475 735.891 m S
0.85098 g
325 562.688 m 400 634.855 l 425 620.422 l 350 548.254 l h
325 562.688 m f*
0 g
325 562.688 m 400 634.855 l 425 620.422 l 350 548.254 l h
325 562.688 m S
0.85098 g
350 519.383 m 450 490.516 l 450 461.648 l 350 490.516 l h
350 519.383 m f*
0 g
350 519.383 m 450 490.516 l 450 461.648 l 350 490.516 l h
350 519.383 m S
0.85098 g
325 476.082 m 350 490.516 l 425 418.348 l 400 403.914 l h
325 476.082 m f*
0 g
325 476.082 m 350 490.516 l 425 418.348 l 400 403.914 l h
325 476.082 m S
0.85098 g
575 476.082 m 500 403.914 l 475 418.348 l 550 490.516 l h
575 476.082 m f*
0 g
575 476.082 m 500 403.914 l 475 418.348 l 550 490.516 l h
575 476.082 m S
0.85098 g
425 302.879 m 400 403.914 l 425 418.348 l 450 317.312 l h
425 302.879 m f*
0 g
425 302.879 m 400 403.914 l 425 418.348 l 450 317.312 l h
425 302.879 m S
0.85098 g
550 519.383 m 550 490.516 l 450 461.648 l 450 490.516 l h
550 519.383 m f*
0 g
550 519.383 m 550 490.516 l 450 461.648 l 450 490.516 l h
550 519.383 m S
0.85098 g
475 302.879 m 450 317.312 l 475 418.348 l 500 403.914 l h
475 302.879 m f*
0 g
475 302.879 m 450 317.312 l 475 418.348 l 500 403.914 l h
475 302.879 m S
0.85098 g
725 302.879 m 700 288.445 l 625 360.613 l 650 375.047 l h
725 302.879 m f*
0 g
725 302.879 m 700 288.445 l 625 360.613 l 650 375.047 l h
725 302.879 m S
0.85098 g
700 259.578 m 600 288.445 l 600 317.312 l 700 288.445 l h
700 259.578 m f*
0 g
700 259.578 m 600 288.445 l 600 317.312 l 700 288.445 l h
700 259.578 m S
0.85098 g
575 476.082 m 600 461.648 l 575 360.613 l 550 375.047 l h
575 476.082 m f*
0 g
575 476.082 m 600 461.648 l 575 360.613 l 550 375.047 l h
575 476.082 m S
0.85098 g
500 259.578 m 500 288.445 l 600 317.312 l 600 288.445 l h
500 259.578 m f*
0 g
500 259.578 m 500 288.445 l 600 317.312 l 600 288.445 l h
500 259.578 m S
0.85098 g
625 476.082 m 650 375.047 l 625 360.613 l 600 461.648 l h
625 476.082 m f*
0 g
625 476.082 m 650 375.047 l 625 360.613 l 600 461.648 l h
625 476.082 m S
0.85098 g
475 302.879 m 550 375.047 l 575 360.613 l 500 288.445 l h
475 302.879 m f*
0 g
475 302.879 m 550 375.047 l 575 360.613 l 500 288.445 l h
475 302.879 m S
0.85098 g
500 259.578 m 600 230.711 l 600 201.844 l 500 230.711 l h
500 259.578 m f*
0 g
500 259.578 m 600 230.711 l 600 201.844 l 500 230.711 l h
500 259.578 m S
0.85098 g
475 216.277 m 500 230.711 l 575 158.539 l 550 144.105 l h
475 216.277 m f*
0 g
475 216.277 m 500 230.711 l 575 158.539 l 550 144.105 l h
475 216.277 m S
0.85098 g
725 216.277 m 650 144.105 l 625 158.539 l 700 230.711 l h
725 216.277 m f*
0 g
725 216.277 m 650 144.105 l 625 158.539 l 700 230.711 l h
725 216.277 m S
0.85098 g
575 43.07 m 550 144.105 l 575 158.539 l 600 57.504 l h
575 43.07 m f*
0 g
575 43.07 m 550 144.105 l 575 158.539 l 600 57.504 l h
575 43.07 m S
0.85098 g
700 259.578 m 700 230.711 l 600 201.844 l 600 230.711 l h
700 259.578 m f*
0 g
700 259.578 m 700 230.711 l 600 201.844 l 600 230.711 l h
700 259.578 m S
0.85098 g
625 43.07 m 600 57.504 l 625 158.539 l 650 144.105 l h
625 43.07 m f*
0 g
625 43.07 m 600 57.504 l 625 158.539 l 650 144.105 l h
625 43.07 m S
0.85098 g
875 43.07 m 850 28.637 l 775 100.805 l 800 115.238 l h
875 43.07 m f*
0 g
875 43.07 m 850 28.637 l 775 100.805 l 800 115.238 l h
875 43.07 m S
0.85098 g
850 -0.23 m 750 28.637 l 750 57.504 l 850 28.637 l h
850 -0.23 m f*
0 g
850 -0.23 m 750 28.637 l 750 57.504 l 850 28.637 l h
850 -0.23 m S
0.85098 g
725 216.277 m 750 201.844 l 725 100.805 l 700 115.238 l h
725 216.277 m f*
0 g
725 216.277 m 750 201.844 l 725 100.805 l 700 115.238 l h
725 216.277 m S
0.85098 g
650 -0.23 m 650 28.637 l 750 57.504 l 750 28.637 l h
650 -0.23 m f*
0 g
650 -0.23 m 650 28.637 l 750 57.504 l 750 28.637 l h
650 -0.23 m S
0.85098 g
775 216.277 m 800 115.238 l 775 100.805 l 750 201.844 l h
775 216.277 m f*
0 g
775 216.277 m 800 115.238 l 775 100.805 l 750 201.844 l h
775 216.277 m S
0.85098 g
625 43.07 m 700 115.238 l 725 100.805 l 650 28.637 l h
625 43.07 m f*
0 g
625 43.07 m 700 115.238 l 725 100.805 l 650 28.637 l h
625 43.07 m S
0.85098 g
350 1039 m 450 1010.133 l 450 981.266 l 350 1010.133 l h
350 1039 m f*
0 g
350 1039 m 450 1010.133 l 450 981.266 l 350 1010.133 l h
350 1039 m S
0.85098 g
325 995.699 m 350 1010.133 l 425 937.965 l 400 923.531 l h
325 995.699 m f*
0 g
325 995.699 m 350 1010.133 l 425 937.965 l 400 923.531 l h
325 995.699 m S
0.85098 g
575 995.699 m 500 923.531 l 475 937.965 l 550 1010.133 l h
575 995.699 m f*
0 g
575 995.699 m 500 923.531 l 475 937.965 l 550 1010.133 l h
575 995.699 m S
0.85098 g
425 822.492 m 400 923.531 l 425 937.965 l 450 836.926 l h
425 822.492 m f*
0 g
425 822.492 m 400 923.531 l 425 937.965 l 450 836.926 l h
425 822.492 m S
0.85098 g
550 1039 m 550 1010.133 l 450 981.266 l 450 1010.133 l h
550 1039 m f*
0 g
550 1039 m 550 1010.133 l 450 981.266 l 450 1010.133 l h
550 1039 m S
0.85098 g
475 822.492 m 450 836.926 l 475 937.965 l 500 923.531 l h
475 822.492 m f*
0 g
475 822.492 m 450 836.926 l 475 937.965 l 500 923.531 l h
475 822.492 m S
0.85098 g
725 822.492 m 700 808.059 l 625 880.23 l 650 894.664 l h
725 822.492 m f*
0 g
725 822.492 m 700 808.059 l 625 880.23 l 650 894.664 l h
725 822.492 m S
0.85098 g
700 779.191 m 600 808.059 l 600 836.926 l 700 808.059 l h
700 779.191 m f*
0 g
700 779.191 m 600 808.059 l 600 836.926 l 700 808.059 l h
700 779.191 m S
0.85098 g
575 995.699 m 600 981.266 l 575 880.23 l 550 894.664 l h
575 995.699 m f*
0 g
575 995.699 m 600 981.266 l 575 880.23 l 550 894.664 l h
575 995.699 m S
0.85098 g
500 779.191 m 500 808.059 l 600 836.926 l 600 808.059 l h
500 779.191 m f*
0 g
500 779.191 m 500 808.059 l 600 836.926 l 600 808.059 l h
500 779.191 m S
0.85098 g
625 995.699 m 650 894.664 l 625 880.23 l 600 981.266 l h
625 995.699 m f*
0 g
625 995.699 m 650 894.664 l 625 880.23 l 600 981.266 l h
625 995.699 m S
0.85098 g
475 822.492 m 550 894.664 l 575 880.23 l 500 808.059 l h
475 822.492 m f*
0 g
475 822.492 m 550 894.664 l 575 880.23 l 500 808.059 l h
475 822.492 m S
0.85098 g
500 779.191 m 600 750.324 l 600 721.457 l 500 750.324 l h
500 779.191 m f*
0 g
500 779.191 m 600 750.324 l 600 721.457 l 500 750.324 l h
500 779.191 m S
0.85098 g
475 735.891 m 500 750.324 l 575 678.156 l 550 663.723 l h
475 735.891 m f*
0 g
475 735.891 m 500 750.324 l 575 678.156 l 550 663.723 l h
475 735.891 m S
0.85098 g
725 735.891 m 650 663.723 l 625 678.156 l 700 750.324 l h
725 735.891 m f*
0 g
725 735.891 m 650 663.723 l 625 678.156 l 700 750.324 l h
725 735.891 m S
0.85098 g
575 562.688 m 550 663.723 l 575 678.156 l 600 577.121 l h
575 562.688 m f*
0 g
575 562.688 m 550 663.723 l 575 678.156 l 600 577.121 l h
575 562.688 m S
0.85098 g
700 779.191 m 700 750.324 l 600 721.457 l 600 750.324 l h
700 779.191 m f*
0 g
700 779.191 m 700 750.324 l 600 721.457 l 600 750.324 l h
700 779.191 m S
0.85098 g
625 562.688 m 600 577.121 l 625 678.156 l 650 663.723 l h
625 562.688 m f*
0 g
625 562.688 m 600 577.121 l 625 678.156 l 650 663.723 l h
625 562.688 m S
0.85098 g
875 562.688 m 850 548.254 l 775 620.422 l 800 634.855 l h
875 562.688 m f*
0 g
875 562.688 m 850 548.254 l 775 620.422 l 800 634.855 l h
875 562.688 m S
0.85098 g
850 519.383 m 750 548.254 l 750 577.121 l 850 548.254 l h
850 519.383 m f*
0 g
850 519.383 m 750 548.254 l 750 577.121 l 850 548.254 l h
850 519.383 m S
0.85098 g
725 735.891 m 750 721.457 l 725 620.422 l 700 634.855 l h
725 735.891 m f*
0 g
725 735.891 m 750 721.457 l 725 620.422 l 700 634.855 l h
725 735.891 m S
0.85098 g
650 519.383 m 650 548.254 l 750 577.121 l 750 548.254 l h
650 519.383 m f*
0 g
650 519.383 m 650 548.254 l 750 577.121 l 750 548.254 l h
650 519.383 m S
0.85098 g
775 735.891 m 800 634.855 l 775 620.422 l 750 721.457 l h
775 735.891 m f*
0 g
775 735.891 m 800 634.855 l 775 620.422 l 750 721.457 l h
775 735.891 m S
0.85098 g
625 562.688 m 700 634.855 l 725 620.422 l 650 548.254 l h
625 562.688 m f*
0 g
625 562.688 m 700 634.855 l 725 620.422 l 650 548.254 l h
625 562.688 m S
0.85098 g
650 519.383 m 750 490.516 l 750 461.648 l 650 490.516 l h
650 519.383 m f*
0 g
650 519.383 m 750 490.516 l 750 461.648 l 650 490.516 l h
650 519.383 m S
0.85098 g
625 476.082 m 650 490.516 l 725 418.348 l 700 403.914 l h
625 476.082 m f*
0 g
625 476.082 m 650 490.516 l 725 418.348 l 700 403.914 l h
625 476.082 m S
0.85098 g
875 476.082 m 800 403.914 l 775 418.348 l 850 490.516 l h
875 476.082 m f*
0 g
875 476.082 m 800 403.914 l 775 418.348 l 850 490.516 l h
875 476.082 m S
0.85098 g
725 302.879 m 700 403.914 l 725 418.348 l 750 317.312 l h
725 302.879 m f*
0 g
725 302.879 m 700 403.914 l 725 418.348 l 750 317.312 l h
725 302.879 m S
0.85098 g
850 519.383 m 850 490.516 l 750 461.648 l 750 490.516 l h
850 519.383 m f*
0 g
850 519.383 m 850 490.516 l 750 461.648 l 750 490.516 l h
850 519.383 m S
0.85098 g
775 302.879 m 750 317.312 l 775 418.348 l 800 403.914 l h
775 302.879 m f*
0 g
775 302.879 m 750 317.312 l 775 418.348 l 800 403.914 l h
775 302.879 m S
0.85098 g
1025 302.879 m 1000 288.445 l 925 360.613 l 950 375.047 l h
1025 302.879 m f*
0 g
1025 302.879 m 1000 288.445 l 925 360.613 l 950 375.047 l h
1025 302.879 m S
0.85098 g
1000 259.578 m 900 288.445 l 900 317.312 l 1000 288.445 l h
1000 259.578 m f*
0 g
1000 259.578 m 900 288.445 l 900 317.312 l 1000 288.445 l h
1000 259.578 m S
0.85098 g
875 476.082 m 900 461.648 l 875 360.613 l 850 375.047 l h
875 476.082 m f*
0 g
875 476.082 m 900 461.648 l 875 360.613 l 850 375.047 l h
875 476.082 m S
0.85098 g
800 259.578 m 800 288.445 l 900 317.312 l 900 288.445 l h
800 259.578 m f*
0 g
800 259.578 m 800 288.445 l 900 317.312 l 900 288.445 l h
800 259.578 m S
0.85098 g
925 476.082 m 950 375.047 l 925 360.613 l 900 461.648 l h
925 476.082 m f*
0 g
925 476.082 m 950 375.047 l 925 360.613 l 900 461.648 l h
925 476.082 m S
0.85098 g
775 302.879 m 850 375.047 l 875 360.613 l 800 288.445 l h
775 302.879 m f*
0 g
775 302.879 m 850 375.047 l 875 360.613 l 800 288.445 l h
775 302.879 m S
0.85098 g
800 259.578 m 900 230.711 l 900 201.844 l 800 230.711 l h
800 259.578 m f*
0 g
800 259.578 m 900 230.711 l 900 201.844 l 800 230.711 l h
800 259.578 m S
0.85098 g
775 216.277 m 800 230.711 l 875 158.539 l 850 144.105 l h
775 216.277 m f*
0 g
775 216.277 m 800 230.711 l 875 158.539 l 850 144.105 l h
775 216.277 m S
0.85098 g
1025 216.277 m 950 144.105 l 925 158.539 l 1000 230.711 l h
1025 216.277 m f*
0 g
1025 216.277 m 950 144.105 l 925 158.539 l 1000 230.711 l h
1025 216.277 m S
0.85098 g
875 43.07 m 850 144.105 l 875 158.539 l 900 57.504 l h
875 43.07 m f*
0 g
875 43.07 m 850 144.105 l 875 158.539 l 900 57.504 l h
875 43.07 m S
0.85098 g
1000 259.578 m 1000 230.711 l 900 201.844 l 900 230.711 l h
1000 259.578 m f*
0 g
1000 259.578 m 1000 230.711 l 900 201.844 l 900 230.711 l h
1000 259.578 m S
0.85098 g
925 43.07 m 900 57.504 l 925 158.539 l 950 144.105 l h
925 43.07 m f*
0 g
925 43.07 m 900 57.504 l 925 158.539 l 950 144.105 l h
925 43.07 m S
0.85098 g
1175 43.07 m 1150 28.637 l 1075 100.805 l 1100 115.238 l h
1175 43.07 m f*
0 g
1175 43.07 m 1150 28.637 l 1075 100.805 l 1100 115.238 l h
1175 43.07 m S
0.85098 g
1150 -0.23 m 1050 28.637 l 1050 57.504 l 1150 28.637 l h
1150 -0.23 m f*
0 g
1150 -0.23 m 1050 28.637 l 1050 57.504 l 1150 28.637 l h
1150 -0.23 m S
0.85098 g
1025 216.277 m 1050 201.844 l 1025 100.805 l 1000 115.238 l h
1025 216.277 m f*
0 g
1025 216.277 m 1050 201.844 l 1025 100.805 l 1000 115.238 l h
1025 216.277 m S
0.85098 g
950 -0.23 m 950 28.637 l 1050 57.504 l 1050 28.637 l h
950 -0.23 m f*
0 g
950 -0.23 m 950 28.637 l 1050 57.504 l 1050 28.637 l h
950 -0.23 m S
0.85098 g
1075 216.277 m 1100 115.238 l 1075 100.805 l 1050 201.844 l h
1075 216.277 m f*
0 g
1075 216.277 m 1100 115.238 l 1075 100.805 l 1050 201.844 l h
1075 216.277 m S
0.85098 g
925 43.07 m 1000 115.238 l 1025 100.805 l 950 28.637 l h
925 43.07 m f*
0 g
925 43.07 m 1000 115.238 l 1025 100.805 l 950 28.637 l h
925 43.07 m S
0.85098 g
650 1039 m 750 1010.133 l 750 981.266 l 650 1010.133 l h
650 1039 m f*
0 g
650 1039 m 750 1010.133 l 750 981.266 l 650 1010.133 l h
650 1039 m S
0.85098 g
625 995.699 m 650 1010.133 l 725 937.965 l 700 923.531 l h
625 995.699 m f*
0 g
625 995.699 m 650 1010.133 l 725 937.965 l 700 923.531 l h
625 995.699 m S
0.85098 g
875 995.699 m 800 923.531 l 775 937.965 l 850 1010.133 l h
875 995.699 m f*
0 g
875 995.699 m 800 923.531 l 775 937.965 l 850 1010.133 l h
875 995.699 m S
0.85098 g
725 822.492 m 700 923.531 l 725 937.965 l 750 836.926 l h
725 822.492 m f*
0 g
725 822.492 m 700 923.531 l 725 937.965 l 750 836.926 l h
725 822.492 m S
0.85098 g
850 1039 m 850 1010.133 l 750 981.266 l 750 1010.133 l h
850 1039 m f*
0 g
850 1039 m 850 1010.133 l 750 981.266 l 750 1010.133 l h
850 1039 m S
0.85098 g
775 822.492 m 750 836.926 l 775 937.965 l 800 923.531 l h
775 822.492 m f*
0 g
775 822.492 m 750 836.926 l 775 937.965 l 800 923.531 l h
775 822.492 m S
0.85098 g
1025 822.492 m 1000 808.059 l 925 880.23 l 950 894.664 l h
1025 822.492 m f*
0 g
1025 822.492 m 1000 808.059 l 925 880.23 l 950 894.664 l h
1025 822.492 m S
0.85098 g
1000 779.191 m 900 808.059 l 900 836.926 l 1000 808.059 l h
1000 779.191 m f*
0 g
1000 779.191 m 900 808.059 l 900 836.926 l 1000 808.059 l h
1000 779.191 m S
0.85098 g
875 995.699 m 900 981.266 l 875 880.23 l 850 894.664 l h
875 995.699 m f*
0 g
875 995.699 m 900 981.266 l 875 880.23 l 850 894.664 l h
875 995.699 m S
0.85098 g
800 779.191 m 800 808.059 l 900 836.926 l 900 808.059 l h
800 779.191 m f*
0 g
800 779.191 m 800 808.059 l 900 836.926 l 900 808.059 l h
800 779.191 m S
0.85098 g
925 995.699 m 950 894.664 l 925 880.23 l 900 981.266 l h
925 995.699 m f*
0 g
925 995.699 m 950 894.664 l 925 880.23 l 900 981.266 l h
925 995.699 m S
0.85098 g
775 822.492 m 850 894.664 l 875 880.23 l 800 808.059 l h
775 822.492 m f*
0 g
775 822.492 m 850 894.664 l 875 880.23 l 800 808.059 l h
775 822.492 m S
0.85098 g
800 779.191 m 900 750.324 l 900 721.457 l 800 750.324 l h
800 779.191 m f*
0 g
800 779.191 m 900 750.324 l 900 721.457 l 800 750.324 l h
800 779.191 m S
0.85098 g
775 735.891 m 800 750.324 l 875 678.156 l 850 663.723 l h
775 735.891 m f*
0 g
775 735.891 m 800 750.324 l 875 678.156 l 850 663.723 l h
775 735.891 m S
0.85098 g
1025 735.891 m 950 663.723 l 925 678.156 l 1000 750.324 l h
1025 735.891 m f*
0 g
1025 735.891 m 950 663.723 l 925 678.156 l 1000 750.324 l h
1025 735.891 m S
0.85098 g
875 562.688 m 850 663.723 l 875 678.156 l 900 577.121 l h
875 562.688 m f*
0 g
875 562.688 m 850 663.723 l 875 678.156 l 900 577.121 l h
875 562.688 m S
0.85098 g
1000 779.191 m 1000 750.324 l 900 721.457 l 900 750.324 l h
1000 779.191 m f*
0 g
1000 779.191 m 1000 750.324 l 900 721.457 l 900 750.324 l h
1000 779.191 m S
0.85098 g
925 562.688 m 900 577.121 l 925 678.156 l 950 663.723 l h
925 562.688 m f*
0 g
925 562.688 m 900 577.121 l 925 678.156 l 950 663.723 l h
925 562.688 m S
0.85098 g
1175 562.688 m 1150 548.254 l 1075 620.422 l 1100 634.855 l h
1175 562.688 m f*
0 g
1175 562.688 m 1150 548.254 l 1075 620.422 l 1100 634.855 l h
1175 562.688 m S
0.85098 g
1150 519.383 m 1050 548.254 l 1050 577.121 l 1150 548.254 l h
1150 519.383 m f*
0 g
1150 519.383 m 1050 548.254 l 1050 577.121 l 1150 548.254 l h
1150 519.383 m S
0.85098 g
1025 735.891 m 1050 721.457 l 1025 620.422 l 1000 634.855 l h
1025 735.891 m f*
0 g
1025 735.891 m 1050 721.457 l 1025 620.422 l 1000 634.855 l h
1025 735.891 m S
0.85098 g
950 519.383 m 950 548.254 l 1050 577.121 l 1050 548.254 l h
950 519.383 m f*
0 g
950 519.383 m 950 548.254 l 1050 577.121 l 1050 548.254 l h
950 519.383 m S
0.85098 g
1075 735.891 m 1100 634.855 l 1075 620.422 l 1050 721.457 l h
1075 735.891 m f*
0 g
1075 735.891 m 1100 634.855 l 1075 620.422 l 1050 721.457 l h
1075 735.891 m S
0.85098 g
925 562.688 m 1000 634.855 l 1025 620.422 l 950 548.254 l h
925 562.688 m f*
0 g
925 562.688 m 1000 634.855 l 1025 620.422 l 950 548.254 l h
925 562.688 m S
0.85098 g
950 519.383 m 1050 490.516 l 1050 461.648 l 950 490.516 l h
950 519.383 m f*
0 g
950 519.383 m 1050 490.516 l 1050 461.648 l 950 490.516 l h
950 519.383 m S
0.85098 g
925 476.082 m 950 490.516 l 1025 418.348 l 1000 403.914 l h
925 476.082 m f*
0 g
925 476.082 m 950 490.516 l 1025 418.348 l 1000 403.914 l h
925 476.082 m S
0.85098 g
1175 476.082 m 1100 403.914 l 1075 418.348 l 1150 490.516 l h
1175 476.082 m f*
0 g
1175 476.082 m 1100 403.914 l 1075 418.348 l 1150 490.516 l h
1175 476.082 m S
0.85098 g
1025 302.879 m 1000 403.914 l 1025 418.348 l 1050 317.312 l h
1025 302.879 m f*
0 g
1025 302.879 m 1000 403.914 l 1025 418.348 l 1050 317.312 l h
1025 302.879 m S
0.85098 g
1150 519.383 m 1150 490.516 l 1050 461.648 l 1050 490.516 l h
1150 519.383 m f*
0 g
1150 519.383 m 1150 490.516 l 1050 461.648 l 1050 490.516 l h
1150 519.383 m S
0.85098 g
1075 302.879 m 1050 317.312 l 1075 418.348 l 1100 403.914 l h
1075 302.879 m f*
0 g
1075 302.879 m 1050 317.312 l 1075 418.348 l 1100 403.914 l h
1075 302.879 m S
1300 259.578 m 1200 288.445 l 1200 317.312 l 1300 288.445 l h
1300 259.578 m S
0.85098 g
1175 476.082 m 1200 461.648 l 1175 360.613 l 1150 375.047 l h
1175 476.082 m f*
0 g
1175 476.082 m 1200 461.648 l 1175 360.613 l 1150 375.047 l h
1175 476.082 m S
0.85098 g
1100 259.578 m 1100 288.445 l 1200 317.312 l 1200 288.445 l h
1100 259.578 m f*
0 g
1100 259.578 m 1100 288.445 l 1200 317.312 l 1200 288.445 l h
1100 259.578 m S
1225 476.082 m 1250 375.047 l 1225 360.613 l 1200 461.648 l h
1225 476.082 m S
0.85098 g
1075 302.879 m 1150 375.047 l 1175 360.613 l 1100 288.445 l h
1075 302.879 m f*
0 g
1075 302.879 m 1150 375.047 l 1175 360.613 l 1100 288.445 l h
1075 302.879 m S
0.85098 g
1100 259.578 m 1200 230.711 l 1200 201.844 l 1100 230.711 l h
1100 259.578 m f*
0 g
1100 259.578 m 1200 230.711 l 1200 201.844 l 1100 230.711 l h
1100 259.578 m S
0.85098 g
1075 216.277 m 1100 230.711 l 1175 158.539 l 1150 144.105 l h
1075 216.277 m f*
0 g
1075 216.277 m 1100 230.711 l 1175 158.539 l 1150 144.105 l h
1075 216.277 m S
0.85098 g
1175 43.07 m 1150 144.105 l 1175 158.539 l 1200 57.504 l h
1175 43.07 m f*
0 g
1175 43.07 m 1150 144.105 l 1175 158.539 l 1200 57.504 l h
1175 43.07 m S
1300 259.578 m 1300 230.711 l 1200 201.844 l 1200 230.711 l h
1300 259.578 m S
1225 43.07 m 1200 57.504 l 1225 158.539 l 1250 144.105 l h
1225 43.07 m S
0.85098 g
950 1039 m 1050 1010.133 l 1050 981.266 l 950 1010.133 l h
950 1039 m f*
0 g
950 1039 m 1050 1010.133 l 1050 981.266 l 950 1010.133 l h
950 1039 m S
0.85098 g
925 995.699 m 950 1010.133 l 1025 937.965 l 1000 923.531 l h
925 995.699 m f*
0 g
925 995.699 m 950 1010.133 l 1025 937.965 l 1000 923.531 l h
925 995.699 m S
0.85098 g
1175 995.699 m 1100 923.531 l 1075 937.965 l 1150 1010.133 l h
1175 995.699 m f*
0 g
1175 995.699 m 1100 923.531 l 1075 937.965 l 1150 1010.133 l h
1175 995.699 m S
0.85098 g
1025 822.492 m 1000 923.531 l 1025 937.965 l 1050 836.926 l h
1025 822.492 m f*
0 g
1025 822.492 m 1000 923.531 l 1025 937.965 l 1050 836.926 l h
1025 822.492 m S
0.85098 g
1150 1039 m 1150 1010.133 l 1050 981.266 l 1050 1010.133 l h
1150 1039 m f*
0 g
1150 1039 m 1150 1010.133 l 1050 981.266 l 1050 1010.133 l h
1150 1039 m S
0.85098 g
1075 822.492 m 1050 836.926 l 1075 937.965 l 1100 923.531 l h
1075 822.492 m f*
0 g
1075 822.492 m 1050 836.926 l 1075 937.965 l 1100 923.531 l h
1075 822.492 m S
1300 779.191 m 1200 808.059 l 1200 836.926 l 1300 808.059 l h
1300 779.191 m S
0.85098 g
1175 995.699 m 1200 981.266 l 1175 880.23 l 1150 894.664 l h
1175 995.699 m f*
0 g
1175 995.699 m 1200 981.266 l 1175 880.23 l 1150 894.664 l h
1175 995.699 m S
0.85098 g
1100 779.191 m 1100 808.059 l 1200 836.926 l 1200 808.059 l h
1100 779.191 m f*
0 g
1100 779.191 m 1100 808.059 l 1200 836.926 l 1200 808.059 l h
1100 779.191 m S
1225 995.699 m 1250 894.664 l 1225 880.23 l 1200 981.266 l h
1225 995.699 m S
0.85098 g
1075 822.492 m 1150 894.664 l 1175 880.23 l 1100 808.059 l h
1075 822.492 m f*
0 g
1075 822.492 m 1150 894.664 l 1175 880.23 l 1100 808.059 l h
1075 822.492 m S
0.85098 g
1100 779.191 m 1200 750.324 l 1200 721.457 l 1100 750.324 l h
1100 779.191 m f*
0 g
1100 779.191 m 1200 750.324 l 1200 721.457 l 1100 750.324 l h
1100 779.191 m S
0.85098 g
1075 735.891 m 1100 750.324 l 1175 678.156 l 1150 663.723 l h
1075 735.891 m f*
0 g
1075 735.891 m 1100 750.324 l 1175 678.156 l 1150 663.723 l h
1075 735.891 m S
0.85098 g
1175 562.688 m 1150 663.723 l 1175 678.156 l 1200 577.121 l h
1175 562.688 m f*
0 g
1175 562.688 m 1150 663.723 l 1175 678.156 l 1200 577.121 l h
1175 562.688 m S
1300 779.191 m 1300 750.324 l 1200 721.457 l 1200 750.324 l h
1300 779.191 m S
1225 562.688 m 1200 577.121 l 1225 678.156 l 1250 663.723 l h
1225 562.688 m S
Q Q
showpage
%%Trailer
%%Trailer
cleartomark
countdictstack
exch sub { end } repeat
restore
%%EOF
