%!PS-Adobe-2.0 EPSF-2.0
%%BoundingBox: 0 0 2400 1200
%%HiResBoundingBox: 0.000000 0.000000 2400.000000 1200.000000
%%Creator: cairo 1.14.2 (http://cairographics.org)
%%CreationDate: Mon Sep  7 08:21:42 2015
%%DocumentData: Clean7Bit
%%LanguageLevel: 2
%%DocumentMedia: 847x423mm 2400 1200 0 () ()
%%EndComments
% EPSF created by ps2eps 1.68
%%BeginProlog
save
countdictstack
mark
newpath
/showpage {} def
/setpagedevice {pop} def
%%EndProlog
%%Page 1 1
%%BeginProlog
/languagelevel where
{ pop languagelevel } { 1 } ifelse
2 lt { /Helvetica findfont 12 scalefont setfont 50 500 moveto
  (This print job requires a PostScript Language Level 2 printer.) show
  showpage quit } if
/q { gsave } bind def
/Q { grestore } bind def
/cm { 6 array astore concat } bind def
/w { setlinewidth } bind def
/J { setlinecap } bind def
/j { setlinejoin } bind def
/M { setmiterlimit } bind def
/d { setdash } bind def
/m { moveto } bind def
/l { lineto } bind def
/c { curveto } bind def
/h { closepath } bind def
/re { exch dup neg 3 1 roll 5 3 roll moveto 0 rlineto
      0 exch rlineto 0 rlineto closepath } bind def
/S { stroke } bind def
/f { fill } bind def
/f* { eofill } bind def
/n { newpath } bind def
/W { clip } bind def
/W* { eoclip } bind def
/BT { } bind def
/ET { } bind def
/pdfmark where { pop globaldict /?pdfmark /exec load put }
    { globaldict begin /?pdfmark /pop load def /pdfmark
    /cleartomark load def end } ifelse
/BDC { mark 3 1 roll /BDC pdfmark } bind def
/EMC { mark /EMC pdfmark } bind def
/cairo_store_point { /cairo_point_y exch def /cairo_point_x exch def } def
/Tj { show currentpoint cairo_store_point } bind def
/TJ {
  {
    dup
    type /stringtype eq
    { show } { -0.001 mul 0 cairo_font_matrix dtransform rmoveto } ifelse
  } forall
  currentpoint cairo_store_point
} bind def
/cairo_selectfont { cairo_font_matrix aload pop pop pop 0 0 6 array astore
    cairo_font exch selectfont cairo_point_x cairo_point_y moveto } bind def
/Tf { pop /cairo_font exch def /cairo_font_matrix where
      { pop cairo_selectfont } if } bind def
/Td { matrix translate cairo_font_matrix matrix concatmatrix dup
      /cairo_font_matrix exch def dup 4 get exch 5 get cairo_store_point
      /cairo_font where { pop cairo_selectfont } if } bind def
/Tm { 2 copy 8 2 roll 6 array astore /cairo_font_matrix exch def
      cairo_store_point /cairo_font where { pop cairo_selectfont } if } bind def
/g { setgray } bind def
/rg { setrgbcolor } bind def
/d1 { setcachedevice } bind def
/cairo_set_page_size {
  % Change paper size, but only if different from previous paper size otherwise
  % duplex fails. PLRM specifies a tolerance of 5 pts when matching paper size
  % so we use the same when checking if the size changes.
  /setpagedevice where {
    pop currentpagedevice
    /PageSize known {
      2 copy
      currentpagedevice /PageSize get aload pop
      exch 4 1 roll
      sub abs 5 gt
      3 1 roll
      sub abs 5 gt
      or
    } {
      true
    } ifelse
    {
      2 array astore
      2 dict begin
        /PageSize exch def
        /ImagingBBox null def
      currentdict end
      setpagedevice
    } {
      pop pop
    } ifelse
  } {
    pop
  } ifelse
} def
%%EndProlog
%%BeginSetup
%%EndSetup
%%Page: 1 1
%%BeginPageSetup
%%PageMedia: 847x423mm
%%PageBoundingBox: 0 0 2400 1200
2400 1200 cairo_set_page_size
%%EndPageSetup
q 0 0 2400 1200 rectclip q
0.984314 g
0 0 2400 1200 rectfill
0.788235 g
1.875 w
0 J
1 j
[] 0.0 d
4 M 0 1200 2400 -1200 re S
0 g
2.5 w
1 J
0 1050 m 66.668 1150 133.332 1175 200 1125 c S
0 1050 m 66.668 950 133.332 925 200 975 c S
400 900 m 333.332 1000 266.668 1025 200 975 c S
400 1200 m 333.332 1100 266.668 1075 200 1125 c S
0 750 m 66.668 850 133.332 875 200 825 c S
0 750 m 66.668 650 133.332 625 200 675 c S
400 600 m 333.332 700 266.668 725 200 675 c S
400 900 m 333.332 800 266.668 775 200 825 c S
0 450 m 66.668 550 133.332 575 200 525 c S
0 450 m 66.668 350 133.332 325 200 375 c S
400 300 m 333.332 400 266.668 425 200 375 c S
400 600 m 333.332 500 266.668 475 200 525 c S
0 150 m 66.668 250 133.332 275 200 225 c S
0 150 m 66.668 50 133.332 25 200 75 c S
400 0 m 333.332 100 266.668 125 200 75 c S
400 300 m 333.332 200 266.668 175 200 225 c S
400 1050 m 466.668 1150 533.332 1175 600 1125 c S
400 1050 m 466.668 950 533.332 925 600 975 c S
800 900 m 733.332 1000 666.668 1025 600 975 c S
800 1200 m 733.332 1100 666.668 1075 600 1125 c S
400 750 m 466.668 850 533.332 875 600 825 c S
400 750 m 466.668 650 533.332 625 600 675 c S
800 600 m 733.332 700 666.668 725 600 675 c S
800 900 m 733.332 800 666.668 775 600 825 c S
400 450 m 466.668 550 533.332 575 600 525 c S
400 450 m 466.668 350 533.332 325 600 375 c S
800 300 m 733.332 400 666.668 425 600 375 c S
800 600 m 733.332 500 666.668 475 600 525 c S
400 150 m 466.668 250 533.332 275 600 225 c S
400 150 m 466.668 50 533.332 25 600 75 c S
800 0 m 733.332 100 666.668 125 600 75 c S
800 300 m 733.332 200 666.668 175 600 225 c S
800 1050 m 866.668 1150 933.332 1175 1000 1125 c S
800 1050 m 866.668 950 933.332 925 1000 975 c S
1200 900 m 1133.332 1000 1066.668 1025 1000 975 c S
1200 1200 m 1133.332 1100 1066.668 1075 1000 1125 c S
800 750 m 866.668 850 933.332 875 1000 825 c S
800 750 m 866.668 650 933.332 625 1000 675 c S
1200 600 m 1133.332 700 1066.668 725 1000 675 c S
1200 900 m 1133.332 800 1066.668 775 1000 825 c S
800 450 m 866.668 550 933.332 575 1000 525 c S
800 450 m 866.668 350 933.332 325 1000 375 c S
1200 300 m 1133.332 400 1066.668 425 1000 375 c S
1200 600 m 1133.332 500 1066.668 475 1000 525 c S
800 150 m 866.668 250 933.332 275 1000 225 c S
800 150 m 866.668 50 933.332 25 1000 75 c S
1200 0 m 1133.332 100 1066.668 125 1000 75 c S
1200 300 m 1133.332 200 1066.668 175 1000 225 c S
1200 1050 m 1266.668 1150 1333.332 1175 1400 1125 c S
1200 1050 m 1266.668 950 1333.332 925 1400 975 c S
1600 900 m 1533.332 1000 1466.668 1025 1400 975 c S
1600 1200 m 1533.332 1100 1466.668 1075 1400 1125 c S
1200 750 m 1266.668 850 1333.332 875 1400 825 c S
1200 750 m 1266.668 650 1333.332 625 1400 675 c S
1600 600 m 1533.332 700 1466.668 725 1400 675 c S
1600 900 m 1533.332 800 1466.668 775 1400 825 c S
1200 450 m 1266.668 550 1333.332 575 1400 525 c S
1200 450 m 1266.668 350 1333.332 325 1400 375 c S
1600 300 m 1533.332 400 1466.668 425 1400 375 c S
1600 600 m 1533.332 500 1466.668 475 1400 525 c S
1200 150 m 1266.668 250 1333.332 275 1400 225 c S
1200 150 m 1266.668 50 1333.332 25 1400 75 c S
1600 0 m 1533.332 100 1466.668 125 1400 75 c S
1600 300 m 1533.332 200 1466.668 175 1400 225 c S
1600 1050 m 1666.668 1150 1733.332 1175 1800 1125 c S
1600 1050 m 1666.668 950 1733.332 925 1800 975 c S
2000 900 m 1933.332 1000 1866.668 1025 1800 975 c S
2000 1200 m 1933.332 1100 1866.668 1075 1800 1125 c S
1600 750 m 1666.668 850 1733.332 875 1800 825 c S
1600 750 m 1666.668 650 1733.332 625 1800 675 c S
2000 600 m 1933.332 700 1866.668 725 1800 675 c S
2000 900 m 1933.332 800 1866.668 775 1800 825 c S
1600 450 m 1666.668 550 1733.332 575 1800 525 c S
1600 450 m 1666.668 350 1733.332 325 1800 375 c S
2000 300 m 1933.332 400 1866.668 425 1800 375 c S
2000 600 m 1933.332 500 1866.668 475 1800 525 c S
1600 150 m 1666.668 250 1733.332 275 1800 225 c S
1600 150 m 1666.668 50 1733.332 25 1800 75 c S
2000 0 m 1933.332 100 1866.668 125 1800 75 c S
2000 300 m 1933.332 200 1866.668 175 1800 225 c S
2000 1050 m 2066.668 1150 2133.332 1175 2200 1125 c S
2000 1050 m 2066.668 950 2133.332 925 2200 975 c S
2400 900 m 2333.332 1000 2266.668 1025 2200 975 c S
2400 1200 m 2333.332 1100 2266.668 1075 2200 1125 c S
2000 750 m 2066.668 850 2133.332 875 2200 825 c S
2000 750 m 2066.668 650 2133.332 625 2200 675 c S
2400 600 m 2333.332 700 2266.668 725 2200 675 c S
2400 900 m 2333.332 800 2266.668 775 2200 825 c S
2000 450 m 2066.668 550 2133.332 575 2200 525 c S
2000 450 m 2066.668 350 2133.332 325 2200 375 c S
2400 300 m 2333.332 400 2266.668 425 2200 375 c S
2400 600 m 2333.332 500 2266.668 475 2200 525 c S
2000 150 m 2066.668 250 2133.332 275 2200 225 c S
2000 150 m 2066.668 50 2133.332 25 2200 75 c S
2400 0 m 2333.332 100 2266.668 125 2200 75 c S
2400 300 m 2333.332 200 2266.668 175 2200 225 c S
Q Q
showpage
%%Trailer
%%Trailer
cleartomark
countdictstack
exch sub { end } repeat
restore
%%EOF
