%!PS-Adobe-2.0 EPSF-2.0
%%BoundingBox: 0 0 800 693
%%HiResBoundingBox: 0.000000 0.000000 800.000000 693.000000
%%Creator: cairo 1.14.2 (http://cairographics.org)
%%CreationDate: Mon Sep  7 08:21:48 2015
%%DocumentData: Clean7Bit
%%LanguageLevel: 2
%%DocumentMedia: 282x244mm 800 693 0 () ()
%%EndComments
% EPSF created by ps2eps 1.68
%%BeginProlog
save
countdictstack
mark
newpath
/showpage {} def
/setpagedevice {pop} def
%%EndProlog
%%Page 1 1
%%BeginProlog
/languagelevel where
{ pop languagelevel } { 1 } ifelse
2 lt { /Helvetica findfont 12 scalefont setfont 50 500 moveto
  (This print job requires a PostScript Language Level 2 printer.) show
  showpage quit } if
/q { gsave } bind def
/Q { grestore } bind def
/cm { 6 array astore concat } bind def
/w { setlinewidth } bind def
/J { setlinecap } bind def
/j { setlinejoin } bind def
/M { setmiterlimit } bind def
/d { setdash } bind def
/m { moveto } bind def
/l { lineto } bind def
/c { curveto } bind def
/h { closepath } bind def
/re { exch dup neg 3 1 roll 5 3 roll moveto 0 rlineto
      0 exch rlineto 0 rlineto closepath } bind def
/S { stroke } bind def
/f { fill } bind def
/f* { eofill } bind def
/n { newpath } bind def
/W { clip } bind def
/W* { eoclip } bind def
/BT { } bind def
/ET { } bind def
/pdfmark where { pop globaldict /?pdfmark /exec load put }
    { globaldict begin /?pdfmark /pop load def /pdfmark
    /cleartomark load def end } ifelse
/BDC { mark 3 1 roll /BDC pdfmark } bind def
/EMC { mark /EMC pdfmark } bind def
/cairo_store_point { /cairo_point_y exch def /cairo_point_x exch def } def
/Tj { show currentpoint cairo_store_point } bind def
/TJ {
  {
    dup
    type /stringtype eq
    { show } { -0.001 mul 0 cairo_font_matrix dtransform rmoveto } ifelse
  } forall
  currentpoint cairo_store_point
} bind def
/cairo_selectfont { cairo_font_matrix aload pop pop pop 0 0 6 array astore
    cairo_font exch selectfont cairo_point_x cairo_point_y moveto } bind def
/Tf { pop /cairo_font exch def /cairo_font_matrix where
      { pop cairo_selectfont } if } bind def
/Td { matrix translate cairo_font_matrix matrix concatmatrix dup
      /cairo_font_matrix exch def dup 4 get exch 5 get cairo_store_point
      /cairo_font where { pop cairo_selectfont } if } bind def
/Tm { 2 copy 8 2 roll 6 array astore /cairo_font_matrix exch def
      cairo_store_point /cairo_font where { pop cairo_selectfont } if } bind def
/g { setgray } bind def
/rg { setrgbcolor } bind def
/d1 { setcachedevice } bind def
/cairo_set_page_size {
  % Change paper size, but only if different from previous paper size otherwise
  % duplex fails. PLRM specifies a tolerance of 5 pts when matching paper size
  % so we use the same when checking if the size changes.
  /setpagedevice where {
    pop currentpagedevice
    /PageSize known {
      2 copy
      currentpagedevice /PageSize get aload pop
      exch 4 1 roll
      sub abs 5 gt
      3 1 roll
      sub abs 5 gt
      or
    } {
      true
    } ifelse
    {
      2 array astore
      2 dict begin
        /PageSize exch def
        /ImagingBBox null def
      currentdict end
      setpagedevice
    } {
      pop pop
    } ifelse
  } {
    pop
  } ifelse
} def
%%EndProlog
%%BeginSetup
%%EndSetup
%%Page: 1 1
%%BeginPageSetup
%%PageMedia: 282x244mm
%%PageBoundingBox: 0 0 800 693
800 693 cairo_set_page_size
%%EndPageSetup
q 0 0 800 693 rectclip q
Q q
0.984314 g
0 693 800 -692.82 re f*
0.788235 g
1.875 w
0 J
1 j
[] 0.0 d
4 M 0 693 800 -692.82 re S
0 g
2.5 w
1 J
0 693 m 50 606.398 l -100 519.793 l S
100 519.793 m 50 606.398 l -100 519.793 l S
0 346.59 m -50 433.191 l -200 346.59 l S
200 693 m 250 606.398 l 100 519.793 l S
300 519.793 m 250 606.398 l 100 519.793 l S
100 519.793 m 150 433.191 l 0 346.59 l S
200 346.59 m 150 433.191 l 0 346.59 l S
0 346.59 m 50 259.988 l -100 173.383 l S
100 173.383 m 50 259.988 l -100 173.383 l S
Q q
0 89 2 -88.82 re W n
0 g
2.5 w
1 J
1 j
[] 0.0 d
4 M 0 0.18 m -50 86.781 l -200 0.18 l S
Q q
0 g
2.5 w
1 J
1 j
[] 0.0 d
4 M 400 693 m 450 606.398 l 300 519.793 l S
500 519.793 m 450 606.398 l 300 519.793 l S
300 519.793 m 350 433.191 l 200 346.59 l S
400 346.59 m 350 433.191 l 200 346.59 l S
200 346.59 m 250 259.988 l 100 173.383 l S
300 173.383 m 250 259.988 l 100 173.383 l S
Q q
0 175 152 -174.82 re W n
0 g
2.5 w
1 J
1 j
[] 0.0 d
4 M 100 173.383 m 150 86.781 l 0 0.18 l S
Q q
0 89 202 -88.82 re W n
0 g
2.5 w
1 J
1 j
[] 0.0 d
4 M 200 0.18 m 150 86.781 l 0 0.18 l S
Q q
0 g
2.5 w
1 J
1 j
[] 0.0 d
4 M 600 693 m 650 606.398 l 500 519.793 l S
700 519.793 m 650 606.398 l 500 519.793 l S
500 519.793 m 550 433.191 l 400 346.59 l S
600 346.59 m 550 433.191 l 400 346.59 l S
400 346.59 m 450 259.988 l 300 173.383 l S
500 173.383 m 450 259.988 l 300 173.383 l S
Q q
198 175 154 -174.82 re W n
0 g
2.5 w
1 J
1 j
[] 0.0 d
4 M 300 173.383 m 350 86.781 l 200 0.18 l S
Q q
198 89 204 -88.82 re W n
0 g
2.5 w
1 J
1 j
[] 0.0 d
4 M 400 0.18 m 350 86.781 l 200 0.18 l S
Q q
0 g
2.5 w
1 J
1 j
[] 0.0 d
4 M 800 693 m 850 606.398 l 700 519.793 l S
900 519.793 m 850 606.398 l 700 519.793 l S
700 519.793 m 750 433.191 l 600 346.59 l S
800 346.59 m 750 433.191 l 600 346.59 l S
600 346.59 m 650 259.988 l 500 173.383 l S
700 173.383 m 650 259.988 l 500 173.383 l S
Q q
398 175 154 -174.82 re W n
0 g
2.5 w
1 J
1 j
[] 0.0 d
4 M 500 173.383 m 550 86.781 l 400 0.18 l S
Q q
398 89 204 -88.82 re W n
0 g
2.5 w
1 J
1 j
[] 0.0 d
4 M 600 0.18 m 550 86.781 l 400 0.18 l S
Q q
0 g
2.5 w
1 J
1 j
[] 0.0 d
4 M 900 519.793 m 950 433.191 l 800 346.59 l S
1000 346.59 m 950 433.191 l 800 346.59 l S
800 346.59 m 850 259.988 l 700 173.383 l S
900 173.383 m 850 259.988 l 700 173.383 l S
Q q
598 175 154 -174.82 re W n
0 g
2.5 w
1 J
1 j
[] 0.0 d
4 M 700 173.383 m 750 86.781 l 600 0.18 l S
Q q
598 89 202 -88.82 re W n
0 g
2.5 w
1 J
1 j
[] 0.0 d
4 M 800 0.18 m 750 86.781 l 600 0.18 l S
Q Q
showpage
%%Trailer
%%Trailer
cleartomark
countdictstack
exch sub { end } repeat
restore
%%EOF
