%!PS-Adobe-2.0 EPSF-2.0
%%BoundingBox: 0 0 800 693
%%HiResBoundingBox: 0.000000 0.000000 800.000000 693.000000
%%Creator: cairo 1.14.2 (http://cairographics.org)
%%CreationDate: Mon Sep  7 08:21:48 2015
%%DocumentData: Clean7Bit
%%LanguageLevel: 2
%%DocumentMedia: 282x244mm 800 693 0 () ()
%%EndComments
% EPSF created by ps2eps 1.68
%%BeginProlog
save
countdictstack
mark
newpath
/showpage {} def
/setpagedevice {pop} def
%%EndProlog
%%Page 1 1
%%BeginProlog
/languagelevel where
{ pop languagelevel } { 1 } ifelse
2 lt { /Helvetica findfont 12 scalefont setfont 50 500 moveto
  (This print job requires a PostScript Language Level 2 printer.) show
  showpage quit } if
/q { gsave } bind def
/Q { grestore } bind def
/cm { 6 array astore concat } bind def
/w { setlinewidth } bind def
/J { setlinecap } bind def
/j { setlinejoin } bind def
/M { setmiterlimit } bind def
/d { setdash } bind def
/m { moveto } bind def
/l { lineto } bind def
/c { curveto } bind def
/h { closepath } bind def
/re { exch dup neg 3 1 roll 5 3 roll moveto 0 rlineto
      0 exch rlineto 0 rlineto closepath } bind def
/S { stroke } bind def
/f { fill } bind def
/f* { eofill } bind def
/n { newpath } bind def
/W { clip } bind def
/W* { eoclip } bind def
/BT { } bind def
/ET { } bind def
/pdfmark where { pop globaldict /?pdfmark /exec load put }
    { globaldict begin /?pdfmark /pop load def /pdfmark
    /cleartomark load def end } ifelse
/BDC { mark 3 1 roll /BDC pdfmark } bind def
/EMC { mark /EMC pdfmark } bind def
/cairo_store_point { /cairo_point_y exch def /cairo_point_x exch def } def
/Tj { show currentpoint cairo_store_point } bind def
/TJ {
  {
    dup
    type /stringtype eq
    { show } { -0.001 mul 0 cairo_font_matrix dtransform rmoveto } ifelse
  } forall
  currentpoint cairo_store_point
} bind def
/cairo_selectfont { cairo_font_matrix aload pop pop pop 0 0 6 array astore
    cairo_font exch selectfont cairo_point_x cairo_point_y moveto } bind def
/Tf { pop /cairo_font exch def /cairo_font_matrix where
      { pop cairo_selectfont } if } bind def
/Td { matrix translate cairo_font_matrix matrix concatmatrix dup
      /cairo_font_matrix exch def dup 4 get exch 5 get cairo_store_point
      /cairo_font where { pop cairo_selectfont } if } bind def
/Tm { 2 copy 8 2 roll 6 array astore /cairo_font_matrix exch def
      cairo_store_point /cairo_font where { pop cairo_selectfont } if } bind def
/g { setgray } bind def
/rg { setrgbcolor } bind def
/d1 { setcachedevice } bind def
/cairo_set_page_size {
  % Change paper size, but only if different from previous paper size otherwise
  % duplex fails. PLRM specifies a tolerance of 5 pts when matching paper size
  % so we use the same when checking if the size changes.
  /setpagedevice where {
    pop currentpagedevice
    /PageSize known {
      2 copy
      currentpagedevice /PageSize get aload pop
      exch 4 1 roll
      sub abs 5 gt
      3 1 roll
      sub abs 5 gt
      or
    } {
      true
    } ifelse
    {
      2 array astore
      2 dict begin
        /PageSize exch def
        /ImagingBBox null def
      currentdict end
      setpagedevice
    } {
      pop pop
    } ifelse
  } {
    pop
  } ifelse
} def
%%EndProlog
%%BeginSetup
%%EndSetup
%%Page: 1 1
%%BeginPageSetup
%%PageMedia: 282x244mm
%%PageBoundingBox: 0 0 800 693
800 693 cairo_set_page_size
%%EndPageSetup
q 0 0 800 693 rectclip q
Q q
0.984314 g
0 693 800 -692.82 re f*
0.788235 g
1.875 w
0 J
1 j
[] 0.0 d
4 M 0 693 800 -692.82 re S
0 g
2.5 w
1 J
0 693 m -33.332 635.266 -25 620.832 25 649.699 c S
0 693 m 66.668 693 75 678.566 25 649.699 c S
100 519.793 m 33.332 519.793 25 534.23 75 563.098 c S
100 519.793 m 133.332 577.531 125 591.965 75 563.098 c S
0 346.59 m -66.668 346.59 -75 361.023 -25 389.891 c S
0 346.59 m 33.332 404.324 25 418.758 -25 389.891 c S
200 693 m 166.668 635.266 175 620.832 225 649.699 c S
200 693 m 266.668 693 275 678.566 225 649.699 c S
300 519.793 m 233.332 519.793 225 534.23 275 563.098 c S
300 519.793 m 333.332 577.531 325 591.965 275 563.098 c S
100 519.793 m 66.668 462.059 75 447.625 125 476.492 c S
100 519.793 m 166.668 519.793 175 505.359 125 476.492 c S
200 346.59 m 133.332 346.59 125 361.023 175 389.891 c S
200 346.59 m 233.332 404.324 225 418.758 175 389.891 c S
0 346.59 m -33.332 288.855 -25 274.422 25 303.289 c S
0 346.59 m 66.668 346.59 75 332.156 25 303.289 c S
100 173.383 m 33.332 173.383 25 187.82 75 216.688 c S
100 173.383 m 133.332 231.121 125 245.555 75 216.688 c S
Q q
0 45 2 -44.82 re W n
0 g
2.5 w
1 J
1 j
[] 0.0 d
4 M 0 0.18 m -66.668 0.18 -75 14.613 -25 43.48 c S
Q q
0 60 22 -59.82 re W n
0 g
2.5 w
1 J
1 j
[] 0.0 d
4 M 0 0.18 m 33.332 57.914 25 72.348 -25 43.48 c S
Q q
0 g
2.5 w
1 J
1 j
[] 0.0 d
4 M 400 693 m 366.668 635.266 375 620.832 425 649.699 c S
400 693 m 466.668 693 475 678.566 425 649.699 c S
500 519.793 m 433.332 519.793 425 534.23 475 563.098 c S
500 519.793 m 533.332 577.531 525 591.965 475 563.098 c S
300 519.793 m 266.668 462.059 275 447.625 325 476.492 c S
300 519.793 m 366.668 519.793 375 505.359 325 476.492 c S
400 346.59 m 333.332 346.59 325 361.023 375 389.891 c S
400 346.59 m 433.332 404.324 425 418.758 375 389.891 c S
200 346.59 m 166.668 288.855 175 274.422 225 303.289 c S
200 346.59 m 266.668 346.59 275 332.156 225 303.289 c S
300 173.383 m 233.332 173.383 225 187.82 275 216.688 c S
300 173.383 m 333.332 231.121 325 245.555 275 216.688 c S
100 173.383 m 66.668 115.648 75 101.215 125 130.082 c S
100 173.383 m 166.668 173.383 175 158.949 125 130.082 c S
Q q
141 45 61 -44.82 re W n
0 g
2.5 w
1 J
1 j
[] 0.0 d
4 M 200 0.18 m 133.332 0.18 125 14.613 175 43.48 c S
Q q
173 60 49 -59.82 re W n
0 g
2.5 w
1 J
1 j
[] 0.0 d
4 M 200 0.18 m 233.332 57.914 225 72.348 175 43.48 c S
Q q
0 g
2.5 w
1 J
1 j
[] 0.0 d
4 M 600 693 m 566.668 635.266 575 620.832 625 649.699 c S
600 693 m 666.668 693 675 678.566 625 649.699 c S
700 519.793 m 633.332 519.793 625 534.23 675 563.098 c S
700 519.793 m 733.332 577.531 725 591.965 675 563.098 c S
500 519.793 m 466.668 462.059 475 447.625 525 476.492 c S
500 519.793 m 566.668 519.793 575 505.359 525 476.492 c S
600 346.59 m 533.332 346.59 525 361.023 575 389.891 c S
600 346.59 m 633.332 404.324 625 418.758 575 389.891 c S
400 346.59 m 366.668 288.855 375 274.422 425 303.289 c S
400 346.59 m 466.668 346.59 475 332.156 425 303.289 c S
500 173.383 m 433.332 173.383 425 187.82 475 216.688 c S
500 173.383 m 533.332 231.121 525 245.555 475 216.688 c S
300 173.383 m 266.668 115.648 275 101.215 325 130.082 c S
300 173.383 m 366.668 173.383 375 158.949 325 130.082 c S
Q q
341 45 61 -44.82 re W n
0 g
2.5 w
1 J
1 j
[] 0.0 d
4 M 400 0.18 m 333.332 0.18 325 14.613 375 43.48 c S
Q q
373 60 49 -59.82 re W n
0 g
2.5 w
1 J
1 j
[] 0.0 d
4 M 400 0.18 m 433.332 57.914 425 72.348 375 43.48 c S
Q q
0 g
2.5 w
1 J
1 j
[] 0.0 d
4 M 800 693 m 766.668 635.266 775 620.832 825 649.699 c S
800 693 m 866.668 693 875 678.566 825 649.699 c S
700 519.793 m 666.668 462.059 675 447.625 725 476.492 c S
700 519.793 m 766.668 519.793 775 505.359 725 476.492 c S
800 346.59 m 733.332 346.59 725 361.023 775 389.891 c S
800 346.59 m 833.332 404.324 825 418.758 775 389.891 c S
600 346.59 m 566.668 288.855 575 274.422 625 303.289 c S
600 346.59 m 666.668 346.59 675 332.156 625 303.289 c S
700 173.383 m 633.332 173.383 625 187.82 675 216.688 c S
700 173.383 m 733.332 231.121 725 245.555 675 216.688 c S
500 173.383 m 466.668 115.648 475 101.215 525 130.082 c S
500 173.383 m 566.668 173.383 575 158.949 525 130.082 c S
Q q
541 45 61 -44.82 re W n
0 g
2.5 w
1 J
1 j
[] 0.0 d
4 M 600 0.18 m 533.332 0.18 525 14.613 575 43.48 c S
Q q
573 60 49 -59.82 re W n
0 g
2.5 w
1 J
1 j
[] 0.0 d
4 M 600 0.18 m 633.332 57.914 625 72.348 575 43.48 c S
Q q
0 g
2.5 w
1 J
1 j
[] 0.0 d
4 M 800 346.59 m 766.668 288.855 775 274.422 825 303.289 c S
800 346.59 m 866.668 346.59 875 332.156 825 303.289 c S
700 173.383 m 666.668 115.648 675 101.215 725 130.082 c S
700 173.383 m 766.668 173.383 775 158.949 725 130.082 c S
Q q
741 45 59 -44.82 re W n
0 g
2.5 w
1 J
1 j
[] 0.0 d
4 M 800 0.18 m 733.332 0.18 725 14.613 775 43.48 c S
Q q
773 60 27 -59.82 re W n
0 g
2.5 w
1 J
1 j
[] 0.0 d
4 M 800 0.18 m 833.332 57.914 825 72.348 775 43.48 c S
Q Q
showpage
%%Trailer
%%Trailer
cleartomark
countdictstack
exch sub { end } repeat
restore
%%EOF
