%!PS-Adobe-2.0 EPSF-2.0
%%BoundingBox: 0 0 1164 636
%%HiResBoundingBox: 0.000000 0.000000 1164.000000 636.000000
%%Creator: cairo 1.14.2 (http://cairographics.org)
%%CreationDate: Mon Sep  7 08:21:48 2015
%%DocumentData: Clean7Bit
%%LanguageLevel: 2
%%DocumentMedia: 411x224mm 1164 636 0 () ()
%%EndComments
% EPSF created by ps2eps 1.68
%%BeginProlog
save
countdictstack
mark
newpath
/showpage {} def
/setpagedevice {pop} def
%%EndProlog
%%Page 1 1
%%BeginProlog
/languagelevel where
{ pop languagelevel } { 1 } ifelse
2 lt { /Helvetica findfont 12 scalefont setfont 50 500 moveto
  (This print job requires a PostScript Language Level 2 printer.) show
  showpage quit } if
/q { gsave } bind def
/Q { grestore } bind def
/cm { 6 array astore concat } bind def
/w { setlinewidth } bind def
/J { setlinecap } bind def
/j { setlinejoin } bind def
/M { setmiterlimit } bind def
/d { setdash } bind def
/m { moveto } bind def
/l { lineto } bind def
/c { curveto } bind def
/h { closepath } bind def
/re { exch dup neg 3 1 roll 5 3 roll moveto 0 rlineto
      0 exch rlineto 0 rlineto closepath } bind def
/S { stroke } bind def
/f { fill } bind def
/f* { eofill } bind def
/n { newpath } bind def
/W { clip } bind def
/W* { eoclip } bind def
/BT { } bind def
/ET { } bind def
/pdfmark where { pop globaldict /?pdfmark /exec load put }
    { globaldict begin /?pdfmark /pop load def /pdfmark
    /cleartomark load def end } ifelse
/BDC { mark 3 1 roll /BDC pdfmark } bind def
/EMC { mark /EMC pdfmark } bind def
/cairo_store_point { /cairo_point_y exch def /cairo_point_x exch def } def
/Tj { show currentpoint cairo_store_point } bind def
/TJ {
  {
    dup
    type /stringtype eq
    { show } { -0.001 mul 0 cairo_font_matrix dtransform rmoveto } ifelse
  } forall
  currentpoint cairo_store_point
} bind def
/cairo_selectfont { cairo_font_matrix aload pop pop pop 0 0 6 array astore
    cairo_font exch selectfont cairo_point_x cairo_point_y moveto } bind def
/Tf { pop /cairo_font exch def /cairo_font_matrix where
      { pop cairo_selectfont } if } bind def
/Td { matrix translate cairo_font_matrix matrix concatmatrix dup
      /cairo_font_matrix exch def dup 4 get exch 5 get cairo_store_point
      /cairo_font where { pop cairo_selectfont } if } bind def
/Tm { 2 copy 8 2 roll 6 array astore /cairo_font_matrix exch def
      cairo_store_point /cairo_font where { pop cairo_selectfont } if } bind def
/g { setgray } bind def
/rg { setrgbcolor } bind def
/d1 { setcachedevice } bind def
/cairo_set_page_size {
  % Change paper size, but only if different from previous paper size otherwise
  % duplex fails. PLRM specifies a tolerance of 5 pts when matching paper size
  % so we use the same when checking if the size changes.
  /setpagedevice where {
    pop currentpagedevice
    /PageSize known {
      2 copy
      currentpagedevice /PageSize get aload pop
      exch 4 1 roll
      sub abs 5 gt
      3 1 roll
      sub abs 5 gt
      or
    } {
      true
    } ifelse
    {
      2 array astore
      2 dict begin
        /PageSize exch def
        /ImagingBBox null def
      currentdict end
      setpagedevice
    } {
      pop pop
    } ifelse
  } {
    pop
  } ifelse
} def
%%EndProlog
%%BeginSetup
%%EndSetup
%%Page: 1 1
%%BeginPageSetup
%%PageMedia: 411x224mm
%%PageBoundingBox: 0 0 1164 636
1164 636 cairo_set_page_size
%%EndPageSetup
q 0 0 1164 636 rectclip q
Q q
0.984314 g
0 636 1163.605 -636.395 re f*
0.788235 g
1.875 w
0 J
1 j
[] 0.0 d
4 M 0 636 1163.605 -636.395 re S
0 g
2.5 w
1 J
-76.777 176.379 m -12.133 211.734 -41.422 141.023 8.578 141.023 c S
-6.066 105.668 m 58.578 141.023 29.289 70.316 79.289 70.316 c S
64.645 34.961 m 0 -0.395 29.289 70.316 -20.711 70.316 c S
64.645 34.961 m 129.289 70.316 100 -0.395 150 -0.395 c S
-18.199 317.801 m 46.445 353.156 17.156 282.445 67.156 282.445 c S
52.512 247.09 m -12.133 211.734 17.156 282.445 -32.844 282.445 c S
52.512 247.09 m 117.156 282.445 87.867 211.734 137.867 211.734 c S
123.223 176.379 m 58.578 141.023 87.867 211.734 37.867 211.734 c S
123.223 176.379 m 187.867 211.734 158.578 141.023 208.578 141.023 c S
193.934 105.668 m 129.289 70.316 158.578 141.023 108.578 141.023 c S
193.934 105.668 m 258.578 141.023 229.289 70.316 279.289 70.316 c S
264.645 34.961 m 200 -0.395 229.289 70.316 179.289 70.316 c S
264.645 34.961 m 329.289 70.316 300 -0.395 350 -0.395 c S
-30.332 529.934 m 34.316 565.289 5.023 494.578 55.023 494.578 c S
40.379 459.223 m -24.266 423.867 5.023 494.578 -44.977 494.578 c S
40.379 459.223 m 105.023 494.578 75.734 423.867 125.734 423.867 c S
111.09 388.512 m 46.445 353.156 75.734 423.867 25.734 423.867 c S
111.09 388.512 m 175.734 423.867 146.445 353.156 196.445 353.156 c S
181.801 317.801 m 117.156 282.445 146.445 353.156 96.445 353.156 c S
181.801 317.801 m 246.445 353.156 217.156 282.445 267.156 282.445 c S
252.512 247.09 m 187.867 211.734 217.156 282.445 167.156 282.445 c S
252.512 247.09 m 317.156 282.445 287.867 211.734 337.867 211.734 c S
323.223 176.379 m 258.578 141.023 287.867 211.734 237.867 211.734 c S
323.223 176.379 m 387.867 211.734 358.578 141.023 408.578 141.023 c S
393.934 105.668 m 329.289 70.316 358.578 141.023 308.578 141.023 c S
393.934 105.668 m 458.578 141.023 429.289 70.316 479.289 70.316 c S
464.645 34.961 m 400 -0.395 429.289 70.316 379.289 70.316 c S
464.645 34.961 m 529.289 70.316 500 -0.395 550 -0.395 c S
98.961 600.645 m 34.316 565.289 63.605 636 13.605 636 c S
98.961 600.645 m 163.605 636 134.316 565.289 184.316 565.289 c S
169.668 529.934 m 105.023 494.578 134.316 565.289 84.316 565.289 c S
169.668 529.934 m 234.316 565.289 205.023 494.578 255.023 494.578 c S
240.379 459.223 m 175.734 423.867 205.023 494.578 155.023 494.578 c S
240.379 459.223 m 305.023 494.578 275.734 423.867 325.734 423.867 c S
311.09 388.512 m 246.445 353.156 275.734 423.867 225.734 423.867 c S
311.09 388.512 m 375.734 423.867 346.445 353.156 396.445 353.156 c S
381.801 317.801 m 317.156 282.445 346.445 353.156 296.445 353.156 c S
381.801 317.801 m 446.445 353.156 417.156 282.445 467.156 282.445 c S
452.512 247.09 m 387.867 211.734 417.156 282.445 367.156 282.445 c S
452.512 247.09 m 517.156 282.445 487.867 211.734 537.867 211.734 c S
523.223 176.379 m 458.578 141.023 487.867 211.734 437.867 211.734 c S
523.223 176.379 m 587.867 211.734 558.578 141.023 608.578 141.023 c S
593.934 105.668 m 529.289 70.316 558.578 141.023 508.578 141.023 c S
593.934 105.668 m 658.578 141.023 629.289 70.316 679.289 70.316 c S
664.645 34.961 m 600 -0.395 629.289 70.316 579.289 70.316 c S
664.645 34.961 m 729.289 70.316 700 -0.395 750 -0.395 c S
298.961 600.645 m 234.316 565.289 263.605 636 213.605 636 c S
298.961 600.645 m 363.605 636 334.316 565.289 384.316 565.289 c S
369.668 529.934 m 305.023 494.578 334.316 565.289 284.316 565.289 c S
369.668 529.934 m 434.316 565.289 405.023 494.578 455.023 494.578 c S
440.379 459.223 m 375.734 423.867 405.023 494.578 355.023 494.578 c S
440.379 459.223 m 505.023 494.578 475.734 423.867 525.734 423.867 c S
511.09 388.512 m 446.445 353.156 475.734 423.867 425.734 423.867 c S
511.09 388.512 m 575.734 423.867 546.445 353.156 596.445 353.156 c S
581.801 317.801 m 517.156 282.445 546.445 353.156 496.445 353.156 c S
581.801 317.801 m 646.445 353.156 617.156 282.445 667.156 282.445 c S
652.512 247.09 m 587.867 211.734 617.156 282.445 567.156 282.445 c S
652.512 247.09 m 717.156 282.445 687.867 211.734 737.867 211.734 c S
723.223 176.379 m 658.578 141.023 687.867 211.734 637.867 211.734 c S
723.223 176.379 m 787.867 211.734 758.578 141.023 808.578 141.023 c S
793.934 105.668 m 729.289 70.316 758.578 141.023 708.578 141.023 c S
793.934 105.668 m 858.578 141.023 829.289 70.316 879.289 70.316 c S
864.645 34.961 m 800 -0.395 829.289 70.316 779.289 70.316 c S
864.645 34.961 m 929.289 70.316 900 -0.395 950 -0.395 c S
498.961 600.645 m 434.316 565.289 463.605 636 413.605 636 c S
498.961 600.645 m 563.605 636 534.316 565.289 584.316 565.289 c S
569.668 529.934 m 505.023 494.578 534.316 565.289 484.316 565.289 c S
569.668 529.934 m 634.316 565.289 605.023 494.578 655.023 494.578 c S
640.379 459.223 m 575.734 423.867 605.023 494.578 555.023 494.578 c S
640.379 459.223 m 705.023 494.578 675.734 423.867 725.734 423.867 c S
711.09 388.512 m 646.445 353.156 675.734 423.867 625.734 423.867 c S
711.09 388.512 m 775.734 423.867 746.445 353.156 796.445 353.156 c S
781.801 317.801 m 717.156 282.445 746.445 353.156 696.445 353.156 c S
781.801 317.801 m 846.445 353.156 817.156 282.445 867.156 282.445 c S
852.512 247.09 m 787.867 211.734 817.156 282.445 767.156 282.445 c S
852.512 247.09 m 917.156 282.445 887.867 211.734 937.867 211.734 c S
923.223 176.379 m 858.578 141.023 887.867 211.734 837.867 211.734 c S
923.223 176.379 m 987.867 211.734 958.578 141.023 1008.578 141.023 c S
993.934 105.668 m 929.289 70.316 958.578 141.023 908.578 141.023 c S
993.934 105.668 m 1058.578 141.023 1029.289 70.316 1079.289 70.316 c S
1064.645 34.961 m 1000 -0.395 1029.289 70.316 979.289 70.316 c S
1064.645 34.961 m 1129.289 70.316 1100 -0.395 1150 -0.395 c S
698.961 600.645 m 634.316 565.289 663.605 636 613.605 636 c S
698.961 600.645 m 763.605 636 734.316 565.289 784.316 565.289 c S
769.668 529.934 m 705.023 494.578 734.316 565.289 684.316 565.289 c S
769.668 529.934 m 834.316 565.289 805.023 494.578 855.023 494.578 c S
840.379 459.223 m 775.734 423.867 805.023 494.578 755.023 494.578 c S
840.379 459.223 m 905.023 494.578 875.734 423.867 925.734 423.867 c S
911.09 388.512 m 846.445 353.156 875.734 423.867 825.734 423.867 c S
911.09 388.512 m 975.734 423.867 946.445 353.156 996.445 353.156 c S
981.801 317.801 m 917.156 282.445 946.445 353.156 896.445 353.156 c S
981.801 317.801 m 1046.445 353.156 1017.156 282.445 1067.156 282.445 c S
1052.512 247.09 m 987.867 211.734 1017.156 282.445 967.156 282.445 c S
1052.512 247.09 m 1117.156 282.445 1087.867 211.734 1137.867 211.734 c S
1123.223 176.379 m 1058.578 141.023 1087.867 211.734 1037.867 211.734 c
 S
Q q
1121 188 42.605 -49 re W n
0 g
2.5 w
1 J
1 j
[] 0.0 d
4 M 1123.223 176.379 m 1187.867 211.734 1158.578 141.023 1208.578 141.023 c
 S
Q q
1107 143 56.605 -49 re W n
0 g
2.5 w
1 J
1 j
[] 0.0 d
4 M 1193.934 105.668 m 1129.289 70.316 1158.578 141.023 1108.578 141.023 c S
Q q
0 g
2.5 w
1 J
1 j
[] 0.0 d
4 M 898.961 600.645 m 834.316 565.289 863.605 636 813.605 636 c S
898.961 600.645 m 963.605 636 934.316 565.289 984.316 565.289 c S
969.668 529.934 m 905.023 494.578 934.316 565.289 884.316 565.289 c S
969.668 529.934 m 1034.316 565.289 1005.023 494.578 1055.023 494.578 c S
1040.379 459.223 m 975.734 423.867 1005.023 494.578 955.023 494.578 c S
1040.379 459.223 m 1105.023 494.578 1075.734 423.867 1125.734 423.867 c
 S
1111.09 388.512 m 1046.445 353.156 1075.734 423.867 1025.734 423.867 c S
Q q
1109 400 54.605 -49 re W n
0 g
2.5 w
1 J
1 j
[] 0.0 d
4 M 1111.09 388.512 m 1175.734 423.867 1146.445 353.156 1196.445 353.156 c S
Q q
1095 355 68.605 -49 re W n
0 g
2.5 w
1 J
1 j
[] 0.0 d
4 M 1181.801 317.801 m 1117.156 282.445 1146.445 353.156 1096.445 353.156 c
 S
Q q
0 g
2.5 w
1 J
1 j
[] 0.0 d
4 M 1098.961 600.645 m 1034.316 565.289 1063.605 636 1013.605 636 c S
Q q
1097 612 66.605 -48 re W n
0 g
2.5 w
1 J
1 j
[] 0.0 d
4 M 1098.961 600.645 m 1163.605 636 1134.316 565.289 1184.316 565.289 c S
Q q
1083 567 80.605 -49 re W n
0 g
2.5 w
1 J
1 j
[] 0.0 d
4 M 1169.668 529.934 m 1105.023 494.578 1134.316 565.289 1084.316 565.289 c
 S
Q q
1153 496 10.605 -48 re W n
0 g
2.5 w
1 J
1 j
[] 0.0 d
4 M 1240.379 459.223 m 1175.734 423.867 1205.023 494.578 1155.023 494.578 c
 S
Q Q
showpage
%%Trailer
%%Trailer
cleartomark
countdictstack
exch sub { end } repeat
restore
%%EOF
