%!PS-Adobe-2.0 EPSF-2.0
%%BoundingBox: 0 0 1200 1039
%%HiResBoundingBox: 0.000000 0.000000 1200.000000 1039.000000
%%Creator: cairo 1.14.2 (http://cairographics.org)
%%CreationDate: Mon Sep  7 08:21:48 2015
%%DocumentData: Clean7Bit
%%LanguageLevel: 2
%%DocumentMedia: 423x367mm 1200 1039 0 () ()
%%EndComments
% EPSF created by ps2eps 1.68
%%BeginProlog
save
countdictstack
mark
newpath
/showpage {} def
/setpagedevice {pop} def
%%EndProlog
%%Page 1 1
%%BeginProlog
/languagelevel where
{ pop languagelevel } { 1 } ifelse
2 lt { /Helvetica findfont 12 scalefont setfont 50 500 moveto
  (This print job requires a PostScript Language Level 2 printer.) show
  showpage quit } if
/q { gsave } bind def
/Q { grestore } bind def
/cm { 6 array astore concat } bind def
/w { setlinewidth } bind def
/J { setlinecap } bind def
/j { setlinejoin } bind def
/M { setmiterlimit } bind def
/d { setdash } bind def
/m { moveto } bind def
/l { lineto } bind def
/c { curveto } bind def
/h { closepath } bind def
/re { exch dup neg 3 1 roll 5 3 roll moveto 0 rlineto
      0 exch rlineto 0 rlineto closepath } bind def
/S { stroke } bind def
/f { fill } bind def
/f* { eofill } bind def
/n { newpath } bind def
/W { clip } bind def
/W* { eoclip } bind def
/BT { } bind def
/ET { } bind def
/pdfmark where { pop globaldict /?pdfmark /exec load put }
    { globaldict begin /?pdfmark /pop load def /pdfmark
    /cleartomark load def end } ifelse
/BDC { mark 3 1 roll /BDC pdfmark } bind def
/EMC { mark /EMC pdfmark } bind def
/cairo_store_point { /cairo_point_y exch def /cairo_point_x exch def } def
/Tj { show currentpoint cairo_store_point } bind def
/TJ {
  {
    dup
    type /stringtype eq
    { show } { -0.001 mul 0 cairo_font_matrix dtransform rmoveto } ifelse
  } forall
  currentpoint cairo_store_point
} bind def
/cairo_selectfont { cairo_font_matrix aload pop pop pop 0 0 6 array astore
    cairo_font exch selectfont cairo_point_x cairo_point_y moveto } bind def
/Tf { pop /cairo_font exch def /cairo_font_matrix where
      { pop cairo_selectfont } if } bind def
/Td { matrix translate cairo_font_matrix matrix concatmatrix dup
      /cairo_font_matrix exch def dup 4 get exch 5 get cairo_store_point
      /cairo_font where { pop cairo_selectfont } if } bind def
/Tm { 2 copy 8 2 roll 6 array astore /cairo_font_matrix exch def
      cairo_store_point /cairo_font where { pop cairo_selectfont } if } bind def
/g { setgray } bind def
/rg { setrgbcolor } bind def
/d1 { setcachedevice } bind def
/cairo_set_page_size {
  % Change paper size, but only if different from previous paper size otherwise
  % duplex fails. PLRM specifies a tolerance of 5 pts when matching paper size
  % so we use the same when checking if the size changes.
  /setpagedevice where {
    pop currentpagedevice
    /PageSize known {
      2 copy
      currentpagedevice /PageSize get aload pop
      exch 4 1 roll
      sub abs 5 gt
      3 1 roll
      sub abs 5 gt
      or
    } {
      true
    } ifelse
    {
      2 array astore
      2 dict begin
        /PageSize exch def
        /ImagingBBox null def
      currentdict end
      setpagedevice
    } {
      pop pop
    } ifelse
  } {
    pop
  } ifelse
} def
%%EndProlog
%%BeginSetup
%%EndSetup
%%Page: 1 1
%%BeginPageSetup
%%PageMedia: 423x367mm
%%PageBoundingBox: 0 0 1200 1039
1200 1039 cairo_set_page_size
%%EndPageSetup
q 0 0 1200 1039 rectclip q
0.984314 g
0 0 1200 1039 rectfill
0.788235 g
1.875 w
0 J
1 j
[] 0.0 d
4 M 0 1039 1200 -1039.23 re S
0 g
2.5 w
1 J
0 519.383 m -100 461.648 -150 490.516 -150 605.988 c S
-150 259.578 m -150 375.047 -100 403.914 0 346.18 c S
0 519.383 m 100 461.648 100 403.914 0 346.18 c S
150 259.578 m 50 201.844 0 230.711 0 346.18 c S
0 -0.23 m 0 115.238 50 144.105 150 86.371 c S
150 259.578 m 250 201.844 250 144.105 150 86.371 c S
300 -0.23 m 200 -57.965 150 -29.098 150 86.371 c S
-150 779.191 m -150 894.664 -100 923.531 0 865.793 c S
0 1039 m 100 981.266 100 923.531 0 865.793 c S
150 779.191 m 50 721.457 0 750.324 0 865.793 c S
0 519.383 m 0 634.855 50 663.723 150 605.988 c S
150 779.191 m 250 721.457 250 663.723 150 605.988 c S
300 519.383 m 200 461.648 150 490.516 150 605.988 c S
150 259.578 m 150 375.047 200 403.914 300 346.18 c S
300 519.383 m 400 461.648 400 403.914 300 346.18 c S
450 259.578 m 350 201.844 300 230.711 300 346.18 c S
300 -0.23 m 300 115.238 350 144.105 450 86.371 c S
450 259.578 m 550 201.844 550 144.105 450 86.371 c S
600 -0.23 m 500 -57.965 450 -29.098 450 86.371 c S
150 779.191 m 150 894.664 200 923.531 300 865.793 c S
300 1039 m 400 981.266 400 923.531 300 865.793 c S
450 779.191 m 350 721.457 300 750.324 300 865.793 c S
300 519.383 m 300 634.855 350 663.723 450 605.988 c S
450 779.191 m 550 721.457 550 663.723 450 605.988 c S
600 519.383 m 500 461.648 450 490.516 450 605.988 c S
450 259.578 m 450 375.047 500 403.914 600 346.18 c S
600 519.383 m 700 461.648 700 403.914 600 346.18 c S
750 259.578 m 650 201.844 600 230.711 600 346.18 c S
600 -0.23 m 600 115.238 650 144.105 750 86.371 c S
750 259.578 m 850 201.844 850 144.105 750 86.371 c S
900 -0.23 m 800 -57.965 750 -29.098 750 86.371 c S
450 779.191 m 450 894.664 500 923.531 600 865.793 c S
600 1039 m 700 981.266 700 923.531 600 865.793 c S
750 779.191 m 650 721.457 600 750.324 600 865.793 c S
600 519.383 m 600 634.855 650 663.723 750 605.988 c S
750 779.191 m 850 721.457 850 663.723 750 605.988 c S
900 519.383 m 800 461.648 750 490.516 750 605.988 c S
750 259.578 m 750 375.047 800 403.914 900 346.18 c S
900 519.383 m 1000 461.648 1000 403.914 900 346.18 c S
1050 259.578 m 950 201.844 900 230.711 900 346.18 c S
900 -0.23 m 900 115.238 950 144.105 1050 86.371 c S
1050 259.578 m 1150 201.844 1150 144.105 1050 86.371 c S
1200 -0.23 m 1100 -57.965 1050 -29.098 1050 86.371 c S
750 779.191 m 750 894.664 800 923.531 900 865.793 c S
900 1039 m 1000 981.266 1000 923.531 900 865.793 c S
1050 779.191 m 950 721.457 900 750.324 900 865.793 c S
900 519.383 m 900 634.855 950 663.723 1050 605.988 c S
1050 779.191 m 1150 721.457 1150 663.723 1050 605.988 c S
1200 519.383 m 1100 461.648 1050 490.516 1050 605.988 c S
1050 259.578 m 1050 375.047 1100 403.914 1200 346.18 c S
1200 519.383 m 1300 461.648 1300 403.914 1200 346.18 c S
1350 259.578 m 1250 201.844 1200 230.711 1200 346.18 c S
1200 -0.23 m 1200 115.238 1250 144.105 1350 86.371 c S
1050 779.191 m 1050 894.664 1100 923.531 1200 865.793 c S
1200 1039 m 1300 981.266 1300 923.531 1200 865.793 c S
1350 779.191 m 1250 721.457 1200 750.324 1200 865.793 c S
1200 519.383 m 1200 634.855 1250 663.723 1350 605.988 c S
Q Q
showpage
%%Trailer
%%Trailer
cleartomark
countdictstack
exch sub { end } repeat
restore
%%EOF
