%!PS-Adobe-2.0 EPSF-2.0
%%BoundingBox: 0 0 1200 1039
%%HiResBoundingBox: 0.000000 0.000000 1200.000000 1039.000000
%%Creator: cairo 1.14.2 (http://cairographics.org)
%%CreationDate: Mon Sep  7 08:21:48 2015
%%DocumentData: Clean7Bit
%%LanguageLevel: 2
%%DocumentMedia: 423x367mm 1200 1039 0 () ()
%%EndComments
% EPSF created by ps2eps 1.68
%%BeginProlog
save
countdictstack
mark
newpath
/showpage {} def
/setpagedevice {pop} def
%%EndProlog
%%Page 1 1
%%BeginProlog
/languagelevel where
{ pop languagelevel } { 1 } ifelse
2 lt { /Helvetica findfont 12 scalefont setfont 50 500 moveto
  (This print job requires a PostScript Language Level 2 printer.) show
  showpage quit } if
/q { gsave } bind def
/Q { grestore } bind def
/cm { 6 array astore concat } bind def
/w { setlinewidth } bind def
/J { setlinecap } bind def
/j { setlinejoin } bind def
/M { setmiterlimit } bind def
/d { setdash } bind def
/m { moveto } bind def
/l { lineto } bind def
/c { curveto } bind def
/h { closepath } bind def
/re { exch dup neg 3 1 roll 5 3 roll moveto 0 rlineto
      0 exch rlineto 0 rlineto closepath } bind def
/S { stroke } bind def
/f { fill } bind def
/f* { eofill } bind def
/n { newpath } bind def
/W { clip } bind def
/W* { eoclip } bind def
/BT { } bind def
/ET { } bind def
/pdfmark where { pop globaldict /?pdfmark /exec load put }
    { globaldict begin /?pdfmark /pop load def /pdfmark
    /cleartomark load def end } ifelse
/BDC { mark 3 1 roll /BDC pdfmark } bind def
/EMC { mark /EMC pdfmark } bind def
/cairo_store_point { /cairo_point_y exch def /cairo_point_x exch def } def
/Tj { show currentpoint cairo_store_point } bind def
/TJ {
  {
    dup
    type /stringtype eq
    { show } { -0.001 mul 0 cairo_font_matrix dtransform rmoveto } ifelse
  } forall
  currentpoint cairo_store_point
} bind def
/cairo_selectfont { cairo_font_matrix aload pop pop pop 0 0 6 array astore
    cairo_font exch selectfont cairo_point_x cairo_point_y moveto } bind def
/Tf { pop /cairo_font exch def /cairo_font_matrix where
      { pop cairo_selectfont } if } bind def
/Td { matrix translate cairo_font_matrix matrix concatmatrix dup
      /cairo_font_matrix exch def dup 4 get exch 5 get cairo_store_point
      /cairo_font where { pop cairo_selectfont } if } bind def
/Tm { 2 copy 8 2 roll 6 array astore /cairo_font_matrix exch def
      cairo_store_point /cairo_font where { pop cairo_selectfont } if } bind def
/g { setgray } bind def
/rg { setrgbcolor } bind def
/d1 { setcachedevice } bind def
/cairo_set_page_size {
  % Change paper size, but only if different from previous paper size otherwise
  % duplex fails. PLRM specifies a tolerance of 5 pts when matching paper size
  % so we use the same when checking if the size changes.
  /setpagedevice where {
    pop currentpagedevice
    /PageSize known {
      2 copy
      currentpagedevice /PageSize get aload pop
      exch 4 1 roll
      sub abs 5 gt
      3 1 roll
      sub abs 5 gt
      or
    } {
      true
    } ifelse
    {
      2 array astore
      2 dict begin
        /PageSize exch def
        /ImagingBBox null def
      currentdict end
      setpagedevice
    } {
      pop pop
    } ifelse
  } {
    pop
  } ifelse
} def
%%EndProlog
%%BeginSetup
%%EndSetup
%%Page: 1 1
%%BeginPageSetup
%%PageMedia: 423x367mm
%%PageBoundingBox: 0 0 1200 1039
1200 1039 cairo_set_page_size
%%EndPageSetup
q 0 0 1200 1039 rectclip q
0.984314 g
0 0 1200 1039 rectfill
0.788235 g
1.875 w
0 J
1 j
[] 0.0 d
4 M 0 1039 1200 -1039.23 re S
0 g
2.5 w
1 J
0 692.59 m -50 548.254 l 0 577.121 l 0 519.383 l S
-150 432.781 m 0 461.648 l -50 490.516 l 0 519.383 l S
150 432.781 m 100 288.445 l 150 317.312 l 150 259.578 l S
0 172.973 m -100 288.445 l -100 230.711 l -150 259.578 l S
0 172.973 m 150 201.844 l 100 230.711 l 150 259.578 l S
300 172.973 m 250 28.637 l 300 57.504 l 300 -0.23 l S
150 -86.832 m 50 28.637 l 50 -29.098 l 0 -0.23 l S
-150 952.398 m 0 981.266 l -50 1010.133 l 0 1039 l S
150 952.398 m 100 808.059 l 150 836.926 l 150 779.191 l S
0 692.59 m -100 808.059 l -100 750.324 l -150 779.191 l S
0 692.59 m 150 721.457 l 100 750.324 l 150 779.191 l S
300 692.59 m 250 548.254 l 300 577.121 l 300 519.383 l S
150 432.781 m 50 548.254 l 50 490.516 l 0 519.383 l S
150 432.781 m 300 461.648 l 250 490.516 l 300 519.383 l S
450 432.781 m 400 288.445 l 450 317.312 l 450 259.578 l S
300 172.973 m 200 288.445 l 200 230.711 l 150 259.578 l S
300 172.973 m 450 201.844 l 400 230.711 l 450 259.578 l S
600 172.973 m 550 28.637 l 600 57.504 l 600 -0.23 l S
450 -86.832 m 350 28.637 l 350 -29.098 l 300 -0.23 l S
150 952.398 m 300 981.266 l 250 1010.133 l 300 1039 l S
450 952.398 m 400 808.059 l 450 836.926 l 450 779.191 l S
300 692.59 m 200 808.059 l 200 750.324 l 150 779.191 l S
300 692.59 m 450 721.457 l 400 750.324 l 450 779.191 l S
600 692.59 m 550 548.254 l 600 577.121 l 600 519.383 l S
450 432.781 m 350 548.254 l 350 490.516 l 300 519.383 l S
450 432.781 m 600 461.648 l 550 490.516 l 600 519.383 l S
750 432.781 m 700 288.445 l 750 317.312 l 750 259.578 l S
600 172.973 m 500 288.445 l 500 230.711 l 450 259.578 l S
600 172.973 m 750 201.844 l 700 230.711 l 750 259.578 l S
900 172.973 m 850 28.637 l 900 57.504 l 900 -0.23 l S
750 -86.832 m 650 28.637 l 650 -29.098 l 600 -0.23 l S
450 952.398 m 600 981.266 l 550 1010.133 l 600 1039 l S
750 952.398 m 700 808.059 l 750 836.926 l 750 779.191 l S
600 692.59 m 500 808.059 l 500 750.324 l 450 779.191 l S
600 692.59 m 750 721.457 l 700 750.324 l 750 779.191 l S
900 692.59 m 850 548.254 l 900 577.121 l 900 519.383 l S
750 432.781 m 650 548.254 l 650 490.516 l 600 519.383 l S
750 432.781 m 900 461.648 l 850 490.516 l 900 519.383 l S
1050 432.781 m 1000 288.445 l 1050 317.312 l 1050 259.578 l S
900 172.973 m 800 288.445 l 800 230.711 l 750 259.578 l S
900 172.973 m 1050 201.844 l 1000 230.711 l 1050 259.578 l S
1200 172.973 m 1150 28.637 l 1200 57.504 l 1200 -0.23 l S
1050 -86.832 m 950 28.637 l 950 -29.098 l 900 -0.23 l S
750 952.398 m 900 981.266 l 850 1010.133 l 900 1039 l S
1050 952.398 m 1000 808.059 l 1050 836.926 l 1050 779.191 l S
900 692.59 m 800 808.059 l 800 750.324 l 750 779.191 l S
900 692.59 m 1050 721.457 l 1000 750.324 l 1050 779.191 l S
1200 692.59 m 1150 548.254 l 1200 577.121 l 1200 519.383 l S
1050 432.781 m 950 548.254 l 950 490.516 l 900 519.383 l S
1050 432.781 m 1200 461.648 l 1150 490.516 l 1200 519.383 l S
1200 172.973 m 1100 288.445 l 1100 230.711 l 1050 259.578 l S
1200 172.973 m 1350 201.844 l 1300 230.711 l 1350 259.578 l S
1350 -86.832 m 1250 28.637 l 1250 -29.098 l 1200 -0.23 l S
1050 952.398 m 1200 981.266 l 1150 1010.133 l 1200 1039 l S
1200 692.59 m 1100 808.059 l 1100 750.324 l 1050 779.191 l S
1200 692.59 m 1350 721.457 l 1300 750.324 l 1350 779.191 l S
1350 432.781 m 1250 548.254 l 1250 490.516 l 1200 519.383 l S
Q Q
showpage
%%Trailer
%%Trailer
cleartomark
countdictstack
exch sub { end } repeat
restore
%%EOF
