%!PS-Adobe-2.0 EPSF-2.0
%%BoundingBox: 0 0 1200 1039
%%HiResBoundingBox: 0.000000 0.000000 1200.000000 1039.000000
%%Creator: cairo 1.14.2 (http://cairographics.org)
%%CreationDate: Mon Sep  7 08:21:48 2015
%%DocumentData: Clean7Bit
%%LanguageLevel: 2
%%DocumentMedia: 423x367mm 1200 1039 0 () ()
%%EndComments
% EPSF created by ps2eps 1.68
%%BeginProlog
save
countdictstack
mark
newpath
/showpage {} def
/setpagedevice {pop} def
%%EndProlog
%%Page 1 1
%%BeginProlog
/languagelevel where
{ pop languagelevel } { 1 } ifelse
2 lt { /Helvetica findfont 12 scalefont setfont 50 500 moveto
  (This print job requires a PostScript Language Level 2 printer.) show
  showpage quit } if
/q { gsave } bind def
/Q { grestore } bind def
/cm { 6 array astore concat } bind def
/w { setlinewidth } bind def
/J { setlinecap } bind def
/j { setlinejoin } bind def
/M { setmiterlimit } bind def
/d { setdash } bind def
/m { moveto } bind def
/l { lineto } bind def
/c { curveto } bind def
/h { closepath } bind def
/re { exch dup neg 3 1 roll 5 3 roll moveto 0 rlineto
      0 exch rlineto 0 rlineto closepath } bind def
/S { stroke } bind def
/f { fill } bind def
/f* { eofill } bind def
/n { newpath } bind def
/W { clip } bind def
/W* { eoclip } bind def
/BT { } bind def
/ET { } bind def
/pdfmark where { pop globaldict /?pdfmark /exec load put }
    { globaldict begin /?pdfmark /pop load def /pdfmark
    /cleartomark load def end } ifelse
/BDC { mark 3 1 roll /BDC pdfmark } bind def
/EMC { mark /EMC pdfmark } bind def
/cairo_store_point { /cairo_point_y exch def /cairo_point_x exch def } def
/Tj { show currentpoint cairo_store_point } bind def
/TJ {
  {
    dup
    type /stringtype eq
    { show } { -0.001 mul 0 cairo_font_matrix dtransform rmoveto } ifelse
  } forall
  currentpoint cairo_store_point
} bind def
/cairo_selectfont { cairo_font_matrix aload pop pop pop 0 0 6 array astore
    cairo_font exch selectfont cairo_point_x cairo_point_y moveto } bind def
/Tf { pop /cairo_font exch def /cairo_font_matrix where
      { pop cairo_selectfont } if } bind def
/Td { matrix translate cairo_font_matrix matrix concatmatrix dup
      /cairo_font_matrix exch def dup 4 get exch 5 get cairo_store_point
      /cairo_font where { pop cairo_selectfont } if } bind def
/Tm { 2 copy 8 2 roll 6 array astore /cairo_font_matrix exch def
      cairo_store_point /cairo_font where { pop cairo_selectfont } if } bind def
/g { setgray } bind def
/rg { setrgbcolor } bind def
/d1 { setcachedevice } bind def
/cairo_set_page_size {
  % Change paper size, but only if different from previous paper size otherwise
  % duplex fails. PLRM specifies a tolerance of 5 pts when matching paper size
  % so we use the same when checking if the size changes.
  /setpagedevice where {
    pop currentpagedevice
    /PageSize known {
      2 copy
      currentpagedevice /PageSize get aload pop
      exch 4 1 roll
      sub abs 5 gt
      3 1 roll
      sub abs 5 gt
      or
    } {
      true
    } ifelse
    {
      2 array astore
      2 dict begin
        /PageSize exch def
        /ImagingBBox null def
      currentdict end
      setpagedevice
    } {
      pop pop
    } ifelse
  } {
    pop
  } ifelse
} def
%%EndProlog
%%BeginSetup
%%EndSetup
%%Page: 1 1
%%BeginPageSetup
%%PageMedia: 423x367mm
%%PageBoundingBox: 0 0 1200 1039
1200 1039 cairo_set_page_size
%%EndPageSetup
q 0 0 1200 1039 rectclip q
0.984314 g
0 0 1200 1039 rectfill
0.788235 g
1.875 w
0 J
1 j
[] 0.0 d
4 M 0 1039 1200 -1039.23 re S
0 g
2.5 w
1 J
0 346.18 m -33.332 403.914 -66.668 403.914 -100 346.18 c S
0 172.973 m 66.668 172.973 83.332 144.105 50 86.371 c S
150 86.371 m 116.668 144.105 83.332 144.105 50 86.371 c S
0 172.973 m -33.332 115.238 -66.668 115.238 -100 172.973 c S
0 172.973 m -33.332 230.711 -16.668 259.578 50 259.578 c S
0 346.18 m -33.332 288.445 -16.668 259.578 50 259.578 c S
0 865.793 m -33.332 923.531 -66.668 923.531 -100 865.793 c S
0 692.59 m 66.668 692.59 83.332 663.723 50 605.988 c S
150 605.988 m 116.668 663.723 83.332 663.723 50 605.988 c S
0 692.59 m -33.332 634.855 -66.668 634.855 -100 692.59 c S
0 692.59 m -33.332 750.324 -16.668 779.191 50 779.191 c S
0 865.793 m -33.332 808.059 -16.668 779.191 50 779.191 c S
150 432.781 m 216.668 432.781 233.332 403.914 200 346.18 c S
300 346.18 m 266.668 403.914 233.332 403.914 200 346.18 c S
150 432.781 m 116.668 375.047 83.332 375.047 50 432.781 c S
150 432.781 m 116.668 490.516 133.332 519.383 200 519.383 c S
0 346.18 m 66.668 346.18 83.332 375.047 50 432.781 c S
150 605.988 m 116.668 548.254 133.332 519.383 200 519.383 c S
300 172.973 m 366.668 172.973 383.332 144.105 350 86.371 c S
450 86.371 m 416.668 144.105 383.332 144.105 350 86.371 c S
300 172.973 m 266.668 115.238 233.332 115.238 200 172.973 c S
300 172.973 m 266.668 230.711 283.332 259.578 350 259.578 c S
150 86.371 m 216.668 86.371 233.332 115.238 200 172.973 c S
300 346.18 m 266.668 288.445 283.332 259.578 350 259.578 c S
150 952.398 m 216.668 952.398 233.332 923.531 200 865.793 c S
300 865.793 m 266.668 923.531 233.332 923.531 200 865.793 c S
150 952.398 m 116.668 894.664 83.332 894.664 50 952.398 c S
150 952.398 m 116.668 1010.133 133.332 1039 200 1039 c S
0 865.793 m 66.668 865.793 83.332 894.664 50 952.398 c S
150 1125.602 m 116.668 1067.867 133.332 1039 200 1039 c S
300 692.59 m 366.668 692.59 383.332 663.723 350 605.988 c S
450 605.988 m 416.668 663.723 383.332 663.723 350 605.988 c S
300 692.59 m 266.668 634.855 233.332 634.855 200 692.59 c S
300 692.59 m 266.668 750.324 283.332 779.191 350 779.191 c S
150 605.988 m 216.668 605.988 233.332 634.855 200 692.59 c S
300 865.793 m 266.668 808.059 283.332 779.191 350 779.191 c S
450 432.781 m 516.668 432.781 533.332 403.914 500 346.18 c S
600 346.18 m 566.668 403.914 533.332 403.914 500 346.18 c S
450 432.781 m 416.668 375.047 383.332 375.047 350 432.781 c S
450 432.781 m 416.668 490.516 433.332 519.383 500 519.383 c S
300 346.18 m 366.668 346.18 383.332 375.047 350 432.781 c S
450 605.988 m 416.668 548.254 433.332 519.383 500 519.383 c S
600 172.973 m 666.668 172.973 683.332 144.105 650 86.371 c S
750 86.371 m 716.668 144.105 683.332 144.105 650 86.371 c S
600 172.973 m 566.668 115.238 533.332 115.238 500 172.973 c S
600 172.973 m 566.668 230.711 583.332 259.578 650 259.578 c S
450 86.371 m 516.668 86.371 533.332 115.238 500 172.973 c S
600 346.18 m 566.668 288.445 583.332 259.578 650 259.578 c S
450 952.398 m 516.668 952.398 533.332 923.531 500 865.793 c S
600 865.793 m 566.668 923.531 533.332 923.531 500 865.793 c S
450 952.398 m 416.668 894.664 383.332 894.664 350 952.398 c S
450 952.398 m 416.668 1010.133 433.332 1039 500 1039 c S
300 865.793 m 366.668 865.793 383.332 894.664 350 952.398 c S
450 1125.602 m 416.668 1067.867 433.332 1039 500 1039 c S
600 692.59 m 666.668 692.59 683.332 663.723 650 605.988 c S
750 605.988 m 716.668 663.723 683.332 663.723 650 605.988 c S
600 692.59 m 566.668 634.855 533.332 634.855 500 692.59 c S
600 692.59 m 566.668 750.324 583.332 779.191 650 779.191 c S
450 605.988 m 516.668 605.988 533.332 634.855 500 692.59 c S
600 865.793 m 566.668 808.059 583.332 779.191 650 779.191 c S
750 432.781 m 816.668 432.781 833.332 403.914 800 346.18 c S
900 346.18 m 866.668 403.914 833.332 403.914 800 346.18 c S
750 432.781 m 716.668 375.047 683.332 375.047 650 432.781 c S
750 432.781 m 716.668 490.516 733.332 519.383 800 519.383 c S
600 346.18 m 666.668 346.18 683.332 375.047 650 432.781 c S
750 605.988 m 716.668 548.254 733.332 519.383 800 519.383 c S
900 172.973 m 966.668 172.973 983.332 144.105 950 86.371 c S
1050 86.371 m 1016.668 144.105 983.332 144.105 950 86.371 c S
900 172.973 m 866.668 115.238 833.332 115.238 800 172.973 c S
900 172.973 m 866.668 230.711 883.332 259.578 950 259.578 c S
750 86.371 m 816.668 86.371 833.332 115.238 800 172.973 c S
900 346.18 m 866.668 288.445 883.332 259.578 950 259.578 c S
750 952.398 m 816.668 952.398 833.332 923.531 800 865.793 c S
900 865.793 m 866.668 923.531 833.332 923.531 800 865.793 c S
750 952.398 m 716.668 894.664 683.332 894.664 650 952.398 c S
750 952.398 m 716.668 1010.133 733.332 1039 800 1039 c S
600 865.793 m 666.668 865.793 683.332 894.664 650 952.398 c S
750 1125.602 m 716.668 1067.867 733.332 1039 800 1039 c S
900 692.59 m 966.668 692.59 983.332 663.723 950 605.988 c S
1050 605.988 m 1016.668 663.723 983.332 663.723 950 605.988 c S
900 692.59 m 866.668 634.855 833.332 634.855 800 692.59 c S
900 692.59 m 866.668 750.324 883.332 779.191 950 779.191 c S
750 605.988 m 816.668 605.988 833.332 634.855 800 692.59 c S
900 865.793 m 866.668 808.059 883.332 779.191 950 779.191 c S
1050 432.781 m 1116.668 432.781 1133.332 403.914 1100 346.18 c S
1200 346.18 m 1166.668 403.914 1133.332 403.914 1100 346.18 c S
1050 432.781 m 1016.668 375.047 983.332 375.047 950 432.781 c S
1050 432.781 m 1016.668 490.516 1033.332 519.383 1100 519.383 c S
900 346.18 m 966.668 346.18 983.332 375.047 950 432.781 c S
1050 605.988 m 1016.668 548.254 1033.332 519.383 1100 519.383 c S
1200 172.973 m 1266.668 172.973 1283.332 144.105 1250 86.371 c S
1200 172.973 m 1166.668 115.238 1133.332 115.238 1100 172.973 c S
1200 172.973 m 1166.668 230.711 1183.332 259.578 1250 259.578 c S
1050 86.371 m 1116.668 86.371 1133.332 115.238 1100 172.973 c S
1200 346.18 m 1166.668 288.445 1183.332 259.578 1250 259.578 c S
1050 952.398 m 1116.668 952.398 1133.332 923.531 1100 865.793 c S
1200 865.793 m 1166.668 923.531 1133.332 923.531 1100 865.793 c S
1050 952.398 m 1016.668 894.664 983.332 894.664 950 952.398 c S
1050 952.398 m 1016.668 1010.133 1033.332 1039 1100 1039 c S
900 865.793 m 966.668 865.793 983.332 894.664 950 952.398 c S
1050 1125.602 m 1016.668 1067.867 1033.332 1039 1100 1039 c S
1200 692.59 m 1266.668 692.59 1283.332 663.723 1250 605.988 c S
1200 692.59 m 1166.668 634.855 1133.332 634.855 1100 692.59 c S
1200 692.59 m 1166.668 750.324 1183.332 779.191 1250 779.191 c S
1050 605.988 m 1116.668 605.988 1133.332 634.855 1100 692.59 c S
1200 865.793 m 1166.668 808.059 1183.332 779.191 1250 779.191 c S
1200 346.18 m 1266.668 346.18 1283.332 375.047 1250 432.781 c S
Q Q
showpage
%%Trailer
%%Trailer
cleartomark
countdictstack
exch sub { end } repeat
restore
%%EOF
