<svg xmlns="http://www.w3.org/2000/svg" baseProfile="full" width="1200" height="1039.23" viewBox="375.0000000000001 -129.9038105676658 1200.0 1039.2304845413264">
    <title>
        Pattern design from http://ornamentist.org
    </title>
    <desc>
        This file is licensed under a Creative Commons CC BY 4.0 license: http://creativecommons.org/licenses/by/4.0/
    </desc>
    <defs>
        <style>
<![CDATA[
        
polyline {
  fill:            none;
  stroke:          black;
  stroke-linecap:  round;
  stroke-linejoin: round;
  stroke-width:    2.0pt;
}


polyline.closed {
  fill:      #d9d9d9;
  fill-rule: evenodd;
}


polygon {
  fill:            #d9d9d9;
  fill-rule:       evenodd;
  stroke:          black;
  stroke-linejoin: round;
  stroke-width:    2.0pt;
}


circle {
  fill:         #d9d9d9;
  stroke:       black;
  stroke-width: 2.0pt;
}


ellipse {
  fill:         #d9d9d9;
  stroke:       black;
  stroke-width: 2.0pt;
}


path {
  fill:            none;
  stroke:          black;
  stroke-linecap:  round;
  stroke-linejoin: round;
  stroke-width:    2.0pt;
}


path.closed {
  fill:      #d9d9d9;
  fill-rule: evenodd;
}


polygon.background,
path.background
{
  fill:   #fbfbfb;
  stroke: #c9c9c9;
  stroke-width: 1.5pt;
}

        ]]>
        </style>
    </defs>
    <clipPath id="design">
        <path d="M375-129.904h1200v1039.23H375z"/>
    </clipPath>
    <g clip-path="url(#design)" color-rendering="optimizeQuality" shape-rendering="geometricPrecision" id="graphics">
        <path class="background closed" d="M1575-129.904v1039.23H375v-1039.23z"/>
        <path d="M-75-43.3q100 0 50 86.6M75 43.3q-50-86.6-100 0M-75-43.3q-50 86.6-100 0M-75-43.3q-50-86.604 50-86.604M-225 43.3q100 0 50-86.6M-75-216.506q-50 86.602 50 86.602M75 216.506q100 0 50 86.603M225 303.11q-50-86.604-100 0M75 216.506q-50 86.603-100 0M75 216.506q-50-86.602 50-86.602M-75 303.11q100 0 50-86.604M75 43.3q-50 86.604 50 86.604M225 476.314q100 0 50 86.603M375 562.917q-50-86.603-100 0M225 476.314q-50 86.603-100 0M225 476.314q-50-86.603 50-86.603M75 562.917q100 0 50-86.603M225 303.11q-50 86.6 50 86.6M375 736.122q100 0 50 86.602M525 822.724q-50-86.602-100 0M375 736.122q-50 86.602-100 0M375 736.122q-50-86.603 50-86.603M225 822.724q100 0 50-86.602M375 562.917q-50 86.602 50 86.602M225-43.3q100 0 50 86.6M375 43.3q-50-86.6-100 0M225-43.3q-50 86.6-100 0M225-43.3q-50-86.604 50-86.604M75 43.3q100 0 50-86.6M225-216.506q-50 86.602 50 86.602M375 216.506q100 0 50 86.603M525 303.11q-50-86.604-100 0M375 216.506q-50 86.603-100 0M375 216.506q-50-86.602 50-86.602M225 303.11q100 0 50-86.604M375 43.3q-50 86.604 50 86.604M525 476.314q100 0 50 86.603M675 562.917q-50-86.603-100 0M525 476.314q-50 86.603-100 0M525 476.314q-50-86.603 50-86.603M375 562.917q100 0 50-86.603M525 303.11q-50 86.6 50 86.6M675 736.122q100 0 50 86.602M825 822.724q-50-86.602-100 0M675 736.122q-50 86.602-100 0M675 736.122q-50-86.603 50-86.603M525 822.724q100 0 50-86.602M675 562.917q-50 86.602 50 86.602M525-43.3q100 0 50 86.6M675 43.3q-50-86.6-100 0M525-43.3q-50 86.6-100 0M525-43.3q-50-86.604 50-86.604M375 43.3q100 0 50-86.6M525-216.506q-50 86.602 50 86.602M675 216.506q100 0 50 86.603M825 303.11q-50-86.604-100 0M675 216.506q-50 86.603-100 0M675 216.506q-50-86.602 50-86.602M525 303.11q100 0 50-86.604M675 43.3q-50 86.604 50 86.604M825 476.314q100 0 50 86.603M975 562.917q-50-86.603-100 0M825 476.314q-50 86.603-100 0M825 476.314q-50-86.603 50-86.603M675 562.917q100 0 50-86.603M825 303.11q-50 86.6 50 86.6M975 736.122q100 0 50 86.602M1125 822.724q-50-86.602-100 0M975 736.122q-50 86.602-100 0M975 736.122q-50-86.603 50-86.603M825 822.724q100 0 50-86.602M975 562.917q-50 86.602 50 86.602M825-43.3q100 0 50 86.6M975 43.3q-50-86.6-100 0M825-43.3q-50 86.6-100 0M825-43.3q-50-86.604 50-86.604M675 43.3q100 0 50-86.6M825-216.506q-50 86.602 50 86.602M975 216.506q100 0 50 86.603M1125 303.11q-50-86.604-100 0M975 216.506q-50 86.603-100 0M975 216.506q-50-86.602 50-86.602M825 303.11q100 0 50-86.604M975 43.3q-50 86.604 50 86.604M1125 476.314q100 0 50 86.603M1275 562.917q-50-86.603-100 0M1125 476.314q-50 86.603-100 0M1125 476.314q-50-86.603 50-86.603M975 562.917q100 0 50-86.603M1125 303.11q-50 86.6 50 86.6M1275 736.122q100 0 50 86.602M1425 822.724q-50-86.602-100 0M1275 736.122q-50 86.602-100 0M1275 736.122q-50-86.603 50-86.603M1125 822.724q100 0 50-86.602M1275 562.917q-50 86.602 50 86.602M1125-43.3q100 0 50 86.6M1275 43.3q-50-86.6-100 0M1125-43.3q-50 86.6-100 0M1125-43.3q-50-86.604 50-86.604M975 43.3q100 0 50-86.6M1125-216.506q-50 86.602 50 86.602M1275 216.506q100 0 50 86.603M1425 303.11q-50-86.604-100 0M1275 216.506q-50 86.603-100 0M1275 216.506q-50-86.602 50-86.602M1125 303.11q100 0 50-86.604M1275 43.3q-50 86.604 50 86.604M1425 476.314q100 0 50 86.603M1575 562.917q-50-86.603-100 0M1425 476.314q-50 86.603-100 0M1425 476.314q-50-86.603 50-86.603M1275 562.917q100 0 50-86.603M1425 303.11q-50 86.6 50 86.6M1575 736.122q100 0 50 86.602M1725 822.724q-50-86.602-100 0M1575 736.122q-50 86.602-100 0M1575 736.122q-50-86.603 50-86.603M1425 822.724q100 0 50-86.602M1575 562.917q-50 86.602 50 86.602M1425-43.3q100 0 50 86.6M1575 43.3q-50-86.6-100 0M1425-43.3q-50 86.6-100 0M1425-43.3q-50-86.604 50-86.604M1275 43.3q100 0 50-86.6M1425-216.506q-50 86.602 50 86.602M1575 216.506q100 0 50 86.603M1725 303.11q-50-86.604-100 0M1575 216.506q-50 86.603-100 0M1575 216.506q-50-86.602 50-86.602M1425 303.11q100 0 50-86.604M1575 43.3q-50 86.604 50 86.604M1725 476.314q100 0 50 86.603M1875 562.917q-50-86.603-100 0M1725 476.314q-50 86.603-100 0M1725 476.314q-50-86.603 50-86.603M1575 562.917q100 0 50-86.603M1725 303.11q-50 86.6 50 86.6M1875 736.122q100 0 50 86.602M2025 822.724q-50-86.602-100 0M1875 736.122q-50 86.602-100 0M1875 736.122q-50-86.603 50-86.603M1725 822.724q100 0 50-86.602M1875 562.917q-50 86.602 50 86.602" class="bezier-2-1 open"/>
    </g>
</svg>
