%!PS-Adobe-2.0 EPSF-2.0
%%BoundingBox: 0 0 1200 1039
%%HiResBoundingBox: 0.000000 0.000000 1200.000000 1039.000000
%%Creator: cairo 1.14.2 (http://cairographics.org)
%%CreationDate: Mon Sep  7 08:21:48 2015
%%DocumentData: Clean7Bit
%%LanguageLevel: 2
%%DocumentMedia: 423x367mm 1200 1039 0 () ()
%%EndComments
% EPSF created by ps2eps 1.68
%%BeginProlog
save
countdictstack
mark
newpath
/showpage {} def
/setpagedevice {pop} def
%%EndProlog
%%Page 1 1
%%BeginProlog
/languagelevel where
{ pop languagelevel } { 1 } ifelse
2 lt { /Helvetica findfont 12 scalefont setfont 50 500 moveto
  (This print job requires a PostScript Language Level 2 printer.) show
  showpage quit } if
/q { gsave } bind def
/Q { grestore } bind def
/cm { 6 array astore concat } bind def
/w { setlinewidth } bind def
/J { setlinecap } bind def
/j { setlinejoin } bind def
/M { setmiterlimit } bind def
/d { setdash } bind def
/m { moveto } bind def
/l { lineto } bind def
/c { curveto } bind def
/h { closepath } bind def
/re { exch dup neg 3 1 roll 5 3 roll moveto 0 rlineto
      0 exch rlineto 0 rlineto closepath } bind def
/S { stroke } bind def
/f { fill } bind def
/f* { eofill } bind def
/n { newpath } bind def
/W { clip } bind def
/W* { eoclip } bind def
/BT { } bind def
/ET { } bind def
/pdfmark where { pop globaldict /?pdfmark /exec load put }
    { globaldict begin /?pdfmark /pop load def /pdfmark
    /cleartomark load def end } ifelse
/BDC { mark 3 1 roll /BDC pdfmark } bind def
/EMC { mark /EMC pdfmark } bind def
/cairo_store_point { /cairo_point_y exch def /cairo_point_x exch def } def
/Tj { show currentpoint cairo_store_point } bind def
/TJ {
  {
    dup
    type /stringtype eq
    { show } { -0.001 mul 0 cairo_font_matrix dtransform rmoveto } ifelse
  } forall
  currentpoint cairo_store_point
} bind def
/cairo_selectfont { cairo_font_matrix aload pop pop pop 0 0 6 array astore
    cairo_font exch selectfont cairo_point_x cairo_point_y moveto } bind def
/Tf { pop /cairo_font exch def /cairo_font_matrix where
      { pop cairo_selectfont } if } bind def
/Td { matrix translate cairo_font_matrix matrix concatmatrix dup
      /cairo_font_matrix exch def dup 4 get exch 5 get cairo_store_point
      /cairo_font where { pop cairo_selectfont } if } bind def
/Tm { 2 copy 8 2 roll 6 array astore /cairo_font_matrix exch def
      cairo_store_point /cairo_font where { pop cairo_selectfont } if } bind def
/g { setgray } bind def
/rg { setrgbcolor } bind def
/d1 { setcachedevice } bind def
/cairo_set_page_size {
  % Change paper size, but only if different from previous paper size otherwise
  % duplex fails. PLRM specifies a tolerance of 5 pts when matching paper size
  % so we use the same when checking if the size changes.
  /setpagedevice where {
    pop currentpagedevice
    /PageSize known {
      2 copy
      currentpagedevice /PageSize get aload pop
      exch 4 1 roll
      sub abs 5 gt
      3 1 roll
      sub abs 5 gt
      or
    } {
      true
    } ifelse
    {
      2 array astore
      2 dict begin
        /PageSize exch def
        /ImagingBBox null def
      currentdict end
      setpagedevice
    } {
      pop pop
    } ifelse
  } {
    pop
  } ifelse
} def
%%EndProlog
%%BeginSetup
%%EndSetup
%%Page: 1 1
%%BeginPageSetup
%%PageMedia: 423x367mm
%%PageBoundingBox: 0 0 1200 1039
1200 1039 cairo_set_page_size
%%EndPageSetup
q 0 0 1200 1039 rectclip q
0.984314 g
0 0 1200 1039 rectfill
0.788235 g
1.875 w
0 J
1 j
[] 0.0 d
4 M 0 1039 1200 -1039.23 re S
0 g
2.5 w
1 J
0 519.383 m 0 461.648 -25 447.215 -75 476.082 c S
0 519.383 m -50 548.254 -75 533.82 -75 476.082 c S
0 -0.23 m 50 28.637 50 57.504 0 86.371 c S
150 259.578 m 150 201.844 125 187.41 75 216.277 c S
150 259.578 m 100 288.445 75 274.012 75 216.277 c S
0 -0.23 m -50 28.637 -50 57.504 0 86.371 c S
0 1039 m 0 981.266 -25 966.832 -75 995.699 c S
0 1039 m -50 1067.867 -75 1053.434 -75 995.699 c S
0 519.383 m 50 548.254 50 577.121 0 605.988 c S
150 779.191 m 150 721.457 125 707.023 75 735.891 c S
150 779.191 m 100 808.059 75 793.625 75 735.891 c S
0 519.383 m -50 548.254 -50 577.121 0 605.988 c S
150 259.578 m 200 288.445 200 317.312 150 346.18 c S
300 519.383 m 300 461.648 275 447.215 225 476.082 c S
0 519.383 m 0 461.648 25 447.215 75 476.082 c S
300 519.383 m 250 548.254 225 533.82 225 476.082 c S
150 259.578 m 100 288.445 100 317.312 150 346.18 c S
0 519.383 m 50 548.254 75 533.82 75 476.082 c S
300 -0.23 m 350 28.637 350 57.504 300 86.371 c S
450 259.578 m 450 201.844 425 187.41 375 216.277 c S
150 259.578 m 150 201.844 175 187.41 225 216.277 c S
450 259.578 m 400 288.445 375 274.012 375 216.277 c S
300 -0.23 m 250 28.637 250 57.504 300 86.371 c S
150 259.578 m 200 288.445 225 274.012 225 216.277 c S
150 779.191 m 200 808.059 200 836.926 150 865.793 c S
300 1039 m 300 981.266 275 966.832 225 995.699 c S
0 1039 m 0 981.266 25 966.832 75 995.699 c S
300 1039 m 250 1067.867 225 1053.434 225 995.699 c S
150 779.191 m 100 808.059 100 836.926 150 865.793 c S
0 1039 m 50 1067.867 75 1053.434 75 995.699 c S
300 519.383 m 350 548.254 350 577.121 300 605.988 c S
450 779.191 m 450 721.457 425 707.023 375 735.891 c S
150 779.191 m 150 721.457 175 707.023 225 735.891 c S
450 779.191 m 400 808.059 375 793.625 375 735.891 c S
300 519.383 m 250 548.254 250 577.121 300 605.988 c S
150 779.191 m 200 808.059 225 793.625 225 735.891 c S
450 259.578 m 500 288.445 500 317.312 450 346.18 c S
600 519.383 m 600 461.648 575 447.215 525 476.082 c S
300 519.383 m 300 461.648 325 447.215 375 476.082 c S
600 519.383 m 550 548.254 525 533.82 525 476.082 c S
450 259.578 m 400 288.445 400 317.312 450 346.18 c S
300 519.383 m 350 548.254 375 533.82 375 476.082 c S
600 -0.23 m 650 28.637 650 57.504 600 86.371 c S
750 259.578 m 750 201.844 725 187.41 675 216.277 c S
450 259.578 m 450 201.844 475 187.41 525 216.277 c S
750 259.578 m 700 288.445 675 274.012 675 216.277 c S
600 -0.23 m 550 28.637 550 57.504 600 86.371 c S
450 259.578 m 500 288.445 525 274.012 525 216.277 c S
450 779.191 m 500 808.059 500 836.926 450 865.793 c S
600 1039 m 600 981.266 575 966.832 525 995.699 c S
300 1039 m 300 981.266 325 966.832 375 995.699 c S
600 1039 m 550 1067.867 525 1053.434 525 995.699 c S
450 779.191 m 400 808.059 400 836.926 450 865.793 c S
300 1039 m 350 1067.867 375 1053.434 375 995.699 c S
600 519.383 m 650 548.254 650 577.121 600 605.988 c S
750 779.191 m 750 721.457 725 707.023 675 735.891 c S
450 779.191 m 450 721.457 475 707.023 525 735.891 c S
750 779.191 m 700 808.059 675 793.625 675 735.891 c S
600 519.383 m 550 548.254 550 577.121 600 605.988 c S
450 779.191 m 500 808.059 525 793.625 525 735.891 c S
750 259.578 m 800 288.445 800 317.312 750 346.18 c S
900 519.383 m 900 461.648 875 447.215 825 476.082 c S
600 519.383 m 600 461.648 625 447.215 675 476.082 c S
900 519.383 m 850 548.254 825 533.82 825 476.082 c S
750 259.578 m 700 288.445 700 317.312 750 346.18 c S
600 519.383 m 650 548.254 675 533.82 675 476.082 c S
900 -0.23 m 950 28.637 950 57.504 900 86.371 c S
1050 259.578 m 1050 201.844 1025 187.41 975 216.277 c S
750 259.578 m 750 201.844 775 187.41 825 216.277 c S
1050 259.578 m 1000 288.445 975 274.012 975 216.277 c S
900 -0.23 m 850 28.637 850 57.504 900 86.371 c S
750 259.578 m 800 288.445 825 274.012 825 216.277 c S
750 779.191 m 800 808.059 800 836.926 750 865.793 c S
900 1039 m 900 981.266 875 966.832 825 995.699 c S
600 1039 m 600 981.266 625 966.832 675 995.699 c S
900 1039 m 850 1067.867 825 1053.434 825 995.699 c S
750 779.191 m 700 808.059 700 836.926 750 865.793 c S
600 1039 m 650 1067.867 675 1053.434 675 995.699 c S
900 519.383 m 950 548.254 950 577.121 900 605.988 c S
1050 779.191 m 1050 721.457 1025 707.023 975 735.891 c S
750 779.191 m 750 721.457 775 707.023 825 735.891 c S
1050 779.191 m 1000 808.059 975 793.625 975 735.891 c S
900 519.383 m 850 548.254 850 577.121 900 605.988 c S
750 779.191 m 800 808.059 825 793.625 825 735.891 c S
1050 259.578 m 1100 288.445 1100 317.312 1050 346.18 c S
1200 519.383 m 1200 461.648 1175 447.215 1125 476.082 c S
900 519.383 m 900 461.648 925 447.215 975 476.082 c S
1200 519.383 m 1150 548.254 1125 533.82 1125 476.082 c S
1050 259.578 m 1000 288.445 1000 317.312 1050 346.18 c S
900 519.383 m 950 548.254 975 533.82 975 476.082 c S
1200 -0.23 m 1250 28.637 1250 57.504 1200 86.371 c S
1050 259.578 m 1050 201.844 1075 187.41 1125 216.277 c S
1200 -0.23 m 1150 28.637 1150 57.504 1200 86.371 c S
1050 259.578 m 1100 288.445 1125 274.012 1125 216.277 c S
1050 779.191 m 1100 808.059 1100 836.926 1050 865.793 c S
1200 1039 m 1200 981.266 1175 966.832 1125 995.699 c S
900 1039 m 900 981.266 925 966.832 975 995.699 c S
1200 1039 m 1150 1067.867 1125 1053.434 1125 995.699 c S
1050 779.191 m 1000 808.059 1000 836.926 1050 865.793 c S
900 1039 m 950 1067.867 975 1053.434 975 995.699 c S
1200 519.383 m 1250 548.254 1250 577.121 1200 605.988 c S
1050 779.191 m 1050 721.457 1075 707.023 1125 735.891 c S
1200 519.383 m 1150 548.254 1150 577.121 1200 605.988 c S
1050 779.191 m 1100 808.059 1125 793.625 1125 735.891 c S
1200 519.383 m 1200 461.648 1225 447.215 1275 476.082 c S
1200 519.383 m 1250 548.254 1275 533.82 1275 476.082 c S
Q Q
showpage
%%Trailer
%%Trailer
cleartomark
countdictstack
exch sub { end } repeat
restore
%%EOF
