<svg xmlns="http://www.w3.org/2000/svg" baseProfile="full" width="1200" height="1039.23" viewBox="375.0000000000001 -129.9038105676658 1200.0 1039.2304845413264">
    <title>
        Pattern design from http://ornamentist.org
    </title>
    <desc>
        This file is licensed under a Creative Commons CC BY 4.0 license: http://creativecommons.org/licenses/by/4.0/
    </desc>
    <defs>
        <style>
<![CDATA[
        
polyline {
  fill:            none;
  stroke:          black;
  stroke-linecap:  round;
  stroke-linejoin: round;
  stroke-width:    2.0pt;
}


polyline.closed {
  fill:      #d9d9d9;
  fill-rule: evenodd;
}


polygon {
  fill:            #d9d9d9;
  fill-rule:       evenodd;
  stroke:          black;
  stroke-linejoin: round;
  stroke-width:    2.0pt;
}


circle {
  fill:         #d9d9d9;
  stroke:       black;
  stroke-width: 2.0pt;
}


ellipse {
  fill:         #d9d9d9;
  stroke:       black;
  stroke-width: 2.0pt;
}


path {
  fill:            none;
  stroke:          black;
  stroke-linecap:  round;
  stroke-linejoin: round;
  stroke-width:    2.0pt;
}


path.closed {
  fill:      #d9d9d9;
  fill-rule: evenodd;
}


polygon.background,
path.background
{
  fill:   #fbfbfb;
  stroke: #c9c9c9;
  stroke-width: 1.5pt;
}

        ]]>
        </style>
    </defs>
    <clipPath id="design">
        <path d="M375-129.904h1200v1039.23H375z"/>
    </clipPath>
    <g clip-path="url(#design)" color-rendering="optimizeQuality" shape-rendering="geometricPrecision" id="graphics">
        <path class="background closed" d="M1575-129.904v1039.23H375v-1039.23z"/>
        <path d="M75 43.3L25 14.435V72.17" class="polyline-3-1 open"/>
        <path d="M75 43.3L25 14.435l50-28.868M-225 43.3l50-28.866-50-28.868M-75-216.506v57.735l50-28.87M-225 43.3l50-28.866V72.17M-75-216.506v57.735l-50-28.87M225 303.11l-50-28.87v57.736" class="polyline-3-1 open"/>
        <path d="M225 303.11l-50-28.87 50-28.866M-75 303.11l50-28.87-50-28.866M75 43.3v57.736l50-28.867M-75 303.11l50-28.87v57.736M75 43.3v57.736L25 72.17M375 562.917l-50-28.868v57.734" class="polyline-3-1 open"/>
        <path d="M375 562.917l-50-28.868 50-28.87M75 562.917l50-28.868-50-28.87M225 303.11v57.734l50-28.868M75 562.917l50-28.868v57.734M225 303.11v57.734l-50-28.868M525 822.724l-50-28.867v57.735" class="polyline-3-1 open"/>
        <path d="M525 822.724l-50-28.867 50-28.868M225 822.724l50-28.867-50-28.868M375 562.917v57.735l50-28.868M225 822.724l50-28.867v57.735M375 562.917v57.735l-50-28.868M375 43.3l-50-28.866V72.17" class="polyline-3-1 open"/>
        <path d="M375 43.3l-50-28.866 50-28.868M75 43.3l50-28.866-50-28.868M225-216.506v57.735l50-28.87M75 43.3l50-28.866V72.17M225-216.506v57.735l-50-28.87M525 303.11l-50-28.87v57.736" class="polyline-3-1 open"/>
        <path d="M525 303.11l-50-28.87 50-28.866M225 303.11l50-28.87-50-28.866M375 43.3v57.736l50-28.867M225 303.11l50-28.87v57.736M375 43.3v57.736L325 72.17M675 562.917l-50-28.868v57.734" class="polyline-3-1 open"/>
        <path d="M675 562.917l-50-28.868 50-28.87M375 562.917l50-28.868-50-28.87M525 303.11v57.734l50-28.868M375 562.917l50-28.868v57.734M525 303.11v57.734l-50-28.868M825 822.724l-50-28.867v57.735" class="polyline-3-1 open"/>
        <path d="M825 822.724l-50-28.867 50-28.868M525 822.724l50-28.867-50-28.868M675 562.917v57.735l50-28.868M525 822.724l50-28.867v57.735M675 562.917v57.735l-50-28.868M675 43.3l-50-28.866V72.17" class="polyline-3-1 open"/>
        <path d="M675 43.3l-50-28.866 50-28.868M375 43.3l50-28.866-50-28.868M525-216.506v57.735l50-28.87M375 43.3l50-28.866V72.17M525-216.506v57.735l-50-28.87M825 303.11l-50-28.87v57.736" class="polyline-3-1 open"/>
        <path d="M825 303.11l-50-28.87 50-28.866M525 303.11l50-28.87-50-28.866M675 43.3v57.736l50-28.867M525 303.11l50-28.87v57.736M675 43.3v57.736L625 72.17M975 562.917l-50-28.868v57.734" class="polyline-3-1 open"/>
        <path d="M975 562.917l-50-28.868 50-28.87M675 562.917l50-28.868-50-28.87M825 303.11v57.734l50-28.868M675 562.917l50-28.868v57.734M825 303.11v57.734l-50-28.868M1125 822.724l-50-28.867v57.735" class="polyline-3-1 open"/>
        <path d="M1125 822.724l-50-28.867 50-28.868M825 822.724l50-28.867-50-28.868M975 562.917v57.735l50-28.868M825 822.724l50-28.867v57.735M975 562.917v57.735l-50-28.868M975 43.3l-50-28.866V72.17" class="polyline-3-1 open"/>
        <path d="M975 43.3l-50-28.866 50-28.868M675 43.3l50-28.866-50-28.868M825-216.506v57.735l50-28.87M675 43.3l50-28.866V72.17M825-216.506v57.735l-50-28.87M1125 303.11l-50-28.87v57.736" class="polyline-3-1 open"/>
        <path d="M1125 303.11l-50-28.87 50-28.866M825 303.11l50-28.87-50-28.866M975 43.3v57.736l50-28.867M825 303.11l50-28.87v57.736M975 43.3v57.736L925 72.17M1275 562.917l-50-28.868v57.734" class="polyline-3-1 open"/>
        <path d="M1275 562.917l-50-28.868 50-28.87M975 562.917l50-28.868-50-28.87M1125 303.11v57.734l50-28.868M975 562.917l50-28.868v57.734M1125 303.11v57.734l-50-28.868M1425 822.724l-50-28.867v57.735" class="polyline-3-1 open"/>
        <path d="M1425 822.724l-50-28.867 50-28.868M1125 822.724l50-28.867-50-28.868M1275 562.917v57.735l50-28.868M1125 822.724l50-28.867v57.735M1275 562.917v57.735l-50-28.868M1275 43.3l-50-28.866V72.17" class="polyline-3-1 open"/>
        <path d="M1275 43.3l-50-28.866 50-28.868M975 43.3l50-28.866-50-28.868M1125-216.506v57.735l50-28.87M975 43.3l50-28.866V72.17M1125-216.506v57.735l-50-28.87M1425 303.11l-50-28.87v57.736" class="polyline-3-1 open"/>
        <path d="M1425 303.11l-50-28.87 50-28.866M1125 303.11l50-28.87-50-28.866M1275 43.3v57.736l50-28.867M1125 303.11l50-28.87v57.736M1275 43.3v57.736l-50-28.867M1575 562.917l-50-28.868v57.734" class="polyline-3-1 open"/>
        <path d="M1575 562.917l-50-28.868 50-28.87M1275 562.917l50-28.868-50-28.87M1425 303.11v57.734l50-28.868M1275 562.917l50-28.868v57.734M1425 303.11v57.734l-50-28.868M1725 822.724l-50-28.867v57.735" class="polyline-3-1 open"/>
        <path d="M1725 822.724l-50-28.867 50-28.868M1425 822.724l50-28.867-50-28.868M1575 562.917v57.735l50-28.868M1425 822.724l50-28.867v57.735M1575 562.917v57.735l-50-28.868M1575 43.3l-50-28.866V72.17" class="polyline-3-1 open"/>
        <path d="M1575 43.3l-50-28.866 50-28.868M1275 43.3l50-28.866-50-28.868M1425-216.506v57.735l50-28.87M1275 43.3l50-28.866V72.17M1425-216.506v57.735l-50-28.87M1725 303.11l-50-28.87v57.736" class="polyline-3-1 open"/>
        <path d="M1725 303.11l-50-28.87 50-28.866M1425 303.11l50-28.87-50-28.866M1575 43.3v57.736l50-28.867M1425 303.11l50-28.87v57.736M1575 43.3v57.736l-50-28.867M1875 562.917l-50-28.868v57.734" class="polyline-3-1 open"/>
        <path d="M1875 562.917l-50-28.868 50-28.87M1575 562.917l50-28.868-50-28.87M1725 303.11v57.734l50-28.868M1575 562.917l50-28.868v57.734M1725 303.11v57.734l-50-28.868M2025 822.724l-50-28.867v57.735" class="polyline-3-1 open"/>
        <path d="M2025 822.724l-50-28.867 50-28.868M1725 822.724l50-28.867-50-28.868M1875 562.917v57.735l50-28.868M1725 822.724l50-28.867v57.735M1875 562.917v57.735l-50-28.868" class="polyline-3-1 open"/>
    </g>
</svg>
