%!PS-Adobe-2.0 EPSF-2.0
%%BoundingBox: 0 0 1200 1039
%%HiResBoundingBox: 0.000000 0.000000 1200.000000 1039.000000
%%Creator: cairo 1.14.2 (http://cairographics.org)
%%CreationDate: Mon Sep  7 08:21:48 2015
%%DocumentData: Clean7Bit
%%LanguageLevel: 2
%%DocumentMedia: 423x367mm 1200 1039 0 () ()
%%EndComments
% EPSF created by ps2eps 1.68
%%BeginProlog
save
countdictstack
mark
newpath
/showpage {} def
/setpagedevice {pop} def
%%EndProlog
%%Page 1 1
%%BeginProlog
/languagelevel where
{ pop languagelevel } { 1 } ifelse
2 lt { /Helvetica findfont 12 scalefont setfont 50 500 moveto
  (This print job requires a PostScript Language Level 2 printer.) show
  showpage quit } if
/q { gsave } bind def
/Q { grestore } bind def
/cm { 6 array astore concat } bind def
/w { setlinewidth } bind def
/J { setlinecap } bind def
/j { setlinejoin } bind def
/M { setmiterlimit } bind def
/d { setdash } bind def
/m { moveto } bind def
/l { lineto } bind def
/c { curveto } bind def
/h { closepath } bind def
/re { exch dup neg 3 1 roll 5 3 roll moveto 0 rlineto
      0 exch rlineto 0 rlineto closepath } bind def
/S { stroke } bind def
/f { fill } bind def
/f* { eofill } bind def
/n { newpath } bind def
/W { clip } bind def
/W* { eoclip } bind def
/BT { } bind def
/ET { } bind def
/pdfmark where { pop globaldict /?pdfmark /exec load put }
    { globaldict begin /?pdfmark /pop load def /pdfmark
    /cleartomark load def end } ifelse
/BDC { mark 3 1 roll /BDC pdfmark } bind def
/EMC { mark /EMC pdfmark } bind def
/cairo_store_point { /cairo_point_y exch def /cairo_point_x exch def } def
/Tj { show currentpoint cairo_store_point } bind def
/TJ {
  {
    dup
    type /stringtype eq
    { show } { -0.001 mul 0 cairo_font_matrix dtransform rmoveto } ifelse
  } forall
  currentpoint cairo_store_point
} bind def
/cairo_selectfont { cairo_font_matrix aload pop pop pop 0 0 6 array astore
    cairo_font exch selectfont cairo_point_x cairo_point_y moveto } bind def
/Tf { pop /cairo_font exch def /cairo_font_matrix where
      { pop cairo_selectfont } if } bind def
/Td { matrix translate cairo_font_matrix matrix concatmatrix dup
      /cairo_font_matrix exch def dup 4 get exch 5 get cairo_store_point
      /cairo_font where { pop cairo_selectfont } if } bind def
/Tm { 2 copy 8 2 roll 6 array astore /cairo_font_matrix exch def
      cairo_store_point /cairo_font where { pop cairo_selectfont } if } bind def
/g { setgray } bind def
/rg { setrgbcolor } bind def
/d1 { setcachedevice } bind def
/cairo_set_page_size {
  % Change paper size, but only if different from previous paper size otherwise
  % duplex fails. PLRM specifies a tolerance of 5 pts when matching paper size
  % so we use the same when checking if the size changes.
  /setpagedevice where {
    pop currentpagedevice
    /PageSize known {
      2 copy
      currentpagedevice /PageSize get aload pop
      exch 4 1 roll
      sub abs 5 gt
      3 1 roll
      sub abs 5 gt
      or
    } {
      true
    } ifelse
    {
      2 array astore
      2 dict begin
        /PageSize exch def
        /ImagingBBox null def
      currentdict end
      setpagedevice
    } {
      pop pop
    } ifelse
  } {
    pop
  } ifelse
} def
%%EndProlog
%%BeginSetup
%%EndSetup
%%Page: 1 1
%%BeginPageSetup
%%PageMedia: 423x367mm
%%PageBoundingBox: 0 0 1200 1039
1200 1039 cairo_set_page_size
%%EndPageSetup
q 0 0 1200 1039 rectclip q
0.984314 g
0 0 1200 1039 rectfill
0.788235 g
1.875 w
0 J
1 j
[] 0.0 d
4 M 0 1039 1200 -1039.23 re S
0 g
2.5 w
1 J
0 346.18 m -50 375.047 l -50 317.312 l S
0 346.18 m -50 375.047 l 0 403.914 l S
150 86.371 m 100 115.238 l 100 57.504 l S
150 86.371 m 100 115.238 l 150 144.105 l S
0 346.18 m 0 288.445 l 50 317.312 l S
0 346.18 m 0 288.445 l -50 317.312 l S
0 865.793 m -50 894.664 l -50 836.926 l S
0 865.793 m -50 894.664 l 0 923.531 l S
150 605.988 m 100 634.855 l 100 577.121 l S
150 605.988 m 100 634.855 l 150 663.723 l S
0 865.793 m 0 808.059 l 50 836.926 l S
0 865.793 m 0 808.059 l -50 836.926 l S
300 346.18 m 250 375.047 l 250 317.312 l S
300 346.18 m 250 375.047 l 300 403.914 l S
0 346.18 m 50 375.047 l 0 403.914 l S
150 605.988 m 150 548.254 l 200 577.121 l S
0 346.18 m 50 375.047 l 50 317.312 l S
150 605.988 m 150 548.254 l 100 577.121 l S
450 86.371 m 400 115.238 l 400 57.504 l S
450 86.371 m 400 115.238 l 450 144.105 l S
150 86.371 m 200 115.238 l 150 144.105 l S
300 346.18 m 300 288.445 l 350 317.312 l S
150 86.371 m 200 115.238 l 200 57.504 l S
300 346.18 m 300 288.445 l 250 317.312 l S
300 865.793 m 250 894.664 l 250 836.926 l S
300 865.793 m 250 894.664 l 300 923.531 l S
0 865.793 m 50 894.664 l 0 923.531 l S
0 865.793 m 50 894.664 l 50 836.926 l S
450 605.988 m 400 634.855 l 400 577.121 l S
450 605.988 m 400 634.855 l 450 663.723 l S
150 605.988 m 200 634.855 l 150 663.723 l S
300 865.793 m 300 808.059 l 350 836.926 l S
150 605.988 m 200 634.855 l 200 577.121 l S
300 865.793 m 300 808.059 l 250 836.926 l S
600 346.18 m 550 375.047 l 550 317.312 l S
600 346.18 m 550 375.047 l 600 403.914 l S
300 346.18 m 350 375.047 l 300 403.914 l S
450 605.988 m 450 548.254 l 500 577.121 l S
300 346.18 m 350 375.047 l 350 317.312 l S
450 605.988 m 450 548.254 l 400 577.121 l S
750 86.371 m 700 115.238 l 700 57.504 l S
750 86.371 m 700 115.238 l 750 144.105 l S
450 86.371 m 500 115.238 l 450 144.105 l S
600 346.18 m 600 288.445 l 650 317.312 l S
450 86.371 m 500 115.238 l 500 57.504 l S
600 346.18 m 600 288.445 l 550 317.312 l S
600 865.793 m 550 894.664 l 550 836.926 l S
600 865.793 m 550 894.664 l 600 923.531 l S
300 865.793 m 350 894.664 l 300 923.531 l S
300 865.793 m 350 894.664 l 350 836.926 l S
750 605.988 m 700 634.855 l 700 577.121 l S
750 605.988 m 700 634.855 l 750 663.723 l S
450 605.988 m 500 634.855 l 450 663.723 l S
600 865.793 m 600 808.059 l 650 836.926 l S
450 605.988 m 500 634.855 l 500 577.121 l S
600 865.793 m 600 808.059 l 550 836.926 l S
900 346.18 m 850 375.047 l 850 317.312 l S
900 346.18 m 850 375.047 l 900 403.914 l S
600 346.18 m 650 375.047 l 600 403.914 l S
750 605.988 m 750 548.254 l 800 577.121 l S
600 346.18 m 650 375.047 l 650 317.312 l S
750 605.988 m 750 548.254 l 700 577.121 l S
1050 86.371 m 1000 115.238 l 1000 57.504 l S
1050 86.371 m 1000 115.238 l 1050 144.105 l S
750 86.371 m 800 115.238 l 750 144.105 l S
900 346.18 m 900 288.445 l 950 317.312 l S
750 86.371 m 800 115.238 l 800 57.504 l S
900 346.18 m 900 288.445 l 850 317.312 l S
900 865.793 m 850 894.664 l 850 836.926 l S
900 865.793 m 850 894.664 l 900 923.531 l S
600 865.793 m 650 894.664 l 600 923.531 l S
600 865.793 m 650 894.664 l 650 836.926 l S
1050 605.988 m 1000 634.855 l 1000 577.121 l S
1050 605.988 m 1000 634.855 l 1050 663.723 l S
750 605.988 m 800 634.855 l 750 663.723 l S
900 865.793 m 900 808.059 l 950 836.926 l S
750 605.988 m 800 634.855 l 800 577.121 l S
900 865.793 m 900 808.059 l 850 836.926 l S
1200 346.18 m 1150 375.047 l 1150 317.312 l S
1200 346.18 m 1150 375.047 l 1200 403.914 l S
900 346.18 m 950 375.047 l 900 403.914 l S
1050 605.988 m 1050 548.254 l 1100 577.121 l S
900 346.18 m 950 375.047 l 950 317.312 l S
1050 605.988 m 1050 548.254 l 1000 577.121 l S
1050 86.371 m 1100 115.238 l 1050 144.105 l S
1200 346.18 m 1200 288.445 l 1250 317.312 l S
1050 86.371 m 1100 115.238 l 1100 57.504 l S
1200 346.18 m 1200 288.445 l 1150 317.312 l S
1200 865.793 m 1150 894.664 l 1150 836.926 l S
1200 865.793 m 1150 894.664 l 1200 923.531 l S
900 865.793 m 950 894.664 l 900 923.531 l S
900 865.793 m 950 894.664 l 950 836.926 l S
1050 605.988 m 1100 634.855 l 1050 663.723 l S
1200 865.793 m 1200 808.059 l 1250 836.926 l S
1050 605.988 m 1100 634.855 l 1100 577.121 l S
1200 865.793 m 1200 808.059 l 1150 836.926 l S
1200 346.18 m 1250 375.047 l 1200 403.914 l S
1200 346.18 m 1250 375.047 l 1250 317.312 l S
Q Q
showpage
%%Trailer
%%Trailer
cleartomark
countdictstack
exch sub { end } repeat
restore
%%EOF
