%!PS-Adobe-2.0 EPSF-2.0
%%BoundingBox: 0 0 2100 1400
%%HiResBoundingBox: 0.000000 0.000000 2100.000000 1400.000000
%%Creator: cairo 1.14.2 (http://cairographics.org)
%%CreationDate: Mon Sep  7 08:21:49 2015
%%DocumentData: Clean7Bit
%%LanguageLevel: 2
%%DocumentMedia: 741x494mm 2100 1400 0 () ()
%%EndComments
% EPSF created by ps2eps 1.68
%%BeginProlog
save
countdictstack
mark
newpath
/showpage {} def
/setpagedevice {pop} def
%%EndProlog
%%Page 1 1
%%BeginProlog
/languagelevel where
{ pop languagelevel } { 1 } ifelse
2 lt { /Helvetica findfont 12 scalefont setfont 50 500 moveto
  (This print job requires a PostScript Language Level 2 printer.) show
  showpage quit } if
/q { gsave } bind def
/Q { grestore } bind def
/cm { 6 array astore concat } bind def
/w { setlinewidth } bind def
/J { setlinecap } bind def
/j { setlinejoin } bind def
/M { setmiterlimit } bind def
/d { setdash } bind def
/m { moveto } bind def
/l { lineto } bind def
/c { curveto } bind def
/h { closepath } bind def
/re { exch dup neg 3 1 roll 5 3 roll moveto 0 rlineto
      0 exch rlineto 0 rlineto closepath } bind def
/S { stroke } bind def
/f { fill } bind def
/f* { eofill } bind def
/n { newpath } bind def
/W { clip } bind def
/W* { eoclip } bind def
/BT { } bind def
/ET { } bind def
/pdfmark where { pop globaldict /?pdfmark /exec load put }
    { globaldict begin /?pdfmark /pop load def /pdfmark
    /cleartomark load def end } ifelse
/BDC { mark 3 1 roll /BDC pdfmark } bind def
/EMC { mark /EMC pdfmark } bind def
/cairo_store_point { /cairo_point_y exch def /cairo_point_x exch def } def
/Tj { show currentpoint cairo_store_point } bind def
/TJ {
  {
    dup
    type /stringtype eq
    { show } { -0.001 mul 0 cairo_font_matrix dtransform rmoveto } ifelse
  } forall
  currentpoint cairo_store_point
} bind def
/cairo_selectfont { cairo_font_matrix aload pop pop pop 0 0 6 array astore
    cairo_font exch selectfont cairo_point_x cairo_point_y moveto } bind def
/Tf { pop /cairo_font exch def /cairo_font_matrix where
      { pop cairo_selectfont } if } bind def
/Td { matrix translate cairo_font_matrix matrix concatmatrix dup
      /cairo_font_matrix exch def dup 4 get exch 5 get cairo_store_point
      /cairo_font where { pop cairo_selectfont } if } bind def
/Tm { 2 copy 8 2 roll 6 array astore /cairo_font_matrix exch def
      cairo_store_point /cairo_font where { pop cairo_selectfont } if } bind def
/g { setgray } bind def
/rg { setrgbcolor } bind def
/d1 { setcachedevice } bind def
/cairo_set_page_size {
  % Change paper size, but only if different from previous paper size otherwise
  % duplex fails. PLRM specifies a tolerance of 5 pts when matching paper size
  % so we use the same when checking if the size changes.
  /setpagedevice where {
    pop currentpagedevice
    /PageSize known {
      2 copy
      currentpagedevice /PageSize get aload pop
      exch 4 1 roll
      sub abs 5 gt
      3 1 roll
      sub abs 5 gt
      or
    } {
      true
    } ifelse
    {
      2 array astore
      2 dict begin
        /PageSize exch def
        /ImagingBBox null def
      currentdict end
      setpagedevice
    } {
      pop pop
    } ifelse
  } {
    pop
  } ifelse
} def
%%EndProlog
%%BeginSetup
%%EndSetup
%%Page: 1 1
%%BeginPageSetup
%%PageMedia: 741x494mm
%%PageBoundingBox: 0 0 2100 1400
2100 1400 cairo_set_page_size
%%EndPageSetup
q 0 0 2100 1400 rectclip q
0.984314 g
0 0 2100 1400 rectfill
0.788235 g
1.875 w
0 J
1 j
[] 0.0 d
4 M 0 1400 2100 -1400 re S
0.85098 g
128.746 1254.168 m 128.746 1231.387 110.281 1212.918 87.5 1212.918 c 64.719
 1212.918 46.254 1231.387 46.254 1254.168 c 46.254 1276.945 64.719 1295.414
 87.5 1295.414 c 110.281 1295.414 128.746 1276.945 128.746 1254.168 c h
128.746 1254.168 m f
0 g
2.5 w
0 j
128.746 1254.168 m 128.746 1231.387 110.281 1212.918 87.5 1212.918 c 64.719
 1212.918 46.254 1231.387 46.254 1254.168 c 46.254 1276.945 64.719 1295.414
 87.5 1295.414 c 110.281 1295.414 128.746 1276.945 128.746 1254.168 c h
128.746 1254.168 m S
0.85098 g
245.414 1312.5 m 245.414 1289.719 226.945 1271.254 204.168 1271.254 c 181.387
 1271.254 162.918 1289.719 162.918 1312.5 c 162.918 1335.281 181.387 1353.746
 204.168 1353.746 c 226.945 1353.746 245.414 1335.281 245.414 1312.5 c h
245.414 1312.5 m f
0 g
245.414 1312.5 m 245.414 1289.719 226.945 1271.254 204.168 1271.254 c 181.387
 1271.254 162.918 1289.719 162.918 1312.5 c 162.918 1335.281 181.387 1353.746
 204.168 1353.746 c 226.945 1353.746 245.414 1335.281 245.414 1312.5 c h
245.414 1312.5 m S
0.85098 g
303.746 1195.832 m 303.746 1173.055 285.281 1154.586 262.5 1154.586 c 239.719
 1154.586 221.254 1173.055 221.254 1195.832 c 221.254 1218.613 239.719 1237.082
 262.5 1237.082 c 285.281 1237.082 303.746 1218.613 303.746 1195.832 c h
303.746 1195.832 m f
0 g
303.746 1195.832 m 303.746 1173.055 285.281 1154.586 262.5 1154.586 c 239.719
 1154.586 221.254 1173.055 221.254 1195.832 c 221.254 1218.613 239.719 1237.082
 262.5 1237.082 c 285.281 1237.082 303.746 1218.613 303.746 1195.832 c h
303.746 1195.832 m S
0.85098 g
187.082 1137.5 m 187.082 1114.719 168.613 1096.254 145.832 1096.254 c 123.055
 1096.254 104.586 1114.719 104.586 1137.5 c 104.586 1160.281 123.055 1178.746
 145.832 1178.746 c 168.613 1178.746 187.082 1160.281 187.082 1137.5 c h
187.082 1137.5 m f
0 g
187.082 1137.5 m 187.082 1114.719 168.613 1096.254 145.832 1096.254 c 123.055
 1096.254 104.586 1114.719 104.586 1137.5 c 104.586 1160.281 123.055 1178.746
 145.832 1178.746 c 168.613 1178.746 187.082 1160.281 187.082 1137.5 c h
187.082 1137.5 m S
0.85098 g
128.746 904.168 m 128.746 881.387 110.281 862.918 87.5 862.918 c 64.719
 862.918 46.254 881.387 46.254 904.168 c 46.254 926.945 64.719 945.414 87.5
 945.414 c 110.281 945.414 128.746 926.945 128.746 904.168 c h
128.746 904.168 m f
0 g
128.746 904.168 m 128.746 881.387 110.281 862.918 87.5 862.918 c 64.719
 862.918 46.254 881.387 46.254 904.168 c 46.254 926.945 64.719 945.414 87.5
 945.414 c 110.281 945.414 128.746 926.945 128.746 904.168 c h
128.746 904.168 m S
0.85098 g
245.414 962.5 m 245.414 939.719 226.945 921.254 204.168 921.254 c 181.387
 921.254 162.918 939.719 162.918 962.5 c 162.918 985.281 181.387 1003.746
 204.168 1003.746 c 226.945 1003.746 245.414 985.281 245.414 962.5 c h
245.414 962.5 m f
0 g
245.414 962.5 m 245.414 939.719 226.945 921.254 204.168 921.254 c 181.387
 921.254 162.918 939.719 162.918 962.5 c 162.918 985.281 181.387 1003.746
 204.168 1003.746 c 226.945 1003.746 245.414 985.281 245.414 962.5 c h
245.414 962.5 m S
0.85098 g
303.746 845.832 m 303.746 823.055 285.281 804.586 262.5 804.586 c 239.719
 804.586 221.254 823.055 221.254 845.832 c 221.254 868.613 239.719 887.082
 262.5 887.082 c 285.281 887.082 303.746 868.613 303.746 845.832 c h
303.746 845.832 m f
0 g
303.746 845.832 m 303.746 823.055 285.281 804.586 262.5 804.586 c 239.719
 804.586 221.254 823.055 221.254 845.832 c 221.254 868.613 239.719 887.082
 262.5 887.082 c 285.281 887.082 303.746 868.613 303.746 845.832 c h
303.746 845.832 m S
0.85098 g
187.082 787.5 m 187.082 764.719 168.613 746.254 145.832 746.254 c 123.055
 746.254 104.586 764.719 104.586 787.5 c 104.586 810.281 123.055 828.746
 145.832 828.746 c 168.613 828.746 187.082 810.281 187.082 787.5 c h
187.082 787.5 m f
0 g
187.082 787.5 m 187.082 764.719 168.613 746.254 145.832 746.254 c 123.055
 746.254 104.586 764.719 104.586 787.5 c 104.586 810.281 123.055 828.746
 145.832 828.746 c 168.613 828.746 187.082 810.281 187.082 787.5 c h
187.082 787.5 m S
0.85098 g
128.746 554.168 m 128.746 531.387 110.281 512.918 87.5 512.918 c 64.719
 512.918 46.254 531.387 46.254 554.168 c 46.254 576.945 64.719 595.414 87.5
 595.414 c 110.281 595.414 128.746 576.945 128.746 554.168 c h
128.746 554.168 m f
0 g
128.746 554.168 m 128.746 531.387 110.281 512.918 87.5 512.918 c 64.719
 512.918 46.254 531.387 46.254 554.168 c 46.254 576.945 64.719 595.414 87.5
 595.414 c 110.281 595.414 128.746 576.945 128.746 554.168 c h
128.746 554.168 m S
0.85098 g
245.414 612.5 m 245.414 589.719 226.945 571.254 204.168 571.254 c 181.387
 571.254 162.918 589.719 162.918 612.5 c 162.918 635.281 181.387 653.746
 204.168 653.746 c 226.945 653.746 245.414 635.281 245.414 612.5 c h
245.414 612.5 m f
0 g
245.414 612.5 m 245.414 589.719 226.945 571.254 204.168 571.254 c 181.387
 571.254 162.918 589.719 162.918 612.5 c 162.918 635.281 181.387 653.746
 204.168 653.746 c 226.945 653.746 245.414 635.281 245.414 612.5 c h
245.414 612.5 m S
0.85098 g
303.746 495.832 m 303.746 473.055 285.281 454.586 262.5 454.586 c 239.719
 454.586 221.254 473.055 221.254 495.832 c 221.254 518.613 239.719 537.082
 262.5 537.082 c 285.281 537.082 303.746 518.613 303.746 495.832 c h
303.746 495.832 m f
0 g
303.746 495.832 m 303.746 473.055 285.281 454.586 262.5 454.586 c 239.719
 454.586 221.254 473.055 221.254 495.832 c 221.254 518.613 239.719 537.082
 262.5 537.082 c 285.281 537.082 303.746 518.613 303.746 495.832 c h
303.746 495.832 m S
0.85098 g
187.082 437.5 m 187.082 414.719 168.613 396.254 145.832 396.254 c 123.055
 396.254 104.586 414.719 104.586 437.5 c 104.586 460.281 123.055 478.746
 145.832 478.746 c 168.613 478.746 187.082 460.281 187.082 437.5 c h
187.082 437.5 m f
0 g
187.082 437.5 m 187.082 414.719 168.613 396.254 145.832 396.254 c 123.055
 396.254 104.586 414.719 104.586 437.5 c 104.586 460.281 123.055 478.746
 145.832 478.746 c 168.613 478.746 187.082 460.281 187.082 437.5 c h
187.082 437.5 m S
0.85098 g
128.746 204.168 m 128.746 181.387 110.281 162.918 87.5 162.918 c 64.719
 162.918 46.254 181.387 46.254 204.168 c 46.254 226.945 64.719 245.414 87.5
 245.414 c 110.281 245.414 128.746 226.945 128.746 204.168 c h
128.746 204.168 m f
0 g
128.746 204.168 m 128.746 181.387 110.281 162.918 87.5 162.918 c 64.719
 162.918 46.254 181.387 46.254 204.168 c 46.254 226.945 64.719 245.414 87.5
 245.414 c 110.281 245.414 128.746 226.945 128.746 204.168 c h
128.746 204.168 m S
0.85098 g
245.414 262.5 m 245.414 239.719 226.945 221.254 204.168 221.254 c 181.387
 221.254 162.918 239.719 162.918 262.5 c 162.918 285.281 181.387 303.746
 204.168 303.746 c 226.945 303.746 245.414 285.281 245.414 262.5 c h
245.414 262.5 m f
0 g
245.414 262.5 m 245.414 239.719 226.945 221.254 204.168 221.254 c 181.387
 221.254 162.918 239.719 162.918 262.5 c 162.918 285.281 181.387 303.746
 204.168 303.746 c 226.945 303.746 245.414 285.281 245.414 262.5 c h
245.414 262.5 m S
0.85098 g
303.746 145.832 m 303.746 123.055 285.281 104.586 262.5 104.586 c 239.719
 104.586 221.254 123.055 221.254 145.832 c 221.254 168.613 239.719 187.082
 262.5 187.082 c 285.281 187.082 303.746 168.613 303.746 145.832 c h
303.746 145.832 m f
0 g
303.746 145.832 m 303.746 123.055 285.281 104.586 262.5 104.586 c 239.719
 104.586 221.254 123.055 221.254 145.832 c 221.254 168.613 239.719 187.082
 262.5 187.082 c 285.281 187.082 303.746 168.613 303.746 145.832 c h
303.746 145.832 m S
0.85098 g
187.082 87.5 m 187.082 64.719 168.613 46.254 145.832 46.254 c 123.055 46.254
 104.586 64.719 104.586 87.5 c 104.586 110.281 123.055 128.746 145.832 128.746
 c 168.613 128.746 187.082 110.281 187.082 87.5 c h
187.082 87.5 m f
0 g
187.082 87.5 m 187.082 64.719 168.613 46.254 145.832 46.254 c 123.055 46.254
 104.586 64.719 104.586 87.5 c 104.586 110.281 123.055 128.746 145.832 128.746
 c 168.613 128.746 187.082 110.281 187.082 87.5 c h
187.082 87.5 m S
0.85098 g
478.746 1254.168 m 478.746 1231.387 460.281 1212.918 437.5 1212.918 c 414.719
 1212.918 396.254 1231.387 396.254 1254.168 c 396.254 1276.945 414.719 1295.414
 437.5 1295.414 c 460.281 1295.414 478.746 1276.945 478.746 1254.168 c h
478.746 1254.168 m f
0 g
478.746 1254.168 m 478.746 1231.387 460.281 1212.918 437.5 1212.918 c 414.719
 1212.918 396.254 1231.387 396.254 1254.168 c 396.254 1276.945 414.719 1295.414
 437.5 1295.414 c 460.281 1295.414 478.746 1276.945 478.746 1254.168 c h
478.746 1254.168 m S
0.85098 g
595.414 1312.5 m 595.414 1289.719 576.945 1271.254 554.168 1271.254 c 531.387
 1271.254 512.918 1289.719 512.918 1312.5 c 512.918 1335.281 531.387 1353.746
 554.168 1353.746 c 576.945 1353.746 595.414 1335.281 595.414 1312.5 c h
595.414 1312.5 m f
0 g
595.414 1312.5 m 595.414 1289.719 576.945 1271.254 554.168 1271.254 c 531.387
 1271.254 512.918 1289.719 512.918 1312.5 c 512.918 1335.281 531.387 1353.746
 554.168 1353.746 c 576.945 1353.746 595.414 1335.281 595.414 1312.5 c h
595.414 1312.5 m S
0.85098 g
653.746 1195.832 m 653.746 1173.055 635.281 1154.586 612.5 1154.586 c 589.719
 1154.586 571.254 1173.055 571.254 1195.832 c 571.254 1218.613 589.719 1237.082
 612.5 1237.082 c 635.281 1237.082 653.746 1218.613 653.746 1195.832 c h
653.746 1195.832 m f
0 g
653.746 1195.832 m 653.746 1173.055 635.281 1154.586 612.5 1154.586 c 589.719
 1154.586 571.254 1173.055 571.254 1195.832 c 571.254 1218.613 589.719 1237.082
 612.5 1237.082 c 635.281 1237.082 653.746 1218.613 653.746 1195.832 c h
653.746 1195.832 m S
0.85098 g
537.082 1137.5 m 537.082 1114.719 518.613 1096.254 495.832 1096.254 c 473.055
 1096.254 454.586 1114.719 454.586 1137.5 c 454.586 1160.281 473.055 1178.746
 495.832 1178.746 c 518.613 1178.746 537.082 1160.281 537.082 1137.5 c h
537.082 1137.5 m f
0 g
537.082 1137.5 m 537.082 1114.719 518.613 1096.254 495.832 1096.254 c 473.055
 1096.254 454.586 1114.719 454.586 1137.5 c 454.586 1160.281 473.055 1178.746
 495.832 1178.746 c 518.613 1178.746 537.082 1160.281 537.082 1137.5 c h
537.082 1137.5 m S
0.85098 g
478.746 904.168 m 478.746 881.387 460.281 862.918 437.5 862.918 c 414.719
 862.918 396.254 881.387 396.254 904.168 c 396.254 926.945 414.719 945.414
 437.5 945.414 c 460.281 945.414 478.746 926.945 478.746 904.168 c h
478.746 904.168 m f
0 g
478.746 904.168 m 478.746 881.387 460.281 862.918 437.5 862.918 c 414.719
 862.918 396.254 881.387 396.254 904.168 c 396.254 926.945 414.719 945.414
 437.5 945.414 c 460.281 945.414 478.746 926.945 478.746 904.168 c h
478.746 904.168 m S
0.85098 g
595.414 962.5 m 595.414 939.719 576.945 921.254 554.168 921.254 c 531.387
 921.254 512.918 939.719 512.918 962.5 c 512.918 985.281 531.387 1003.746
 554.168 1003.746 c 576.945 1003.746 595.414 985.281 595.414 962.5 c h
595.414 962.5 m f
0 g
595.414 962.5 m 595.414 939.719 576.945 921.254 554.168 921.254 c 531.387
 921.254 512.918 939.719 512.918 962.5 c 512.918 985.281 531.387 1003.746
 554.168 1003.746 c 576.945 1003.746 595.414 985.281 595.414 962.5 c h
595.414 962.5 m S
0.85098 g
653.746 845.832 m 653.746 823.055 635.281 804.586 612.5 804.586 c 589.719
 804.586 571.254 823.055 571.254 845.832 c 571.254 868.613 589.719 887.082
 612.5 887.082 c 635.281 887.082 653.746 868.613 653.746 845.832 c h
653.746 845.832 m f
0 g
653.746 845.832 m 653.746 823.055 635.281 804.586 612.5 804.586 c 589.719
 804.586 571.254 823.055 571.254 845.832 c 571.254 868.613 589.719 887.082
 612.5 887.082 c 635.281 887.082 653.746 868.613 653.746 845.832 c h
653.746 845.832 m S
0.85098 g
537.082 787.5 m 537.082 764.719 518.613 746.254 495.832 746.254 c 473.055
 746.254 454.586 764.719 454.586 787.5 c 454.586 810.281 473.055 828.746
 495.832 828.746 c 518.613 828.746 537.082 810.281 537.082 787.5 c h
537.082 787.5 m f
0 g
537.082 787.5 m 537.082 764.719 518.613 746.254 495.832 746.254 c 473.055
 746.254 454.586 764.719 454.586 787.5 c 454.586 810.281 473.055 828.746
 495.832 828.746 c 518.613 828.746 537.082 810.281 537.082 787.5 c h
537.082 787.5 m S
0.85098 g
478.746 554.168 m 478.746 531.387 460.281 512.918 437.5 512.918 c 414.719
 512.918 396.254 531.387 396.254 554.168 c 396.254 576.945 414.719 595.414
 437.5 595.414 c 460.281 595.414 478.746 576.945 478.746 554.168 c h
478.746 554.168 m f
0 g
478.746 554.168 m 478.746 531.387 460.281 512.918 437.5 512.918 c 414.719
 512.918 396.254 531.387 396.254 554.168 c 396.254 576.945 414.719 595.414
 437.5 595.414 c 460.281 595.414 478.746 576.945 478.746 554.168 c h
478.746 554.168 m S
0.85098 g
595.414 612.5 m 595.414 589.719 576.945 571.254 554.168 571.254 c 531.387
 571.254 512.918 589.719 512.918 612.5 c 512.918 635.281 531.387 653.746
 554.168 653.746 c 576.945 653.746 595.414 635.281 595.414 612.5 c h
595.414 612.5 m f
0 g
595.414 612.5 m 595.414 589.719 576.945 571.254 554.168 571.254 c 531.387
 571.254 512.918 589.719 512.918 612.5 c 512.918 635.281 531.387 653.746
 554.168 653.746 c 576.945 653.746 595.414 635.281 595.414 612.5 c h
595.414 612.5 m S
0.85098 g
653.746 495.832 m 653.746 473.055 635.281 454.586 612.5 454.586 c 589.719
 454.586 571.254 473.055 571.254 495.832 c 571.254 518.613 589.719 537.082
 612.5 537.082 c 635.281 537.082 653.746 518.613 653.746 495.832 c h
653.746 495.832 m f
0 g
653.746 495.832 m 653.746 473.055 635.281 454.586 612.5 454.586 c 589.719
 454.586 571.254 473.055 571.254 495.832 c 571.254 518.613 589.719 537.082
 612.5 537.082 c 635.281 537.082 653.746 518.613 653.746 495.832 c h
653.746 495.832 m S
0.85098 g
537.082 437.5 m 537.082 414.719 518.613 396.254 495.832 396.254 c 473.055
 396.254 454.586 414.719 454.586 437.5 c 454.586 460.281 473.055 478.746
 495.832 478.746 c 518.613 478.746 537.082 460.281 537.082 437.5 c h
537.082 437.5 m f
0 g
537.082 437.5 m 537.082 414.719 518.613 396.254 495.832 396.254 c 473.055
 396.254 454.586 414.719 454.586 437.5 c 454.586 460.281 473.055 478.746
 495.832 478.746 c 518.613 478.746 537.082 460.281 537.082 437.5 c h
537.082 437.5 m S
0.85098 g
478.746 204.168 m 478.746 181.387 460.281 162.918 437.5 162.918 c 414.719
 162.918 396.254 181.387 396.254 204.168 c 396.254 226.945 414.719 245.414
 437.5 245.414 c 460.281 245.414 478.746 226.945 478.746 204.168 c h
478.746 204.168 m f
0 g
478.746 204.168 m 478.746 181.387 460.281 162.918 437.5 162.918 c 414.719
 162.918 396.254 181.387 396.254 204.168 c 396.254 226.945 414.719 245.414
 437.5 245.414 c 460.281 245.414 478.746 226.945 478.746 204.168 c h
478.746 204.168 m S
0.85098 g
595.414 262.5 m 595.414 239.719 576.945 221.254 554.168 221.254 c 531.387
 221.254 512.918 239.719 512.918 262.5 c 512.918 285.281 531.387 303.746
 554.168 303.746 c 576.945 303.746 595.414 285.281 595.414 262.5 c h
595.414 262.5 m f
0 g
595.414 262.5 m 595.414 239.719 576.945 221.254 554.168 221.254 c 531.387
 221.254 512.918 239.719 512.918 262.5 c 512.918 285.281 531.387 303.746
 554.168 303.746 c 576.945 303.746 595.414 285.281 595.414 262.5 c h
595.414 262.5 m S
0.85098 g
653.746 145.832 m 653.746 123.055 635.281 104.586 612.5 104.586 c 589.719
 104.586 571.254 123.055 571.254 145.832 c 571.254 168.613 589.719 187.082
 612.5 187.082 c 635.281 187.082 653.746 168.613 653.746 145.832 c h
653.746 145.832 m f
0 g
653.746 145.832 m 653.746 123.055 635.281 104.586 612.5 104.586 c 589.719
 104.586 571.254 123.055 571.254 145.832 c 571.254 168.613 589.719 187.082
 612.5 187.082 c 635.281 187.082 653.746 168.613 653.746 145.832 c h
653.746 145.832 m S
0.85098 g
537.082 87.5 m 537.082 64.719 518.613 46.254 495.832 46.254 c 473.055 46.254
 454.586 64.719 454.586 87.5 c 454.586 110.281 473.055 128.746 495.832 128.746
 c 518.613 128.746 537.082 110.281 537.082 87.5 c h
537.082 87.5 m f
0 g
537.082 87.5 m 537.082 64.719 518.613 46.254 495.832 46.254 c 473.055 46.254
 454.586 64.719 454.586 87.5 c 454.586 110.281 473.055 128.746 495.832 128.746
 c 518.613 128.746 537.082 110.281 537.082 87.5 c h
537.082 87.5 m S
0.85098 g
828.746 1254.168 m 828.746 1231.387 810.281 1212.918 787.5 1212.918 c 764.719
 1212.918 746.254 1231.387 746.254 1254.168 c 746.254 1276.945 764.719 1295.414
 787.5 1295.414 c 810.281 1295.414 828.746 1276.945 828.746 1254.168 c h
828.746 1254.168 m f
0 g
828.746 1254.168 m 828.746 1231.387 810.281 1212.918 787.5 1212.918 c 764.719
 1212.918 746.254 1231.387 746.254 1254.168 c 746.254 1276.945 764.719 1295.414
 787.5 1295.414 c 810.281 1295.414 828.746 1276.945 828.746 1254.168 c h
828.746 1254.168 m S
0.85098 g
945.414 1312.5 m 945.414 1289.719 926.945 1271.254 904.168 1271.254 c 881.387
 1271.254 862.918 1289.719 862.918 1312.5 c 862.918 1335.281 881.387 1353.746
 904.168 1353.746 c 926.945 1353.746 945.414 1335.281 945.414 1312.5 c h
945.414 1312.5 m f
0 g
945.414 1312.5 m 945.414 1289.719 926.945 1271.254 904.168 1271.254 c 881.387
 1271.254 862.918 1289.719 862.918 1312.5 c 862.918 1335.281 881.387 1353.746
 904.168 1353.746 c 926.945 1353.746 945.414 1335.281 945.414 1312.5 c h
945.414 1312.5 m S
0.85098 g
1003.746 1195.832 m 1003.746 1173.055 985.281 1154.586 962.5 1154.586 c
 939.719 1154.586 921.254 1173.055 921.254 1195.832 c 921.254 1218.613 939.719
 1237.082 962.5 1237.082 c 985.281 1237.082 1003.746 1218.613 1003.746 1195.832
 c h
1003.746 1195.832 m f
0 g
1003.746 1195.832 m 1003.746 1173.055 985.281 1154.586 962.5 1154.586 c
 939.719 1154.586 921.254 1173.055 921.254 1195.832 c 921.254 1218.613 939.719
 1237.082 962.5 1237.082 c 985.281 1237.082 1003.746 1218.613 1003.746 1195.832
 c h
1003.746 1195.832 m S
0.85098 g
887.082 1137.5 m 887.082 1114.719 868.613 1096.254 845.832 1096.254 c 823.055
 1096.254 804.586 1114.719 804.586 1137.5 c 804.586 1160.281 823.055 1178.746
 845.832 1178.746 c 868.613 1178.746 887.082 1160.281 887.082 1137.5 c h
887.082 1137.5 m f
0 g
887.082 1137.5 m 887.082 1114.719 868.613 1096.254 845.832 1096.254 c 823.055
 1096.254 804.586 1114.719 804.586 1137.5 c 804.586 1160.281 823.055 1178.746
 845.832 1178.746 c 868.613 1178.746 887.082 1160.281 887.082 1137.5 c h
887.082 1137.5 m S
0.85098 g
828.746 904.168 m 828.746 881.387 810.281 862.918 787.5 862.918 c 764.719
 862.918 746.254 881.387 746.254 904.168 c 746.254 926.945 764.719 945.414
 787.5 945.414 c 810.281 945.414 828.746 926.945 828.746 904.168 c h
828.746 904.168 m f
0 g
828.746 904.168 m 828.746 881.387 810.281 862.918 787.5 862.918 c 764.719
 862.918 746.254 881.387 746.254 904.168 c 746.254 926.945 764.719 945.414
 787.5 945.414 c 810.281 945.414 828.746 926.945 828.746 904.168 c h
828.746 904.168 m S
0.85098 g
945.414 962.5 m 945.414 939.719 926.945 921.254 904.168 921.254 c 881.387
 921.254 862.918 939.719 862.918 962.5 c 862.918 985.281 881.387 1003.746
 904.168 1003.746 c 926.945 1003.746 945.414 985.281 945.414 962.5 c h
945.414 962.5 m f
0 g
945.414 962.5 m 945.414 939.719 926.945 921.254 904.168 921.254 c 881.387
 921.254 862.918 939.719 862.918 962.5 c 862.918 985.281 881.387 1003.746
 904.168 1003.746 c 926.945 1003.746 945.414 985.281 945.414 962.5 c h
945.414 962.5 m S
0.85098 g
1003.746 845.832 m 1003.746 823.055 985.281 804.586 962.5 804.586 c 939.719
 804.586 921.254 823.055 921.254 845.832 c 921.254 868.613 939.719 887.082
 962.5 887.082 c 985.281 887.082 1003.746 868.613 1003.746 845.832 c h
1003.746 845.832 m f
0 g
1003.746 845.832 m 1003.746 823.055 985.281 804.586 962.5 804.586 c 939.719
 804.586 921.254 823.055 921.254 845.832 c 921.254 868.613 939.719 887.082
 962.5 887.082 c 985.281 887.082 1003.746 868.613 1003.746 845.832 c h
1003.746 845.832 m S
0.85098 g
887.082 787.5 m 887.082 764.719 868.613 746.254 845.832 746.254 c 823.055
 746.254 804.586 764.719 804.586 787.5 c 804.586 810.281 823.055 828.746
 845.832 828.746 c 868.613 828.746 887.082 810.281 887.082 787.5 c h
887.082 787.5 m f
0 g
887.082 787.5 m 887.082 764.719 868.613 746.254 845.832 746.254 c 823.055
 746.254 804.586 764.719 804.586 787.5 c 804.586 810.281 823.055 828.746
 845.832 828.746 c 868.613 828.746 887.082 810.281 887.082 787.5 c h
887.082 787.5 m S
0.85098 g
828.746 554.168 m 828.746 531.387 810.281 512.918 787.5 512.918 c 764.719
 512.918 746.254 531.387 746.254 554.168 c 746.254 576.945 764.719 595.414
 787.5 595.414 c 810.281 595.414 828.746 576.945 828.746 554.168 c h
828.746 554.168 m f
0 g
828.746 554.168 m 828.746 531.387 810.281 512.918 787.5 512.918 c 764.719
 512.918 746.254 531.387 746.254 554.168 c 746.254 576.945 764.719 595.414
 787.5 595.414 c 810.281 595.414 828.746 576.945 828.746 554.168 c h
828.746 554.168 m S
0.85098 g
945.414 612.5 m 945.414 589.719 926.945 571.254 904.168 571.254 c 881.387
 571.254 862.918 589.719 862.918 612.5 c 862.918 635.281 881.387 653.746
 904.168 653.746 c 926.945 653.746 945.414 635.281 945.414 612.5 c h
945.414 612.5 m f
0 g
945.414 612.5 m 945.414 589.719 926.945 571.254 904.168 571.254 c 881.387
 571.254 862.918 589.719 862.918 612.5 c 862.918 635.281 881.387 653.746
 904.168 653.746 c 926.945 653.746 945.414 635.281 945.414 612.5 c h
945.414 612.5 m S
0.85098 g
1003.746 495.832 m 1003.746 473.055 985.281 454.586 962.5 454.586 c 939.719
 454.586 921.254 473.055 921.254 495.832 c 921.254 518.613 939.719 537.082
 962.5 537.082 c 985.281 537.082 1003.746 518.613 1003.746 495.832 c h
1003.746 495.832 m f
0 g
1003.746 495.832 m 1003.746 473.055 985.281 454.586 962.5 454.586 c 939.719
 454.586 921.254 473.055 921.254 495.832 c 921.254 518.613 939.719 537.082
 962.5 537.082 c 985.281 537.082 1003.746 518.613 1003.746 495.832 c h
1003.746 495.832 m S
0.85098 g
887.082 437.5 m 887.082 414.719 868.613 396.254 845.832 396.254 c 823.055
 396.254 804.586 414.719 804.586 437.5 c 804.586 460.281 823.055 478.746
 845.832 478.746 c 868.613 478.746 887.082 460.281 887.082 437.5 c h
887.082 437.5 m f
0 g
887.082 437.5 m 887.082 414.719 868.613 396.254 845.832 396.254 c 823.055
 396.254 804.586 414.719 804.586 437.5 c 804.586 460.281 823.055 478.746
 845.832 478.746 c 868.613 478.746 887.082 460.281 887.082 437.5 c h
887.082 437.5 m S
0.85098 g
828.746 204.168 m 828.746 181.387 810.281 162.918 787.5 162.918 c 764.719
 162.918 746.254 181.387 746.254 204.168 c 746.254 226.945 764.719 245.414
 787.5 245.414 c 810.281 245.414 828.746 226.945 828.746 204.168 c h
828.746 204.168 m f
0 g
828.746 204.168 m 828.746 181.387 810.281 162.918 787.5 162.918 c 764.719
 162.918 746.254 181.387 746.254 204.168 c 746.254 226.945 764.719 245.414
 787.5 245.414 c 810.281 245.414 828.746 226.945 828.746 204.168 c h
828.746 204.168 m S
0.85098 g
945.414 262.5 m 945.414 239.719 926.945 221.254 904.168 221.254 c 881.387
 221.254 862.918 239.719 862.918 262.5 c 862.918 285.281 881.387 303.746
 904.168 303.746 c 926.945 303.746 945.414 285.281 945.414 262.5 c h
945.414 262.5 m f
0 g
945.414 262.5 m 945.414 239.719 926.945 221.254 904.168 221.254 c 881.387
 221.254 862.918 239.719 862.918 262.5 c 862.918 285.281 881.387 303.746
 904.168 303.746 c 926.945 303.746 945.414 285.281 945.414 262.5 c h
945.414 262.5 m S
0.85098 g
1003.746 145.832 m 1003.746 123.055 985.281 104.586 962.5 104.586 c 939.719
 104.586 921.254 123.055 921.254 145.832 c 921.254 168.613 939.719 187.082
 962.5 187.082 c 985.281 187.082 1003.746 168.613 1003.746 145.832 c h
1003.746 145.832 m f
0 g
1003.746 145.832 m 1003.746 123.055 985.281 104.586 962.5 104.586 c 939.719
 104.586 921.254 123.055 921.254 145.832 c 921.254 168.613 939.719 187.082
 962.5 187.082 c 985.281 187.082 1003.746 168.613 1003.746 145.832 c h
1003.746 145.832 m S
0.85098 g
887.082 87.5 m 887.082 64.719 868.613 46.254 845.832 46.254 c 823.055 46.254
 804.586 64.719 804.586 87.5 c 804.586 110.281 823.055 128.746 845.832 128.746
 c 868.613 128.746 887.082 110.281 887.082 87.5 c h
887.082 87.5 m f
0 g
887.082 87.5 m 887.082 64.719 868.613 46.254 845.832 46.254 c 823.055 46.254
 804.586 64.719 804.586 87.5 c 804.586 110.281 823.055 128.746 845.832 128.746
 c 868.613 128.746 887.082 110.281 887.082 87.5 c h
887.082 87.5 m S
0.85098 g
1178.746 1254.168 m 1178.746 1231.387 1160.281 1212.918 1137.5 1212.918
 c 1114.719 1212.918 1096.254 1231.387 1096.254 1254.168 c 1096.254 1276.945
 1114.719 1295.414 1137.5 1295.414 c 1160.281 1295.414 1178.746 1276.945
 1178.746 1254.168 c h
1178.746 1254.168 m f
0 g
1178.746 1254.168 m 1178.746 1231.387 1160.281 1212.918 1137.5 1212.918
 c 1114.719 1212.918 1096.254 1231.387 1096.254 1254.168 c 1096.254 1276.945
 1114.719 1295.414 1137.5 1295.414 c 1160.281 1295.414 1178.746 1276.945
 1178.746 1254.168 c h
1178.746 1254.168 m S
0.85098 g
1295.414 1312.5 m 1295.414 1289.719 1276.945 1271.254 1254.168 1271.254
 c 1231.387 1271.254 1212.918 1289.719 1212.918 1312.5 c 1212.918 1335.281
 1231.387 1353.746 1254.168 1353.746 c 1276.945 1353.746 1295.414 1335.281
 1295.414 1312.5 c h
1295.414 1312.5 m f
0 g
1295.414 1312.5 m 1295.414 1289.719 1276.945 1271.254 1254.168 1271.254
 c 1231.387 1271.254 1212.918 1289.719 1212.918 1312.5 c 1212.918 1335.281
 1231.387 1353.746 1254.168 1353.746 c 1276.945 1353.746 1295.414 1335.281
 1295.414 1312.5 c h
1295.414 1312.5 m S
0.85098 g
1353.746 1195.832 m 1353.746 1173.055 1335.281 1154.586 1312.5 1154.586
 c 1289.719 1154.586 1271.254 1173.055 1271.254 1195.832 c 1271.254 1218.613
 1289.719 1237.082 1312.5 1237.082 c 1335.281 1237.082 1353.746 1218.613
 1353.746 1195.832 c h
1353.746 1195.832 m f
0 g
1353.746 1195.832 m 1353.746 1173.055 1335.281 1154.586 1312.5 1154.586
 c 1289.719 1154.586 1271.254 1173.055 1271.254 1195.832 c 1271.254 1218.613
 1289.719 1237.082 1312.5 1237.082 c 1335.281 1237.082 1353.746 1218.613
 1353.746 1195.832 c h
1353.746 1195.832 m S
0.85098 g
1237.082 1137.5 m 1237.082 1114.719 1218.613 1096.254 1195.832 1096.254
 c 1173.055 1096.254 1154.586 1114.719 1154.586 1137.5 c 1154.586 1160.281
 1173.055 1178.746 1195.832 1178.746 c 1218.613 1178.746 1237.082 1160.281
 1237.082 1137.5 c h
1237.082 1137.5 m f
0 g
1237.082 1137.5 m 1237.082 1114.719 1218.613 1096.254 1195.832 1096.254
 c 1173.055 1096.254 1154.586 1114.719 1154.586 1137.5 c 1154.586 1160.281
 1173.055 1178.746 1195.832 1178.746 c 1218.613 1178.746 1237.082 1160.281
 1237.082 1137.5 c h
1237.082 1137.5 m S
0.85098 g
1178.746 904.168 m 1178.746 881.387 1160.281 862.918 1137.5 862.918 c 1114.719
 862.918 1096.254 881.387 1096.254 904.168 c 1096.254 926.945 1114.719 945.414
 1137.5 945.414 c 1160.281 945.414 1178.746 926.945 1178.746 904.168 c h
1178.746 904.168 m f
0 g
1178.746 904.168 m 1178.746 881.387 1160.281 862.918 1137.5 862.918 c 1114.719
 862.918 1096.254 881.387 1096.254 904.168 c 1096.254 926.945 1114.719 945.414
 1137.5 945.414 c 1160.281 945.414 1178.746 926.945 1178.746 904.168 c h
1178.746 904.168 m S
0.85098 g
1295.414 962.5 m 1295.414 939.719 1276.945 921.254 1254.168 921.254 c 1231.387
 921.254 1212.918 939.719 1212.918 962.5 c 1212.918 985.281 1231.387 1003.746
 1254.168 1003.746 c 1276.945 1003.746 1295.414 985.281 1295.414 962.5 c
 h
1295.414 962.5 m f
0 g
1295.414 962.5 m 1295.414 939.719 1276.945 921.254 1254.168 921.254 c 1231.387
 921.254 1212.918 939.719 1212.918 962.5 c 1212.918 985.281 1231.387 1003.746
 1254.168 1003.746 c 1276.945 1003.746 1295.414 985.281 1295.414 962.5 c
 h
1295.414 962.5 m S
0.85098 g
1353.746 845.832 m 1353.746 823.055 1335.281 804.586 1312.5 804.586 c 1289.719
 804.586 1271.254 823.055 1271.254 845.832 c 1271.254 868.613 1289.719 887.082
 1312.5 887.082 c 1335.281 887.082 1353.746 868.613 1353.746 845.832 c h
1353.746 845.832 m f
0 g
1353.746 845.832 m 1353.746 823.055 1335.281 804.586 1312.5 804.586 c 1289.719
 804.586 1271.254 823.055 1271.254 845.832 c 1271.254 868.613 1289.719 887.082
 1312.5 887.082 c 1335.281 887.082 1353.746 868.613 1353.746 845.832 c h
1353.746 845.832 m S
0.85098 g
1237.082 787.5 m 1237.082 764.719 1218.613 746.254 1195.832 746.254 c 1173.055
 746.254 1154.586 764.719 1154.586 787.5 c 1154.586 810.281 1173.055 828.746
 1195.832 828.746 c 1218.613 828.746 1237.082 810.281 1237.082 787.5 c h
1237.082 787.5 m f
0 g
1237.082 787.5 m 1237.082 764.719 1218.613 746.254 1195.832 746.254 c 1173.055
 746.254 1154.586 764.719 1154.586 787.5 c 1154.586 810.281 1173.055 828.746
 1195.832 828.746 c 1218.613 828.746 1237.082 810.281 1237.082 787.5 c h
1237.082 787.5 m S
0.85098 g
1178.746 554.168 m 1178.746 531.387 1160.281 512.918 1137.5 512.918 c 1114.719
 512.918 1096.254 531.387 1096.254 554.168 c 1096.254 576.945 1114.719 595.414
 1137.5 595.414 c 1160.281 595.414 1178.746 576.945 1178.746 554.168 c h
1178.746 554.168 m f
0 g
1178.746 554.168 m 1178.746 531.387 1160.281 512.918 1137.5 512.918 c 1114.719
 512.918 1096.254 531.387 1096.254 554.168 c 1096.254 576.945 1114.719 595.414
 1137.5 595.414 c 1160.281 595.414 1178.746 576.945 1178.746 554.168 c h
1178.746 554.168 m S
0.85098 g
1295.414 612.5 m 1295.414 589.719 1276.945 571.254 1254.168 571.254 c 1231.387
 571.254 1212.918 589.719 1212.918 612.5 c 1212.918 635.281 1231.387 653.746
 1254.168 653.746 c 1276.945 653.746 1295.414 635.281 1295.414 612.5 c h
1295.414 612.5 m f
0 g
1295.414 612.5 m 1295.414 589.719 1276.945 571.254 1254.168 571.254 c 1231.387
 571.254 1212.918 589.719 1212.918 612.5 c 1212.918 635.281 1231.387 653.746
 1254.168 653.746 c 1276.945 653.746 1295.414 635.281 1295.414 612.5 c h
1295.414 612.5 m S
0.85098 g
1353.746 495.832 m 1353.746 473.055 1335.281 454.586 1312.5 454.586 c 1289.719
 454.586 1271.254 473.055 1271.254 495.832 c 1271.254 518.613 1289.719 537.082
 1312.5 537.082 c 1335.281 537.082 1353.746 518.613 1353.746 495.832 c h
1353.746 495.832 m f
0 g
1353.746 495.832 m 1353.746 473.055 1335.281 454.586 1312.5 454.586 c 1289.719
 454.586 1271.254 473.055 1271.254 495.832 c 1271.254 518.613 1289.719 537.082
 1312.5 537.082 c 1335.281 537.082 1353.746 518.613 1353.746 495.832 c h
1353.746 495.832 m S
0.85098 g
1237.082 437.5 m 1237.082 414.719 1218.613 396.254 1195.832 396.254 c 1173.055
 396.254 1154.586 414.719 1154.586 437.5 c 1154.586 460.281 1173.055 478.746
 1195.832 478.746 c 1218.613 478.746 1237.082 460.281 1237.082 437.5 c h
1237.082 437.5 m f
0 g
1237.082 437.5 m 1237.082 414.719 1218.613 396.254 1195.832 396.254 c 1173.055
 396.254 1154.586 414.719 1154.586 437.5 c 1154.586 460.281 1173.055 478.746
 1195.832 478.746 c 1218.613 478.746 1237.082 460.281 1237.082 437.5 c h
1237.082 437.5 m S
0.85098 g
1178.746 204.168 m 1178.746 181.387 1160.281 162.918 1137.5 162.918 c 1114.719
 162.918 1096.254 181.387 1096.254 204.168 c 1096.254 226.945 1114.719 245.414
 1137.5 245.414 c 1160.281 245.414 1178.746 226.945 1178.746 204.168 c h
1178.746 204.168 m f
0 g
1178.746 204.168 m 1178.746 181.387 1160.281 162.918 1137.5 162.918 c 1114.719
 162.918 1096.254 181.387 1096.254 204.168 c 1096.254 226.945 1114.719 245.414
 1137.5 245.414 c 1160.281 245.414 1178.746 226.945 1178.746 204.168 c h
1178.746 204.168 m S
0.85098 g
1295.414 262.5 m 1295.414 239.719 1276.945 221.254 1254.168 221.254 c 1231.387
 221.254 1212.918 239.719 1212.918 262.5 c 1212.918 285.281 1231.387 303.746
 1254.168 303.746 c 1276.945 303.746 1295.414 285.281 1295.414 262.5 c h
1295.414 262.5 m f
0 g
1295.414 262.5 m 1295.414 239.719 1276.945 221.254 1254.168 221.254 c 1231.387
 221.254 1212.918 239.719 1212.918 262.5 c 1212.918 285.281 1231.387 303.746
 1254.168 303.746 c 1276.945 303.746 1295.414 285.281 1295.414 262.5 c h
1295.414 262.5 m S
0.85098 g
1353.746 145.832 m 1353.746 123.055 1335.281 104.586 1312.5 104.586 c 1289.719
 104.586 1271.254 123.055 1271.254 145.832 c 1271.254 168.613 1289.719 187.082
 1312.5 187.082 c 1335.281 187.082 1353.746 168.613 1353.746 145.832 c h
1353.746 145.832 m f
0 g
1353.746 145.832 m 1353.746 123.055 1335.281 104.586 1312.5 104.586 c 1289.719
 104.586 1271.254 123.055 1271.254 145.832 c 1271.254 168.613 1289.719 187.082
 1312.5 187.082 c 1335.281 187.082 1353.746 168.613 1353.746 145.832 c h
1353.746 145.832 m S
0.85098 g
1237.082 87.5 m 1237.082 64.719 1218.613 46.254 1195.832 46.254 c 1173.055
 46.254 1154.586 64.719 1154.586 87.5 c 1154.586 110.281 1173.055 128.746
 1195.832 128.746 c 1218.613 128.746 1237.082 110.281 1237.082 87.5 c h
1237.082 87.5 m f
0 g
1237.082 87.5 m 1237.082 64.719 1218.613 46.254 1195.832 46.254 c 1173.055
 46.254 1154.586 64.719 1154.586 87.5 c 1154.586 110.281 1173.055 128.746
 1195.832 128.746 c 1218.613 128.746 1237.082 110.281 1237.082 87.5 c h
1237.082 87.5 m S
0.85098 g
1528.746 1254.168 m 1528.746 1231.387 1510.281 1212.918 1487.5 1212.918
 c 1464.719 1212.918 1446.254 1231.387 1446.254 1254.168 c 1446.254 1276.945
 1464.719 1295.414 1487.5 1295.414 c 1510.281 1295.414 1528.746 1276.945
 1528.746 1254.168 c h
1528.746 1254.168 m f
0 g
1528.746 1254.168 m 1528.746 1231.387 1510.281 1212.918 1487.5 1212.918
 c 1464.719 1212.918 1446.254 1231.387 1446.254 1254.168 c 1446.254 1276.945
 1464.719 1295.414 1487.5 1295.414 c 1510.281 1295.414 1528.746 1276.945
 1528.746 1254.168 c h
1528.746 1254.168 m S
0.85098 g
1645.414 1312.5 m 1645.414 1289.719 1626.945 1271.254 1604.168 1271.254
 c 1581.387 1271.254 1562.918 1289.719 1562.918 1312.5 c 1562.918 1335.281
 1581.387 1353.746 1604.168 1353.746 c 1626.945 1353.746 1645.414 1335.281
 1645.414 1312.5 c h
1645.414 1312.5 m f
0 g
1645.414 1312.5 m 1645.414 1289.719 1626.945 1271.254 1604.168 1271.254
 c 1581.387 1271.254 1562.918 1289.719 1562.918 1312.5 c 1562.918 1335.281
 1581.387 1353.746 1604.168 1353.746 c 1626.945 1353.746 1645.414 1335.281
 1645.414 1312.5 c h
1645.414 1312.5 m S
0.85098 g
1703.746 1195.832 m 1703.746 1173.055 1685.281 1154.586 1662.5 1154.586
 c 1639.719 1154.586 1621.254 1173.055 1621.254 1195.832 c 1621.254 1218.613
 1639.719 1237.082 1662.5 1237.082 c 1685.281 1237.082 1703.746 1218.613
 1703.746 1195.832 c h
1703.746 1195.832 m f
0 g
1703.746 1195.832 m 1703.746 1173.055 1685.281 1154.586 1662.5 1154.586
 c 1639.719 1154.586 1621.254 1173.055 1621.254 1195.832 c 1621.254 1218.613
 1639.719 1237.082 1662.5 1237.082 c 1685.281 1237.082 1703.746 1218.613
 1703.746 1195.832 c h
1703.746 1195.832 m S
0.85098 g
1587.082 1137.5 m 1587.082 1114.719 1568.613 1096.254 1545.832 1096.254
 c 1523.055 1096.254 1504.586 1114.719 1504.586 1137.5 c 1504.586 1160.281
 1523.055 1178.746 1545.832 1178.746 c 1568.613 1178.746 1587.082 1160.281
 1587.082 1137.5 c h
1587.082 1137.5 m f
0 g
1587.082 1137.5 m 1587.082 1114.719 1568.613 1096.254 1545.832 1096.254
 c 1523.055 1096.254 1504.586 1114.719 1504.586 1137.5 c 1504.586 1160.281
 1523.055 1178.746 1545.832 1178.746 c 1568.613 1178.746 1587.082 1160.281
 1587.082 1137.5 c h
1587.082 1137.5 m S
0.85098 g
1528.746 904.168 m 1528.746 881.387 1510.281 862.918 1487.5 862.918 c 1464.719
 862.918 1446.254 881.387 1446.254 904.168 c 1446.254 926.945 1464.719 945.414
 1487.5 945.414 c 1510.281 945.414 1528.746 926.945 1528.746 904.168 c h
1528.746 904.168 m f
0 g
1528.746 904.168 m 1528.746 881.387 1510.281 862.918 1487.5 862.918 c 1464.719
 862.918 1446.254 881.387 1446.254 904.168 c 1446.254 926.945 1464.719 945.414
 1487.5 945.414 c 1510.281 945.414 1528.746 926.945 1528.746 904.168 c h
1528.746 904.168 m S
0.85098 g
1645.414 962.5 m 1645.414 939.719 1626.945 921.254 1604.168 921.254 c 1581.387
 921.254 1562.918 939.719 1562.918 962.5 c 1562.918 985.281 1581.387 1003.746
 1604.168 1003.746 c 1626.945 1003.746 1645.414 985.281 1645.414 962.5 c
 h
1645.414 962.5 m f
0 g
1645.414 962.5 m 1645.414 939.719 1626.945 921.254 1604.168 921.254 c 1581.387
 921.254 1562.918 939.719 1562.918 962.5 c 1562.918 985.281 1581.387 1003.746
 1604.168 1003.746 c 1626.945 1003.746 1645.414 985.281 1645.414 962.5 c
 h
1645.414 962.5 m S
0.85098 g
1703.746 845.832 m 1703.746 823.055 1685.281 804.586 1662.5 804.586 c 1639.719
 804.586 1621.254 823.055 1621.254 845.832 c 1621.254 868.613 1639.719 887.082
 1662.5 887.082 c 1685.281 887.082 1703.746 868.613 1703.746 845.832 c h
1703.746 845.832 m f
0 g
1703.746 845.832 m 1703.746 823.055 1685.281 804.586 1662.5 804.586 c 1639.719
 804.586 1621.254 823.055 1621.254 845.832 c 1621.254 868.613 1639.719 887.082
 1662.5 887.082 c 1685.281 887.082 1703.746 868.613 1703.746 845.832 c h
1703.746 845.832 m S
0.85098 g
1587.082 787.5 m 1587.082 764.719 1568.613 746.254 1545.832 746.254 c 1523.055
 746.254 1504.586 764.719 1504.586 787.5 c 1504.586 810.281 1523.055 828.746
 1545.832 828.746 c 1568.613 828.746 1587.082 810.281 1587.082 787.5 c h
1587.082 787.5 m f
0 g
1587.082 787.5 m 1587.082 764.719 1568.613 746.254 1545.832 746.254 c 1523.055
 746.254 1504.586 764.719 1504.586 787.5 c 1504.586 810.281 1523.055 828.746
 1545.832 828.746 c 1568.613 828.746 1587.082 810.281 1587.082 787.5 c h
1587.082 787.5 m S
0.85098 g
1528.746 554.168 m 1528.746 531.387 1510.281 512.918 1487.5 512.918 c 1464.719
 512.918 1446.254 531.387 1446.254 554.168 c 1446.254 576.945 1464.719 595.414
 1487.5 595.414 c 1510.281 595.414 1528.746 576.945 1528.746 554.168 c h
1528.746 554.168 m f
0 g
1528.746 554.168 m 1528.746 531.387 1510.281 512.918 1487.5 512.918 c 1464.719
 512.918 1446.254 531.387 1446.254 554.168 c 1446.254 576.945 1464.719 595.414
 1487.5 595.414 c 1510.281 595.414 1528.746 576.945 1528.746 554.168 c h
1528.746 554.168 m S
0.85098 g
1645.414 612.5 m 1645.414 589.719 1626.945 571.254 1604.168 571.254 c 1581.387
 571.254 1562.918 589.719 1562.918 612.5 c 1562.918 635.281 1581.387 653.746
 1604.168 653.746 c 1626.945 653.746 1645.414 635.281 1645.414 612.5 c h
1645.414 612.5 m f
0 g
1645.414 612.5 m 1645.414 589.719 1626.945 571.254 1604.168 571.254 c 1581.387
 571.254 1562.918 589.719 1562.918 612.5 c 1562.918 635.281 1581.387 653.746
 1604.168 653.746 c 1626.945 653.746 1645.414 635.281 1645.414 612.5 c h
1645.414 612.5 m S
0.85098 g
1703.746 495.832 m 1703.746 473.055 1685.281 454.586 1662.5 454.586 c 1639.719
 454.586 1621.254 473.055 1621.254 495.832 c 1621.254 518.613 1639.719 537.082
 1662.5 537.082 c 1685.281 537.082 1703.746 518.613 1703.746 495.832 c h
1703.746 495.832 m f
0 g
1703.746 495.832 m 1703.746 473.055 1685.281 454.586 1662.5 454.586 c 1639.719
 454.586 1621.254 473.055 1621.254 495.832 c 1621.254 518.613 1639.719 537.082
 1662.5 537.082 c 1685.281 537.082 1703.746 518.613 1703.746 495.832 c h
1703.746 495.832 m S
0.85098 g
1587.082 437.5 m 1587.082 414.719 1568.613 396.254 1545.832 396.254 c 1523.055
 396.254 1504.586 414.719 1504.586 437.5 c 1504.586 460.281 1523.055 478.746
 1545.832 478.746 c 1568.613 478.746 1587.082 460.281 1587.082 437.5 c h
1587.082 437.5 m f
0 g
1587.082 437.5 m 1587.082 414.719 1568.613 396.254 1545.832 396.254 c 1523.055
 396.254 1504.586 414.719 1504.586 437.5 c 1504.586 460.281 1523.055 478.746
 1545.832 478.746 c 1568.613 478.746 1587.082 460.281 1587.082 437.5 c h
1587.082 437.5 m S
0.85098 g
1528.746 204.168 m 1528.746 181.387 1510.281 162.918 1487.5 162.918 c 1464.719
 162.918 1446.254 181.387 1446.254 204.168 c 1446.254 226.945 1464.719 245.414
 1487.5 245.414 c 1510.281 245.414 1528.746 226.945 1528.746 204.168 c h
1528.746 204.168 m f
0 g
1528.746 204.168 m 1528.746 181.387 1510.281 162.918 1487.5 162.918 c 1464.719
 162.918 1446.254 181.387 1446.254 204.168 c 1446.254 226.945 1464.719 245.414
 1487.5 245.414 c 1510.281 245.414 1528.746 226.945 1528.746 204.168 c h
1528.746 204.168 m S
0.85098 g
1645.414 262.5 m 1645.414 239.719 1626.945 221.254 1604.168 221.254 c 1581.387
 221.254 1562.918 239.719 1562.918 262.5 c 1562.918 285.281 1581.387 303.746
 1604.168 303.746 c 1626.945 303.746 1645.414 285.281 1645.414 262.5 c h
1645.414 262.5 m f
0 g
1645.414 262.5 m 1645.414 239.719 1626.945 221.254 1604.168 221.254 c 1581.387
 221.254 1562.918 239.719 1562.918 262.5 c 1562.918 285.281 1581.387 303.746
 1604.168 303.746 c 1626.945 303.746 1645.414 285.281 1645.414 262.5 c h
1645.414 262.5 m S
0.85098 g
1703.746 145.832 m 1703.746 123.055 1685.281 104.586 1662.5 104.586 c 1639.719
 104.586 1621.254 123.055 1621.254 145.832 c 1621.254 168.613 1639.719 187.082
 1662.5 187.082 c 1685.281 187.082 1703.746 168.613 1703.746 145.832 c h
1703.746 145.832 m f
0 g
1703.746 145.832 m 1703.746 123.055 1685.281 104.586 1662.5 104.586 c 1639.719
 104.586 1621.254 123.055 1621.254 145.832 c 1621.254 168.613 1639.719 187.082
 1662.5 187.082 c 1685.281 187.082 1703.746 168.613 1703.746 145.832 c h
1703.746 145.832 m S
0.85098 g
1587.082 87.5 m 1587.082 64.719 1568.613 46.254 1545.832 46.254 c 1523.055
 46.254 1504.586 64.719 1504.586 87.5 c 1504.586 110.281 1523.055 128.746
 1545.832 128.746 c 1568.613 128.746 1587.082 110.281 1587.082 87.5 c h
1587.082 87.5 m f
0 g
1587.082 87.5 m 1587.082 64.719 1568.613 46.254 1545.832 46.254 c 1523.055
 46.254 1504.586 64.719 1504.586 87.5 c 1504.586 110.281 1523.055 128.746
 1545.832 128.746 c 1568.613 128.746 1587.082 110.281 1587.082 87.5 c h
1587.082 87.5 m S
0.85098 g
1878.746 1254.168 m 1878.746 1231.387 1860.281 1212.918 1837.5 1212.918
 c 1814.719 1212.918 1796.254 1231.387 1796.254 1254.168 c 1796.254 1276.945
 1814.719 1295.414 1837.5 1295.414 c 1860.281 1295.414 1878.746 1276.945
 1878.746 1254.168 c h
1878.746 1254.168 m f
0 g
1878.746 1254.168 m 1878.746 1231.387 1860.281 1212.918 1837.5 1212.918
 c 1814.719 1212.918 1796.254 1231.387 1796.254 1254.168 c 1796.254 1276.945
 1814.719 1295.414 1837.5 1295.414 c 1860.281 1295.414 1878.746 1276.945
 1878.746 1254.168 c h
1878.746 1254.168 m S
0.85098 g
1995.414 1312.5 m 1995.414 1289.719 1976.945 1271.254 1954.168 1271.254
 c 1931.387 1271.254 1912.918 1289.719 1912.918 1312.5 c 1912.918 1335.281
 1931.387 1353.746 1954.168 1353.746 c 1976.945 1353.746 1995.414 1335.281
 1995.414 1312.5 c h
1995.414 1312.5 m f
0 g
1995.414 1312.5 m 1995.414 1289.719 1976.945 1271.254 1954.168 1271.254
 c 1931.387 1271.254 1912.918 1289.719 1912.918 1312.5 c 1912.918 1335.281
 1931.387 1353.746 1954.168 1353.746 c 1976.945 1353.746 1995.414 1335.281
 1995.414 1312.5 c h
1995.414 1312.5 m S
0.85098 g
2053.746 1195.832 m 2053.746 1173.055 2035.281 1154.586 2012.5 1154.586
 c 1989.719 1154.586 1971.254 1173.055 1971.254 1195.832 c 1971.254 1218.613
 1989.719 1237.082 2012.5 1237.082 c 2035.281 1237.082 2053.746 1218.613
 2053.746 1195.832 c h
2053.746 1195.832 m f
0 g
2053.746 1195.832 m 2053.746 1173.055 2035.281 1154.586 2012.5 1154.586
 c 1989.719 1154.586 1971.254 1173.055 1971.254 1195.832 c 1971.254 1218.613
 1989.719 1237.082 2012.5 1237.082 c 2035.281 1237.082 2053.746 1218.613
 2053.746 1195.832 c h
2053.746 1195.832 m S
0.85098 g
1937.082 1137.5 m 1937.082 1114.719 1918.613 1096.254 1895.832 1096.254
 c 1873.055 1096.254 1854.586 1114.719 1854.586 1137.5 c 1854.586 1160.281
 1873.055 1178.746 1895.832 1178.746 c 1918.613 1178.746 1937.082 1160.281
 1937.082 1137.5 c h
1937.082 1137.5 m f
0 g
1937.082 1137.5 m 1937.082 1114.719 1918.613 1096.254 1895.832 1096.254
 c 1873.055 1096.254 1854.586 1114.719 1854.586 1137.5 c 1854.586 1160.281
 1873.055 1178.746 1895.832 1178.746 c 1918.613 1178.746 1937.082 1160.281
 1937.082 1137.5 c h
1937.082 1137.5 m S
0.85098 g
1878.746 904.168 m 1878.746 881.387 1860.281 862.918 1837.5 862.918 c 1814.719
 862.918 1796.254 881.387 1796.254 904.168 c 1796.254 926.945 1814.719 945.414
 1837.5 945.414 c 1860.281 945.414 1878.746 926.945 1878.746 904.168 c h
1878.746 904.168 m f
0 g
1878.746 904.168 m 1878.746 881.387 1860.281 862.918 1837.5 862.918 c 1814.719
 862.918 1796.254 881.387 1796.254 904.168 c 1796.254 926.945 1814.719 945.414
 1837.5 945.414 c 1860.281 945.414 1878.746 926.945 1878.746 904.168 c h
1878.746 904.168 m S
0.85098 g
1995.414 962.5 m 1995.414 939.719 1976.945 921.254 1954.168 921.254 c 1931.387
 921.254 1912.918 939.719 1912.918 962.5 c 1912.918 985.281 1931.387 1003.746
 1954.168 1003.746 c 1976.945 1003.746 1995.414 985.281 1995.414 962.5 c
 h
1995.414 962.5 m f
0 g
1995.414 962.5 m 1995.414 939.719 1976.945 921.254 1954.168 921.254 c 1931.387
 921.254 1912.918 939.719 1912.918 962.5 c 1912.918 985.281 1931.387 1003.746
 1954.168 1003.746 c 1976.945 1003.746 1995.414 985.281 1995.414 962.5 c
 h
1995.414 962.5 m S
0.85098 g
2053.746 845.832 m 2053.746 823.055 2035.281 804.586 2012.5 804.586 c 1989.719
 804.586 1971.254 823.055 1971.254 845.832 c 1971.254 868.613 1989.719 887.082
 2012.5 887.082 c 2035.281 887.082 2053.746 868.613 2053.746 845.832 c h
2053.746 845.832 m f
0 g
2053.746 845.832 m 2053.746 823.055 2035.281 804.586 2012.5 804.586 c 1989.719
 804.586 1971.254 823.055 1971.254 845.832 c 1971.254 868.613 1989.719 887.082
 2012.5 887.082 c 2035.281 887.082 2053.746 868.613 2053.746 845.832 c h
2053.746 845.832 m S
0.85098 g
1937.082 787.5 m 1937.082 764.719 1918.613 746.254 1895.832 746.254 c 1873.055
 746.254 1854.586 764.719 1854.586 787.5 c 1854.586 810.281 1873.055 828.746
 1895.832 828.746 c 1918.613 828.746 1937.082 810.281 1937.082 787.5 c h
1937.082 787.5 m f
0 g
1937.082 787.5 m 1937.082 764.719 1918.613 746.254 1895.832 746.254 c 1873.055
 746.254 1854.586 764.719 1854.586 787.5 c 1854.586 810.281 1873.055 828.746
 1895.832 828.746 c 1918.613 828.746 1937.082 810.281 1937.082 787.5 c h
1937.082 787.5 m S
0.85098 g
1878.746 554.168 m 1878.746 531.387 1860.281 512.918 1837.5 512.918 c 1814.719
 512.918 1796.254 531.387 1796.254 554.168 c 1796.254 576.945 1814.719 595.414
 1837.5 595.414 c 1860.281 595.414 1878.746 576.945 1878.746 554.168 c h
1878.746 554.168 m f
0 g
1878.746 554.168 m 1878.746 531.387 1860.281 512.918 1837.5 512.918 c 1814.719
 512.918 1796.254 531.387 1796.254 554.168 c 1796.254 576.945 1814.719 595.414
 1837.5 595.414 c 1860.281 595.414 1878.746 576.945 1878.746 554.168 c h
1878.746 554.168 m S
0.85098 g
1995.414 612.5 m 1995.414 589.719 1976.945 571.254 1954.168 571.254 c 1931.387
 571.254 1912.918 589.719 1912.918 612.5 c 1912.918 635.281 1931.387 653.746
 1954.168 653.746 c 1976.945 653.746 1995.414 635.281 1995.414 612.5 c h
1995.414 612.5 m f
0 g
1995.414 612.5 m 1995.414 589.719 1976.945 571.254 1954.168 571.254 c 1931.387
 571.254 1912.918 589.719 1912.918 612.5 c 1912.918 635.281 1931.387 653.746
 1954.168 653.746 c 1976.945 653.746 1995.414 635.281 1995.414 612.5 c h
1995.414 612.5 m S
0.85098 g
2053.746 495.832 m 2053.746 473.055 2035.281 454.586 2012.5 454.586 c 1989.719
 454.586 1971.254 473.055 1971.254 495.832 c 1971.254 518.613 1989.719 537.082
 2012.5 537.082 c 2035.281 537.082 2053.746 518.613 2053.746 495.832 c h
2053.746 495.832 m f
0 g
2053.746 495.832 m 2053.746 473.055 2035.281 454.586 2012.5 454.586 c 1989.719
 454.586 1971.254 473.055 1971.254 495.832 c 1971.254 518.613 1989.719 537.082
 2012.5 537.082 c 2035.281 537.082 2053.746 518.613 2053.746 495.832 c h
2053.746 495.832 m S
0.85098 g
1937.082 437.5 m 1937.082 414.719 1918.613 396.254 1895.832 396.254 c 1873.055
 396.254 1854.586 414.719 1854.586 437.5 c 1854.586 460.281 1873.055 478.746
 1895.832 478.746 c 1918.613 478.746 1937.082 460.281 1937.082 437.5 c h
1937.082 437.5 m f
0 g
1937.082 437.5 m 1937.082 414.719 1918.613 396.254 1895.832 396.254 c 1873.055
 396.254 1854.586 414.719 1854.586 437.5 c 1854.586 460.281 1873.055 478.746
 1895.832 478.746 c 1918.613 478.746 1937.082 460.281 1937.082 437.5 c h
1937.082 437.5 m S
0.85098 g
1878.746 204.168 m 1878.746 181.387 1860.281 162.918 1837.5 162.918 c 1814.719
 162.918 1796.254 181.387 1796.254 204.168 c 1796.254 226.945 1814.719 245.414
 1837.5 245.414 c 1860.281 245.414 1878.746 226.945 1878.746 204.168 c h
1878.746 204.168 m f
0 g
1878.746 204.168 m 1878.746 181.387 1860.281 162.918 1837.5 162.918 c 1814.719
 162.918 1796.254 181.387 1796.254 204.168 c 1796.254 226.945 1814.719 245.414
 1837.5 245.414 c 1860.281 245.414 1878.746 226.945 1878.746 204.168 c h
1878.746 204.168 m S
0.85098 g
1995.414 262.5 m 1995.414 239.719 1976.945 221.254 1954.168 221.254 c 1931.387
 221.254 1912.918 239.719 1912.918 262.5 c 1912.918 285.281 1931.387 303.746
 1954.168 303.746 c 1976.945 303.746 1995.414 285.281 1995.414 262.5 c h
1995.414 262.5 m f
0 g
1995.414 262.5 m 1995.414 239.719 1976.945 221.254 1954.168 221.254 c 1931.387
 221.254 1912.918 239.719 1912.918 262.5 c 1912.918 285.281 1931.387 303.746
 1954.168 303.746 c 1976.945 303.746 1995.414 285.281 1995.414 262.5 c h
1995.414 262.5 m S
0.85098 g
2053.746 145.832 m 2053.746 123.055 2035.281 104.586 2012.5 104.586 c 1989.719
 104.586 1971.254 123.055 1971.254 145.832 c 1971.254 168.613 1989.719 187.082
 2012.5 187.082 c 2035.281 187.082 2053.746 168.613 2053.746 145.832 c h
2053.746 145.832 m f
0 g
2053.746 145.832 m 2053.746 123.055 2035.281 104.586 2012.5 104.586 c 1989.719
 104.586 1971.254 123.055 1971.254 145.832 c 1971.254 168.613 1989.719 187.082
 2012.5 187.082 c 2035.281 187.082 2053.746 168.613 2053.746 145.832 c h
2053.746 145.832 m S
0.85098 g
1937.082 87.5 m 1937.082 64.719 1918.613 46.254 1895.832 46.254 c 1873.055
 46.254 1854.586 64.719 1854.586 87.5 c 1854.586 110.281 1873.055 128.746
 1895.832 128.746 c 1918.613 128.746 1937.082 110.281 1937.082 87.5 c h
1937.082 87.5 m f
0 g
1937.082 87.5 m 1937.082 64.719 1918.613 46.254 1895.832 46.254 c 1873.055
 46.254 1854.586 64.719 1854.586 87.5 c 1854.586 110.281 1873.055 128.746
 1895.832 128.746 c 1918.613 128.746 1937.082 110.281 1937.082 87.5 c h
1937.082 87.5 m S
Q Q
showpage
%%Trailer
%%Trailer
cleartomark
countdictstack
exch sub { end } repeat
restore
%%EOF
