%!PS-Adobe-2.0 EPSF-2.0
%%BoundingBox: 0 0 2100 1400
%%HiResBoundingBox: 0.000000 0.000000 2100.000000 1400.000000
%%Creator: cairo 1.14.2 (http://cairographics.org)
%%CreationDate: Mon Sep  7 08:21:49 2015
%%DocumentData: Clean7Bit
%%LanguageLevel: 2
%%DocumentMedia: 741x494mm 2100 1400 0 () ()
%%EndComments
% EPSF created by ps2eps 1.68
%%BeginProlog
save
countdictstack
mark
newpath
/showpage {} def
/setpagedevice {pop} def
%%EndProlog
%%Page 1 1
%%BeginProlog
/languagelevel where
{ pop languagelevel } { 1 } ifelse
2 lt { /Helvetica findfont 12 scalefont setfont 50 500 moveto
  (This print job requires a PostScript Language Level 2 printer.) show
  showpage quit } if
/q { gsave } bind def
/Q { grestore } bind def
/cm { 6 array astore concat } bind def
/w { setlinewidth } bind def
/J { setlinecap } bind def
/j { setlinejoin } bind def
/M { setmiterlimit } bind def
/d { setdash } bind def
/m { moveto } bind def
/l { lineto } bind def
/c { curveto } bind def
/h { closepath } bind def
/re { exch dup neg 3 1 roll 5 3 roll moveto 0 rlineto
      0 exch rlineto 0 rlineto closepath } bind def
/S { stroke } bind def
/f { fill } bind def
/f* { eofill } bind def
/n { newpath } bind def
/W { clip } bind def
/W* { eoclip } bind def
/BT { } bind def
/ET { } bind def
/pdfmark where { pop globaldict /?pdfmark /exec load put }
    { globaldict begin /?pdfmark /pop load def /pdfmark
    /cleartomark load def end } ifelse
/BDC { mark 3 1 roll /BDC pdfmark } bind def
/EMC { mark /EMC pdfmark } bind def
/cairo_store_point { /cairo_point_y exch def /cairo_point_x exch def } def
/Tj { show currentpoint cairo_store_point } bind def
/TJ {
  {
    dup
    type /stringtype eq
    { show } { -0.001 mul 0 cairo_font_matrix dtransform rmoveto } ifelse
  } forall
  currentpoint cairo_store_point
} bind def
/cairo_selectfont { cairo_font_matrix aload pop pop pop 0 0 6 array astore
    cairo_font exch selectfont cairo_point_x cairo_point_y moveto } bind def
/Tf { pop /cairo_font exch def /cairo_font_matrix where
      { pop cairo_selectfont } if } bind def
/Td { matrix translate cairo_font_matrix matrix concatmatrix dup
      /cairo_font_matrix exch def dup 4 get exch 5 get cairo_store_point
      /cairo_font where { pop cairo_selectfont } if } bind def
/Tm { 2 copy 8 2 roll 6 array astore /cairo_font_matrix exch def
      cairo_store_point /cairo_font where { pop cairo_selectfont } if } bind def
/g { setgray } bind def
/rg { setrgbcolor } bind def
/d1 { setcachedevice } bind def
/cairo_set_page_size {
  % Change paper size, but only if different from previous paper size otherwise
  % duplex fails. PLRM specifies a tolerance of 5 pts when matching paper size
  % so we use the same when checking if the size changes.
  /setpagedevice where {
    pop currentpagedevice
    /PageSize known {
      2 copy
      currentpagedevice /PageSize get aload pop
      exch 4 1 roll
      sub abs 5 gt
      3 1 roll
      sub abs 5 gt
      or
    } {
      true
    } ifelse
    {
      2 array astore
      2 dict begin
        /PageSize exch def
        /ImagingBBox null def
      currentdict end
      setpagedevice
    } {
      pop pop
    } ifelse
  } {
    pop
  } ifelse
} def
%%EndProlog
%%BeginSetup
%%EndSetup
%%Page: 1 1
%%BeginPageSetup
%%PageMedia: 741x494mm
%%PageBoundingBox: 0 0 2100 1400
2100 1400 cairo_set_page_size
%%EndPageSetup
q 0 0 2100 1400 rectclip q
0.984314 g
0 0 2100 1400 rectfill
0.788235 g
1.875 w
0 J
1 j
[] 0.0 d
4 M 0 1400 2100 -1400 re S
0 g
2.5 w
1 J
175 1341.668 m 116.668 1400 l 175 1400 l S
291.668 1225 m 350 1283.332 l 350 1225 l S
175 1108.332 m 233.332 1050 l 175 1050 l S
58.332 1225 m 0 1166.668 l 0 1225 l S
291.668 1225 m 350 1166.668 l 350 1225 l S
58.332 1225 m 0 1283.332 l 0 1225 l S
175 1108.332 m 116.668 1050 l 175 1050 l S
175 1341.668 m 233.332 1400 l 175 1400 l S
175 991.668 m 116.668 1050 l 175 1050 l S
291.668 875 m 350 933.332 l 350 875 l S
175 758.332 m 233.332 700 l 175 700 l S
58.332 875 m 0 816.668 l 0 875 l S
291.668 875 m 350 816.668 l 350 875 l S
58.332 875 m 0 933.332 l 0 875 l S
175 758.332 m 116.668 700 l 175 700 l S
175 991.668 m 233.332 1050 l 175 1050 l S
175 641.668 m 116.668 700 l 175 700 l S
291.668 525 m 350 583.332 l 350 525 l S
175 408.332 m 233.332 350 l 175 350 l S
58.332 525 m 0 466.668 l 0 525 l S
291.668 525 m 350 466.668 l 350 525 l S
58.332 525 m 0 583.332 l 0 525 l S
175 408.332 m 116.668 350 l 175 350 l S
175 641.668 m 233.332 700 l 175 700 l S
175 291.668 m 116.668 350 l 175 350 l S
291.668 175 m 350 233.332 l 350 175 l S
175 58.332 m 233.332 0 l 175 0 l S
58.332 175 m 0 116.668 l 0 175 l S
291.668 175 m 350 116.668 l 350 175 l S
58.332 175 m 0 233.332 l 0 175 l S
175 58.332 m 116.668 0 l 175 0 l S
175 291.668 m 233.332 350 l 175 350 l S
525 1341.668 m 466.668 1400 l 525 1400 l S
641.668 1225 m 700 1283.332 l 700 1225 l S
525 1108.332 m 583.332 1050 l 525 1050 l S
408.332 1225 m 350 1166.668 l 350 1225 l S
641.668 1225 m 700 1166.668 l 700 1225 l S
408.332 1225 m 350 1283.332 l 350 1225 l S
525 1108.332 m 466.668 1050 l 525 1050 l S
525 1341.668 m 583.332 1400 l 525 1400 l S
525 991.668 m 466.668 1050 l 525 1050 l S
641.668 875 m 700 933.332 l 700 875 l S
525 758.332 m 583.332 700 l 525 700 l S
408.332 875 m 350 816.668 l 350 875 l S
641.668 875 m 700 816.668 l 700 875 l S
408.332 875 m 350 933.332 l 350 875 l S
525 758.332 m 466.668 700 l 525 700 l S
525 991.668 m 583.332 1050 l 525 1050 l S
525 641.668 m 466.668 700 l 525 700 l S
641.668 525 m 700 583.332 l 700 525 l S
525 408.332 m 583.332 350 l 525 350 l S
408.332 525 m 350 466.668 l 350 525 l S
641.668 525 m 700 466.668 l 700 525 l S
408.332 525 m 350 583.332 l 350 525 l S
525 408.332 m 466.668 350 l 525 350 l S
525 641.668 m 583.332 700 l 525 700 l S
525 291.668 m 466.668 350 l 525 350 l S
641.668 175 m 700 233.332 l 700 175 l S
525 58.332 m 583.332 0 l 525 0 l S
408.332 175 m 350 116.668 l 350 175 l S
641.668 175 m 700 116.668 l 700 175 l S
408.332 175 m 350 233.332 l 350 175 l S
525 58.332 m 466.668 0 l 525 0 l S
525 291.668 m 583.332 350 l 525 350 l S
875 1341.668 m 816.668 1400 l 875 1400 l S
991.668 1225 m 1050 1283.332 l 1050 1225 l S
875 1108.332 m 933.332 1050 l 875 1050 l S
758.332 1225 m 700 1166.668 l 700 1225 l S
991.668 1225 m 1050 1166.668 l 1050 1225 l S
758.332 1225 m 700 1283.332 l 700 1225 l S
875 1108.332 m 816.668 1050 l 875 1050 l S
875 1341.668 m 933.332 1400 l 875 1400 l S
875 991.668 m 816.668 1050 l 875 1050 l S
991.668 875 m 1050 933.332 l 1050 875 l S
875 758.332 m 933.332 700 l 875 700 l S
758.332 875 m 700 816.668 l 700 875 l S
991.668 875 m 1050 816.668 l 1050 875 l S
758.332 875 m 700 933.332 l 700 875 l S
875 758.332 m 816.668 700 l 875 700 l S
875 991.668 m 933.332 1050 l 875 1050 l S
875 641.668 m 816.668 700 l 875 700 l S
991.668 525 m 1050 583.332 l 1050 525 l S
875 408.332 m 933.332 350 l 875 350 l S
758.332 525 m 700 466.668 l 700 525 l S
991.668 525 m 1050 466.668 l 1050 525 l S
758.332 525 m 700 583.332 l 700 525 l S
875 408.332 m 816.668 350 l 875 350 l S
875 641.668 m 933.332 700 l 875 700 l S
875 291.668 m 816.668 350 l 875 350 l S
991.668 175 m 1050 233.332 l 1050 175 l S
875 58.332 m 933.332 0 l 875 0 l S
758.332 175 m 700 116.668 l 700 175 l S
991.668 175 m 1050 116.668 l 1050 175 l S
758.332 175 m 700 233.332 l 700 175 l S
875 58.332 m 816.668 0 l 875 0 l S
875 291.668 m 933.332 350 l 875 350 l S
1225 1341.668 m 1166.668 1400 l 1225 1400 l S
1341.668 1225 m 1400 1283.332 l 1400 1225 l S
1225 1108.332 m 1283.332 1050 l 1225 1050 l S
1108.332 1225 m 1050 1166.668 l 1050 1225 l S
1341.668 1225 m 1400 1166.668 l 1400 1225 l S
1108.332 1225 m 1050 1283.332 l 1050 1225 l S
1225 1108.332 m 1166.668 1050 l 1225 1050 l S
1225 1341.668 m 1283.332 1400 l 1225 1400 l S
1225 991.668 m 1166.668 1050 l 1225 1050 l S
1341.668 875 m 1400 933.332 l 1400 875 l S
1225 758.332 m 1283.332 700 l 1225 700 l S
1108.332 875 m 1050 816.668 l 1050 875 l S
1341.668 875 m 1400 816.668 l 1400 875 l S
1108.332 875 m 1050 933.332 l 1050 875 l S
1225 758.332 m 1166.668 700 l 1225 700 l S
1225 991.668 m 1283.332 1050 l 1225 1050 l S
1225 641.668 m 1166.668 700 l 1225 700 l S
1341.668 525 m 1400 583.332 l 1400 525 l S
1225 408.332 m 1283.332 350 l 1225 350 l S
1108.332 525 m 1050 466.668 l 1050 525 l S
1341.668 525 m 1400 466.668 l 1400 525 l S
1108.332 525 m 1050 583.332 l 1050 525 l S
1225 408.332 m 1166.668 350 l 1225 350 l S
1225 641.668 m 1283.332 700 l 1225 700 l S
1225 291.668 m 1166.668 350 l 1225 350 l S
1341.668 175 m 1400 233.332 l 1400 175 l S
1225 58.332 m 1283.332 0 l 1225 0 l S
1108.332 175 m 1050 116.668 l 1050 175 l S
1341.668 175 m 1400 116.668 l 1400 175 l S
1108.332 175 m 1050 233.332 l 1050 175 l S
1225 58.332 m 1166.668 0 l 1225 0 l S
1225 291.668 m 1283.332 350 l 1225 350 l S
1575 1341.668 m 1516.668 1400 l 1575 1400 l S
1691.668 1225 m 1750 1283.332 l 1750 1225 l S
1575 1108.332 m 1633.332 1050 l 1575 1050 l S
1458.332 1225 m 1400 1166.668 l 1400 1225 l S
1691.668 1225 m 1750 1166.668 l 1750 1225 l S
1458.332 1225 m 1400 1283.332 l 1400 1225 l S
1575 1108.332 m 1516.668 1050 l 1575 1050 l S
1575 1341.668 m 1633.332 1400 l 1575 1400 l S
1575 991.668 m 1516.668 1050 l 1575 1050 l S
1691.668 875 m 1750 933.332 l 1750 875 l S
1575 758.332 m 1633.332 700 l 1575 700 l S
1458.332 875 m 1400 816.668 l 1400 875 l S
1691.668 875 m 1750 816.668 l 1750 875 l S
1458.332 875 m 1400 933.332 l 1400 875 l S
1575 758.332 m 1516.668 700 l 1575 700 l S
1575 991.668 m 1633.332 1050 l 1575 1050 l S
1575 641.668 m 1516.668 700 l 1575 700 l S
1691.668 525 m 1750 583.332 l 1750 525 l S
1575 408.332 m 1633.332 350 l 1575 350 l S
1458.332 525 m 1400 466.668 l 1400 525 l S
1691.668 525 m 1750 466.668 l 1750 525 l S
1458.332 525 m 1400 583.332 l 1400 525 l S
1575 408.332 m 1516.668 350 l 1575 350 l S
1575 641.668 m 1633.332 700 l 1575 700 l S
1575 291.668 m 1516.668 350 l 1575 350 l S
1691.668 175 m 1750 233.332 l 1750 175 l S
1575 58.332 m 1633.332 0 l 1575 0 l S
1458.332 175 m 1400 116.668 l 1400 175 l S
1691.668 175 m 1750 116.668 l 1750 175 l S
1458.332 175 m 1400 233.332 l 1400 175 l S
1575 58.332 m 1516.668 0 l 1575 0 l S
1575 291.668 m 1633.332 350 l 1575 350 l S
1925 1341.668 m 1866.668 1400 l 1925 1400 l S
2041.668 1225 m 2100 1283.332 l 2100 1225 l S
1925 1108.332 m 1983.332 1050 l 1925 1050 l S
1808.332 1225 m 1750 1166.668 l 1750 1225 l S
2041.668 1225 m 2100 1166.668 l 2100 1225 l S
1808.332 1225 m 1750 1283.332 l 1750 1225 l S
1925 1108.332 m 1866.668 1050 l 1925 1050 l S
1925 1341.668 m 1983.332 1400 l 1925 1400 l S
1925 991.668 m 1866.668 1050 l 1925 1050 l S
2041.668 875 m 2100 933.332 l 2100 875 l S
1925 758.332 m 1983.332 700 l 1925 700 l S
1808.332 875 m 1750 816.668 l 1750 875 l S
2041.668 875 m 2100 816.668 l 2100 875 l S
1808.332 875 m 1750 933.332 l 1750 875 l S
1925 758.332 m 1866.668 700 l 1925 700 l S
1925 991.668 m 1983.332 1050 l 1925 1050 l S
1925 641.668 m 1866.668 700 l 1925 700 l S
2041.668 525 m 2100 583.332 l 2100 525 l S
1925 408.332 m 1983.332 350 l 1925 350 l S
1808.332 525 m 1750 466.668 l 1750 525 l S
2041.668 525 m 2100 466.668 l 2100 525 l S
1808.332 525 m 1750 583.332 l 1750 525 l S
1925 408.332 m 1866.668 350 l 1925 350 l S
1925 641.668 m 1983.332 700 l 1925 700 l S
1925 291.668 m 1866.668 350 l 1925 350 l S
2041.668 175 m 2100 233.332 l 2100 175 l S
1925 58.332 m 1983.332 0 l 1925 0 l S
1808.332 175 m 1750 116.668 l 1750 175 l S
2041.668 175 m 2100 116.668 l 2100 175 l S
1808.332 175 m 1750 233.332 l 1750 175 l S
1925 58.332 m 1866.668 0 l 1925 0 l S
1925 291.668 m 1983.332 350 l 1925 350 l S
Q Q
showpage
%%Trailer
%%Trailer
cleartomark
countdictstack
exch sub { end } repeat
restore
%%EOF
