%!PS-Adobe-2.0 EPSF-2.0
%%BoundingBox: 0 0 1200 1039
%%HiResBoundingBox: 0.000000 0.000000 1200.000000 1039.000000
%%Creator: cairo 1.14.2 (http://cairographics.org)
%%CreationDate: Mon Sep  7 08:21:49 2015
%%DocumentData: Clean7Bit
%%LanguageLevel: 2
%%DocumentMedia: 423x367mm 1200 1039 0 () ()
%%EndComments
% EPSF created by ps2eps 1.68
%%BeginProlog
save
countdictstack
mark
newpath
/showpage {} def
/setpagedevice {pop} def
%%EndProlog
%%Page 1 1
%%BeginProlog
/languagelevel where
{ pop languagelevel } { 1 } ifelse
2 lt { /Helvetica findfont 12 scalefont setfont 50 500 moveto
  (This print job requires a PostScript Language Level 2 printer.) show
  showpage quit } if
/q { gsave } bind def
/Q { grestore } bind def
/cm { 6 array astore concat } bind def
/w { setlinewidth } bind def
/J { setlinecap } bind def
/j { setlinejoin } bind def
/M { setmiterlimit } bind def
/d { setdash } bind def
/m { moveto } bind def
/l { lineto } bind def
/c { curveto } bind def
/h { closepath } bind def
/re { exch dup neg 3 1 roll 5 3 roll moveto 0 rlineto
      0 exch rlineto 0 rlineto closepath } bind def
/S { stroke } bind def
/f { fill } bind def
/f* { eofill } bind def
/n { newpath } bind def
/W { clip } bind def
/W* { eoclip } bind def
/BT { } bind def
/ET { } bind def
/pdfmark where { pop globaldict /?pdfmark /exec load put }
    { globaldict begin /?pdfmark /pop load def /pdfmark
    /cleartomark load def end } ifelse
/BDC { mark 3 1 roll /BDC pdfmark } bind def
/EMC { mark /EMC pdfmark } bind def
/cairo_store_point { /cairo_point_y exch def /cairo_point_x exch def } def
/Tj { show currentpoint cairo_store_point } bind def
/TJ {
  {
    dup
    type /stringtype eq
    { show } { -0.001 mul 0 cairo_font_matrix dtransform rmoveto } ifelse
  } forall
  currentpoint cairo_store_point
} bind def
/cairo_selectfont { cairo_font_matrix aload pop pop pop 0 0 6 array astore
    cairo_font exch selectfont cairo_point_x cairo_point_y moveto } bind def
/Tf { pop /cairo_font exch def /cairo_font_matrix where
      { pop cairo_selectfont } if } bind def
/Td { matrix translate cairo_font_matrix matrix concatmatrix dup
      /cairo_font_matrix exch def dup 4 get exch 5 get cairo_store_point
      /cairo_font where { pop cairo_selectfont } if } bind def
/Tm { 2 copy 8 2 roll 6 array astore /cairo_font_matrix exch def
      cairo_store_point /cairo_font where { pop cairo_selectfont } if } bind def
/g { setgray } bind def
/rg { setrgbcolor } bind def
/d1 { setcachedevice } bind def
/cairo_set_page_size {
  % Change paper size, but only if different from previous paper size otherwise
  % duplex fails. PLRM specifies a tolerance of 5 pts when matching paper size
  % so we use the same when checking if the size changes.
  /setpagedevice where {
    pop currentpagedevice
    /PageSize known {
      2 copy
      currentpagedevice /PageSize get aload pop
      exch 4 1 roll
      sub abs 5 gt
      3 1 roll
      sub abs 5 gt
      or
    } {
      true
    } ifelse
    {
      2 array astore
      2 dict begin
        /PageSize exch def
        /ImagingBBox null def
      currentdict end
      setpagedevice
    } {
      pop pop
    } ifelse
  } {
    pop
  } ifelse
} def
%%EndProlog
%%BeginSetup
%%EndSetup
%%Page: 1 1
%%BeginPageSetup
%%PageMedia: 423x367mm
%%PageBoundingBox: 0 0 1200 1039
1200 1039 cairo_set_page_size
%%EndPageSetup
q 0 0 1200 1039 rectclip q
0.984314 g
0 0 1200 1039 rectfill
0.788235 g
1.875 w
0 J
1 j
[] 0.0 d
4 M 0 1039 1200 -1039.23 re S
0 g
2.5 w
1 J
100 288.445 m 33.332 326.934 16.668 355.801 50 375.047 c S
100 288.445 m 33.332 326.934 0 326.934 0 288.445 c S
0 461.648 m 0 384.668 -16.668 355.801 -50 375.047 c S
-100 288.445 m -33.332 326.934 0 326.934 0 288.445 c S
0 461.648 m 0 384.668 16.668 355.801 50 375.047 c S
-100 230.711 m -33.332 192.219 0 192.219 0 230.711 c S
100 230.711 m 33.332 192.219 16.668 163.352 50 144.105 c S
0 57.504 m 0 134.484 -16.668 163.352 -50 144.105 c S
100 230.711 m 33.332 192.219 0 192.219 0 230.711 c S
0 57.504 m 0 134.484 16.668 163.352 50 144.105 c S
250 28.637 m 183.332 67.129 166.668 95.996 200 115.238 c S
250 28.637 m 183.332 67.129 150 67.129 150 28.637 c S
150 201.844 m 150 124.863 133.332 95.996 100 115.238 c S
50 28.637 m 116.668 67.129 150 67.129 150 28.637 c S
150 201.844 m 150 124.863 166.668 95.996 200 115.238 c S
50 28.637 m 116.668 67.129 133.332 95.996 100 115.238 c S
100 808.059 m 33.332 846.551 16.668 875.418 50 894.664 c S
100 808.059 m 33.332 846.551 0 846.551 0 808.059 c S
0 981.266 m 0 904.285 -16.668 875.418 -50 894.664 c S
-100 808.059 m -33.332 846.551 0 846.551 0 808.059 c S
0 981.266 m 0 904.285 16.668 875.418 50 894.664 c S
-100 750.324 m -33.332 711.836 0 711.836 0 750.324 c S
100 750.324 m 33.332 711.836 16.668 682.969 50 663.723 c S
0 577.121 m 0 654.102 -16.668 682.969 -50 663.723 c S
100 750.324 m 33.332 711.836 0 711.836 0 750.324 c S
0 577.121 m 0 654.102 16.668 682.969 50 663.723 c S
250 548.254 m 183.332 586.742 166.668 615.609 200 634.855 c S
250 548.254 m 183.332 586.742 150 586.742 150 548.254 c S
150 721.457 m 150 644.477 133.332 615.609 100 634.855 c S
50 548.254 m 116.668 586.742 150 586.742 150 548.254 c S
150 721.457 m 150 644.477 166.668 615.609 200 634.855 c S
50 548.254 m 116.668 586.742 133.332 615.609 100 634.855 c S
50 490.516 m 116.668 452.027 150 452.027 150 490.516 c S
50 490.516 m 116.668 452.027 133.332 423.16 100 403.914 c S
250 490.516 m 183.332 452.027 166.668 423.16 200 403.914 c S
150 317.312 m 150 394.293 133.332 423.16 100 403.914 c S
250 490.516 m 183.332 452.027 150 452.027 150 490.516 c S
150 317.312 m 150 394.293 166.668 423.16 200 403.914 c S
400 288.445 m 333.332 326.934 316.668 355.801 350 375.047 c S
400 288.445 m 333.332 326.934 300 326.934 300 288.445 c S
300 461.648 m 300 384.668 283.332 355.801 250 375.047 c S
200 288.445 m 266.668 326.934 300 326.934 300 288.445 c S
300 461.648 m 300 384.668 316.668 355.801 350 375.047 c S
200 288.445 m 266.668 326.934 283.332 355.801 250 375.047 c S
200 230.711 m 266.668 192.219 300 192.219 300 230.711 c S
200 230.711 m 266.668 192.219 283.332 163.352 250 144.105 c S
400 230.711 m 333.332 192.219 316.668 163.352 350 144.105 c S
300 57.504 m 300 134.484 283.332 163.352 250 144.105 c S
400 230.711 m 333.332 192.219 300 192.219 300 230.711 c S
300 57.504 m 300 134.484 316.668 163.352 350 144.105 c S
550 28.637 m 483.332 67.129 466.668 95.996 500 115.238 c S
550 28.637 m 483.332 67.129 450 67.129 450 28.637 c S
450 201.844 m 450 124.863 433.332 95.996 400 115.238 c S
350 28.637 m 416.668 67.129 450 67.129 450 28.637 c S
450 201.844 m 450 124.863 466.668 95.996 500 115.238 c S
350 28.637 m 416.668 67.129 433.332 95.996 400 115.238 c S
50 1010.133 m 116.668 971.641 150 971.641 150 1010.133 c S
50 1010.133 m 116.668 971.641 133.332 942.773 100 923.531 c S
250 1010.133 m 183.332 971.641 166.668 942.773 200 923.531 c S
150 836.926 m 150 913.906 133.332 942.773 100 923.531 c S
250 1010.133 m 183.332 971.641 150 971.641 150 1010.133 c S
150 836.926 m 150 913.906 166.668 942.773 200 923.531 c S
400 808.059 m 333.332 846.551 316.668 875.418 350 894.664 c S
400 808.059 m 333.332 846.551 300 846.551 300 808.059 c S
300 981.266 m 300 904.285 283.332 875.418 250 894.664 c S
200 808.059 m 266.668 846.551 300 846.551 300 808.059 c S
300 981.266 m 300 904.285 316.668 875.418 350 894.664 c S
200 808.059 m 266.668 846.551 283.332 875.418 250 894.664 c S
200 750.324 m 266.668 711.836 300 711.836 300 750.324 c S
200 750.324 m 266.668 711.836 283.332 682.969 250 663.723 c S
400 750.324 m 333.332 711.836 316.668 682.969 350 663.723 c S
300 577.121 m 300 654.102 283.332 682.969 250 663.723 c S
400 750.324 m 333.332 711.836 300 711.836 300 750.324 c S
300 577.121 m 300 654.102 316.668 682.969 350 663.723 c S
550 548.254 m 483.332 586.742 466.668 615.609 500 634.855 c S
550 548.254 m 483.332 586.742 450 586.742 450 548.254 c S
450 721.457 m 450 644.477 433.332 615.609 400 634.855 c S
350 548.254 m 416.668 586.742 450 586.742 450 548.254 c S
450 721.457 m 450 644.477 466.668 615.609 500 634.855 c S
350 548.254 m 416.668 586.742 433.332 615.609 400 634.855 c S
350 490.516 m 416.668 452.027 450 452.027 450 490.516 c S
350 490.516 m 416.668 452.027 433.332 423.16 400 403.914 c S
550 490.516 m 483.332 452.027 466.668 423.16 500 403.914 c S
450 317.312 m 450 394.293 433.332 423.16 400 403.914 c S
550 490.516 m 483.332 452.027 450 452.027 450 490.516 c S
450 317.312 m 450 394.293 466.668 423.16 500 403.914 c S
700 288.445 m 633.332 326.934 616.668 355.801 650 375.047 c S
700 288.445 m 633.332 326.934 600 326.934 600 288.445 c S
600 461.648 m 600 384.668 583.332 355.801 550 375.047 c S
500 288.445 m 566.668 326.934 600 326.934 600 288.445 c S
600 461.648 m 600 384.668 616.668 355.801 650 375.047 c S
500 288.445 m 566.668 326.934 583.332 355.801 550 375.047 c S
500 230.711 m 566.668 192.219 600 192.219 600 230.711 c S
500 230.711 m 566.668 192.219 583.332 163.352 550 144.105 c S
700 230.711 m 633.332 192.219 616.668 163.352 650 144.105 c S
600 57.504 m 600 134.484 583.332 163.352 550 144.105 c S
700 230.711 m 633.332 192.219 600 192.219 600 230.711 c S
600 57.504 m 600 134.484 616.668 163.352 650 144.105 c S
850 28.637 m 783.332 67.129 766.668 95.996 800 115.238 c S
850 28.637 m 783.332 67.129 750 67.129 750 28.637 c S
750 201.844 m 750 124.863 733.332 95.996 700 115.238 c S
650 28.637 m 716.668 67.129 750 67.129 750 28.637 c S
750 201.844 m 750 124.863 766.668 95.996 800 115.238 c S
650 28.637 m 716.668 67.129 733.332 95.996 700 115.238 c S
350 1010.133 m 416.668 971.641 450 971.641 450 1010.133 c S
350 1010.133 m 416.668 971.641 433.332 942.773 400 923.531 c S
550 1010.133 m 483.332 971.641 466.668 942.773 500 923.531 c S
450 836.926 m 450 913.906 433.332 942.773 400 923.531 c S
550 1010.133 m 483.332 971.641 450 971.641 450 1010.133 c S
450 836.926 m 450 913.906 466.668 942.773 500 923.531 c S
700 808.059 m 633.332 846.551 616.668 875.418 650 894.664 c S
700 808.059 m 633.332 846.551 600 846.551 600 808.059 c S
600 981.266 m 600 904.285 583.332 875.418 550 894.664 c S
500 808.059 m 566.668 846.551 600 846.551 600 808.059 c S
600 981.266 m 600 904.285 616.668 875.418 650 894.664 c S
500 808.059 m 566.668 846.551 583.332 875.418 550 894.664 c S
500 750.324 m 566.668 711.836 600 711.836 600 750.324 c S
500 750.324 m 566.668 711.836 583.332 682.969 550 663.723 c S
700 750.324 m 633.332 711.836 616.668 682.969 650 663.723 c S
600 577.121 m 600 654.102 583.332 682.969 550 663.723 c S
700 750.324 m 633.332 711.836 600 711.836 600 750.324 c S
600 577.121 m 600 654.102 616.668 682.969 650 663.723 c S
850 548.254 m 783.332 586.742 766.668 615.609 800 634.855 c S
850 548.254 m 783.332 586.742 750 586.742 750 548.254 c S
750 721.457 m 750 644.477 733.332 615.609 700 634.855 c S
650 548.254 m 716.668 586.742 750 586.742 750 548.254 c S
750 721.457 m 750 644.477 766.668 615.609 800 634.855 c S
650 548.254 m 716.668 586.742 733.332 615.609 700 634.855 c S
650 490.516 m 716.668 452.027 750 452.027 750 490.516 c S
650 490.516 m 716.668 452.027 733.332 423.16 700 403.914 c S
850 490.516 m 783.332 452.027 766.668 423.16 800 403.914 c S
750 317.312 m 750 394.293 733.332 423.16 700 403.914 c S
850 490.516 m 783.332 452.027 750 452.027 750 490.516 c S
750 317.312 m 750 394.293 766.668 423.16 800 403.914 c S
1000 288.445 m 933.332 326.934 916.668 355.801 950 375.047 c S
1000 288.445 m 933.332 326.934 900 326.934 900 288.445 c S
900 461.648 m 900 384.668 883.332 355.801 850 375.047 c S
800 288.445 m 866.668 326.934 900 326.934 900 288.445 c S
900 461.648 m 900 384.668 916.668 355.801 950 375.047 c S
800 288.445 m 866.668 326.934 883.332 355.801 850 375.047 c S
800 230.711 m 866.668 192.219 900 192.219 900 230.711 c S
800 230.711 m 866.668 192.219 883.332 163.352 850 144.105 c S
1000 230.711 m 933.332 192.219 916.668 163.352 950 144.105 c S
900 57.504 m 900 134.484 883.332 163.352 850 144.105 c S
1000 230.711 m 933.332 192.219 900 192.219 900 230.711 c S
900 57.504 m 900 134.484 916.668 163.352 950 144.105 c S
1150 28.637 m 1083.332 67.129 1066.668 95.996 1100 115.238 c S
1150 28.637 m 1083.332 67.129 1050 67.129 1050 28.637 c S
1050 201.844 m 1050 124.863 1033.332 95.996 1000 115.238 c S
950 28.637 m 1016.668 67.129 1050 67.129 1050 28.637 c S
1050 201.844 m 1050 124.863 1066.668 95.996 1100 115.238 c S
950 28.637 m 1016.668 67.129 1033.332 95.996 1000 115.238 c S
650 1010.133 m 716.668 971.641 750 971.641 750 1010.133 c S
650 1010.133 m 716.668 971.641 733.332 942.773 700 923.531 c S
850 1010.133 m 783.332 971.641 766.668 942.773 800 923.531 c S
750 836.926 m 750 913.906 733.332 942.773 700 923.531 c S
850 1010.133 m 783.332 971.641 750 971.641 750 1010.133 c S
750 836.926 m 750 913.906 766.668 942.773 800 923.531 c S
1000 808.059 m 933.332 846.551 916.668 875.418 950 894.664 c S
1000 808.059 m 933.332 846.551 900 846.551 900 808.059 c S
900 981.266 m 900 904.285 883.332 875.418 850 894.664 c S
800 808.059 m 866.668 846.551 900 846.551 900 808.059 c S
900 981.266 m 900 904.285 916.668 875.418 950 894.664 c S
800 808.059 m 866.668 846.551 883.332 875.418 850 894.664 c S
800 750.324 m 866.668 711.836 900 711.836 900 750.324 c S
800 750.324 m 866.668 711.836 883.332 682.969 850 663.723 c S
1000 750.324 m 933.332 711.836 916.668 682.969 950 663.723 c S
900 577.121 m 900 654.102 883.332 682.969 850 663.723 c S
1000 750.324 m 933.332 711.836 900 711.836 900 750.324 c S
900 577.121 m 900 654.102 916.668 682.969 950 663.723 c S
1150 548.254 m 1083.332 586.742 1066.668 615.609 1100 634.855 c S
1150 548.254 m 1083.332 586.742 1050 586.742 1050 548.254 c S
1050 721.457 m 1050 644.477 1033.332 615.609 1000 634.855 c S
950 548.254 m 1016.668 586.742 1050 586.742 1050 548.254 c S
1050 721.457 m 1050 644.477 1066.668 615.609 1100 634.855 c S
950 548.254 m 1016.668 586.742 1033.332 615.609 1000 634.855 c S
950 490.516 m 1016.668 452.027 1050 452.027 1050 490.516 c S
950 490.516 m 1016.668 452.027 1033.332 423.16 1000 403.914 c S
1150 490.516 m 1083.332 452.027 1066.668 423.16 1100 403.914 c S
1050 317.312 m 1050 394.293 1033.332 423.16 1000 403.914 c S
1150 490.516 m 1083.332 452.027 1050 452.027 1050 490.516 c S
1050 317.312 m 1050 394.293 1066.668 423.16 1100 403.914 c S
1300 288.445 m 1233.332 326.934 1200 326.934 1200 288.445 c S
1200 461.648 m 1200 384.668 1183.332 355.801 1150 375.047 c S
1100 288.445 m 1166.668 326.934 1200 326.934 1200 288.445 c S
1200 461.648 m 1200 384.668 1216.668 355.801 1250 375.047 c S
1100 288.445 m 1166.668 326.934 1183.332 355.801 1150 375.047 c S
1100 230.711 m 1166.668 192.219 1200 192.219 1200 230.711 c S
1100 230.711 m 1166.668 192.219 1183.332 163.352 1150 144.105 c S
1200 57.504 m 1200 134.484 1183.332 163.352 1150 144.105 c S
1300 230.711 m 1233.332 192.219 1200 192.219 1200 230.711 c S
1200 57.504 m 1200 134.484 1216.668 163.352 1250 144.105 c S
950 1010.133 m 1016.668 971.641 1050 971.641 1050 1010.133 c S
950 1010.133 m 1016.668 971.641 1033.332 942.773 1000 923.531 c S
1150 1010.133 m 1083.332 971.641 1066.668 942.773 1100 923.531 c S
1050 836.926 m 1050 913.906 1033.332 942.773 1000 923.531 c S
1150 1010.133 m 1083.332 971.641 1050 971.641 1050 1010.133 c S
1050 836.926 m 1050 913.906 1066.668 942.773 1100 923.531 c S
1300 808.059 m 1233.332 846.551 1200 846.551 1200 808.059 c S
1200 981.266 m 1200 904.285 1183.332 875.418 1150 894.664 c S
1100 808.059 m 1166.668 846.551 1200 846.551 1200 808.059 c S
1200 981.266 m 1200 904.285 1216.668 875.418 1250 894.664 c S
1100 808.059 m 1166.668 846.551 1183.332 875.418 1150 894.664 c S
1100 750.324 m 1166.668 711.836 1200 711.836 1200 750.324 c S
1100 750.324 m 1166.668 711.836 1183.332 682.969 1150 663.723 c S
1200 577.121 m 1200 654.102 1183.332 682.969 1150 663.723 c S
1300 750.324 m 1233.332 711.836 1200 711.836 1200 750.324 c S
1200 577.121 m 1200 654.102 1216.668 682.969 1250 663.723 c S
Q Q
showpage
%%Trailer
%%Trailer
cleartomark
countdictstack
exch sub { end } repeat
restore
%%EOF
