<svg xmlns="http://www.w3.org/2000/svg" baseProfile="full" width="1200" height="1039.23" viewBox="375.0000000000001 -129.9038105676658 1200.0 1039.2304845413264">
    <title>
        Pattern design from http://ornamentist.org
    </title>
    <desc>
        This file is licensed under a Creative Commons CC BY 4.0 license: http://creativecommons.org/licenses/by/4.0/
    </desc>
    <defs>
        <style>
<![CDATA[
        
polyline {
  fill:            none;
  stroke:          black;
  stroke-linecap:  round;
  stroke-linejoin: round;
  stroke-width:    2.0pt;
}


polyline.closed {
  fill:      #d9d9d9;
  fill-rule: evenodd;
}


polygon {
  fill:            #d9d9d9;
  fill-rule:       evenodd;
  stroke:          black;
  stroke-linejoin: round;
  stroke-width:    2.0pt;
}


circle {
  fill:         #d9d9d9;
  stroke:       black;
  stroke-width: 2.0pt;
}


ellipse {
  fill:         #d9d9d9;
  stroke:       black;
  stroke-width: 2.0pt;
}


path {
  fill:            none;
  stroke:          black;
  stroke-linecap:  round;
  stroke-linejoin: round;
  stroke-width:    2.0pt;
}


path.closed {
  fill:      #d9d9d9;
  fill-rule: evenodd;
}


polygon.background,
path.background
{
  fill:   #fbfbfb;
  stroke: #c9c9c9;
  stroke-width: 1.5pt;
}

        ]]>
        </style>
    </defs>
    <clipPath id="design">
        <path d="M375-129.904h1200v1039.23H375z"/>
    </clipPath>
    <g clip-path="url(#design)" color-rendering="optimizeQuality" shape-rendering="geometricPrecision" id="graphics">
        <path class="background closed" d="M1575-129.904v1039.23H375v-1039.23z"/>
        <path d="M-175-101.036q100 57.735 100 0M-175-101.036Q-75-43.3-125-14.434M25-101.036Q-75-43.3-25-14.434M-75 72.17q0-115.47-50-86.604M25-101.036q-100 57.735-100 0M-75 72.17q0-115.47 50-86.604M175 101.036Q75 43.3 125 14.434M175 101.036q-100-57.735-100 0M75-72.17Q75 43.3 25 14.435M-25 101.036q100-57.735 100 0M75-72.17q0 115.47 50 86.604M-25 101.036Q75 43.3 25 14.434M-25 158.77q100 57.736 100 0M-25 158.77q100 57.736 50 86.604M175 158.77q-100 57.736-50 86.604M75 331.976q0-115.47-50-86.602M175 158.77q-100 57.736-100 0M75 331.976q0-115.47 50-86.602M325 360.844q-100-57.735-50-86.603M325 360.844q-100-57.735-100 0M225 187.64q0 115.47-50 86.6M125 360.844q100-57.735 100 0M225 187.64q0 115.47 50 86.6M125 360.844q100-57.735 50-86.603M125 418.58q100 57.734 100 0M125 418.58q100 57.734 50 86.6M325 418.58q-100 57.734-50 86.6M225 591.784q0-115.47-50-86.603M325 418.58q-100 57.734-100 0M225 591.784q0-115.47 50-86.603M475 620.652q-100-57.735-50-86.603M475 620.652q-100-57.735-100 0M375 447.446q0 115.47-50 86.603M275 620.652q100-57.735 100 0M375 447.446q0 115.47 50 86.603M275 620.652q100-57.735 50-86.603M275 678.387q100 57.735 100 0M275 678.387q100 57.735 50 86.602M475 678.387q-100 57.735-50 86.602M375 851.592q0-115.47-50-86.603M475 678.387q-100 57.735-100 0M375 851.592q0-115.47 50-86.603M625 880.46q-100-57.736-50-86.603M625 880.46q-100-57.736-100 0M525 707.254q0 115.47-50 86.603M425 880.46q100-57.736 100 0M525 707.254q0 115.47 50 86.603M425 880.46q100-57.736 50-86.603M125-101.036q100 57.735 100 0M125-101.036Q225-43.3 175-14.434M325-101.036Q225-43.3 275-14.434M225 72.17q0-115.47-50-86.604M325-101.036q-100 57.735-100 0M225 72.17q0-115.47 50-86.604M475 101.036Q375 43.3 425 14.434M475 101.036q-100-57.735-100 0M375-72.17q0 115.47-50 86.604M275 101.036q100-57.735 100 0M375-72.17q0 115.47 50 86.604M275 101.036Q375 43.3 325 14.434M275 158.77q100 57.736 100 0M275 158.77q100 57.736 50 86.604M475 158.77q-100 57.736-50 86.604M375 331.976q0-115.47-50-86.602M475 158.77q-100 57.736-100 0M375 331.976q0-115.47 50-86.602M625 360.844q-100-57.735-50-86.603M625 360.844q-100-57.735-100 0M525 187.64q0 115.47-50 86.6M425 360.844q100-57.735 100 0M525 187.64q0 115.47 50 86.6M425 360.844q100-57.735 50-86.603M425 418.58q100 57.734 100 0M425 418.58q100 57.734 50 86.6M625 418.58q-100 57.734-50 86.6M525 591.784q0-115.47-50-86.603M625 418.58q-100 57.734-100 0M525 591.784q0-115.47 50-86.603M775 620.652q-100-57.735-50-86.603M775 620.652q-100-57.735-100 0M675 447.446q0 115.47-50 86.603M575 620.652q100-57.735 100 0M675 447.446q0 115.47 50 86.603M575 620.652q100-57.735 50-86.603M575 678.387q100 57.735 100 0M575 678.387q100 57.735 50 86.602M775 678.387q-100 57.735-50 86.602M675 851.592q0-115.47-50-86.603M775 678.387q-100 57.735-100 0M675 851.592q0-115.47 50-86.603M925 880.46q-100-57.736-50-86.603M925 880.46q-100-57.736-100 0M825 707.254q0 115.47-50 86.603M725 880.46q100-57.736 100 0M825 707.254q0 115.47 50 86.603M725 880.46q100-57.736 50-86.603M425-101.036q100 57.735 100 0M425-101.036Q525-43.3 475-14.434M625-101.036Q525-43.3 575-14.434M525 72.17q0-115.47-50-86.604M625-101.036q-100 57.735-100 0M525 72.17q0-115.47 50-86.604M775 101.036Q675 43.3 725 14.434M775 101.036q-100-57.735-100 0M675-72.17q0 115.47-50 86.604M575 101.036q100-57.735 100 0M675-72.17q0 115.47 50 86.604M575 101.036Q675 43.3 625 14.434M575 158.77q100 57.736 100 0M575 158.77q100 57.736 50 86.604M775 158.77q-100 57.736-50 86.604M675 331.976q0-115.47-50-86.602M775 158.77q-100 57.736-100 0M675 331.976q0-115.47 50-86.602M925 360.844q-100-57.735-50-86.603M925 360.844q-100-57.735-100 0M825 187.64q0 115.47-50 86.6M725 360.844q100-57.735 100 0M825 187.64q0 115.47 50 86.6M725 360.844q100-57.735 50-86.603M725 418.58q100 57.734 100 0M725 418.58q100 57.734 50 86.6M925 418.58q-100 57.734-50 86.6M825 591.784q0-115.47-50-86.603M925 418.58q-100 57.734-100 0M825 591.784q0-115.47 50-86.603M1075 620.652q-100-57.735-50-86.603M1075 620.652q-100-57.735-100 0M975 447.446q0 115.47-50 86.603M875 620.652q100-57.735 100 0M975 447.446q0 115.47 50 86.603M875 620.652q100-57.735 50-86.603M875 678.387q100 57.735 100 0M875 678.387q100 57.735 50 86.602M1075 678.387q-100 57.735-50 86.602M975 851.592q0-115.47-50-86.603M1075 678.387q-100 57.735-100 0M975 851.592q0-115.47 50-86.603M1225 880.46q-100-57.736-50-86.603M1225 880.46q-100-57.736-100 0M1125 707.254q0 115.47-50 86.603M1025 880.46q100-57.736 100 0M1125 707.254q0 115.47 50 86.603M1025 880.46q100-57.736 50-86.603M725-101.036q100 57.735 100 0M725-101.036Q825-43.3 775-14.434M925-101.036Q825-43.3 875-14.434M825 72.17q0-115.47-50-86.604M925-101.036q-100 57.735-100 0M825 72.17q0-115.47 50-86.604M1075 101.036Q975 43.3 1025 14.434M1075 101.036q-100-57.735-100 0M975-72.17q0 115.47-50 86.604M875 101.036q100-57.735 100 0M975-72.17q0 115.47 50 86.604M875 101.036Q975 43.3 925 14.434M875 158.77q100 57.736 100 0M875 158.77q100 57.736 50 86.604M1075 158.77q-100 57.736-50 86.604M975 331.976q0-115.47-50-86.602M1075 158.77q-100 57.736-100 0M975 331.976q0-115.47 50-86.602M1225 360.844q-100-57.735-50-86.603M1225 360.844q-100-57.735-100 0M1125 187.64q0 115.47-50 86.6M1025 360.844q100-57.735 100 0M1125 187.64q0 115.47 50 86.6M1025 360.844q100-57.735 50-86.603M1025 418.58q100 57.734 100 0M1025 418.58q100 57.734 50 86.6M1225 418.58q-100 57.734-50 86.6M1125 591.784q0-115.47-50-86.603M1225 418.58q-100 57.734-100 0M1125 591.784q0-115.47 50-86.603M1375 620.652q-100-57.735-50-86.603M1375 620.652q-100-57.735-100 0M1275 447.446q0 115.47-50 86.603M1175 620.652q100-57.735 100 0M1275 447.446q0 115.47 50 86.603M1175 620.652q100-57.735 50-86.603M1175 678.387q100 57.735 100 0M1175 678.387q100 57.735 50 86.602M1375 678.387q-100 57.735-50 86.602M1275 851.592q0-115.47-50-86.603M1375 678.387q-100 57.735-100 0M1275 851.592q0-115.47 50-86.603M1525 880.46q-100-57.736-50-86.603M1525 880.46q-100-57.736-100 0M1425 707.254q0 115.47-50 86.603M1325 880.46q100-57.736 100 0M1425 707.254q0 115.47 50 86.603M1325 880.46q100-57.736 50-86.603M1025-101.036q100 57.735 100 0M1025-101.036q100 57.735 50 86.602M1225-101.036q-100 57.735-50 86.602M1125 72.17q0-115.47-50-86.604M1225-101.036q-100 57.735-100 0M1125 72.17q0-115.47 50-86.604M1375 101.036q-100-57.735-50-86.602M1375 101.036q-100-57.735-100 0M1275-72.17q0 115.47-50 86.604M1175 101.036q100-57.735 100 0M1275-72.17q0 115.47 50 86.604M1175 101.036q100-57.735 50-86.602M1175 158.77q100 57.736 100 0M1175 158.77q100 57.736 50 86.604M1375 158.77q-100 57.736-50 86.604M1275 331.976q0-115.47-50-86.602M1375 158.77q-100 57.736-100 0M1275 331.976q0-115.47 50-86.602M1525 360.844q-100-57.735-50-86.603M1525 360.844q-100-57.735-100 0M1425 187.64q0 115.47-50 86.6M1325 360.844q100-57.735 100 0M1425 187.64q0 115.47 50 86.6M1325 360.844q100-57.735 50-86.603M1325 418.58q100 57.734 100 0M1325 418.58q100 57.734 50 86.6M1525 418.58q-100 57.734-50 86.6M1425 591.784q0-115.47-50-86.603M1525 418.58q-100 57.734-100 0M1425 591.784q0-115.47 50-86.603M1675 620.652q-100-57.735-50-86.603M1675 620.652q-100-57.735-100 0M1575 447.446q0 115.47-50 86.603M1475 620.652q100-57.735 100 0M1575 447.446q0 115.47 50 86.603M1475 620.652q100-57.735 50-86.603M1475 678.387q100 57.735 100 0M1475 678.387q100 57.735 50 86.602M1675 678.387q-100 57.735-50 86.602M1575 851.592q0-115.47-50-86.603M1675 678.387q-100 57.735-100 0M1575 851.592q0-115.47 50-86.603M1825 880.46q-100-57.736-50-86.603M1825 880.46q-100-57.736-100 0M1725 707.254q0 115.47-50 86.603M1625 880.46q100-57.736 100 0M1725 707.254q0 115.47 50 86.603M1625 880.46q100-57.736 50-86.603M1325-101.036q100 57.735 100 0M1325-101.036q100 57.735 50 86.602M1525-101.036q-100 57.735-50 86.602M1425 72.17q0-115.47-50-86.604M1525-101.036q-100 57.735-100 0M1425 72.17q0-115.47 50-86.604M1675 101.036q-100-57.735-50-86.602M1675 101.036q-100-57.735-100 0M1575-72.17q0 115.47-50 86.604M1475 101.036q100-57.735 100 0M1575-72.17q0 115.47 50 86.604M1475 101.036q100-57.735 50-86.602M1475 158.77q100 57.736 100 0M1475 158.77q100 57.736 50 86.604M1675 158.77q-100 57.736-50 86.604M1575 331.976q0-115.47-50-86.602M1675 158.77q-100 57.736-100 0M1575 331.976q0-115.47 50-86.602M1825 360.844q-100-57.735-50-86.603M1825 360.844q-100-57.735-100 0M1725 187.64q0 115.47-50 86.6M1625 360.844q100-57.735 100 0M1725 187.64q0 115.47 50 86.6M1625 360.844q100-57.735 50-86.603M1625 418.58q100 57.734 100 0M1625 418.58q100 57.734 50 86.6M1825 418.58q-100 57.734-50 86.6M1725 591.784q0-115.47-50-86.603M1825 418.58q-100 57.734-100 0M1725 591.784q0-115.47 50-86.603M1975 620.652q-100-57.735-50-86.603M1975 620.652q-100-57.735-100 0M1875 447.446q0 115.47-50 86.603M1775 620.652q100-57.735 100 0M1875 447.446q0 115.47 50 86.603M1775 620.652q100-57.735 50-86.603M1775 678.387q100 57.735 100 0M1775 678.387q100 57.735 50 86.602M1975 678.387q-100 57.735-50 86.602M1875 851.592q0-115.47-50-86.603M1975 678.387q-100 57.735-100 0M1875 851.592q0-115.47 50-86.603M2125 880.46q-100-57.736-50-86.603M2125 880.46q-100-57.736-100 0M2025 707.254q0 115.47-50 86.603M1925 880.46q100-57.736 100 0M2025 707.254q0 115.47 50 86.603M1925 880.46q100-57.736 50-86.603" class="bezier-2-1 open"/>
    </g>
</svg>
