%!PS-Adobe-2.0 EPSF-2.0
%%BoundingBox: 0 0 1200 1039
%%HiResBoundingBox: 0.000000 0.000000 1200.000000 1039.000000
%%Creator: cairo 1.14.2 (http://cairographics.org)
%%CreationDate: Mon Sep  7 08:21:49 2015
%%DocumentData: Clean7Bit
%%LanguageLevel: 2
%%DocumentMedia: 423x367mm 1200 1039 0 () ()
%%EndComments
% EPSF created by ps2eps 1.68
%%BeginProlog
save
countdictstack
mark
newpath
/showpage {} def
/setpagedevice {pop} def
%%EndProlog
%%Page 1 1
%%BeginProlog
/languagelevel where
{ pop languagelevel } { 1 } ifelse
2 lt { /Helvetica findfont 12 scalefont setfont 50 500 moveto
  (This print job requires a PostScript Language Level 2 printer.) show
  showpage quit } if
/q { gsave } bind def
/Q { grestore } bind def
/cm { 6 array astore concat } bind def
/w { setlinewidth } bind def
/J { setlinecap } bind def
/j { setlinejoin } bind def
/M { setmiterlimit } bind def
/d { setdash } bind def
/m { moveto } bind def
/l { lineto } bind def
/c { curveto } bind def
/h { closepath } bind def
/re { exch dup neg 3 1 roll 5 3 roll moveto 0 rlineto
      0 exch rlineto 0 rlineto closepath } bind def
/S { stroke } bind def
/f { fill } bind def
/f* { eofill } bind def
/n { newpath } bind def
/W { clip } bind def
/W* { eoclip } bind def
/BT { } bind def
/ET { } bind def
/pdfmark where { pop globaldict /?pdfmark /exec load put }
    { globaldict begin /?pdfmark /pop load def /pdfmark
    /cleartomark load def end } ifelse
/BDC { mark 3 1 roll /BDC pdfmark } bind def
/EMC { mark /EMC pdfmark } bind def
/cairo_store_point { /cairo_point_y exch def /cairo_point_x exch def } def
/Tj { show currentpoint cairo_store_point } bind def
/TJ {
  {
    dup
    type /stringtype eq
    { show } { -0.001 mul 0 cairo_font_matrix dtransform rmoveto } ifelse
  } forall
  currentpoint cairo_store_point
} bind def
/cairo_selectfont { cairo_font_matrix aload pop pop pop 0 0 6 array astore
    cairo_font exch selectfont cairo_point_x cairo_point_y moveto } bind def
/Tf { pop /cairo_font exch def /cairo_font_matrix where
      { pop cairo_selectfont } if } bind def
/Td { matrix translate cairo_font_matrix matrix concatmatrix dup
      /cairo_font_matrix exch def dup 4 get exch 5 get cairo_store_point
      /cairo_font where { pop cairo_selectfont } if } bind def
/Tm { 2 copy 8 2 roll 6 array astore /cairo_font_matrix exch def
      cairo_store_point /cairo_font where { pop cairo_selectfont } if } bind def
/g { setgray } bind def
/rg { setrgbcolor } bind def
/d1 { setcachedevice } bind def
/cairo_set_page_size {
  % Change paper size, but only if different from previous paper size otherwise
  % duplex fails. PLRM specifies a tolerance of 5 pts when matching paper size
  % so we use the same when checking if the size changes.
  /setpagedevice where {
    pop currentpagedevice
    /PageSize known {
      2 copy
      currentpagedevice /PageSize get aload pop
      exch 4 1 roll
      sub abs 5 gt
      3 1 roll
      sub abs 5 gt
      or
    } {
      true
    } ifelse
    {
      2 array astore
      2 dict begin
        /PageSize exch def
        /ImagingBBox null def
      currentdict end
      setpagedevice
    } {
      pop pop
    } ifelse
  } {
    pop
  } ifelse
} def
%%EndProlog
%%BeginSetup
%%EndSetup
%%Page: 1 1
%%BeginPageSetup
%%PageMedia: 423x367mm
%%PageBoundingBox: 0 0 1200 1039
1200 1039 cairo_set_page_size
%%EndPageSetup
q 0 0 1200 1039 rectclip q
0.984314 g
0 0 1200 1039 rectfill
0.788235 g
1.875 w
0 J
1 j
[] 0.0 d
4 M 0 1039 1200 -1039.23 re S
0 g
2.5 w
1 J
0 519.383 m -25 562.688 l -75 591.555 l -100 634.855 l S
0 519.383 m -50 519.383 l -100 548.254 l -150 548.254 l S
0 519.383 m -25 476.082 l -75 447.215 l -100 403.914 l S
0 519.383 m -50 519.383 l -100 490.516 l -150 490.516 l S
150 259.578 m 125 302.879 l 75 331.746 l 50 375.047 l S
150 259.578 m 100 259.578 l 50 288.445 l 0 288.445 l S
0 519.383 m -25 476.082 l -25 418.348 l -50 375.047 l S
-150 259.578 m -100 259.578 l -50 288.445 l 0 288.445 l S
0 519.383 m 25 476.082 l 25 418.348 l 50 375.047 l S
-150 259.578 m -100 259.578 l -50 230.711 l 0 230.711 l S
150 259.578 m 125 216.277 l 75 187.41 l 50 144.105 l S
0 -0.23 m -25 43.07 l -25 100.805 l -50 144.105 l S
150 259.578 m 100 259.578 l 50 230.711 l 0 230.711 l S
0 -0.23 m 25 43.07 l 25 100.805 l 50 144.105 l S
300 -0.23 m 275 43.07 l 225 71.938 l 200 115.238 l S
300 -0.23 m 250 -0.23 l 200 28.637 l 150 28.637 l S
150 259.578 m 125 216.277 l 125 158.539 l 100 115.238 l S
0 -0.23 m 50 -0.23 l 100 28.637 l 150 28.637 l S
150 259.578 m 175 216.277 l 175 158.539 l 200 115.238 l S
0 -0.23 m 25 43.07 l 75 71.938 l 100 115.238 l S
0 1039 m -25 995.699 l -75 966.832 l -100 923.531 l S
0 1039 m -50 1039 l -100 1010.133 l -150 1010.133 l S
150 779.191 m 125 822.492 l 75 851.359 l 50 894.664 l S
150 779.191 m 100 779.191 l 50 808.059 l 0 808.059 l S
0 1039 m -25 995.699 l -25 937.965 l -50 894.664 l S
-150 779.191 m -100 779.191 l -50 808.059 l 0 808.059 l S
0 1039 m 25 995.699 l 25 937.965 l 50 894.664 l S
-150 779.191 m -100 779.191 l -50 750.324 l 0 750.324 l S
150 779.191 m 125 735.891 l 75 707.023 l 50 663.723 l S
0 519.383 m -25 562.688 l -25 620.422 l -50 663.723 l S
150 779.191 m 100 779.191 l 50 750.324 l 0 750.324 l S
0 519.383 m 25 562.688 l 25 620.422 l 50 663.723 l S
300 519.383 m 275 562.688 l 225 591.555 l 200 634.855 l S
300 519.383 m 250 519.383 l 200 548.254 l 150 548.254 l S
150 779.191 m 125 735.891 l 125 678.156 l 100 634.855 l S
0 519.383 m 50 519.383 l 100 548.254 l 150 548.254 l S
150 779.191 m 175 735.891 l 175 678.156 l 200 634.855 l S
0 519.383 m 25 562.688 l 75 591.555 l 100 634.855 l S
0 519.383 m 50 519.383 l 100 490.516 l 150 490.516 l S
0 519.383 m 25 476.082 l 75 447.215 l 100 403.914 l S
300 519.383 m 275 476.082 l 225 447.215 l 200 403.914 l S
150 259.578 m 125 302.879 l 125 360.613 l 100 403.914 l S
300 519.383 m 250 519.383 l 200 490.516 l 150 490.516 l S
150 259.578 m 175 302.879 l 175 360.613 l 200 403.914 l S
450 259.578 m 425 302.879 l 375 331.746 l 350 375.047 l S
450 259.578 m 400 259.578 l 350 288.445 l 300 288.445 l S
300 519.383 m 275 476.082 l 275 418.348 l 250 375.047 l S
150 259.578 m 200 259.578 l 250 288.445 l 300 288.445 l S
300 519.383 m 325 476.082 l 325 418.348 l 350 375.047 l S
150 259.578 m 175 302.879 l 225 331.746 l 250 375.047 l S
150 259.578 m 200 259.578 l 250 230.711 l 300 230.711 l S
150 259.578 m 175 216.277 l 225 187.41 l 250 144.105 l S
450 259.578 m 425 216.277 l 375 187.41 l 350 144.105 l S
300 -0.23 m 275 43.07 l 275 100.805 l 250 144.105 l S
450 259.578 m 400 259.578 l 350 230.711 l 300 230.711 l S
300 -0.23 m 325 43.07 l 325 100.805 l 350 144.105 l S
600 -0.23 m 575 43.07 l 525 71.938 l 500 115.238 l S
600 -0.23 m 550 -0.23 l 500 28.637 l 450 28.637 l S
450 259.578 m 425 216.277 l 425 158.539 l 400 115.238 l S
300 -0.23 m 350 -0.23 l 400 28.637 l 450 28.637 l S
450 259.578 m 475 216.277 l 475 158.539 l 500 115.238 l S
300 -0.23 m 325 43.07 l 375 71.938 l 400 115.238 l S
0 1039 m 50 1039 l 100 1010.133 l 150 1010.133 l S
0 1039 m 25 995.699 l 75 966.832 l 100 923.531 l S
300 1039 m 275 995.699 l 225 966.832 l 200 923.531 l S
150 779.191 m 125 822.492 l 125 880.23 l 100 923.531 l S
300 1039 m 250 1039 l 200 1010.133 l 150 1010.133 l S
150 779.191 m 175 822.492 l 175 880.23 l 200 923.531 l S
450 779.191 m 425 822.492 l 375 851.359 l 350 894.664 l S
450 779.191 m 400 779.191 l 350 808.059 l 300 808.059 l S
300 1039 m 275 995.699 l 275 937.965 l 250 894.664 l S
150 779.191 m 200 779.191 l 250 808.059 l 300 808.059 l S
300 1039 m 325 995.699 l 325 937.965 l 350 894.664 l S
150 779.191 m 175 822.492 l 225 851.359 l 250 894.664 l S
150 779.191 m 200 779.191 l 250 750.324 l 300 750.324 l S
150 779.191 m 175 735.891 l 225 707.023 l 250 663.723 l S
450 779.191 m 425 735.891 l 375 707.023 l 350 663.723 l S
300 519.383 m 275 562.688 l 275 620.422 l 250 663.723 l S
450 779.191 m 400 779.191 l 350 750.324 l 300 750.324 l S
300 519.383 m 325 562.688 l 325 620.422 l 350 663.723 l S
600 519.383 m 575 562.688 l 525 591.555 l 500 634.855 l S
600 519.383 m 550 519.383 l 500 548.254 l 450 548.254 l S
450 779.191 m 425 735.891 l 425 678.156 l 400 634.855 l S
300 519.383 m 350 519.383 l 400 548.254 l 450 548.254 l S
450 779.191 m 475 735.891 l 475 678.156 l 500 634.855 l S
300 519.383 m 325 562.688 l 375 591.555 l 400 634.855 l S
300 519.383 m 350 519.383 l 400 490.516 l 450 490.516 l S
300 519.383 m 325 476.082 l 375 447.215 l 400 403.914 l S
600 519.383 m 575 476.082 l 525 447.215 l 500 403.914 l S
450 259.578 m 425 302.879 l 425 360.613 l 400 403.914 l S
600 519.383 m 550 519.383 l 500 490.516 l 450 490.516 l S
450 259.578 m 475 302.879 l 475 360.613 l 500 403.914 l S
750 259.578 m 725 302.879 l 675 331.746 l 650 375.047 l S
750 259.578 m 700 259.578 l 650 288.445 l 600 288.445 l S
600 519.383 m 575 476.082 l 575 418.348 l 550 375.047 l S
450 259.578 m 500 259.578 l 550 288.445 l 600 288.445 l S
600 519.383 m 625 476.082 l 625 418.348 l 650 375.047 l S
450 259.578 m 475 302.879 l 525 331.746 l 550 375.047 l S
450 259.578 m 500 259.578 l 550 230.711 l 600 230.711 l S
450 259.578 m 475 216.277 l 525 187.41 l 550 144.105 l S
750 259.578 m 725 216.277 l 675 187.41 l 650 144.105 l S
600 -0.23 m 575 43.07 l 575 100.805 l 550 144.105 l S
750 259.578 m 700 259.578 l 650 230.711 l 600 230.711 l S
600 -0.23 m 625 43.07 l 625 100.805 l 650 144.105 l S
900 -0.23 m 875 43.07 l 825 71.938 l 800 115.238 l S
900 -0.23 m 850 -0.23 l 800 28.637 l 750 28.637 l S
750 259.578 m 725 216.277 l 725 158.539 l 700 115.238 l S
600 -0.23 m 650 -0.23 l 700 28.637 l 750 28.637 l S
750 259.578 m 775 216.277 l 775 158.539 l 800 115.238 l S
600 -0.23 m 625 43.07 l 675 71.938 l 700 115.238 l S
300 1039 m 350 1039 l 400 1010.133 l 450 1010.133 l S
300 1039 m 325 995.699 l 375 966.832 l 400 923.531 l S
600 1039 m 575 995.699 l 525 966.832 l 500 923.531 l S
450 779.191 m 425 822.492 l 425 880.23 l 400 923.531 l S
600 1039 m 550 1039 l 500 1010.133 l 450 1010.133 l S
450 779.191 m 475 822.492 l 475 880.23 l 500 923.531 l S
750 779.191 m 725 822.492 l 675 851.359 l 650 894.664 l S
750 779.191 m 700 779.191 l 650 808.059 l 600 808.059 l S
600 1039 m 575 995.699 l 575 937.965 l 550 894.664 l S
450 779.191 m 500 779.191 l 550 808.059 l 600 808.059 l S
600 1039 m 625 995.699 l 625 937.965 l 650 894.664 l S
450 779.191 m 475 822.492 l 525 851.359 l 550 894.664 l S
450 779.191 m 500 779.191 l 550 750.324 l 600 750.324 l S
450 779.191 m 475 735.891 l 525 707.023 l 550 663.723 l S
750 779.191 m 725 735.891 l 675 707.023 l 650 663.723 l S
600 519.383 m 575 562.688 l 575 620.422 l 550 663.723 l S
750 779.191 m 700 779.191 l 650 750.324 l 600 750.324 l S
600 519.383 m 625 562.688 l 625 620.422 l 650 663.723 l S
900 519.383 m 875 562.688 l 825 591.555 l 800 634.855 l S
900 519.383 m 850 519.383 l 800 548.254 l 750 548.254 l S
750 779.191 m 725 735.891 l 725 678.156 l 700 634.855 l S
600 519.383 m 650 519.383 l 700 548.254 l 750 548.254 l S
750 779.191 m 775 735.891 l 775 678.156 l 800 634.855 l S
600 519.383 m 625 562.688 l 675 591.555 l 700 634.855 l S
600 519.383 m 650 519.383 l 700 490.516 l 750 490.516 l S
600 519.383 m 625 476.082 l 675 447.215 l 700 403.914 l S
900 519.383 m 875 476.082 l 825 447.215 l 800 403.914 l S
750 259.578 m 725 302.879 l 725 360.613 l 700 403.914 l S
900 519.383 m 850 519.383 l 800 490.516 l 750 490.516 l S
750 259.578 m 775 302.879 l 775 360.613 l 800 403.914 l S
1050 259.578 m 1025 302.879 l 975 331.746 l 950 375.047 l S
1050 259.578 m 1000 259.578 l 950 288.445 l 900 288.445 l S
900 519.383 m 875 476.082 l 875 418.348 l 850 375.047 l S
750 259.578 m 800 259.578 l 850 288.445 l 900 288.445 l S
900 519.383 m 925 476.082 l 925 418.348 l 950 375.047 l S
750 259.578 m 775 302.879 l 825 331.746 l 850 375.047 l S
750 259.578 m 800 259.578 l 850 230.711 l 900 230.711 l S
750 259.578 m 775 216.277 l 825 187.41 l 850 144.105 l S
1050 259.578 m 1025 216.277 l 975 187.41 l 950 144.105 l S
900 -0.23 m 875 43.07 l 875 100.805 l 850 144.105 l S
1050 259.578 m 1000 259.578 l 950 230.711 l 900 230.711 l S
900 -0.23 m 925 43.07 l 925 100.805 l 950 144.105 l S
1200 -0.23 m 1175 43.07 l 1125 71.938 l 1100 115.238 l S
1200 -0.23 m 1150 -0.23 l 1100 28.637 l 1050 28.637 l S
1050 259.578 m 1025 216.277 l 1025 158.539 l 1000 115.238 l S
900 -0.23 m 950 -0.23 l 1000 28.637 l 1050 28.637 l S
1050 259.578 m 1075 216.277 l 1075 158.539 l 1100 115.238 l S
900 -0.23 m 925 43.07 l 975 71.938 l 1000 115.238 l S
600 1039 m 650 1039 l 700 1010.133 l 750 1010.133 l S
600 1039 m 625 995.699 l 675 966.832 l 700 923.531 l S
900 1039 m 875 995.699 l 825 966.832 l 800 923.531 l S
750 779.191 m 725 822.492 l 725 880.23 l 700 923.531 l S
900 1039 m 850 1039 l 800 1010.133 l 750 1010.133 l S
750 779.191 m 775 822.492 l 775 880.23 l 800 923.531 l S
1050 779.191 m 1025 822.492 l 975 851.359 l 950 894.664 l S
1050 779.191 m 1000 779.191 l 950 808.059 l 900 808.059 l S
900 1039 m 875 995.699 l 875 937.965 l 850 894.664 l S
750 779.191 m 800 779.191 l 850 808.059 l 900 808.059 l S
900 1039 m 925 995.699 l 925 937.965 l 950 894.664 l S
750 779.191 m 775 822.492 l 825 851.359 l 850 894.664 l S
750 779.191 m 800 779.191 l 850 750.324 l 900 750.324 l S
750 779.191 m 775 735.891 l 825 707.023 l 850 663.723 l S
1050 779.191 m 1025 735.891 l 975 707.023 l 950 663.723 l S
900 519.383 m 875 562.688 l 875 620.422 l 850 663.723 l S
1050 779.191 m 1000 779.191 l 950 750.324 l 900 750.324 l S
900 519.383 m 925 562.688 l 925 620.422 l 950 663.723 l S
1200 519.383 m 1175 562.688 l 1125 591.555 l 1100 634.855 l S
1200 519.383 m 1150 519.383 l 1100 548.254 l 1050 548.254 l S
1050 779.191 m 1025 735.891 l 1025 678.156 l 1000 634.855 l S
900 519.383 m 950 519.383 l 1000 548.254 l 1050 548.254 l S
1050 779.191 m 1075 735.891 l 1075 678.156 l 1100 634.855 l S
900 519.383 m 925 562.688 l 975 591.555 l 1000 634.855 l S
900 519.383 m 950 519.383 l 1000 490.516 l 1050 490.516 l S
900 519.383 m 925 476.082 l 975 447.215 l 1000 403.914 l S
1200 519.383 m 1175 476.082 l 1125 447.215 l 1100 403.914 l S
1050 259.578 m 1025 302.879 l 1025 360.613 l 1000 403.914 l S
1200 519.383 m 1150 519.383 l 1100 490.516 l 1050 490.516 l S
1050 259.578 m 1075 302.879 l 1075 360.613 l 1100 403.914 l S
1350 259.578 m 1300 259.578 l 1250 288.445 l 1200 288.445 l S
1200 519.383 m 1175 476.082 l 1175 418.348 l 1150 375.047 l S
1050 259.578 m 1100 259.578 l 1150 288.445 l 1200 288.445 l S
1200 519.383 m 1225 476.082 l 1225 418.348 l 1250 375.047 l S
1050 259.578 m 1075 302.879 l 1125 331.746 l 1150 375.047 l S
1050 259.578 m 1100 259.578 l 1150 230.711 l 1200 230.711 l S
1050 259.578 m 1075 216.277 l 1125 187.41 l 1150 144.105 l S
1200 -0.23 m 1175 43.07 l 1175 100.805 l 1150 144.105 l S
1350 259.578 m 1300 259.578 l 1250 230.711 l 1200 230.711 l S
1200 -0.23 m 1225 43.07 l 1225 100.805 l 1250 144.105 l S
1200 -0.23 m 1250 -0.23 l 1300 28.637 l 1350 28.637 l S
1200 -0.23 m 1225 43.07 l 1275 71.938 l 1300 115.238 l S
900 1039 m 950 1039 l 1000 1010.133 l 1050 1010.133 l S
900 1039 m 925 995.699 l 975 966.832 l 1000 923.531 l S
1200 1039 m 1175 995.699 l 1125 966.832 l 1100 923.531 l S
1050 779.191 m 1025 822.492 l 1025 880.23 l 1000 923.531 l S
1200 1039 m 1150 1039 l 1100 1010.133 l 1050 1010.133 l S
1050 779.191 m 1075 822.492 l 1075 880.23 l 1100 923.531 l S
1350 779.191 m 1300 779.191 l 1250 808.059 l 1200 808.059 l S
1200 1039 m 1175 995.699 l 1175 937.965 l 1150 894.664 l S
1050 779.191 m 1100 779.191 l 1150 808.059 l 1200 808.059 l S
1200 1039 m 1225 995.699 l 1225 937.965 l 1250 894.664 l S
1050 779.191 m 1075 822.492 l 1125 851.359 l 1150 894.664 l S
1050 779.191 m 1100 779.191 l 1150 750.324 l 1200 750.324 l S
1050 779.191 m 1075 735.891 l 1125 707.023 l 1150 663.723 l S
1200 519.383 m 1175 562.688 l 1175 620.422 l 1150 663.723 l S
1350 779.191 m 1300 779.191 l 1250 750.324 l 1200 750.324 l S
1200 519.383 m 1225 562.688 l 1225 620.422 l 1250 663.723 l S
1200 519.383 m 1250 519.383 l 1300 548.254 l 1350 548.254 l S
1200 519.383 m 1225 562.688 l 1275 591.555 l 1300 634.855 l S
1200 519.383 m 1250 519.383 l 1300 490.516 l 1350 490.516 l S
1200 519.383 m 1225 476.082 l 1275 447.215 l 1300 403.914 l S
Q Q
showpage
%%Trailer
%%Trailer
cleartomark
countdictstack
exch sub { end } repeat
restore
%%EOF
