%!PS-Adobe-2.0 EPSF-2.0
%%BoundingBox: 0 0 1200 1039
%%HiResBoundingBox: 0.000000 0.000000 1200.000000 1039.000000
%%Creator: cairo 1.14.2 (http://cairographics.org)
%%CreationDate: Mon Sep  7 08:21:49 2015
%%DocumentData: Clean7Bit
%%LanguageLevel: 2
%%DocumentMedia: 423x367mm 1200 1039 0 () ()
%%EndComments
% EPSF created by ps2eps 1.68
%%BeginProlog
save
countdictstack
mark
newpath
/showpage {} def
/setpagedevice {pop} def
%%EndProlog
%%Page 1 1
%%BeginProlog
/languagelevel where
{ pop languagelevel } { 1 } ifelse
2 lt { /Helvetica findfont 12 scalefont setfont 50 500 moveto
  (This print job requires a PostScript Language Level 2 printer.) show
  showpage quit } if
/q { gsave } bind def
/Q { grestore } bind def
/cm { 6 array astore concat } bind def
/w { setlinewidth } bind def
/J { setlinecap } bind def
/j { setlinejoin } bind def
/M { setmiterlimit } bind def
/d { setdash } bind def
/m { moveto } bind def
/l { lineto } bind def
/c { curveto } bind def
/h { closepath } bind def
/re { exch dup neg 3 1 roll 5 3 roll moveto 0 rlineto
      0 exch rlineto 0 rlineto closepath } bind def
/S { stroke } bind def
/f { fill } bind def
/f* { eofill } bind def
/n { newpath } bind def
/W { clip } bind def
/W* { eoclip } bind def
/BT { } bind def
/ET { } bind def
/pdfmark where { pop globaldict /?pdfmark /exec load put }
    { globaldict begin /?pdfmark /pop load def /pdfmark
    /cleartomark load def end } ifelse
/BDC { mark 3 1 roll /BDC pdfmark } bind def
/EMC { mark /EMC pdfmark } bind def
/cairo_store_point { /cairo_point_y exch def /cairo_point_x exch def } def
/Tj { show currentpoint cairo_store_point } bind def
/TJ {
  {
    dup
    type /stringtype eq
    { show } { -0.001 mul 0 cairo_font_matrix dtransform rmoveto } ifelse
  } forall
  currentpoint cairo_store_point
} bind def
/cairo_selectfont { cairo_font_matrix aload pop pop pop 0 0 6 array astore
    cairo_font exch selectfont cairo_point_x cairo_point_y moveto } bind def
/Tf { pop /cairo_font exch def /cairo_font_matrix where
      { pop cairo_selectfont } if } bind def
/Td { matrix translate cairo_font_matrix matrix concatmatrix dup
      /cairo_font_matrix exch def dup 4 get exch 5 get cairo_store_point
      /cairo_font where { pop cairo_selectfont } if } bind def
/Tm { 2 copy 8 2 roll 6 array astore /cairo_font_matrix exch def
      cairo_store_point /cairo_font where { pop cairo_selectfont } if } bind def
/g { setgray } bind def
/rg { setrgbcolor } bind def
/d1 { setcachedevice } bind def
/cairo_set_page_size {
  % Change paper size, but only if different from previous paper size otherwise
  % duplex fails. PLRM specifies a tolerance of 5 pts when matching paper size
  % so we use the same when checking if the size changes.
  /setpagedevice where {
    pop currentpagedevice
    /PageSize known {
      2 copy
      currentpagedevice /PageSize get aload pop
      exch 4 1 roll
      sub abs 5 gt
      3 1 roll
      sub abs 5 gt
      or
    } {
      true
    } ifelse
    {
      2 array astore
      2 dict begin
        /PageSize exch def
        /ImagingBBox null def
      currentdict end
      setpagedevice
    } {
      pop pop
    } ifelse
  } {
    pop
  } ifelse
} def
%%EndProlog
%%BeginSetup
%%EndSetup
%%Page: 1 1
%%BeginPageSetup
%%PageMedia: 423x367mm
%%PageBoundingBox: 0 0 1200 1039
1200 1039 cairo_set_page_size
%%EndPageSetup
q 0 0 1200 1039 rectclip q
0.984314 g
0 0 1200 1039 rectfill
0.788235 g
1.875 w
0 J
1 j
[] 0.0 d
4 M 0 1039 1200 -1039.23 re S
0 g
2.5 w
-100 577.121 m -25 562.688 l 0 519.383 l -50 548.254 l h
-100 577.121 m S
-100 577.121 m -50 548.254 l 0 519.383 l -50 519.383 l h
-100 577.121 m S
-100 461.648 m 0 519.383 l -25 476.082 l h
-100 461.648 m S
-100 461.648 m -50 519.383 l 0 519.383 l h
-100 461.648 m S
0.85098 g
50 317.312 m 125 302.879 l 150 259.578 l h
50 317.312 m f*
0 g
50 317.312 m 125 302.879 l 150 259.578 l h
50 317.312 m S
0.85098 g
50 317.312 m 150 259.578 l 100 259.578 l h
50 317.312 m f*
0 g
50 317.312 m 150 259.578 l 100 259.578 l h
50 317.312 m S
0 403.914 m -25 476.082 l 0 519.383 l h
0 403.914 m S
0.85098 g
0 403.914 m 0 519.383 l 25 476.082 l h
0 403.914 m f*
0 g
0 403.914 m 0 519.383 l 25 476.082 l h
0 403.914 m S
0.85098 g
50 201.844 m 150 259.578 l 125 216.277 l h
50 201.844 m f*
0 g
50 201.844 m 150 259.578 l 125 216.277 l h
50 201.844 m S
0 115.238 m 0 -0.23 l -25 43.07 l h
0 115.238 m S
0.85098 g
50 201.844 m 100 259.578 l 150 259.578 l h
50 201.844 m f*
0 g
50 201.844 m 100 259.578 l 150 259.578 l h
50 201.844 m S
0.85098 g
0 115.238 m 25 43.07 l 0 -0.23 l h
0 115.238 m f*
0 g
0 115.238 m 25 43.07 l 0 -0.23 l h
0 115.238 m S
0.85098 g
200 57.504 m 275 43.07 l 300 -0.23 l h
200 57.504 m f*
0 g
200 57.504 m 275 43.07 l 300 -0.23 l h
200 57.504 m S
0.85098 g
200 57.504 m 300 -0.23 l 250 -0.23 l h
200 57.504 m f*
0 g
200 57.504 m 300 -0.23 l 250 -0.23 l h
200 57.504 m S
0.85098 g
150 144.105 m 125 216.277 l 150 259.578 l h
150 144.105 m f*
0 g
150 144.105 m 125 216.277 l 150 259.578 l h
150 144.105 m S
0.85098 g
100 57.504 m 50 -0.23 l 0 -0.23 l h
100 57.504 m f*
0 g
100 57.504 m 50 -0.23 l 0 -0.23 l h
100 57.504 m S
0.85098 g
150 144.105 m 150 259.578 l 175 216.277 l h
150 144.105 m f*
0 g
150 144.105 m 150 259.578 l 175 216.277 l h
150 144.105 m S
0.85098 g
100 57.504 m 0 -0.23 l 25 43.07 l h
100 57.504 m f*
0 g
100 57.504 m 0 -0.23 l 25 43.07 l h
100 57.504 m S
-100 981.266 m 0 1039 l -25 995.699 l h
-100 981.266 m S
-100 981.266 m -50 1039 l 0 1039 l h
-100 981.266 m S
0.85098 g
50 836.926 m 125 822.492 l 150 779.191 l h
50 836.926 m f*
0 g
50 836.926 m 125 822.492 l 150 779.191 l h
50 836.926 m S
0.85098 g
50 836.926 m 150 779.191 l 100 779.191 l h
50 836.926 m f*
0 g
50 836.926 m 150 779.191 l 100 779.191 l h
50 836.926 m S
0 923.531 m -25 995.699 l 0 1039 l h
0 923.531 m S
0.85098 g
0 923.531 m 0 1039 l 25 995.699 l h
0 923.531 m f*
0 g
0 923.531 m 0 1039 l 25 995.699 l h
0 923.531 m S
0.85098 g
50 721.457 m 150 779.191 l 125 735.891 l h
50 721.457 m f*
0 g
50 721.457 m 150 779.191 l 125 735.891 l h
50 721.457 m S
0 634.855 m 0 519.383 l -25 562.688 l h
0 634.855 m S
0.85098 g
50 721.457 m 100 779.191 l 150 779.191 l h
50 721.457 m f*
0 g
50 721.457 m 100 779.191 l 150 779.191 l h
50 721.457 m S
0.85098 g
0 634.855 m 25 562.688 l 0 519.383 l h
0 634.855 m f*
0 g
0 634.855 m 25 562.688 l 0 519.383 l h
0 634.855 m S
0.85098 g
200 577.121 m 275 562.688 l 300 519.383 l 250 548.254 l h
200 577.121 m f*
0 g
200 577.121 m 275 562.688 l 300 519.383 l 250 548.254 l h
200 577.121 m S
0.85098 g
200 577.121 m 250 548.254 l 300 519.383 l 250 519.383 l h
200 577.121 m f*
0 g
200 577.121 m 250 548.254 l 300 519.383 l 250 519.383 l h
200 577.121 m S
0.85098 g
150 663.723 m 125 735.891 l 150 779.191 l h
150 663.723 m f*
0 g
150 663.723 m 125 735.891 l 150 779.191 l h
150 663.723 m S
0.85098 g
100 577.121 m 50 519.383 l 0 519.383 l 50 548.254 l h
100 577.121 m f*
0 g
100 577.121 m 50 519.383 l 0 519.383 l 50 548.254 l h
100 577.121 m S
0.85098 g
150 663.723 m 150 779.191 l 175 735.891 l h
150 663.723 m f*
0 g
150 663.723 m 150 779.191 l 175 735.891 l h
150 663.723 m S
0.85098 g
100 577.121 m 50 548.254 l 0 519.383 l 25 562.688 l h
100 577.121 m f*
0 g
100 577.121 m 50 548.254 l 0 519.383 l 25 562.688 l h
100 577.121 m S
0.85098 g
100 461.648 m 0 519.383 l 50 519.383 l h
100 461.648 m f*
0 g
100 461.648 m 0 519.383 l 50 519.383 l h
100 461.648 m S
0.85098 g
100 461.648 m 25 476.082 l 0 519.383 l h
100 461.648 m f*
0 g
100 461.648 m 25 476.082 l 0 519.383 l h
100 461.648 m S
0.85098 g
200 461.648 m 300 519.383 l 275 476.082 l h
200 461.648 m f*
0 g
200 461.648 m 300 519.383 l 275 476.082 l h
200 461.648 m S
0.85098 g
150 375.047 m 150 259.578 l 125 302.879 l h
150 375.047 m f*
0 g
150 375.047 m 150 259.578 l 125 302.879 l h
150 375.047 m S
0.85098 g
200 461.648 m 250 519.383 l 300 519.383 l h
200 461.648 m f*
0 g
200 461.648 m 250 519.383 l 300 519.383 l h
200 461.648 m S
0.85098 g
150 375.047 m 175 302.879 l 150 259.578 l h
150 375.047 m f*
0 g
150 375.047 m 175 302.879 l 150 259.578 l h
150 375.047 m S
0.85098 g
350 317.312 m 425 302.879 l 450 259.578 l h
350 317.312 m f*
0 g
350 317.312 m 425 302.879 l 450 259.578 l h
350 317.312 m S
0.85098 g
350 317.312 m 450 259.578 l 400 259.578 l h
350 317.312 m f*
0 g
350 317.312 m 450 259.578 l 400 259.578 l h
350 317.312 m S
0.85098 g
300 403.914 m 275 476.082 l 300 519.383 l h
300 403.914 m f*
0 g
300 403.914 m 275 476.082 l 300 519.383 l h
300 403.914 m S
0.85098 g
250 317.312 m 200 259.578 l 150 259.578 l h
250 317.312 m f*
0 g
250 317.312 m 200 259.578 l 150 259.578 l h
250 317.312 m S
0.85098 g
300 403.914 m 300 519.383 l 325 476.082 l h
300 403.914 m f*
0 g
300 403.914 m 300 519.383 l 325 476.082 l h
300 403.914 m S
0.85098 g
250 317.312 m 150 259.578 l 175 302.879 l h
250 317.312 m f*
0 g
250 317.312 m 150 259.578 l 175 302.879 l h
250 317.312 m S
0.85098 g
250 201.844 m 150 259.578 l 200 259.578 l h
250 201.844 m f*
0 g
250 201.844 m 150 259.578 l 200 259.578 l h
250 201.844 m S
0.85098 g
250 201.844 m 175 216.277 l 150 259.578 l h
250 201.844 m f*
0 g
250 201.844 m 175 216.277 l 150 259.578 l h
250 201.844 m S
0.85098 g
350 201.844 m 450 259.578 l 425 216.277 l h
350 201.844 m f*
0 g
350 201.844 m 450 259.578 l 425 216.277 l h
350 201.844 m S
0.85098 g
300 115.238 m 300 -0.23 l 275 43.07 l h
300 115.238 m f*
0 g
300 115.238 m 300 -0.23 l 275 43.07 l h
300 115.238 m S
0.85098 g
350 201.844 m 400 259.578 l 450 259.578 l h
350 201.844 m f*
0 g
350 201.844 m 400 259.578 l 450 259.578 l h
350 201.844 m S
0.85098 g
300 115.238 m 325 43.07 l 300 -0.23 l h
300 115.238 m f*
0 g
300 115.238 m 325 43.07 l 300 -0.23 l h
300 115.238 m S
0.85098 g
500 57.504 m 575 43.07 l 600 -0.23 l h
500 57.504 m f*
0 g
500 57.504 m 575 43.07 l 600 -0.23 l h
500 57.504 m S
0.85098 g
500 57.504 m 600 -0.23 l 550 -0.23 l h
500 57.504 m f*
0 g
500 57.504 m 600 -0.23 l 550 -0.23 l h
500 57.504 m S
0.85098 g
450 144.105 m 425 216.277 l 450 259.578 l h
450 144.105 m f*
0 g
450 144.105 m 425 216.277 l 450 259.578 l h
450 144.105 m S
0.85098 g
400 57.504 m 350 -0.23 l 300 -0.23 l h
400 57.504 m f*
0 g
400 57.504 m 350 -0.23 l 300 -0.23 l h
400 57.504 m S
0.85098 g
450 144.105 m 450 259.578 l 475 216.277 l h
450 144.105 m f*
0 g
450 144.105 m 450 259.578 l 475 216.277 l h
450 144.105 m S
0.85098 g
400 57.504 m 300 -0.23 l 325 43.07 l h
400 57.504 m f*
0 g
400 57.504 m 300 -0.23 l 325 43.07 l h
400 57.504 m S
0.85098 g
100 981.266 m 0 1039 l 50 1039 l h
100 981.266 m f*
0 g
100 981.266 m 0 1039 l 50 1039 l h
100 981.266 m S
0.85098 g
100 981.266 m 25 995.699 l 0 1039 l h
100 981.266 m f*
0 g
100 981.266 m 25 995.699 l 0 1039 l h
100 981.266 m S
0.85098 g
200 981.266 m 300 1039 l 275 995.699 l h
200 981.266 m f*
0 g
200 981.266 m 300 1039 l 275 995.699 l h
200 981.266 m S
0.85098 g
150 894.664 m 150 779.191 l 125 822.492 l h
150 894.664 m f*
0 g
150 894.664 m 150 779.191 l 125 822.492 l h
150 894.664 m S
0.85098 g
200 981.266 m 250 1039 l 300 1039 l h
200 981.266 m f*
0 g
200 981.266 m 250 1039 l 300 1039 l h
200 981.266 m S
0.85098 g
150 894.664 m 175 822.492 l 150 779.191 l h
150 894.664 m f*
0 g
150 894.664 m 175 822.492 l 150 779.191 l h
150 894.664 m S
0.85098 g
350 836.926 m 425 822.492 l 450 779.191 l h
350 836.926 m f*
0 g
350 836.926 m 425 822.492 l 450 779.191 l h
350 836.926 m S
0.85098 g
350 836.926 m 450 779.191 l 400 779.191 l h
350 836.926 m f*
0 g
350 836.926 m 450 779.191 l 400 779.191 l h
350 836.926 m S
0.85098 g
300 923.531 m 275 995.699 l 300 1039 l h
300 923.531 m f*
0 g
300 923.531 m 275 995.699 l 300 1039 l h
300 923.531 m S
0.85098 g
250 836.926 m 200 779.191 l 150 779.191 l h
250 836.926 m f*
0 g
250 836.926 m 200 779.191 l 150 779.191 l h
250 836.926 m S
0.85098 g
300 923.531 m 300 1039 l 325 995.699 l h
300 923.531 m f*
0 g
300 923.531 m 300 1039 l 325 995.699 l h
300 923.531 m S
0.85098 g
250 836.926 m 150 779.191 l 175 822.492 l h
250 836.926 m f*
0 g
250 836.926 m 150 779.191 l 175 822.492 l h
250 836.926 m S
0.85098 g
250 721.457 m 150 779.191 l 200 779.191 l h
250 721.457 m f*
0 g
250 721.457 m 150 779.191 l 200 779.191 l h
250 721.457 m S
0.85098 g
250 721.457 m 175 735.891 l 150 779.191 l h
250 721.457 m f*
0 g
250 721.457 m 175 735.891 l 150 779.191 l h
250 721.457 m S
0.85098 g
350 721.457 m 450 779.191 l 425 735.891 l h
350 721.457 m f*
0 g
350 721.457 m 450 779.191 l 425 735.891 l h
350 721.457 m S
0.85098 g
300 634.855 m 300 519.383 l 275 562.688 l h
300 634.855 m f*
0 g
300 634.855 m 300 519.383 l 275 562.688 l h
300 634.855 m S
0.85098 g
350 721.457 m 400 779.191 l 450 779.191 l h
350 721.457 m f*
0 g
350 721.457 m 400 779.191 l 450 779.191 l h
350 721.457 m S
0.85098 g
300 634.855 m 325 562.688 l 300 519.383 l h
300 634.855 m f*
0 g
300 634.855 m 325 562.688 l 300 519.383 l h
300 634.855 m S
0.85098 g
500 577.121 m 575 562.688 l 600 519.383 l 550 548.254 l h
500 577.121 m f*
0 g
500 577.121 m 575 562.688 l 600 519.383 l 550 548.254 l h
500 577.121 m S
0.85098 g
500 577.121 m 550 548.254 l 600 519.383 l 550 519.383 l h
500 577.121 m f*
0 g
500 577.121 m 550 548.254 l 600 519.383 l 550 519.383 l h
500 577.121 m S
0.85098 g
450 663.723 m 425 735.891 l 450 779.191 l h
450 663.723 m f*
0 g
450 663.723 m 425 735.891 l 450 779.191 l h
450 663.723 m S
0.85098 g
400 577.121 m 350 519.383 l 300 519.383 l 350 548.254 l h
400 577.121 m f*
0 g
400 577.121 m 350 519.383 l 300 519.383 l 350 548.254 l h
400 577.121 m S
0.85098 g
450 663.723 m 450 779.191 l 475 735.891 l h
450 663.723 m f*
0 g
450 663.723 m 450 779.191 l 475 735.891 l h
450 663.723 m S
0.85098 g
400 577.121 m 350 548.254 l 300 519.383 l 325 562.688 l h
400 577.121 m f*
0 g
400 577.121 m 350 548.254 l 300 519.383 l 325 562.688 l h
400 577.121 m S
0.85098 g
400 461.648 m 300 519.383 l 350 519.383 l h
400 461.648 m f*
0 g
400 461.648 m 300 519.383 l 350 519.383 l h
400 461.648 m S
0.85098 g
400 461.648 m 325 476.082 l 300 519.383 l h
400 461.648 m f*
0 g
400 461.648 m 325 476.082 l 300 519.383 l h
400 461.648 m S
0.85098 g
500 461.648 m 600 519.383 l 575 476.082 l h
500 461.648 m f*
0 g
500 461.648 m 600 519.383 l 575 476.082 l h
500 461.648 m S
0.85098 g
450 375.047 m 450 259.578 l 425 302.879 l h
450 375.047 m f*
0 g
450 375.047 m 450 259.578 l 425 302.879 l h
450 375.047 m S
0.85098 g
500 461.648 m 550 519.383 l 600 519.383 l h
500 461.648 m f*
0 g
500 461.648 m 550 519.383 l 600 519.383 l h
500 461.648 m S
0.85098 g
450 375.047 m 475 302.879 l 450 259.578 l h
450 375.047 m f*
0 g
450 375.047 m 475 302.879 l 450 259.578 l h
450 375.047 m S
0.85098 g
650 317.312 m 725 302.879 l 750 259.578 l h
650 317.312 m f*
0 g
650 317.312 m 725 302.879 l 750 259.578 l h
650 317.312 m S
0.85098 g
650 317.312 m 750 259.578 l 700 259.578 l h
650 317.312 m f*
0 g
650 317.312 m 750 259.578 l 700 259.578 l h
650 317.312 m S
0.85098 g
600 403.914 m 575 476.082 l 600 519.383 l h
600 403.914 m f*
0 g
600 403.914 m 575 476.082 l 600 519.383 l h
600 403.914 m S
0.85098 g
550 317.312 m 500 259.578 l 450 259.578 l h
550 317.312 m f*
0 g
550 317.312 m 500 259.578 l 450 259.578 l h
550 317.312 m S
0.85098 g
600 403.914 m 600 519.383 l 625 476.082 l h
600 403.914 m f*
0 g
600 403.914 m 600 519.383 l 625 476.082 l h
600 403.914 m S
0.85098 g
550 317.312 m 450 259.578 l 475 302.879 l h
550 317.312 m f*
0 g
550 317.312 m 450 259.578 l 475 302.879 l h
550 317.312 m S
0.85098 g
550 201.844 m 450 259.578 l 500 259.578 l h
550 201.844 m f*
0 g
550 201.844 m 450 259.578 l 500 259.578 l h
550 201.844 m S
0.85098 g
550 201.844 m 475 216.277 l 450 259.578 l h
550 201.844 m f*
0 g
550 201.844 m 475 216.277 l 450 259.578 l h
550 201.844 m S
0.85098 g
650 201.844 m 750 259.578 l 725 216.277 l h
650 201.844 m f*
0 g
650 201.844 m 750 259.578 l 725 216.277 l h
650 201.844 m S
0.85098 g
600 115.238 m 600 -0.23 l 575 43.07 l h
600 115.238 m f*
0 g
600 115.238 m 600 -0.23 l 575 43.07 l h
600 115.238 m S
0.85098 g
650 201.844 m 700 259.578 l 750 259.578 l h
650 201.844 m f*
0 g
650 201.844 m 700 259.578 l 750 259.578 l h
650 201.844 m S
0.85098 g
600 115.238 m 625 43.07 l 600 -0.23 l h
600 115.238 m f*
0 g
600 115.238 m 625 43.07 l 600 -0.23 l h
600 115.238 m S
0.85098 g
800 57.504 m 875 43.07 l 900 -0.23 l h
800 57.504 m f*
0 g
800 57.504 m 875 43.07 l 900 -0.23 l h
800 57.504 m S
0.85098 g
800 57.504 m 900 -0.23 l 850 -0.23 l h
800 57.504 m f*
0 g
800 57.504 m 900 -0.23 l 850 -0.23 l h
800 57.504 m S
0.85098 g
750 144.105 m 725 216.277 l 750 259.578 l h
750 144.105 m f*
0 g
750 144.105 m 725 216.277 l 750 259.578 l h
750 144.105 m S
0.85098 g
700 57.504 m 650 -0.23 l 600 -0.23 l h
700 57.504 m f*
0 g
700 57.504 m 650 -0.23 l 600 -0.23 l h
700 57.504 m S
0.85098 g
750 144.105 m 750 259.578 l 775 216.277 l h
750 144.105 m f*
0 g
750 144.105 m 750 259.578 l 775 216.277 l h
750 144.105 m S
0.85098 g
700 57.504 m 600 -0.23 l 625 43.07 l h
700 57.504 m f*
0 g
700 57.504 m 600 -0.23 l 625 43.07 l h
700 57.504 m S
0.85098 g
400 981.266 m 300 1039 l 350 1039 l h
400 981.266 m f*
0 g
400 981.266 m 300 1039 l 350 1039 l h
400 981.266 m S
0.85098 g
400 981.266 m 325 995.699 l 300 1039 l h
400 981.266 m f*
0 g
400 981.266 m 325 995.699 l 300 1039 l h
400 981.266 m S
0.85098 g
500 981.266 m 600 1039 l 575 995.699 l h
500 981.266 m f*
0 g
500 981.266 m 600 1039 l 575 995.699 l h
500 981.266 m S
0.85098 g
450 894.664 m 450 779.191 l 425 822.492 l h
450 894.664 m f*
0 g
450 894.664 m 450 779.191 l 425 822.492 l h
450 894.664 m S
0.85098 g
500 981.266 m 550 1039 l 600 1039 l h
500 981.266 m f*
0 g
500 981.266 m 550 1039 l 600 1039 l h
500 981.266 m S
0.85098 g
450 894.664 m 475 822.492 l 450 779.191 l h
450 894.664 m f*
0 g
450 894.664 m 475 822.492 l 450 779.191 l h
450 894.664 m S
0.85098 g
650 836.926 m 725 822.492 l 750 779.191 l h
650 836.926 m f*
0 g
650 836.926 m 725 822.492 l 750 779.191 l h
650 836.926 m S
0.85098 g
650 836.926 m 750 779.191 l 700 779.191 l h
650 836.926 m f*
0 g
650 836.926 m 750 779.191 l 700 779.191 l h
650 836.926 m S
0.85098 g
600 923.531 m 575 995.699 l 600 1039 l h
600 923.531 m f*
0 g
600 923.531 m 575 995.699 l 600 1039 l h
600 923.531 m S
0.85098 g
550 836.926 m 500 779.191 l 450 779.191 l h
550 836.926 m f*
0 g
550 836.926 m 500 779.191 l 450 779.191 l h
550 836.926 m S
0.85098 g
600 923.531 m 600 1039 l 625 995.699 l h
600 923.531 m f*
0 g
600 923.531 m 600 1039 l 625 995.699 l h
600 923.531 m S
0.85098 g
550 836.926 m 450 779.191 l 475 822.492 l h
550 836.926 m f*
0 g
550 836.926 m 450 779.191 l 475 822.492 l h
550 836.926 m S
0.85098 g
550 721.457 m 450 779.191 l 500 779.191 l h
550 721.457 m f*
0 g
550 721.457 m 450 779.191 l 500 779.191 l h
550 721.457 m S
0.85098 g
550 721.457 m 475 735.891 l 450 779.191 l h
550 721.457 m f*
0 g
550 721.457 m 475 735.891 l 450 779.191 l h
550 721.457 m S
0.85098 g
650 721.457 m 750 779.191 l 725 735.891 l h
650 721.457 m f*
0 g
650 721.457 m 750 779.191 l 725 735.891 l h
650 721.457 m S
0.85098 g
600 634.855 m 600 519.383 l 575 562.688 l h
600 634.855 m f*
0 g
600 634.855 m 600 519.383 l 575 562.688 l h
600 634.855 m S
0.85098 g
650 721.457 m 700 779.191 l 750 779.191 l h
650 721.457 m f*
0 g
650 721.457 m 700 779.191 l 750 779.191 l h
650 721.457 m S
0.85098 g
600 634.855 m 625 562.688 l 600 519.383 l h
600 634.855 m f*
0 g
600 634.855 m 625 562.688 l 600 519.383 l h
600 634.855 m S
0.85098 g
800 577.121 m 875 562.688 l 900 519.383 l 850 548.254 l h
800 577.121 m f*
0 g
800 577.121 m 875 562.688 l 900 519.383 l 850 548.254 l h
800 577.121 m S
0.85098 g
800 577.121 m 850 548.254 l 900 519.383 l 850 519.383 l h
800 577.121 m f*
0 g
800 577.121 m 850 548.254 l 900 519.383 l 850 519.383 l h
800 577.121 m S
0.85098 g
750 663.723 m 725 735.891 l 750 779.191 l h
750 663.723 m f*
0 g
750 663.723 m 725 735.891 l 750 779.191 l h
750 663.723 m S
0.85098 g
700 577.121 m 650 519.383 l 600 519.383 l 650 548.254 l h
700 577.121 m f*
0 g
700 577.121 m 650 519.383 l 600 519.383 l 650 548.254 l h
700 577.121 m S
0.85098 g
750 663.723 m 750 779.191 l 775 735.891 l h
750 663.723 m f*
0 g
750 663.723 m 750 779.191 l 775 735.891 l h
750 663.723 m S
0.85098 g
700 577.121 m 650 548.254 l 600 519.383 l 625 562.688 l h
700 577.121 m f*
0 g
700 577.121 m 650 548.254 l 600 519.383 l 625 562.688 l h
700 577.121 m S
0.85098 g
700 461.648 m 600 519.383 l 650 519.383 l h
700 461.648 m f*
0 g
700 461.648 m 600 519.383 l 650 519.383 l h
700 461.648 m S
0.85098 g
700 461.648 m 625 476.082 l 600 519.383 l h
700 461.648 m f*
0 g
700 461.648 m 625 476.082 l 600 519.383 l h
700 461.648 m S
0.85098 g
800 461.648 m 900 519.383 l 875 476.082 l h
800 461.648 m f*
0 g
800 461.648 m 900 519.383 l 875 476.082 l h
800 461.648 m S
0.85098 g
750 375.047 m 750 259.578 l 725 302.879 l h
750 375.047 m f*
0 g
750 375.047 m 750 259.578 l 725 302.879 l h
750 375.047 m S
0.85098 g
800 461.648 m 850 519.383 l 900 519.383 l h
800 461.648 m f*
0 g
800 461.648 m 850 519.383 l 900 519.383 l h
800 461.648 m S
0.85098 g
750 375.047 m 775 302.879 l 750 259.578 l h
750 375.047 m f*
0 g
750 375.047 m 775 302.879 l 750 259.578 l h
750 375.047 m S
0.85098 g
950 317.312 m 1025 302.879 l 1050 259.578 l h
950 317.312 m f*
0 g
950 317.312 m 1025 302.879 l 1050 259.578 l h
950 317.312 m S
0.85098 g
950 317.312 m 1050 259.578 l 1000 259.578 l h
950 317.312 m f*
0 g
950 317.312 m 1050 259.578 l 1000 259.578 l h
950 317.312 m S
0.85098 g
900 403.914 m 875 476.082 l 900 519.383 l h
900 403.914 m f*
0 g
900 403.914 m 875 476.082 l 900 519.383 l h
900 403.914 m S
0.85098 g
850 317.312 m 800 259.578 l 750 259.578 l h
850 317.312 m f*
0 g
850 317.312 m 800 259.578 l 750 259.578 l h
850 317.312 m S
0.85098 g
900 403.914 m 900 519.383 l 925 476.082 l h
900 403.914 m f*
0 g
900 403.914 m 900 519.383 l 925 476.082 l h
900 403.914 m S
0.85098 g
850 317.312 m 750 259.578 l 775 302.879 l h
850 317.312 m f*
0 g
850 317.312 m 750 259.578 l 775 302.879 l h
850 317.312 m S
0.85098 g
850 201.844 m 750 259.578 l 800 259.578 l h
850 201.844 m f*
0 g
850 201.844 m 750 259.578 l 800 259.578 l h
850 201.844 m S
0.85098 g
850 201.844 m 775 216.277 l 750 259.578 l h
850 201.844 m f*
0 g
850 201.844 m 775 216.277 l 750 259.578 l h
850 201.844 m S
0.85098 g
950 201.844 m 1050 259.578 l 1025 216.277 l h
950 201.844 m f*
0 g
950 201.844 m 1050 259.578 l 1025 216.277 l h
950 201.844 m S
0.85098 g
900 115.238 m 900 -0.23 l 875 43.07 l h
900 115.238 m f*
0 g
900 115.238 m 900 -0.23 l 875 43.07 l h
900 115.238 m S
0.85098 g
950 201.844 m 1000 259.578 l 1050 259.578 l h
950 201.844 m f*
0 g
950 201.844 m 1000 259.578 l 1050 259.578 l h
950 201.844 m S
0.85098 g
900 115.238 m 925 43.07 l 900 -0.23 l h
900 115.238 m f*
0 g
900 115.238 m 925 43.07 l 900 -0.23 l h
900 115.238 m S
0.85098 g
1100 57.504 m 1175 43.07 l 1200 -0.23 l h
1100 57.504 m f*
0 g
1100 57.504 m 1175 43.07 l 1200 -0.23 l h
1100 57.504 m S
0.85098 g
1100 57.504 m 1200 -0.23 l 1150 -0.23 l h
1100 57.504 m f*
0 g
1100 57.504 m 1200 -0.23 l 1150 -0.23 l h
1100 57.504 m S
0.85098 g
1050 144.105 m 1025 216.277 l 1050 259.578 l h
1050 144.105 m f*
0 g
1050 144.105 m 1025 216.277 l 1050 259.578 l h
1050 144.105 m S
0.85098 g
1000 57.504 m 950 -0.23 l 900 -0.23 l h
1000 57.504 m f*
0 g
1000 57.504 m 950 -0.23 l 900 -0.23 l h
1000 57.504 m S
0.85098 g
1050 144.105 m 1050 259.578 l 1075 216.277 l h
1050 144.105 m f*
0 g
1050 144.105 m 1050 259.578 l 1075 216.277 l h
1050 144.105 m S
0.85098 g
1000 57.504 m 900 -0.23 l 925 43.07 l h
1000 57.504 m f*
0 g
1000 57.504 m 900 -0.23 l 925 43.07 l h
1000 57.504 m S
0.85098 g
700 981.266 m 600 1039 l 650 1039 l h
700 981.266 m f*
0 g
700 981.266 m 600 1039 l 650 1039 l h
700 981.266 m S
0.85098 g
700 981.266 m 625 995.699 l 600 1039 l h
700 981.266 m f*
0 g
700 981.266 m 625 995.699 l 600 1039 l h
700 981.266 m S
0.85098 g
800 981.266 m 900 1039 l 875 995.699 l h
800 981.266 m f*
0 g
800 981.266 m 900 1039 l 875 995.699 l h
800 981.266 m S
0.85098 g
750 894.664 m 750 779.191 l 725 822.492 l h
750 894.664 m f*
0 g
750 894.664 m 750 779.191 l 725 822.492 l h
750 894.664 m S
0.85098 g
800 981.266 m 850 1039 l 900 1039 l h
800 981.266 m f*
0 g
800 981.266 m 850 1039 l 900 1039 l h
800 981.266 m S
0.85098 g
750 894.664 m 775 822.492 l 750 779.191 l h
750 894.664 m f*
0 g
750 894.664 m 775 822.492 l 750 779.191 l h
750 894.664 m S
0.85098 g
950 836.926 m 1025 822.492 l 1050 779.191 l h
950 836.926 m f*
0 g
950 836.926 m 1025 822.492 l 1050 779.191 l h
950 836.926 m S
0.85098 g
950 836.926 m 1050 779.191 l 1000 779.191 l h
950 836.926 m f*
0 g
950 836.926 m 1050 779.191 l 1000 779.191 l h
950 836.926 m S
0.85098 g
900 923.531 m 875 995.699 l 900 1039 l h
900 923.531 m f*
0 g
900 923.531 m 875 995.699 l 900 1039 l h
900 923.531 m S
0.85098 g
850 836.926 m 800 779.191 l 750 779.191 l h
850 836.926 m f*
0 g
850 836.926 m 800 779.191 l 750 779.191 l h
850 836.926 m S
0.85098 g
900 923.531 m 900 1039 l 925 995.699 l h
900 923.531 m f*
0 g
900 923.531 m 900 1039 l 925 995.699 l h
900 923.531 m S
0.85098 g
850 836.926 m 750 779.191 l 775 822.492 l h
850 836.926 m f*
0 g
850 836.926 m 750 779.191 l 775 822.492 l h
850 836.926 m S
0.85098 g
850 721.457 m 750 779.191 l 800 779.191 l h
850 721.457 m f*
0 g
850 721.457 m 750 779.191 l 800 779.191 l h
850 721.457 m S
0.85098 g
850 721.457 m 775 735.891 l 750 779.191 l h
850 721.457 m f*
0 g
850 721.457 m 775 735.891 l 750 779.191 l h
850 721.457 m S
0.85098 g
950 721.457 m 1050 779.191 l 1025 735.891 l h
950 721.457 m f*
0 g
950 721.457 m 1050 779.191 l 1025 735.891 l h
950 721.457 m S
0.85098 g
900 634.855 m 900 519.383 l 875 562.688 l h
900 634.855 m f*
0 g
900 634.855 m 900 519.383 l 875 562.688 l h
900 634.855 m S
0.85098 g
950 721.457 m 1000 779.191 l 1050 779.191 l h
950 721.457 m f*
0 g
950 721.457 m 1000 779.191 l 1050 779.191 l h
950 721.457 m S
0.85098 g
900 634.855 m 925 562.688 l 900 519.383 l h
900 634.855 m f*
0 g
900 634.855 m 925 562.688 l 900 519.383 l h
900 634.855 m S
0.85098 g
1100 577.121 m 1175 562.688 l 1200 519.383 l 1150 548.254 l h
1100 577.121 m f*
0 g
1100 577.121 m 1175 562.688 l 1200 519.383 l 1150 548.254 l h
1100 577.121 m S
0.85098 g
1100 577.121 m 1150 548.254 l 1200 519.383 l 1150 519.383 l h
1100 577.121 m f*
0 g
1100 577.121 m 1150 548.254 l 1200 519.383 l 1150 519.383 l h
1100 577.121 m S
0.85098 g
1050 663.723 m 1025 735.891 l 1050 779.191 l h
1050 663.723 m f*
0 g
1050 663.723 m 1025 735.891 l 1050 779.191 l h
1050 663.723 m S
0.85098 g
1000 577.121 m 950 519.383 l 900 519.383 l 950 548.254 l h
1000 577.121 m f*
0 g
1000 577.121 m 950 519.383 l 900 519.383 l 950 548.254 l h
1000 577.121 m S
0.85098 g
1050 663.723 m 1050 779.191 l 1075 735.891 l h
1050 663.723 m f*
0 g
1050 663.723 m 1050 779.191 l 1075 735.891 l h
1050 663.723 m S
0.85098 g
1000 577.121 m 950 548.254 l 900 519.383 l 925 562.688 l h
1000 577.121 m f*
0 g
1000 577.121 m 950 548.254 l 900 519.383 l 925 562.688 l h
1000 577.121 m S
0.85098 g
1000 461.648 m 900 519.383 l 950 519.383 l h
1000 461.648 m f*
0 g
1000 461.648 m 900 519.383 l 950 519.383 l h
1000 461.648 m S
0.85098 g
1000 461.648 m 925 476.082 l 900 519.383 l h
1000 461.648 m f*
0 g
1000 461.648 m 925 476.082 l 900 519.383 l h
1000 461.648 m S
0.85098 g
1100 461.648 m 1200 519.383 l 1175 476.082 l h
1100 461.648 m f*
0 g
1100 461.648 m 1200 519.383 l 1175 476.082 l h
1100 461.648 m S
0.85098 g
1050 375.047 m 1050 259.578 l 1025 302.879 l h
1050 375.047 m f*
0 g
1050 375.047 m 1050 259.578 l 1025 302.879 l h
1050 375.047 m S
0.85098 g
1100 461.648 m 1150 519.383 l 1200 519.383 l h
1100 461.648 m f*
0 g
1100 461.648 m 1150 519.383 l 1200 519.383 l h
1100 461.648 m S
0.85098 g
1050 375.047 m 1075 302.879 l 1050 259.578 l h
1050 375.047 m f*
0 g
1050 375.047 m 1075 302.879 l 1050 259.578 l h
1050 375.047 m S
0.85098 g
1200 403.914 m 1175 476.082 l 1200 519.383 l h
1200 403.914 m f*
0 g
1200 403.914 m 1175 476.082 l 1200 519.383 l h
1200 403.914 m S
0.85098 g
1150 317.312 m 1100 259.578 l 1050 259.578 l h
1150 317.312 m f*
0 g
1150 317.312 m 1100 259.578 l 1050 259.578 l h
1150 317.312 m S
1200 403.914 m 1200 519.383 l 1225 476.082 l h
1200 403.914 m S
0.85098 g
1150 317.312 m 1050 259.578 l 1075 302.879 l h
1150 317.312 m f*
0 g
1150 317.312 m 1050 259.578 l 1075 302.879 l h
1150 317.312 m S
0.85098 g
1150 201.844 m 1050 259.578 l 1100 259.578 l h
1150 201.844 m f*
0 g
1150 201.844 m 1050 259.578 l 1100 259.578 l h
1150 201.844 m S
0.85098 g
1150 201.844 m 1075 216.277 l 1050 259.578 l h
1150 201.844 m f*
0 g
1150 201.844 m 1075 216.277 l 1050 259.578 l h
1150 201.844 m S
0.85098 g
1200 115.238 m 1200 -0.23 l 1175 43.07 l h
1200 115.238 m f*
0 g
1200 115.238 m 1200 -0.23 l 1175 43.07 l h
1200 115.238 m S
1200 115.238 m 1225 43.07 l 1200 -0.23 l h
1200 115.238 m S
1300 57.504 m 1250 -0.23 l 1200 -0.23 l h
1300 57.504 m S
1300 57.504 m 1200 -0.23 l 1225 43.07 l h
1300 57.504 m S
0.85098 g
1000 981.266 m 900 1039 l 950 1039 l h
1000 981.266 m f*
0 g
1000 981.266 m 900 1039 l 950 1039 l h
1000 981.266 m S
0.85098 g
1000 981.266 m 925 995.699 l 900 1039 l h
1000 981.266 m f*
0 g
1000 981.266 m 925 995.699 l 900 1039 l h
1000 981.266 m S
0.85098 g
1100 981.266 m 1200 1039 l 1175 995.699 l h
1100 981.266 m f*
0 g
1100 981.266 m 1200 1039 l 1175 995.699 l h
1100 981.266 m S
0.85098 g
1050 894.664 m 1050 779.191 l 1025 822.492 l h
1050 894.664 m f*
0 g
1050 894.664 m 1050 779.191 l 1025 822.492 l h
1050 894.664 m S
0.85098 g
1100 981.266 m 1150 1039 l 1200 1039 l h
1100 981.266 m f*
0 g
1100 981.266 m 1150 1039 l 1200 1039 l h
1100 981.266 m S
0.85098 g
1050 894.664 m 1075 822.492 l 1050 779.191 l h
1050 894.664 m f*
0 g
1050 894.664 m 1075 822.492 l 1050 779.191 l h
1050 894.664 m S
0.85098 g
1200 923.531 m 1175 995.699 l 1200 1039 l h
1200 923.531 m f*
0 g
1200 923.531 m 1175 995.699 l 1200 1039 l h
1200 923.531 m S
0.85098 g
1150 836.926 m 1100 779.191 l 1050 779.191 l h
1150 836.926 m f*
0 g
1150 836.926 m 1100 779.191 l 1050 779.191 l h
1150 836.926 m S
1200 923.531 m 1200 1039 l 1225 995.699 l h
1200 923.531 m S
0.85098 g
1150 836.926 m 1050 779.191 l 1075 822.492 l h
1150 836.926 m f*
0 g
1150 836.926 m 1050 779.191 l 1075 822.492 l h
1150 836.926 m S
0.85098 g
1150 721.457 m 1050 779.191 l 1100 779.191 l h
1150 721.457 m f*
0 g
1150 721.457 m 1050 779.191 l 1100 779.191 l h
1150 721.457 m S
0.85098 g
1150 721.457 m 1075 735.891 l 1050 779.191 l h
1150 721.457 m f*
0 g
1150 721.457 m 1075 735.891 l 1050 779.191 l h
1150 721.457 m S
0.85098 g
1200 634.855 m 1200 519.383 l 1175 562.688 l h
1200 634.855 m f*
0 g
1200 634.855 m 1200 519.383 l 1175 562.688 l h
1200 634.855 m S
1200 634.855 m 1225 562.688 l 1200 519.383 l h
1200 634.855 m S
1300 577.121 m 1250 519.383 l 1200 519.383 l 1250 548.254 l h
1300 577.121 m S
1300 577.121 m 1250 548.254 l 1200 519.383 l 1225 562.688 l h
1300 577.121 m S
1300 461.648 m 1200 519.383 l 1250 519.383 l h
1300 461.648 m S
1300 461.648 m 1225 476.082 l 1200 519.383 l h
1300 461.648 m S
Q Q
showpage
%%Trailer
%%Trailer
cleartomark
countdictstack
exch sub { end } repeat
restore
%%EOF
