%!PS-Adobe-2.0 EPSF-2.0
%%BoundingBox: 0 0 1500 1000
%%HiResBoundingBox: 0.000000 0.000000 1500.000000 1000.000000
%%Creator: cairo 1.14.2 (http://cairographics.org)
%%CreationDate: Mon Sep  7 08:21:50 2015
%%DocumentData: Clean7Bit
%%LanguageLevel: 2
%%DocumentMedia: 529x353mm 1500 1000 0 () ()
%%EndComments
% EPSF created by ps2eps 1.68
%%BeginProlog
save
countdictstack
mark
newpath
/showpage {} def
/setpagedevice {pop} def
%%EndProlog
%%Page 1 1
%%BeginProlog
/languagelevel where
{ pop languagelevel } { 1 } ifelse
2 lt { /Helvetica findfont 12 scalefont setfont 50 500 moveto
  (This print job requires a PostScript Language Level 2 printer.) show
  showpage quit } if
/q { gsave } bind def
/Q { grestore } bind def
/cm { 6 array astore concat } bind def
/w { setlinewidth } bind def
/J { setlinecap } bind def
/j { setlinejoin } bind def
/M { setmiterlimit } bind def
/d { setdash } bind def
/m { moveto } bind def
/l { lineto } bind def
/c { curveto } bind def
/h { closepath } bind def
/re { exch dup neg 3 1 roll 5 3 roll moveto 0 rlineto
      0 exch rlineto 0 rlineto closepath } bind def
/S { stroke } bind def
/f { fill } bind def
/f* { eofill } bind def
/n { newpath } bind def
/W { clip } bind def
/W* { eoclip } bind def
/BT { } bind def
/ET { } bind def
/pdfmark where { pop globaldict /?pdfmark /exec load put }
    { globaldict begin /?pdfmark /pop load def /pdfmark
    /cleartomark load def end } ifelse
/BDC { mark 3 1 roll /BDC pdfmark } bind def
/EMC { mark /EMC pdfmark } bind def
/cairo_store_point { /cairo_point_y exch def /cairo_point_x exch def } def
/Tj { show currentpoint cairo_store_point } bind def
/TJ {
  {
    dup
    type /stringtype eq
    { show } { -0.001 mul 0 cairo_font_matrix dtransform rmoveto } ifelse
  } forall
  currentpoint cairo_store_point
} bind def
/cairo_selectfont { cairo_font_matrix aload pop pop pop 0 0 6 array astore
    cairo_font exch selectfont cairo_point_x cairo_point_y moveto } bind def
/Tf { pop /cairo_font exch def /cairo_font_matrix where
      { pop cairo_selectfont } if } bind def
/Td { matrix translate cairo_font_matrix matrix concatmatrix dup
      /cairo_font_matrix exch def dup 4 get exch 5 get cairo_store_point
      /cairo_font where { pop cairo_selectfont } if } bind def
/Tm { 2 copy 8 2 roll 6 array astore /cairo_font_matrix exch def
      cairo_store_point /cairo_font where { pop cairo_selectfont } if } bind def
/g { setgray } bind def
/rg { setrgbcolor } bind def
/d1 { setcachedevice } bind def
/cairo_set_page_size {
  % Change paper size, but only if different from previous paper size otherwise
  % duplex fails. PLRM specifies a tolerance of 5 pts when matching paper size
  % so we use the same when checking if the size changes.
  /setpagedevice where {
    pop currentpagedevice
    /PageSize known {
      2 copy
      currentpagedevice /PageSize get aload pop
      exch 4 1 roll
      sub abs 5 gt
      3 1 roll
      sub abs 5 gt
      or
    } {
      true
    } ifelse
    {
      2 array astore
      2 dict begin
        /PageSize exch def
        /ImagingBBox null def
      currentdict end
      setpagedevice
    } {
      pop pop
    } ifelse
  } {
    pop
  } ifelse
} def
%%EndProlog
%%BeginSetup
%%EndSetup
%%Page: 1 1
%%BeginPageSetup
%%PageMedia: 529x353mm
%%PageBoundingBox: 0 0 1500 1000
1500 1000 cairo_set_page_size
%%EndPageSetup
q 0 0 1500 1000 rectclip q
0.984314 g
0 0 1500 1000 rectfill
0.788235 g
1.875 w
0 J
1 j
[] 0.0 d
4 M 0 1000 1500 -1000 re S
0.85098 g
83.332 875 m 166.668 1000 l 250 1000 l 166.668 875 l h
83.332 875 m f*
0 g
2.5 w
83.332 875 m 166.668 1000 l 250 1000 l 166.668 875 l h
83.332 875 m S
0.85098 g
83.332 875 m 166.668 875 l 250 750 l 166.668 750 l h
83.332 875 m f*
0 g
83.332 875 m 166.668 875 l 250 750 l 166.668 750 l h
83.332 875 m S
0.85098 g
83.332 625 m 166.668 750 l 250 750 l 166.668 625 l h
83.332 625 m f*
0 g
83.332 625 m 166.668 750 l 250 750 l 166.668 625 l h
83.332 625 m S
0.85098 g
83.332 625 m 166.668 625 l 250 500 l 166.668 500 l h
83.332 625 m f*
0 g
83.332 625 m 166.668 625 l 250 500 l 166.668 500 l h
83.332 625 m S
0.85098 g
83.332 375 m 166.668 500 l 250 500 l 166.668 375 l h
83.332 375 m f*
0 g
83.332 375 m 166.668 500 l 250 500 l 166.668 375 l h
83.332 375 m S
0.85098 g
83.332 375 m 166.668 375 l 250 250 l 166.668 250 l h
83.332 375 m f*
0 g
83.332 375 m 166.668 375 l 250 250 l 166.668 250 l h
83.332 375 m S
0.85098 g
83.332 125 m 166.668 250 l 250 250 l 166.668 125 l h
83.332 125 m f*
0 g
83.332 125 m 166.668 250 l 250 250 l 166.668 125 l h
83.332 125 m S
0.85098 g
83.332 125 m 166.668 125 l 250 0 l 166.668 0 l h
83.332 125 m f*
0 g
83.332 125 m 166.668 125 l 250 0 l 166.668 0 l h
83.332 125 m S
0.85098 g
333.332 875 m 416.668 1000 l 500 1000 l 416.668 875 l h
333.332 875 m f*
0 g
333.332 875 m 416.668 1000 l 500 1000 l 416.668 875 l h
333.332 875 m S
0.85098 g
333.332 875 m 416.668 875 l 500 750 l 416.668 750 l h
333.332 875 m f*
0 g
333.332 875 m 416.668 875 l 500 750 l 416.668 750 l h
333.332 875 m S
0.85098 g
333.332 625 m 416.668 750 l 500 750 l 416.668 625 l h
333.332 625 m f*
0 g
333.332 625 m 416.668 750 l 500 750 l 416.668 625 l h
333.332 625 m S
0.85098 g
333.332 625 m 416.668 625 l 500 500 l 416.668 500 l h
333.332 625 m f*
0 g
333.332 625 m 416.668 625 l 500 500 l 416.668 500 l h
333.332 625 m S
0.85098 g
333.332 375 m 416.668 500 l 500 500 l 416.668 375 l h
333.332 375 m f*
0 g
333.332 375 m 416.668 500 l 500 500 l 416.668 375 l h
333.332 375 m S
0.85098 g
333.332 375 m 416.668 375 l 500 250 l 416.668 250 l h
333.332 375 m f*
0 g
333.332 375 m 416.668 375 l 500 250 l 416.668 250 l h
333.332 375 m S
0.85098 g
333.332 125 m 416.668 250 l 500 250 l 416.668 125 l h
333.332 125 m f*
0 g
333.332 125 m 416.668 250 l 500 250 l 416.668 125 l h
333.332 125 m S
0.85098 g
333.332 125 m 416.668 125 l 500 0 l 416.668 0 l h
333.332 125 m f*
0 g
333.332 125 m 416.668 125 l 500 0 l 416.668 0 l h
333.332 125 m S
0.85098 g
583.332 875 m 666.668 1000 l 750 1000 l 666.668 875 l h
583.332 875 m f*
0 g
583.332 875 m 666.668 1000 l 750 1000 l 666.668 875 l h
583.332 875 m S
0.85098 g
583.332 875 m 666.668 875 l 750 750 l 666.668 750 l h
583.332 875 m f*
0 g
583.332 875 m 666.668 875 l 750 750 l 666.668 750 l h
583.332 875 m S
0.85098 g
583.332 625 m 666.668 750 l 750 750 l 666.668 625 l h
583.332 625 m f*
0 g
583.332 625 m 666.668 750 l 750 750 l 666.668 625 l h
583.332 625 m S
0.85098 g
583.332 625 m 666.668 625 l 750 500 l 666.668 500 l h
583.332 625 m f*
0 g
583.332 625 m 666.668 625 l 750 500 l 666.668 500 l h
583.332 625 m S
0.85098 g
583.332 375 m 666.668 500 l 750 500 l 666.668 375 l h
583.332 375 m f*
0 g
583.332 375 m 666.668 500 l 750 500 l 666.668 375 l h
583.332 375 m S
0.85098 g
583.332 375 m 666.668 375 l 750 250 l 666.668 250 l h
583.332 375 m f*
0 g
583.332 375 m 666.668 375 l 750 250 l 666.668 250 l h
583.332 375 m S
0.85098 g
583.332 125 m 666.668 250 l 750 250 l 666.668 125 l h
583.332 125 m f*
0 g
583.332 125 m 666.668 250 l 750 250 l 666.668 125 l h
583.332 125 m S
0.85098 g
583.332 125 m 666.668 125 l 750 0 l 666.668 0 l h
583.332 125 m f*
0 g
583.332 125 m 666.668 125 l 750 0 l 666.668 0 l h
583.332 125 m S
0.85098 g
833.332 875 m 916.668 1000 l 1000 1000 l 916.668 875 l h
833.332 875 m f*
0 g
833.332 875 m 916.668 1000 l 1000 1000 l 916.668 875 l h
833.332 875 m S
0.85098 g
833.332 875 m 916.668 875 l 1000 750 l 916.668 750 l h
833.332 875 m f*
0 g
833.332 875 m 916.668 875 l 1000 750 l 916.668 750 l h
833.332 875 m S
0.85098 g
833.332 625 m 916.668 750 l 1000 750 l 916.668 625 l h
833.332 625 m f*
0 g
833.332 625 m 916.668 750 l 1000 750 l 916.668 625 l h
833.332 625 m S
0.85098 g
833.332 625 m 916.668 625 l 1000 500 l 916.668 500 l h
833.332 625 m f*
0 g
833.332 625 m 916.668 625 l 1000 500 l 916.668 500 l h
833.332 625 m S
0.85098 g
833.332 375 m 916.668 500 l 1000 500 l 916.668 375 l h
833.332 375 m f*
0 g
833.332 375 m 916.668 500 l 1000 500 l 916.668 375 l h
833.332 375 m S
0.85098 g
833.332 375 m 916.668 375 l 1000 250 l 916.668 250 l h
833.332 375 m f*
0 g
833.332 375 m 916.668 375 l 1000 250 l 916.668 250 l h
833.332 375 m S
0.85098 g
833.332 125 m 916.668 250 l 1000 250 l 916.668 125 l h
833.332 125 m f*
0 g
833.332 125 m 916.668 250 l 1000 250 l 916.668 125 l h
833.332 125 m S
0.85098 g
833.332 125 m 916.668 125 l 1000 0 l 916.668 0 l h
833.332 125 m f*
0 g
833.332 125 m 916.668 125 l 1000 0 l 916.668 0 l h
833.332 125 m S
0.85098 g
1083.332 875 m 1166.668 1000 l 1250 1000 l 1166.668 875 l h
1083.332 875 m f*
0 g
1083.332 875 m 1166.668 1000 l 1250 1000 l 1166.668 875 l h
1083.332 875 m S
0.85098 g
1083.332 875 m 1166.668 875 l 1250 750 l 1166.668 750 l h
1083.332 875 m f*
0 g
1083.332 875 m 1166.668 875 l 1250 750 l 1166.668 750 l h
1083.332 875 m S
0.85098 g
1083.332 625 m 1166.668 750 l 1250 750 l 1166.668 625 l h
1083.332 625 m f*
0 g
1083.332 625 m 1166.668 750 l 1250 750 l 1166.668 625 l h
1083.332 625 m S
0.85098 g
1083.332 625 m 1166.668 625 l 1250 500 l 1166.668 500 l h
1083.332 625 m f*
0 g
1083.332 625 m 1166.668 625 l 1250 500 l 1166.668 500 l h
1083.332 625 m S
0.85098 g
1083.332 375 m 1166.668 500 l 1250 500 l 1166.668 375 l h
1083.332 375 m f*
0 g
1083.332 375 m 1166.668 500 l 1250 500 l 1166.668 375 l h
1083.332 375 m S
0.85098 g
1083.332 375 m 1166.668 375 l 1250 250 l 1166.668 250 l h
1083.332 375 m f*
0 g
1083.332 375 m 1166.668 375 l 1250 250 l 1166.668 250 l h
1083.332 375 m S
0.85098 g
1083.332 125 m 1166.668 250 l 1250 250 l 1166.668 125 l h
1083.332 125 m f*
0 g
1083.332 125 m 1166.668 250 l 1250 250 l 1166.668 125 l h
1083.332 125 m S
0.85098 g
1083.332 125 m 1166.668 125 l 1250 0 l 1166.668 0 l h
1083.332 125 m f*
0 g
1083.332 125 m 1166.668 125 l 1250 0 l 1166.668 0 l h
1083.332 125 m S
0.85098 g
1333.332 875 m 1416.668 1000 l 1500 1000 l 1416.668 875 l h
1333.332 875 m f*
0 g
1333.332 875 m 1416.668 1000 l 1500 1000 l 1416.668 875 l h
1333.332 875 m S
0.85098 g
1333.332 875 m 1416.668 875 l 1500 750 l 1416.668 750 l h
1333.332 875 m f*
0 g
1333.332 875 m 1416.668 875 l 1500 750 l 1416.668 750 l h
1333.332 875 m S
0.85098 g
1333.332 625 m 1416.668 750 l 1500 750 l 1416.668 625 l h
1333.332 625 m f*
0 g
1333.332 625 m 1416.668 750 l 1500 750 l 1416.668 625 l h
1333.332 625 m S
0.85098 g
1333.332 625 m 1416.668 625 l 1500 500 l 1416.668 500 l h
1333.332 625 m f*
0 g
1333.332 625 m 1416.668 625 l 1500 500 l 1416.668 500 l h
1333.332 625 m S
0.85098 g
1333.332 375 m 1416.668 500 l 1500 500 l 1416.668 375 l h
1333.332 375 m f*
0 g
1333.332 375 m 1416.668 500 l 1500 500 l 1416.668 375 l h
1333.332 375 m S
0.85098 g
1333.332 375 m 1416.668 375 l 1500 250 l 1416.668 250 l h
1333.332 375 m f*
0 g
1333.332 375 m 1416.668 375 l 1500 250 l 1416.668 250 l h
1333.332 375 m S
0.85098 g
1333.332 125 m 1416.668 250 l 1500 250 l 1416.668 125 l h
1333.332 125 m f*
0 g
1333.332 125 m 1416.668 250 l 1500 250 l 1416.668 125 l h
1333.332 125 m S
0.85098 g
1333.332 125 m 1416.668 125 l 1500 0 l 1416.668 0 l h
1333.332 125 m f*
0 g
1333.332 125 m 1416.668 125 l 1500 0 l 1416.668 0 l h
1333.332 125 m S
Q Q
showpage
%%Trailer
%%Trailer
cleartomark
countdictstack
exch sub { end } repeat
restore
%%EOF
