%!PS-Adobe-2.0 EPSF-2.0
%%BoundingBox: 0 0 905 495
%%HiResBoundingBox: 0.000000 0.000000 905.000000 495.000000
%%Creator: cairo 1.14.2 (http://cairographics.org)
%%CreationDate: Mon Sep  7 08:21:42 2015
%%DocumentData: Clean7Bit
%%LanguageLevel: 2
%%DocumentMedia: 319x175mm 905 495 0 () ()
%%EndComments
% EPSF created by ps2eps 1.68
%%BeginProlog
save
countdictstack
mark
newpath
/showpage {} def
/setpagedevice {pop} def
%%EndProlog
%%Page 1 1
%%BeginProlog
/languagelevel where
{ pop languagelevel } { 1 } ifelse
2 lt { /Helvetica findfont 12 scalefont setfont 50 500 moveto
  (This print job requires a PostScript Language Level 2 printer.) show
  showpage quit } if
/q { gsave } bind def
/Q { grestore } bind def
/cm { 6 array astore concat } bind def
/w { setlinewidth } bind def
/J { setlinecap } bind def
/j { setlinejoin } bind def
/M { setmiterlimit } bind def
/d { setdash } bind def
/m { moveto } bind def
/l { lineto } bind def
/c { curveto } bind def
/h { closepath } bind def
/re { exch dup neg 3 1 roll 5 3 roll moveto 0 rlineto
      0 exch rlineto 0 rlineto closepath } bind def
/S { stroke } bind def
/f { fill } bind def
/f* { eofill } bind def
/n { newpath } bind def
/W { clip } bind def
/W* { eoclip } bind def
/BT { } bind def
/ET { } bind def
/pdfmark where { pop globaldict /?pdfmark /exec load put }
    { globaldict begin /?pdfmark /pop load def /pdfmark
    /cleartomark load def end } ifelse
/BDC { mark 3 1 roll /BDC pdfmark } bind def
/EMC { mark /EMC pdfmark } bind def
/cairo_store_point { /cairo_point_y exch def /cairo_point_x exch def } def
/Tj { show currentpoint cairo_store_point } bind def
/TJ {
  {
    dup
    type /stringtype eq
    { show } { -0.001 mul 0 cairo_font_matrix dtransform rmoveto } ifelse
  } forall
  currentpoint cairo_store_point
} bind def
/cairo_selectfont { cairo_font_matrix aload pop pop pop 0 0 6 array astore
    cairo_font exch selectfont cairo_point_x cairo_point_y moveto } bind def
/Tf { pop /cairo_font exch def /cairo_font_matrix where
      { pop cairo_selectfont } if } bind def
/Td { matrix translate cairo_font_matrix matrix concatmatrix dup
      /cairo_font_matrix exch def dup 4 get exch 5 get cairo_store_point
      /cairo_font where { pop cairo_selectfont } if } bind def
/Tm { 2 copy 8 2 roll 6 array astore /cairo_font_matrix exch def
      cairo_store_point /cairo_font where { pop cairo_selectfont } if } bind def
/g { setgray } bind def
/rg { setrgbcolor } bind def
/d1 { setcachedevice } bind def
/cairo_set_page_size {
  % Change paper size, but only if different from previous paper size otherwise
  % duplex fails. PLRM specifies a tolerance of 5 pts when matching paper size
  % so we use the same when checking if the size changes.
  /setpagedevice where {
    pop currentpagedevice
    /PageSize known {
      2 copy
      currentpagedevice /PageSize get aload pop
      exch 4 1 roll
      sub abs 5 gt
      3 1 roll
      sub abs 5 gt
      or
    } {
      true
    } ifelse
    {
      2 array astore
      2 dict begin
        /PageSize exch def
        /ImagingBBox null def
      currentdict end
      setpagedevice
    } {
      pop pop
    } ifelse
  } {
    pop
  } ifelse
} def
%%EndProlog
%%BeginSetup
%%EndSetup
%%Page: 1 1
%%BeginPageSetup
%%PageMedia: 319x175mm
%%PageBoundingBox: 0 0 905 495
905 495 cairo_set_page_size
%%EndPageSetup
q 0 0 905 495 rectclip q
Q q
0.984314 g
0 495 905.023 -494.977 re f*
0.788235 g
1.875 w
0 J
1 j
[] 0.0 d
4 M 0 495 905.023 -494.977 re S
0 g
2.5 w
1 J
-62.133 212.156 m 18.34 165.016 25.246 141.445 -41.422 141.445 c S
8.578 141.445 m 89.051 94.305 95.957 70.734 29.289 70.734 c S
Q q
0 72 52 -71.977 re W n
0 g
2.5 w
1 J
1 j
[] 0.0 d
4 M 50 0.023 m -30.473 47.164 -37.379 70.734 29.289 70.734 c S
Q q
78 72 69 -71.977 re W n
0 g
2.5 w
1 J
1 j
[] 0.0 d
4 M 79.289 70.734 m 159.762 23.594 166.668 0.023 100 0.023 c S
Q q
0 g
2.5 w
1 J
1 j
[] 0.0 d
4 M -3.555 353.578 m 76.922 306.438 83.824 282.867 17.156 282.867 c S
37.867 212.156 m -42.605 259.297 -49.508 282.867 17.156 282.867 c S
67.156 282.867 m 147.633 235.727 154.535 212.156 87.867 212.156 c S
108.578 141.445 m 28.105 188.586 21.203 212.156 87.867 212.156 c S
137.867 212.156 m 218.34 165.016 225.246 141.445 158.578 141.445 c S
179.289 70.734 m 98.816 117.875 91.91 141.445 158.578 141.445 c S
208.578 141.445 m 289.051 94.305 295.957 70.734 229.289 70.734 c S
Q q
182 72 70 -71.977 re W n
0 g
2.5 w
1 J
1 j
[] 0.0 d
4 M 250 0.023 m 169.527 47.164 162.621 70.734 229.289 70.734 c S
Q q
278 72 69 -71.977 re W n
0 g
2.5 w
1 J
1 j
[] 0.0 d
4 M 279.289 70.734 m 359.762 23.594 366.668 0.023 300 0.023 c S
Q q
0 g
2.5 w
1 J
1 j
[] 0.0 d
4 M 25.734 424.289 m -54.738 471.43 -61.641 495 5.023 495 c S
55.023 495 m 135.5 447.859 142.402 424.289 75.734 424.289 c S
96.445 353.578 m 15.973 400.719 9.07 424.289 75.734 424.289 c S
125.734 424.289 m 206.211 377.148 213.113 353.578 146.445 353.578 c S
167.156 282.867 m 86.684 330.008 79.781 353.578 146.445 353.578 c S
196.445 353.578 m 276.922 306.438 283.824 282.867 217.156 282.867 c S
237.867 212.156 m 157.395 259.297 150.492 282.867 217.156 282.867 c S
267.156 282.867 m 347.633 235.727 354.535 212.156 287.867 212.156 c S
308.578 141.445 m 228.105 188.586 221.203 212.156 287.867 212.156 c S
337.867 212.156 m 418.34 165.016 425.246 141.445 358.578 141.445 c S
379.289 70.734 m 298.816 117.875 291.91 141.445 358.578 141.445 c S
408.578 141.445 m 489.051 94.305 495.957 70.734 429.289 70.734 c S
Q q
382 72 70 -71.977 re W n
0 g
2.5 w
1 J
1 j
[] 0.0 d
4 M 450 0.023 m 369.527 47.164 362.621 70.734 429.289 70.734 c S
Q q
478 72 69 -71.977 re W n
0 g
2.5 w
1 J
1 j
[] 0.0 d
4 M 479.289 70.734 m 559.762 23.594 566.668 0.023 500 0.023 c S
Q q
0 g
2.5 w
1 J
1 j
[] 0.0 d
4 M 225.734 424.289 m 145.262 471.43 138.359 495 205.023 495 c S
255.023 495 m 335.5 447.859 342.402 424.289 275.734 424.289 c S
296.445 353.578 m 215.973 400.719 209.07 424.289 275.734 424.289 c S
325.734 424.289 m 406.211 377.148 413.113 353.578 346.445 353.578 c S
367.156 282.867 m 286.684 330.008 279.781 353.578 346.445 353.578 c S
396.445 353.578 m 476.922 306.438 483.824 282.867 417.156 282.867 c S
437.867 212.156 m 357.395 259.297 350.492 282.867 417.156 282.867 c S
467.156 282.867 m 547.633 235.727 554.535 212.156 487.867 212.156 c S
508.578 141.445 m 428.105 188.586 421.203 212.156 487.867 212.156 c S
537.867 212.156 m 618.34 165.016 625.246 141.445 558.578 141.445 c S
579.289 70.734 m 498.816 117.875 491.91 141.445 558.578 141.445 c S
608.578 141.445 m 689.051 94.305 695.957 70.734 629.289 70.734 c S
Q q
582 72 70 -71.977 re W n
0 g
2.5 w
1 J
1 j
[] 0.0 d
4 M 650 0.023 m 569.527 47.164 562.621 70.734 629.289 70.734 c S
Q q
678 72 69 -71.977 re W n
0 g
2.5 w
1 J
1 j
[] 0.0 d
4 M 679.289 70.734 m 759.762 23.594 766.668 0.023 700 0.023 c S
Q q
0 g
2.5 w
1 J
1 j
[] 0.0 d
4 M 425.734 424.289 m 345.262 471.43 338.359 495 405.023 495 c S
455.023 495 m 535.5 447.859 542.402 424.289 475.734 424.289 c S
496.445 353.578 m 415.973 400.719 409.07 424.289 475.734 424.289 c S
525.734 424.289 m 606.211 377.148 613.113 353.578 546.445 353.578 c S
567.156 282.867 m 486.684 330.008 479.781 353.578 546.445 353.578 c S
596.445 353.578 m 676.922 306.438 683.824 282.867 617.156 282.867 c S
637.867 212.156 m 557.395 259.297 550.492 282.867 617.156 282.867 c S
667.156 282.867 m 747.633 235.727 754.535 212.156 687.867 212.156 c S
708.578 141.445 m 628.105 188.586 621.203 212.156 687.867 212.156 c S
737.867 212.156 m 818.34 165.016 825.246 141.445 758.578 141.445 c S
779.289 70.734 m 698.816 117.875 691.91 141.445 758.578 141.445 c S
808.578 141.445 m 889.051 94.305 895.957 70.734 829.289 70.734 c S
Q q
782 72 70 -71.977 re W n
0 g
2.5 w
1 J
1 j
[] 0.0 d
4 M 850 0.023 m 769.527 47.164 762.621 70.734 829.289 70.734 c S
Q q
878 72 27 -71.977 re W n
0 g
2.5 w
1 J
1 j
[] 0.0 d
4 M 879.289 70.734 m 959.762 23.594 966.668 0.023 900 0.023 c S
Q q
0 g
2.5 w
1 J
1 j
[] 0.0 d
4 M 625.734 424.289 m 545.262 471.43 538.359 495 605.023 495 c S
655.023 495 m 735.5 447.859 742.402 424.289 675.734 424.289 c S
696.445 353.578 m 615.973 400.719 609.07 424.289 675.734 424.289 c S
725.734 424.289 m 806.211 377.148 813.113 353.578 746.445 353.578 c S
767.156 282.867 m 686.684 330.008 679.781 353.578 746.445 353.578 c S
796.445 353.578 m 876.922 306.438 883.824 282.867 817.156 282.867 c S
837.867 212.156 m 757.395 259.297 750.492 282.867 817.156 282.867 c S
867.156 282.867 m 947.633 235.727 954.535 212.156 887.867 212.156 c S
908.578 141.445 m 828.105 188.586 821.203 212.156 887.867 212.156 c S
825.734 424.289 m 745.262 471.43 738.359 495 805.023 495 c S
855.023 495 m 935.5 447.859 942.402 424.289 875.734 424.289 c S
896.445 353.578 m 815.973 400.719 809.07 424.289 875.734 424.289 c S
967.156 282.867 m 886.684 330.008 879.781 353.578 946.445 353.578 c S
Q Q
showpage
%%Trailer
%%Trailer
cleartomark
countdictstack
exch sub { end } repeat
restore
%%EOF
