%!PS-Adobe-2.0 EPSF-2.0
%%BoundingBox: 0 0 905 495
%%HiResBoundingBox: 0.000000 0.000000 905.000000 495.000000
%%Creator: cairo 1.14.2 (http://cairographics.org)
%%CreationDate: Mon Sep  7 08:21:42 2015
%%DocumentData: Clean7Bit
%%LanguageLevel: 2
%%DocumentMedia: 319x175mm 905 495 0 () ()
%%EndComments
% EPSF created by ps2eps 1.68
%%BeginProlog
save
countdictstack
mark
newpath
/showpage {} def
/setpagedevice {pop} def
%%EndProlog
%%Page 1 1
%%BeginProlog
/languagelevel where
{ pop languagelevel } { 1 } ifelse
2 lt { /Helvetica findfont 12 scalefont setfont 50 500 moveto
  (This print job requires a PostScript Language Level 2 printer.) show
  showpage quit } if
/q { gsave } bind def
/Q { grestore } bind def
/cm { 6 array astore concat } bind def
/w { setlinewidth } bind def
/J { setlinecap } bind def
/j { setlinejoin } bind def
/M { setmiterlimit } bind def
/d { setdash } bind def
/m { moveto } bind def
/l { lineto } bind def
/c { curveto } bind def
/h { closepath } bind def
/re { exch dup neg 3 1 roll 5 3 roll moveto 0 rlineto
      0 exch rlineto 0 rlineto closepath } bind def
/S { stroke } bind def
/f { fill } bind def
/f* { eofill } bind def
/n { newpath } bind def
/W { clip } bind def
/W* { eoclip } bind def
/BT { } bind def
/ET { } bind def
/pdfmark where { pop globaldict /?pdfmark /exec load put }
    { globaldict begin /?pdfmark /pop load def /pdfmark
    /cleartomark load def end } ifelse
/BDC { mark 3 1 roll /BDC pdfmark } bind def
/EMC { mark /EMC pdfmark } bind def
/cairo_store_point { /cairo_point_y exch def /cairo_point_x exch def } def
/Tj { show currentpoint cairo_store_point } bind def
/TJ {
  {
    dup
    type /stringtype eq
    { show } { -0.001 mul 0 cairo_font_matrix dtransform rmoveto } ifelse
  } forall
  currentpoint cairo_store_point
} bind def
/cairo_selectfont { cairo_font_matrix aload pop pop pop 0 0 6 array astore
    cairo_font exch selectfont cairo_point_x cairo_point_y moveto } bind def
/Tf { pop /cairo_font exch def /cairo_font_matrix where
      { pop cairo_selectfont } if } bind def
/Td { matrix translate cairo_font_matrix matrix concatmatrix dup
      /cairo_font_matrix exch def dup 4 get exch 5 get cairo_store_point
      /cairo_font where { pop cairo_selectfont } if } bind def
/Tm { 2 copy 8 2 roll 6 array astore /cairo_font_matrix exch def
      cairo_store_point /cairo_font where { pop cairo_selectfont } if } bind def
/g { setgray } bind def
/rg { setrgbcolor } bind def
/d1 { setcachedevice } bind def
/cairo_set_page_size {
  % Change paper size, but only if different from previous paper size otherwise
  % duplex fails. PLRM specifies a tolerance of 5 pts when matching paper size
  % so we use the same when checking if the size changes.
  /setpagedevice where {
    pop currentpagedevice
    /PageSize known {
      2 copy
      currentpagedevice /PageSize get aload pop
      exch 4 1 roll
      sub abs 5 gt
      3 1 roll
      sub abs 5 gt
      or
    } {
      true
    } ifelse
    {
      2 array astore
      2 dict begin
        /PageSize exch def
        /ImagingBBox null def
      currentdict end
      setpagedevice
    } {
      pop pop
    } ifelse
  } {
    pop
  } ifelse
} def
%%EndProlog
%%BeginSetup
%%EndSetup
%%Page: 1 1
%%BeginPageSetup
%%PageMedia: 319x175mm
%%PageBoundingBox: 0 0 905 495
905 495 cairo_set_page_size
%%EndPageSetup
q 0 0 905 495 rectclip q
Q q
0.984314 g
0 495 905.023 -494.977 re f*
0.788235 g
1.875 w
0 J
1 j
[] 0.0 d
4 M 0 495 905.023 -494.977 re S
0 g
2.5 w
1 J
8.578 141.445 m -14.992 165.016 -55.227 188.586 -112.133 212.156 c S
-91.422 141.445 m -67.852 117.875 -27.613 94.305 29.289 70.734 c S
79.289 70.734 m 55.719 94.305 15.48 117.875 -41.422 141.445 c S
Q q
0 72 102 -71.977 re W n
0 g
2.5 w
1 J
1 j
[] 0.0 d
4 M -20.711 70.734 m 2.859 47.164 43.098 23.594 100 0.023 c S
Q q
28 72 124 -71.977 re W n
0 g
2.5 w
1 J
1 j
[] 0.0 d
4 M 150 0.023 m 126.43 23.594 86.191 47.164 29.289 70.734 c S
Q q
0 g
2.5 w
1 J
1 j
[] 0.0 d
4 M -103.555 353.578 m -79.984 330.008 -39.746 306.438 17.156 282.867 c S
67.156 282.867 m 43.586 306.438 3.352 330.008 -53.555 353.578 c S
-32.844 282.867 m -9.273 259.297 30.965 235.727 87.867 212.156 c S
137.867 212.156 m 114.297 235.727 74.062 259.297 17.156 282.867 c S
37.867 212.156 m 61.438 188.586 101.676 165.016 158.578 141.445 c S
208.578 141.445 m 185.008 165.016 144.773 188.586 87.867 212.156 c S
108.578 141.445 m 132.148 117.875 172.387 94.305 229.289 70.734 c S
279.289 70.734 m 255.719 94.305 215.48 117.875 158.578 141.445 c S
Q q
178 72 124 -71.977 re W n
0 g
2.5 w
1 J
1 j
[] 0.0 d
4 M 179.289 70.734 m 202.859 47.164 243.098 23.594 300 0.023 c S
Q q
228 72 124 -71.977 re W n
0 g
2.5 w
1 J
1 j
[] 0.0 d
4 M 350 0.023 m 326.43 23.594 286.191 47.164 229.289 70.734 c S
Q q
0 g
2.5 w
1 J
1 j
[] 0.0 d
4 M -44.977 495 m -21.406 471.43 18.832 447.859 75.734 424.289 c S
125.734 424.289 m 102.164 447.859 61.93 471.43 5.023 495 c S
25.734 424.289 m 49.305 400.719 89.543 377.148 146.445 353.578 c S
196.445 353.578 m 172.875 377.148 132.641 400.719 75.734 424.289 c S
96.445 353.578 m 120.016 330.008 160.254 306.438 217.156 282.867 c S
267.156 282.867 m 243.586 306.438 203.352 330.008 146.445 353.578 c S
167.156 282.867 m 190.727 259.297 230.965 235.727 287.867 212.156 c S
337.867 212.156 m 314.297 235.727 274.062 259.297 217.156 282.867 c S
237.867 212.156 m 261.438 188.586 301.676 165.016 358.578 141.445 c S
408.578 141.445 m 385.008 165.016 344.773 188.586 287.867 212.156 c S
308.578 141.445 m 332.148 117.875 372.387 94.305 429.289 70.734 c S
479.289 70.734 m 455.719 94.305 415.48 117.875 358.578 141.445 c S
Q q
378 72 124 -71.977 re W n
0 g
2.5 w
1 J
1 j
[] 0.0 d
4 M 379.289 70.734 m 402.859 47.164 443.098 23.594 500 0.023 c S
Q q
428 72 124 -71.977 re W n
0 g
2.5 w
1 J
1 j
[] 0.0 d
4 M 550 0.023 m 526.43 23.594 486.191 47.164 429.289 70.734 c S
Q q
0 g
2.5 w
1 J
1 j
[] 0.0 d
4 M 155.023 495 m 178.594 471.43 218.832 447.859 275.734 424.289 c S
325.734 424.289 m 302.164 447.859 261.93 471.43 205.023 495 c S
225.734 424.289 m 249.305 400.719 289.543 377.148 346.445 353.578 c S
396.445 353.578 m 372.875 377.148 332.641 400.719 275.734 424.289 c S
296.445 353.578 m 320.016 330.008 360.254 306.438 417.156 282.867 c S
467.156 282.867 m 443.586 306.438 403.352 330.008 346.445 353.578 c S
367.156 282.867 m 390.727 259.297 430.965 235.727 487.867 212.156 c S
537.867 212.156 m 514.297 235.727 474.062 259.297 417.156 282.867 c S
437.867 212.156 m 461.438 188.586 501.676 165.016 558.578 141.445 c S
608.578 141.445 m 585.008 165.016 544.773 188.586 487.867 212.156 c S
508.578 141.445 m 532.148 117.875 572.387 94.305 629.289 70.734 c S
679.289 70.734 m 655.719 94.305 615.48 117.875 558.578 141.445 c S
Q q
578 72 124 -71.977 re W n
0 g
2.5 w
1 J
1 j
[] 0.0 d
4 M 579.289 70.734 m 602.859 47.164 643.098 23.594 700 0.023 c S
Q q
628 72 124 -71.977 re W n
0 g
2.5 w
1 J
1 j
[] 0.0 d
4 M 750 0.023 m 726.43 23.594 686.191 47.164 629.289 70.734 c S
Q q
0 g
2.5 w
1 J
1 j
[] 0.0 d
4 M 355.023 495 m 378.594 471.43 418.832 447.859 475.734 424.289 c S
525.734 424.289 m 502.164 447.859 461.93 471.43 405.023 495 c S
425.734 424.289 m 449.305 400.719 489.543 377.148 546.445 353.578 c S
596.445 353.578 m 572.875 377.148 532.641 400.719 475.734 424.289 c S
496.445 353.578 m 520.016 330.008 560.254 306.438 617.156 282.867 c S
667.156 282.867 m 643.586 306.438 603.352 330.008 546.445 353.578 c S
567.156 282.867 m 590.727 259.297 630.965 235.727 687.867 212.156 c S
737.867 212.156 m 714.297 235.727 674.062 259.297 617.156 282.867 c S
637.867 212.156 m 661.438 188.586 701.676 165.016 758.578 141.445 c S
808.578 141.445 m 785.008 165.016 744.773 188.586 687.867 212.156 c S
708.578 141.445 m 732.148 117.875 772.387 94.305 829.289 70.734 c S
879.289 70.734 m 855.719 94.305 815.48 117.875 758.578 141.445 c S
Q q
778 72 124 -71.977 re W n
0 g
2.5 w
1 J
1 j
[] 0.0 d
4 M 779.289 70.734 m 802.859 47.164 843.098 23.594 900 0.023 c S
Q q
828 72 77 -71.977 re W n
0 g
2.5 w
1 J
1 j
[] 0.0 d
4 M 950 0.023 m 926.43 23.594 886.191 47.164 829.289 70.734 c S
Q q
0 g
2.5 w
1 J
1 j
[] 0.0 d
4 M 555.023 495 m 578.594 471.43 618.832 447.859 675.734 424.289 c S
725.734 424.289 m 702.164 447.859 661.93 471.43 605.023 495 c S
625.734 424.289 m 649.305 400.719 689.543 377.148 746.445 353.578 c S
796.445 353.578 m 772.875 377.148 732.641 400.719 675.734 424.289 c S
696.445 353.578 m 720.016 330.008 760.254 306.438 817.156 282.867 c S
867.156 282.867 m 843.586 306.438 803.352 330.008 746.445 353.578 c S
767.156 282.867 m 790.727 259.297 830.965 235.727 887.867 212.156 c S
937.867 212.156 m 914.297 235.727 874.062 259.297 817.156 282.867 c S
837.867 212.156 m 861.438 188.586 901.676 165.016 958.578 141.445 c S
1008.578 141.445 m 985.008 165.016 944.773 188.586 887.867 212.156 c S
755.023 495 m 778.594 471.43 818.832 447.859 875.734 424.289 c S
925.734 424.289 m 902.164 447.859 861.93 471.43 805.023 495 c S
825.734 424.289 m 849.305 400.719 889.543 377.148 946.445 353.578 c S
996.445 353.578 m 972.875 377.148 932.641 400.719 875.734 424.289 c S
896.445 353.578 m 920.016 330.008 960.254 306.438 1017.156 282.867 c S
Q Q
showpage
%%Trailer
%%Trailer
cleartomark
countdictstack
exch sub { end } repeat
restore
%%EOF
