%!PS-Adobe-2.0 EPSF-2.0
%%BoundingBox: 0 0 905 495
%%HiResBoundingBox: 0.000000 0.000000 905.000000 495.000000
%%Creator: cairo 1.14.2 (http://cairographics.org)
%%CreationDate: Mon Sep  7 08:21:42 2015
%%DocumentData: Clean7Bit
%%LanguageLevel: 2
%%DocumentMedia: 319x175mm 905 495 0 () ()
%%EndComments
% EPSF created by ps2eps 1.68
%%BeginProlog
save
countdictstack
mark
newpath
/showpage {} def
/setpagedevice {pop} def
%%EndProlog
%%Page 1 1
%%BeginProlog
/languagelevel where
{ pop languagelevel } { 1 } ifelse
2 lt { /Helvetica findfont 12 scalefont setfont 50 500 moveto
  (This print job requires a PostScript Language Level 2 printer.) show
  showpage quit } if
/q { gsave } bind def
/Q { grestore } bind def
/cm { 6 array astore concat } bind def
/w { setlinewidth } bind def
/J { setlinecap } bind def
/j { setlinejoin } bind def
/M { setmiterlimit } bind def
/d { setdash } bind def
/m { moveto } bind def
/l { lineto } bind def
/c { curveto } bind def
/h { closepath } bind def
/re { exch dup neg 3 1 roll 5 3 roll moveto 0 rlineto
      0 exch rlineto 0 rlineto closepath } bind def
/S { stroke } bind def
/f { fill } bind def
/f* { eofill } bind def
/n { newpath } bind def
/W { clip } bind def
/W* { eoclip } bind def
/BT { } bind def
/ET { } bind def
/pdfmark where { pop globaldict /?pdfmark /exec load put }
    { globaldict begin /?pdfmark /pop load def /pdfmark
    /cleartomark load def end } ifelse
/BDC { mark 3 1 roll /BDC pdfmark } bind def
/EMC { mark /EMC pdfmark } bind def
/cairo_store_point { /cairo_point_y exch def /cairo_point_x exch def } def
/Tj { show currentpoint cairo_store_point } bind def
/TJ {
  {
    dup
    type /stringtype eq
    { show } { -0.001 mul 0 cairo_font_matrix dtransform rmoveto } ifelse
  } forall
  currentpoint cairo_store_point
} bind def
/cairo_selectfont { cairo_font_matrix aload pop pop pop 0 0 6 array astore
    cairo_font exch selectfont cairo_point_x cairo_point_y moveto } bind def
/Tf { pop /cairo_font exch def /cairo_font_matrix where
      { pop cairo_selectfont } if } bind def
/Td { matrix translate cairo_font_matrix matrix concatmatrix dup
      /cairo_font_matrix exch def dup 4 get exch 5 get cairo_store_point
      /cairo_font where { pop cairo_selectfont } if } bind def
/Tm { 2 copy 8 2 roll 6 array astore /cairo_font_matrix exch def
      cairo_store_point /cairo_font where { pop cairo_selectfont } if } bind def
/g { setgray } bind def
/rg { setrgbcolor } bind def
/d1 { setcachedevice } bind def
/cairo_set_page_size {
  % Change paper size, but only if different from previous paper size otherwise
  % duplex fails. PLRM specifies a tolerance of 5 pts when matching paper size
  % so we use the same when checking if the size changes.
  /setpagedevice where {
    pop currentpagedevice
    /PageSize known {
      2 copy
      currentpagedevice /PageSize get aload pop
      exch 4 1 roll
      sub abs 5 gt
      3 1 roll
      sub abs 5 gt
      or
    } {
      true
    } ifelse
    {
      2 array astore
      2 dict begin
        /PageSize exch def
        /ImagingBBox null def
      currentdict end
      setpagedevice
    } {
      pop pop
    } ifelse
  } {
    pop
  } ifelse
} def
%%EndProlog
%%BeginSetup
%%EndSetup
%%Page: 1 1
%%BeginPageSetup
%%PageMedia: 319x175mm
%%PageBoundingBox: 0 0 905 495
905 495 cairo_set_page_size
%%EndPageSetup
q 0 0 905 495 rectclip q
Q q
0.984314 g
0 495 905.023 -494.977 re f*
0.788235 g
1.875 w
0 J
1 j
[] 0.0 d
4 M 0 495 905.023 -494.977 re S
0 g
2.5 w
1 J
8.578 141.445 m 23.223 176.801 -62.133 212.156 -112.133 212.156 c S
-91.422 141.445 m -106.066 106.09 -20.711 70.734 29.289 70.734 c S
79.289 70.734 m 93.934 106.09 8.578 141.445 -41.422 141.445 c S
Q q
0 72 102 -71.977 re W n
0 g
2.5 w
1 J
1 j
[] 0.0 d
4 M -20.711 70.734 m -35.355 35.379 50 0.023 100 0.023 c S
Q q
28 72 125 -71.977 re W n
0 g
2.5 w
1 J
1 j
[] 0.0 d
4 M 150 0.023 m 164.645 35.379 79.289 70.734 29.289 70.734 c S
Q q
0 g
2.5 w
1 J
1 j
[] 0.0 d
4 M -103.555 353.578 m -118.199 318.223 -32.844 282.867 17.156 282.867 c S
67.156 282.867 m 81.801 318.223 -3.555 353.578 -53.555 353.578 c S
-32.844 282.867 m -47.488 247.512 37.867 212.156 87.867 212.156 c S
137.867 212.156 m 152.512 247.512 67.156 282.867 17.156 282.867 c S
37.867 212.156 m 23.223 176.801 108.578 141.445 158.578 141.445 c S
208.578 141.445 m 223.223 176.801 137.867 212.156 87.867 212.156 c S
108.578 141.445 m 93.934 106.09 179.289 70.734 229.289 70.734 c S
279.289 70.734 m 293.934 106.09 208.578 141.445 158.578 141.445 c S
Q q
176 72 126 -71.977 re W n
0 g
2.5 w
1 J
1 j
[] 0.0 d
4 M 179.289 70.734 m 164.645 35.379 250 0.023 300 0.023 c S
Q q
228 72 125 -71.977 re W n
0 g
2.5 w
1 J
1 j
[] 0.0 d
4 M 350 0.023 m 364.645 35.379 279.289 70.734 229.289 70.734 c S
Q q
0 g
2.5 w
1 J
1 j
[] 0.0 d
4 M -44.977 495 m -59.621 459.645 25.734 424.289 75.734 424.289 c S
125.734 424.289 m 140.379 459.645 55.023 495 5.023 495 c S
25.734 424.289 m 11.09 388.934 96.445 353.578 146.445 353.578 c S
196.445 353.578 m 211.09 388.934 125.734 424.289 75.734 424.289 c S
96.445 353.578 m 81.801 318.223 167.156 282.867 217.156 282.867 c S
267.156 282.867 m 281.801 318.223 196.445 353.578 146.445 353.578 c S
167.156 282.867 m 152.512 247.512 237.867 212.156 287.867 212.156 c S
337.867 212.156 m 352.512 247.512 267.156 282.867 217.156 282.867 c S
237.867 212.156 m 223.223 176.801 308.578 141.445 358.578 141.445 c S
408.578 141.445 m 423.223 176.801 337.867 212.156 287.867 212.156 c S
308.578 141.445 m 293.934 106.09 379.289 70.734 429.289 70.734 c S
479.289 70.734 m 493.934 106.09 408.578 141.445 358.578 141.445 c S
Q q
376 72 126 -71.977 re W n
0 g
2.5 w
1 J
1 j
[] 0.0 d
4 M 379.289 70.734 m 364.645 35.379 450 0.023 500 0.023 c S
Q q
428 72 125 -71.977 re W n
0 g
2.5 w
1 J
1 j
[] 0.0 d
4 M 550 0.023 m 564.645 35.379 479.289 70.734 429.289 70.734 c S
Q q
0 g
2.5 w
1 J
1 j
[] 0.0 d
4 M 155.023 495 m 140.379 459.645 225.734 424.289 275.734 424.289 c S
325.734 424.289 m 340.379 459.645 255.023 495 205.023 495 c S
225.734 424.289 m 211.09 388.934 296.445 353.578 346.445 353.578 c S
396.445 353.578 m 411.09 388.934 325.734 424.289 275.734 424.289 c S
296.445 353.578 m 281.801 318.223 367.156 282.867 417.156 282.867 c S
467.156 282.867 m 481.801 318.223 396.445 353.578 346.445 353.578 c S
367.156 282.867 m 352.512 247.512 437.867 212.156 487.867 212.156 c S
537.867 212.156 m 552.512 247.512 467.156 282.867 417.156 282.867 c S
437.867 212.156 m 423.223 176.801 508.578 141.445 558.578 141.445 c S
608.578 141.445 m 623.223 176.801 537.867 212.156 487.867 212.156 c S
508.578 141.445 m 493.934 106.09 579.289 70.734 629.289 70.734 c S
679.289 70.734 m 693.934 106.09 608.578 141.445 558.578 141.445 c S
Q q
576 72 126 -71.977 re W n
0 g
2.5 w
1 J
1 j
[] 0.0 d
4 M 579.289 70.734 m 564.645 35.379 650 0.023 700 0.023 c S
Q q
628 72 125 -71.977 re W n
0 g
2.5 w
1 J
1 j
[] 0.0 d
4 M 750 0.023 m 764.645 35.379 679.289 70.734 629.289 70.734 c S
Q q
0 g
2.5 w
1 J
1 j
[] 0.0 d
4 M 355.023 495 m 340.379 459.645 425.734 424.289 475.734 424.289 c S
525.734 424.289 m 540.379 459.645 455.023 495 405.023 495 c S
425.734 424.289 m 411.09 388.934 496.445 353.578 546.445 353.578 c S
596.445 353.578 m 611.09 388.934 525.734 424.289 475.734 424.289 c S
496.445 353.578 m 481.801 318.223 567.156 282.867 617.156 282.867 c S
667.156 282.867 m 681.801 318.223 596.445 353.578 546.445 353.578 c S
567.156 282.867 m 552.512 247.512 637.867 212.156 687.867 212.156 c S
737.867 212.156 m 752.512 247.512 667.156 282.867 617.156 282.867 c S
637.867 212.156 m 623.223 176.801 708.578 141.445 758.578 141.445 c S
808.578 141.445 m 823.223 176.801 737.867 212.156 687.867 212.156 c S
708.578 141.445 m 693.934 106.09 779.289 70.734 829.289 70.734 c S
879.289 70.734 m 893.934 106.09 808.578 141.445 758.578 141.445 c S
Q q
776 72 126 -71.977 re W n
0 g
2.5 w
1 J
1 j
[] 0.0 d
4 M 779.289 70.734 m 764.645 35.379 850 0.023 900 0.023 c S
Q q
828 72 77 -71.977 re W n
0 g
2.5 w
1 J
1 j
[] 0.0 d
4 M 950 0.023 m 964.645 35.379 879.289 70.734 829.289 70.734 c S
Q q
0 g
2.5 w
1 J
1 j
[] 0.0 d
4 M 555.023 495 m 540.379 459.645 625.734 424.289 675.734 424.289 c S
725.734 424.289 m 740.379 459.645 655.023 495 605.023 495 c S
625.734 424.289 m 611.09 388.934 696.445 353.578 746.445 353.578 c S
796.445 353.578 m 811.09 388.934 725.734 424.289 675.734 424.289 c S
696.445 353.578 m 681.801 318.223 767.156 282.867 817.156 282.867 c S
867.156 282.867 m 881.801 318.223 796.445 353.578 746.445 353.578 c S
767.156 282.867 m 752.512 247.512 837.867 212.156 887.867 212.156 c S
937.867 212.156 m 952.512 247.512 867.156 282.867 817.156 282.867 c S
837.867 212.156 m 823.223 176.801 908.578 141.445 958.578 141.445 c S
1008.578 141.445 m 1023.223 176.801 937.867 212.156 887.867 212.156 c S
755.023 495 m 740.379 459.645 825.734 424.289 875.734 424.289 c S
925.734 424.289 m 940.379 459.645 855.023 495 805.023 495 c S
825.734 424.289 m 811.09 388.934 896.445 353.578 946.445 353.578 c S
996.445 353.578 m 1011.09 388.934 925.734 424.289 875.734 424.289 c S
896.445 353.578 m 881.801 318.223 967.156 282.867 1017.156 282.867 c S
Q Q
showpage
%%Trailer
%%Trailer
cleartomark
countdictstack
exch sub { end } repeat
restore
%%EOF
