%!PS-Adobe-2.0 EPSF-2.0
%%BoundingBox: 0 0 905 495
%%HiResBoundingBox: 0.000000 0.000000 905.000000 495.000000
%%Creator: cairo 1.14.2 (http://cairographics.org)
%%CreationDate: Mon Sep  7 08:21:42 2015
%%DocumentData: Clean7Bit
%%LanguageLevel: 2
%%DocumentMedia: 319x175mm 905 495 0 () ()
%%EndComments
% EPSF created by ps2eps 1.68
%%BeginProlog
save
countdictstack
mark
newpath
/showpage {} def
/setpagedevice {pop} def
%%EndProlog
%%Page 1 1
%%BeginProlog
/languagelevel where
{ pop languagelevel } { 1 } ifelse
2 lt { /Helvetica findfont 12 scalefont setfont 50 500 moveto
  (This print job requires a PostScript Language Level 2 printer.) show
  showpage quit } if
/q { gsave } bind def
/Q { grestore } bind def
/cm { 6 array astore concat } bind def
/w { setlinewidth } bind def
/J { setlinecap } bind def
/j { setlinejoin } bind def
/M { setmiterlimit } bind def
/d { setdash } bind def
/m { moveto } bind def
/l { lineto } bind def
/c { curveto } bind def
/h { closepath } bind def
/re { exch dup neg 3 1 roll 5 3 roll moveto 0 rlineto
      0 exch rlineto 0 rlineto closepath } bind def
/S { stroke } bind def
/f { fill } bind def
/f* { eofill } bind def
/n { newpath } bind def
/W { clip } bind def
/W* { eoclip } bind def
/BT { } bind def
/ET { } bind def
/pdfmark where { pop globaldict /?pdfmark /exec load put }
    { globaldict begin /?pdfmark /pop load def /pdfmark
    /cleartomark load def end } ifelse
/BDC { mark 3 1 roll /BDC pdfmark } bind def
/EMC { mark /EMC pdfmark } bind def
/cairo_store_point { /cairo_point_y exch def /cairo_point_x exch def } def
/Tj { show currentpoint cairo_store_point } bind def
/TJ {
  {
    dup
    type /stringtype eq
    { show } { -0.001 mul 0 cairo_font_matrix dtransform rmoveto } ifelse
  } forall
  currentpoint cairo_store_point
} bind def
/cairo_selectfont { cairo_font_matrix aload pop pop pop 0 0 6 array astore
    cairo_font exch selectfont cairo_point_x cairo_point_y moveto } bind def
/Tf { pop /cairo_font exch def /cairo_font_matrix where
      { pop cairo_selectfont } if } bind def
/Td { matrix translate cairo_font_matrix matrix concatmatrix dup
      /cairo_font_matrix exch def dup 4 get exch 5 get cairo_store_point
      /cairo_font where { pop cairo_selectfont } if } bind def
/Tm { 2 copy 8 2 roll 6 array astore /cairo_font_matrix exch def
      cairo_store_point /cairo_font where { pop cairo_selectfont } if } bind def
/g { setgray } bind def
/rg { setrgbcolor } bind def
/d1 { setcachedevice } bind def
/cairo_set_page_size {
  % Change paper size, but only if different from previous paper size otherwise
  % duplex fails. PLRM specifies a tolerance of 5 pts when matching paper size
  % so we use the same when checking if the size changes.
  /setpagedevice where {
    pop currentpagedevice
    /PageSize known {
      2 copy
      currentpagedevice /PageSize get aload pop
      exch 4 1 roll
      sub abs 5 gt
      3 1 roll
      sub abs 5 gt
      or
    } {
      true
    } ifelse
    {
      2 array astore
      2 dict begin
        /PageSize exch def
        /ImagingBBox null def
      currentdict end
      setpagedevice
    } {
      pop pop
    } ifelse
  } {
    pop
  } ifelse
} def
%%EndProlog
%%BeginSetup
%%EndSetup
%%Page: 1 1
%%BeginPageSetup
%%PageMedia: 319x175mm
%%PageBoundingBox: 0 0 905 495
905 495 cairo_set_page_size
%%EndPageSetup
q 0 0 905 495 rectclip q
Q q
0.984314 g
0 495 905.023 -494.977 re f*
0.788235 g
1.875 w
0 J
1 j
[] 0.0 d
4 M 0 495 905.023 -494.977 re S
0 g
2.5 w
1 J
8.578 141.445 m -5.227 188.586 -33.68 200.371 -76.777 176.801 c S
79.289 70.734 m 65.48 117.875 37.031 129.66 -6.066 106.09 c S
-20.711 70.734 m -6.902 23.594 21.547 11.809 64.645 35.379 c S
Q q
63 49 89 -48.977 re W n
0 g
2.5 w
1 J
1 j
[] 0.0 d
4 M 150 0.023 m 136.191 47.164 107.742 58.949 64.645 35.379 c S
Q q
0 g
2.5 w
1 J
1 j
[] 0.0 d
4 M 67.156 282.867 m 53.352 330.008 24.898 341.793 -18.199 318.223 c S
-32.844 282.867 m -19.035 235.727 9.418 223.941 52.512 247.512 c S
137.867 212.156 m 124.062 259.297 95.609 271.082 52.512 247.512 c S
37.867 212.156 m 51.676 165.016 80.125 153.23 123.223 176.801 c S
208.578 141.445 m 194.773 188.586 166.32 200.371 123.223 176.801 c S
108.578 141.445 m 122.387 94.305 150.836 82.52 193.934 106.09 c S
279.289 70.734 m 265.48 117.875 237.031 129.66 193.934 106.09 c S
179.289 70.734 m 193.098 23.594 221.547 11.809 264.645 35.379 c S
Q q
263 49 89 -48.977 re W n
0 g
2.5 w
1 J
1 j
[] 0.0 d
4 M 350 0.023 m 336.191 47.164 307.742 58.949 264.645 35.379 c S
Q q
0 g
2.5 w
1 J
1 j
[] 0.0 d
4 M -44.977 495 m -31.168 447.859 -2.715 436.074 40.379 459.645 c S
125.734 424.289 m 111.93 471.43 83.477 483.215 40.379 459.645 c S
25.734 424.289 m 39.543 377.148 67.996 365.363 111.09 388.934 c S
196.445 353.578 m 182.641 400.719 154.188 412.504 111.09 388.934 c S
96.445 353.578 m 110.254 306.438 138.707 294.652 181.801 318.223 c S
267.156 282.867 m 253.352 330.008 224.898 341.793 181.801 318.223 c S
167.156 282.867 m 180.965 235.727 209.418 223.941 252.512 247.512 c S
337.867 212.156 m 324.062 259.297 295.609 271.082 252.512 247.512 c S
237.867 212.156 m 251.676 165.016 280.125 153.23 323.223 176.801 c S
408.578 141.445 m 394.773 188.586 366.32 200.371 323.223 176.801 c S
308.578 141.445 m 322.387 94.305 350.836 82.52 393.934 106.09 c S
479.289 70.734 m 465.48 117.875 437.031 129.66 393.934 106.09 c S
379.289 70.734 m 393.098 23.594 421.547 11.809 464.645 35.379 c S
Q q
463 49 89 -48.977 re W n
0 g
2.5 w
1 J
1 j
[] 0.0 d
4 M 550 0.023 m 536.191 47.164 507.742 58.949 464.645 35.379 c S
Q q
0 g
2.5 w
1 J
1 j
[] 0.0 d
4 M 155.023 495 m 168.832 447.859 197.285 436.074 240.379 459.645 c S
325.734 424.289 m 311.93 471.43 283.477 483.215 240.379 459.645 c S
225.734 424.289 m 239.543 377.148 267.996 365.363 311.09 388.934 c S
396.445 353.578 m 382.641 400.719 354.188 412.504 311.09 388.934 c S
296.445 353.578 m 310.254 306.438 338.707 294.652 381.801 318.223 c S
467.156 282.867 m 453.352 330.008 424.898 341.793 381.801 318.223 c S
367.156 282.867 m 380.965 235.727 409.418 223.941 452.512 247.512 c S
537.867 212.156 m 524.062 259.297 495.609 271.082 452.512 247.512 c S
437.867 212.156 m 451.676 165.016 480.125 153.23 523.223 176.801 c S
608.578 141.445 m 594.773 188.586 566.32 200.371 523.223 176.801 c S
508.578 141.445 m 522.387 94.305 550.836 82.52 593.934 106.09 c S
679.289 70.734 m 665.48 117.875 637.031 129.66 593.934 106.09 c S
579.289 70.734 m 593.098 23.594 621.547 11.809 664.645 35.379 c S
Q q
663 49 89 -48.977 re W n
0 g
2.5 w
1 J
1 j
[] 0.0 d
4 M 750 0.023 m 736.191 47.164 707.742 58.949 664.645 35.379 c S
Q q
0 g
2.5 w
1 J
1 j
[] 0.0 d
4 M 355.023 495 m 368.832 447.859 397.285 436.074 440.379 459.645 c S
525.734 424.289 m 511.93 471.43 483.477 483.215 440.379 459.645 c S
425.734 424.289 m 439.543 377.148 467.996 365.363 511.09 388.934 c S
596.445 353.578 m 582.641 400.719 554.188 412.504 511.09 388.934 c S
496.445 353.578 m 510.254 306.438 538.707 294.652 581.801 318.223 c S
667.156 282.867 m 653.352 330.008 624.898 341.793 581.801 318.223 c S
567.156 282.867 m 580.965 235.727 609.418 223.941 652.512 247.512 c S
737.867 212.156 m 724.062 259.297 695.609 271.082 652.512 247.512 c S
637.867 212.156 m 651.676 165.016 680.125 153.23 723.223 176.801 c S
808.578 141.445 m 794.773 188.586 766.32 200.371 723.223 176.801 c S
708.578 141.445 m 722.387 94.305 750.836 82.52 793.934 106.09 c S
879.289 70.734 m 865.48 117.875 837.031 129.66 793.934 106.09 c S
779.289 70.734 m 793.098 23.594 821.547 11.809 864.645 35.379 c S
Q q
863 49 42 -48.977 re W n
0 g
2.5 w
1 J
1 j
[] 0.0 d
4 M 950 0.023 m 936.191 47.164 907.742 58.949 864.645 35.379 c S
Q q
0 g
2.5 w
1 J
1 j
[] 0.0 d
4 M 555.023 495 m 568.832 447.859 597.285 436.074 640.379 459.645 c S
725.734 424.289 m 711.93 471.43 683.477 483.215 640.379 459.645 c S
625.734 424.289 m 639.543 377.148 667.996 365.363 711.09 388.934 c S
796.445 353.578 m 782.641 400.719 754.188 412.504 711.09 388.934 c S
696.445 353.578 m 710.254 306.438 738.707 294.652 781.801 318.223 c S
867.156 282.867 m 853.352 330.008 824.898 341.793 781.801 318.223 c S
767.156 282.867 m 780.965 235.727 809.418 223.941 852.512 247.512 c S
937.867 212.156 m 924.062 259.297 895.609 271.082 852.512 247.512 c S
837.867 212.156 m 851.676 165.016 880.125 153.23 923.223 176.801 c S
755.023 495 m 768.832 447.859 797.285 436.074 840.379 459.645 c S
925.734 424.289 m 911.93 471.43 883.477 483.215 840.379 459.645 c S
825.734 424.289 m 839.543 377.148 867.996 365.363 911.09 388.934 c S
896.445 353.578 m 910.254 306.438 938.707 294.652 981.801 318.223 c S
Q Q
showpage
%%Trailer
%%Trailer
cleartomark
countdictstack
exch sub { end } repeat
restore
%%EOF
