%!PS-Adobe-2.0 EPSF-2.0
%%BoundingBox: 0 0 905 495
%%HiResBoundingBox: 0.000000 0.000000 905.000000 495.000000
%%Creator: cairo 1.14.2 (http://cairographics.org)
%%CreationDate: Mon Sep  7 08:21:43 2015
%%DocumentData: Clean7Bit
%%LanguageLevel: 2
%%DocumentMedia: 319x175mm 905 495 0 () ()
%%EndComments
% EPSF created by ps2eps 1.68
%%BeginProlog
save
countdictstack
mark
newpath
/showpage {} def
/setpagedevice {pop} def
%%EndProlog
%%Page 1 1
%%BeginProlog
/languagelevel where
{ pop languagelevel } { 1 } ifelse
2 lt { /Helvetica findfont 12 scalefont setfont 50 500 moveto
  (This print job requires a PostScript Language Level 2 printer.) show
  showpage quit } if
/q { gsave } bind def
/Q { grestore } bind def
/cm { 6 array astore concat } bind def
/w { setlinewidth } bind def
/J { setlinecap } bind def
/j { setlinejoin } bind def
/M { setmiterlimit } bind def
/d { setdash } bind def
/m { moveto } bind def
/l { lineto } bind def
/c { curveto } bind def
/h { closepath } bind def
/re { exch dup neg 3 1 roll 5 3 roll moveto 0 rlineto
      0 exch rlineto 0 rlineto closepath } bind def
/S { stroke } bind def
/f { fill } bind def
/f* { eofill } bind def
/n { newpath } bind def
/W { clip } bind def
/W* { eoclip } bind def
/BT { } bind def
/ET { } bind def
/pdfmark where { pop globaldict /?pdfmark /exec load put }
    { globaldict begin /?pdfmark /pop load def /pdfmark
    /cleartomark load def end } ifelse
/BDC { mark 3 1 roll /BDC pdfmark } bind def
/EMC { mark /EMC pdfmark } bind def
/cairo_store_point { /cairo_point_y exch def /cairo_point_x exch def } def
/Tj { show currentpoint cairo_store_point } bind def
/TJ {
  {
    dup
    type /stringtype eq
    { show } { -0.001 mul 0 cairo_font_matrix dtransform rmoveto } ifelse
  } forall
  currentpoint cairo_store_point
} bind def
/cairo_selectfont { cairo_font_matrix aload pop pop pop 0 0 6 array astore
    cairo_font exch selectfont cairo_point_x cairo_point_y moveto } bind def
/Tf { pop /cairo_font exch def /cairo_font_matrix where
      { pop cairo_selectfont } if } bind def
/Td { matrix translate cairo_font_matrix matrix concatmatrix dup
      /cairo_font_matrix exch def dup 4 get exch 5 get cairo_store_point
      /cairo_font where { pop cairo_selectfont } if } bind def
/Tm { 2 copy 8 2 roll 6 array astore /cairo_font_matrix exch def
      cairo_store_point /cairo_font where { pop cairo_selectfont } if } bind def
/g { setgray } bind def
/rg { setrgbcolor } bind def
/d1 { setcachedevice } bind def
/cairo_set_page_size {
  % Change paper size, but only if different from previous paper size otherwise
  % duplex fails. PLRM specifies a tolerance of 5 pts when matching paper size
  % so we use the same when checking if the size changes.
  /setpagedevice where {
    pop currentpagedevice
    /PageSize known {
      2 copy
      currentpagedevice /PageSize get aload pop
      exch 4 1 roll
      sub abs 5 gt
      3 1 roll
      sub abs 5 gt
      or
    } {
      true
    } ifelse
    {
      2 array astore
      2 dict begin
        /PageSize exch def
        /ImagingBBox null def
      currentdict end
      setpagedevice
    } {
      pop pop
    } ifelse
  } {
    pop
  } ifelse
} def
%%EndProlog
%%BeginSetup
%%EndSetup
%%Page: 1 1
%%BeginPageSetup
%%PageMedia: 319x175mm
%%PageBoundingBox: 0 0 905 495
905 495 cairo_set_page_size
%%EndPageSetup
q 0 0 905 495 rectclip q
Q q
0.984314 g
0 495 905.023 -494.977 re f*
0.788235 g
1.875 w
0 J
1 j
[] 0.0 d
4 M 0 495 905.023 -494.977 re S
0 g
2.5 w
1 J
-21.895 188.586 m 11.438 188.586 -64.992 165.016 58.578 141.445 c S
48.816 117.875 m 82.148 117.875 5.719 94.305 129.289 70.734 c S
9.762 23.594 m -23.57 23.594 52.859 47.164 -70.711 70.734 c S
Q q
118 49 84 -48.977 re W n
0 g
2.5 w
1 J
1 j
[] 0.0 d
4 M 119.527 47.164 m 152.859 47.164 76.43 23.594 200 0.023 c S
Q q
0 g
2.5 w
1 J
1 j
[] 0.0 d
4 M -34.027 400.719 m -0.695 400.719 -77.125 377.148 46.445 353.578 c S
36.684 330.008 m 70.016 330.008 -6.414 306.438 117.156 282.867 c S
107.395 259.297 m 140.727 259.297 64.297 235.727 187.867 212.156 c S
68.34 165.016 m 35.008 165.016 111.438 188.586 -12.133 212.156 c S
178.105 188.586 m 211.438 188.586 135.008 165.016 258.578 141.445 c S
139.051 94.305 m 105.719 94.305 182.148 117.875 58.578 141.445 c S
248.816 117.875 m 282.148 117.875 205.719 94.305 329.289 70.734 c S
209.762 23.594 m 176.43 23.594 252.859 47.164 129.289 70.734 c S
Q q
318 49 84 -48.977 re W n
0 g
2.5 w
1 J
1 j
[] 0.0 d
4 M 319.527 47.164 m 352.859 47.164 276.43 23.594 400 0.023 c S
Q q
0 g
2.5 w
1 J
1 j
[] 0.0 d
4 M 95.262 471.43 m 128.594 471.43 52.164 447.859 175.734 424.289 c S
56.211 377.148 m 22.875 377.148 99.305 400.719 -24.266 424.289 c S
165.973 400.719 m 199.305 400.719 122.875 377.148 246.445 353.578 c S
126.922 306.438 m 93.586 306.438 170.016 330.008 46.445 353.578 c S
236.684 330.008 m 270.016 330.008 193.586 306.438 317.156 282.867 c S
197.633 235.727 m 164.297 235.727 240.727 259.297 117.156 282.867 c S
307.395 259.297 m 340.727 259.297 264.297 235.727 387.867 212.156 c S
268.34 165.016 m 235.008 165.016 311.438 188.586 187.867 212.156 c S
378.105 188.586 m 411.438 188.586 335.008 165.016 458.578 141.445 c S
339.051 94.305 m 305.719 94.305 382.148 117.875 258.578 141.445 c S
448.816 117.875 m 482.148 117.875 405.719 94.305 529.289 70.734 c S
409.762 23.594 m 376.43 23.594 452.859 47.164 329.289 70.734 c S
Q q
518 49 84 -48.977 re W n
0 g
2.5 w
1 J
1 j
[] 0.0 d
4 M 519.527 47.164 m 552.859 47.164 476.43 23.594 600 0.023 c S
Q q
0 g
2.5 w
1 J
1 j
[] 0.0 d
4 M 185.5 447.859 m 152.164 447.859 228.594 471.43 105.023 495 c S
295.262 471.43 m 328.594 471.43 252.164 447.859 375.734 424.289 c S
256.211 377.148 m 222.875 377.148 299.305 400.719 175.734 424.289 c S
365.973 400.719 m 399.305 400.719 322.875 377.148 446.445 353.578 c S
326.922 306.438 m 293.586 306.438 370.016 330.008 246.445 353.578 c S
436.684 330.008 m 470.016 330.008 393.586 306.438 517.156 282.867 c S
397.633 235.727 m 364.297 235.727 440.727 259.297 317.156 282.867 c S
507.395 259.297 m 540.727 259.297 464.297 235.727 587.867 212.156 c S
468.34 165.016 m 435.008 165.016 511.438 188.586 387.867 212.156 c S
578.105 188.586 m 611.438 188.586 535.008 165.016 658.578 141.445 c S
539.051 94.305 m 505.719 94.305 582.148 117.875 458.578 141.445 c S
648.816 117.875 m 682.148 117.875 605.719 94.305 729.289 70.734 c S
609.762 23.594 m 576.43 23.594 652.859 47.164 529.289 70.734 c S
Q q
718 49 84 -48.977 re W n
0 g
2.5 w
1 J
1 j
[] 0.0 d
4 M 719.527 47.164 m 752.859 47.164 676.43 23.594 800 0.023 c S
Q q
0 g
2.5 w
1 J
1 j
[] 0.0 d
4 M 385.5 447.859 m 352.164 447.859 428.594 471.43 305.023 495 c S
495.262 471.43 m 528.594 471.43 452.164 447.859 575.734 424.289 c S
456.211 377.148 m 422.875 377.148 499.305 400.719 375.734 424.289 c S
565.973 400.719 m 599.305 400.719 522.875 377.148 646.445 353.578 c S
526.922 306.438 m 493.586 306.438 570.016 330.008 446.445 353.578 c S
636.684 330.008 m 670.016 330.008 593.586 306.438 717.156 282.867 c S
597.633 235.727 m 564.297 235.727 640.727 259.297 517.156 282.867 c S
707.395 259.297 m 740.727 259.297 664.297 235.727 787.867 212.156 c S
668.34 165.016 m 635.008 165.016 711.438 188.586 587.867 212.156 c S
778.105 188.586 m 811.438 188.586 735.008 165.016 858.578 141.445 c S
739.051 94.305 m 705.719 94.305 782.148 117.875 658.578 141.445 c S
848.816 117.875 m 882.148 117.875 805.719 94.305 929.289 70.734 c S
809.762 23.594 m 776.43 23.594 852.859 47.164 729.289 70.734 c S
585.5 447.859 m 552.164 447.859 628.594 471.43 505.023 495 c S
695.262 471.43 m 728.594 471.43 652.164 447.859 775.734 424.289 c S
656.211 377.148 m 622.875 377.148 699.305 400.719 575.734 424.289 c S
765.973 400.719 m 799.305 400.719 722.875 377.148 846.445 353.578 c S
726.922 306.438 m 693.586 306.438 770.016 330.008 646.445 353.578 c S
836.684 330.008 m 870.016 330.008 793.586 306.438 917.156 282.867 c S
797.633 235.727 m 764.297 235.727 840.727 259.297 717.156 282.867 c S
868.34 165.016 m 835.008 165.016 911.438 188.586 787.867 212.156 c S
939.051 94.305 m 905.719 94.305 982.148 117.875 858.578 141.445 c S
785.5 447.859 m 752.164 447.859 828.594 471.43 705.023 495 c S
895.262 471.43 m 928.594 471.43 852.164 447.859 975.734 424.289 c S
856.211 377.148 m 822.875 377.148 899.305 400.719 775.734 424.289 c S
926.922 306.438 m 893.586 306.438 970.016 330.008 846.445 353.578 c S
Q Q
showpage
%%Trailer
%%Trailer
cleartomark
countdictstack
exch sub { end } repeat
restore
%%EOF
