%!PS-Adobe-2.0 EPSF-2.0
%%BoundingBox: 0 0 905 495
%%HiResBoundingBox: 0.000000 0.000000 905.000000 495.000000
%%Creator: cairo 1.14.2 (http://cairographics.org)
%%CreationDate: Mon Sep  7 08:21:43 2015
%%DocumentData: Clean7Bit
%%LanguageLevel: 2
%%DocumentMedia: 319x175mm 905 495 0 () ()
%%EndComments
% EPSF created by ps2eps 1.68
%%BeginProlog
save
countdictstack
mark
newpath
/showpage {} def
/setpagedevice {pop} def
%%EndProlog
%%Page 1 1
%%BeginProlog
/languagelevel where
{ pop languagelevel } { 1 } ifelse
2 lt { /Helvetica findfont 12 scalefont setfont 50 500 moveto
  (This print job requires a PostScript Language Level 2 printer.) show
  showpage quit } if
/q { gsave } bind def
/Q { grestore } bind def
/cm { 6 array astore concat } bind def
/w { setlinewidth } bind def
/J { setlinecap } bind def
/j { setlinejoin } bind def
/M { setmiterlimit } bind def
/d { setdash } bind def
/m { moveto } bind def
/l { lineto } bind def
/c { curveto } bind def
/h { closepath } bind def
/re { exch dup neg 3 1 roll 5 3 roll moveto 0 rlineto
      0 exch rlineto 0 rlineto closepath } bind def
/S { stroke } bind def
/f { fill } bind def
/f* { eofill } bind def
/n { newpath } bind def
/W { clip } bind def
/W* { eoclip } bind def
/BT { } bind def
/ET { } bind def
/pdfmark where { pop globaldict /?pdfmark /exec load put }
    { globaldict begin /?pdfmark /pop load def /pdfmark
    /cleartomark load def end } ifelse
/BDC { mark 3 1 roll /BDC pdfmark } bind def
/EMC { mark /EMC pdfmark } bind def
/cairo_store_point { /cairo_point_y exch def /cairo_point_x exch def } def
/Tj { show currentpoint cairo_store_point } bind def
/TJ {
  {
    dup
    type /stringtype eq
    { show } { -0.001 mul 0 cairo_font_matrix dtransform rmoveto } ifelse
  } forall
  currentpoint cairo_store_point
} bind def
/cairo_selectfont { cairo_font_matrix aload pop pop pop 0 0 6 array astore
    cairo_font exch selectfont cairo_point_x cairo_point_y moveto } bind def
/Tf { pop /cairo_font exch def /cairo_font_matrix where
      { pop cairo_selectfont } if } bind def
/Td { matrix translate cairo_font_matrix matrix concatmatrix dup
      /cairo_font_matrix exch def dup 4 get exch 5 get cairo_store_point
      /cairo_font where { pop cairo_selectfont } if } bind def
/Tm { 2 copy 8 2 roll 6 array astore /cairo_font_matrix exch def
      cairo_store_point /cairo_font where { pop cairo_selectfont } if } bind def
/g { setgray } bind def
/rg { setrgbcolor } bind def
/d1 { setcachedevice } bind def
/cairo_set_page_size {
  % Change paper size, but only if different from previous paper size otherwise
  % duplex fails. PLRM specifies a tolerance of 5 pts when matching paper size
  % so we use the same when checking if the size changes.
  /setpagedevice where {
    pop currentpagedevice
    /PageSize known {
      2 copy
      currentpagedevice /PageSize get aload pop
      exch 4 1 roll
      sub abs 5 gt
      3 1 roll
      sub abs 5 gt
      or
    } {
      true
    } ifelse
    {
      2 array astore
      2 dict begin
        /PageSize exch def
        /ImagingBBox null def
      currentdict end
      setpagedevice
    } {
      pop pop
    } ifelse
  } {
    pop
  } ifelse
} def
%%EndProlog
%%BeginSetup
%%EndSetup
%%Page: 1 1
%%BeginPageSetup
%%PageMedia: 319x175mm
%%PageBoundingBox: 0 0 905 495
905 495 cairo_set_page_size
%%EndPageSetup
q 0 0 905 495 rectclip q
Q q
0.984314 g
0 495 905.023 -494.977 re f*
0.788235 g
1.875 w
0 J
1 j
[] 0.0 d
4 M 0 495 905.023 -494.977 re S
0 g
2.5 w
1 J
-17.852 117.875 m -24.359 102.164 -8.645 86.449 29.289 70.734 c S
5.719 94.305 m 12.227 110.02 -3.484 125.734 -41.422 141.445 c S
Q q
50 49 52 -48.977 re W n
0 g
2.5 w
1 J
1 j
[] 0.0 d
4 M 52.859 47.164 m 46.352 31.453 62.062 15.738 100 0.023 c S
Q q
0 g
2.5 w
1 J
1 j
[] 0.0 d
4 M 76.43 23.594 m 82.938 39.309 67.227 55.023 29.289 70.734 c S
-29.984 330.008 m -36.492 314.297 -20.777 298.582 17.156 282.867 c S
40.727 259.297 m 34.219 243.586 49.934 227.871 87.867 212.156 c S
64.297 235.727 m 70.805 251.441 55.094 267.156 17.156 282.867 c S
111.438 188.586 m 104.93 172.875 120.645 157.16 158.578 141.445 c S
135.008 165.016 m 141.516 180.73 125.805 196.445 87.867 212.156 c S
182.148 117.875 m 175.641 102.164 191.355 86.449 229.289 70.734 c S
205.719 94.305 m 212.227 110.02 196.516 125.734 158.578 141.445 c S
Q q
250 49 52 -48.977 re W n
0 g
2.5 w
1 J
1 j
[] 0.0 d
4 M 252.859 47.164 m 246.352 31.453 262.062 15.738 300 0.023 c S
Q q
0 g
2.5 w
1 J
1 j
[] 0.0 d
4 M 276.43 23.594 m 282.938 39.309 267.227 55.023 229.289 70.734 c S
28.594 471.43 m 22.086 455.715 37.801 440.004 75.734 424.289 c S
52.164 447.859 m 58.676 463.574 42.961 479.285 5.023 495 c S
99.305 400.719 m 92.797 385.004 108.512 369.293 146.445 353.578 c S
122.875 377.148 m 129.387 392.863 113.672 408.574 75.734 424.289 c S
170.016 330.008 m 163.508 314.297 179.223 298.582 217.156 282.867 c S
193.586 306.438 m 200.098 322.152 184.383 337.863 146.445 353.578 c S
240.727 259.297 m 234.219 243.586 249.934 227.871 287.867 212.156 c S
264.297 235.727 m 270.805 251.441 255.094 267.156 217.156 282.867 c S
311.438 188.586 m 304.93 172.875 320.645 157.16 358.578 141.445 c S
335.008 165.016 m 341.516 180.73 325.805 196.445 287.867 212.156 c S
382.148 117.875 m 375.641 102.164 391.355 86.449 429.289 70.734 c S
405.719 94.305 m 412.227 110.02 396.516 125.734 358.578 141.445 c S
Q q
450 49 52 -48.977 re W n
0 g
2.5 w
1 J
1 j
[] 0.0 d
4 M 452.859 47.164 m 446.352 31.453 462.062 15.738 500 0.023 c S
Q q
0 g
2.5 w
1 J
1 j
[] 0.0 d
4 M 476.43 23.594 m 482.938 39.309 467.227 55.023 429.289 70.734 c S
228.594 471.43 m 222.086 455.715 237.801 440.004 275.734 424.289 c S
252.164 447.859 m 258.676 463.574 242.961 479.285 205.023 495 c S
299.305 400.719 m 292.797 385.004 308.512 369.293 346.445 353.578 c S
322.875 377.148 m 329.387 392.863 313.672 408.574 275.734 424.289 c S
370.016 330.008 m 363.508 314.297 379.223 298.582 417.156 282.867 c S
393.586 306.438 m 400.098 322.152 384.383 337.863 346.445 353.578 c S
440.727 259.297 m 434.219 243.586 449.934 227.871 487.867 212.156 c S
464.297 235.727 m 470.805 251.441 455.094 267.156 417.156 282.867 c S
511.438 188.586 m 504.93 172.875 520.645 157.16 558.578 141.445 c S
535.008 165.016 m 541.516 180.73 525.805 196.445 487.867 212.156 c S
582.148 117.875 m 575.641 102.164 591.355 86.449 629.289 70.734 c S
605.719 94.305 m 612.227 110.02 596.516 125.734 558.578 141.445 c S
Q q
650 49 52 -48.977 re W n
0 g
2.5 w
1 J
1 j
[] 0.0 d
4 M 652.859 47.164 m 646.352 31.453 662.062 15.738 700 0.023 c S
Q q
0 g
2.5 w
1 J
1 j
[] 0.0 d
4 M 676.43 23.594 m 682.938 39.309 667.227 55.023 629.289 70.734 c S
428.594 471.43 m 422.086 455.715 437.801 440.004 475.734 424.289 c S
452.164 447.859 m 458.676 463.574 442.961 479.285 405.023 495 c S
499.305 400.719 m 492.797 385.004 508.512 369.293 546.445 353.578 c S
522.875 377.148 m 529.387 392.863 513.672 408.574 475.734 424.289 c S
570.016 330.008 m 563.508 314.297 579.223 298.582 617.156 282.867 c S
593.586 306.438 m 600.098 322.152 584.383 337.863 546.445 353.578 c S
640.727 259.297 m 634.219 243.586 649.934 227.871 687.867 212.156 c S
664.297 235.727 m 670.805 251.441 655.094 267.156 617.156 282.867 c S
711.438 188.586 m 704.93 172.875 720.645 157.16 758.578 141.445 c S
735.008 165.016 m 741.516 180.73 725.805 196.445 687.867 212.156 c S
782.148 117.875 m 775.641 102.164 791.355 86.449 829.289 70.734 c S
805.719 94.305 m 812.227 110.02 796.516 125.734 758.578 141.445 c S
Q q
850 49 52 -48.977 re W n
0 g
2.5 w
1 J
1 j
[] 0.0 d
4 M 852.859 47.164 m 846.352 31.453 862.062 15.738 900 0.023 c S
Q q
0 g
2.5 w
1 J
1 j
[] 0.0 d
4 M 876.43 23.594 m 882.938 39.309 867.227 55.023 829.289 70.734 c S
628.594 471.43 m 622.086 455.715 637.801 440.004 675.734 424.289 c S
652.164 447.859 m 658.676 463.574 642.961 479.285 605.023 495 c S
699.305 400.719 m 692.797 385.004 708.512 369.293 746.445 353.578 c S
722.875 377.148 m 729.387 392.863 713.672 408.574 675.734 424.289 c S
770.016 330.008 m 763.508 314.297 779.223 298.582 817.156 282.867 c S
793.586 306.438 m 800.098 322.152 784.383 337.863 746.445 353.578 c S
840.727 259.297 m 834.219 243.586 849.934 227.871 887.867 212.156 c S
864.297 235.727 m 870.805 251.441 855.094 267.156 817.156 282.867 c S
935.008 165.016 m 941.516 180.73 925.805 196.445 887.867 212.156 c S
828.594 471.43 m 822.086 455.715 837.801 440.004 875.734 424.289 c S
852.164 447.859 m 858.676 463.574 842.961 479.285 805.023 495 c S
899.305 400.719 m 892.797 385.004 908.512 369.293 946.445 353.578 c S
922.875 377.148 m 929.387 392.863 913.672 408.574 875.734 424.289 c S
Q Q
showpage
%%Trailer
%%Trailer
cleartomark
countdictstack
exch sub { end } repeat
restore
%%EOF
