<svg xmlns="http://www.w3.org/2000/svg" baseProfile="full" width="905.025" height="494.975" viewBox="409.6194077712559 -35.35533905932737 905.0252531694166 494.9747468305832">
    <title>
        Pattern design from http://ornamentist.org
    </title>
    <desc>
        This file is licensed under a Creative Commons CC BY 4.0 license: http://creativecommons.org/licenses/by/4.0/
    </desc>
    <defs>
        <style>
<![CDATA[

polyline {
  fill:            none;
  stroke:          black;
  stroke-linecap:  round;
  stroke-linejoin: round;
  stroke-width:    2.0pt;
}


polyline.closed {
  fill:      #d9d9d9;
  fill-rule: evenodd;
}


polygon {
  fill:            #d9d9d9;
  fill-rule:       evenodd;
  stroke:          black;
  stroke-linejoin: round;
  stroke-width:    2.0pt;
}


circle {
  fill:         #d9d9d9;
  stroke:       black;
  stroke-width: 2.0pt;
}


ellipse {
  fill:         #d9d9d9;
  stroke:       black;
  stroke-width: 2.0pt;
}


path {
  fill:            none;
  stroke:          black;
  stroke-linecap:  round;
  stroke-linejoin: round;
  stroke-width:    2.0pt;
}


path.closed {
  fill:      #d9d9d9;
  fill-rule: evenodd;
}


polygon.background,
path.background
{
  fill:   #fbfbfb;
  stroke: #c9c9c9;
  stroke-width: 1.5pt;
}

        ]]>
        </style>
    </defs>
    <clipPath id="design">
        <path d="M409.62-35.355h905.024V459.62H409.62z"/>
    </clipPath>
    <g clip-path="url(#design)" color-rendering="optimizeQuality" shape-rendering="geometricPrecision" id="graphics">
        <path class="background closed" d="M1314.645-35.355V459.62H409.62V-35.356z"/>
        <path d="M38.215-11.785c-9.763 23.57 47.14 47.14-52.86 47.14M61.785 11.785c9.763-23.57-47.14-47.14 52.86-47.14M108.926 58.926c-9.764 23.57 47.14 47.14-52.86 47.14M132.496 82.496c9.763-23.57-47.14-47.14 52.86-47.14M179.636 129.636c-9.763 23.57 47.14 47.14-52.86 47.14M203.206 153.206c9.764-23.57-47.14-47.14 52.86-47.14M250.347 200.347c-9.763 23.57 47.14 47.14-52.86 47.14M273.917 223.917c9.763-23.57-47.14-47.14 52.86-47.14M321.058 271.058c-9.764 23.57 47.14 47.14-52.86 47.14M344.628 294.628c9.763-23.57-47.14-47.14 52.86-47.14M391.768 341.768c-9.763 23.57 47.14 47.14-52.86 47.14M415.34 365.34c9.762-23.572-47.142-47.142 52.858-47.142M462.48 412.48c-9.764 23.57 47.14 47.14-52.86 47.14M486.05 436.05c9.762-23.57-47.14-47.14 52.86-47.14M238.215-11.785c-9.763 23.57 47.14 47.14-52.86 47.14M261.785 11.785c9.763-23.57-47.14-47.14 52.86-47.14M308.926 58.926c-9.764 23.57 47.14 47.14-52.86 47.14M332.496 82.496c9.763-23.57-47.14-47.14 52.86-47.14M379.636 129.636c-9.763 23.57 47.14 47.14-52.86 47.14M403.206 153.206c9.764-23.57-47.14-47.14 52.86-47.14M450.347 200.347c-9.763 23.57 47.14 47.14-52.86 47.14M473.917 223.917c9.763-23.57-47.14-47.14 52.86-47.14M521.058 271.058c-9.764 23.57 47.14 47.14-52.86 47.14M544.628 294.628c9.763-23.57-47.14-47.14 52.86-47.14M591.768 341.768c-9.763 23.57 47.14 47.14-52.86 47.14M615.34 365.34c9.762-23.572-47.142-47.142 52.858-47.142M662.48 412.48c-9.764 23.57 47.14 47.14-52.86 47.14M686.05 436.05c9.762-23.57-47.14-47.14 52.86-47.14M438.215-11.785c-9.763 23.57 47.14 47.14-52.86 47.14M461.785 11.785c9.763-23.57-47.14-47.14 52.86-47.14M508.926 58.926c-9.764 23.57 47.14 47.14-52.86 47.14M532.496 82.496c9.763-23.57-47.14-47.14 52.86-47.14M579.636 129.636c-9.763 23.57 47.14 47.14-52.86 47.14M603.206 153.206c9.764-23.57-47.14-47.14 52.86-47.14M650.347 200.347c-9.763 23.57 47.14 47.14-52.86 47.14M673.917 223.917c9.763-23.57-47.14-47.14 52.86-47.14M721.058 271.058c-9.764 23.57 47.14 47.14-52.86 47.14M744.628 294.628c9.763-23.57-47.14-47.14 52.86-47.14M791.768 341.768c-9.763 23.57 47.14 47.14-52.86 47.14M815.34 365.34c9.762-23.572-47.142-47.142 52.858-47.142M862.48 412.48c-9.764 23.57 47.14 47.14-52.86 47.14M886.05 436.05c9.762-23.57-47.14-47.14 52.86-47.14M638.215-11.785c-9.763 23.57 47.14 47.14-52.86 47.14M661.785 11.785c9.763-23.57-47.14-47.14 52.86-47.14M708.926 58.926c-9.764 23.57 47.14 47.14-52.86 47.14M732.496 82.496c9.763-23.57-47.14-47.14 52.86-47.14M779.636 129.636c-9.763 23.57 47.14 47.14-52.86 47.14M803.206 153.206c9.764-23.57-47.14-47.14 52.86-47.14M850.347 200.347c-9.763 23.57 47.14 47.14-52.86 47.14M873.917 223.917c9.763-23.57-47.14-47.14 52.86-47.14M921.058 271.058c-9.764 23.57 47.14 47.14-52.86 47.14M944.628 294.628c9.763-23.57-47.14-47.14 52.86-47.14M991.768 341.768c-9.763 23.57 47.14 47.14-52.86 47.14M1015.34 365.34c9.762-23.572-47.142-47.142 52.858-47.142M1062.48 412.48c-9.764 23.57 47.14 47.14-52.86 47.14M1086.05 436.05c9.762-23.57-47.14-47.14 52.86-47.14M838.215-11.785c-9.763 23.57 47.14 47.14-52.86 47.14M861.785 11.785c9.763-23.57-47.14-47.14 52.86-47.14M908.926 58.926c-9.764 23.57 47.14 47.14-52.86 47.14M932.496 82.496c9.763-23.57-47.14-47.14 52.86-47.14M979.636 129.636c-9.763 23.57 47.14 47.14-52.86 47.14M1003.206 153.206c9.764-23.57-47.14-47.14 52.86-47.14M1050.347 200.347c-9.763 23.57 47.14 47.14-52.86 47.14M1073.917 223.917c9.763-23.57-47.14-47.14 52.86-47.14M1121.058 271.058c-9.764 23.57 47.14 47.14-52.86 47.14M1144.628 294.628c9.763-23.57-47.14-47.14 52.86-47.14M1191.768 341.768c-9.763 23.57 47.14 47.14-52.86 47.14M1215.34 365.34c9.762-23.572-47.142-47.142 52.858-47.142M1262.48 412.48c-9.764 23.57 47.14 47.14-52.86 47.14M1286.05 436.05c9.762-23.57-47.14-47.14 52.86-47.14M1038.215-11.785c-9.763 23.57 47.14 47.14-52.86 47.14M1061.785 11.785c9.763-23.57-47.14-47.14 52.86-47.14M1108.926 58.926c-9.764 23.57 47.14 47.14-52.86 47.14M1132.496 82.496c9.763-23.57-47.14-47.14 52.86-47.14M1179.636 129.636c-9.763 23.57 47.14 47.14-52.86 47.14M1203.206 153.206c9.764-23.57-47.14-47.14 52.86-47.14M1250.347 200.347c-9.763 23.57 47.14 47.14-52.86 47.14M1273.917 223.917c9.763-23.57-47.14-47.14 52.86-47.14M1321.058 271.058c-9.764 23.57 47.14 47.14-52.86 47.14M1344.628 294.628c9.763-23.57-47.14-47.14 52.86-47.14M1391.768 341.768c-9.763 23.57 47.14 47.14-52.86 47.14M1415.34 365.34c9.762-23.572-47.142-47.142 52.858-47.142M1462.48 412.48c-9.764 23.57 47.14 47.14-52.86 47.14M1486.05 436.05c9.762-23.57-47.14-47.14 52.86-47.14M1238.215-11.785c-9.763 23.57 47.14 47.14-52.86 47.14M1261.785 11.785c9.763-23.57-47.14-47.14 52.86-47.14M1308.926 58.926c-9.764 23.57 47.14 47.14-52.86 47.14M1332.496 82.496c9.763-23.57-47.14-47.14 52.86-47.14M1379.636 129.636c-9.763 23.57 47.14 47.14-52.86 47.14M1403.206 153.206c9.764-23.57-47.14-47.14 52.86-47.14M1450.347 200.347c-9.763 23.57 47.14 47.14-52.86 47.14M1473.917 223.917c9.763-23.57-47.14-47.14 52.86-47.14M1521.058 271.058c-9.764 23.57 47.14 47.14-52.86 47.14M1544.628 294.628c9.763-23.57-47.14-47.14 52.86-47.14M1591.768 341.768c-9.763 23.57 47.14 47.14-52.86 47.14M1615.34 365.34c9.762-23.572-47.142-47.142 52.858-47.142M1662.48 412.48c-9.764 23.57 47.14 47.14-52.86 47.14M1686.05 436.05c9.762-23.57-47.14-47.14 52.86-47.14" class="bezier-3-1 open"/>
    </g>
</svg>
