%!PS-Adobe-2.0 EPSF-2.0
%%BoundingBox: 0 0 905 495
%%HiResBoundingBox: 0.000000 0.000000 905.000000 495.000000
%%Creator: cairo 1.14.2 (http://cairographics.org)
%%CreationDate: Mon Sep  7 08:21:43 2015
%%DocumentData: Clean7Bit
%%LanguageLevel: 2
%%DocumentMedia: 319x175mm 905 495 0 () ()
%%EndComments
% EPSF created by ps2eps 1.68
%%BeginProlog
save
countdictstack
mark
newpath
/showpage {} def
/setpagedevice {pop} def
%%EndProlog
%%Page 1 1
%%BeginProlog
/languagelevel where
{ pop languagelevel } { 1 } ifelse
2 lt { /Helvetica findfont 12 scalefont setfont 50 500 moveto
  (This print job requires a PostScript Language Level 2 printer.) show
  showpage quit } if
/q { gsave } bind def
/Q { grestore } bind def
/cm { 6 array astore concat } bind def
/w { setlinewidth } bind def
/J { setlinecap } bind def
/j { setlinejoin } bind def
/M { setmiterlimit } bind def
/d { setdash } bind def
/m { moveto } bind def
/l { lineto } bind def
/c { curveto } bind def
/h { closepath } bind def
/re { exch dup neg 3 1 roll 5 3 roll moveto 0 rlineto
      0 exch rlineto 0 rlineto closepath } bind def
/S { stroke } bind def
/f { fill } bind def
/f* { eofill } bind def
/n { newpath } bind def
/W { clip } bind def
/W* { eoclip } bind def
/BT { } bind def
/ET { } bind def
/pdfmark where { pop globaldict /?pdfmark /exec load put }
    { globaldict begin /?pdfmark /pop load def /pdfmark
    /cleartomark load def end } ifelse
/BDC { mark 3 1 roll /BDC pdfmark } bind def
/EMC { mark /EMC pdfmark } bind def
/cairo_store_point { /cairo_point_y exch def /cairo_point_x exch def } def
/Tj { show currentpoint cairo_store_point } bind def
/TJ {
  {
    dup
    type /stringtype eq
    { show } { -0.001 mul 0 cairo_font_matrix dtransform rmoveto } ifelse
  } forall
  currentpoint cairo_store_point
} bind def
/cairo_selectfont { cairo_font_matrix aload pop pop pop 0 0 6 array astore
    cairo_font exch selectfont cairo_point_x cairo_point_y moveto } bind def
/Tf { pop /cairo_font exch def /cairo_font_matrix where
      { pop cairo_selectfont } if } bind def
/Td { matrix translate cairo_font_matrix matrix concatmatrix dup
      /cairo_font_matrix exch def dup 4 get exch 5 get cairo_store_point
      /cairo_font where { pop cairo_selectfont } if } bind def
/Tm { 2 copy 8 2 roll 6 array astore /cairo_font_matrix exch def
      cairo_store_point /cairo_font where { pop cairo_selectfont } if } bind def
/g { setgray } bind def
/rg { setrgbcolor } bind def
/d1 { setcachedevice } bind def
/cairo_set_page_size {
  % Change paper size, but only if different from previous paper size otherwise
  % duplex fails. PLRM specifies a tolerance of 5 pts when matching paper size
  % so we use the same when checking if the size changes.
  /setpagedevice where {
    pop currentpagedevice
    /PageSize known {
      2 copy
      currentpagedevice /PageSize get aload pop
      exch 4 1 roll
      sub abs 5 gt
      3 1 roll
      sub abs 5 gt
      or
    } {
      true
    } ifelse
    {
      2 array astore
      2 dict begin
        /PageSize exch def
        /ImagingBBox null def
      currentdict end
      setpagedevice
    } {
      pop pop
    } ifelse
  } {
    pop
  } ifelse
} def
%%EndProlog
%%BeginSetup
%%EndSetup
%%Page: 1 1
%%BeginPageSetup
%%PageMedia: 319x175mm
%%PageBoundingBox: 0 0 905 495
905 495 cairo_set_page_size
%%EndPageSetup
q 0 0 905 495 rectclip q
Q q
0.984314 g
0 495 905.023 -494.977 re f*
0.788235 g
1.875 w
0 J
1 j
[] 0.0 d
4 M 0 495 905.023 -494.977 re S
0 g
2.5 w
1 J
5.719 94.305 m 15.48 117.875 -41.422 141.445 58.578 141.445 c S
Q q
0 49 62 -48.977 re W n
0 g
2.5 w
1 J
1 j
[] 0.0 d
4 M 52.859 47.164 m 43.098 23.594 100 0.023 0 0.023 c S
Q q
0 g
2.5 w
1 J
1 j
[] 0.0 d
4 M 76.43 23.594 m 86.191 47.164 29.289 70.734 129.289 70.734 c S
-6.414 306.438 m 3.352 330.008 -53.555 353.578 46.445 353.578 c S
40.727 259.297 m 30.965 235.727 87.867 212.156 -12.133 212.156 c S
64.297 235.727 m 74.062 259.297 17.156 282.867 117.156 282.867 c S
111.438 188.586 m 101.676 165.016 158.578 141.445 58.578 141.445 c S
135.008 165.016 m 144.773 188.586 87.867 212.156 187.867 212.156 c S
182.148 117.875 m 172.387 94.305 229.289 70.734 129.289 70.734 c S
205.719 94.305 m 215.48 117.875 158.578 141.445 258.578 141.445 c S
Q q
198 49 64 -48.977 re W n
0 g
2.5 w
1 J
1 j
[] 0.0 d
4 M 252.859 47.164 m 243.098 23.594 300 0.023 200 0.023 c S
Q q
0 g
2.5 w
1 J
1 j
[] 0.0 d
4 M 276.43 23.594 m 286.191 47.164 229.289 70.734 329.289 70.734 c S
28.594 471.43 m 18.832 447.859 75.734 424.289 -24.266 424.289 c S
52.164 447.859 m 61.93 471.43 5.023 495 105.023 495 c S
99.305 400.719 m 89.543 377.148 146.445 353.578 46.445 353.578 c S
122.875 377.148 m 132.641 400.719 75.734 424.289 175.734 424.289 c S
170.016 330.008 m 160.254 306.438 217.156 282.867 117.156 282.867 c S
193.586 306.438 m 203.352 330.008 146.445 353.578 246.445 353.578 c S
240.727 259.297 m 230.965 235.727 287.867 212.156 187.867 212.156 c S
264.297 235.727 m 274.062 259.297 217.156 282.867 317.156 282.867 c S
311.438 188.586 m 301.676 165.016 358.578 141.445 258.578 141.445 c S
335.008 165.016 m 344.773 188.586 287.867 212.156 387.867 212.156 c S
382.148 117.875 m 372.387 94.305 429.289 70.734 329.289 70.734 c S
405.719 94.305 m 415.48 117.875 358.578 141.445 458.578 141.445 c S
Q q
398 49 64 -48.977 re W n
0 g
2.5 w
1 J
1 j
[] 0.0 d
4 M 452.859 47.164 m 443.098 23.594 500 0.023 400 0.023 c S
Q q
0 g
2.5 w
1 J
1 j
[] 0.0 d
4 M 476.43 23.594 m 486.191 47.164 429.289 70.734 529.289 70.734 c S
228.594 471.43 m 218.832 447.859 275.734 424.289 175.734 424.289 c S
252.164 447.859 m 261.93 471.43 205.023 495 305.023 495 c S
299.305 400.719 m 289.543 377.148 346.445 353.578 246.445 353.578 c S
322.875 377.148 m 332.641 400.719 275.734 424.289 375.734 424.289 c S
370.016 330.008 m 360.254 306.438 417.156 282.867 317.156 282.867 c S
393.586 306.438 m 403.352 330.008 346.445 353.578 446.445 353.578 c S
440.727 259.297 m 430.965 235.727 487.867 212.156 387.867 212.156 c S
464.297 235.727 m 474.062 259.297 417.156 282.867 517.156 282.867 c S
511.438 188.586 m 501.676 165.016 558.578 141.445 458.578 141.445 c S
535.008 165.016 m 544.773 188.586 487.867 212.156 587.867 212.156 c S
582.148 117.875 m 572.387 94.305 629.289 70.734 529.289 70.734 c S
605.719 94.305 m 615.48 117.875 558.578 141.445 658.578 141.445 c S
Q q
598 49 64 -48.977 re W n
0 g
2.5 w
1 J
1 j
[] 0.0 d
4 M 652.859 47.164 m 643.098 23.594 700 0.023 600 0.023 c S
Q q
0 g
2.5 w
1 J
1 j
[] 0.0 d
4 M 676.43 23.594 m 686.191 47.164 629.289 70.734 729.289 70.734 c S
428.594 471.43 m 418.832 447.859 475.734 424.289 375.734 424.289 c S
452.164 447.859 m 461.93 471.43 405.023 495 505.023 495 c S
499.305 400.719 m 489.543 377.148 546.445 353.578 446.445 353.578 c S
522.875 377.148 m 532.641 400.719 475.734 424.289 575.734 424.289 c S
570.016 330.008 m 560.254 306.438 617.156 282.867 517.156 282.867 c S
593.586 306.438 m 603.352 330.008 546.445 353.578 646.445 353.578 c S
640.727 259.297 m 630.965 235.727 687.867 212.156 587.867 212.156 c S
664.297 235.727 m 674.062 259.297 617.156 282.867 717.156 282.867 c S
711.438 188.586 m 701.676 165.016 758.578 141.445 658.578 141.445 c S
735.008 165.016 m 744.773 188.586 687.867 212.156 787.867 212.156 c S
782.148 117.875 m 772.387 94.305 829.289 70.734 729.289 70.734 c S
805.719 94.305 m 815.48 117.875 758.578 141.445 858.578 141.445 c S
Q q
798 49 64 -48.977 re W n
0 g
2.5 w
1 J
1 j
[] 0.0 d
4 M 852.859 47.164 m 843.098 23.594 900 0.023 800 0.023 c S
Q q
0 g
2.5 w
1 J
1 j
[] 0.0 d
4 M 876.43 23.594 m 886.191 47.164 829.289 70.734 929.289 70.734 c S
628.594 471.43 m 618.832 447.859 675.734 424.289 575.734 424.289 c S
652.164 447.859 m 661.93 471.43 605.023 495 705.023 495 c S
699.305 400.719 m 689.543 377.148 746.445 353.578 646.445 353.578 c S
722.875 377.148 m 732.641 400.719 675.734 424.289 775.734 424.289 c S
770.016 330.008 m 760.254 306.438 817.156 282.867 717.156 282.867 c S
793.586 306.438 m 803.352 330.008 746.445 353.578 846.445 353.578 c S
840.727 259.297 m 830.965 235.727 887.867 212.156 787.867 212.156 c S
864.297 235.727 m 874.062 259.297 817.156 282.867 917.156 282.867 c S
911.438 188.586 m 901.676 165.016 958.578 141.445 858.578 141.445 c S
828.594 471.43 m 818.832 447.859 875.734 424.289 775.734 424.289 c S
852.164 447.859 m 861.93 471.43 805.023 495 905.023 495 c S
899.305 400.719 m 889.543 377.148 946.445 353.578 846.445 353.578 c S
Q Q
showpage
%%Trailer
%%Trailer
cleartomark
countdictstack
exch sub { end } repeat
restore
%%EOF
