%!PS-Adobe-2.0 EPSF-2.0
%%BoundingBox: 0 0 905 495
%%HiResBoundingBox: 0.000000 0.000000 905.000000 495.000000
%%Creator: cairo 1.14.2 (http://cairographics.org)
%%CreationDate: Mon Sep  7 08:21:43 2015
%%DocumentData: Clean7Bit
%%LanguageLevel: 2
%%DocumentMedia: 319x175mm 905 495 0 () ()
%%EndComments
% EPSF created by ps2eps 1.68
%%BeginProlog
save
countdictstack
mark
newpath
/showpage {} def
/setpagedevice {pop} def
%%EndProlog
%%Page 1 1
%%BeginProlog
/languagelevel where
{ pop languagelevel } { 1 } ifelse
2 lt { /Helvetica findfont 12 scalefont setfont 50 500 moveto
  (This print job requires a PostScript Language Level 2 printer.) show
  showpage quit } if
/q { gsave } bind def
/Q { grestore } bind def
/cm { 6 array astore concat } bind def
/w { setlinewidth } bind def
/J { setlinecap } bind def
/j { setlinejoin } bind def
/M { setmiterlimit } bind def
/d { setdash } bind def
/m { moveto } bind def
/l { lineto } bind def
/c { curveto } bind def
/h { closepath } bind def
/re { exch dup neg 3 1 roll 5 3 roll moveto 0 rlineto
      0 exch rlineto 0 rlineto closepath } bind def
/S { stroke } bind def
/f { fill } bind def
/f* { eofill } bind def
/n { newpath } bind def
/W { clip } bind def
/W* { eoclip } bind def
/BT { } bind def
/ET { } bind def
/pdfmark where { pop globaldict /?pdfmark /exec load put }
    { globaldict begin /?pdfmark /pop load def /pdfmark
    /cleartomark load def end } ifelse
/BDC { mark 3 1 roll /BDC pdfmark } bind def
/EMC { mark /EMC pdfmark } bind def
/cairo_store_point { /cairo_point_y exch def /cairo_point_x exch def } def
/Tj { show currentpoint cairo_store_point } bind def
/TJ {
  {
    dup
    type /stringtype eq
    { show } { -0.001 mul 0 cairo_font_matrix dtransform rmoveto } ifelse
  } forall
  currentpoint cairo_store_point
} bind def
/cairo_selectfont { cairo_font_matrix aload pop pop pop 0 0 6 array astore
    cairo_font exch selectfont cairo_point_x cairo_point_y moveto } bind def
/Tf { pop /cairo_font exch def /cairo_font_matrix where
      { pop cairo_selectfont } if } bind def
/Td { matrix translate cairo_font_matrix matrix concatmatrix dup
      /cairo_font_matrix exch def dup 4 get exch 5 get cairo_store_point
      /cairo_font where { pop cairo_selectfont } if } bind def
/Tm { 2 copy 8 2 roll 6 array astore /cairo_font_matrix exch def
      cairo_store_point /cairo_font where { pop cairo_selectfont } if } bind def
/g { setgray } bind def
/rg { setrgbcolor } bind def
/d1 { setcachedevice } bind def
/cairo_set_page_size {
  % Change paper size, but only if different from previous paper size otherwise
  % duplex fails. PLRM specifies a tolerance of 5 pts when matching paper size
  % so we use the same when checking if the size changes.
  /setpagedevice where {
    pop currentpagedevice
    /PageSize known {
      2 copy
      currentpagedevice /PageSize get aload pop
      exch 4 1 roll
      sub abs 5 gt
      3 1 roll
      sub abs 5 gt
      or
    } {
      true
    } ifelse
    {
      2 array astore
      2 dict begin
        /PageSize exch def
        /ImagingBBox null def
      currentdict end
      setpagedevice
    } {
      pop pop
    } ifelse
  } {
    pop
  } ifelse
} def
%%EndProlog
%%BeginSetup
%%EndSetup
%%Page: 1 1
%%BeginPageSetup
%%PageMedia: 319x175mm
%%PageBoundingBox: 0 0 905 495
905 495 cairo_set_page_size
%%EndPageSetup
q 0 0 905 495 rectclip q
Q q
0.984314 g
0 495 905.023 -494.977 re f*
0.788235 g
1.875 w
0 J
1 j
[] 0.0 d
4 M 0 495 905.023 -494.977 re S
0 g
2.5 w
1 J
-88.562 188.586 m -45.465 212.156 35.008 165.016 -8.09 141.445 c S
5.719 94.305 m -37.379 70.734 -117.852 117.875 -74.754 141.445 c S
-17.852 117.875 m 25.246 141.445 105.719 94.305 62.621 70.734 c S
76.43 23.594 m 33.332 0.023 -47.141 47.164 -4.043 70.734 c S
Q q
51 55 96 -54.977 re W n
0 g
2.5 w
1 J
1 j
[] 0.0 d
4 M 52.859 47.164 m 95.957 70.734 176.43 23.594 133.332 0.023 c S
Q q
0 g
2.5 w
1 J
1 j
[] 0.0 d
4 M -29.984 330.008 m 13.113 353.578 93.586 306.438 50.492 282.867 c S
64.297 235.727 m 21.203 212.156 -59.273 259.297 -16.176 282.867 c S
40.727 259.297 m 83.824 282.867 164.297 235.727 121.203 212.156 c S
135.008 165.016 m 91.91 141.445 11.438 188.586 54.535 212.156 c S
111.438 188.586 m 154.535 212.156 235.008 165.016 191.91 141.445 c S
205.719 94.305 m 162.621 70.734 82.148 117.875 125.246 141.445 c S
182.148 117.875 m 225.246 141.445 305.719 94.305 262.621 70.734 c S
276.43 23.594 m 233.332 0.023 152.859 47.164 195.957 70.734 c S
Q q
251 55 96 -54.977 re W n
0 g
2.5 w
1 J
1 j
[] 0.0 d
4 M 252.859 47.164 m 295.957 70.734 376.43 23.594 333.332 0.023 c S
Q q
0 g
2.5 w
1 J
1 j
[] 0.0 d
4 M 52.164 447.859 m 9.07 424.289 -71.406 471.43 -28.309 495 c S
28.594 471.43 m 71.691 495 152.164 447.859 109.07 424.289 c S
122.875 377.148 m 79.781 353.578 -0.695 400.719 42.402 424.289 c S
99.305 400.719 m 142.402 424.289 222.875 377.148 179.781 353.578 c S
193.586 306.438 m 150.492 282.867 70.016 330.008 113.113 353.578 c S
170.016 330.008 m 213.113 353.578 293.586 306.438 250.492 282.867 c S
264.297 235.727 m 221.203 212.156 140.727 259.297 183.824 282.867 c S
240.727 259.297 m 283.824 282.867 364.297 235.727 321.203 212.156 c S
335.008 165.016 m 291.91 141.445 211.438 188.586 254.535 212.156 c S
311.438 188.586 m 354.535 212.156 435.008 165.016 391.91 141.445 c S
405.719 94.305 m 362.621 70.734 282.148 117.875 325.246 141.445 c S
382.148 117.875 m 425.246 141.445 505.719 94.305 462.621 70.734 c S
476.43 23.594 m 433.332 0.023 352.859 47.164 395.957 70.734 c S
Q q
451 55 96 -54.977 re W n
0 g
2.5 w
1 J
1 j
[] 0.0 d
4 M 452.859 47.164 m 495.957 70.734 576.43 23.594 533.332 0.023 c S
Q q
0 g
2.5 w
1 J
1 j
[] 0.0 d
4 M 252.164 447.859 m 209.07 424.289 128.594 471.43 171.691 495 c S
228.594 471.43 m 271.691 495 352.164 447.859 309.07 424.289 c S
322.875 377.148 m 279.781 353.578 199.305 400.719 242.402 424.289 c S
299.305 400.719 m 342.402 424.289 422.875 377.148 379.781 353.578 c S
393.586 306.438 m 350.492 282.867 270.016 330.008 313.113 353.578 c S
370.016 330.008 m 413.113 353.578 493.586 306.438 450.492 282.867 c S
464.297 235.727 m 421.203 212.156 340.727 259.297 383.824 282.867 c S
440.727 259.297 m 483.824 282.867 564.297 235.727 521.203 212.156 c S
535.008 165.016 m 491.91 141.445 411.438 188.586 454.535 212.156 c S
511.438 188.586 m 554.535 212.156 635.008 165.016 591.91 141.445 c S
605.719 94.305 m 562.621 70.734 482.148 117.875 525.246 141.445 c S
582.148 117.875 m 625.246 141.445 705.719 94.305 662.621 70.734 c S
676.43 23.594 m 633.332 0.023 552.859 47.164 595.957 70.734 c S
Q q
651 55 96 -54.977 re W n
0 g
2.5 w
1 J
1 j
[] 0.0 d
4 M 652.859 47.164 m 695.957 70.734 776.43 23.594 733.332 0.023 c S
Q q
0 g
2.5 w
1 J
1 j
[] 0.0 d
4 M 452.164 447.859 m 409.07 424.289 328.594 471.43 371.691 495 c S
428.594 471.43 m 471.691 495 552.164 447.859 509.07 424.289 c S
522.875 377.148 m 479.781 353.578 399.305 400.719 442.402 424.289 c S
499.305 400.719 m 542.402 424.289 622.875 377.148 579.781 353.578 c S
593.586 306.438 m 550.492 282.867 470.016 330.008 513.113 353.578 c S
570.016 330.008 m 613.113 353.578 693.586 306.438 650.492 282.867 c S
664.297 235.727 m 621.203 212.156 540.727 259.297 583.824 282.867 c S
640.727 259.297 m 683.824 282.867 764.297 235.727 721.203 212.156 c S
735.008 165.016 m 691.91 141.445 611.438 188.586 654.535 212.156 c S
711.438 188.586 m 754.535 212.156 835.008 165.016 791.91 141.445 c S
805.719 94.305 m 762.621 70.734 682.148 117.875 725.246 141.445 c S
782.148 117.875 m 825.246 141.445 905.719 94.305 862.621 70.734 c S
876.43 23.594 m 833.332 0.023 752.859 47.164 795.957 70.734 c S
Q q
851 55 54 -54.977 re W n
0 g
2.5 w
1 J
1 j
[] 0.0 d
4 M 852.859 47.164 m 895.957 70.734 976.43 23.594 933.332 0.023 c S
Q q
0 g
2.5 w
1 J
1 j
[] 0.0 d
4 M 652.164 447.859 m 609.07 424.289 528.594 471.43 571.691 495 c S
628.594 471.43 m 671.691 495 752.164 447.859 709.07 424.289 c S
722.875 377.148 m 679.781 353.578 599.305 400.719 642.402 424.289 c S
699.305 400.719 m 742.402 424.289 822.875 377.148 779.781 353.578 c S
793.586 306.438 m 750.492 282.867 670.016 330.008 713.113 353.578 c S
770.016 330.008 m 813.113 353.578 893.586 306.438 850.492 282.867 c S
864.297 235.727 m 821.203 212.156 740.727 259.297 783.824 282.867 c S
840.727 259.297 m 883.824 282.867 964.297 235.727 921.203 212.156 c S
935.008 165.016 m 891.91 141.445 811.438 188.586 854.535 212.156 c S
852.164 447.859 m 809.07 424.289 728.594 471.43 771.691 495 c S
828.594 471.43 m 871.691 495 952.164 447.859 909.07 424.289 c S
922.875 377.148 m 879.781 353.578 799.305 400.719 842.402 424.289 c S
899.305 400.719 m 942.402 424.289 1022.875 377.148 979.781 353.578 c S
993.586 306.438 m 950.492 282.867 870.016 330.008 913.113 353.578 c S
Q Q
showpage
%%Trailer
%%Trailer
cleartomark
countdictstack
exch sub { end } repeat
restore
%%EOF
