%!PS-Adobe-2.0 EPSF-2.0
%%BoundingBox: 0 0 905 495
%%HiResBoundingBox: 0.000000 0.000000 905.000000 495.000000
%%Creator: cairo 1.14.2 (http://cairographics.org)
%%CreationDate: Mon Sep  7 08:21:43 2015
%%DocumentData: Clean7Bit
%%LanguageLevel: 2
%%DocumentMedia: 319x175mm 905 495 0 () ()
%%EndComments
% EPSF created by ps2eps 1.68
%%BeginProlog
save
countdictstack
mark
newpath
/showpage {} def
/setpagedevice {pop} def
%%EndProlog
%%Page 1 1
%%BeginProlog
/languagelevel where
{ pop languagelevel } { 1 } ifelse
2 lt { /Helvetica findfont 12 scalefont setfont 50 500 moveto
  (This print job requires a PostScript Language Level 2 printer.) show
  showpage quit } if
/q { gsave } bind def
/Q { grestore } bind def
/cm { 6 array astore concat } bind def
/w { setlinewidth } bind def
/J { setlinecap } bind def
/j { setlinejoin } bind def
/M { setmiterlimit } bind def
/d { setdash } bind def
/m { moveto } bind def
/l { lineto } bind def
/c { curveto } bind def
/h { closepath } bind def
/re { exch dup neg 3 1 roll 5 3 roll moveto 0 rlineto
      0 exch rlineto 0 rlineto closepath } bind def
/S { stroke } bind def
/f { fill } bind def
/f* { eofill } bind def
/n { newpath } bind def
/W { clip } bind def
/W* { eoclip } bind def
/BT { } bind def
/ET { } bind def
/pdfmark where { pop globaldict /?pdfmark /exec load put }
    { globaldict begin /?pdfmark /pop load def /pdfmark
    /cleartomark load def end } ifelse
/BDC { mark 3 1 roll /BDC pdfmark } bind def
/EMC { mark /EMC pdfmark } bind def
/cairo_store_point { /cairo_point_y exch def /cairo_point_x exch def } def
/Tj { show currentpoint cairo_store_point } bind def
/TJ {
  {
    dup
    type /stringtype eq
    { show } { -0.001 mul 0 cairo_font_matrix dtransform rmoveto } ifelse
  } forall
  currentpoint cairo_store_point
} bind def
/cairo_selectfont { cairo_font_matrix aload pop pop pop 0 0 6 array astore
    cairo_font exch selectfont cairo_point_x cairo_point_y moveto } bind def
/Tf { pop /cairo_font exch def /cairo_font_matrix where
      { pop cairo_selectfont } if } bind def
/Td { matrix translate cairo_font_matrix matrix concatmatrix dup
      /cairo_font_matrix exch def dup 4 get exch 5 get cairo_store_point
      /cairo_font where { pop cairo_selectfont } if } bind def
/Tm { 2 copy 8 2 roll 6 array astore /cairo_font_matrix exch def
      cairo_store_point /cairo_font where { pop cairo_selectfont } if } bind def
/g { setgray } bind def
/rg { setrgbcolor } bind def
/d1 { setcachedevice } bind def
/cairo_set_page_size {
  % Change paper size, but only if different from previous paper size otherwise
  % duplex fails. PLRM specifies a tolerance of 5 pts when matching paper size
  % so we use the same when checking if the size changes.
  /setpagedevice where {
    pop currentpagedevice
    /PageSize known {
      2 copy
      currentpagedevice /PageSize get aload pop
      exch 4 1 roll
      sub abs 5 gt
      3 1 roll
      sub abs 5 gt
      or
    } {
      true
    } ifelse
    {
      2 array astore
      2 dict begin
        /PageSize exch def
        /ImagingBBox null def
      currentdict end
      setpagedevice
    } {
      pop pop
    } ifelse
  } {
    pop
  } ifelse
} def
%%EndProlog
%%BeginSetup
%%EndSetup
%%Page: 1 1
%%BeginPageSetup
%%PageMedia: 319x175mm
%%PageBoundingBox: 0 0 905 495
905 495 cairo_set_page_size
%%EndPageSetup
q 0 0 905 495 rectclip q
Q q
0.984314 g
0 495 905.023 -494.977 re f*
0.788235 g
1.875 w
0 J
1 j
[] 0.0 d
4 M 0 495 905.023 -494.977 re S
0 g
2.5 w
1 J
-78.797 212.156 m -88.562 188.586 -12.133 212.156 25.246 141.445 c S
-8.09 141.445 m -17.852 117.875 58.578 141.445 95.957 70.734 c S
Q q
0 72 69 -71.977 re W n
0 g
2.5 w
1 J
1 j
[] 0.0 d
4 M 66.668 0.023 m 76.43 23.594 0 0.023 -37.379 70.734 c S
Q q
60 72 108 -71.977 re W n
0 g
2.5 w
1 J
1 j
[] 0.0 d
4 M 62.621 70.734 m 52.859 47.164 129.289 70.734 166.668 0.023 c S
Q q
0 g
2.5 w
1 J
1 j
[] 0.0 d
4 M -90.93 424.289 m -100.695 400.719 -24.266 424.289 13.113 353.578 c S
-20.219 353.578 m -29.984 330.008 46.445 353.578 83.824 282.867 c S
54.535 212.156 m 64.297 235.727 -12.133 212.156 -49.508 282.867 c S
50.492 282.867 m 40.727 259.297 117.156 282.867 154.535 212.156 c S
125.246 141.445 m 135.008 165.016 58.578 141.445 21.203 212.156 c S
121.203 212.156 m 111.438 188.586 187.867 212.156 225.246 141.445 c S
195.957 70.734 m 205.719 94.305 129.289 70.734 91.91 141.445 c S
191.91 141.445 m 182.148 117.875 258.578 141.445 295.957 70.734 c S
Q q
161 72 108 -71.977 re W n
0 g
2.5 w
1 J
1 j
[] 0.0 d
4 M 266.668 0.023 m 276.43 23.594 200 0.023 162.621 70.734 c S
Q q
260 72 108 -71.977 re W n
0 g
2.5 w
1 J
1 j
[] 0.0 d
4 M 262.621 70.734 m 252.859 47.164 329.289 70.734 366.668 0.023 c S
Q q
0 g
2.5 w
1 J
1 j
[] 0.0 d
4 M 42.402 424.289 m 52.164 447.859 -24.266 424.289 -61.641 495 c S
38.359 495 m 28.594 471.43 105.023 495 142.402 424.289 c S
113.113 353.578 m 122.875 377.148 46.445 353.578 9.07 424.289 c S
109.07 424.289 m 99.305 400.719 175.734 424.289 213.113 353.578 c S
183.824 282.867 m 193.586 306.438 117.156 282.867 79.781 353.578 c S
179.781 353.578 m 170.016 330.008 246.445 353.578 283.824 282.867 c S
254.535 212.156 m 264.297 235.727 187.867 212.156 150.492 282.867 c S
250.492 282.867 m 240.727 259.297 317.156 282.867 354.535 212.156 c S
325.246 141.445 m 335.008 165.016 258.578 141.445 221.203 212.156 c S
321.203 212.156 m 311.438 188.586 387.867 212.156 425.246 141.445 c S
395.957 70.734 m 405.719 94.305 329.289 70.734 291.91 141.445 c S
391.91 141.445 m 382.148 117.875 458.578 141.445 495.957 70.734 c S
Q q
361 72 108 -71.977 re W n
0 g
2.5 w
1 J
1 j
[] 0.0 d
4 M 466.668 0.023 m 476.43 23.594 400 0.023 362.621 70.734 c S
Q q
460 72 108 -71.977 re W n
0 g
2.5 w
1 J
1 j
[] 0.0 d
4 M 462.621 70.734 m 452.859 47.164 529.289 70.734 566.668 0.023 c S
Q q
0 g
2.5 w
1 J
1 j
[] 0.0 d
4 M 242.402 424.289 m 252.164 447.859 175.734 424.289 138.359 495 c S
238.359 495 m 228.594 471.43 305.023 495 342.402 424.289 c S
313.113 353.578 m 322.875 377.148 246.445 353.578 209.07 424.289 c S
309.07 424.289 m 299.305 400.719 375.734 424.289 413.113 353.578 c S
383.824 282.867 m 393.586 306.438 317.156 282.867 279.781 353.578 c S
379.781 353.578 m 370.016 330.008 446.445 353.578 483.824 282.867 c S
454.535 212.156 m 464.297 235.727 387.867 212.156 350.492 282.867 c S
450.492 282.867 m 440.727 259.297 517.156 282.867 554.535 212.156 c S
525.246 141.445 m 535.008 165.016 458.578 141.445 421.203 212.156 c S
521.203 212.156 m 511.438 188.586 587.867 212.156 625.246 141.445 c S
595.957 70.734 m 605.719 94.305 529.289 70.734 491.91 141.445 c S
591.91 141.445 m 582.148 117.875 658.578 141.445 695.957 70.734 c S
Q q
561 72 108 -71.977 re W n
0 g
2.5 w
1 J
1 j
[] 0.0 d
4 M 666.668 0.023 m 676.43 23.594 600 0.023 562.621 70.734 c S
Q q
660 72 108 -71.977 re W n
0 g
2.5 w
1 J
1 j
[] 0.0 d
4 M 662.621 70.734 m 652.859 47.164 729.289 70.734 766.668 0.023 c S
Q q
0 g
2.5 w
1 J
1 j
[] 0.0 d
4 M 442.402 424.289 m 452.164 447.859 375.734 424.289 338.359 495 c S
438.359 495 m 428.594 471.43 505.023 495 542.402 424.289 c S
513.113 353.578 m 522.875 377.148 446.445 353.578 409.07 424.289 c S
509.07 424.289 m 499.305 400.719 575.734 424.289 613.113 353.578 c S
583.824 282.867 m 593.586 306.438 517.156 282.867 479.781 353.578 c S
579.781 353.578 m 570.016 330.008 646.445 353.578 683.824 282.867 c S
654.535 212.156 m 664.297 235.727 587.867 212.156 550.492 282.867 c S
650.492 282.867 m 640.727 259.297 717.156 282.867 754.535 212.156 c S
725.246 141.445 m 735.008 165.016 658.578 141.445 621.203 212.156 c S
721.203 212.156 m 711.438 188.586 787.867 212.156 825.246 141.445 c S
795.957 70.734 m 805.719 94.305 729.289 70.734 691.91 141.445 c S
791.91 141.445 m 782.148 117.875 858.578 141.445 895.957 70.734 c S
Q q
761 72 108 -71.977 re W n
0 g
2.5 w
1 J
1 j
[] 0.0 d
4 M 866.668 0.023 m 876.43 23.594 800 0.023 762.621 70.734 c S
Q q
860 72 45 -71.977 re W n
0 g
2.5 w
1 J
1 j
[] 0.0 d
4 M 862.621 70.734 m 852.859 47.164 929.289 70.734 966.668 0.023 c S
Q q
0 g
2.5 w
1 J
1 j
[] 0.0 d
4 M 642.402 424.289 m 652.164 447.859 575.734 424.289 538.359 495 c S
638.359 495 m 628.594 471.43 705.023 495 742.402 424.289 c S
713.113 353.578 m 722.875 377.148 646.445 353.578 609.07 424.289 c S
709.07 424.289 m 699.305 400.719 775.734 424.289 813.113 353.578 c S
783.824 282.867 m 793.586 306.438 717.156 282.867 679.781 353.578 c S
779.781 353.578 m 770.016 330.008 846.445 353.578 883.824 282.867 c S
854.535 212.156 m 864.297 235.727 787.867 212.156 750.492 282.867 c S
850.492 282.867 m 840.727 259.297 917.156 282.867 954.535 212.156 c S
925.246 141.445 m 935.008 165.016 858.578 141.445 821.203 212.156 c S
995.957 70.734 m 1005.719 94.305 929.289 70.734 891.91 141.445 c S
842.402 424.289 m 852.164 447.859 775.734 424.289 738.359 495 c S
838.359 495 m 828.594 471.43 905.023 495 942.402 424.289 c S
913.113 353.578 m 922.875 377.148 846.445 353.578 809.07 424.289 c S
983.824 282.867 m 993.586 306.438 917.156 282.867 879.781 353.578 c S
Q Q
showpage
%%Trailer
%%Trailer
cleartomark
countdictstack
exch sub { end } repeat
restore
%%EOF
