%!PS-Adobe-2.0 EPSF-2.0
%%BoundingBox: 0 0 905 495
%%HiResBoundingBox: 0.000000 0.000000 905.000000 495.000000
%%Creator: cairo 1.14.2 (http://cairographics.org)
%%CreationDate: Mon Sep  7 08:21:43 2015
%%DocumentData: Clean7Bit
%%LanguageLevel: 2
%%DocumentMedia: 319x175mm 905 495 0 () ()
%%EndComments
% EPSF created by ps2eps 1.68
%%BeginProlog
save
countdictstack
mark
newpath
/showpage {} def
/setpagedevice {pop} def
%%EndProlog
%%Page 1 1
%%BeginProlog
/languagelevel where
{ pop languagelevel } { 1 } ifelse
2 lt { /Helvetica findfont 12 scalefont setfont 50 500 moveto
  (This print job requires a PostScript Language Level 2 printer.) show
  showpage quit } if
/q { gsave } bind def
/Q { grestore } bind def
/cm { 6 array astore concat } bind def
/w { setlinewidth } bind def
/J { setlinecap } bind def
/j { setlinejoin } bind def
/M { setmiterlimit } bind def
/d { setdash } bind def
/m { moveto } bind def
/l { lineto } bind def
/c { curveto } bind def
/h { closepath } bind def
/re { exch dup neg 3 1 roll 5 3 roll moveto 0 rlineto
      0 exch rlineto 0 rlineto closepath } bind def
/S { stroke } bind def
/f { fill } bind def
/f* { eofill } bind def
/n { newpath } bind def
/W { clip } bind def
/W* { eoclip } bind def
/BT { } bind def
/ET { } bind def
/pdfmark where { pop globaldict /?pdfmark /exec load put }
    { globaldict begin /?pdfmark /pop load def /pdfmark
    /cleartomark load def end } ifelse
/BDC { mark 3 1 roll /BDC pdfmark } bind def
/EMC { mark /EMC pdfmark } bind def
/cairo_store_point { /cairo_point_y exch def /cairo_point_x exch def } def
/Tj { show currentpoint cairo_store_point } bind def
/TJ {
  {
    dup
    type /stringtype eq
    { show } { -0.001 mul 0 cairo_font_matrix dtransform rmoveto } ifelse
  } forall
  currentpoint cairo_store_point
} bind def
/cairo_selectfont { cairo_font_matrix aload pop pop pop 0 0 6 array astore
    cairo_font exch selectfont cairo_point_x cairo_point_y moveto } bind def
/Tf { pop /cairo_font exch def /cairo_font_matrix where
      { pop cairo_selectfont } if } bind def
/Td { matrix translate cairo_font_matrix matrix concatmatrix dup
      /cairo_font_matrix exch def dup 4 get exch 5 get cairo_store_point
      /cairo_font where { pop cairo_selectfont } if } bind def
/Tm { 2 copy 8 2 roll 6 array astore /cairo_font_matrix exch def
      cairo_store_point /cairo_font where { pop cairo_selectfont } if } bind def
/g { setgray } bind def
/rg { setrgbcolor } bind def
/d1 { setcachedevice } bind def
/cairo_set_page_size {
  % Change paper size, but only if different from previous paper size otherwise
  % duplex fails. PLRM specifies a tolerance of 5 pts when matching paper size
  % so we use the same when checking if the size changes.
  /setpagedevice where {
    pop currentpagedevice
    /PageSize known {
      2 copy
      currentpagedevice /PageSize get aload pop
      exch 4 1 roll
      sub abs 5 gt
      3 1 roll
      sub abs 5 gt
      or
    } {
      true
    } ifelse
    {
      2 array astore
      2 dict begin
        /PageSize exch def
        /ImagingBBox null def
      currentdict end
      setpagedevice
    } {
      pop pop
    } ifelse
  } {
    pop
  } ifelse
} def
%%EndProlog
%%BeginSetup
%%EndSetup
%%Page: 1 1
%%BeginPageSetup
%%PageMedia: 319x175mm
%%PageBoundingBox: 0 0 905 495
905 495 cairo_set_page_size
%%EndPageSetup
q 0 0 905 495 rectclip q
Q q
0.984314 g
0 495 905.023 -494.977 re f*
0.788235 g
1.875 w
0 J
1 j
[] 0.0 d
4 M 0 495 905.023 -494.977 re S
0 g
2.5 w
1 J
-45.465 212.156 m 35.008 165.016 -8.09 141.445 11.438 188.586 c S
25.246 141.445 m 105.719 94.305 62.621 70.734 82.148 117.875 c S
Q q
0 51 35 -50.977 re W n
0 g
2.5 w
1 J
1 j
[] 0.0 d
4 M 33.332 0.023 m -47.141 47.164 -4.043 70.734 -23.57 23.594 c S
Q q
0 g
2.5 w
1 J
1 j
[] 0.0 d
4 M 95.957 70.734 m 176.43 23.594 133.332 0.023 152.859 47.164 c S
-57.598 424.289 m 22.875 377.148 -20.219 353.578 -0.695 400.719 c S
13.113 353.578 m 93.586 306.438 50.492 282.867 70.016 330.008 c S
21.203 212.156 m -59.273 259.297 -16.176 282.867 -35.703 235.727 c S
83.824 282.867 m 164.297 235.727 121.203 212.156 140.727 259.297 c S
91.91 141.445 m 11.438 188.586 54.535 212.156 35.008 165.016 c S
154.535 212.156 m 235.008 165.016 191.91 141.445 211.438 188.586 c S
162.621 70.734 m 82.148 117.875 125.246 141.445 105.719 94.305 c S
225.246 141.445 m 305.719 94.305 262.621 70.734 282.148 117.875 c S
Q q
175 51 60 -50.977 re W n
0 g
2.5 w
1 J
1 j
[] 0.0 d
4 M 233.332 0.023 m 152.859 47.164 195.957 70.734 176.43 23.594 c S
Q q
0 g
2.5 w
1 J
1 j
[] 0.0 d
4 M 295.957 70.734 m 376.43 23.594 333.332 0.023 352.859 47.164 c S
9.07 424.289 m -71.406 471.43 -28.309 495 -47.836 447.859 c S
71.691 495 m 152.164 447.859 109.07 424.289 128.594 471.43 c S
79.781 353.578 m -0.695 400.719 42.402 424.289 22.875 377.148 c S
142.402 424.289 m 222.875 377.148 179.781 353.578 199.305 400.719 c S
150.492 282.867 m 70.016 330.008 113.113 353.578 93.586 306.438 c S
213.113 353.578 m 293.586 306.438 250.492 282.867 270.016 330.008 c S
221.203 212.156 m 140.727 259.297 183.824 282.867 164.297 235.727 c S
283.824 282.867 m 364.297 235.727 321.203 212.156 340.727 259.297 c S
291.91 141.445 m 211.438 188.586 254.535 212.156 235.008 165.016 c S
354.535 212.156 m 435.008 165.016 391.91 141.445 411.438 188.586 c S
362.621 70.734 m 282.148 117.875 325.246 141.445 305.719 94.305 c S
425.246 141.445 m 505.719 94.305 462.621 70.734 482.148 117.875 c S
Q q
375 51 60 -50.977 re W n
0 g
2.5 w
1 J
1 j
[] 0.0 d
4 M 433.332 0.023 m 352.859 47.164 395.957 70.734 376.43 23.594 c S
Q q
0 g
2.5 w
1 J
1 j
[] 0.0 d
4 M 495.957 70.734 m 576.43 23.594 533.332 0.023 552.859 47.164 c S
209.07 424.289 m 128.594 471.43 171.691 495 152.164 447.859 c S
271.691 495 m 352.164 447.859 309.07 424.289 328.594 471.43 c S
279.781 353.578 m 199.305 400.719 242.402 424.289 222.875 377.148 c S
342.402 424.289 m 422.875 377.148 379.781 353.578 399.305 400.719 c S
350.492 282.867 m 270.016 330.008 313.113 353.578 293.586 306.438 c S
413.113 353.578 m 493.586 306.438 450.492 282.867 470.016 330.008 c S
421.203 212.156 m 340.727 259.297 383.824 282.867 364.297 235.727 c S
483.824 282.867 m 564.297 235.727 521.203 212.156 540.727 259.297 c S
491.91 141.445 m 411.438 188.586 454.535 212.156 435.008 165.016 c S
554.535 212.156 m 635.008 165.016 591.91 141.445 611.438 188.586 c S
562.621 70.734 m 482.148 117.875 525.246 141.445 505.719 94.305 c S
625.246 141.445 m 705.719 94.305 662.621 70.734 682.148 117.875 c S
Q q
575 51 60 -50.977 re W n
0 g
2.5 w
1 J
1 j
[] 0.0 d
4 M 633.332 0.023 m 552.859 47.164 595.957 70.734 576.43 23.594 c S
Q q
0 g
2.5 w
1 J
1 j
[] 0.0 d
4 M 695.957 70.734 m 776.43 23.594 733.332 0.023 752.859 47.164 c S
409.07 424.289 m 328.594 471.43 371.691 495 352.164 447.859 c S
471.691 495 m 552.164 447.859 509.07 424.289 528.594 471.43 c S
479.781 353.578 m 399.305 400.719 442.402 424.289 422.875 377.148 c S
542.402 424.289 m 622.875 377.148 579.781 353.578 599.305 400.719 c S
550.492 282.867 m 470.016 330.008 513.113 353.578 493.586 306.438 c S
613.113 353.578 m 693.586 306.438 650.492 282.867 670.016 330.008 c S
621.203 212.156 m 540.727 259.297 583.824 282.867 564.297 235.727 c S
683.824 282.867 m 764.297 235.727 721.203 212.156 740.727 259.297 c S
691.91 141.445 m 611.438 188.586 654.535 212.156 635.008 165.016 c S
754.535 212.156 m 835.008 165.016 791.91 141.445 811.438 188.586 c S
762.621 70.734 m 682.148 117.875 725.246 141.445 705.719 94.305 c S
825.246 141.445 m 905.719 94.305 862.621 70.734 882.148 117.875 c S
Q q
775 51 60 -50.977 re W n
0 g
2.5 w
1 J
1 j
[] 0.0 d
4 M 833.332 0.023 m 752.859 47.164 795.957 70.734 776.43 23.594 c S
Q q
0 g
2.5 w
1 J
1 j
[] 0.0 d
4 M 895.957 70.734 m 976.43 23.594 933.332 0.023 952.859 47.164 c S
609.07 424.289 m 528.594 471.43 571.691 495 552.164 447.859 c S
671.691 495 m 752.164 447.859 709.07 424.289 728.594 471.43 c S
679.781 353.578 m 599.305 400.719 642.402 424.289 622.875 377.148 c S
742.402 424.289 m 822.875 377.148 779.781 353.578 799.305 400.719 c S
750.492 282.867 m 670.016 330.008 713.113 353.578 693.586 306.438 c S
813.113 353.578 m 893.586 306.438 850.492 282.867 870.016 330.008 c S
821.203 212.156 m 740.727 259.297 783.824 282.867 764.297 235.727 c S
883.824 282.867 m 964.297 235.727 921.203 212.156 940.727 259.297 c S
891.91 141.445 m 811.438 188.586 854.535 212.156 835.008 165.016 c S
962.621 70.734 m 882.148 117.875 925.246 141.445 905.719 94.305 c S
809.07 424.289 m 728.594 471.43 771.691 495 752.164 447.859 c S
871.691 495 m 952.164 447.859 909.07 424.289 928.594 471.43 c S
879.781 353.578 m 799.305 400.719 842.402 424.289 822.875 377.148 c S
950.492 282.867 m 870.016 330.008 913.113 353.578 893.586 306.438 c S
Q Q
showpage
%%Trailer
%%Trailer
cleartomark
countdictstack
exch sub { end } repeat
restore
%%EOF
