%!PS-Adobe-2.0 EPSF-2.0
%%BoundingBox: 0 0 905 495
%%HiResBoundingBox: 0.000000 0.000000 905.000000 495.000000
%%Creator: cairo 1.14.2 (http://cairographics.org)
%%CreationDate: Mon Sep  7 08:21:43 2015
%%DocumentData: Clean7Bit
%%LanguageLevel: 2
%%DocumentMedia: 319x175mm 905 495 0 () ()
%%EndComments
% EPSF created by ps2eps 1.68
%%BeginProlog
save
countdictstack
mark
newpath
/showpage {} def
/setpagedevice {pop} def
%%EndProlog
%%Page 1 1
%%BeginProlog
/languagelevel where
{ pop languagelevel } { 1 } ifelse
2 lt { /Helvetica findfont 12 scalefont setfont 50 500 moveto
  (This print job requires a PostScript Language Level 2 printer.) show
  showpage quit } if
/q { gsave } bind def
/Q { grestore } bind def
/cm { 6 array astore concat } bind def
/w { setlinewidth } bind def
/J { setlinecap } bind def
/j { setlinejoin } bind def
/M { setmiterlimit } bind def
/d { setdash } bind def
/m { moveto } bind def
/l { lineto } bind def
/c { curveto } bind def
/h { closepath } bind def
/re { exch dup neg 3 1 roll 5 3 roll moveto 0 rlineto
      0 exch rlineto 0 rlineto closepath } bind def
/S { stroke } bind def
/f { fill } bind def
/f* { eofill } bind def
/n { newpath } bind def
/W { clip } bind def
/W* { eoclip } bind def
/BT { } bind def
/ET { } bind def
/pdfmark where { pop globaldict /?pdfmark /exec load put }
    { globaldict begin /?pdfmark /pop load def /pdfmark
    /cleartomark load def end } ifelse
/BDC { mark 3 1 roll /BDC pdfmark } bind def
/EMC { mark /EMC pdfmark } bind def
/cairo_store_point { /cairo_point_y exch def /cairo_point_x exch def } def
/Tj { show currentpoint cairo_store_point } bind def
/TJ {
  {
    dup
    type /stringtype eq
    { show } { -0.001 mul 0 cairo_font_matrix dtransform rmoveto } ifelse
  } forall
  currentpoint cairo_store_point
} bind def
/cairo_selectfont { cairo_font_matrix aload pop pop pop 0 0 6 array astore
    cairo_font exch selectfont cairo_point_x cairo_point_y moveto } bind def
/Tf { pop /cairo_font exch def /cairo_font_matrix where
      { pop cairo_selectfont } if } bind def
/Td { matrix translate cairo_font_matrix matrix concatmatrix dup
      /cairo_font_matrix exch def dup 4 get exch 5 get cairo_store_point
      /cairo_font where { pop cairo_selectfont } if } bind def
/Tm { 2 copy 8 2 roll 6 array astore /cairo_font_matrix exch def
      cairo_store_point /cairo_font where { pop cairo_selectfont } if } bind def
/g { setgray } bind def
/rg { setrgbcolor } bind def
/d1 { setcachedevice } bind def
/cairo_set_page_size {
  % Change paper size, but only if different from previous paper size otherwise
  % duplex fails. PLRM specifies a tolerance of 5 pts when matching paper size
  % so we use the same when checking if the size changes.
  /setpagedevice where {
    pop currentpagedevice
    /PageSize known {
      2 copy
      currentpagedevice /PageSize get aload pop
      exch 4 1 roll
      sub abs 5 gt
      3 1 roll
      sub abs 5 gt
      or
    } {
      true
    } ifelse
    {
      2 array astore
      2 dict begin
        /PageSize exch def
        /ImagingBBox null def
      currentdict end
      setpagedevice
    } {
      pop pop
    } ifelse
  } {
    pop
  } ifelse
} def
%%EndProlog
%%BeginSetup
%%EndSetup
%%Page: 1 1
%%BeginPageSetup
%%PageMedia: 319x175mm
%%PageBoundingBox: 0 0 905 495
905 495 cairo_set_page_size
%%EndPageSetup
q 0 0 905 495 rectclip q
Q q
0.984314 g
0 495 905.023 -494.977 re f*
0.788235 g
1.875 w
0 J
1 j
[] 0.0 d
4 M 0 495 905.023 -494.977 re S
0 g
2.5 w
1 J
-78.797 212.156 m -41.422 141.445 -31.66 165.016 35.008 165.016 c S
-8.09 141.445 m 29.289 70.734 39.051 94.305 105.719 94.305 c S
Q q
0 53 68 -52.977 re W n
0 g
2.5 w
1 J
1 j
[] 0.0 d
4 M 66.668 0.023 m 29.289 70.734 19.527 47.164 -47.141 47.164 c S
Q q
0 g
2.5 w
1 J
1 j
[] 0.0 d
4 M 62.621 70.734 m 100 0.023 109.762 23.594 176.43 23.594 c S
-90.93 424.289 m -53.555 353.578 -43.789 377.148 22.875 377.148 c S
-20.219 353.578 m 17.156 282.867 26.922 306.438 93.586 306.438 c S
54.535 212.156 m 17.156 282.867 7.395 259.297 -59.273 259.297 c S
50.492 282.867 m 87.867 212.156 97.633 235.727 164.297 235.727 c S
125.246 141.445 m 87.867 212.156 78.105 188.586 11.438 188.586 c S
121.203 212.156 m 158.578 141.445 168.34 165.016 235.008 165.016 c S
195.957 70.734 m 158.578 141.445 148.816 117.875 82.148 117.875 c S
191.91 141.445 m 229.289 70.734 239.051 94.305 305.719 94.305 c S
Q q
151 53 117 -52.977 re W n
0 g
2.5 w
1 J
1 j
[] 0.0 d
4 M 266.668 0.023 m 229.289 70.734 219.527 47.164 152.859 47.164 c S
Q q
0 g
2.5 w
1 J
1 j
[] 0.0 d
4 M 262.621 70.734 m 300 0.023 309.762 23.594 376.43 23.594 c S
42.402 424.289 m 5.023 495 -4.738 471.43 -71.406 471.43 c S
38.359 495 m 75.734 424.289 85.5 447.859 152.164 447.859 c S
113.113 353.578 m 75.734 424.289 65.973 400.719 -0.695 400.719 c S
109.07 424.289 m 146.445 353.578 156.211 377.148 222.875 377.148 c S
183.824 282.867 m 146.445 353.578 136.684 330.008 70.016 330.008 c S
179.781 353.578 m 217.156 282.867 226.922 306.438 293.586 306.438 c S
254.535 212.156 m 217.156 282.867 207.395 259.297 140.727 259.297 c S
250.492 282.867 m 287.867 212.156 297.633 235.727 364.297 235.727 c S
325.246 141.445 m 287.867 212.156 278.105 188.586 211.438 188.586 c S
321.203 212.156 m 358.578 141.445 368.34 165.016 435.008 165.016 c S
395.957 70.734 m 358.578 141.445 348.816 117.875 282.148 117.875 c S
391.91 141.445 m 429.289 70.734 439.051 94.305 505.719 94.305 c S
Q q
351 53 117 -52.977 re W n
0 g
2.5 w
1 J
1 j
[] 0.0 d
4 M 466.668 0.023 m 429.289 70.734 419.527 47.164 352.859 47.164 c S
Q q
0 g
2.5 w
1 J
1 j
[] 0.0 d
4 M 462.621 70.734 m 500 0.023 509.762 23.594 576.43 23.594 c S
242.402 424.289 m 205.023 495 195.262 471.43 128.594 471.43 c S
238.359 495 m 275.734 424.289 285.5 447.859 352.164 447.859 c S
313.113 353.578 m 275.734 424.289 265.973 400.719 199.305 400.719 c S
309.07 424.289 m 346.445 353.578 356.211 377.148 422.875 377.148 c S
383.824 282.867 m 346.445 353.578 336.684 330.008 270.016 330.008 c S
379.781 353.578 m 417.156 282.867 426.922 306.438 493.586 306.438 c S
454.535 212.156 m 417.156 282.867 407.395 259.297 340.727 259.297 c S
450.492 282.867 m 487.867 212.156 497.633 235.727 564.297 235.727 c S
525.246 141.445 m 487.867 212.156 478.105 188.586 411.438 188.586 c S
521.203 212.156 m 558.578 141.445 568.34 165.016 635.008 165.016 c S
595.957 70.734 m 558.578 141.445 548.816 117.875 482.148 117.875 c S
591.91 141.445 m 629.289 70.734 639.051 94.305 705.719 94.305 c S
Q q
551 53 117 -52.977 re W n
0 g
2.5 w
1 J
1 j
[] 0.0 d
4 M 666.668 0.023 m 629.289 70.734 619.527 47.164 552.859 47.164 c S
Q q
0 g
2.5 w
1 J
1 j
[] 0.0 d
4 M 662.621 70.734 m 700 0.023 709.762 23.594 776.43 23.594 c S
442.402 424.289 m 405.023 495 395.262 471.43 328.594 471.43 c S
438.359 495 m 475.734 424.289 485.5 447.859 552.164 447.859 c S
513.113 353.578 m 475.734 424.289 465.973 400.719 399.305 400.719 c S
509.07 424.289 m 546.445 353.578 556.211 377.148 622.875 377.148 c S
583.824 282.867 m 546.445 353.578 536.684 330.008 470.016 330.008 c S
579.781 353.578 m 617.156 282.867 626.922 306.438 693.586 306.438 c S
654.535 212.156 m 617.156 282.867 607.395 259.297 540.727 259.297 c S
650.492 282.867 m 687.867 212.156 697.633 235.727 764.297 235.727 c S
725.246 141.445 m 687.867 212.156 678.105 188.586 611.438 188.586 c S
721.203 212.156 m 758.578 141.445 768.34 165.016 835.008 165.016 c S
795.957 70.734 m 758.578 141.445 748.816 117.875 682.148 117.875 c S
791.91 141.445 m 829.289 70.734 839.051 94.305 905.719 94.305 c S
Q q
751 53 117 -52.977 re W n
0 g
2.5 w
1 J
1 j
[] 0.0 d
4 M 866.668 0.023 m 829.289 70.734 819.527 47.164 752.859 47.164 c S
Q q
0 g
2.5 w
1 J
1 j
[] 0.0 d
4 M 862.621 70.734 m 900 0.023 909.762 23.594 976.43 23.594 c S
642.402 424.289 m 605.023 495 595.262 471.43 528.594 471.43 c S
638.359 495 m 675.734 424.289 685.5 447.859 752.164 447.859 c S
713.113 353.578 m 675.734 424.289 665.973 400.719 599.305 400.719 c S
709.07 424.289 m 746.445 353.578 756.211 377.148 822.875 377.148 c S
783.824 282.867 m 746.445 353.578 736.684 330.008 670.016 330.008 c S
779.781 353.578 m 817.156 282.867 826.922 306.438 893.586 306.438 c S
854.535 212.156 m 817.156 282.867 807.395 259.297 740.727 259.297 c S
850.492 282.867 m 887.867 212.156 897.633 235.727 964.297 235.727 c S
925.246 141.445 m 887.867 212.156 878.105 188.586 811.438 188.586 c S
995.957 70.734 m 958.578 141.445 948.816 117.875 882.148 117.875 c S
842.402 424.289 m 805.023 495 795.262 471.43 728.594 471.43 c S
838.359 495 m 875.734 424.289 885.5 447.859 952.164 447.859 c S
913.113 353.578 m 875.734 424.289 865.973 400.719 799.305 400.719 c S
983.824 282.867 m 946.445 353.578 936.684 330.008 870.016 330.008 c S
Q Q
showpage
%%Trailer
%%Trailer
cleartomark
countdictstack
exch sub { end } repeat
restore
%%EOF
