%!PS-Adobe-2.0 EPSF-2.0
%%BoundingBox: 0 0 905 495
%%HiResBoundingBox: 0.000000 0.000000 905.000000 495.000000
%%Creator: cairo 1.14.2 (http://cairographics.org)
%%CreationDate: Mon Sep  7 08:21:43 2015
%%DocumentData: Clean7Bit
%%LanguageLevel: 2
%%DocumentMedia: 319x175mm 905 495 0 () ()
%%EndComments
% EPSF created by ps2eps 1.68
%%BeginProlog
save
countdictstack
mark
newpath
/showpage {} def
/setpagedevice {pop} def
%%EndProlog
%%Page 1 1
%%BeginProlog
/languagelevel where
{ pop languagelevel } { 1 } ifelse
2 lt { /Helvetica findfont 12 scalefont setfont 50 500 moveto
  (This print job requires a PostScript Language Level 2 printer.) show
  showpage quit } if
/q { gsave } bind def
/Q { grestore } bind def
/cm { 6 array astore concat } bind def
/w { setlinewidth } bind def
/J { setlinecap } bind def
/j { setlinejoin } bind def
/M { setmiterlimit } bind def
/d { setdash } bind def
/m { moveto } bind def
/l { lineto } bind def
/c { curveto } bind def
/h { closepath } bind def
/re { exch dup neg 3 1 roll 5 3 roll moveto 0 rlineto
      0 exch rlineto 0 rlineto closepath } bind def
/S { stroke } bind def
/f { fill } bind def
/f* { eofill } bind def
/n { newpath } bind def
/W { clip } bind def
/W* { eoclip } bind def
/BT { } bind def
/ET { } bind def
/pdfmark where { pop globaldict /?pdfmark /exec load put }
    { globaldict begin /?pdfmark /pop load def /pdfmark
    /cleartomark load def end } ifelse
/BDC { mark 3 1 roll /BDC pdfmark } bind def
/EMC { mark /EMC pdfmark } bind def
/cairo_store_point { /cairo_point_y exch def /cairo_point_x exch def } def
/Tj { show currentpoint cairo_store_point } bind def
/TJ {
  {
    dup
    type /stringtype eq
    { show } { -0.001 mul 0 cairo_font_matrix dtransform rmoveto } ifelse
  } forall
  currentpoint cairo_store_point
} bind def
/cairo_selectfont { cairo_font_matrix aload pop pop pop 0 0 6 array astore
    cairo_font exch selectfont cairo_point_x cairo_point_y moveto } bind def
/Tf { pop /cairo_font exch def /cairo_font_matrix where
      { pop cairo_selectfont } if } bind def
/Td { matrix translate cairo_font_matrix matrix concatmatrix dup
      /cairo_font_matrix exch def dup 4 get exch 5 get cairo_store_point
      /cairo_font where { pop cairo_selectfont } if } bind def
/Tm { 2 copy 8 2 roll 6 array astore /cairo_font_matrix exch def
      cairo_store_point /cairo_font where { pop cairo_selectfont } if } bind def
/g { setgray } bind def
/rg { setrgbcolor } bind def
/d1 { setcachedevice } bind def
/cairo_set_page_size {
  % Change paper size, but only if different from previous paper size otherwise
  % duplex fails. PLRM specifies a tolerance of 5 pts when matching paper size
  % so we use the same when checking if the size changes.
  /setpagedevice where {
    pop currentpagedevice
    /PageSize known {
      2 copy
      currentpagedevice /PageSize get aload pop
      exch 4 1 roll
      sub abs 5 gt
      3 1 roll
      sub abs 5 gt
      or
    } {
      true
    } ifelse
    {
      2 array astore
      2 dict begin
        /PageSize exch def
        /ImagingBBox null def
      currentdict end
      setpagedevice
    } {
      pop pop
    } ifelse
  } {
    pop
  } ifelse
} def
%%EndProlog
%%BeginSetup
%%EndSetup
%%Page: 1 1
%%BeginPageSetup
%%PageMedia: 319x175mm
%%PageBoundingBox: 0 0 905 495
905 495 cairo_set_page_size
%%EndPageSetup
q 0 0 905 495 rectclip q
Q q
0.984314 g
0 495 905.023 -494.977 re f*
0.788235 g
1.875 w
0 J
1 j
[] 0.0 d
4 M 0 495 905.023 -494.977 re S
0 g
2.5 w
1 J
-17.852 117.875 m -27.613 94.305 -74.754 141.445 29.289 70.734 c S
5.719 94.305 m 15.48 117.875 62.621 70.734 -41.422 141.445 c S
Q q
34 49 68 -48.977 re W n
0 g
2.5 w
1 J
1 j
[] 0.0 d
4 M 52.859 47.164 m 43.098 23.594 -4.043 70.734 100 0.023 c S
Q q
0 g
2.5 w
1 J
1 j
[] 0.0 d
4 M 76.43 23.594 m 86.191 47.164 133.332 0.023 29.289 70.734 c S
-29.984 330.008 m -39.746 306.438 -86.887 353.578 17.156 282.867 c S
-6.414 306.438 m 3.352 330.008 50.492 282.867 -53.555 353.578 c S
40.727 259.297 m 30.965 235.727 -16.176 282.867 87.867 212.156 c S
64.297 235.727 m 74.062 259.297 121.203 212.156 17.156 282.867 c S
111.438 188.586 m 101.676 165.016 54.535 212.156 158.578 141.445 c S
135.008 165.016 m 144.773 188.586 191.91 141.445 87.867 212.156 c S
182.148 117.875 m 172.387 94.305 125.246 141.445 229.289 70.734 c S
205.719 94.305 m 215.48 117.875 262.621 70.734 158.578 141.445 c S
Q q
234 49 68 -48.977 re W n
0 g
2.5 w
1 J
1 j
[] 0.0 d
4 M 252.859 47.164 m 243.098 23.594 195.957 70.734 300 0.023 c S
Q q
0 g
2.5 w
1 J
1 j
[] 0.0 d
4 M 276.43 23.594 m 286.191 47.164 333.332 0.023 229.289 70.734 c S
28.594 471.43 m 18.832 447.859 -28.309 495 75.734 424.289 c S
52.164 447.859 m 61.93 471.43 109.07 424.289 5.023 495 c S
99.305 400.719 m 89.543 377.148 42.402 424.289 146.445 353.578 c S
122.875 377.148 m 132.641 400.719 179.781 353.578 75.734 424.289 c S
170.016 330.008 m 160.254 306.438 113.113 353.578 217.156 282.867 c S
193.586 306.438 m 203.352 330.008 250.492 282.867 146.445 353.578 c S
240.727 259.297 m 230.965 235.727 183.824 282.867 287.867 212.156 c S
264.297 235.727 m 274.062 259.297 321.203 212.156 217.156 282.867 c S
311.438 188.586 m 301.676 165.016 254.535 212.156 358.578 141.445 c S
335.008 165.016 m 344.773 188.586 391.91 141.445 287.867 212.156 c S
382.148 117.875 m 372.387 94.305 325.246 141.445 429.289 70.734 c S
405.719 94.305 m 415.48 117.875 462.621 70.734 358.578 141.445 c S
Q q
434 49 68 -48.977 re W n
0 g
2.5 w
1 J
1 j
[] 0.0 d
4 M 452.859 47.164 m 443.098 23.594 395.957 70.734 500 0.023 c S
Q q
0 g
2.5 w
1 J
1 j
[] 0.0 d
4 M 476.43 23.594 m 486.191 47.164 533.332 0.023 429.289 70.734 c S
228.594 471.43 m 218.832 447.859 171.691 495 275.734 424.289 c S
252.164 447.859 m 261.93 471.43 309.07 424.289 205.023 495 c S
299.305 400.719 m 289.543 377.148 242.402 424.289 346.445 353.578 c S
322.875 377.148 m 332.641 400.719 379.781 353.578 275.734 424.289 c S
370.016 330.008 m 360.254 306.438 313.113 353.578 417.156 282.867 c S
393.586 306.438 m 403.352 330.008 450.492 282.867 346.445 353.578 c S
440.727 259.297 m 430.965 235.727 383.824 282.867 487.867 212.156 c S
464.297 235.727 m 474.062 259.297 521.203 212.156 417.156 282.867 c S
511.438 188.586 m 501.676 165.016 454.535 212.156 558.578 141.445 c S
535.008 165.016 m 544.773 188.586 591.91 141.445 487.867 212.156 c S
582.148 117.875 m 572.387 94.305 525.246 141.445 629.289 70.734 c S
605.719 94.305 m 615.48 117.875 662.621 70.734 558.578 141.445 c S
Q q
634 49 68 -48.977 re W n
0 g
2.5 w
1 J
1 j
[] 0.0 d
4 M 652.859 47.164 m 643.098 23.594 595.957 70.734 700 0.023 c S
Q q
0 g
2.5 w
1 J
1 j
[] 0.0 d
4 M 676.43 23.594 m 686.191 47.164 733.332 0.023 629.289 70.734 c S
428.594 471.43 m 418.832 447.859 371.691 495 475.734 424.289 c S
452.164 447.859 m 461.93 471.43 509.07 424.289 405.023 495 c S
499.305 400.719 m 489.543 377.148 442.402 424.289 546.445 353.578 c S
522.875 377.148 m 532.641 400.719 579.781 353.578 475.734 424.289 c S
570.016 330.008 m 560.254 306.438 513.113 353.578 617.156 282.867 c S
593.586 306.438 m 603.352 330.008 650.492 282.867 546.445 353.578 c S
640.727 259.297 m 630.965 235.727 583.824 282.867 687.867 212.156 c S
664.297 235.727 m 674.062 259.297 721.203 212.156 617.156 282.867 c S
711.438 188.586 m 701.676 165.016 654.535 212.156 758.578 141.445 c S
735.008 165.016 m 744.773 188.586 791.91 141.445 687.867 212.156 c S
782.148 117.875 m 772.387 94.305 725.246 141.445 829.289 70.734 c S
805.719 94.305 m 815.48 117.875 862.621 70.734 758.578 141.445 c S
Q q
834 49 68 -48.977 re W n
0 g
2.5 w
1 J
1 j
[] 0.0 d
4 M 852.859 47.164 m 843.098 23.594 795.957 70.734 900 0.023 c S
Q q
0 g
2.5 w
1 J
1 j
[] 0.0 d
4 M 876.43 23.594 m 886.191 47.164 933.332 0.023 829.289 70.734 c S
628.594 471.43 m 618.832 447.859 571.691 495 675.734 424.289 c S
652.164 447.859 m 661.93 471.43 709.07 424.289 605.023 495 c S
699.305 400.719 m 689.543 377.148 642.402 424.289 746.445 353.578 c S
722.875 377.148 m 732.641 400.719 779.781 353.578 675.734 424.289 c S
770.016 330.008 m 760.254 306.438 713.113 353.578 817.156 282.867 c S
793.586 306.438 m 803.352 330.008 850.492 282.867 746.445 353.578 c S
840.727 259.297 m 830.965 235.727 783.824 282.867 887.867 212.156 c S
864.297 235.727 m 874.062 259.297 921.203 212.156 817.156 282.867 c S
911.438 188.586 m 901.676 165.016 854.535 212.156 958.578 141.445 c S
935.008 165.016 m 944.773 188.586 991.91 141.445 887.867 212.156 c S
828.594 471.43 m 818.832 447.859 771.691 495 875.734 424.289 c S
852.164 447.859 m 861.93 471.43 909.07 424.289 805.023 495 c S
899.305 400.719 m 889.543 377.148 842.402 424.289 946.445 353.578 c S
922.875 377.148 m 932.641 400.719 979.781 353.578 875.734 424.289 c S
Q Q
showpage
%%Trailer
%%Trailer
cleartomark
countdictstack
exch sub { end } repeat
restore
%%EOF
