%!PS-Adobe-2.0 EPSF-2.0
%%BoundingBox: 0 0 905 495
%%HiResBoundingBox: 0.000000 0.000000 905.000000 495.000000
%%Creator: cairo 1.14.2 (http://cairographics.org)
%%CreationDate: Mon Sep  7 08:21:43 2015
%%DocumentData: Clean7Bit
%%LanguageLevel: 2
%%DocumentMedia: 319x175mm 905 495 0 () ()
%%EndComments
% EPSF created by ps2eps 1.68
%%BeginProlog
save
countdictstack
mark
newpath
/showpage {} def
/setpagedevice {pop} def
%%EndProlog
%%Page 1 1
%%BeginProlog
/languagelevel where
{ pop languagelevel } { 1 } ifelse
2 lt { /Helvetica findfont 12 scalefont setfont 50 500 moveto
  (This print job requires a PostScript Language Level 2 printer.) show
  showpage quit } if
/q { gsave } bind def
/Q { grestore } bind def
/cm { 6 array astore concat } bind def
/w { setlinewidth } bind def
/J { setlinecap } bind def
/j { setlinejoin } bind def
/M { setmiterlimit } bind def
/d { setdash } bind def
/m { moveto } bind def
/l { lineto } bind def
/c { curveto } bind def
/h { closepath } bind def
/re { exch dup neg 3 1 roll 5 3 roll moveto 0 rlineto
      0 exch rlineto 0 rlineto closepath } bind def
/S { stroke } bind def
/f { fill } bind def
/f* { eofill } bind def
/n { newpath } bind def
/W { clip } bind def
/W* { eoclip } bind def
/BT { } bind def
/ET { } bind def
/pdfmark where { pop globaldict /?pdfmark /exec load put }
    { globaldict begin /?pdfmark /pop load def /pdfmark
    /cleartomark load def end } ifelse
/BDC { mark 3 1 roll /BDC pdfmark } bind def
/EMC { mark /EMC pdfmark } bind def
/cairo_store_point { /cairo_point_y exch def /cairo_point_x exch def } def
/Tj { show currentpoint cairo_store_point } bind def
/TJ {
  {
    dup
    type /stringtype eq
    { show } { -0.001 mul 0 cairo_font_matrix dtransform rmoveto } ifelse
  } forall
  currentpoint cairo_store_point
} bind def
/cairo_selectfont { cairo_font_matrix aload pop pop pop 0 0 6 array astore
    cairo_font exch selectfont cairo_point_x cairo_point_y moveto } bind def
/Tf { pop /cairo_font exch def /cairo_font_matrix where
      { pop cairo_selectfont } if } bind def
/Td { matrix translate cairo_font_matrix matrix concatmatrix dup
      /cairo_font_matrix exch def dup 4 get exch 5 get cairo_store_point
      /cairo_font where { pop cairo_selectfont } if } bind def
/Tm { 2 copy 8 2 roll 6 array astore /cairo_font_matrix exch def
      cairo_store_point /cairo_font where { pop cairo_selectfont } if } bind def
/g { setgray } bind def
/rg { setrgbcolor } bind def
/d1 { setcachedevice } bind def
/cairo_set_page_size {
  % Change paper size, but only if different from previous paper size otherwise
  % duplex fails. PLRM specifies a tolerance of 5 pts when matching paper size
  % so we use the same when checking if the size changes.
  /setpagedevice where {
    pop currentpagedevice
    /PageSize known {
      2 copy
      currentpagedevice /PageSize get aload pop
      exch 4 1 roll
      sub abs 5 gt
      3 1 roll
      sub abs 5 gt
      or
    } {
      true
    } ifelse
    {
      2 array astore
      2 dict begin
        /PageSize exch def
        /ImagingBBox null def
      currentdict end
      setpagedevice
    } {
      pop pop
    } ifelse
  } {
    pop
  } ifelse
} def
%%EndProlog
%%BeginSetup
%%EndSetup
%%Page: 1 1
%%BeginPageSetup
%%PageMedia: 319x175mm
%%PageBoundingBox: 0 0 905 495
905 495 cairo_set_page_size
%%EndPageSetup
q 0 0 905 495 rectclip q
Q q
0.984314 g
0 495 905.023 -494.977 re f*
0.788235 g
1.875 w
0 J
1 j
[] 0.0 d
4 M 0 495 905.023 -494.977 re S
0 g
2.5 w
1 J
58.578 141.445 m -8.09 141.445 -21.895 188.586 11.438 188.586 c S
129.289 70.734 m 62.621 70.734 48.816 117.875 82.148 117.875 c S
Q q
134 49 68 -48.977 re W n
0 g
2.5 w
1 J
1 j
[] 0.0 d
4 M 200 0.023 m 133.332 0.023 119.527 47.164 152.859 47.164 c S
Q q
0 g
2.5 w
1 J
1 j
[] 0.0 d
4 M 46.445 353.578 m -20.219 353.578 -34.027 400.719 -0.695 400.719 c S
117.156 282.867 m 50.492 282.867 36.684 330.008 70.016 330.008 c S
187.867 212.156 m 121.203 212.156 107.395 259.297 140.727 259.297 c S
-12.133 212.156 m 54.535 212.156 68.34 165.016 35.008 165.016 c S
258.578 141.445 m 191.91 141.445 178.105 188.586 211.438 188.586 c S
58.578 141.445 m 125.246 141.445 139.051 94.305 105.719 94.305 c S
329.289 70.734 m 262.621 70.734 248.816 117.875 282.148 117.875 c S
129.289 70.734 m 195.957 70.734 209.762 23.594 176.43 23.594 c S
Q q
334 49 68 -48.977 re W n
0 g
2.5 w
1 J
1 j
[] 0.0 d
4 M 400 0.023 m 333.332 0.023 319.527 47.164 352.859 47.164 c S
Q q
0 g
2.5 w
1 J
1 j
[] 0.0 d
4 M 175.734 424.289 m 109.07 424.289 95.262 471.43 128.594 471.43 c S
-24.266 424.289 m 42.402 424.289 56.211 377.148 22.875 377.148 c S
246.445 353.578 m 179.781 353.578 165.973 400.719 199.305 400.719 c S
46.445 353.578 m 113.113 353.578 126.922 306.438 93.586 306.438 c S
317.156 282.867 m 250.492 282.867 236.684 330.008 270.016 330.008 c S
117.156 282.867 m 183.824 282.867 197.633 235.727 164.297 235.727 c S
387.867 212.156 m 321.203 212.156 307.395 259.297 340.727 259.297 c S
187.867 212.156 m 254.535 212.156 268.34 165.016 235.008 165.016 c S
458.578 141.445 m 391.91 141.445 378.105 188.586 411.438 188.586 c S
258.578 141.445 m 325.246 141.445 339.051 94.305 305.719 94.305 c S
529.289 70.734 m 462.621 70.734 448.816 117.875 482.148 117.875 c S
329.289 70.734 m 395.957 70.734 409.762 23.594 376.43 23.594 c S
Q q
534 49 68 -48.977 re W n
0 g
2.5 w
1 J
1 j
[] 0.0 d
4 M 600 0.023 m 533.332 0.023 519.527 47.164 552.859 47.164 c S
Q q
0 g
2.5 w
1 J
1 j
[] 0.0 d
4 M 105.023 495 m 171.691 495 185.5 447.859 152.164 447.859 c S
375.734 424.289 m 309.07 424.289 295.262 471.43 328.594 471.43 c S
175.734 424.289 m 242.402 424.289 256.211 377.148 222.875 377.148 c S
446.445 353.578 m 379.781 353.578 365.973 400.719 399.305 400.719 c S
246.445 353.578 m 313.113 353.578 326.922 306.438 293.586 306.438 c S
517.156 282.867 m 450.492 282.867 436.684 330.008 470.016 330.008 c S
317.156 282.867 m 383.824 282.867 397.633 235.727 364.297 235.727 c S
587.867 212.156 m 521.203 212.156 507.395 259.297 540.727 259.297 c S
387.867 212.156 m 454.535 212.156 468.34 165.016 435.008 165.016 c S
658.578 141.445 m 591.91 141.445 578.105 188.586 611.438 188.586 c S
458.578 141.445 m 525.246 141.445 539.051 94.305 505.719 94.305 c S
729.289 70.734 m 662.621 70.734 648.816 117.875 682.148 117.875 c S
529.289 70.734 m 595.957 70.734 609.762 23.594 576.43 23.594 c S
Q q
734 49 68 -48.977 re W n
0 g
2.5 w
1 J
1 j
[] 0.0 d
4 M 800 0.023 m 733.332 0.023 719.527 47.164 752.859 47.164 c S
Q q
0 g
2.5 w
1 J
1 j
[] 0.0 d
4 M 305.023 495 m 371.691 495 385.5 447.859 352.164 447.859 c S
575.734 424.289 m 509.07 424.289 495.262 471.43 528.594 471.43 c S
375.734 424.289 m 442.402 424.289 456.211 377.148 422.875 377.148 c S
646.445 353.578 m 579.781 353.578 565.973 400.719 599.305 400.719 c S
446.445 353.578 m 513.113 353.578 526.922 306.438 493.586 306.438 c S
717.156 282.867 m 650.492 282.867 636.684 330.008 670.016 330.008 c S
517.156 282.867 m 583.824 282.867 597.633 235.727 564.297 235.727 c S
787.867 212.156 m 721.203 212.156 707.395 259.297 740.727 259.297 c S
587.867 212.156 m 654.535 212.156 668.34 165.016 635.008 165.016 c S
858.578 141.445 m 791.91 141.445 778.105 188.586 811.438 188.586 c S
658.578 141.445 m 725.246 141.445 739.051 94.305 705.719 94.305 c S
929.289 70.734 m 862.621 70.734 848.816 117.875 882.148 117.875 c S
729.289 70.734 m 795.957 70.734 809.762 23.594 776.43 23.594 c S
505.023 495 m 571.691 495 585.5 447.859 552.164 447.859 c S
775.734 424.289 m 709.07 424.289 695.262 471.43 728.594 471.43 c S
575.734 424.289 m 642.402 424.289 656.211 377.148 622.875 377.148 c S
846.445 353.578 m 779.781 353.578 765.973 400.719 799.305 400.719 c S
646.445 353.578 m 713.113 353.578 726.922 306.438 693.586 306.438 c S
917.156 282.867 m 850.492 282.867 836.684 330.008 870.016 330.008 c S
717.156 282.867 m 783.824 282.867 797.633 235.727 764.297 235.727 c S
787.867 212.156 m 854.535 212.156 868.34 165.016 835.008 165.016 c S
858.578 141.445 m 925.246 141.445 939.051 94.305 905.719 94.305 c S
705.023 495 m 771.691 495 785.5 447.859 752.164 447.859 c S
775.734 424.289 m 842.402 424.289 856.211 377.148 822.875 377.148 c S
846.445 353.578 m 913.113 353.578 926.922 306.438 893.586 306.438 c S
Q Q
showpage
%%Trailer
%%Trailer
cleartomark
countdictstack
exch sub { end } repeat
restore
%%EOF
