<svg xmlns="http://www.w3.org/2000/svg" baseProfile="full" width="905.025" height="494.975" viewBox="409.6194077712559 -35.35533905932737 905.0252531694166 494.9747468305832">
    <title>
        Pattern design from http://ornamentist.org
    </title>
    <desc>
        This file is licensed under a Creative Commons CC BY 4.0 license: http://creativecommons.org/licenses/by/4.0/
    </desc>
    <defs>
        <style>
<![CDATA[

polyline {
  fill:            none;
  stroke:          black;
  stroke-linecap:  round;
  stroke-linejoin: round;
  stroke-width:    2.0pt;
}


polyline.closed {
  fill:      #d9d9d9;
  fill-rule: evenodd;
}


polygon {
  fill:            #d9d9d9;
  fill-rule:       evenodd;
  stroke:          black;
  stroke-linejoin: round;
  stroke-width:    2.0pt;
}


circle {
  fill:         #d9d9d9;
  stroke:       black;
  stroke-width: 2.0pt;
}


ellipse {
  fill:         #d9d9d9;
  stroke:       black;
  stroke-width: 2.0pt;
}


path {
  fill:            none;
  stroke:          black;
  stroke-linecap:  round;
  stroke-linejoin: round;
  stroke-width:    2.0pt;
}


path.closed {
  fill:      #d9d9d9;
  fill-rule: evenodd;
}


polygon.background,
path.background
{
  fill:   #fbfbfb;
  stroke: #c9c9c9;
  stroke-width: 1.5pt;
}

        ]]>
        </style>
    </defs>
    <clipPath id="design">
        <path d="M409.62-35.355h905.024V459.62H409.62z"/>
    </clipPath>
    <g clip-path="url(#design)" color-rendering="optimizeQuality" shape-rendering="geometricPrecision" id="graphics">
        <path class="background closed" d="M1314.645-35.355V459.62H409.62V-35.356z"/>
        <path d="M-85.355-35.355c66.666 0 80.473 47.14 47.14 47.14M185.355 35.355c-66.666 0-80.473-47.14-47.14-47.14M-14.645 35.355c66.667 0 80.474 47.14 47.14 47.14M256.066 106.066c-66.667 0-80.474-47.14-47.14-47.14M56.066 106.066c66.667 0 80.474 47.14 47.14 47.14M326.777 176.777c-66.667 0-80.474-47.14-47.14-47.14M126.777 176.777c66.666 0 80.473 47.14 47.14 47.14M397.487 247.487c-66.666 0-80.473-47.14-47.14-47.14M197.487 247.487c66.667 0 80.474 47.14 47.14 47.14M468.198 318.198c-66.667 0-80.474-47.14-47.14-47.14M268.198 318.198c66.667 0 80.474 47.14 47.14 47.14M538.91 388.91c-66.668 0-80.475-47.142-47.142-47.142M338.91 388.91c66.665 0 80.473 47.14 47.14 47.14M609.62 459.62c-66.667 0-80.474-47.14-47.14-47.14M114.645-35.355c66.666 0 80.473 47.14 47.14 47.14M385.355 35.355c-66.666 0-80.473-47.14-47.14-47.14M185.355 35.355c66.667 0 80.474 47.14 47.14 47.14M456.066 106.066c-66.667 0-80.474-47.14-47.14-47.14M256.066 106.066c66.667 0 80.474 47.14 47.14 47.14M526.777 176.777c-66.667 0-80.474-47.14-47.14-47.14M326.777 176.777c66.666 0 80.473 47.14 47.14 47.14M597.487 247.487c-66.666 0-80.473-47.14-47.14-47.14M397.487 247.487c66.667 0 80.474 47.14 47.14 47.14M668.198 318.198c-66.667 0-80.474-47.14-47.14-47.14M468.198 318.198c66.667 0 80.474 47.14 47.14 47.14M738.91 388.91c-66.668 0-80.475-47.142-47.142-47.142M538.91 388.91c66.665 0 80.473 47.14 47.14 47.14M809.62 459.62c-66.667 0-80.474-47.14-47.14-47.14M314.645-35.355c66.666 0 80.473 47.14 47.14 47.14M585.355 35.355c-66.666 0-80.473-47.14-47.14-47.14M385.355 35.355c66.667 0 80.474 47.14 47.14 47.14M656.066 106.066c-66.667 0-80.474-47.14-47.14-47.14M456.066 106.066c66.667 0 80.474 47.14 47.14 47.14M726.777 176.777c-66.667 0-80.474-47.14-47.14-47.14M526.777 176.777c66.666 0 80.473 47.14 47.14 47.14M797.487 247.487c-66.666 0-80.473-47.14-47.14-47.14M597.487 247.487c66.667 0 80.474 47.14 47.14 47.14M868.198 318.198c-66.667 0-80.474-47.14-47.14-47.14M668.198 318.198c66.667 0 80.474 47.14 47.14 47.14M938.91 388.91c-66.668 0-80.475-47.142-47.142-47.142M738.91 388.91c66.665 0 80.473 47.14 47.14 47.14M1009.62 459.62c-66.667 0-80.474-47.14-47.14-47.14M514.645-35.355c66.666 0 80.473 47.14 47.14 47.14M785.355 35.355c-66.666 0-80.473-47.14-47.14-47.14M585.355 35.355c66.667 0 80.474 47.14 47.14 47.14M856.066 106.066c-66.667 0-80.474-47.14-47.14-47.14M656.066 106.066c66.667 0 80.474 47.14 47.14 47.14M926.777 176.777c-66.667 0-80.474-47.14-47.14-47.14M726.777 176.777c66.666 0 80.473 47.14 47.14 47.14M997.487 247.487c-66.666 0-80.473-47.14-47.14-47.14M797.487 247.487c66.667 0 80.474 47.14 47.14 47.14M1068.198 318.198c-66.667 0-80.474-47.14-47.14-47.14M868.198 318.198c66.667 0 80.474 47.14 47.14 47.14M1138.91 388.91c-66.668 0-80.475-47.142-47.142-47.142M938.91 388.91c66.665 0 80.473 47.14 47.14 47.14M1209.62 459.62c-66.667 0-80.474-47.14-47.14-47.14M714.645-35.355c66.666 0 80.473 47.14 47.14 47.14M985.355 35.355c-66.666 0-80.473-47.14-47.14-47.14M785.355 35.355c66.667 0 80.474 47.14 47.14 47.14M1056.066 106.066c-66.667 0-80.474-47.14-47.14-47.14M856.066 106.066c66.667 0 80.474 47.14 47.14 47.14M1126.777 176.777c-66.667 0-80.474-47.14-47.14-47.14M926.777 176.777c66.666 0 80.473 47.14 47.14 47.14M1197.487 247.487c-66.666 0-80.473-47.14-47.14-47.14M997.487 247.487c66.667 0 80.474 47.14 47.14 47.14M1268.198 318.198c-66.667 0-80.474-47.14-47.14-47.14M1068.198 318.198c66.667 0 80.474 47.14 47.14 47.14M1338.91 388.91c-66.668 0-80.475-47.142-47.142-47.142M1138.91 388.91c66.665 0 80.473 47.14 47.14 47.14M1409.62 459.62c-66.667 0-80.474-47.14-47.14-47.14M914.645-35.355c66.666 0 80.473 47.14 47.14 47.14M1185.355 35.355c-66.666 0-80.473-47.14-47.14-47.14M985.355 35.355c66.667 0 80.474 47.14 47.14 47.14M1256.066 106.066c-66.667 0-80.474-47.14-47.14-47.14M1056.066 106.066c66.667 0 80.474 47.14 47.14 47.14M1326.777 176.777c-66.667 0-80.474-47.14-47.14-47.14M1126.777 176.777c66.666 0 80.473 47.14 47.14 47.14M1397.487 247.487c-66.666 0-80.473-47.14-47.14-47.14M1197.487 247.487c66.667 0 80.474 47.14 47.14 47.14M1468.198 318.198c-66.667 0-80.474-47.14-47.14-47.14M1268.198 318.198c66.667 0 80.474 47.14 47.14 47.14M1538.91 388.91c-66.668 0-80.475-47.142-47.142-47.142M1338.91 388.91c66.665 0 80.473 47.14 47.14 47.14M1609.62 459.62c-66.667 0-80.474-47.14-47.14-47.14M1114.645-35.355c66.666 0 80.473 47.14 47.14 47.14M1385.355 35.355c-66.666 0-80.473-47.14-47.14-47.14M1185.355 35.355c66.667 0 80.474 47.14 47.14 47.14M1456.066 106.066c-66.667 0-80.474-47.14-47.14-47.14M1256.066 106.066c66.667 0 80.474 47.14 47.14 47.14M1526.777 176.777c-66.667 0-80.474-47.14-47.14-47.14M1326.777 176.777c66.666 0 80.473 47.14 47.14 47.14M1597.487 247.487c-66.666 0-80.473-47.14-47.14-47.14M1397.487 247.487c66.667 0 80.474 47.14 47.14 47.14M1668.198 318.198c-66.667 0-80.474-47.14-47.14-47.14M1468.198 318.198c66.667 0 80.474 47.14 47.14 47.14M1738.91 388.91c-66.668 0-80.475-47.142-47.142-47.142M1538.91 388.91c66.665 0 80.473 47.14 47.14 47.14M1809.62 459.62c-66.667 0-80.474-47.14-47.14-47.14" class="bezier-3-1 open"/>
    </g>
</svg>
