%!PS-Adobe-2.0 EPSF-2.0
%%BoundingBox: 0 0 905 495
%%HiResBoundingBox: 0.000000 0.000000 905.000000 495.000000
%%Creator: cairo 1.14.2 (http://cairographics.org)
%%CreationDate: Mon Sep  7 08:21:43 2015
%%DocumentData: Clean7Bit
%%LanguageLevel: 2
%%DocumentMedia: 319x175mm 905 495 0 () ()
%%EndComments
% EPSF created by ps2eps 1.68
%%BeginProlog
save
countdictstack
mark
newpath
/showpage {} def
/setpagedevice {pop} def
%%EndProlog
%%Page 1 1
%%BeginProlog
/languagelevel where
{ pop languagelevel } { 1 } ifelse
2 lt { /Helvetica findfont 12 scalefont setfont 50 500 moveto
  (This print job requires a PostScript Language Level 2 printer.) show
  showpage quit } if
/q { gsave } bind def
/Q { grestore } bind def
/cm { 6 array astore concat } bind def
/w { setlinewidth } bind def
/J { setlinecap } bind def
/j { setlinejoin } bind def
/M { setmiterlimit } bind def
/d { setdash } bind def
/m { moveto } bind def
/l { lineto } bind def
/c { curveto } bind def
/h { closepath } bind def
/re { exch dup neg 3 1 roll 5 3 roll moveto 0 rlineto
      0 exch rlineto 0 rlineto closepath } bind def
/S { stroke } bind def
/f { fill } bind def
/f* { eofill } bind def
/n { newpath } bind def
/W { clip } bind def
/W* { eoclip } bind def
/BT { } bind def
/ET { } bind def
/pdfmark where { pop globaldict /?pdfmark /exec load put }
    { globaldict begin /?pdfmark /pop load def /pdfmark
    /cleartomark load def end } ifelse
/BDC { mark 3 1 roll /BDC pdfmark } bind def
/EMC { mark /EMC pdfmark } bind def
/cairo_store_point { /cairo_point_y exch def /cairo_point_x exch def } def
/Tj { show currentpoint cairo_store_point } bind def
/TJ {
  {
    dup
    type /stringtype eq
    { show } { -0.001 mul 0 cairo_font_matrix dtransform rmoveto } ifelse
  } forall
  currentpoint cairo_store_point
} bind def
/cairo_selectfont { cairo_font_matrix aload pop pop pop 0 0 6 array astore
    cairo_font exch selectfont cairo_point_x cairo_point_y moveto } bind def
/Tf { pop /cairo_font exch def /cairo_font_matrix where
      { pop cairo_selectfont } if } bind def
/Td { matrix translate cairo_font_matrix matrix concatmatrix dup
      /cairo_font_matrix exch def dup 4 get exch 5 get cairo_store_point
      /cairo_font where { pop cairo_selectfont } if } bind def
/Tm { 2 copy 8 2 roll 6 array astore /cairo_font_matrix exch def
      cairo_store_point /cairo_font where { pop cairo_selectfont } if } bind def
/g { setgray } bind def
/rg { setrgbcolor } bind def
/d1 { setcachedevice } bind def
/cairo_set_page_size {
  % Change paper size, but only if different from previous paper size otherwise
  % duplex fails. PLRM specifies a tolerance of 5 pts when matching paper size
  % so we use the same when checking if the size changes.
  /setpagedevice where {
    pop currentpagedevice
    /PageSize known {
      2 copy
      currentpagedevice /PageSize get aload pop
      exch 4 1 roll
      sub abs 5 gt
      3 1 roll
      sub abs 5 gt
      or
    } {
      true
    } ifelse
    {
      2 array astore
      2 dict begin
        /PageSize exch def
        /ImagingBBox null def
      currentdict end
      setpagedevice
    } {
      pop pop
    } ifelse
  } {
    pop
  } ifelse
} def
%%EndProlog
%%BeginSetup
%%EndSetup
%%Page: 1 1
%%BeginPageSetup
%%PageMedia: 319x175mm
%%PageBoundingBox: 0 0 905 495
905 495 cairo_set_page_size
%%EndPageSetup
q 0 0 905 495 rectclip q
Q q
0.984314 g
0 495 905.023 -494.977 re f*
0.788235 g
1.875 w
0 J
1 j
[] 0.0 d
4 M 0 495 905.023 -494.977 re S
0 g
2.5 w
1 J
-51.184 117.875 m -35.473 102.164 -8.645 86.449 29.289 70.734 c S
39.051 94.305 m 23.34 110.02 -3.484 125.734 -41.422 141.445 c S
Q q
18 49 84 -48.977 re W n
0 g
2.5 w
1 J
1 j
[] 0.0 d
4 M 19.527 47.164 m 35.238 31.453 62.062 15.738 100 0.023 c S
Q q
0 g
2.5 w
1 J
1 j
[] 0.0 d
4 M 109.762 23.594 m 94.051 39.309 67.227 55.023 29.289 70.734 c S
-63.316 330.008 m -47.602 314.297 -20.777 298.582 17.156 282.867 c S
26.922 306.438 m 11.207 322.152 -15.617 337.863 -53.555 353.578 c S
7.395 259.297 m 23.109 243.586 49.934 227.871 87.867 212.156 c S
97.633 235.727 m 81.918 251.441 55.094 267.156 17.156 282.867 c S
78.105 188.586 m 93.816 172.875 120.645 157.16 158.578 141.445 c S
168.34 165.016 m 152.629 180.73 125.805 196.445 87.867 212.156 c S
148.816 117.875 m 164.527 102.164 191.355 86.449 229.289 70.734 c S
239.051 94.305 m 223.34 110.02 196.516 125.734 158.578 141.445 c S
Q q
218 49 84 -48.977 re W n
0 g
2.5 w
1 J
1 j
[] 0.0 d
4 M 219.527 47.164 m 235.238 31.453 262.062 15.738 300 0.023 c S
Q q
0 g
2.5 w
1 J
1 j
[] 0.0 d
4 M 309.762 23.594 m 294.051 39.309 267.227 55.023 229.289 70.734 c S
-4.738 471.43 m 10.977 455.715 37.801 440.004 75.734 424.289 c S
85.5 447.859 m 69.785 463.574 42.961 479.285 5.023 495 c S
65.973 400.719 m 81.688 385.004 108.512 369.293 146.445 353.578 c S
156.211 377.148 m 140.496 392.863 113.672 408.574 75.734 424.289 c S
136.684 330.008 m 152.398 314.297 179.223 298.582 217.156 282.867 c S
226.922 306.438 m 211.207 322.152 184.383 337.863 146.445 353.578 c S
207.395 259.297 m 223.109 243.586 249.934 227.871 287.867 212.156 c S
297.633 235.727 m 281.918 251.441 255.094 267.156 217.156 282.867 c S
278.105 188.586 m 293.816 172.875 320.645 157.16 358.578 141.445 c S
368.34 165.016 m 352.629 180.73 325.805 196.445 287.867 212.156 c S
348.816 117.875 m 364.527 102.164 391.355 86.449 429.289 70.734 c S
439.051 94.305 m 423.34 110.02 396.516 125.734 358.578 141.445 c S
Q q
418 49 84 -48.977 re W n
0 g
2.5 w
1 J
1 j
[] 0.0 d
4 M 419.527 47.164 m 435.238 31.453 462.062 15.738 500 0.023 c S
Q q
0 g
2.5 w
1 J
1 j
[] 0.0 d
4 M 509.762 23.594 m 494.051 39.309 467.227 55.023 429.289 70.734 c S
195.262 471.43 m 210.977 455.715 237.801 440.004 275.734 424.289 c S
285.5 447.859 m 269.785 463.574 242.961 479.285 205.023 495 c S
265.973 400.719 m 281.688 385.004 308.512 369.293 346.445 353.578 c S
356.211 377.148 m 340.496 392.863 313.672 408.574 275.734 424.289 c S
336.684 330.008 m 352.398 314.297 379.223 298.582 417.156 282.867 c S
426.922 306.438 m 411.207 322.152 384.383 337.863 346.445 353.578 c S
407.395 259.297 m 423.109 243.586 449.934 227.871 487.867 212.156 c S
497.633 235.727 m 481.918 251.441 455.094 267.156 417.156 282.867 c S
478.105 188.586 m 493.816 172.875 520.645 157.16 558.578 141.445 c S
568.34 165.016 m 552.629 180.73 525.805 196.445 487.867 212.156 c S
548.816 117.875 m 564.527 102.164 591.355 86.449 629.289 70.734 c S
639.051 94.305 m 623.34 110.02 596.516 125.734 558.578 141.445 c S
Q q
618 49 84 -48.977 re W n
0 g
2.5 w
1 J
1 j
[] 0.0 d
4 M 619.527 47.164 m 635.238 31.453 662.062 15.738 700 0.023 c S
Q q
0 g
2.5 w
1 J
1 j
[] 0.0 d
4 M 709.762 23.594 m 694.051 39.309 667.227 55.023 629.289 70.734 c S
395.262 471.43 m 410.977 455.715 437.801 440.004 475.734 424.289 c S
485.5 447.859 m 469.785 463.574 442.961 479.285 405.023 495 c S
465.973 400.719 m 481.688 385.004 508.512 369.293 546.445 353.578 c S
556.211 377.148 m 540.496 392.863 513.672 408.574 475.734 424.289 c S
536.684 330.008 m 552.398 314.297 579.223 298.582 617.156 282.867 c S
626.922 306.438 m 611.207 322.152 584.383 337.863 546.445 353.578 c S
607.395 259.297 m 623.109 243.586 649.934 227.871 687.867 212.156 c S
697.633 235.727 m 681.918 251.441 655.094 267.156 617.156 282.867 c S
678.105 188.586 m 693.816 172.875 720.645 157.16 758.578 141.445 c S
768.34 165.016 m 752.629 180.73 725.805 196.445 687.867 212.156 c S
748.816 117.875 m 764.527 102.164 791.355 86.449 829.289 70.734 c S
839.051 94.305 m 823.34 110.02 796.516 125.734 758.578 141.445 c S
Q q
818 49 84 -48.977 re W n
0 g
2.5 w
1 J
1 j
[] 0.0 d
4 M 819.527 47.164 m 835.238 31.453 862.062 15.738 900 0.023 c S
Q q
0 g
2.5 w
1 J
1 j
[] 0.0 d
4 M 909.762 23.594 m 894.051 39.309 867.227 55.023 829.289 70.734 c S
595.262 471.43 m 610.977 455.715 637.801 440.004 675.734 424.289 c S
685.5 447.859 m 669.785 463.574 642.961 479.285 605.023 495 c S
665.973 400.719 m 681.688 385.004 708.512 369.293 746.445 353.578 c S
756.211 377.148 m 740.496 392.863 713.672 408.574 675.734 424.289 c S
736.684 330.008 m 752.398 314.297 779.223 298.582 817.156 282.867 c S
826.922 306.438 m 811.207 322.152 784.383 337.863 746.445 353.578 c S
807.395 259.297 m 823.109 243.586 849.934 227.871 887.867 212.156 c S
897.633 235.727 m 881.918 251.441 855.094 267.156 817.156 282.867 c S
878.105 188.586 m 893.816 172.875 920.645 157.16 958.578 141.445 c S
968.34 165.016 m 952.629 180.73 925.805 196.445 887.867 212.156 c S
795.262 471.43 m 810.977 455.715 837.801 440.004 875.734 424.289 c S
885.5 447.859 m 869.785 463.574 842.961 479.285 805.023 495 c S
865.973 400.719 m 881.688 385.004 908.512 369.293 946.445 353.578 c S
956.211 377.148 m 940.496 392.863 913.672 408.574 875.734 424.289 c S
Q Q
showpage
%%Trailer
%%Trailer
cleartomark
countdictstack
exch sub { end } repeat
restore
%%EOF
