%!PS-Adobe-2.0 EPSF-2.0
%%BoundingBox: 0 0 905 495
%%HiResBoundingBox: 0.000000 0.000000 905.000000 495.000000
%%Creator: cairo 1.14.2 (http://cairographics.org)
%%CreationDate: Mon Sep  7 08:21:43 2015
%%DocumentData: Clean7Bit
%%LanguageLevel: 2
%%DocumentMedia: 319x175mm 905 495 0 () ()
%%EndComments
% EPSF created by ps2eps 1.68
%%BeginProlog
save
countdictstack
mark
newpath
/showpage {} def
/setpagedevice {pop} def
%%EndProlog
%%Page 1 1
%%BeginProlog
/languagelevel where
{ pop languagelevel } { 1 } ifelse
2 lt { /Helvetica findfont 12 scalefont setfont 50 500 moveto
  (This print job requires a PostScript Language Level 2 printer.) show
  showpage quit } if
/q { gsave } bind def
/Q { grestore } bind def
/cm { 6 array astore concat } bind def
/w { setlinewidth } bind def
/J { setlinecap } bind def
/j { setlinejoin } bind def
/M { setmiterlimit } bind def
/d { setdash } bind def
/m { moveto } bind def
/l { lineto } bind def
/c { curveto } bind def
/h { closepath } bind def
/re { exch dup neg 3 1 roll 5 3 roll moveto 0 rlineto
      0 exch rlineto 0 rlineto closepath } bind def
/S { stroke } bind def
/f { fill } bind def
/f* { eofill } bind def
/n { newpath } bind def
/W { clip } bind def
/W* { eoclip } bind def
/BT { } bind def
/ET { } bind def
/pdfmark where { pop globaldict /?pdfmark /exec load put }
    { globaldict begin /?pdfmark /pop load def /pdfmark
    /cleartomark load def end } ifelse
/BDC { mark 3 1 roll /BDC pdfmark } bind def
/EMC { mark /EMC pdfmark } bind def
/cairo_store_point { /cairo_point_y exch def /cairo_point_x exch def } def
/Tj { show currentpoint cairo_store_point } bind def
/TJ {
  {
    dup
    type /stringtype eq
    { show } { -0.001 mul 0 cairo_font_matrix dtransform rmoveto } ifelse
  } forall
  currentpoint cairo_store_point
} bind def
/cairo_selectfont { cairo_font_matrix aload pop pop pop 0 0 6 array astore
    cairo_font exch selectfont cairo_point_x cairo_point_y moveto } bind def
/Tf { pop /cairo_font exch def /cairo_font_matrix where
      { pop cairo_selectfont } if } bind def
/Td { matrix translate cairo_font_matrix matrix concatmatrix dup
      /cairo_font_matrix exch def dup 4 get exch 5 get cairo_store_point
      /cairo_font where { pop cairo_selectfont } if } bind def
/Tm { 2 copy 8 2 roll 6 array astore /cairo_font_matrix exch def
      cairo_store_point /cairo_font where { pop cairo_selectfont } if } bind def
/g { setgray } bind def
/rg { setrgbcolor } bind def
/d1 { setcachedevice } bind def
/cairo_set_page_size {
  % Change paper size, but only if different from previous paper size otherwise
  % duplex fails. PLRM specifies a tolerance of 5 pts when matching paper size
  % so we use the same when checking if the size changes.
  /setpagedevice where {
    pop currentpagedevice
    /PageSize known {
      2 copy
      currentpagedevice /PageSize get aload pop
      exch 4 1 roll
      sub abs 5 gt
      3 1 roll
      sub abs 5 gt
      or
    } {
      true
    } ifelse
    {
      2 array astore
      2 dict begin
        /PageSize exch def
        /ImagingBBox null def
      currentdict end
      setpagedevice
    } {
      pop pop
    } ifelse
  } {
    pop
  } ifelse
} def
%%EndProlog
%%BeginSetup
%%EndSetup
%%Page: 1 1
%%BeginPageSetup
%%PageMedia: 319x175mm
%%PageBoundingBox: 0 0 905 495
905 495 cairo_set_page_size
%%EndPageSetup
q 0 0 905 495 rectclip q
Q q
0.984314 g
0 495 905.023 -494.977 re f*
0.788235 g
1.875 w
0 J
1 j
[] 0.0 d
4 M 0 495 905.023 -494.977 re S
0 g
2.5 w
1 J
-88.562 188.586 m -55.227 188.586 35.008 165.016 -8.09 141.445 c S
5.719 94.305 m -27.613 94.305 -117.852 117.875 -74.754 141.445 c S
-17.852 117.875 m 15.48 117.875 105.719 94.305 62.621 70.734 c S
76.43 23.594 m 43.098 23.594 -47.141 47.164 -4.043 70.734 c S
Q q
51 49 96 -48.977 re W n
0 g
2.5 w
1 J
1 j
[] 0.0 d
4 M 52.859 47.164 m 86.191 47.164 176.43 23.594 133.332 0.023 c S
Q q
0 g
2.5 w
1 J
1 j
[] 0.0 d
4 M -29.984 330.008 m 3.352 330.008 93.586 306.438 50.492 282.867 c S
64.297 235.727 m 30.965 235.727 -59.273 259.297 -16.176 282.867 c S
40.727 259.297 m 74.062 259.297 164.297 235.727 121.203 212.156 c S
135.008 165.016 m 101.676 165.016 11.438 188.586 54.535 212.156 c S
111.438 188.586 m 144.773 188.586 235.008 165.016 191.91 141.445 c S
205.719 94.305 m 172.387 94.305 82.148 117.875 125.246 141.445 c S
182.148 117.875 m 215.48 117.875 305.719 94.305 262.621 70.734 c S
276.43 23.594 m 243.098 23.594 152.859 47.164 195.957 70.734 c S
Q q
251 49 96 -48.977 re W n
0 g
2.5 w
1 J
1 j
[] 0.0 d
4 M 252.859 47.164 m 286.191 47.164 376.43 23.594 333.332 0.023 c S
Q q
0 g
2.5 w
1 J
1 j
[] 0.0 d
4 M 52.164 447.859 m 18.832 447.859 -71.406 471.43 -28.309 495 c S
28.594 471.43 m 61.93 471.43 152.164 447.859 109.07 424.289 c S
122.875 377.148 m 89.543 377.148 -0.695 400.719 42.402 424.289 c S
99.305 400.719 m 132.641 400.719 222.875 377.148 179.781 353.578 c S
193.586 306.438 m 160.254 306.438 70.016 330.008 113.113 353.578 c S
170.016 330.008 m 203.352 330.008 293.586 306.438 250.492 282.867 c S
264.297 235.727 m 230.965 235.727 140.727 259.297 183.824 282.867 c S
240.727 259.297 m 274.062 259.297 364.297 235.727 321.203 212.156 c S
335.008 165.016 m 301.676 165.016 211.438 188.586 254.535 212.156 c S
311.438 188.586 m 344.773 188.586 435.008 165.016 391.91 141.445 c S
405.719 94.305 m 372.387 94.305 282.148 117.875 325.246 141.445 c S
382.148 117.875 m 415.48 117.875 505.719 94.305 462.621 70.734 c S
476.43 23.594 m 443.098 23.594 352.859 47.164 395.957 70.734 c S
Q q
451 49 96 -48.977 re W n
0 g
2.5 w
1 J
1 j
[] 0.0 d
4 M 452.859 47.164 m 486.191 47.164 576.43 23.594 533.332 0.023 c S
Q q
0 g
2.5 w
1 J
1 j
[] 0.0 d
4 M 252.164 447.859 m 218.832 447.859 128.594 471.43 171.691 495 c S
228.594 471.43 m 261.93 471.43 352.164 447.859 309.07 424.289 c S
322.875 377.148 m 289.543 377.148 199.305 400.719 242.402 424.289 c S
299.305 400.719 m 332.641 400.719 422.875 377.148 379.781 353.578 c S
393.586 306.438 m 360.254 306.438 270.016 330.008 313.113 353.578 c S
370.016 330.008 m 403.352 330.008 493.586 306.438 450.492 282.867 c S
464.297 235.727 m 430.965 235.727 340.727 259.297 383.824 282.867 c S
440.727 259.297 m 474.062 259.297 564.297 235.727 521.203 212.156 c S
535.008 165.016 m 501.676 165.016 411.438 188.586 454.535 212.156 c S
511.438 188.586 m 544.773 188.586 635.008 165.016 591.91 141.445 c S
605.719 94.305 m 572.387 94.305 482.148 117.875 525.246 141.445 c S
582.148 117.875 m 615.48 117.875 705.719 94.305 662.621 70.734 c S
676.43 23.594 m 643.098 23.594 552.859 47.164 595.957 70.734 c S
Q q
651 49 96 -48.977 re W n
0 g
2.5 w
1 J
1 j
[] 0.0 d
4 M 652.859 47.164 m 686.191 47.164 776.43 23.594 733.332 0.023 c S
Q q
0 g
2.5 w
1 J
1 j
[] 0.0 d
4 M 452.164 447.859 m 418.832 447.859 328.594 471.43 371.691 495 c S
428.594 471.43 m 461.93 471.43 552.164 447.859 509.07 424.289 c S
522.875 377.148 m 489.543 377.148 399.305 400.719 442.402 424.289 c S
499.305 400.719 m 532.641 400.719 622.875 377.148 579.781 353.578 c S
593.586 306.438 m 560.254 306.438 470.016 330.008 513.113 353.578 c S
570.016 330.008 m 603.352 330.008 693.586 306.438 650.492 282.867 c S
664.297 235.727 m 630.965 235.727 540.727 259.297 583.824 282.867 c S
640.727 259.297 m 674.062 259.297 764.297 235.727 721.203 212.156 c S
735.008 165.016 m 701.676 165.016 611.438 188.586 654.535 212.156 c S
711.438 188.586 m 744.773 188.586 835.008 165.016 791.91 141.445 c S
805.719 94.305 m 772.387 94.305 682.148 117.875 725.246 141.445 c S
782.148 117.875 m 815.48 117.875 905.719 94.305 862.621 70.734 c S
876.43 23.594 m 843.098 23.594 752.859 47.164 795.957 70.734 c S
Q q
851 49 54 -48.977 re W n
0 g
2.5 w
1 J
1 j
[] 0.0 d
4 M 852.859 47.164 m 886.191 47.164 976.43 23.594 933.332 0.023 c S
Q q
0 g
2.5 w
1 J
1 j
[] 0.0 d
4 M 652.164 447.859 m 618.832 447.859 528.594 471.43 571.691 495 c S
628.594 471.43 m 661.93 471.43 752.164 447.859 709.07 424.289 c S
722.875 377.148 m 689.543 377.148 599.305 400.719 642.402 424.289 c S
699.305 400.719 m 732.641 400.719 822.875 377.148 779.781 353.578 c S
793.586 306.438 m 760.254 306.438 670.016 330.008 713.113 353.578 c S
770.016 330.008 m 803.352 330.008 893.586 306.438 850.492 282.867 c S
864.297 235.727 m 830.965 235.727 740.727 259.297 783.824 282.867 c S
840.727 259.297 m 874.062 259.297 964.297 235.727 921.203 212.156 c S
935.008 165.016 m 901.676 165.016 811.438 188.586 854.535 212.156 c S
852.164 447.859 m 818.832 447.859 728.594 471.43 771.691 495 c S
828.594 471.43 m 861.93 471.43 952.164 447.859 909.07 424.289 c S
922.875 377.148 m 889.543 377.148 799.305 400.719 842.402 424.289 c S
899.305 400.719 m 932.641 400.719 1022.875 377.148 979.781 353.578 c S
993.586 306.438 m 960.254 306.438 870.016 330.008 913.113 353.578 c S
Q Q
showpage
%%Trailer
%%Trailer
cleartomark
countdictstack
exch sub { end } repeat
restore
%%EOF
