%!PS-Adobe-2.0 EPSF-2.0
%%BoundingBox: 0 0 905 495
%%HiResBoundingBox: 0.000000 0.000000 905.000000 495.000000
%%Creator: cairo 1.14.2 (http://cairographics.org)
%%CreationDate: Mon Sep  7 08:21:43 2015
%%DocumentData: Clean7Bit
%%LanguageLevel: 2
%%DocumentMedia: 319x175mm 905 495 0 () ()
%%EndComments
% EPSF created by ps2eps 1.68
%%BeginProlog
save
countdictstack
mark
newpath
/showpage {} def
/setpagedevice {pop} def
%%EndProlog
%%Page 1 1
%%BeginProlog
/languagelevel where
{ pop languagelevel } { 1 } ifelse
2 lt { /Helvetica findfont 12 scalefont setfont 50 500 moveto
  (This print job requires a PostScript Language Level 2 printer.) show
  showpage quit } if
/q { gsave } bind def
/Q { grestore } bind def
/cm { 6 array astore concat } bind def
/w { setlinewidth } bind def
/J { setlinecap } bind def
/j { setlinejoin } bind def
/M { setmiterlimit } bind def
/d { setdash } bind def
/m { moveto } bind def
/l { lineto } bind def
/c { curveto } bind def
/h { closepath } bind def
/re { exch dup neg 3 1 roll 5 3 roll moveto 0 rlineto
      0 exch rlineto 0 rlineto closepath } bind def
/S { stroke } bind def
/f { fill } bind def
/f* { eofill } bind def
/n { newpath } bind def
/W { clip } bind def
/W* { eoclip } bind def
/BT { } bind def
/ET { } bind def
/pdfmark where { pop globaldict /?pdfmark /exec load put }
    { globaldict begin /?pdfmark /pop load def /pdfmark
    /cleartomark load def end } ifelse
/BDC { mark 3 1 roll /BDC pdfmark } bind def
/EMC { mark /EMC pdfmark } bind def
/cairo_store_point { /cairo_point_y exch def /cairo_point_x exch def } def
/Tj { show currentpoint cairo_store_point } bind def
/TJ {
  {
    dup
    type /stringtype eq
    { show } { -0.001 mul 0 cairo_font_matrix dtransform rmoveto } ifelse
  } forall
  currentpoint cairo_store_point
} bind def
/cairo_selectfont { cairo_font_matrix aload pop pop pop 0 0 6 array astore
    cairo_font exch selectfont cairo_point_x cairo_point_y moveto } bind def
/Tf { pop /cairo_font exch def /cairo_font_matrix where
      { pop cairo_selectfont } if } bind def
/Td { matrix translate cairo_font_matrix matrix concatmatrix dup
      /cairo_font_matrix exch def dup 4 get exch 5 get cairo_store_point
      /cairo_font where { pop cairo_selectfont } if } bind def
/Tm { 2 copy 8 2 roll 6 array astore /cairo_font_matrix exch def
      cairo_store_point /cairo_font where { pop cairo_selectfont } if } bind def
/g { setgray } bind def
/rg { setrgbcolor } bind def
/d1 { setcachedevice } bind def
/cairo_set_page_size {
  % Change paper size, but only if different from previous paper size otherwise
  % duplex fails. PLRM specifies a tolerance of 5 pts when matching paper size
  % so we use the same when checking if the size changes.
  /setpagedevice where {
    pop currentpagedevice
    /PageSize known {
      2 copy
      currentpagedevice /PageSize get aload pop
      exch 4 1 roll
      sub abs 5 gt
      3 1 roll
      sub abs 5 gt
      or
    } {
      true
    } ifelse
    {
      2 array astore
      2 dict begin
        /PageSize exch def
        /ImagingBBox null def
      currentdict end
      setpagedevice
    } {
      pop pop
    } ifelse
  } {
    pop
  } ifelse
} def
%%EndProlog
%%BeginSetup
%%EndSetup
%%Page: 1 1
%%BeginPageSetup
%%PageMedia: 319x175mm
%%PageBoundingBox: 0 0 905 495
905 495 cairo_set_page_size
%%EndPageSetup
q 0 0 905 495 rectclip q
Q q
0.984314 g
0 495 905.023 -494.977 re f*
0.788235 g
1.875 w
0 J
1 j
[] 0.0 d
4 M 0 495 905.023 -494.977 re S
0 g
2.5 w
1 J
-78.797 212.156 m -69.594 180.73 -34.914 157.16 25.246 141.445 c S
-8.09 141.445 m 1.117 110.02 35.797 86.449 95.957 70.734 c S
Q q
0 72 68 -71.977 re W n
0 g
2.5 w
1 J
1 j
[] 0.0 d
4 M 66.668 0.023 m 57.461 31.453 22.781 55.023 -37.379 70.734 c S
Q q
61 72 107 -71.977 re W n
0 g
2.5 w
1 J
1 j
[] 0.0 d
4 M 62.621 70.734 m 71.828 39.309 106.508 15.738 166.668 0.023 c S
Q q
0 g
2.5 w
1 J
1 j
[] 0.0 d
4 M -90.93 424.289 m -81.727 392.863 -47.043 369.293 13.113 353.578 c S
-20.219 353.578 m -11.016 322.152 23.668 298.582 83.824 282.867 c S
54.535 212.156 m 45.328 243.586 10.648 267.156 -49.508 282.867 c S
50.492 282.867 m 59.695 251.441 94.375 227.871 154.535 212.156 c S
125.246 141.445 m 116.039 172.875 81.359 196.445 21.203 212.156 c S
121.203 212.156 m 130.406 180.73 165.086 157.16 225.246 141.445 c S
195.957 70.734 m 186.75 102.164 152.07 125.734 91.91 141.445 c S
191.91 141.445 m 201.117 110.02 235.797 86.449 295.957 70.734 c S
Q q
161 72 107 -71.977 re W n
0 g
2.5 w
1 J
1 j
[] 0.0 d
4 M 266.668 0.023 m 257.461 31.453 222.781 55.023 162.621 70.734 c S
Q q
261 72 107 -71.977 re W n
0 g
2.5 w
1 J
1 j
[] 0.0 d
4 M 262.621 70.734 m 271.828 39.309 306.508 15.738 366.668 0.023 c S
Q q
0 g
2.5 w
1 J
1 j
[] 0.0 d
4 M 42.402 424.289 m 33.199 455.715 -1.484 479.285 -61.641 495 c S
38.359 495 m 47.562 463.574 82.246 440.004 142.402 424.289 c S
113.113 353.578 m 103.91 385.004 69.227 408.574 9.07 424.289 c S
109.07 424.289 m 118.273 392.863 152.957 369.293 213.113 353.578 c S
183.824 282.867 m 174.621 314.297 139.938 337.863 79.781 353.578 c S
179.781 353.578 m 188.984 322.152 223.668 298.582 283.824 282.867 c S
254.535 212.156 m 245.328 243.586 210.648 267.156 150.492 282.867 c S
250.492 282.867 m 259.695 251.441 294.375 227.871 354.535 212.156 c S
325.246 141.445 m 316.039 172.875 281.359 196.445 221.203 212.156 c S
321.203 212.156 m 330.406 180.73 365.086 157.16 425.246 141.445 c S
395.957 70.734 m 386.75 102.164 352.07 125.734 291.91 141.445 c S
391.91 141.445 m 401.117 110.02 435.797 86.449 495.957 70.734 c S
Q q
361 72 107 -71.977 re W n
0 g
2.5 w
1 J
1 j
[] 0.0 d
4 M 466.668 0.023 m 457.461 31.453 422.781 55.023 362.621 70.734 c S
Q q
461 72 107 -71.977 re W n
0 g
2.5 w
1 J
1 j
[] 0.0 d
4 M 462.621 70.734 m 471.828 39.309 506.508 15.738 566.668 0.023 c S
Q q
0 g
2.5 w
1 J
1 j
[] 0.0 d
4 M 242.402 424.289 m 233.199 455.715 198.516 479.285 138.359 495 c S
238.359 495 m 247.562 463.574 282.246 440.004 342.402 424.289 c S
313.113 353.578 m 303.91 385.004 269.227 408.574 209.07 424.289 c S
309.07 424.289 m 318.273 392.863 352.957 369.293 413.113 353.578 c S
383.824 282.867 m 374.621 314.297 339.938 337.863 279.781 353.578 c S
379.781 353.578 m 388.984 322.152 423.668 298.582 483.824 282.867 c S
454.535 212.156 m 445.328 243.586 410.648 267.156 350.492 282.867 c S
450.492 282.867 m 459.695 251.441 494.375 227.871 554.535 212.156 c S
525.246 141.445 m 516.039 172.875 481.359 196.445 421.203 212.156 c S
521.203 212.156 m 530.406 180.73 565.086 157.16 625.246 141.445 c S
595.957 70.734 m 586.75 102.164 552.07 125.734 491.91 141.445 c S
591.91 141.445 m 601.117 110.02 635.797 86.449 695.957 70.734 c S
Q q
561 72 107 -71.977 re W n
0 g
2.5 w
1 J
1 j
[] 0.0 d
4 M 666.668 0.023 m 657.461 31.453 622.781 55.023 562.621 70.734 c S
Q q
661 72 107 -71.977 re W n
0 g
2.5 w
1 J
1 j
[] 0.0 d
4 M 662.621 70.734 m 671.828 39.309 706.508 15.738 766.668 0.023 c S
Q q
0 g
2.5 w
1 J
1 j
[] 0.0 d
4 M 442.402 424.289 m 433.199 455.715 398.516 479.285 338.359 495 c S
438.359 495 m 447.562 463.574 482.246 440.004 542.402 424.289 c S
513.113 353.578 m 503.91 385.004 469.227 408.574 409.07 424.289 c S
509.07 424.289 m 518.273 392.863 552.957 369.293 613.113 353.578 c S
583.824 282.867 m 574.621 314.297 539.938 337.863 479.781 353.578 c S
579.781 353.578 m 588.984 322.152 623.668 298.582 683.824 282.867 c S
654.535 212.156 m 645.328 243.586 610.648 267.156 550.492 282.867 c S
650.492 282.867 m 659.695 251.441 694.375 227.871 754.535 212.156 c S
725.246 141.445 m 716.039 172.875 681.359 196.445 621.203 212.156 c S
721.203 212.156 m 730.406 180.73 765.086 157.16 825.246 141.445 c S
795.957 70.734 m 786.75 102.164 752.07 125.734 691.91 141.445 c S
791.91 141.445 m 801.117 110.02 835.797 86.449 895.957 70.734 c S
Q q
761 72 107 -71.977 re W n
0 g
2.5 w
1 J
1 j
[] 0.0 d
4 M 866.668 0.023 m 857.461 31.453 822.781 55.023 762.621 70.734 c S
Q q
861 72 44 -71.977 re W n
0 g
2.5 w
1 J
1 j
[] 0.0 d
4 M 862.621 70.734 m 871.828 39.309 906.508 15.738 966.668 0.023 c S
Q q
0 g
2.5 w
1 J
1 j
[] 0.0 d
4 M 642.402 424.289 m 633.199 455.715 598.516 479.285 538.359 495 c S
638.359 495 m 647.562 463.574 682.246 440.004 742.402 424.289 c S
713.113 353.578 m 703.91 385.004 669.227 408.574 609.07 424.289 c S
709.07 424.289 m 718.273 392.863 752.957 369.293 813.113 353.578 c S
783.824 282.867 m 774.621 314.297 739.938 337.863 679.781 353.578 c S
779.781 353.578 m 788.984 322.152 823.668 298.582 883.824 282.867 c S
854.535 212.156 m 845.328 243.586 810.648 267.156 750.492 282.867 c S
850.492 282.867 m 859.695 251.441 894.375 227.871 954.535 212.156 c S
925.246 141.445 m 916.039 172.875 881.359 196.445 821.203 212.156 c S
995.957 70.734 m 986.75 102.164 952.07 125.734 891.91 141.445 c S
842.402 424.289 m 833.199 455.715 798.516 479.285 738.359 495 c S
838.359 495 m 847.562 463.574 882.246 440.004 942.402 424.289 c S
913.113 353.578 m 903.91 385.004 869.227 408.574 809.07 424.289 c S
983.824 282.867 m 974.621 314.297 939.938 337.863 879.781 353.578 c S
Q Q
showpage
%%Trailer
%%Trailer
cleartomark
countdictstack
exch sub { end } repeat
restore
%%EOF
