%!PS-Adobe-2.0 EPSF-2.0
%%BoundingBox: 0 0 905 495
%%HiResBoundingBox: 0.000000 0.000000 905.000000 495.000000
%%Creator: cairo 1.14.2 (http://cairographics.org)
%%CreationDate: Mon Sep  7 08:21:43 2015
%%DocumentData: Clean7Bit
%%LanguageLevel: 2
%%DocumentMedia: 319x175mm 905 495 0 () ()
%%EndComments
% EPSF created by ps2eps 1.68
%%BeginProlog
save
countdictstack
mark
newpath
/showpage {} def
/setpagedevice {pop} def
%%EndProlog
%%Page 1 1
%%BeginProlog
/languagelevel where
{ pop languagelevel } { 1 } ifelse
2 lt { /Helvetica findfont 12 scalefont setfont 50 500 moveto
  (This print job requires a PostScript Language Level 2 printer.) show
  showpage quit } if
/q { gsave } bind def
/Q { grestore } bind def
/cm { 6 array astore concat } bind def
/w { setlinewidth } bind def
/J { setlinecap } bind def
/j { setlinejoin } bind def
/M { setmiterlimit } bind def
/d { setdash } bind def
/m { moveto } bind def
/l { lineto } bind def
/c { curveto } bind def
/h { closepath } bind def
/re { exch dup neg 3 1 roll 5 3 roll moveto 0 rlineto
      0 exch rlineto 0 rlineto closepath } bind def
/S { stroke } bind def
/f { fill } bind def
/f* { eofill } bind def
/n { newpath } bind def
/W { clip } bind def
/W* { eoclip } bind def
/BT { } bind def
/ET { } bind def
/pdfmark where { pop globaldict /?pdfmark /exec load put }
    { globaldict begin /?pdfmark /pop load def /pdfmark
    /cleartomark load def end } ifelse
/BDC { mark 3 1 roll /BDC pdfmark } bind def
/EMC { mark /EMC pdfmark } bind def
/cairo_store_point { /cairo_point_y exch def /cairo_point_x exch def } def
/Tj { show currentpoint cairo_store_point } bind def
/TJ {
  {
    dup
    type /stringtype eq
    { show } { -0.001 mul 0 cairo_font_matrix dtransform rmoveto } ifelse
  } forall
  currentpoint cairo_store_point
} bind def
/cairo_selectfont { cairo_font_matrix aload pop pop pop 0 0 6 array astore
    cairo_font exch selectfont cairo_point_x cairo_point_y moveto } bind def
/Tf { pop /cairo_font exch def /cairo_font_matrix where
      { pop cairo_selectfont } if } bind def
/Td { matrix translate cairo_font_matrix matrix concatmatrix dup
      /cairo_font_matrix exch def dup 4 get exch 5 get cairo_store_point
      /cairo_font where { pop cairo_selectfont } if } bind def
/Tm { 2 copy 8 2 roll 6 array astore /cairo_font_matrix exch def
      cairo_store_point /cairo_font where { pop cairo_selectfont } if } bind def
/g { setgray } bind def
/rg { setrgbcolor } bind def
/d1 { setcachedevice } bind def
/cairo_set_page_size {
  % Change paper size, but only if different from previous paper size otherwise
  % duplex fails. PLRM specifies a tolerance of 5 pts when matching paper size
  % so we use the same when checking if the size changes.
  /setpagedevice where {
    pop currentpagedevice
    /PageSize known {
      2 copy
      currentpagedevice /PageSize get aload pop
      exch 4 1 roll
      sub abs 5 gt
      3 1 roll
      sub abs 5 gt
      or
    } {
      true
    } ifelse
    {
      2 array astore
      2 dict begin
        /PageSize exch def
        /ImagingBBox null def
      currentdict end
      setpagedevice
    } {
      pop pop
    } ifelse
  } {
    pop
  } ifelse
} def
%%EndProlog
%%BeginSetup
%%EndSetup
%%Page: 1 1
%%BeginPageSetup
%%PageMedia: 319x175mm
%%PageBoundingBox: 0 0 905 495
905 495 cairo_set_page_size
%%EndPageSetup
q 0 0 905 495 rectclip q
Q q
0.984314 g
0 495 905.023 -494.977 re f*
0.788235 g
1.875 w
0 J
1 j
[] 0.0 d
4 M 0 495 905.023 -494.977 re S
0 g
2.5 w
1 J
-112.133 212.156 m -12.133 212.156 11.438 188.586 25.246 141.445 c S
29.289 70.734 m -70.711 70.734 -94.281 94.305 -108.09 141.445 c S
-41.422 141.445 m 58.578 141.445 82.148 117.875 95.957 70.734 c S
Q q
0 72 102 -71.977 re W n
0 g
2.5 w
1 J
1 j
[] 0.0 d
4 M 100 0.023 m 0 0.023 -23.57 23.594 -37.379 70.734 c S
Q q
28 72 140 -71.977 re W n
0 g
2.5 w
1 J
1 j
[] 0.0 d
4 M 29.289 70.734 m 129.289 70.734 152.859 47.164 166.668 0.023 c S
Q q
0 g
2.5 w
1 J
1 j
[] 0.0 d
4 M -124.266 424.289 m -24.266 424.289 -0.695 400.719 13.113 353.578 c S
17.156 282.867 m -82.844 282.867 -106.414 306.438 -120.219 353.578 c S
-53.555 353.578 m 46.445 353.578 70.016 330.008 83.824 282.867 c S
87.867 212.156 m -12.133 212.156 -35.703 235.727 -49.508 282.867 c S
17.156 282.867 m 117.156 282.867 140.727 259.297 154.535 212.156 c S
158.578 141.445 m 58.578 141.445 35.008 165.016 21.203 212.156 c S
87.867 212.156 m 187.867 212.156 211.438 188.586 225.246 141.445 c S
229.289 70.734 m 129.289 70.734 105.719 94.305 91.91 141.445 c S
158.578 141.445 m 258.578 141.445 282.148 117.875 295.957 70.734 c S
Q q
161 72 141 -71.977 re W n
0 g
2.5 w
1 J
1 j
[] 0.0 d
4 M 300 0.023 m 200 0.023 176.43 23.594 162.621 70.734 c S
Q q
228 72 140 -71.977 re W n
0 g
2.5 w
1 J
1 j
[] 0.0 d
4 M 229.289 70.734 m 329.289 70.734 352.859 47.164 366.668 0.023 c S
Q q
0 g
2.5 w
1 J
1 j
[] 0.0 d
4 M 75.734 424.289 m -24.266 424.289 -47.836 447.859 -61.641 495 c S
5.023 495 m 105.023 495 128.594 471.43 142.402 424.289 c S
146.445 353.578 m 46.445 353.578 22.875 377.148 9.07 424.289 c S
75.734 424.289 m 175.734 424.289 199.305 400.719 213.113 353.578 c S
217.156 282.867 m 117.156 282.867 93.586 306.438 79.781 353.578 c S
146.445 353.578 m 246.445 353.578 270.016 330.008 283.824 282.867 c S
287.867 212.156 m 187.867 212.156 164.297 235.727 150.492 282.867 c S
217.156 282.867 m 317.156 282.867 340.727 259.297 354.535 212.156 c S
358.578 141.445 m 258.578 141.445 235.008 165.016 221.203 212.156 c S
287.867 212.156 m 387.867 212.156 411.438 188.586 425.246 141.445 c S
429.289 70.734 m 329.289 70.734 305.719 94.305 291.91 141.445 c S
358.578 141.445 m 458.578 141.445 482.148 117.875 495.957 70.734 c S
Q q
361 72 141 -71.977 re W n
0 g
2.5 w
1 J
1 j
[] 0.0 d
4 M 500 0.023 m 400 0.023 376.43 23.594 362.621 70.734 c S
Q q
428 72 140 -71.977 re W n
0 g
2.5 w
1 J
1 j
[] 0.0 d
4 M 429.289 70.734 m 529.289 70.734 552.859 47.164 566.668 0.023 c S
Q q
0 g
2.5 w
1 J
1 j
[] 0.0 d
4 M 275.734 424.289 m 175.734 424.289 152.164 447.859 138.359 495 c S
205.023 495 m 305.023 495 328.594 471.43 342.402 424.289 c S
346.445 353.578 m 246.445 353.578 222.875 377.148 209.07 424.289 c S
275.734 424.289 m 375.734 424.289 399.305 400.719 413.113 353.578 c S
417.156 282.867 m 317.156 282.867 293.586 306.438 279.781 353.578 c S
346.445 353.578 m 446.445 353.578 470.016 330.008 483.824 282.867 c S
487.867 212.156 m 387.867 212.156 364.297 235.727 350.492 282.867 c S
417.156 282.867 m 517.156 282.867 540.727 259.297 554.535 212.156 c S
558.578 141.445 m 458.578 141.445 435.008 165.016 421.203 212.156 c S
487.867 212.156 m 587.867 212.156 611.438 188.586 625.246 141.445 c S
629.289 70.734 m 529.289 70.734 505.719 94.305 491.91 141.445 c S
558.578 141.445 m 658.578 141.445 682.148 117.875 695.957 70.734 c S
Q q
561 72 141 -71.977 re W n
0 g
2.5 w
1 J
1 j
[] 0.0 d
4 M 700 0.023 m 600 0.023 576.43 23.594 562.621 70.734 c S
Q q
628 72 140 -71.977 re W n
0 g
2.5 w
1 J
1 j
[] 0.0 d
4 M 629.289 70.734 m 729.289 70.734 752.859 47.164 766.668 0.023 c S
Q q
0 g
2.5 w
1 J
1 j
[] 0.0 d
4 M 475.734 424.289 m 375.734 424.289 352.164 447.859 338.359 495 c S
405.023 495 m 505.023 495 528.594 471.43 542.402 424.289 c S
546.445 353.578 m 446.445 353.578 422.875 377.148 409.07 424.289 c S
475.734 424.289 m 575.734 424.289 599.305 400.719 613.113 353.578 c S
617.156 282.867 m 517.156 282.867 493.586 306.438 479.781 353.578 c S
546.445 353.578 m 646.445 353.578 670.016 330.008 683.824 282.867 c S
687.867 212.156 m 587.867 212.156 564.297 235.727 550.492 282.867 c S
617.156 282.867 m 717.156 282.867 740.727 259.297 754.535 212.156 c S
758.578 141.445 m 658.578 141.445 635.008 165.016 621.203 212.156 c S
687.867 212.156 m 787.867 212.156 811.438 188.586 825.246 141.445 c S
829.289 70.734 m 729.289 70.734 705.719 94.305 691.91 141.445 c S
758.578 141.445 m 858.578 141.445 882.148 117.875 895.957 70.734 c S
Q q
761 72 141 -71.977 re W n
0 g
2.5 w
1 J
1 j
[] 0.0 d
4 M 900 0.023 m 800 0.023 776.43 23.594 762.621 70.734 c S
Q q
828 72 77 -71.977 re W n
0 g
2.5 w
1 J
1 j
[] 0.0 d
4 M 829.289 70.734 m 929.289 70.734 952.859 47.164 966.668 0.023 c S
Q q
0 g
2.5 w
1 J
1 j
[] 0.0 d
4 M 675.734 424.289 m 575.734 424.289 552.164 447.859 538.359 495 c S
605.023 495 m 705.023 495 728.594 471.43 742.402 424.289 c S
746.445 353.578 m 646.445 353.578 622.875 377.148 609.07 424.289 c S
675.734 424.289 m 775.734 424.289 799.305 400.719 813.113 353.578 c S
817.156 282.867 m 717.156 282.867 693.586 306.438 679.781 353.578 c S
746.445 353.578 m 846.445 353.578 870.016 330.008 883.824 282.867 c S
887.867 212.156 m 787.867 212.156 764.297 235.727 750.492 282.867 c S
817.156 282.867 m 917.156 282.867 940.727 259.297 954.535 212.156 c S
958.578 141.445 m 858.578 141.445 835.008 165.016 821.203 212.156 c S
887.867 212.156 m 987.867 212.156 1011.438 188.586 1025.246 141.445 c S
1029.289 70.734 m 929.289 70.734 905.719 94.305 891.91 141.445 c S
875.734 424.289 m 775.734 424.289 752.164 447.859 738.359 495 c S
805.023 495 m 905.023 495 928.594 471.43 942.402 424.289 c S
946.445 353.578 m 846.445 353.578 822.875 377.148 809.07 424.289 c S
875.734 424.289 m 975.734 424.289 999.305 400.719 1013.113 353.578 c S
1017.156 282.867 m 917.156 282.867 893.586 306.438 879.781 353.578 c S
Q Q
showpage
%%Trailer
%%Trailer
cleartomark
countdictstack
exch sub { end } repeat
restore
%%EOF
