%!PS-Adobe-2.0 EPSF-2.0
%%BoundingBox: 0 0 905 495
%%HiResBoundingBox: 0.000000 0.000000 905.000000 495.000000
%%Creator: cairo 1.14.2 (http://cairographics.org)
%%CreationDate: Mon Sep  7 08:21:43 2015
%%DocumentData: Clean7Bit
%%LanguageLevel: 2
%%DocumentMedia: 319x175mm 905 495 0 () ()
%%EndComments
% EPSF created by ps2eps 1.68
%%BeginProlog
save
countdictstack
mark
newpath
/showpage {} def
/setpagedevice {pop} def
%%EndProlog
%%Page 1 1
%%BeginProlog
/languagelevel where
{ pop languagelevel } { 1 } ifelse
2 lt { /Helvetica findfont 12 scalefont setfont 50 500 moveto
  (This print job requires a PostScript Language Level 2 printer.) show
  showpage quit } if
/q { gsave } bind def
/Q { grestore } bind def
/cm { 6 array astore concat } bind def
/w { setlinewidth } bind def
/J { setlinecap } bind def
/j { setlinejoin } bind def
/M { setmiterlimit } bind def
/d { setdash } bind def
/m { moveto } bind def
/l { lineto } bind def
/c { curveto } bind def
/h { closepath } bind def
/re { exch dup neg 3 1 roll 5 3 roll moveto 0 rlineto
      0 exch rlineto 0 rlineto closepath } bind def
/S { stroke } bind def
/f { fill } bind def
/f* { eofill } bind def
/n { newpath } bind def
/W { clip } bind def
/W* { eoclip } bind def
/BT { } bind def
/ET { } bind def
/pdfmark where { pop globaldict /?pdfmark /exec load put }
    { globaldict begin /?pdfmark /pop load def /pdfmark
    /cleartomark load def end } ifelse
/BDC { mark 3 1 roll /BDC pdfmark } bind def
/EMC { mark /EMC pdfmark } bind def
/cairo_store_point { /cairo_point_y exch def /cairo_point_x exch def } def
/Tj { show currentpoint cairo_store_point } bind def
/TJ {
  {
    dup
    type /stringtype eq
    { show } { -0.001 mul 0 cairo_font_matrix dtransform rmoveto } ifelse
  } forall
  currentpoint cairo_store_point
} bind def
/cairo_selectfont { cairo_font_matrix aload pop pop pop 0 0 6 array astore
    cairo_font exch selectfont cairo_point_x cairo_point_y moveto } bind def
/Tf { pop /cairo_font exch def /cairo_font_matrix where
      { pop cairo_selectfont } if } bind def
/Td { matrix translate cairo_font_matrix matrix concatmatrix dup
      /cairo_font_matrix exch def dup 4 get exch 5 get cairo_store_point
      /cairo_font where { pop cairo_selectfont } if } bind def
/Tm { 2 copy 8 2 roll 6 array astore /cairo_font_matrix exch def
      cairo_store_point /cairo_font where { pop cairo_selectfont } if } bind def
/g { setgray } bind def
/rg { setrgbcolor } bind def
/d1 { setcachedevice } bind def
/cairo_set_page_size {
  % Change paper size, but only if different from previous paper size otherwise
  % duplex fails. PLRM specifies a tolerance of 5 pts when matching paper size
  % so we use the same when checking if the size changes.
  /setpagedevice where {
    pop currentpagedevice
    /PageSize known {
      2 copy
      currentpagedevice /PageSize get aload pop
      exch 4 1 roll
      sub abs 5 gt
      3 1 roll
      sub abs 5 gt
      or
    } {
      true
    } ifelse
    {
      2 array astore
      2 dict begin
        /PageSize exch def
        /ImagingBBox null def
      currentdict end
      setpagedevice
    } {
      pop pop
    } ifelse
  } {
    pop
  } ifelse
} def
%%EndProlog
%%BeginSetup
%%EndSetup
%%Page: 1 1
%%BeginPageSetup
%%PageMedia: 319x175mm
%%PageBoundingBox: 0 0 905 495
905 495 cairo_set_page_size
%%EndPageSetup
q 0 0 905 495 rectclip q
Q q
0.984314 g
0 495 905.023 -494.977 re f*
0.788235 g
1.875 w
0 J
1 j
[] 0.0 d
4 M 0 495 905.023 -494.977 re S
0 g
2.5 w
1 J
58.578 141.445 m -64.992 165.016 -55.227 188.586 -21.895 188.586 c S
129.289 70.734 m 5.719 94.305 15.48 117.875 48.816 117.875 c S
-70.711 70.734 m 52.859 47.164 43.098 23.594 9.762 23.594 c S
Q q
96 49 106 -48.977 re W n
0 g
2.5 w
1 J
1 j
[] 0.0 d
4 M 200 0.023 m 76.43 23.594 86.191 47.164 119.527 47.164 c S
Q q
0 g
2.5 w
1 J
1 j
[] 0.0 d
4 M 46.445 353.578 m -77.125 377.148 -67.359 400.719 -34.027 400.719 c S
117.156 282.867 m -6.414 306.438 3.352 330.008 36.684 330.008 c S
-82.844 282.867 m 40.727 259.297 30.965 235.727 -2.367 235.727 c S
187.867 212.156 m 64.297 235.727 74.062 259.297 107.395 259.297 c S
-12.133 212.156 m 111.438 188.586 101.676 165.016 68.34 165.016 c S
258.578 141.445 m 135.008 165.016 144.773 188.586 178.105 188.586 c S
58.578 141.445 m 182.148 117.875 172.387 94.305 139.051 94.305 c S
329.289 70.734 m 205.719 94.305 215.48 117.875 248.816 117.875 c S
129.289 70.734 m 252.859 47.164 243.098 23.594 209.762 23.594 c S
Q q
296 49 106 -48.977 re W n
0 g
2.5 w
1 J
1 j
[] 0.0 d
4 M 400 0.023 m 276.43 23.594 286.191 47.164 319.527 47.164 c S
Q q
0 g
2.5 w
1 J
1 j
[] 0.0 d
4 M -94.977 495 m 28.594 471.43 18.832 447.859 -14.5 447.859 c S
175.734 424.289 m 52.164 447.859 61.93 471.43 95.262 471.43 c S
-24.266 424.289 m 99.305 400.719 89.543 377.148 56.211 377.148 c S
246.445 353.578 m 122.875 377.148 132.641 400.719 165.973 400.719 c S
46.445 353.578 m 170.016 330.008 160.254 306.438 126.922 306.438 c S
317.156 282.867 m 193.586 306.438 203.352 330.008 236.684 330.008 c S
117.156 282.867 m 240.727 259.297 230.965 235.727 197.633 235.727 c S
387.867 212.156 m 264.297 235.727 274.062 259.297 307.395 259.297 c S
187.867 212.156 m 311.438 188.586 301.676 165.016 268.34 165.016 c S
458.578 141.445 m 335.008 165.016 344.773 188.586 378.105 188.586 c S
258.578 141.445 m 382.148 117.875 372.387 94.305 339.051 94.305 c S
529.289 70.734 m 405.719 94.305 415.48 117.875 448.816 117.875 c S
329.289 70.734 m 452.859 47.164 443.098 23.594 409.762 23.594 c S
Q q
496 49 106 -48.977 re W n
0 g
2.5 w
1 J
1 j
[] 0.0 d
4 M 600 0.023 m 476.43 23.594 486.191 47.164 519.527 47.164 c S
Q q
0 g
2.5 w
1 J
1 j
[] 0.0 d
4 M 105.023 495 m 228.594 471.43 218.832 447.859 185.5 447.859 c S
375.734 424.289 m 252.164 447.859 261.93 471.43 295.262 471.43 c S
175.734 424.289 m 299.305 400.719 289.543 377.148 256.211 377.148 c S
446.445 353.578 m 322.875 377.148 332.641 400.719 365.973 400.719 c S
246.445 353.578 m 370.016 330.008 360.254 306.438 326.922 306.438 c S
517.156 282.867 m 393.586 306.438 403.352 330.008 436.684 330.008 c S
317.156 282.867 m 440.727 259.297 430.965 235.727 397.633 235.727 c S
587.867 212.156 m 464.297 235.727 474.062 259.297 507.395 259.297 c S
387.867 212.156 m 511.438 188.586 501.676 165.016 468.34 165.016 c S
658.578 141.445 m 535.008 165.016 544.773 188.586 578.105 188.586 c S
458.578 141.445 m 582.148 117.875 572.387 94.305 539.051 94.305 c S
729.289 70.734 m 605.719 94.305 615.48 117.875 648.816 117.875 c S
529.289 70.734 m 652.859 47.164 643.098 23.594 609.762 23.594 c S
Q q
696 49 106 -48.977 re W n
0 g
2.5 w
1 J
1 j
[] 0.0 d
4 M 800 0.023 m 676.43 23.594 686.191 47.164 719.527 47.164 c S
Q q
0 g
2.5 w
1 J
1 j
[] 0.0 d
4 M 305.023 495 m 428.594 471.43 418.832 447.859 385.5 447.859 c S
575.734 424.289 m 452.164 447.859 461.93 471.43 495.262 471.43 c S
375.734 424.289 m 499.305 400.719 489.543 377.148 456.211 377.148 c S
646.445 353.578 m 522.875 377.148 532.641 400.719 565.973 400.719 c S
446.445 353.578 m 570.016 330.008 560.254 306.438 526.922 306.438 c S
717.156 282.867 m 593.586 306.438 603.352 330.008 636.684 330.008 c S
517.156 282.867 m 640.727 259.297 630.965 235.727 597.633 235.727 c S
787.867 212.156 m 664.297 235.727 674.062 259.297 707.395 259.297 c S
587.867 212.156 m 711.438 188.586 701.676 165.016 668.34 165.016 c S
858.578 141.445 m 735.008 165.016 744.773 188.586 778.105 188.586 c S
658.578 141.445 m 782.148 117.875 772.387 94.305 739.051 94.305 c S
929.289 70.734 m 805.719 94.305 815.48 117.875 848.816 117.875 c S
729.289 70.734 m 852.859 47.164 843.098 23.594 809.762 23.594 c S
Q q
896 49 9 -48.977 re W n
0 g
2.5 w
1 J
1 j
[] 0.0 d
4 M 1000 0.023 m 876.43 23.594 886.191 47.164 919.527 47.164 c S
Q q
0 g
2.5 w
1 J
1 j
[] 0.0 d
4 M 505.023 495 m 628.594 471.43 618.832 447.859 585.5 447.859 c S
775.734 424.289 m 652.164 447.859 661.93 471.43 695.262 471.43 c S
575.734 424.289 m 699.305 400.719 689.543 377.148 656.211 377.148 c S
846.445 353.578 m 722.875 377.148 732.641 400.719 765.973 400.719 c S
646.445 353.578 m 770.016 330.008 760.254 306.438 726.922 306.438 c S
917.156 282.867 m 793.586 306.438 803.352 330.008 836.684 330.008 c S
717.156 282.867 m 840.727 259.297 830.965 235.727 797.633 235.727 c S
987.867 212.156 m 864.297 235.727 874.062 259.297 907.395 259.297 c S
787.867 212.156 m 911.438 188.586 901.676 165.016 868.34 165.016 c S
858.578 141.445 m 982.148 117.875 972.387 94.305 939.051 94.305 c S
705.023 495 m 828.594 471.43 818.832 447.859 785.5 447.859 c S
975.734 424.289 m 852.164 447.859 861.93 471.43 895.262 471.43 c S
775.734 424.289 m 899.305 400.719 889.543 377.148 856.211 377.148 c S
846.445 353.578 m 970.016 330.008 960.254 306.438 926.922 306.438 c S
Q Q
showpage
%%Trailer
%%Trailer
cleartomark
countdictstack
exch sub { end } repeat
restore
%%EOF
