%!PS-Adobe-2.0 EPSF-2.0
%%BoundingBox: 0 0 905 495
%%HiResBoundingBox: 0.000000 0.000000 905.000000 495.000000
%%Creator: cairo 1.14.2 (http://cairographics.org)
%%CreationDate: Mon Sep  7 08:21:43 2015
%%DocumentData: Clean7Bit
%%LanguageLevel: 2
%%DocumentMedia: 319x175mm 905 495 0 () ()
%%EndComments
% EPSF created by ps2eps 1.68
%%BeginProlog
save
countdictstack
mark
newpath
/showpage {} def
/setpagedevice {pop} def
%%EndProlog
%%Page 1 1
%%BeginProlog
/languagelevel where
{ pop languagelevel } { 1 } ifelse
2 lt { /Helvetica findfont 12 scalefont setfont 50 500 moveto
  (This print job requires a PostScript Language Level 2 printer.) show
  showpage quit } if
/q { gsave } bind def
/Q { grestore } bind def
/cm { 6 array astore concat } bind def
/w { setlinewidth } bind def
/J { setlinecap } bind def
/j { setlinejoin } bind def
/M { setmiterlimit } bind def
/d { setdash } bind def
/m { moveto } bind def
/l { lineto } bind def
/c { curveto } bind def
/h { closepath } bind def
/re { exch dup neg 3 1 roll 5 3 roll moveto 0 rlineto
      0 exch rlineto 0 rlineto closepath } bind def
/S { stroke } bind def
/f { fill } bind def
/f* { eofill } bind def
/n { newpath } bind def
/W { clip } bind def
/W* { eoclip } bind def
/BT { } bind def
/ET { } bind def
/pdfmark where { pop globaldict /?pdfmark /exec load put }
    { globaldict begin /?pdfmark /pop load def /pdfmark
    /cleartomark load def end } ifelse
/BDC { mark 3 1 roll /BDC pdfmark } bind def
/EMC { mark /EMC pdfmark } bind def
/cairo_store_point { /cairo_point_y exch def /cairo_point_x exch def } def
/Tj { show currentpoint cairo_store_point } bind def
/TJ {
  {
    dup
    type /stringtype eq
    { show } { -0.001 mul 0 cairo_font_matrix dtransform rmoveto } ifelse
  } forall
  currentpoint cairo_store_point
} bind def
/cairo_selectfont { cairo_font_matrix aload pop pop pop 0 0 6 array astore
    cairo_font exch selectfont cairo_point_x cairo_point_y moveto } bind def
/Tf { pop /cairo_font exch def /cairo_font_matrix where
      { pop cairo_selectfont } if } bind def
/Td { matrix translate cairo_font_matrix matrix concatmatrix dup
      /cairo_font_matrix exch def dup 4 get exch 5 get cairo_store_point
      /cairo_font where { pop cairo_selectfont } if } bind def
/Tm { 2 copy 8 2 roll 6 array astore /cairo_font_matrix exch def
      cairo_store_point /cairo_font where { pop cairo_selectfont } if } bind def
/g { setgray } bind def
/rg { setrgbcolor } bind def
/d1 { setcachedevice } bind def
/cairo_set_page_size {
  % Change paper size, but only if different from previous paper size otherwise
  % duplex fails. PLRM specifies a tolerance of 5 pts when matching paper size
  % so we use the same when checking if the size changes.
  /setpagedevice where {
    pop currentpagedevice
    /PageSize known {
      2 copy
      currentpagedevice /PageSize get aload pop
      exch 4 1 roll
      sub abs 5 gt
      3 1 roll
      sub abs 5 gt
      or
    } {
      true
    } ifelse
    {
      2 array astore
      2 dict begin
        /PageSize exch def
        /ImagingBBox null def
      currentdict end
      setpagedevice
    } {
      pop pop
    } ifelse
  } {
    pop
  } ifelse
} def
%%EndProlog
%%BeginSetup
%%EndSetup
%%Page: 1 1
%%BeginPageSetup
%%PageMedia: 319x175mm
%%PageBoundingBox: 0 0 905 495
905 495 cairo_set_page_size
%%EndPageSetup
q 0 0 905 495 rectclip q
Q q
0.984314 g
0 495 905.023 -494.977 re f*
0.788235 g
1.875 w
0 J
1 j
[] 0.0 d
4 M 0 495 905.023 -494.977 re S
0 g
2.5 w
1 J
58.578 141.445 m -55.227 188.586 35.008 165.016 11.438 188.586 c S
129.289 70.734 m 15.48 117.875 105.719 94.305 82.148 117.875 c S
Q q
139 49 63 -48.977 re W n
0 g
2.5 w
1 J
1 j
[] 0.0 d
4 M 200 0.023 m 86.191 47.164 176.43 23.594 152.859 47.164 c S
Q q
0 g
2.5 w
1 J
1 j
[] 0.0 d
4 M 46.445 353.578 m -67.359 400.719 22.875 377.148 -0.695 400.719 c S
117.156 282.867 m 3.352 330.008 93.586 306.438 70.016 330.008 c S
187.867 212.156 m 74.062 259.297 164.297 235.727 140.727 259.297 c S
-12.133 212.156 m 101.676 165.016 11.438 188.586 35.008 165.016 c S
258.578 141.445 m 144.773 188.586 235.008 165.016 211.438 188.586 c S
58.578 141.445 m 172.387 94.305 82.148 117.875 105.719 94.305 c S
329.289 70.734 m 215.48 117.875 305.719 94.305 282.148 117.875 c S
129.289 70.734 m 243.098 23.594 152.859 47.164 176.43 23.594 c S
Q q
339 49 63 -48.977 re W n
0 g
2.5 w
1 J
1 j
[] 0.0 d
4 M 400 0.023 m 286.191 47.164 376.43 23.594 352.859 47.164 c S
Q q
0 g
2.5 w
1 J
1 j
[] 0.0 d
4 M 175.734 424.289 m 61.93 471.43 152.164 447.859 128.594 471.43 c S
-24.266 424.289 m 89.543 377.148 -0.695 400.719 22.875 377.148 c S
246.445 353.578 m 132.641 400.719 222.875 377.148 199.305 400.719 c S
46.445 353.578 m 160.254 306.438 70.016 330.008 93.586 306.438 c S
317.156 282.867 m 203.352 330.008 293.586 306.438 270.016 330.008 c S
117.156 282.867 m 230.965 235.727 140.727 259.297 164.297 235.727 c S
387.867 212.156 m 274.062 259.297 364.297 235.727 340.727 259.297 c S
187.867 212.156 m 301.676 165.016 211.438 188.586 235.008 165.016 c S
458.578 141.445 m 344.773 188.586 435.008 165.016 411.438 188.586 c S
258.578 141.445 m 372.387 94.305 282.148 117.875 305.719 94.305 c S
529.289 70.734 m 415.48 117.875 505.719 94.305 482.148 117.875 c S
329.289 70.734 m 443.098 23.594 352.859 47.164 376.43 23.594 c S
Q q
539 49 63 -48.977 re W n
0 g
2.5 w
1 J
1 j
[] 0.0 d
4 M 600 0.023 m 486.191 47.164 576.43 23.594 552.859 47.164 c S
Q q
0 g
2.5 w
1 J
1 j
[] 0.0 d
4 M 105.023 495 m 218.832 447.859 128.594 471.43 152.164 447.859 c S
375.734 424.289 m 261.93 471.43 352.164 447.859 328.594 471.43 c S
175.734 424.289 m 289.543 377.148 199.305 400.719 222.875 377.148 c S
446.445 353.578 m 332.641 400.719 422.875 377.148 399.305 400.719 c S
246.445 353.578 m 360.254 306.438 270.016 330.008 293.586 306.438 c S
517.156 282.867 m 403.352 330.008 493.586 306.438 470.016 330.008 c S
317.156 282.867 m 430.965 235.727 340.727 259.297 364.297 235.727 c S
587.867 212.156 m 474.062 259.297 564.297 235.727 540.727 259.297 c S
387.867 212.156 m 501.676 165.016 411.438 188.586 435.008 165.016 c S
658.578 141.445 m 544.773 188.586 635.008 165.016 611.438 188.586 c S
458.578 141.445 m 572.387 94.305 482.148 117.875 505.719 94.305 c S
729.289 70.734 m 615.48 117.875 705.719 94.305 682.148 117.875 c S
529.289 70.734 m 643.098 23.594 552.859 47.164 576.43 23.594 c S
Q q
739 49 63 -48.977 re W n
0 g
2.5 w
1 J
1 j
[] 0.0 d
4 M 800 0.023 m 686.191 47.164 776.43 23.594 752.859 47.164 c S
Q q
0 g
2.5 w
1 J
1 j
[] 0.0 d
4 M 305.023 495 m 418.832 447.859 328.594 471.43 352.164 447.859 c S
575.734 424.289 m 461.93 471.43 552.164 447.859 528.594 471.43 c S
375.734 424.289 m 489.543 377.148 399.305 400.719 422.875 377.148 c S
646.445 353.578 m 532.641 400.719 622.875 377.148 599.305 400.719 c S
446.445 353.578 m 560.254 306.438 470.016 330.008 493.586 306.438 c S
717.156 282.867 m 603.352 330.008 693.586 306.438 670.016 330.008 c S
517.156 282.867 m 630.965 235.727 540.727 259.297 564.297 235.727 c S
787.867 212.156 m 674.062 259.297 764.297 235.727 740.727 259.297 c S
587.867 212.156 m 701.676 165.016 611.438 188.586 635.008 165.016 c S
858.578 141.445 m 744.773 188.586 835.008 165.016 811.438 188.586 c S
658.578 141.445 m 772.387 94.305 682.148 117.875 705.719 94.305 c S
929.289 70.734 m 815.48 117.875 905.719 94.305 882.148 117.875 c S
729.289 70.734 m 843.098 23.594 752.859 47.164 776.43 23.594 c S
505.023 495 m 618.832 447.859 528.594 471.43 552.164 447.859 c S
775.734 424.289 m 661.93 471.43 752.164 447.859 728.594 471.43 c S
575.734 424.289 m 689.543 377.148 599.305 400.719 622.875 377.148 c S
846.445 353.578 m 732.641 400.719 822.875 377.148 799.305 400.719 c S
646.445 353.578 m 760.254 306.438 670.016 330.008 693.586 306.438 c S
917.156 282.867 m 803.352 330.008 893.586 306.438 870.016 330.008 c S
717.156 282.867 m 830.965 235.727 740.727 259.297 764.297 235.727 c S
787.867 212.156 m 901.676 165.016 811.438 188.586 835.008 165.016 c S
858.578 141.445 m 972.387 94.305 882.148 117.875 905.719 94.305 c S
705.023 495 m 818.832 447.859 728.594 471.43 752.164 447.859 c S
775.734 424.289 m 889.543 377.148 799.305 400.719 822.875 377.148 c S
846.445 353.578 m 960.254 306.438 870.016 330.008 893.586 306.438 c S
Q Q
showpage
%%Trailer
%%Trailer
cleartomark
countdictstack
exch sub { end } repeat
restore
%%EOF
