%!PS-Adobe-2.0 EPSF-2.0
%%BoundingBox: 0 0 2450 1750
%%HiResBoundingBox: 0.000000 0.000000 2450.000000 1750.000000
%%Creator: cairo 1.14.2 (http://cairographics.org)
%%CreationDate: Mon Sep  7 08:21:53 2015
%%DocumentData: Clean7Bit
%%LanguageLevel: 2
%%DocumentMedia: 864x617mm 2450 1750 0 () ()
%%EndComments
% EPSF created by ps2eps 1.68
%%BeginProlog
save
countdictstack
mark
newpath
/showpage {} def
/setpagedevice {pop} def
%%EndProlog
%%Page 1 1
%%BeginProlog
/languagelevel where
{ pop languagelevel } { 1 } ifelse
2 lt { /Helvetica findfont 12 scalefont setfont 50 500 moveto
  (This print job requires a PostScript Language Level 2 printer.) show
  showpage quit } if
/q { gsave } bind def
/Q { grestore } bind def
/cm { 6 array astore concat } bind def
/w { setlinewidth } bind def
/J { setlinecap } bind def
/j { setlinejoin } bind def
/M { setmiterlimit } bind def
/d { setdash } bind def
/m { moveto } bind def
/l { lineto } bind def
/c { curveto } bind def
/h { closepath } bind def
/re { exch dup neg 3 1 roll 5 3 roll moveto 0 rlineto
      0 exch rlineto 0 rlineto closepath } bind def
/S { stroke } bind def
/f { fill } bind def
/f* { eofill } bind def
/n { newpath } bind def
/W { clip } bind def
/W* { eoclip } bind def
/BT { } bind def
/ET { } bind def
/pdfmark where { pop globaldict /?pdfmark /exec load put }
    { globaldict begin /?pdfmark /pop load def /pdfmark
    /cleartomark load def end } ifelse
/BDC { mark 3 1 roll /BDC pdfmark } bind def
/EMC { mark /EMC pdfmark } bind def
/cairo_store_point { /cairo_point_y exch def /cairo_point_x exch def } def
/Tj { show currentpoint cairo_store_point } bind def
/TJ {
  {
    dup
    type /stringtype eq
    { show } { -0.001 mul 0 cairo_font_matrix dtransform rmoveto } ifelse
  } forall
  currentpoint cairo_store_point
} bind def
/cairo_selectfont { cairo_font_matrix aload pop pop pop 0 0 6 array astore
    cairo_font exch selectfont cairo_point_x cairo_point_y moveto } bind def
/Tf { pop /cairo_font exch def /cairo_font_matrix where
      { pop cairo_selectfont } if } bind def
/Td { matrix translate cairo_font_matrix matrix concatmatrix dup
      /cairo_font_matrix exch def dup 4 get exch 5 get cairo_store_point
      /cairo_font where { pop cairo_selectfont } if } bind def
/Tm { 2 copy 8 2 roll 6 array astore /cairo_font_matrix exch def
      cairo_store_point /cairo_font where { pop cairo_selectfont } if } bind def
/g { setgray } bind def
/rg { setrgbcolor } bind def
/d1 { setcachedevice } bind def
/cairo_set_page_size {
  % Change paper size, but only if different from previous paper size otherwise
  % duplex fails. PLRM specifies a tolerance of 5 pts when matching paper size
  % so we use the same when checking if the size changes.
  /setpagedevice where {
    pop currentpagedevice
    /PageSize known {
      2 copy
      currentpagedevice /PageSize get aload pop
      exch 4 1 roll
      sub abs 5 gt
      3 1 roll
      sub abs 5 gt
      or
    } {
      true
    } ifelse
    {
      2 array astore
      2 dict begin
        /PageSize exch def
        /ImagingBBox null def
      currentdict end
      setpagedevice
    } {
      pop pop
    } ifelse
  } {
    pop
  } ifelse
} def
%%EndProlog
%%BeginSetup
%%EndSetup
%%Page: 1 1
%%BeginPageSetup
%%PageMedia: 864x617mm
%%PageBoundingBox: 0 0 2450 1750
2450 1750 cairo_set_page_size
%%EndPageSetup
q 0 0 2450 1750 rectclip q
0.984314 g
0 0 2450 1750 rectfill
0.788235 g
1.875 w
0 J
1 j
[] 0.0 d
4 M 0 1750 2450 -1750 re S
0 g
2.5 w
1 J
87.5 1662.5 m 87.5 1750 175 1575 175 1750 c S
262.5 1662.5 m 350 1662.5 175 1575 350 1575 c S
262.5 1487.5 m 262.5 1400 175 1575 175 1400 c S
87.5 1487.5 m 0 1487.5 175 1575 0 1575 c S
262.5 1487.5 m 350 1487.5 175 1575 350 1575 c S
87.5 1662.5 m 0 1662.5 175 1575 0 1575 c S
87.5 1487.5 m 87.5 1400 175 1575 175 1400 c S
262.5 1662.5 m 262.5 1750 175 1575 175 1750 c S
87.5 1312.5 m 87.5 1400 175 1225 175 1400 c S
262.5 1312.5 m 350 1312.5 175 1225 350 1225 c S
262.5 1137.5 m 262.5 1050 175 1225 175 1050 c S
87.5 1137.5 m 0 1137.5 175 1225 0 1225 c S
262.5 1137.5 m 350 1137.5 175 1225 350 1225 c S
87.5 1312.5 m 0 1312.5 175 1225 0 1225 c S
87.5 1137.5 m 87.5 1050 175 1225 175 1050 c S
262.5 1312.5 m 262.5 1400 175 1225 175 1400 c S
87.5 962.5 m 87.5 1050 175 875 175 1050 c S
262.5 962.5 m 350 962.5 175 875 350 875 c S
262.5 787.5 m 262.5 700 175 875 175 700 c S
87.5 787.5 m 0 787.5 175 875 0 875 c S
262.5 787.5 m 350 787.5 175 875 350 875 c S
87.5 962.5 m 0 962.5 175 875 0 875 c S
87.5 787.5 m 87.5 700 175 875 175 700 c S
262.5 962.5 m 262.5 1050 175 875 175 1050 c S
87.5 612.5 m 87.5 700 175 525 175 700 c S
262.5 612.5 m 350 612.5 175 525 350 525 c S
262.5 437.5 m 262.5 350 175 525 175 350 c S
87.5 437.5 m 0 437.5 175 525 0 525 c S
262.5 437.5 m 350 437.5 175 525 350 525 c S
87.5 612.5 m 0 612.5 175 525 0 525 c S
87.5 437.5 m 87.5 350 175 525 175 350 c S
262.5 612.5 m 262.5 700 175 525 175 700 c S
87.5 262.5 m 87.5 350 175 175 175 350 c S
262.5 262.5 m 350 262.5 175 175 350 175 c S
262.5 87.5 m 262.5 0 175 175 175 0 c S
87.5 87.5 m 0 87.5 175 175 0 175 c S
262.5 87.5 m 350 87.5 175 175 350 175 c S
87.5 262.5 m 0 262.5 175 175 0 175 c S
87.5 87.5 m 87.5 0 175 175 175 0 c S
262.5 262.5 m 262.5 350 175 175 175 350 c S
437.5 1662.5 m 437.5 1750 525 1575 525 1750 c S
612.5 1662.5 m 700 1662.5 525 1575 700 1575 c S
612.5 1487.5 m 612.5 1400 525 1575 525 1400 c S
437.5 1487.5 m 350 1487.5 525 1575 350 1575 c S
612.5 1487.5 m 700 1487.5 525 1575 700 1575 c S
437.5 1662.5 m 350 1662.5 525 1575 350 1575 c S
437.5 1487.5 m 437.5 1400 525 1575 525 1400 c S
612.5 1662.5 m 612.5 1750 525 1575 525 1750 c S
437.5 1312.5 m 437.5 1400 525 1225 525 1400 c S
612.5 1312.5 m 700 1312.5 525 1225 700 1225 c S
612.5 1137.5 m 612.5 1050 525 1225 525 1050 c S
437.5 1137.5 m 350 1137.5 525 1225 350 1225 c S
612.5 1137.5 m 700 1137.5 525 1225 700 1225 c S
437.5 1312.5 m 350 1312.5 525 1225 350 1225 c S
437.5 1137.5 m 437.5 1050 525 1225 525 1050 c S
612.5 1312.5 m 612.5 1400 525 1225 525 1400 c S
437.5 962.5 m 437.5 1050 525 875 525 1050 c S
612.5 962.5 m 700 962.5 525 875 700 875 c S
612.5 787.5 m 612.5 700 525 875 525 700 c S
437.5 787.5 m 350 787.5 525 875 350 875 c S
612.5 787.5 m 700 787.5 525 875 700 875 c S
437.5 962.5 m 350 962.5 525 875 350 875 c S
437.5 787.5 m 437.5 700 525 875 525 700 c S
612.5 962.5 m 612.5 1050 525 875 525 1050 c S
437.5 612.5 m 437.5 700 525 525 525 700 c S
612.5 612.5 m 700 612.5 525 525 700 525 c S
612.5 437.5 m 612.5 350 525 525 525 350 c S
437.5 437.5 m 350 437.5 525 525 350 525 c S
612.5 437.5 m 700 437.5 525 525 700 525 c S
437.5 612.5 m 350 612.5 525 525 350 525 c S
437.5 437.5 m 437.5 350 525 525 525 350 c S
612.5 612.5 m 612.5 700 525 525 525 700 c S
437.5 262.5 m 437.5 350 525 175 525 350 c S
612.5 262.5 m 700 262.5 525 175 700 175 c S
612.5 87.5 m 612.5 0 525 175 525 0 c S
437.5 87.5 m 350 87.5 525 175 350 175 c S
612.5 87.5 m 700 87.5 525 175 700 175 c S
437.5 262.5 m 350 262.5 525 175 350 175 c S
437.5 87.5 m 437.5 0 525 175 525 0 c S
612.5 262.5 m 612.5 350 525 175 525 350 c S
787.5 1662.5 m 787.5 1750 875 1575 875 1750 c S
962.5 1662.5 m 1050 1662.5 875 1575 1050 1575 c S
962.5 1487.5 m 962.5 1400 875 1575 875 1400 c S
787.5 1487.5 m 700 1487.5 875 1575 700 1575 c S
962.5 1487.5 m 1050 1487.5 875 1575 1050 1575 c S
787.5 1662.5 m 700 1662.5 875 1575 700 1575 c S
787.5 1487.5 m 787.5 1400 875 1575 875 1400 c S
962.5 1662.5 m 962.5 1750 875 1575 875 1750 c S
787.5 1312.5 m 787.5 1400 875 1225 875 1400 c S
962.5 1312.5 m 1050 1312.5 875 1225 1050 1225 c S
962.5 1137.5 m 962.5 1050 875 1225 875 1050 c S
787.5 1137.5 m 700 1137.5 875 1225 700 1225 c S
962.5 1137.5 m 1050 1137.5 875 1225 1050 1225 c S
787.5 1312.5 m 700 1312.5 875 1225 700 1225 c S
787.5 1137.5 m 787.5 1050 875 1225 875 1050 c S
962.5 1312.5 m 962.5 1400 875 1225 875 1400 c S
787.5 962.5 m 787.5 1050 875 875 875 1050 c S
962.5 962.5 m 1050 962.5 875 875 1050 875 c S
962.5 787.5 m 962.5 700 875 875 875 700 c S
787.5 787.5 m 700 787.5 875 875 700 875 c S
962.5 787.5 m 1050 787.5 875 875 1050 875 c S
787.5 962.5 m 700 962.5 875 875 700 875 c S
787.5 787.5 m 787.5 700 875 875 875 700 c S
962.5 962.5 m 962.5 1050 875 875 875 1050 c S
787.5 612.5 m 787.5 700 875 525 875 700 c S
962.5 612.5 m 1050 612.5 875 525 1050 525 c S
962.5 437.5 m 962.5 350 875 525 875 350 c S
787.5 437.5 m 700 437.5 875 525 700 525 c S
962.5 437.5 m 1050 437.5 875 525 1050 525 c S
787.5 612.5 m 700 612.5 875 525 700 525 c S
787.5 437.5 m 787.5 350 875 525 875 350 c S
962.5 612.5 m 962.5 700 875 525 875 700 c S
787.5 262.5 m 787.5 350 875 175 875 350 c S
962.5 262.5 m 1050 262.5 875 175 1050 175 c S
962.5 87.5 m 962.5 0 875 175 875 0 c S
787.5 87.5 m 700 87.5 875 175 700 175 c S
962.5 87.5 m 1050 87.5 875 175 1050 175 c S
787.5 262.5 m 700 262.5 875 175 700 175 c S
787.5 87.5 m 787.5 0 875 175 875 0 c S
962.5 262.5 m 962.5 350 875 175 875 350 c S
1137.5 1662.5 m 1137.5 1750 1225 1575 1225 1750 c S
1312.5 1662.5 m 1400 1662.5 1225 1575 1400 1575 c S
1312.5 1487.5 m 1312.5 1400 1225 1575 1225 1400 c S
1137.5 1487.5 m 1050 1487.5 1225 1575 1050 1575 c S
1312.5 1487.5 m 1400 1487.5 1225 1575 1400 1575 c S
1137.5 1662.5 m 1050 1662.5 1225 1575 1050 1575 c S
1137.5 1487.5 m 1137.5 1400 1225 1575 1225 1400 c S
1312.5 1662.5 m 1312.5 1750 1225 1575 1225 1750 c S
1137.5 1312.5 m 1137.5 1400 1225 1225 1225 1400 c S
1312.5 1312.5 m 1400 1312.5 1225 1225 1400 1225 c S
1312.5 1137.5 m 1312.5 1050 1225 1225 1225 1050 c S
1137.5 1137.5 m 1050 1137.5 1225 1225 1050 1225 c S
1312.5 1137.5 m 1400 1137.5 1225 1225 1400 1225 c S
1137.5 1312.5 m 1050 1312.5 1225 1225 1050 1225 c S
1137.5 1137.5 m 1137.5 1050 1225 1225 1225 1050 c S
1312.5 1312.5 m 1312.5 1400 1225 1225 1225 1400 c S
1137.5 962.5 m 1137.5 1050 1225 875 1225 1050 c S
1312.5 962.5 m 1400 962.5 1225 875 1400 875 c S
1312.5 787.5 m 1312.5 700 1225 875 1225 700 c S
1137.5 787.5 m 1050 787.5 1225 875 1050 875 c S
1312.5 787.5 m 1400 787.5 1225 875 1400 875 c S
1137.5 962.5 m 1050 962.5 1225 875 1050 875 c S
1137.5 787.5 m 1137.5 700 1225 875 1225 700 c S
1312.5 962.5 m 1312.5 1050 1225 875 1225 1050 c S
1137.5 612.5 m 1137.5 700 1225 525 1225 700 c S
1312.5 612.5 m 1400 612.5 1225 525 1400 525 c S
1312.5 437.5 m 1312.5 350 1225 525 1225 350 c S
1137.5 437.5 m 1050 437.5 1225 525 1050 525 c S
1312.5 437.5 m 1400 437.5 1225 525 1400 525 c S
1137.5 612.5 m 1050 612.5 1225 525 1050 525 c S
1137.5 437.5 m 1137.5 350 1225 525 1225 350 c S
1312.5 612.5 m 1312.5 700 1225 525 1225 700 c S
1137.5 262.5 m 1137.5 350 1225 175 1225 350 c S
1312.5 262.5 m 1400 262.5 1225 175 1400 175 c S
1312.5 87.5 m 1312.5 0 1225 175 1225 0 c S
1137.5 87.5 m 1050 87.5 1225 175 1050 175 c S
1312.5 87.5 m 1400 87.5 1225 175 1400 175 c S
1137.5 262.5 m 1050 262.5 1225 175 1050 175 c S
1137.5 87.5 m 1137.5 0 1225 175 1225 0 c S
1312.5 262.5 m 1312.5 350 1225 175 1225 350 c S
1487.5 1662.5 m 1487.5 1750 1575 1575 1575 1750 c S
1662.5 1662.5 m 1750 1662.5 1575 1575 1750 1575 c S
1662.5 1487.5 m 1662.5 1400 1575 1575 1575 1400 c S
1487.5 1487.5 m 1400 1487.5 1575 1575 1400 1575 c S
1662.5 1487.5 m 1750 1487.5 1575 1575 1750 1575 c S
1487.5 1662.5 m 1400 1662.5 1575 1575 1400 1575 c S
1487.5 1487.5 m 1487.5 1400 1575 1575 1575 1400 c S
1662.5 1662.5 m 1662.5 1750 1575 1575 1575 1750 c S
1487.5 1312.5 m 1487.5 1400 1575 1225 1575 1400 c S
1662.5 1312.5 m 1750 1312.5 1575 1225 1750 1225 c S
1662.5 1137.5 m 1662.5 1050 1575 1225 1575 1050 c S
1487.5 1137.5 m 1400 1137.5 1575 1225 1400 1225 c S
1662.5 1137.5 m 1750 1137.5 1575 1225 1750 1225 c S
1487.5 1312.5 m 1400 1312.5 1575 1225 1400 1225 c S
1487.5 1137.5 m 1487.5 1050 1575 1225 1575 1050 c S
1662.5 1312.5 m 1662.5 1400 1575 1225 1575 1400 c S
1487.5 962.5 m 1487.5 1050 1575 875 1575 1050 c S
1662.5 962.5 m 1750 962.5 1575 875 1750 875 c S
1662.5 787.5 m 1662.5 700 1575 875 1575 700 c S
1487.5 787.5 m 1400 787.5 1575 875 1400 875 c S
1662.5 787.5 m 1750 787.5 1575 875 1750 875 c S
1487.5 962.5 m 1400 962.5 1575 875 1400 875 c S
1487.5 787.5 m 1487.5 700 1575 875 1575 700 c S
1662.5 962.5 m 1662.5 1050 1575 875 1575 1050 c S
1487.5 612.5 m 1487.5 700 1575 525 1575 700 c S
1662.5 612.5 m 1750 612.5 1575 525 1750 525 c S
1662.5 437.5 m 1662.5 350 1575 525 1575 350 c S
1487.5 437.5 m 1400 437.5 1575 525 1400 525 c S
1662.5 437.5 m 1750 437.5 1575 525 1750 525 c S
1487.5 612.5 m 1400 612.5 1575 525 1400 525 c S
1487.5 437.5 m 1487.5 350 1575 525 1575 350 c S
1662.5 612.5 m 1662.5 700 1575 525 1575 700 c S
1487.5 262.5 m 1487.5 350 1575 175 1575 350 c S
1662.5 262.5 m 1750 262.5 1575 175 1750 175 c S
1662.5 87.5 m 1662.5 0 1575 175 1575 0 c S
1487.5 87.5 m 1400 87.5 1575 175 1400 175 c S
1662.5 87.5 m 1750 87.5 1575 175 1750 175 c S
1487.5 262.5 m 1400 262.5 1575 175 1400 175 c S
1487.5 87.5 m 1487.5 0 1575 175 1575 0 c S
1662.5 262.5 m 1662.5 350 1575 175 1575 350 c S
1837.5 1662.5 m 1837.5 1750 1925 1575 1925 1750 c S
2012.5 1662.5 m 2100 1662.5 1925 1575 2100 1575 c S
2012.5 1487.5 m 2012.5 1400 1925 1575 1925 1400 c S
1837.5 1487.5 m 1750 1487.5 1925 1575 1750 1575 c S
2012.5 1487.5 m 2100 1487.5 1925 1575 2100 1575 c S
1837.5 1662.5 m 1750 1662.5 1925 1575 1750 1575 c S
1837.5 1487.5 m 1837.5 1400 1925 1575 1925 1400 c S
2012.5 1662.5 m 2012.5 1750 1925 1575 1925 1750 c S
1837.5 1312.5 m 1837.5 1400 1925 1225 1925 1400 c S
2012.5 1312.5 m 2100 1312.5 1925 1225 2100 1225 c S
2012.5 1137.5 m 2012.5 1050 1925 1225 1925 1050 c S
1837.5 1137.5 m 1750 1137.5 1925 1225 1750 1225 c S
2012.5 1137.5 m 2100 1137.5 1925 1225 2100 1225 c S
1837.5 1312.5 m 1750 1312.5 1925 1225 1750 1225 c S
1837.5 1137.5 m 1837.5 1050 1925 1225 1925 1050 c S
2012.5 1312.5 m 2012.5 1400 1925 1225 1925 1400 c S
1837.5 962.5 m 1837.5 1050 1925 875 1925 1050 c S
2012.5 962.5 m 2100 962.5 1925 875 2100 875 c S
2012.5 787.5 m 2012.5 700 1925 875 1925 700 c S
1837.5 787.5 m 1750 787.5 1925 875 1750 875 c S
2012.5 787.5 m 2100 787.5 1925 875 2100 875 c S
1837.5 962.5 m 1750 962.5 1925 875 1750 875 c S
1837.5 787.5 m 1837.5 700 1925 875 1925 700 c S
2012.5 962.5 m 2012.5 1050 1925 875 1925 1050 c S
1837.5 612.5 m 1837.5 700 1925 525 1925 700 c S
2012.5 612.5 m 2100 612.5 1925 525 2100 525 c S
2012.5 437.5 m 2012.5 350 1925 525 1925 350 c S
1837.5 437.5 m 1750 437.5 1925 525 1750 525 c S
2012.5 437.5 m 2100 437.5 1925 525 2100 525 c S
1837.5 612.5 m 1750 612.5 1925 525 1750 525 c S
1837.5 437.5 m 1837.5 350 1925 525 1925 350 c S
2012.5 612.5 m 2012.5 700 1925 525 1925 700 c S
1837.5 262.5 m 1837.5 350 1925 175 1925 350 c S
2012.5 262.5 m 2100 262.5 1925 175 2100 175 c S
2012.5 87.5 m 2012.5 0 1925 175 1925 0 c S
1837.5 87.5 m 1750 87.5 1925 175 1750 175 c S
2012.5 87.5 m 2100 87.5 1925 175 2100 175 c S
1837.5 262.5 m 1750 262.5 1925 175 1750 175 c S
1837.5 87.5 m 1837.5 0 1925 175 1925 0 c S
2012.5 262.5 m 2012.5 350 1925 175 1925 350 c S
2187.5 1662.5 m 2187.5 1750 2275 1575 2275 1750 c S
2362.5 1662.5 m 2450 1662.5 2275 1575 2450 1575 c S
2362.5 1487.5 m 2362.5 1400 2275 1575 2275 1400 c S
2187.5 1487.5 m 2100 1487.5 2275 1575 2100 1575 c S
2362.5 1487.5 m 2450 1487.5 2275 1575 2450 1575 c S
2187.5 1662.5 m 2100 1662.5 2275 1575 2100 1575 c S
2187.5 1487.5 m 2187.5 1400 2275 1575 2275 1400 c S
2362.5 1662.5 m 2362.5 1750 2275 1575 2275 1750 c S
2187.5 1312.5 m 2187.5 1400 2275 1225 2275 1400 c S
2362.5 1312.5 m 2450 1312.5 2275 1225 2450 1225 c S
2362.5 1137.5 m 2362.5 1050 2275 1225 2275 1050 c S
2187.5 1137.5 m 2100 1137.5 2275 1225 2100 1225 c S
2362.5 1137.5 m 2450 1137.5 2275 1225 2450 1225 c S
2187.5 1312.5 m 2100 1312.5 2275 1225 2100 1225 c S
2187.5 1137.5 m 2187.5 1050 2275 1225 2275 1050 c S
2362.5 1312.5 m 2362.5 1400 2275 1225 2275 1400 c S
2187.5 962.5 m 2187.5 1050 2275 875 2275 1050 c S
2362.5 962.5 m 2450 962.5 2275 875 2450 875 c S
2362.5 787.5 m 2362.5 700 2275 875 2275 700 c S
2187.5 787.5 m 2100 787.5 2275 875 2100 875 c S
2362.5 787.5 m 2450 787.5 2275 875 2450 875 c S
2187.5 962.5 m 2100 962.5 2275 875 2100 875 c S
2187.5 787.5 m 2187.5 700 2275 875 2275 700 c S
2362.5 962.5 m 2362.5 1050 2275 875 2275 1050 c S
2187.5 612.5 m 2187.5 700 2275 525 2275 700 c S
2362.5 612.5 m 2450 612.5 2275 525 2450 525 c S
2362.5 437.5 m 2362.5 350 2275 525 2275 350 c S
2187.5 437.5 m 2100 437.5 2275 525 2100 525 c S
2362.5 437.5 m 2450 437.5 2275 525 2450 525 c S
2187.5 612.5 m 2100 612.5 2275 525 2100 525 c S
2187.5 437.5 m 2187.5 350 2275 525 2275 350 c S
2362.5 612.5 m 2362.5 700 2275 525 2275 700 c S
2187.5 262.5 m 2187.5 350 2275 175 2275 350 c S
2362.5 262.5 m 2450 262.5 2275 175 2450 175 c S
2362.5 87.5 m 2362.5 0 2275 175 2275 0 c S
2187.5 87.5 m 2100 87.5 2275 175 2100 175 c S
2362.5 87.5 m 2450 87.5 2275 175 2450 175 c S
2187.5 262.5 m 2100 262.5 2275 175 2100 175 c S
2187.5 87.5 m 2187.5 0 2275 175 2275 0 c S
2362.5 262.5 m 2362.5 350 2275 175 2275 350 c S
Q Q
showpage
%%Trailer
%%Trailer
cleartomark
countdictstack
exch sub { end } repeat
restore
%%EOF
