<svg xmlns="http://www.w3.org/2000/svg" baseProfile="full" width="2450" height="1750" viewBox="-175.0 -175.0 2450.0 1750.0">
    <title>
        Pattern design from http://ornamentist.org
    </title>
    <desc>
        This file is licensed under a Creative Commons CC BY 4.0 license: http://creativecommons.org/licenses/by/4.0/
    </desc>
    <defs>
        <style>
<![CDATA[
        
polyline {
  fill:            none;
  stroke:          black;
  stroke-linecap:  round;
  stroke-linejoin: round;
  stroke-width:    2.0pt;
}


polyline.closed {
  fill:      #d9d9d9;
  fill-rule: evenodd;
}


polygon {
  fill:            #d9d9d9;
  fill-rule:       evenodd;
  stroke:          black;
  stroke-linejoin: round;
  stroke-width:    2.0pt;
}


circle {
  fill:         #d9d9d9;
  stroke:       black;
  stroke-width: 2.0pt;
}


ellipse {
  fill:         #d9d9d9;
  stroke:       black;
  stroke-width: 2.0pt;
}


path {
  fill:            none;
  stroke:          black;
  stroke-linecap:  round;
  stroke-linejoin: round;
  stroke-width:    2.0pt;
}


path.closed {
  fill:      #d9d9d9;
  fill-rule: evenodd;
}


polygon.background,
path.background
{
  fill:   #fbfbfb;
  stroke: #c9c9c9;
  stroke-width: 1.5pt;
}

        ]]>
        </style>
    </defs>
    <clipPath id="design">
        <path d="M-175-175h2450v1750H-175z"/>
    </clipPath>
    <g clip-path="url(#design)" color-rendering="optimizeQuality" shape-rendering="geometricPrecision" id="graphics">
        <path class="background closed" d="M2275-175v1750H-175V-175z"/>
        <path d="M-87.5-87.5C-87.5-175 0 0 0-175M87.5-87.5C175-87.5 0 0 175 0M87.5 87.5C87.5 175 0 0 0 175M-87.5 87.5C-175 87.5 0 0-175 0M87.5 87.5C175 87.5 0 0 175 0M-87.5-87.5C-175-87.5 0 0-175 0M-87.5 87.5C-87.5 175 0 0 0 175M87.5-87.5C87.5-175 0 0 0-175M-87.5 262.5C-87.5 175 0 350 0 175M87.5 262.5C175 262.5 0 350 175 350M87.5 437.5C87.5 525 0 350 0 525M-87.5 437.5C-175 437.5 0 350-175 350M87.5 437.5C175 437.5 0 350 175 350M-87.5 262.5C-175 262.5 0 350-175 350M-87.5 437.5C-87.5 525 0 350 0 525M87.5 262.5C87.5 175 0 350 0 175M-87.5 612.5C-87.5 525 0 700 0 525M87.5 612.5C175 612.5 0 700 175 700M87.5 787.5C87.5 875 0 700 0 875M-87.5 787.5C-175 787.5 0 700-175 700M87.5 787.5C175 787.5 0 700 175 700M-87.5 612.5C-175 612.5 0 700-175 700M-87.5 787.5C-87.5 875 0 700 0 875M87.5 612.5C87.5 525 0 700 0 525M-87.5 962.5C-87.5 875 0 1050 0 875M87.5 962.5C175 962.5 0 1050 175 1050M87.5 1137.5C87.5 1225 0 1050 0 1225M-87.5 1137.5c-87.5 0 87.5-87.5-87.5-87.5M87.5 1137.5c87.5 0-87.5-87.5 87.5-87.5M-87.5 962.5C-175 962.5 0 1050-175 1050M-87.5 1137.5C-87.5 1225 0 1050 0 1225M87.5 962.5C87.5 875 0 1050 0 875M-87.5 1312.5C-87.5 1225 0 1400 0 1225M87.5 1312.5c87.5 0-87.5 87.5 87.5 87.5M87.5 1487.5C87.5 1575 0 1400 0 1575M-87.5 1487.5c-87.5 0 87.5-87.5-87.5-87.5M87.5 1487.5c87.5 0-87.5-87.5 87.5-87.5M-87.5 1312.5c-87.5 0 87.5 87.5-87.5 87.5M-87.5 1487.5C-87.5 1575 0 1400 0 1575M87.5 1312.5C87.5 1225 0 1400 0 1225M262.5-87.5C262.5-175 350 0 350-175M437.5-87.5C525-87.5 350 0 525 0M437.5 87.5C437.5 175 350 0 350 175M262.5 87.5C175 87.5 350 0 175 0M437.5 87.5C525 87.5 350 0 525 0M262.5-87.5C175-87.5 350 0 175 0M262.5 87.5C262.5 175 350 0 350 175M437.5-87.5C437.5-175 350 0 350-175M262.5 262.5C262.5 175 350 350 350 175M437.5 262.5C525 262.5 350 350 525 350M437.5 437.5C437.5 525 350 350 350 525M262.5 437.5C175 437.5 350 350 175 350M437.5 437.5C525 437.5 350 350 525 350M262.5 262.5C175 262.5 350 350 175 350M262.5 437.5C262.5 525 350 350 350 525M437.5 262.5C437.5 175 350 350 350 175M262.5 612.5C262.5 525 350 700 350 525M437.5 612.5C525 612.5 350 700 525 700M437.5 787.5C437.5 875 350 700 350 875M262.5 787.5C175 787.5 350 700 175 700M437.5 787.5C525 787.5 350 700 525 700M262.5 612.5C175 612.5 350 700 175 700M262.5 787.5C262.5 875 350 700 350 875M437.5 612.5C437.5 525 350 700 350 525M262.5 962.5c0-87.5 87.5 87.5 87.5-87.5M437.5 962.5c87.5 0-87.5 87.5 87.5 87.5M437.5 1137.5c0 87.5-87.5-87.5-87.5 87.5M262.5 1137.5c-87.5 0 87.5-87.5-87.5-87.5M437.5 1137.5c87.5 0-87.5-87.5 87.5-87.5M262.5 962.5c-87.5 0 87.5 87.5-87.5 87.5M262.5 1137.5c0 87.5 87.5-87.5 87.5 87.5M437.5 962.5c0-87.5-87.5 87.5-87.5-87.5M262.5 1312.5c0-87.5 87.5 87.5 87.5-87.5M437.5 1312.5c87.5 0-87.5 87.5 87.5 87.5M437.5 1487.5c0 87.5-87.5-87.5-87.5 87.5M262.5 1487.5c-87.5 0 87.5-87.5-87.5-87.5M437.5 1487.5c87.5 0-87.5-87.5 87.5-87.5M262.5 1312.5c-87.5 0 87.5 87.5-87.5 87.5M262.5 1487.5c0 87.5 87.5-87.5 87.5 87.5M437.5 1312.5c0-87.5-87.5 87.5-87.5-87.5M612.5-87.5C612.5-175 700 0 700-175M787.5-87.5C875-87.5 700 0 875 0M787.5 87.5C787.5 175 700 0 700 175M612.5 87.5C525 87.5 700 0 525 0M787.5 87.5C875 87.5 700 0 875 0M612.5-87.5C525-87.5 700 0 525 0M612.5 87.5C612.5 175 700 0 700 175M787.5-87.5C787.5-175 700 0 700-175M612.5 262.5C612.5 175 700 350 700 175M787.5 262.5C875 262.5 700 350 875 350M787.5 437.5C787.5 525 700 350 700 525M612.5 437.5C525 437.5 700 350 525 350M787.5 437.5C875 437.5 700 350 875 350M612.5 262.5C525 262.5 700 350 525 350M612.5 437.5C612.5 525 700 350 700 525M787.5 262.5C787.5 175 700 350 700 175M612.5 612.5C612.5 525 700 700 700 525M787.5 612.5C875 612.5 700 700 875 700M787.5 787.5C787.5 875 700 700 700 875M612.5 787.5C525 787.5 700 700 525 700M787.5 787.5C875 787.5 700 700 875 700M612.5 612.5C525 612.5 700 700 525 700M612.5 787.5C612.5 875 700 700 700 875M787.5 612.5C787.5 525 700 700 700 525M612.5 962.5c0-87.5 87.5 87.5 87.5-87.5M787.5 962.5c87.5 0-87.5 87.5 87.5 87.5M787.5 1137.5c0 87.5-87.5-87.5-87.5 87.5M612.5 1137.5c-87.5 0 87.5-87.5-87.5-87.5M787.5 1137.5c87.5 0-87.5-87.5 87.5-87.5M612.5 962.5c-87.5 0 87.5 87.5-87.5 87.5M612.5 1137.5c0 87.5 87.5-87.5 87.5 87.5M787.5 962.5c0-87.5-87.5 87.5-87.5-87.5M612.5 1312.5c0-87.5 87.5 87.5 87.5-87.5M787.5 1312.5c87.5 0-87.5 87.5 87.5 87.5M787.5 1487.5c0 87.5-87.5-87.5-87.5 87.5M612.5 1487.5c-87.5 0 87.5-87.5-87.5-87.5M787.5 1487.5c87.5 0-87.5-87.5 87.5-87.5M612.5 1312.5c-87.5 0 87.5 87.5-87.5 87.5M612.5 1487.5c0 87.5 87.5-87.5 87.5 87.5M787.5 1312.5c0-87.5-87.5 87.5-87.5-87.5M962.5-87.5C962.5-175 1050 0 1050-175M1137.5-87.5C1225-87.5 1050 0 1225 0M1137.5 87.5c0 87.5-87.5-87.5-87.5 87.5M962.5 87.5C875 87.5 1050 0 875 0M1137.5 87.5C1225 87.5 1050 0 1225 0M962.5-87.5C875-87.5 1050 0 875 0M962.5 87.5C962.5 175 1050 0 1050 175M1137.5-87.5c0-87.5-87.5 87.5-87.5-87.5M962.5 262.5c0-87.5 87.5 87.5 87.5-87.5M1137.5 262.5c87.5 0-87.5 87.5 87.5 87.5M1137.5 437.5c0 87.5-87.5-87.5-87.5 87.5M962.5 437.5C875 437.5 1050 350 875 350M1137.5 437.5c87.5 0-87.5-87.5 87.5-87.5M962.5 262.5C875 262.5 1050 350 875 350M962.5 437.5c0 87.5 87.5-87.5 87.5 87.5M1137.5 262.5c0-87.5-87.5 87.5-87.5-87.5M962.5 612.5c0-87.5 87.5 87.5 87.5-87.5M1137.5 612.5c87.5 0-87.5 87.5 87.5 87.5M1137.5 787.5c0 87.5-87.5-87.5-87.5 87.5M962.5 787.5C875 787.5 1050 700 875 700M1137.5 787.5c87.5 0-87.5-87.5 87.5-87.5M962.5 612.5C875 612.5 1050 700 875 700M962.5 787.5c0 87.5 87.5-87.5 87.5 87.5M1137.5 612.5c0-87.5-87.5 87.5-87.5-87.5M962.5 962.5c0-87.5 87.5 87.5 87.5-87.5M1137.5 962.5c87.5 0-87.5 87.5 87.5 87.5M1137.5 1137.5c0 87.5-87.5-87.5-87.5 87.5M962.5 1137.5c-87.5 0 87.5-87.5-87.5-87.5M1137.5 1137.5c87.5 0-87.5-87.5 87.5-87.5M962.5 962.5c-87.5 0 87.5 87.5-87.5 87.5M962.5 1137.5c0 87.5 87.5-87.5 87.5 87.5M1137.5 962.5c0-87.5-87.5 87.5-87.5-87.5M962.5 1312.5c0-87.5 87.5 87.5 87.5-87.5M1137.5 1312.5c87.5 0-87.5 87.5 87.5 87.5M1137.5 1487.5c0 87.5-87.5-87.5-87.5 87.5M962.5 1487.5c-87.5 0 87.5-87.5-87.5-87.5M1137.5 1487.5c87.5 0-87.5-87.5 87.5-87.5M962.5 1312.5c-87.5 0 87.5 87.5-87.5 87.5M962.5 1487.5c0 87.5 87.5-87.5 87.5 87.5M1137.5 1312.5c0-87.5-87.5 87.5-87.5-87.5M1312.5-87.5c0-87.5 87.5 87.5 87.5-87.5M1487.5-87.5C1575-87.5 1400 0 1575 0M1487.5 87.5c0 87.5-87.5-87.5-87.5 87.5M1312.5 87.5C1225 87.5 1400 0 1225 0M1487.5 87.5C1575 87.5 1400 0 1575 0M1312.5-87.5C1225-87.5 1400 0 1225 0M1312.5 87.5c0 87.5 87.5-87.5 87.5 87.5M1487.5-87.5c0-87.5-87.5 87.5-87.5-87.5M1312.5 262.5c0-87.5 87.5 87.5 87.5-87.5M1487.5 262.5c87.5 0-87.5 87.5 87.5 87.5M1487.5 437.5c0 87.5-87.5-87.5-87.5 87.5M1312.5 437.5c-87.5 0 87.5-87.5-87.5-87.5M1487.5 437.5c87.5 0-87.5-87.5 87.5-87.5M1312.5 262.5c-87.5 0 87.5 87.5-87.5 87.5M1312.5 437.5c0 87.5 87.5-87.5 87.5 87.5M1487.5 262.5c0-87.5-87.5 87.5-87.5-87.5M1312.5 612.5c0-87.5 87.5 87.5 87.5-87.5M1487.5 612.5c87.5 0-87.5 87.5 87.5 87.5M1487.5 787.5c0 87.5-87.5-87.5-87.5 87.5M1312.5 787.5c-87.5 0 87.5-87.5-87.5-87.5M1487.5 787.5c87.5 0-87.5-87.5 87.5-87.5M1312.5 612.5c-87.5 0 87.5 87.5-87.5 87.5M1312.5 787.5c0 87.5 87.5-87.5 87.5 87.5M1487.5 612.5c0-87.5-87.5 87.5-87.5-87.5M1312.5 962.5c0-87.5 87.5 87.5 87.5-87.5M1487.5 962.5c87.5 0-87.5 87.5 87.5 87.5M1487.5 1137.5c0 87.5-87.5-87.5-87.5 87.5M1312.5 1137.5c-87.5 0 87.5-87.5-87.5-87.5M1487.5 1137.5c87.5 0-87.5-87.5 87.5-87.5M1312.5 962.5c-87.5 0 87.5 87.5-87.5 87.5M1312.5 1137.5c0 87.5 87.5-87.5 87.5 87.5M1487.5 962.5c0-87.5-87.5 87.5-87.5-87.5M1312.5 1312.5c0-87.5 87.5 87.5 87.5-87.5M1487.5 1312.5c87.5 0-87.5 87.5 87.5 87.5M1487.5 1487.5c0 87.5-87.5-87.5-87.5 87.5M1312.5 1487.5c-87.5 0 87.5-87.5-87.5-87.5M1487.5 1487.5c87.5 0-87.5-87.5 87.5-87.5M1312.5 1312.5c-87.5 0 87.5 87.5-87.5 87.5M1312.5 1487.5c0 87.5 87.5-87.5 87.5 87.5M1487.5 1312.5c0-87.5-87.5 87.5-87.5-87.5M1662.5-87.5c0-87.5 87.5 87.5 87.5-87.5M1837.5-87.5C1925-87.5 1750 0 1925 0M1837.5 87.5c0 87.5-87.5-87.5-87.5 87.5M1662.5 87.5C1575 87.5 1750 0 1575 0M1837.5 87.5C1925 87.5 1750 0 1925 0M1662.5-87.5C1575-87.5 1750 0 1575 0M1662.5 87.5c0 87.5 87.5-87.5 87.5 87.5M1837.5-87.5c0-87.5-87.5 87.5-87.5-87.5M1662.5 262.5c0-87.5 87.5 87.5 87.5-87.5M1837.5 262.5c87.5 0-87.5 87.5 87.5 87.5M1837.5 437.5c0 87.5-87.5-87.5-87.5 87.5M1662.5 437.5c-87.5 0 87.5-87.5-87.5-87.5M1837.5 437.5c87.5 0-87.5-87.5 87.5-87.5M1662.5 262.5c-87.5 0 87.5 87.5-87.5 87.5M1662.5 437.5c0 87.5 87.5-87.5 87.5 87.5M1837.5 262.5c0-87.5-87.5 87.5-87.5-87.5M1662.5 612.5c0-87.5 87.5 87.5 87.5-87.5M1837.5 612.5c87.5 0-87.5 87.5 87.5 87.5M1837.5 787.5c0 87.5-87.5-87.5-87.5 87.5M1662.5 787.5c-87.5 0 87.5-87.5-87.5-87.5M1837.5 787.5c87.5 0-87.5-87.5 87.5-87.5M1662.5 612.5c-87.5 0 87.5 87.5-87.5 87.5M1662.5 787.5c0 87.5 87.5-87.5 87.5 87.5M1837.5 612.5c0-87.5-87.5 87.5-87.5-87.5M1662.5 962.5c0-87.5 87.5 87.5 87.5-87.5M1837.5 962.5c87.5 0-87.5 87.5 87.5 87.5M1837.5 1137.5c0 87.5-87.5-87.5-87.5 87.5M1662.5 1137.5c-87.5 0 87.5-87.5-87.5-87.5M1837.5 1137.5c87.5 0-87.5-87.5 87.5-87.5M1662.5 962.5c-87.5 0 87.5 87.5-87.5 87.5M1662.5 1137.5c0 87.5 87.5-87.5 87.5 87.5M1837.5 962.5c0-87.5-87.5 87.5-87.5-87.5M1662.5 1312.5c0-87.5 87.5 87.5 87.5-87.5M1837.5 1312.5c87.5 0-87.5 87.5 87.5 87.5M1837.5 1487.5c0 87.5-87.5-87.5-87.5 87.5M1662.5 1487.5c-87.5 0 87.5-87.5-87.5-87.5M1837.5 1487.5c87.5 0-87.5-87.5 87.5-87.5M1662.5 1312.5c-87.5 0 87.5 87.5-87.5 87.5M1662.5 1487.5c0 87.5 87.5-87.5 87.5 87.5M1837.5 1312.5c0-87.5-87.5 87.5-87.5-87.5M2012.5-87.5c0-87.5 87.5 87.5 87.5-87.5M2187.5-87.5C2275-87.5 2100 0 2275 0M2187.5 87.5c0 87.5-87.5-87.5-87.5 87.5M2012.5 87.5C1925 87.5 2100 0 1925 0M2187.5 87.5C2275 87.5 2100 0 2275 0M2012.5-87.5C1925-87.5 2100 0 1925 0M2012.5 87.5c0 87.5 87.5-87.5 87.5 87.5M2187.5-87.5c0-87.5-87.5 87.5-87.5-87.5M2012.5 262.5c0-87.5 87.5 87.5 87.5-87.5M2187.5 262.5c87.5 0-87.5 87.5 87.5 87.5M2187.5 437.5c0 87.5-87.5-87.5-87.5 87.5M2012.5 437.5c-87.5 0 87.5-87.5-87.5-87.5M2187.5 437.5c87.5 0-87.5-87.5 87.5-87.5M2012.5 262.5c-87.5 0 87.5 87.5-87.5 87.5M2012.5 437.5c0 87.5 87.5-87.5 87.5 87.5M2187.5 262.5c0-87.5-87.5 87.5-87.5-87.5M2012.5 612.5c0-87.5 87.5 87.5 87.5-87.5M2187.5 612.5c87.5 0-87.5 87.5 87.5 87.5M2187.5 787.5c0 87.5-87.5-87.5-87.5 87.5M2012.5 787.5c-87.5 0 87.5-87.5-87.5-87.5M2187.5 787.5c87.5 0-87.5-87.5 87.5-87.5M2012.5 612.5c-87.5 0 87.5 87.5-87.5 87.5M2012.5 787.5c0 87.5 87.5-87.5 87.5 87.5M2187.5 612.5c0-87.5-87.5 87.5-87.5-87.5M2012.5 962.5c0-87.5 87.5 87.5 87.5-87.5M2187.5 962.5c87.5 0-87.5 87.5 87.5 87.5M2187.5 1137.5c0 87.5-87.5-87.5-87.5 87.5M2012.5 1137.5c-87.5 0 87.5-87.5-87.5-87.5M2187.5 1137.5c87.5 0-87.5-87.5 87.5-87.5M2012.5 962.5c-87.5 0 87.5 87.5-87.5 87.5M2012.5 1137.5c0 87.5 87.5-87.5 87.5 87.5M2187.5 962.5c0-87.5-87.5 87.5-87.5-87.5M2012.5 1312.5c0-87.5 87.5 87.5 87.5-87.5M2187.5 1312.5c87.5 0-87.5 87.5 87.5 87.5M2187.5 1487.5c0 87.5-87.5-87.5-87.5 87.5M2012.5 1487.5c-87.5 0 87.5-87.5-87.5-87.5M2187.5 1487.5c87.5 0-87.5-87.5 87.5-87.5M2012.5 1312.5c-87.5 0 87.5 87.5-87.5 87.5M2012.5 1487.5c0 87.5 87.5-87.5 87.5 87.5M2187.5 1312.5c0-87.5-87.5 87.5-87.5-87.5" class="bezier-3-1 open"/>
    </g>
</svg>
