<svg xmlns="http://www.w3.org/2000/svg" baseProfile="full" width="2450" height="1750" viewBox="-175.0 -175.0 2450.0 1750.0">
    <title>
        Pattern design from http://ornamentist.org
    </title>
    <desc>
        This file is licensed under a Creative Commons CC BY 4.0 license: http://creativecommons.org/licenses/by/4.0/
    </desc>
    <defs>
        <style>
<![CDATA[
        
polyline {
  fill:            none;
  stroke:          black;
  stroke-linecap:  round;
  stroke-linejoin: round;
  stroke-width:    2.0pt;
}


polyline.closed {
  fill:      #d9d9d9;
  fill-rule: evenodd;
}


polygon {
  fill:            #d9d9d9;
  fill-rule:       evenodd;
  stroke:          black;
  stroke-linejoin: round;
  stroke-width:    2.0pt;
}


circle {
  fill:         #d9d9d9;
  stroke:       black;
  stroke-width: 2.0pt;
}


ellipse {
  fill:         #d9d9d9;
  stroke:       black;
  stroke-width: 2.0pt;
}


path {
  fill:            none;
  stroke:          black;
  stroke-linecap:  round;
  stroke-linejoin: round;
  stroke-width:    2.0pt;
}


path.closed {
  fill:      #d9d9d9;
  fill-rule: evenodd;
}


polygon.background,
path.background
{
  fill:   #fbfbfb;
  stroke: #c9c9c9;
  stroke-width: 1.5pt;
}

        ]]>
        </style>
    </defs>
    <clipPath id="design">
        <path d="M-175-175h2450v1750H-175z"/>
    </clipPath>
    <g clip-path="url(#design)" color-rendering="optimizeQuality" shape-rendering="geometricPrecision" id="graphics">
        <path class="background closed" d="M2275-175v1750H-175V-175z"/>
        <path d="M-116.667-116.667C0-175 0-116.667-58.333-116.667M116.667-116.667C175 0 116.667 0 116.667-58.333M116.667 116.667C0 175 0 116.667 58.333 116.667M-116.667 116.667C-175 0-116.667 0-116.667 58.333M116.667 116.667C175 0 116.667 0 116.667 58.333M-116.667-116.667C-175 0-116.667 0-116.667-58.333M-116.667 116.667C0 175 0 116.667-58.333 116.667M116.667-116.667C0-175 0-116.667 58.333-116.667M-116.667 233.333C0 175 0 233.333-58.333 233.333M116.667 233.333c58.333 116.667 0 116.667 0 58.334M116.667 466.667C0 525 0 466.667 58.333 466.667M-116.667 466.667c-58.333-116.667 0-116.667 0-58.334M116.667 466.667c58.333-116.667 0-116.667 0-58.334M-116.667 233.333c-58.333 116.667 0 116.667 0 58.334M-116.667 466.667C0 525 0 466.667-58.333 466.667M116.667 233.333C0 175 0 233.333 58.333 233.333M-116.667 583.333C0 525 0 583.333-58.333 583.333M116.667 583.333c58.333 116.667 0 116.667 0 58.334M116.667 816.667C0 875 0 816.667 58.333 816.667M-116.667 816.667c-58.333-116.667 0-116.667 0-58.334M116.667 816.667c58.333-116.667 0-116.667 0-58.334M-116.667 583.333c-58.333 116.667 0 116.667 0 58.334M-116.667 816.667C0 875 0 816.667-58.333 816.667M116.667 583.333C0 525 0 583.333 58.333 583.333M-116.667 933.333C0 875 0 933.333-58.333 933.333M116.667 933.333c58.333 116.667 0 116.667 0 58.334M116.667 1166.667C0 1225 0 1166.667 58.333 1166.667M-116.667 1166.667c-58.333-116.667 0-116.667 0-58.334M116.667 1166.667c58.333-116.667 0-116.667 0-58.334M-116.667 933.333c-58.333 116.667 0 116.667 0 58.334M-116.667 1166.667c116.667 58.333 116.667 0 58.334 0M116.667 933.333C0 875 0 933.333 58.333 933.333M-116.667 1283.333c116.667-58.333 116.667 0 58.334 0M116.667 1283.333c58.333 116.667 0 116.667 0 58.334M116.667 1516.667C0 1575 0 1516.667 58.333 1516.667M-116.667 1516.667c-58.333-116.667 0-116.667 0-58.334M116.667 1516.667c58.333-116.667 0-116.667 0-58.334M-116.667 1283.333c-58.333 116.667 0 116.667 0 58.334M-116.667 1516.667c116.667 58.333 116.667 0 58.334 0M116.667 1283.333C0 1225 0 1283.333 58.333 1283.333M233.333-116.667c116.667-58.333 116.667 0 58.334 0M466.667-116.667C525 0 466.667 0 466.667-58.333M466.667 116.667c-116.667 58.333-116.667 0-58.334 0M233.333 116.667C175 0 233.333 0 233.333 58.333M466.667 116.667C525 0 466.667 0 466.667 58.333M233.333-116.667C175 0 233.333 0 233.333-58.333M233.333 116.667c116.667 58.333 116.667 0 58.334 0M466.667-116.667c-116.667-58.333-116.667 0-58.334 0M233.333 233.333c116.667-58.333 116.667 0 58.334 0M466.667 233.333c58.333 116.667 0 116.667 0 58.334M466.667 466.667c-116.667 58.333-116.667 0-58.334 0M233.333 466.667c-58.333-116.667 0-116.667 0-58.334M466.667 466.667c58.333-116.667 0-116.667 0-58.334M233.333 233.333c-58.333 116.667 0 116.667 0 58.334M233.333 466.667c116.667 58.333 116.667 0 58.334 0M466.667 233.333c-116.667-58.333-116.667 0-58.334 0M233.333 583.333c116.667-58.333 116.667 0 58.334 0M466.667 583.333c58.333 116.667 0 116.667 0 58.334M466.667 816.667c-116.667 58.333-116.667 0-58.334 0M233.333 816.667c-58.333-116.667 0-116.667 0-58.334M466.667 816.667c58.333-116.667 0-116.667 0-58.334M233.333 583.333c-58.333 116.667 0 116.667 0 58.334M233.333 816.667c116.667 58.333 116.667 0 58.334 0M466.667 583.333c-116.667-58.333-116.667 0-58.334 0M233.333 933.333c116.667-58.333 116.667 0 58.334 0M466.667 933.333c58.333 116.667 0 116.667 0 58.334M466.667 1166.667c-116.667 58.333-116.667 0-58.334 0M233.333 1166.667c-58.333-116.667 0-116.667 0-58.334M466.667 1166.667c58.333-116.667 0-116.667 0-58.334M233.333 933.333c-58.333 116.667 0 116.667 0 58.334M233.333 1166.667c116.667 58.333 116.667 0 58.334 0M466.667 933.333c-116.667-58.333-116.667 0-58.334 0M233.333 1283.333c116.667-58.333 116.667 0 58.334 0M466.667 1283.333c58.333 116.667 0 116.667 0 58.334M466.667 1516.667c-116.667 58.333-116.667 0-58.334 0M233.333 1516.667c-58.333-116.667 0-116.667 0-58.334M466.667 1516.667c58.333-116.667 0-116.667 0-58.334M233.333 1283.333c-58.333 116.667 0 116.667 0 58.334M233.333 1516.667c116.667 58.333 116.667 0 58.334 0M466.667 1283.333c-116.667-58.333-116.667 0-58.334 0M583.333-116.667c116.667-58.333 116.667 0 58.334 0M816.667-116.667C875 0 816.667 0 816.667-58.333M816.667 116.667c-116.667 58.333-116.667 0-58.334 0M583.333 116.667C525 0 583.333 0 583.333 58.333M816.667 116.667C875 0 816.667 0 816.667 58.333M583.333-116.667C525 0 583.333 0 583.333-58.333M583.333 116.667c116.667 58.333 116.667 0 58.334 0M816.667-116.667c-116.667-58.333-116.667 0-58.334 0M583.333 233.333c116.667-58.333 116.667 0 58.334 0M816.667 233.333c58.333 116.667 0 116.667 0 58.334M816.667 466.667c-116.667 58.333-116.667 0-58.334 0M583.333 466.667c-58.333-116.667 0-116.667 0-58.334M816.667 466.667c58.333-116.667 0-116.667 0-58.334M583.333 233.333c-58.333 116.667 0 116.667 0 58.334M583.333 466.667c116.667 58.333 116.667 0 58.334 0M816.667 233.333c-116.667-58.333-116.667 0-58.334 0M583.333 583.333c116.667-58.333 116.667 0 58.334 0M816.667 583.333c58.333 116.667 0 116.667 0 58.334M816.667 816.667c-116.667 58.333-116.667 0-58.334 0M583.333 816.667c-58.333-116.667 0-116.667 0-58.334M816.667 816.667c58.333-116.667 0-116.667 0-58.334M583.333 583.333c-58.333 116.667 0 116.667 0 58.334M583.333 816.667c116.667 58.333 116.667 0 58.334 0M816.667 583.333c-116.667-58.333-116.667 0-58.334 0M583.333 933.333c116.667-58.333 116.667 0 58.334 0M816.667 933.333c58.333 116.667 0 116.667 0 58.334M816.667 1166.667c-116.667 58.333-116.667 0-58.334 0M583.333 1166.667c-58.333-116.667 0-116.667 0-58.334M816.667 1166.667c58.333-116.667 0-116.667 0-58.334M583.333 933.333c-58.333 116.667 0 116.667 0 58.334M583.333 1166.667c116.667 58.333 116.667 0 58.334 0M816.667 933.333c-116.667-58.333-116.667 0-58.334 0M583.333 1283.333c116.667-58.333 116.667 0 58.334 0M816.667 1283.333c58.333 116.667 0 116.667 0 58.334M816.667 1516.667c-116.667 58.333-116.667 0-58.334 0M583.333 1516.667c-58.333-116.667 0-116.667 0-58.334M816.667 1516.667c58.333-116.667 0-116.667 0-58.334M583.333 1283.333c-58.333 116.667 0 116.667 0 58.334M583.333 1516.667c116.667 58.333 116.667 0 58.334 0M816.667 1283.333c-116.667-58.333-116.667 0-58.334 0M933.333-116.667c116.667-58.333 116.667 0 58.334 0M1166.667-116.667c58.333 116.667 0 116.667 0 58.334M1166.667 116.667c-116.667 58.333-116.667 0-58.334 0M933.333 116.667C875 0 933.333 0 933.333 58.333M1166.667 116.667c58.333-116.667 0-116.667 0-58.334M933.333-116.667C875 0 933.333 0 933.333-58.333M933.333 116.667c116.667 58.333 116.667 0 58.334 0M1166.667-116.667c-116.667-58.333-116.667 0-58.334 0M933.333 233.333c116.667-58.333 116.667 0 58.334 0M1166.667 233.333c58.333 116.667 0 116.667 0 58.334M1166.667 466.667c-116.667 58.333-116.667 0-58.334 0M933.333 466.667c-58.333-116.667 0-116.667 0-58.334M1166.667 466.667c58.333-116.667 0-116.667 0-58.334M933.333 233.333c-58.333 116.667 0 116.667 0 58.334M933.333 466.667c116.667 58.333 116.667 0 58.334 0M1166.667 233.333c-116.667-58.333-116.667 0-58.334 0M933.333 583.333c116.667-58.333 116.667 0 58.334 0M1166.667 583.333c58.333 116.667 0 116.667 0 58.334M1166.667 816.667c-116.667 58.333-116.667 0-58.334 0M933.333 816.667c-58.333-116.667 0-116.667 0-58.334M1166.667 816.667c58.333-116.667 0-116.667 0-58.334M933.333 583.333c-58.333 116.667 0 116.667 0 58.334M933.333 816.667c116.667 58.333 116.667 0 58.334 0M1166.667 583.333c-116.667-58.333-116.667 0-58.334 0M933.333 933.333c116.667-58.333 116.667 0 58.334 0M1166.667 933.333c58.333 116.667 0 116.667 0 58.334M1166.667 1166.667c-116.667 58.333-116.667 0-58.334 0M933.333 1166.667c-58.333-116.667 0-116.667 0-58.334M1166.667 1166.667c58.333-116.667 0-116.667 0-58.334M933.333 933.333c-58.333 116.667 0 116.667 0 58.334M933.333 1166.667c116.667 58.333 116.667 0 58.334 0M1166.667 933.333c-116.667-58.333-116.667 0-58.334 0M933.333 1283.333c116.667-58.333 116.667 0 58.334 0M1166.667 1283.333c58.333 116.667 0 116.667 0 58.334M1166.667 1516.667c-116.667 58.333-116.667 0-58.334 0M933.333 1516.667c-58.333-116.667 0-116.667 0-58.334M1166.667 1516.667c58.333-116.667 0-116.667 0-58.334M933.333 1283.333c-58.333 116.667 0 116.667 0 58.334M933.333 1516.667c116.667 58.333 116.667 0 58.334 0M1166.667 1283.333c-116.667-58.333-116.667 0-58.334 0M1283.333-116.667c116.667-58.333 116.667 0 58.334 0M1516.667-116.667c58.333 116.667 0 116.667 0 58.334M1516.667 116.667c-116.667 58.333-116.667 0-58.334 0M1283.333 116.667C1225 0 1283.333 0 1283.333 58.333M1516.667 116.667c58.333-116.667 0-116.667 0-58.334M1283.333-116.667C1225 0 1283.333 0 1283.333-58.333M1283.333 116.667c116.667 58.333 116.667 0 58.334 0M1516.667-116.667c-116.667-58.333-116.667 0-58.334 0M1283.333 233.333c116.667-58.333 116.667 0 58.334 0M1516.667 233.333c58.333 116.667 0 116.667 0 58.334M1516.667 466.667c-116.667 58.333-116.667 0-58.334 0M1283.333 466.667c-58.333-116.667 0-116.667 0-58.334M1516.667 466.667c58.333-116.667 0-116.667 0-58.334M1283.333 233.333c-58.333 116.667 0 116.667 0 58.334M1283.333 466.667c116.667 58.333 116.667 0 58.334 0M1516.667 233.333c-116.667-58.333-116.667 0-58.334 0M1283.333 583.333c116.667-58.333 116.667 0 58.334 0M1516.667 583.333c58.333 116.667 0 116.667 0 58.334M1516.667 816.667c-116.667 58.333-116.667 0-58.334 0M1283.333 816.667c-58.333-116.667 0-116.667 0-58.334M1516.667 816.667c58.333-116.667 0-116.667 0-58.334M1283.333 583.333c-58.333 116.667 0 116.667 0 58.334M1283.333 816.667c116.667 58.333 116.667 0 58.334 0M1516.667 583.333c-116.667-58.333-116.667 0-58.334 0M1283.333 933.333c116.667-58.333 116.667 0 58.334 0M1516.667 933.333c58.333 116.667 0 116.667 0 58.334M1516.667 1166.667c-116.667 58.333-116.667 0-58.334 0M1283.333 1166.667c-58.333-116.667 0-116.667 0-58.334M1516.667 1166.667c58.333-116.667 0-116.667 0-58.334M1283.333 933.333c-58.333 116.667 0 116.667 0 58.334M1283.333 1166.667c116.667 58.333 116.667 0 58.334 0M1516.667 933.333c-116.667-58.333-116.667 0-58.334 0M1283.333 1283.333c116.667-58.333 116.667 0 58.334 0M1516.667 1283.333c58.333 116.667 0 116.667 0 58.334M1516.667 1516.667c-116.667 58.333-116.667 0-58.334 0M1283.333 1516.667c-58.333-116.667 0-116.667 0-58.334M1516.667 1516.667c58.333-116.667 0-116.667 0-58.334M1283.333 1283.333c-58.333 116.667 0 116.667 0 58.334M1283.333 1516.667c116.667 58.333 116.667 0 58.334 0M1516.667 1283.333c-116.667-58.333-116.667 0-58.334 0M1633.333-116.667c116.667-58.333 116.667 0 58.334 0M1866.667-116.667c58.333 116.667 0 116.667 0 58.334M1866.667 116.667c-116.667 58.333-116.667 0-58.334 0M1633.333 116.667C1575 0 1633.333 0 1633.333 58.333M1866.667 116.667c58.333-116.667 0-116.667 0-58.334M1633.333-116.667C1575 0 1633.333 0 1633.333-58.333M1633.333 116.667c116.667 58.333 116.667 0 58.334 0M1866.667-116.667c-116.667-58.333-116.667 0-58.334 0M1633.333 233.333c116.667-58.333 116.667 0 58.334 0M1866.667 233.333c58.333 116.667 0 116.667 0 58.334M1866.667 466.667c-116.667 58.333-116.667 0-58.334 0M1633.333 466.667c-58.333-116.667 0-116.667 0-58.334M1866.667 466.667c58.333-116.667 0-116.667 0-58.334M1633.333 233.333c-58.333 116.667 0 116.667 0 58.334M1633.333 466.667c116.667 58.333 116.667 0 58.334 0M1866.667 233.333c-116.667-58.333-116.667 0-58.334 0M1633.333 583.333c116.667-58.333 116.667 0 58.334 0M1866.667 583.333c58.333 116.667 0 116.667 0 58.334M1866.667 816.667c-116.667 58.333-116.667 0-58.334 0M1633.333 816.667c-58.333-116.667 0-116.667 0-58.334M1866.667 816.667c58.333-116.667 0-116.667 0-58.334M1633.333 583.333c-58.333 116.667 0 116.667 0 58.334M1633.333 816.667c116.667 58.333 116.667 0 58.334 0M1866.667 583.333c-116.667-58.333-116.667 0-58.334 0M1633.333 933.333c116.667-58.333 116.667 0 58.334 0M1866.667 933.333c58.333 116.667 0 116.667 0 58.334M1866.667 1166.667c-116.667 58.333-116.667 0-58.334 0M1633.333 1166.667c-58.333-116.667 0-116.667 0-58.334M1866.667 1166.667c58.333-116.667 0-116.667 0-58.334M1633.333 933.333c-58.333 116.667 0 116.667 0 58.334M1633.333 1166.667c116.667 58.333 116.667 0 58.334 0M1866.667 933.333c-116.667-58.333-116.667 0-58.334 0M1633.333 1283.333c116.667-58.333 116.667 0 58.334 0M1866.667 1283.333c58.333 116.667 0 116.667 0 58.334M1866.667 1516.667c-116.667 58.333-116.667 0-58.334 0M1633.333 1516.667c-58.333-116.667 0-116.667 0-58.334M1866.667 1516.667c58.333-116.667 0-116.667 0-58.334M1633.333 1283.333c-58.333 116.667 0 116.667 0 58.334M1633.333 1516.667c116.667 58.333 116.667 0 58.334 0M1866.667 1283.333c-116.667-58.333-116.667 0-58.334 0M1983.333-116.667c116.667-58.333 116.667 0 58.334 0M2216.667-116.667c58.333 116.667 0 116.667 0 58.334M2216.667 116.667c-116.667 58.333-116.667 0-58.334 0M1983.333 116.667C1925 0 1983.333 0 1983.333 58.333M2216.667 116.667c58.333-116.667 0-116.667 0-58.334M1983.333-116.667C1925 0 1983.333 0 1983.333-58.333M1983.333 116.667c116.667 58.333 116.667 0 58.334 0M2216.667-116.667c-116.667-58.333-116.667 0-58.334 0M1983.333 233.333c116.667-58.333 116.667 0 58.334 0M2216.667 233.333c58.333 116.667 0 116.667 0 58.334M2216.667 466.667c-116.667 58.333-116.667 0-58.334 0M1983.333 466.667c-58.333-116.667 0-116.667 0-58.334M2216.667 466.667c58.333-116.667 0-116.667 0-58.334M1983.333 233.333c-58.333 116.667 0 116.667 0 58.334M1983.333 466.667c116.667 58.333 116.667 0 58.334 0M2216.667 233.333c-116.667-58.333-116.667 0-58.334 0M1983.333 583.333c116.667-58.333 116.667 0 58.334 0M2216.667 583.333c58.333 116.667 0 116.667 0 58.334M2216.667 816.667c-116.667 58.333-116.667 0-58.334 0M1983.333 816.667c-58.333-116.667 0-116.667 0-58.334M2216.667 816.667c58.333-116.667 0-116.667 0-58.334M1983.333 583.333c-58.333 116.667 0 116.667 0 58.334M1983.333 816.667c116.667 58.333 116.667 0 58.334 0M2216.667 583.333c-116.667-58.333-116.667 0-58.334 0M1983.333 933.333c116.667-58.333 116.667 0 58.334 0M2216.667 933.333c58.333 116.667 0 116.667 0 58.334M2216.667 1166.667c-116.667 58.333-116.667 0-58.334 0M1983.333 1166.667c-58.333-116.667 0-116.667 0-58.334M2216.667 1166.667c58.333-116.667 0-116.667 0-58.334M1983.333 933.333c-58.333 116.667 0 116.667 0 58.334M1983.333 1166.667c116.667 58.333 116.667 0 58.334 0M2216.667 933.333c-116.667-58.333-116.667 0-58.334 0M1983.333 1283.333c116.667-58.333 116.667 0 58.334 0M2216.667 1283.333c58.333 116.667 0 116.667 0 58.334M2216.667 1516.667c-116.667 58.333-116.667 0-58.334 0M1983.333 1516.667c-58.333-116.667 0-116.667 0-58.334M2216.667 1516.667c58.333-116.667 0-116.667 0-58.334M1983.333 1283.333c-58.333 116.667 0 116.667 0 58.334M1983.333 1516.667c116.667 58.333 116.667 0 58.334 0M2216.667 1283.333c-116.667-58.333-116.667 0-58.334 0" class="bezier-3-1 open"/>
    </g>
</svg>
