<svg xmlns="http://www.w3.org/2000/svg" baseProfile="full" width="1350" height="1299.038" viewBox="525.0000000000001 -129.9038105676658 1350.0 1299.0381056766582">
    <title>
        Pattern design from http://ornamentist.org
    </title>
    <desc>
        This file is licensed under a Creative Commons CC BY 4.0 license: http://creativecommons.org/licenses/by/4.0/
    </desc>
    <defs>
        <style>
<![CDATA[
        
polyline {
  fill:            none;
  stroke:          black;
  stroke-linecap:  round;
  stroke-linejoin: round;
  stroke-width:    2.0pt;
}


polyline.closed {
  fill:      #d9d9d9;
  fill-rule: evenodd;
}


polygon {
  fill:            #d9d9d9;
  fill-rule:       evenodd;
  stroke:          black;
  stroke-linejoin: round;
  stroke-width:    2.0pt;
}


circle {
  fill:         #d9d9d9;
  stroke:       black;
  stroke-width: 2.0pt;
}


ellipse {
  fill:         #d9d9d9;
  stroke:       black;
  stroke-width: 2.0pt;
}


path {
  fill:            none;
  stroke:          black;
  stroke-linecap:  round;
  stroke-linejoin: round;
  stroke-width:    2.0pt;
}


path.closed {
  fill:      #d9d9d9;
  fill-rule: evenodd;
}


polygon.background,
path.background
{
  fill:   #fbfbfb;
  stroke: #c9c9c9;
  stroke-width: 1.5pt;
}

        ]]>
        </style>
    </defs>
    <clipPath id="design">
        <path d="M525-129.904h1350v1299.038H525z"/>
    </clipPath>
    <g clip-path="url(#design)" color-rendering="optimizeQuality" shape-rendering="geometricPrecision" id="graphics">
        <path class="background closed" d="M1875-129.904v1299.038H525V-129.904z"/>
        <path d="M25-101.036c-50 28.867-200 0-150-28.868M-75 72.17C-75 14.433 25-101.037 25-43.3M-175-101.036C-125-72.17-75 72.17-125 43.3M-25 101.036c50-28.867 200 0 150 28.868M75-72.17C75-14.433-25 101.037-25 43.3M175 101.036C125 72.17 75-72.17 125-43.3M175 158.77c-50 28.87-200 0-150-28.866M75 331.976c0-57.735 100-173.205 100-115.47M-25 158.77c50 28.87 100 173.206 50 144.34M125 360.844c50-28.868 200 0 150 28.867M225 187.64c0 57.734-100 173.204-100 115.47M325 360.844c-50-28.868-100-173.205-50-144.338M325 418.58c-50 28.866-200 0-150-28.87M225 591.784c0-57.735 100-173.205 100-115.47M125 418.58c50 28.866 100 173.204 50 144.337M275 620.652c50-28.868 200 0 150 28.867M375 447.446c0 57.735-100 173.206-100 115.47M475 620.652c-50-28.868-100-173.206-50-144.338M475 678.387c-50 28.867-200 0-150-28.868M375 851.592c0-57.735 100-173.205 100-115.47M275 678.387c50 28.867 100 173.205 50 144.337M425 880.46c50-28.868 200 0 150 28.867M525 707.254c0 57.735-100 173.205-100 115.47M625 880.46c-50-28.868-100-173.206-50-144.338M625 938.194c-50 28.868-200 0-150-28.867M525 1111.4c0-57.736 100-173.206 100-115.47M425 938.194c50 28.868 100 173.205 50 144.338M575 1140.267c50-28.868 200 0 150 28.867M675 967.062c0 57.735-100 173.205-100 115.47M775 1140.267c-50-28.868-100-173.205-50-144.338M325-101.036c-50 28.867-200 0-150-28.868M225 72.17c0-57.736 100-173.206 100-115.47M125-101.036C175-72.17 225 72.17 175 43.3M275 101.036c50-28.867 200 0 150 28.868M375-72.17c0 57.736-100 173.206-100 115.47M475 101.036C425 72.17 375-72.17 425-43.3M475 158.77c-50 28.87-200 0-150-28.866M375 331.976c0-57.735 100-173.205 100-115.47M275 158.77c50 28.87 100 173.206 50 144.34M425 360.844c50-28.868 200 0 150 28.867M525 187.64c0 57.734-100 173.204-100 115.47M625 360.844c-50-28.868-100-173.205-50-144.338M625 418.58c-50 28.866-200 0-150-28.87M525 591.784c0-57.735 100-173.205 100-115.47M425 418.58c50 28.866 100 173.204 50 144.337M575 620.652c50-28.868 200 0 150 28.867M675 447.446c0 57.735-100 173.206-100 115.47M775 620.652c-50-28.868-100-173.206-50-144.338M775 678.387c-50 28.867-200 0-150-28.868M675 851.592c0-57.735 100-173.205 100-115.47M575 678.387c50 28.867 100 173.205 50 144.337M725 880.46c50-28.868 200 0 150 28.867M825 707.254c0 57.735-100 173.205-100 115.47M925 880.46c-50-28.868-100-173.206-50-144.338M925 938.194c-50 28.868-200 0-150-28.867M825 1111.4c0-57.736 100-173.206 100-115.47M725 938.194c50 28.868 100 173.205 50 144.338M875 1140.267c50-28.868 200 0 150 28.867M975 967.062c0 57.735-100 173.205-100 115.47M1075 1140.267c-50-28.868-100-173.205-50-144.338M625-101.036c-50 28.867-200 0-150-28.868M525 72.17c0-57.736 100-173.206 100-115.47M425-101.036C475-72.17 525 72.17 475 43.3M575 101.036c50-28.867 200 0 150 28.868M675-72.17c0 57.736-100 173.206-100 115.47M775 101.036C725 72.17 675-72.17 725-43.3M775 158.77c-50 28.87-200 0-150-28.866M675 331.976c0-57.735 100-173.205 100-115.47M575 158.77c50 28.87 100 173.206 50 144.34M725 360.844c50-28.868 200 0 150 28.867M825 187.64c0 57.734-100 173.204-100 115.47M925 360.844c-50-28.868-100-173.205-50-144.338M925 418.58c-50 28.866-200 0-150-28.87M825 591.784c0-57.735 100-173.205 100-115.47M725 418.58c50 28.866 100 173.204 50 144.337M875 620.652c50-28.868 200 0 150 28.867M975 447.446c0 57.735-100 173.206-100 115.47M1075 620.652c-50-28.868-100-173.206-50-144.338M1075 678.387c-50 28.867-200 0-150-28.868M975 851.592c0-57.735 100-173.205 100-115.47M875 678.387c50 28.867 100 173.205 50 144.337M1025 880.46c50-28.868 200 0 150 28.867M1125 707.254c0 57.735-100 173.205-100 115.47M1225 880.46c-50-28.868-100-173.206-50-144.338M1225 938.194c-50 28.868-200 0-150-28.867M1125 1111.4c0-57.736 100-173.206 100-115.47M1025 938.194c50 28.868 100 173.205 50 144.338M1175 1140.267c50-28.868 200 0 150 28.867M1275 967.062c0 57.735-100 173.205-100 115.47M1375 1140.267c-50-28.868-100-173.205-50-144.338M925-101.036c-50 28.867-200 0-150-28.868M825 72.17c0-57.736 100-173.206 100-115.47M725-101.036C775-72.17 825 72.17 775 43.3M875 101.036c50-28.867 200 0 150 28.868M975-72.17c0 57.736-100 173.206-100 115.47M1075 101.036C1025 72.17 975-72.17 1025-43.3M1075 158.77c-50 28.87-200 0-150-28.866M975 331.976c0-57.735 100-173.205 100-115.47M875 158.77c50 28.87 100 173.206 50 144.34M1025 360.844c50-28.868 200 0 150 28.867M1125 187.64c0 57.734-100 173.204-100 115.47M1225 360.844c-50-28.868-100-173.205-50-144.338M1225 418.58c-50 28.866-200 0-150-28.87M1125 591.784c0-57.735 100-173.205 100-115.47M1025 418.58c50 28.866 100 173.204 50 144.337M1175 620.652c50-28.868 200 0 150 28.867M1275 447.446c0 57.735-100 173.206-100 115.47M1375 620.652c-50-28.868-100-173.206-50-144.338M1375 678.387c-50 28.867-200 0-150-28.868M1275 851.592c0-57.735 100-173.205 100-115.47M1175 678.387c50 28.867 100 173.205 50 144.337M1325 880.46c50-28.868 200 0 150 28.867M1425 707.254c0 57.735-100 173.205-100 115.47M1525 880.46c-50-28.868-100-173.206-50-144.338M1525 938.194c-50 28.868-200 0-150-28.867M1425 1111.4c0-57.736 100-173.206 100-115.47M1325 938.194c50 28.868 100 173.205 50 144.338M1475 1140.267c50-28.868 200 0 150 28.867M1575 967.062c0 57.735-100 173.205-100 115.47M1675 1140.267c-50-28.868-100-173.205-50-144.338M1225-101.036c-50 28.867-200 0-150-28.868M1125 72.17c0-57.736 100-173.206 100-115.47M1025-101.036C1075-72.17 1125 72.17 1075 43.3M1175 101.036c50-28.867 200 0 150 28.868M1275-72.17c0 57.736-100 173.206-100 115.47M1375 101.036C1325 72.17 1275-72.17 1325-43.3M1375 158.77c-50 28.87-200 0-150-28.866M1275 331.976c0-57.735 100-173.205 100-115.47M1175 158.77c50 28.87 100 173.206 50 144.34M1325 360.844c50-28.868 200 0 150 28.867M1425 187.64c0 57.734-100 173.204-100 115.47M1525 360.844c-50-28.868-100-173.205-50-144.338M1525 418.58c-50 28.866-200 0-150-28.87M1425 591.784c0-57.735 100-173.205 100-115.47M1325 418.58c50 28.866 100 173.204 50 144.337M1475 620.652c50-28.868 200 0 150 28.867M1575 447.446c0 57.735-100 173.206-100 115.47M1675 620.652c-50-28.868-100-173.206-50-144.338M1675 678.387c-50 28.867-200 0-150-28.868M1575 851.592c0-57.735 100-173.205 100-115.47M1475 678.387c50 28.867 100 173.205 50 144.337M1625 880.46c50-28.868 200 0 150 28.867M1725 707.254c0 57.735-100 173.205-100 115.47M1825 880.46c-50-28.868-100-173.206-50-144.338M1825 938.194c-50 28.868-200 0-150-28.867M1725 1111.4c0-57.736 100-173.206 100-115.47M1625 938.194c50 28.868 100 173.205 50 144.338M1775 1140.267c50-28.868 200 0 150 28.867M1875 967.062c0 57.735-100 173.205-100 115.47M1975 1140.267c-50-28.868-100-173.205-50-144.338M1525-101.036c-50 28.867-200 0-150-28.868M1425 72.17c0-57.736 100-173.206 100-115.47M1325-101.036C1375-72.17 1425 72.17 1375 43.3M1475 101.036c50-28.867 200 0 150 28.868M1575-72.17c0 57.736-100 173.206-100 115.47M1675 101.036C1625 72.17 1575-72.17 1625-43.3M1675 158.77c-50 28.87-200 0-150-28.866M1575 331.976c0-57.735 100-173.205 100-115.47M1475 158.77c50 28.87 100 173.206 50 144.34M1625 360.844c50-28.868 200 0 150 28.867M1725 187.64c0 57.734-100 173.204-100 115.47M1825 360.844c-50-28.868-100-173.205-50-144.338M1825 418.58c-50 28.866-200 0-150-28.87M1725 591.784c0-57.735 100-173.205 100-115.47M1625 418.58c50 28.866 100 173.204 50 144.337M1775 620.652c50-28.868 200 0 150 28.867M1875 447.446c0 57.735-100 173.206-100 115.47M1975 620.652c-50-28.868-100-173.206-50-144.338M1975 678.387c-50 28.867-200 0-150-28.868M1875 851.592c0-57.735 100-173.205 100-115.47M1775 678.387c50 28.867 100 173.205 50 144.337M1925 880.46c50-28.868 200 0 150 28.867M2025 707.254c0 57.735-100 173.205-100 115.47M2125 880.46c-50-28.868-100-173.206-50-144.338M2125 938.194c-50 28.868-200 0-150-28.867M2025 1111.4c0-57.736 100-173.206 100-115.47M1925 938.194c50 28.868 100 173.205 50 144.338M2075 1140.267c50-28.868 200 0 150 28.867M2175 967.062c0 57.735-100 173.205-100 115.47M2275 1140.267c-50-28.868-100-173.205-50-144.338M1825-101.036c-50 28.867-200 0-150-28.868M1725 72.17c0-57.736 100-173.206 100-115.47M1625-101.036C1675-72.17 1725 72.17 1675 43.3M1775 101.036c50-28.867 200 0 150 28.868M1875-72.17c0 57.736-100 173.206-100 115.47M1975 101.036C1925 72.17 1875-72.17 1925-43.3M1975 158.77c-50 28.87-200 0-150-28.866M1875 331.976c0-57.735 100-173.205 100-115.47M1775 158.77c50 28.87 100 173.206 50 144.34M1925 360.844c50-28.868 200 0 150 28.867M2025 187.64c0 57.734-100 173.204-100 115.47M2125 360.844c-50-28.868-100-173.205-50-144.338M2125 418.58c-50 28.866-200 0-150-28.87M2025 591.784c0-57.735 100-173.205 100-115.47M1925 418.58c50 28.866 100 173.204 50 144.337M2075 620.652c50-28.868 200 0 150 28.867M2175 447.446c0 57.735-100 173.206-100 115.47M2275 620.652c-50-28.868-100-173.206-50-144.338M2275 678.387c-50 28.867-200 0-150-28.868M2175 851.592c0-57.735 100-173.205 100-115.47M2075 678.387c50 28.867 100 173.205 50 144.337M2225 880.46c50-28.868 200 0 150 28.867M2325 707.254c0 57.735-100 173.205-100 115.47M2425 880.46c-50-28.868-100-173.206-50-144.338M2425 938.194c-50 28.868-200 0-150-28.867M2325 1111.4c0-57.736 100-173.206 100-115.47M2225 938.194c50 28.868 100 173.205 50 144.338M2375 1140.267c50-28.868 200 0 150 28.867M2475 967.062c0 57.735-100 173.205-100 115.47M2575 1140.267c-50-28.868-100-173.205-50-144.338" class="bezier-3-1 open"/>
    </g>
</svg>
