%!PS-Adobe-2.0 EPSF-2.0
%%BoundingBox: 0 0 1350 1299
%%HiResBoundingBox: 0.000000 0.000000 1350.000000 1299.000000
%%Creator: cairo 1.14.2 (http://cairographics.org)
%%CreationDate: Mon Sep  7 08:21:53 2015
%%DocumentData: Clean7Bit
%%LanguageLevel: 2
%%DocumentMedia: 476x458mm 1350 1299 0 () ()
%%EndComments
% EPSF created by ps2eps 1.68
%%BeginProlog
save
countdictstack
mark
newpath
/showpage {} def
/setpagedevice {pop} def
%%EndProlog
%%Page 1 1
%%BeginProlog
/languagelevel where
{ pop languagelevel } { 1 } ifelse
2 lt { /Helvetica findfont 12 scalefont setfont 50 500 moveto
  (This print job requires a PostScript Language Level 2 printer.) show
  showpage quit } if
/q { gsave } bind def
/Q { grestore } bind def
/cm { 6 array astore concat } bind def
/w { setlinewidth } bind def
/J { setlinecap } bind def
/j { setlinejoin } bind def
/M { setmiterlimit } bind def
/d { setdash } bind def
/m { moveto } bind def
/l { lineto } bind def
/c { curveto } bind def
/h { closepath } bind def
/re { exch dup neg 3 1 roll 5 3 roll moveto 0 rlineto
      0 exch rlineto 0 rlineto closepath } bind def
/S { stroke } bind def
/f { fill } bind def
/f* { eofill } bind def
/n { newpath } bind def
/W { clip } bind def
/W* { eoclip } bind def
/BT { } bind def
/ET { } bind def
/pdfmark where { pop globaldict /?pdfmark /exec load put }
    { globaldict begin /?pdfmark /pop load def /pdfmark
    /cleartomark load def end } ifelse
/BDC { mark 3 1 roll /BDC pdfmark } bind def
/EMC { mark /EMC pdfmark } bind def
/cairo_store_point { /cairo_point_y exch def /cairo_point_x exch def } def
/Tj { show currentpoint cairo_store_point } bind def
/TJ {
  {
    dup
    type /stringtype eq
    { show } { -0.001 mul 0 cairo_font_matrix dtransform rmoveto } ifelse
  } forall
  currentpoint cairo_store_point
} bind def
/cairo_selectfont { cairo_font_matrix aload pop pop pop 0 0 6 array astore
    cairo_font exch selectfont cairo_point_x cairo_point_y moveto } bind def
/Tf { pop /cairo_font exch def /cairo_font_matrix where
      { pop cairo_selectfont } if } bind def
/Td { matrix translate cairo_font_matrix matrix concatmatrix dup
      /cairo_font_matrix exch def dup 4 get exch 5 get cairo_store_point
      /cairo_font where { pop cairo_selectfont } if } bind def
/Tm { 2 copy 8 2 roll 6 array astore /cairo_font_matrix exch def
      cairo_store_point /cairo_font where { pop cairo_selectfont } if } bind def
/g { setgray } bind def
/rg { setrgbcolor } bind def
/d1 { setcachedevice } bind def
/cairo_set_page_size {
  % Change paper size, but only if different from previous paper size otherwise
  % duplex fails. PLRM specifies a tolerance of 5 pts when matching paper size
  % so we use the same when checking if the size changes.
  /setpagedevice where {
    pop currentpagedevice
    /PageSize known {
      2 copy
      currentpagedevice /PageSize get aload pop
      exch 4 1 roll
      sub abs 5 gt
      3 1 roll
      sub abs 5 gt
      or
    } {
      true
    } ifelse
    {
      2 array astore
      2 dict begin
        /PageSize exch def
        /ImagingBBox null def
      currentdict end
      setpagedevice
    } {
      pop pop
    } ifelse
  } {
    pop
  } ifelse
} def
%%EndProlog
%%BeginSetup
%%EndSetup
%%Page: 1 1
%%BeginPageSetup
%%PageMedia: 476x458mm
%%PageBoundingBox: 0 0 1350 1299
1350 1299 cairo_set_page_size
%%EndPageSetup
q 0 0 1350 1299 rectclip q
0.984314 g
0 0 1350 1299 rectfill
0.788235 g
1.875 w
0 J
1 j
[] 0.0 d
4 M 0 1299 1350 -1299.039 re S
0 g
2.5 w
1 J
-100 288.637 m -50 317.504 100 288.637 50 259.77 c S
0 461.844 m 0 404.105 -100 288.637 -100 346.371 c S
100 288.637 m 50 317.504 0 461.844 50 432.973 c S
100 230.902 m 50 202.035 -100 230.902 -50 259.77 c S
0 57.695 m 0 115.434 100 230.902 100 173.168 c S
50 28.828 m 100 57.695 250 28.828 200 -0.039 c S
150 202.035 m 150 144.301 50 28.828 50 86.562 c S
250 28.828 m 200 57.695 150 202.035 200 173.168 c S
-100 808.254 m -50 837.121 100 808.254 50 779.383 c S
0 981.457 m 0 923.723 -100 808.254 -100 865.988 c S
100 808.254 m 50 837.121 0 981.457 50 952.59 c S
100 750.516 m 50 721.648 -100 750.516 -50 779.383 c S
0 577.312 m 0 635.047 100 750.516 100 692.781 c S
50 548.445 m 100 577.312 250 548.445 200 519.578 c S
150 721.648 m 150 663.914 50 548.445 50 606.18 c S
250 548.445 m 200 577.312 150 721.648 200 692.781 c S
250 490.711 m 200 461.844 50 490.711 100 519.578 c S
150 317.504 m 150 375.238 250 490.711 250 432.973 c S
50 490.711 m 100 461.844 150 317.504 100 346.371 c S
200 288.637 m 250 317.504 400 288.637 350 259.77 c S
300 461.844 m 300 404.105 200 288.637 200 346.371 c S
400 288.637 m 350 317.504 300 461.844 350 432.973 c S
400 230.902 m 350 202.035 200 230.902 250 259.77 c S
300 57.695 m 300 115.434 400 230.902 400 173.168 c S
200 230.902 m 250 202.035 300 57.695 250 86.562 c S
350 28.828 m 400 57.695 550 28.828 500 -0.039 c S
450 202.035 m 450 144.301 350 28.828 350 86.562 c S
550 28.828 m 500 57.695 450 202.035 500 173.168 c S
100 1270.133 m 50 1241.266 -100 1270.133 -50 1299 c S
0 1096.926 m 0 1154.664 100 1270.133 100 1212.398 c S
50 1068.059 m 100 1096.926 250 1068.059 200 1039.191 c S
150 1241.266 m 150 1183.531 50 1068.059 50 1125.793 c S
250 1068.059 m 200 1096.926 150 1241.266 200 1212.398 c S
250 1010.324 m 200 981.457 50 1010.324 100 1039.191 c S
150 837.121 m 150 894.855 250 1010.324 250 952.59 c S
50 1010.324 m 100 981.457 150 837.121 100 865.988 c S
200 808.254 m 250 837.121 400 808.254 350 779.383 c S
300 981.457 m 300 923.723 200 808.254 200 865.988 c S
400 808.254 m 350 837.121 300 981.457 350 952.59 c S
400 750.516 m 350 721.648 200 750.516 250 779.383 c S
300 577.312 m 300 635.047 400 750.516 400 692.781 c S
200 750.516 m 250 721.648 300 577.312 250 606.18 c S
350 548.445 m 400 577.312 550 548.445 500 519.578 c S
450 721.648 m 450 663.914 350 548.445 350 606.18 c S
550 548.445 m 500 577.312 450 721.648 500 692.781 c S
550 490.711 m 500 461.844 350 490.711 400 519.578 c S
450 317.504 m 450 375.238 550 490.711 550 432.973 c S
350 490.711 m 400 461.844 450 317.504 400 346.371 c S
500 288.637 m 550 317.504 700 288.637 650 259.77 c S
600 461.844 m 600 404.105 500 288.637 500 346.371 c S
700 288.637 m 650 317.504 600 461.844 650 432.973 c S
700 230.902 m 650 202.035 500 230.902 550 259.77 c S
600 57.695 m 600 115.434 700 230.902 700 173.168 c S
500 230.902 m 550 202.035 600 57.695 550 86.562 c S
650 28.828 m 700 57.695 850 28.828 800 -0.039 c S
750 202.035 m 750 144.301 650 28.828 650 86.562 c S
850 28.828 m 800 57.695 750 202.035 800 173.168 c S
400 1270.133 m 350 1241.266 200 1270.133 250 1299 c S
300 1096.926 m 300 1154.664 400 1270.133 400 1212.398 c S
200 1270.133 m 250 1241.266 300 1096.926 250 1125.793 c S
350 1068.059 m 400 1096.926 550 1068.059 500 1039.191 c S
450 1241.266 m 450 1183.531 350 1068.059 350 1125.793 c S
550 1068.059 m 500 1096.926 450 1241.266 500 1212.398 c S
550 1010.324 m 500 981.457 350 1010.324 400 1039.191 c S
450 837.121 m 450 894.855 550 1010.324 550 952.59 c S
350 1010.324 m 400 981.457 450 837.121 400 865.988 c S
500 808.254 m 550 837.121 700 808.254 650 779.383 c S
600 981.457 m 600 923.723 500 808.254 500 865.988 c S
700 808.254 m 650 837.121 600 981.457 650 952.59 c S
700 750.516 m 650 721.648 500 750.516 550 779.383 c S
600 577.312 m 600 635.047 700 750.516 700 692.781 c S
500 750.516 m 550 721.648 600 577.312 550 606.18 c S
650 548.445 m 700 577.312 850 548.445 800 519.578 c S
750 721.648 m 750 663.914 650 548.445 650 606.18 c S
850 548.445 m 800 577.312 750 721.648 800 692.781 c S
850 490.711 m 800 461.844 650 490.711 700 519.578 c S
750 317.504 m 750 375.238 850 490.711 850 432.973 c S
650 490.711 m 700 461.844 750 317.504 700 346.371 c S
800 288.637 m 850 317.504 1000 288.637 950 259.77 c S
900 461.844 m 900 404.105 800 288.637 800 346.371 c S
1000 288.637 m 950 317.504 900 461.844 950 432.973 c S
1000 230.902 m 950 202.035 800 230.902 850 259.77 c S
900 57.695 m 900 115.434 1000 230.902 1000 173.168 c S
800 230.902 m 850 202.035 900 57.695 850 86.562 c S
950 28.828 m 1000 57.695 1150 28.828 1100 -0.039 c S
1050 202.035 m 1050 144.301 950 28.828 950 86.562 c S
1150 28.828 m 1100 57.695 1050 202.035 1100 173.168 c S
700 1270.133 m 650 1241.266 500 1270.133 550 1299 c S
600 1096.926 m 600 1154.664 700 1270.133 700 1212.398 c S
500 1270.133 m 550 1241.266 600 1096.926 550 1125.793 c S
650 1068.059 m 700 1096.926 850 1068.059 800 1039.191 c S
750 1241.266 m 750 1183.531 650 1068.059 650 1125.793 c S
850 1068.059 m 800 1096.926 750 1241.266 800 1212.398 c S
850 1010.324 m 800 981.457 650 1010.324 700 1039.191 c S
750 837.121 m 750 894.855 850 1010.324 850 952.59 c S
650 1010.324 m 700 981.457 750 837.121 700 865.988 c S
800 808.254 m 850 837.121 1000 808.254 950 779.383 c S
900 981.457 m 900 923.723 800 808.254 800 865.988 c S
1000 808.254 m 950 837.121 900 981.457 950 952.59 c S
1000 750.516 m 950 721.648 800 750.516 850 779.383 c S
900 577.312 m 900 635.047 1000 750.516 1000 692.781 c S
800 750.516 m 850 721.648 900 577.312 850 606.18 c S
950 548.445 m 1000 577.312 1150 548.445 1100 519.578 c S
1050 721.648 m 1050 663.914 950 548.445 950 606.18 c S
1150 548.445 m 1100 577.312 1050 721.648 1100 692.781 c S
1150 490.711 m 1100 461.844 950 490.711 1000 519.578 c S
1050 317.504 m 1050 375.238 1150 490.711 1150 432.973 c S
950 490.711 m 1000 461.844 1050 317.504 1000 346.371 c S
1100 288.637 m 1150 317.504 1300 288.637 1250 259.77 c S
1200 461.844 m 1200 404.105 1100 288.637 1100 346.371 c S
1300 288.637 m 1250 317.504 1200 461.844 1250 432.973 c S
1300 230.902 m 1250 202.035 1100 230.902 1150 259.77 c S
1200 57.695 m 1200 115.434 1300 230.902 1300 173.168 c S
1100 230.902 m 1150 202.035 1200 57.695 1150 86.562 c S
1250 28.828 m 1300 57.695 1450 28.828 1400 -0.039 c S
1350 202.035 m 1350 144.301 1250 28.828 1250 86.562 c S
1000 1270.133 m 950 1241.266 800 1270.133 850 1299 c S
900 1096.926 m 900 1154.664 1000 1270.133 1000 1212.398 c S
800 1270.133 m 850 1241.266 900 1096.926 850 1125.793 c S
950 1068.059 m 1000 1096.926 1150 1068.059 1100 1039.191 c S
1050 1241.266 m 1050 1183.531 950 1068.059 950 1125.793 c S
1150 1068.059 m 1100 1096.926 1050 1241.266 1100 1212.398 c S
1150 1010.324 m 1100 981.457 950 1010.324 1000 1039.191 c S
1050 837.121 m 1050 894.855 1150 1010.324 1150 952.59 c S
950 1010.324 m 1000 981.457 1050 837.121 1000 865.988 c S
1100 808.254 m 1150 837.121 1300 808.254 1250 779.383 c S
1200 981.457 m 1200 923.723 1100 808.254 1100 865.988 c S
1300 808.254 m 1250 837.121 1200 981.457 1250 952.59 c S
1300 750.516 m 1250 721.648 1100 750.516 1150 779.383 c S
1200 577.312 m 1200 635.047 1300 750.516 1300 692.781 c S
1100 750.516 m 1150 721.648 1200 577.312 1150 606.18 c S
1250 548.445 m 1300 577.312 1450 548.445 1400 519.578 c S
1350 721.648 m 1350 663.914 1250 548.445 1250 606.18 c S
1450 490.711 m 1400 461.844 1250 490.711 1300 519.578 c S
1350 317.504 m 1350 375.238 1450 490.711 1450 432.973 c S
1250 490.711 m 1300 461.844 1350 317.504 1300 346.371 c S
1300 1270.133 m 1250 1241.266 1100 1270.133 1150 1299 c S
1200 1096.926 m 1200 1154.664 1300 1270.133 1300 1212.398 c S
1100 1270.133 m 1150 1241.266 1200 1096.926 1150 1125.793 c S
1250 1068.059 m 1300 1096.926 1450 1068.059 1400 1039.191 c S
1350 1241.266 m 1350 1183.531 1250 1068.059 1250 1125.793 c S
1450 1010.324 m 1400 981.457 1250 1010.324 1300 1039.191 c S
1350 837.121 m 1350 894.855 1450 1010.324 1450 952.59 c S
1250 1010.324 m 1300 981.457 1350 837.121 1300 865.988 c S
Q Q
showpage
%%Trailer
%%Trailer
cleartomark
countdictstack
exch sub { end } repeat
restore
%%EOF
