%!PS-Adobe-2.0 EPSF-2.0
%%BoundingBox: 0 0 1350 1299
%%HiResBoundingBox: 0.000000 0.000000 1350.000000 1299.000000
%%Creator: cairo 1.14.2 (http://cairographics.org)
%%CreationDate: Mon Sep  7 08:21:53 2015
%%DocumentData: Clean7Bit
%%LanguageLevel: 2
%%DocumentMedia: 476x458mm 1350 1299 0 () ()
%%EndComments
% EPSF created by ps2eps 1.68
%%BeginProlog
save
countdictstack
mark
newpath
/showpage {} def
/setpagedevice {pop} def
%%EndProlog
%%Page 1 1
%%BeginProlog
/languagelevel where
{ pop languagelevel } { 1 } ifelse
2 lt { /Helvetica findfont 12 scalefont setfont 50 500 moveto
  (This print job requires a PostScript Language Level 2 printer.) show
  showpage quit } if
/q { gsave } bind def
/Q { grestore } bind def
/cm { 6 array astore concat } bind def
/w { setlinewidth } bind def
/J { setlinecap } bind def
/j { setlinejoin } bind def
/M { setmiterlimit } bind def
/d { setdash } bind def
/m { moveto } bind def
/l { lineto } bind def
/c { curveto } bind def
/h { closepath } bind def
/re { exch dup neg 3 1 roll 5 3 roll moveto 0 rlineto
      0 exch rlineto 0 rlineto closepath } bind def
/S { stroke } bind def
/f { fill } bind def
/f* { eofill } bind def
/n { newpath } bind def
/W { clip } bind def
/W* { eoclip } bind def
/BT { } bind def
/ET { } bind def
/pdfmark where { pop globaldict /?pdfmark /exec load put }
    { globaldict begin /?pdfmark /pop load def /pdfmark
    /cleartomark load def end } ifelse
/BDC { mark 3 1 roll /BDC pdfmark } bind def
/EMC { mark /EMC pdfmark } bind def
/cairo_store_point { /cairo_point_y exch def /cairo_point_x exch def } def
/Tj { show currentpoint cairo_store_point } bind def
/TJ {
  {
    dup
    type /stringtype eq
    { show } { -0.001 mul 0 cairo_font_matrix dtransform rmoveto } ifelse
  } forall
  currentpoint cairo_store_point
} bind def
/cairo_selectfont { cairo_font_matrix aload pop pop pop 0 0 6 array astore
    cairo_font exch selectfont cairo_point_x cairo_point_y moveto } bind def
/Tf { pop /cairo_font exch def /cairo_font_matrix where
      { pop cairo_selectfont } if } bind def
/Td { matrix translate cairo_font_matrix matrix concatmatrix dup
      /cairo_font_matrix exch def dup 4 get exch 5 get cairo_store_point
      /cairo_font where { pop cairo_selectfont } if } bind def
/Tm { 2 copy 8 2 roll 6 array astore /cairo_font_matrix exch def
      cairo_store_point /cairo_font where { pop cairo_selectfont } if } bind def
/g { setgray } bind def
/rg { setrgbcolor } bind def
/d1 { setcachedevice } bind def
/cairo_set_page_size {
  % Change paper size, but only if different from previous paper size otherwise
  % duplex fails. PLRM specifies a tolerance of 5 pts when matching paper size
  % so we use the same when checking if the size changes.
  /setpagedevice where {
    pop currentpagedevice
    /PageSize known {
      2 copy
      currentpagedevice /PageSize get aload pop
      exch 4 1 roll
      sub abs 5 gt
      3 1 roll
      sub abs 5 gt
      or
    } {
      true
    } ifelse
    {
      2 array astore
      2 dict begin
        /PageSize exch def
        /ImagingBBox null def
      currentdict end
      setpagedevice
    } {
      pop pop
    } ifelse
  } {
    pop
  } ifelse
} def
%%EndProlog
%%BeginSetup
%%EndSetup
%%Page: 1 1
%%BeginPageSetup
%%PageMedia: 476x458mm
%%PageBoundingBox: 0 0 1350 1299
1350 1299 cairo_set_page_size
%%EndPageSetup
q 0 0 1350 1299 rectclip q
0.984314 g
0 0 1350 1299 rectfill
0.788235 g
1.875 w
0 J
1 j
[] 0.0 d
4 M 0 1299 1350 -1299.039 re S
0 g
2.5 w
1 J
-50 259.77 m 50 317.504 -50 317.504 50 259.77 c S
100 346.371 m 0 404.105 50 317.504 50 432.973 c S
50 259.77 m -50 202.035 50 202.035 -50 259.77 c S
50 86.562 m 50 202.035 0 115.434 100 173.168 c S
100 -0.039 m 200 57.695 100 57.695 200 -0.039 c S
100 173.168 m 100 57.695 150 144.301 50 86.562 c S
250 86.562 m 150 144.301 200 57.695 200 173.168 c S
-50 779.383 m 50 837.121 -50 837.121 50 779.383 c S
100 865.988 m 0 923.723 50 837.121 50 952.59 c S
50 779.383 m -50 721.648 50 721.648 -50 779.383 c S
50 606.18 m 50 721.648 0 635.047 100 692.781 c S
100 519.578 m 200 577.312 100 577.312 200 519.578 c S
100 692.781 m 100 577.312 150 663.914 50 606.18 c S
250 606.18 m 150 663.914 200 577.312 200 692.781 c S
200 519.578 m 100 461.844 200 461.844 100 519.578 c S
200 346.371 m 200 461.844 150 375.238 250 432.973 c S
50 432.973 m 150 375.238 100 461.844 100 346.371 c S
250 259.77 m 350 317.504 250 317.504 350 259.77 c S
250 432.973 m 250 317.504 300 404.105 200 346.371 c S
400 346.371 m 300 404.105 350 317.504 350 432.973 c S
350 259.77 m 250 202.035 350 202.035 250 259.77 c S
350 86.562 m 350 202.035 300 115.434 400 173.168 c S
200 173.168 m 300 115.434 250 202.035 250 86.562 c S
400 -0.039 m 500 57.695 400 57.695 500 -0.039 c S
400 173.168 m 400 57.695 450 144.301 350 86.562 c S
550 86.562 m 450 144.301 500 57.695 500 173.168 c S
50 1299 m -50 1241.266 50 1241.266 -50 1299 c S
50 1125.793 m 50 1241.266 0 1154.664 100 1212.398 c S
100 1039.191 m 200 1096.926 100 1096.926 200 1039.191 c S
100 1212.398 m 100 1096.926 150 1183.531 50 1125.793 c S
250 1125.793 m 150 1183.531 200 1096.926 200 1212.398 c S
200 1039.191 m 100 981.457 200 981.457 100 1039.191 c S
200 865.988 m 200 981.457 150 894.855 250 952.59 c S
50 952.59 m 150 894.855 100 981.457 100 865.988 c S
250 779.383 m 350 837.121 250 837.121 350 779.383 c S
250 952.59 m 250 837.121 300 923.723 200 865.988 c S
400 865.988 m 300 923.723 350 837.121 350 952.59 c S
350 779.383 m 250 721.648 350 721.648 250 779.383 c S
350 606.18 m 350 721.648 300 635.047 400 692.781 c S
200 692.781 m 300 635.047 250 721.648 250 606.18 c S
400 519.578 m 500 577.312 400 577.312 500 519.578 c S
400 692.781 m 400 577.312 450 663.914 350 606.18 c S
550 606.18 m 450 663.914 500 577.312 500 692.781 c S
500 519.578 m 400 461.844 500 461.844 400 519.578 c S
500 346.371 m 500 461.844 450 375.238 550 432.973 c S
350 432.973 m 450 375.238 400 461.844 400 346.371 c S
550 259.77 m 650 317.504 550 317.504 650 259.77 c S
550 432.973 m 550 317.504 600 404.105 500 346.371 c S
700 346.371 m 600 404.105 650 317.504 650 432.973 c S
650 259.77 m 550 202.035 650 202.035 550 259.77 c S
650 86.562 m 650 202.035 600 115.434 700 173.168 c S
500 173.168 m 600 115.434 550 202.035 550 86.562 c S
700 -0.039 m 800 57.695 700 57.695 800 -0.039 c S
700 173.168 m 700 57.695 750 144.301 650 86.562 c S
850 86.562 m 750 144.301 800 57.695 800 173.168 c S
350 1299 m 250 1241.266 350 1241.266 250 1299 c S
350 1125.793 m 350 1241.266 300 1154.664 400 1212.398 c S
200 1212.398 m 300 1154.664 250 1241.266 250 1125.793 c S
400 1039.191 m 500 1096.926 400 1096.926 500 1039.191 c S
400 1212.398 m 400 1096.926 450 1183.531 350 1125.793 c S
550 1125.793 m 450 1183.531 500 1096.926 500 1212.398 c S
500 1039.191 m 400 981.457 500 981.457 400 1039.191 c S
500 865.988 m 500 981.457 450 894.855 550 952.59 c S
350 952.59 m 450 894.855 400 981.457 400 865.988 c S
550 779.383 m 650 837.121 550 837.121 650 779.383 c S
550 952.59 m 550 837.121 600 923.723 500 865.988 c S
700 865.988 m 600 923.723 650 837.121 650 952.59 c S
650 779.383 m 550 721.648 650 721.648 550 779.383 c S
650 606.18 m 650 721.648 600 635.047 700 692.781 c S
500 692.781 m 600 635.047 550 721.648 550 606.18 c S
700 519.578 m 800 577.312 700 577.312 800 519.578 c S
700 692.781 m 700 577.312 750 663.914 650 606.18 c S
850 606.18 m 750 663.914 800 577.312 800 692.781 c S
800 519.578 m 700 461.844 800 461.844 700 519.578 c S
800 346.371 m 800 461.844 750 375.238 850 432.973 c S
650 432.973 m 750 375.238 700 461.844 700 346.371 c S
850 259.77 m 950 317.504 850 317.504 950 259.77 c S
850 432.973 m 850 317.504 900 404.105 800 346.371 c S
1000 346.371 m 900 404.105 950 317.504 950 432.973 c S
950 259.77 m 850 202.035 950 202.035 850 259.77 c S
950 86.562 m 950 202.035 900 115.434 1000 173.168 c S
800 173.168 m 900 115.434 850 202.035 850 86.562 c S
1000 -0.039 m 1100 57.695 1000 57.695 1100 -0.039 c S
1000 173.168 m 1000 57.695 1050 144.301 950 86.562 c S
1150 86.562 m 1050 144.301 1100 57.695 1100 173.168 c S
650 1299 m 550 1241.266 650 1241.266 550 1299 c S
650 1125.793 m 650 1241.266 600 1154.664 700 1212.398 c S
500 1212.398 m 600 1154.664 550 1241.266 550 1125.793 c S
700 1039.191 m 800 1096.926 700 1096.926 800 1039.191 c S
700 1212.398 m 700 1096.926 750 1183.531 650 1125.793 c S
850 1125.793 m 750 1183.531 800 1096.926 800 1212.398 c S
800 1039.191 m 700 981.457 800 981.457 700 1039.191 c S
800 865.988 m 800 981.457 750 894.855 850 952.59 c S
650 952.59 m 750 894.855 700 981.457 700 865.988 c S
850 779.383 m 950 837.121 850 837.121 950 779.383 c S
850 952.59 m 850 837.121 900 923.723 800 865.988 c S
1000 865.988 m 900 923.723 950 837.121 950 952.59 c S
950 779.383 m 850 721.648 950 721.648 850 779.383 c S
950 606.18 m 950 721.648 900 635.047 1000 692.781 c S
800 692.781 m 900 635.047 850 721.648 850 606.18 c S
1000 519.578 m 1100 577.312 1000 577.312 1100 519.578 c S
1000 692.781 m 1000 577.312 1050 663.914 950 606.18 c S
1150 606.18 m 1050 663.914 1100 577.312 1100 692.781 c S
1100 519.578 m 1000 461.844 1100 461.844 1000 519.578 c S
1100 346.371 m 1100 461.844 1050 375.238 1150 432.973 c S
950 432.973 m 1050 375.238 1000 461.844 1000 346.371 c S
1150 259.77 m 1250 317.504 1150 317.504 1250 259.77 c S
1150 432.973 m 1150 317.504 1200 404.105 1100 346.371 c S
1300 346.371 m 1200 404.105 1250 317.504 1250 432.973 c S
1250 259.77 m 1150 202.035 1250 202.035 1150 259.77 c S
1250 86.562 m 1250 202.035 1200 115.434 1300 173.168 c S
1100 173.168 m 1200 115.434 1150 202.035 1150 86.562 c S
1300 -0.039 m 1400 57.695 1300 57.695 1400 -0.039 c S
1300 173.168 m 1300 57.695 1350 144.301 1250 86.562 c S
950 1299 m 850 1241.266 950 1241.266 850 1299 c S
950 1125.793 m 950 1241.266 900 1154.664 1000 1212.398 c S
800 1212.398 m 900 1154.664 850 1241.266 850 1125.793 c S
1000 1039.191 m 1100 1096.926 1000 1096.926 1100 1039.191 c S
1000 1212.398 m 1000 1096.926 1050 1183.531 950 1125.793 c S
1150 1125.793 m 1050 1183.531 1100 1096.926 1100 1212.398 c S
1100 1039.191 m 1000 981.457 1100 981.457 1000 1039.191 c S
1100 865.988 m 1100 981.457 1050 894.855 1150 952.59 c S
950 952.59 m 1050 894.855 1000 981.457 1000 865.988 c S
1150 779.383 m 1250 837.121 1150 837.121 1250 779.383 c S
1150 952.59 m 1150 837.121 1200 923.723 1100 865.988 c S
1300 865.988 m 1200 923.723 1250 837.121 1250 952.59 c S
1250 779.383 m 1150 721.648 1250 721.648 1150 779.383 c S
1250 606.18 m 1250 721.648 1200 635.047 1300 692.781 c S
1100 692.781 m 1200 635.047 1150 721.648 1150 606.18 c S
1300 519.578 m 1400 577.312 1300 577.312 1400 519.578 c S
1300 692.781 m 1300 577.312 1350 663.914 1250 606.18 c S
1400 519.578 m 1300 461.844 1400 461.844 1300 519.578 c S
1250 432.973 m 1350 375.238 1300 461.844 1300 346.371 c S
1250 1299 m 1150 1241.266 1250 1241.266 1150 1299 c S
1250 1125.793 m 1250 1241.266 1200 1154.664 1300 1212.398 c S
1100 1212.398 m 1200 1154.664 1150 1241.266 1150 1125.793 c S
1300 1039.191 m 1400 1096.926 1300 1096.926 1400 1039.191 c S
1300 1212.398 m 1300 1096.926 1350 1183.531 1250 1125.793 c S
1400 1039.191 m 1300 981.457 1400 981.457 1300 1039.191 c S
1250 952.59 m 1350 894.855 1300 981.457 1300 865.988 c S
Q Q
showpage
%%Trailer
%%Trailer
cleartomark
countdictstack
exch sub { end } repeat
restore
%%EOF
