%!PS-Adobe-2.0 EPSF-2.0
%%BoundingBox: 0 0 1350 1299
%%HiResBoundingBox: 0.000000 0.000000 1350.000000 1299.000000
%%Creator: cairo 1.14.2 (http://cairographics.org)
%%CreationDate: Mon Sep  7 08:21:54 2015
%%DocumentData: Clean7Bit
%%LanguageLevel: 2
%%DocumentMedia: 476x458mm 1350 1299 0 () ()
%%EndComments
% EPSF created by ps2eps 1.68
%%BeginProlog
save
countdictstack
mark
newpath
/showpage {} def
/setpagedevice {pop} def
%%EndProlog
%%Page 1 1
%%BeginProlog
/languagelevel where
{ pop languagelevel } { 1 } ifelse
2 lt { /Helvetica findfont 12 scalefont setfont 50 500 moveto
  (This print job requires a PostScript Language Level 2 printer.) show
  showpage quit } if
/q { gsave } bind def
/Q { grestore } bind def
/cm { 6 array astore concat } bind def
/w { setlinewidth } bind def
/J { setlinecap } bind def
/j { setlinejoin } bind def
/M { setmiterlimit } bind def
/d { setdash } bind def
/m { moveto } bind def
/l { lineto } bind def
/c { curveto } bind def
/h { closepath } bind def
/re { exch dup neg 3 1 roll 5 3 roll moveto 0 rlineto
      0 exch rlineto 0 rlineto closepath } bind def
/S { stroke } bind def
/f { fill } bind def
/f* { eofill } bind def
/n { newpath } bind def
/W { clip } bind def
/W* { eoclip } bind def
/BT { } bind def
/ET { } bind def
/pdfmark where { pop globaldict /?pdfmark /exec load put }
    { globaldict begin /?pdfmark /pop load def /pdfmark
    /cleartomark load def end } ifelse
/BDC { mark 3 1 roll /BDC pdfmark } bind def
/EMC { mark /EMC pdfmark } bind def
/cairo_store_point { /cairo_point_y exch def /cairo_point_x exch def } def
/Tj { show currentpoint cairo_store_point } bind def
/TJ {
  {
    dup
    type /stringtype eq
    { show } { -0.001 mul 0 cairo_font_matrix dtransform rmoveto } ifelse
  } forall
  currentpoint cairo_store_point
} bind def
/cairo_selectfont { cairo_font_matrix aload pop pop pop 0 0 6 array astore
    cairo_font exch selectfont cairo_point_x cairo_point_y moveto } bind def
/Tf { pop /cairo_font exch def /cairo_font_matrix where
      { pop cairo_selectfont } if } bind def
/Td { matrix translate cairo_font_matrix matrix concatmatrix dup
      /cairo_font_matrix exch def dup 4 get exch 5 get cairo_store_point
      /cairo_font where { pop cairo_selectfont } if } bind def
/Tm { 2 copy 8 2 roll 6 array astore /cairo_font_matrix exch def
      cairo_store_point /cairo_font where { pop cairo_selectfont } if } bind def
/g { setgray } bind def
/rg { setrgbcolor } bind def
/d1 { setcachedevice } bind def
/cairo_set_page_size {
  % Change paper size, but only if different from previous paper size otherwise
  % duplex fails. PLRM specifies a tolerance of 5 pts when matching paper size
  % so we use the same when checking if the size changes.
  /setpagedevice where {
    pop currentpagedevice
    /PageSize known {
      2 copy
      currentpagedevice /PageSize get aload pop
      exch 4 1 roll
      sub abs 5 gt
      3 1 roll
      sub abs 5 gt
      or
    } {
      true
    } ifelse
    {
      2 array astore
      2 dict begin
        /PageSize exch def
        /ImagingBBox null def
      currentdict end
      setpagedevice
    } {
      pop pop
    } ifelse
  } {
    pop
  } ifelse
} def
%%EndProlog
%%BeginSetup
%%EndSetup
%%Page: 1 1
%%BeginPageSetup
%%PageMedia: 476x458mm
%%PageBoundingBox: 0 0 1350 1299
1350 1299 cairo_set_page_size
%%EndPageSetup
q 0 0 1350 1299 rectclip q
0.984314 g
0 0 1350 1299 rectfill
0.788235 g
1.875 w
0 J
1 j
[] 0.0 d
4 M 0 1299 1350 -1299.039 re S
0 g
2.5 w
1 J
-50 606.18 m -100 577.312 l -100 635.047 l 0 519.578 l S
-100 519.578 m -100 461.844 l -150 490.711 l 0 519.578 l S
-50 259.77 m -50 317.504 l 0 288.637 l -150 259.77 l S
-50 432.973 m 0 404.105 l -50 375.238 l 0 519.578 l S
100 346.371 m 50 317.504 l 50 375.238 l 150 259.77 l S
50 259.77 m 50 202.035 l 0 230.902 l 150 259.77 l S
50 86.562 m 0 115.434 l 50 144.301 l 0 -0.039 l S
100 -0.039 m 100 57.695 l 150 28.828 l 0 -0.039 l S
100 173.168 m 150 144.301 l 100 115.434 l 150 259.77 l S
250 86.562 m 200 57.695 l 200 115.434 l 300 -0.039 l S
-50 1125.793 m -100 1096.926 l -100 1154.664 l 0 1039.191 l S
-100 1039.191 m -100 981.457 l -150 1010.324 l 0 1039.191 l S
-50 779.383 m -50 837.121 l 0 808.254 l -150 779.383 l S
-50 952.59 m 0 923.723 l -50 894.855 l 0 1039.191 l S
100 865.988 m 50 837.121 l 50 894.855 l 150 779.383 l S
50 779.383 m 50 721.648 l 0 750.516 l 150 779.383 l S
50 606.18 m 0 635.047 l 50 663.914 l 0 519.578 l S
100 519.578 m 100 577.312 l 150 548.445 l 0 519.578 l S
100 692.781 m 150 663.914 l 100 635.047 l 150 779.383 l S
250 606.18 m 200 577.312 l 200 635.047 l 300 519.578 l S
200 519.578 m 200 461.844 l 150 490.711 l 300 519.578 l S
200 346.371 m 150 375.238 l 200 404.105 l 150 259.77 l S
50 432.973 m 100 461.844 l 100 404.105 l 0 519.578 l S
250 259.77 m 250 317.504 l 300 288.637 l 150 259.77 l S
250 432.973 m 300 404.105 l 250 375.238 l 300 519.578 l S
400 346.371 m 350 317.504 l 350 375.238 l 450 259.77 l S
350 259.77 m 350 202.035 l 300 230.902 l 450 259.77 l S
350 86.562 m 300 115.434 l 350 144.301 l 300 -0.039 l S
200 173.168 m 250 202.035 l 250 144.301 l 150 259.77 l S
400 -0.039 m 400 57.695 l 450 28.828 l 300 -0.039 l S
400 173.168 m 450 144.301 l 400 115.434 l 450 259.77 l S
550 86.562 m 500 57.695 l 500 115.434 l 600 -0.039 l S
50 1299 m 50 1241.266 l 0 1270.133 l 150 1299 l S
50 1125.793 m 0 1154.664 l 50 1183.531 l 0 1039.191 l S
100 1039.191 m 100 1096.926 l 150 1068.059 l 0 1039.191 l S
100 1212.398 m 150 1183.531 l 100 1154.664 l 150 1299 l S
250 1125.793 m 200 1096.926 l 200 1154.664 l 300 1039.191 l S
200 1039.191 m 200 981.457 l 150 1010.324 l 300 1039.191 l S
200 865.988 m 150 894.855 l 200 923.723 l 150 779.383 l S
50 952.59 m 100 981.457 l 100 923.723 l 0 1039.191 l S
250 779.383 m 250 837.121 l 300 808.254 l 150 779.383 l S
250 952.59 m 300 923.723 l 250 894.855 l 300 1039.191 l S
400 865.988 m 350 837.121 l 350 894.855 l 450 779.383 l S
350 779.383 m 350 721.648 l 300 750.516 l 450 779.383 l S
350 606.18 m 300 635.047 l 350 663.914 l 300 519.578 l S
200 692.781 m 250 721.648 l 250 663.914 l 150 779.383 l S
400 519.578 m 400 577.312 l 450 548.445 l 300 519.578 l S
400 692.781 m 450 663.914 l 400 635.047 l 450 779.383 l S
550 606.18 m 500 577.312 l 500 635.047 l 600 519.578 l S
500 519.578 m 500 461.844 l 450 490.711 l 600 519.578 l S
500 346.371 m 450 375.238 l 500 404.105 l 450 259.77 l S
350 432.973 m 400 461.844 l 400 404.105 l 300 519.578 l S
550 259.77 m 550 317.504 l 600 288.637 l 450 259.77 l S
550 432.973 m 600 404.105 l 550 375.238 l 600 519.578 l S
700 346.371 m 650 317.504 l 650 375.238 l 750 259.77 l S
650 259.77 m 650 202.035 l 600 230.902 l 750 259.77 l S
650 86.562 m 600 115.434 l 650 144.301 l 600 -0.039 l S
500 173.168 m 550 202.035 l 550 144.301 l 450 259.77 l S
700 -0.039 m 700 57.695 l 750 28.828 l 600 -0.039 l S
700 173.168 m 750 144.301 l 700 115.434 l 750 259.77 l S
850 86.562 m 800 57.695 l 800 115.434 l 900 -0.039 l S
350 1299 m 350 1241.266 l 300 1270.133 l 450 1299 l S
350 1125.793 m 300 1154.664 l 350 1183.531 l 300 1039.191 l S
200 1212.398 m 250 1241.266 l 250 1183.531 l 150 1299 l S
400 1039.191 m 400 1096.926 l 450 1068.059 l 300 1039.191 l S
400 1212.398 m 450 1183.531 l 400 1154.664 l 450 1299 l S
550 1125.793 m 500 1096.926 l 500 1154.664 l 600 1039.191 l S
500 1039.191 m 500 981.457 l 450 1010.324 l 600 1039.191 l S
500 865.988 m 450 894.855 l 500 923.723 l 450 779.383 l S
350 952.59 m 400 981.457 l 400 923.723 l 300 1039.191 l S
550 779.383 m 550 837.121 l 600 808.254 l 450 779.383 l S
550 952.59 m 600 923.723 l 550 894.855 l 600 1039.191 l S
700 865.988 m 650 837.121 l 650 894.855 l 750 779.383 l S
650 779.383 m 650 721.648 l 600 750.516 l 750 779.383 l S
650 606.18 m 600 635.047 l 650 663.914 l 600 519.578 l S
500 692.781 m 550 721.648 l 550 663.914 l 450 779.383 l S
700 519.578 m 700 577.312 l 750 548.445 l 600 519.578 l S
700 692.781 m 750 663.914 l 700 635.047 l 750 779.383 l S
850 606.18 m 800 577.312 l 800 635.047 l 900 519.578 l S
800 519.578 m 800 461.844 l 750 490.711 l 900 519.578 l S
800 346.371 m 750 375.238 l 800 404.105 l 750 259.77 l S
650 432.973 m 700 461.844 l 700 404.105 l 600 519.578 l S
850 259.77 m 850 317.504 l 900 288.637 l 750 259.77 l S
850 432.973 m 900 404.105 l 850 375.238 l 900 519.578 l S
1000 346.371 m 950 317.504 l 950 375.238 l 1050 259.77 l S
950 259.77 m 950 202.035 l 900 230.902 l 1050 259.77 l S
950 86.562 m 900 115.434 l 950 144.301 l 900 -0.039 l S
800 173.168 m 850 202.035 l 850 144.301 l 750 259.77 l S
1000 -0.039 m 1000 57.695 l 1050 28.828 l 900 -0.039 l S
1000 173.168 m 1050 144.301 l 1000 115.434 l 1050 259.77 l S
1150 86.562 m 1100 57.695 l 1100 115.434 l 1200 -0.039 l S
650 1299 m 650 1241.266 l 600 1270.133 l 750 1299 l S
650 1125.793 m 600 1154.664 l 650 1183.531 l 600 1039.191 l S
500 1212.398 m 550 1241.266 l 550 1183.531 l 450 1299 l S
700 1039.191 m 700 1096.926 l 750 1068.059 l 600 1039.191 l S
700 1212.398 m 750 1183.531 l 700 1154.664 l 750 1299 l S
850 1125.793 m 800 1096.926 l 800 1154.664 l 900 1039.191 l S
800 1039.191 m 800 981.457 l 750 1010.324 l 900 1039.191 l S
800 865.988 m 750 894.855 l 800 923.723 l 750 779.383 l S
650 952.59 m 700 981.457 l 700 923.723 l 600 1039.191 l S
850 779.383 m 850 837.121 l 900 808.254 l 750 779.383 l S
850 952.59 m 900 923.723 l 850 894.855 l 900 1039.191 l S
1000 865.988 m 950 837.121 l 950 894.855 l 1050 779.383 l S
950 779.383 m 950 721.648 l 900 750.516 l 1050 779.383 l S
950 606.18 m 900 635.047 l 950 663.914 l 900 519.578 l S
800 692.781 m 850 721.648 l 850 663.914 l 750 779.383 l S
1000 519.578 m 1000 577.312 l 1050 548.445 l 900 519.578 l S
1000 692.781 m 1050 663.914 l 1000 635.047 l 1050 779.383 l S
1150 606.18 m 1100 577.312 l 1100 635.047 l 1200 519.578 l S
1100 519.578 m 1100 461.844 l 1050 490.711 l 1200 519.578 l S
1100 346.371 m 1050 375.238 l 1100 404.105 l 1050 259.77 l S
950 432.973 m 1000 461.844 l 1000 404.105 l 900 519.578 l S
1150 259.77 m 1150 317.504 l 1200 288.637 l 1050 259.77 l S
1150 432.973 m 1200 404.105 l 1150 375.238 l 1200 519.578 l S
1300 346.371 m 1250 317.504 l 1250 375.238 l 1350 259.77 l S
1250 259.77 m 1250 202.035 l 1200 230.902 l 1350 259.77 l S
1250 86.562 m 1200 115.434 l 1250 144.301 l 1200 -0.039 l S
1100 173.168 m 1150 202.035 l 1150 144.301 l 1050 259.77 l S
1300 -0.039 m 1300 57.695 l 1350 28.828 l 1200 -0.039 l S
1300 173.168 m 1350 144.301 l 1300 115.434 l 1350 259.77 l S
950 1299 m 950 1241.266 l 900 1270.133 l 1050 1299 l S
950 1125.793 m 900 1154.664 l 950 1183.531 l 900 1039.191 l S
800 1212.398 m 850 1241.266 l 850 1183.531 l 750 1299 l S
1000 1039.191 m 1000 1096.926 l 1050 1068.059 l 900 1039.191 l S
1000 1212.398 m 1050 1183.531 l 1000 1154.664 l 1050 1299 l S
1150 1125.793 m 1100 1096.926 l 1100 1154.664 l 1200 1039.191 l S
1100 1039.191 m 1100 981.457 l 1050 1010.324 l 1200 1039.191 l S
1100 865.988 m 1050 894.855 l 1100 923.723 l 1050 779.383 l S
950 952.59 m 1000 981.457 l 1000 923.723 l 900 1039.191 l S
1150 779.383 m 1150 837.121 l 1200 808.254 l 1050 779.383 l S
1150 952.59 m 1200 923.723 l 1150 894.855 l 1200 1039.191 l S
1300 865.988 m 1250 837.121 l 1250 894.855 l 1350 779.383 l S
1250 779.383 m 1250 721.648 l 1200 750.516 l 1350 779.383 l S
1250 606.18 m 1200 635.047 l 1250 663.914 l 1200 519.578 l S
1100 692.781 m 1150 721.648 l 1150 663.914 l 1050 779.383 l S
1300 519.578 m 1300 577.312 l 1350 548.445 l 1200 519.578 l S
1300 692.781 m 1350 663.914 l 1300 635.047 l 1350 779.383 l S
1400 519.578 m 1400 461.844 l 1350 490.711 l 1500 519.578 l S
1400 346.371 m 1350 375.238 l 1400 404.105 l 1350 259.77 l S
1250 432.973 m 1300 461.844 l 1300 404.105 l 1200 519.578 l S
1450 259.77 m 1450 317.504 l 1500 288.637 l 1350 259.77 l S
1400 173.168 m 1450 202.035 l 1450 144.301 l 1350 259.77 l S
1250 1299 m 1250 1241.266 l 1200 1270.133 l 1350 1299 l S
1250 1125.793 m 1200 1154.664 l 1250 1183.531 l 1200 1039.191 l S
1100 1212.398 m 1150 1241.266 l 1150 1183.531 l 1050 1299 l S
1300 1039.191 m 1300 1096.926 l 1350 1068.059 l 1200 1039.191 l S
1300 1212.398 m 1350 1183.531 l 1300 1154.664 l 1350 1299 l S
1400 1039.191 m 1400 981.457 l 1350 1010.324 l 1500 1039.191 l S
1400 865.988 m 1350 894.855 l 1400 923.723 l 1350 779.383 l S
1250 952.59 m 1300 981.457 l 1300 923.723 l 1200 1039.191 l S
1450 779.383 m 1450 837.121 l 1500 808.254 l 1350 779.383 l S
1400 692.781 m 1450 721.648 l 1450 663.914 l 1350 779.383 l S
Q Q
showpage
%%Trailer
%%Trailer
cleartomark
countdictstack
exch sub { end } repeat
restore
%%EOF
