<svg xmlns="http://www.w3.org/2000/svg" baseProfile="full" width="1350" height="1299.038" viewBox="525.0000000000001 -129.9038105676658 1350.0 1299.0381056766582">
    <title>
        Pattern design from http://ornamentist.org
    </title>
    <desc>
        This file is licensed under a Creative Commons CC BY 4.0 license: http://creativecommons.org/licenses/by/4.0/
    </desc>
    <defs>
        <style>
<![CDATA[
        
polyline {
  fill:            none;
  stroke:          black;
  stroke-linecap:  round;
  stroke-linejoin: round;
  stroke-width:    2.0pt;
}


polyline.closed {
  fill:      #d9d9d9;
  fill-rule: evenodd;
}


polygon {
  fill:            #d9d9d9;
  fill-rule:       evenodd;
  stroke:          black;
  stroke-linejoin: round;
  stroke-width:    2.0pt;
}


circle {
  fill:         #d9d9d9;
  stroke:       black;
  stroke-width: 2.0pt;
}


ellipse {
  fill:         #d9d9d9;
  stroke:       black;
  stroke-width: 2.0pt;
}


path {
  fill:            none;
  stroke:          black;
  stroke-linecap:  round;
  stroke-linejoin: round;
  stroke-width:    2.0pt;
}


path.closed {
  fill:      #d9d9d9;
  fill-rule: evenodd;
}


polygon.background,
path.background
{
  fill:   #fbfbfb;
  stroke: #c9c9c9;
  stroke-width: 1.5pt;
}

        ]]>
        </style>
    </defs>
    <clipPath id="design">
        <path d="M525-129.904h1350v1299.038H525z"/>
    </clipPath>
    <g clip-path="url(#design)" color-rendering="optimizeQuality" shape-rendering="geometricPrecision" id="graphics">
        <path class="background closed" d="M1875-129.904v1299.038H525V-129.904z"/>
        <path d="M-150-86.603v-43.3M-150-86.603l-37.5 21.65M-75 43.3l-37.5 21.652M-75 43.3l37.5 21.652M150 86.603l37.5-21.65M150 86.603v43.3M75-43.3L37.5-64.953M75-43.3l37.5-21.652M150 173.205l37.5 21.65M75 303.11l-37.5 21.65M150 173.205v-43.3M75 303.11l37.5 21.65M300 346.41l37.5-21.65M300 346.41v43.3M225 216.506l-37.5-21.65M150 346.41v43.3M225 216.506l37.5-21.65M150 346.41l-37.5-21.65M150 433.013V389.71M150 433.013l-37.5 21.65M300 433.013l37.5 21.65M225 562.917l-37.5 21.65M300 433.013V389.71M225 562.917l37.5 21.65M450 606.218l37.5-21.65M450 606.218v43.3M375 476.314l-37.5-21.65M300 606.218v43.3M375 476.314l37.5-21.65M300 606.218l-37.5-21.65M300 692.82v-43.3M300 692.82l-37.5 21.65M450 692.82l37.5 21.65M375 822.724l-37.5 21.65M450 692.82v-43.3M375 822.724l37.5 21.65M600 866.025l37.5-21.65M600 866.025v43.302M525 736.122l-37.5-21.65M450 866.025v43.302M525 736.122l37.5-21.65M450 866.025l-37.5-21.65M450 952.628v-43.3M450 952.628l-37.5 21.65M600 952.628l37.5 21.65M525 1082.532l-37.5 21.65M600 952.628v-43.3M525 1082.532l37.5 21.65M750 1125.833l37.5-21.65M750 1125.833v43.3M675 995.93l-37.5-21.65M600 1125.833v43.3M675 995.93l37.5-21.65M600 1125.833l-37.5-21.65M150-86.603v-43.3M150-86.603l-37.5 21.65M300-86.603l37.5 21.65M225 43.3l-37.5 21.652M300-86.603v-43.3M225 43.3l37.5 21.652M450 86.603l37.5-21.65M450 86.603v43.3M375-43.3l-37.5-21.652M300 86.603v43.3M375-43.3l37.5-21.652M300 86.603l-37.5-21.65M300 173.205v-43.3M300 173.205l-37.5 21.65M450 173.205l37.5 21.65M375 303.11l-37.5 21.65M450 173.205v-43.3M375 303.11l37.5 21.65M600 346.41l37.5-21.65M600 346.41v43.3M525 216.506l-37.5-21.65M450 346.41v43.3M525 216.506l37.5-21.65M450 346.41l-37.5-21.65M450 433.013V389.71M450 433.013l-37.5 21.65M600 433.013l37.5 21.65M525 562.917l-37.5 21.65M600 433.013V389.71M525 562.917l37.5 21.65M750 606.218l37.5-21.65M750 606.218v43.3M675 476.314l-37.5-21.65M600 606.218v43.3M675 476.314l37.5-21.65M600 606.218l-37.5-21.65M600 692.82v-43.3M600 692.82l-37.5 21.65M750 692.82l37.5 21.65M675 822.724l-37.5 21.65M750 692.82v-43.3M675 822.724l37.5 21.65M900 866.025l37.5-21.65M900 866.025v43.302M825 736.122l-37.5-21.65M750 866.025v43.302M825 736.122l37.5-21.65M750 866.025l-37.5-21.65M750 952.628v-43.3M750 952.628l-37.5 21.65M900 952.628l37.5 21.65M825 1082.532l-37.5 21.65M900 952.628v-43.3M825 1082.532l37.5 21.65M1050 1125.833l37.5-21.65M1050 1125.833v43.3M975 995.93l-37.5-21.65M900 1125.833v43.3M975 995.93l37.5-21.65M900 1125.833l-37.5-21.65M450-86.603v-43.3M450-86.603l-37.5 21.65M600-86.603l37.5 21.65M525 43.3l-37.5 21.652M600-86.603v-43.3M525 43.3l37.5 21.652M750 86.603l37.5-21.65M750 86.603v43.3M675-43.3l-37.5-21.652M600 86.603v43.3M675-43.3l37.5-21.652M600 86.603l-37.5-21.65M600 173.205v-43.3M600 173.205l-37.5 21.65M750 173.205l37.5 21.65M675 303.11l-37.5 21.65M750 173.205v-43.3M675 303.11l37.5 21.65M900 346.41l37.5-21.65M900 346.41v43.3M825 216.506l-37.5-21.65M750 346.41v43.3M825 216.506l37.5-21.65M750 346.41l-37.5-21.65M750 433.013V389.71M750 433.013l-37.5 21.65M900 433.013l37.5 21.65M825 562.917l-37.5 21.65M900 433.013V389.71M825 562.917l37.5 21.65M1050 606.218l37.5-21.65M1050 606.218v43.3M975 476.314l-37.5-21.65M900 606.218v43.3M975 476.314l37.5-21.65M900 606.218l-37.5-21.65M900 692.82v-43.3M900 692.82l-37.5 21.65M1050 692.82l37.5 21.65M975 822.724l-37.5 21.65M1050 692.82v-43.3M975 822.724l37.5 21.65M1200 866.025l37.5-21.65M1200 866.025v43.302M1125 736.122l-37.5-21.65M1050 866.025v43.302M1125 736.122l37.5-21.65M1050 866.025l-37.5-21.65M1050 952.628v-43.3M1050 952.628l-37.5 21.65M1200 952.628l37.5 21.65M1125 1082.532l-37.5 21.65M1200 952.628v-43.3M1125 1082.532l37.5 21.65M1350 1125.833l37.5-21.65M1350 1125.833v43.3M1275 995.93l-37.5-21.65M1200 1125.833v43.3M1275 995.93l37.5-21.65M1200 1125.833l-37.5-21.65M750-86.603v-43.3M750-86.603l-37.5 21.65M900-86.603l37.5 21.65M825 43.3l-37.5 21.652M900-86.603v-43.3M825 43.3l37.5 21.652M1050 86.603l37.5-21.65M1050 86.603v43.3M975-43.3l-37.5-21.652M900 86.603v43.3M975-43.3l37.5-21.652M900 86.603l-37.5-21.65M900 173.205v-43.3M900 173.205l-37.5 21.65M1050 173.205l37.5 21.65M975 303.11l-37.5 21.65M1050 173.205v-43.3M975 303.11l37.5 21.65M1200 346.41l37.5-21.65M1200 346.41v43.3M1125 216.506l-37.5-21.65M1050 346.41v43.3M1125 216.506l37.5-21.65M1050 346.41l-37.5-21.65M1050 433.013V389.71M1050 433.013l-37.5 21.65M1200 433.013l37.5 21.65M1125 562.917l-37.5 21.65M1200 433.013V389.71M1125 562.917l37.5 21.65M1350 606.218l37.5-21.65M1350 606.218v43.3M1275 476.314l-37.5-21.65M1200 606.218v43.3M1275 476.314l37.5-21.65M1200 606.218l-37.5-21.65M1200 692.82v-43.3M1200 692.82l-37.5 21.65M1350 692.82l37.5 21.65M1275 822.724l-37.5 21.65M1350 692.82v-43.3M1275 822.724l37.5 21.65M1500 866.025l37.5-21.65M1500 866.025v43.302M1425 736.122l-37.5-21.65M1350 866.025v43.302M1425 736.122l37.5-21.65M1350 866.025l-37.5-21.65M1350 952.628v-43.3M1350 952.628l-37.5 21.65M1500 952.628l37.5 21.65M1425 1082.532l-37.5 21.65M1500 952.628v-43.3M1425 1082.532l37.5 21.65M1650 1125.833l37.5-21.65M1650 1125.833v43.3M1575 995.93l-37.5-21.65M1500 1125.833v43.3M1575 995.93l37.5-21.65M1500 1125.833l-37.5-21.65M1050-86.603v-43.3M1050-86.603l-37.5 21.65M1200-86.603l37.5 21.65M1125 43.3l-37.5 21.652M1200-86.603v-43.3M1125 43.3l37.5 21.652M1350 86.603l37.5-21.65M1350 86.603v43.3M1275-43.3l-37.5-21.652M1200 86.603v43.3M1275-43.3l37.5-21.652M1200 86.603l-37.5-21.65M1200 173.205v-43.3M1200 173.205l-37.5 21.65M1350 173.205l37.5 21.65M1275 303.11l-37.5 21.65M1350 173.205v-43.3M1275 303.11l37.5 21.65M1500 346.41l37.5-21.65M1500 346.41v43.3M1425 216.506l-37.5-21.65M1350 346.41v43.3M1425 216.506l37.5-21.65M1350 346.41l-37.5-21.65M1350 433.013V389.71M1350 433.013l-37.5 21.65M1500 433.013l37.5 21.65M1425 562.917l-37.5 21.65M1500 433.013V389.71M1425 562.917l37.5 21.65M1650 606.218l37.5-21.65M1650 606.218v43.3M1575 476.314l-37.5-21.65M1500 606.218v43.3M1575 476.314l37.5-21.65M1500 606.218l-37.5-21.65M1500 692.82v-43.3M1500 692.82l-37.5 21.65M1650 692.82l37.5 21.65M1575 822.724l-37.5 21.65M1650 692.82v-43.3M1575 822.724l37.5 21.65M1800 866.025l37.5-21.65M1800 866.025v43.302M1725 736.122l-37.5-21.65M1650 866.025v43.302M1725 736.122l37.5-21.65M1650 866.025l-37.5-21.65M1650 952.628v-43.3M1650 952.628l-37.5 21.65M1800 952.628l37.5 21.65M1725 1082.532l-37.5 21.65M1800 952.628v-43.3M1725 1082.532l37.5 21.65M1950 1125.833l37.5-21.65M1950 1125.833v43.3M1875 995.93l-37.5-21.65M1800 1125.833v43.3M1875 995.93l37.5-21.65M1800 1125.833l-37.5-21.65M1350-86.603v-43.3M1350-86.603l-37.5 21.65M1500-86.603l37.5 21.65M1425 43.3l-37.5 21.652M1500-86.603v-43.3M1425 43.3l37.5 21.652M1650 86.603l37.5-21.65M1650 86.603v43.3M1575-43.3l-37.5-21.652M1500 86.603v43.3M1575-43.3l37.5-21.652M1500 86.603l-37.5-21.65M1500 173.205v-43.3M1500 173.205l-37.5 21.65M1650 173.205l37.5 21.65M1575 303.11l-37.5 21.65M1650 173.205v-43.3M1575 303.11l37.5 21.65M1800 346.41l37.5-21.65M1800 346.41v43.3M1725 216.506l-37.5-21.65M1650 346.41v43.3M1725 216.506l37.5-21.65M1650 346.41l-37.5-21.65M1650 433.013V389.71M1650 433.013l-37.5 21.65M1800 433.013l37.5 21.65M1725 562.917l-37.5 21.65M1800 433.013V389.71M1725 562.917l37.5 21.65M1950 606.218l37.5-21.65M1950 606.218v43.3M1875 476.314l-37.5-21.65M1800 606.218v43.3M1875 476.314l37.5-21.65M1800 606.218l-37.5-21.65M1800 692.82v-43.3M1800 692.82l-37.5 21.65M1950 692.82l37.5 21.65M1875 822.724l-37.5 21.65M1950 692.82v-43.3M1875 822.724l37.5 21.65M2100 866.025l37.5-21.65M2100 866.025v43.302M2025 736.122l-37.5-21.65M1950 866.025v43.302M2025 736.122l37.5-21.65M1950 866.025l-37.5-21.65M1950 952.628v-43.3M1950 952.628l-37.5 21.65M2100 952.628l37.5 21.65M2025 1082.532l-37.5 21.65M2100 952.628v-43.3M2025 1082.532l37.5 21.65M2250 1125.833l37.5-21.65M2250 1125.833v43.3M2175 995.93l-37.5-21.65M2100 1125.833v43.3M2175 995.93l37.5-21.65M2100 1125.833l-37.5-21.65M1650-86.603v-43.3M1650-86.603l-37.5 21.65M1800-86.603l37.5 21.65M1725 43.3l-37.5 21.652M1800-86.603v-43.3M1725 43.3l37.5 21.652M1950 86.603l37.5-21.65M1950 86.603v43.3M1875-43.3l-37.5-21.652M1800 86.603v43.3M1875-43.3l37.5-21.652M1800 86.603l-37.5-21.65M1800 173.205v-43.3M1800 173.205l-37.5 21.65M1950 173.205l37.5 21.65M1875 303.11l-37.5 21.65M1950 173.205v-43.3M1875 303.11l37.5 21.65M2100 346.41l37.5-21.65M2100 346.41v43.3M2025 216.506l-37.5-21.65M1950 346.41v43.3M2025 216.506l37.5-21.65M1950 346.41l-37.5-21.65M1950 433.013V389.71M1950 433.013l-37.5 21.65M2100 433.013l37.5 21.65M2025 562.917l-37.5 21.65M2100 433.013V389.71M2025 562.917l37.5 21.65M2250 606.218l37.5-21.65M2250 606.218v43.3M2175 476.314l-37.5-21.65M2100 606.218v43.3M2175 476.314l37.5-21.65M2100 606.218l-37.5-21.65M2100 692.82v-43.3M2100 692.82l-37.5 21.65M2250 692.82l37.5 21.65M2175 822.724l-37.5 21.65M2250 692.82v-43.3M2175 822.724l37.5 21.65M2400 866.025l37.5-21.65M2400 866.025v43.302M2325 736.122l-37.5-21.65M2250 866.025v43.302M2325 736.122l37.5-21.65M2250 866.025l-37.5-21.65M2250 952.628v-43.3M2250 952.628l-37.5 21.65M2400 952.628l37.5 21.65M2325 1082.532l-37.5 21.65M2400 952.628v-43.3M2325 1082.532l37.5 21.65M2550 1125.833l37.5-21.65M2550 1125.833v43.3M2475 995.93l-37.5-21.65M2400 1125.833v43.3M2475 995.93l37.5-21.65M2400 1125.833l-37.5-21.65" class="polyline-2-1 open"/>
    </g>
</svg>
