%!PS-Adobe-2.0 EPSF-2.0
%%BoundingBox: 0 0 1350 1299
%%HiResBoundingBox: 0.000000 0.000000 1350.000000 1299.000000
%%Creator: cairo 1.14.2 (http://cairographics.org)
%%CreationDate: Mon Sep  7 08:21:54 2015
%%DocumentData: Clean7Bit
%%LanguageLevel: 2
%%DocumentMedia: 476x458mm 1350 1299 0 () ()
%%EndComments
% EPSF created by ps2eps 1.68
%%BeginProlog
save
countdictstack
mark
newpath
/showpage {} def
/setpagedevice {pop} def
%%EndProlog
%%Page 1 1
%%BeginProlog
/languagelevel where
{ pop languagelevel } { 1 } ifelse
2 lt { /Helvetica findfont 12 scalefont setfont 50 500 moveto
  (This print job requires a PostScript Language Level 2 printer.) show
  showpage quit } if
/q { gsave } bind def
/Q { grestore } bind def
/cm { 6 array astore concat } bind def
/w { setlinewidth } bind def
/J { setlinecap } bind def
/j { setlinejoin } bind def
/M { setmiterlimit } bind def
/d { setdash } bind def
/m { moveto } bind def
/l { lineto } bind def
/c { curveto } bind def
/h { closepath } bind def
/re { exch dup neg 3 1 roll 5 3 roll moveto 0 rlineto
      0 exch rlineto 0 rlineto closepath } bind def
/S { stroke } bind def
/f { fill } bind def
/f* { eofill } bind def
/n { newpath } bind def
/W { clip } bind def
/W* { eoclip } bind def
/BT { } bind def
/ET { } bind def
/pdfmark where { pop globaldict /?pdfmark /exec load put }
    { globaldict begin /?pdfmark /pop load def /pdfmark
    /cleartomark load def end } ifelse
/BDC { mark 3 1 roll /BDC pdfmark } bind def
/EMC { mark /EMC pdfmark } bind def
/cairo_store_point { /cairo_point_y exch def /cairo_point_x exch def } def
/Tj { show currentpoint cairo_store_point } bind def
/TJ {
  {
    dup
    type /stringtype eq
    { show } { -0.001 mul 0 cairo_font_matrix dtransform rmoveto } ifelse
  } forall
  currentpoint cairo_store_point
} bind def
/cairo_selectfont { cairo_font_matrix aload pop pop pop 0 0 6 array astore
    cairo_font exch selectfont cairo_point_x cairo_point_y moveto } bind def
/Tf { pop /cairo_font exch def /cairo_font_matrix where
      { pop cairo_selectfont } if } bind def
/Td { matrix translate cairo_font_matrix matrix concatmatrix dup
      /cairo_font_matrix exch def dup 4 get exch 5 get cairo_store_point
      /cairo_font where { pop cairo_selectfont } if } bind def
/Tm { 2 copy 8 2 roll 6 array astore /cairo_font_matrix exch def
      cairo_store_point /cairo_font where { pop cairo_selectfont } if } bind def
/g { setgray } bind def
/rg { setrgbcolor } bind def
/d1 { setcachedevice } bind def
/cairo_set_page_size {
  % Change paper size, but only if different from previous paper size otherwise
  % duplex fails. PLRM specifies a tolerance of 5 pts when matching paper size
  % so we use the same when checking if the size changes.
  /setpagedevice where {
    pop currentpagedevice
    /PageSize known {
      2 copy
      currentpagedevice /PageSize get aload pop
      exch 4 1 roll
      sub abs 5 gt
      3 1 roll
      sub abs 5 gt
      or
    } {
      true
    } ifelse
    {
      2 array astore
      2 dict begin
        /PageSize exch def
        /ImagingBBox null def
      currentdict end
      setpagedevice
    } {
      pop pop
    } ifelse
  } {
    pop
  } ifelse
} def
%%EndProlog
%%BeginSetup
%%EndSetup
%%Page: 1 1
%%BeginPageSetup
%%PageMedia: 476x458mm
%%PageBoundingBox: 0 0 1350 1299
1350 1299 cairo_set_page_size
%%EndPageSetup
q 0 0 1350 1299 rectclip q
0.984314 g
0 0 1350 1299 rectfill
0.788235 g
1.875 w
0 J
1 j
[] 0.0 d
4 M 0 1299 1350 -1299.039 re S
0 g
2.5 w
1 J
75 303.07 m 112.5 324.723 l S
75 303.07 m 75 259.77 l S
0 432.973 m -37.5 454.625 l S
0 432.973 m 37.5 454.625 l S
75 216.469 m 112.5 194.816 l S
0 86.562 m -37.5 64.914 l S
75 216.469 m 75 259.77 l S
0 86.562 m 37.5 64.914 l S
225 43.262 m 262.5 64.914 l S
225 43.262 m 225 -0.039 l S
150 173.168 m 112.5 194.816 l S
75 43.262 m 75 -0.039 l S
150 173.168 m 187.5 194.816 l S
75 43.262 m 37.5 64.914 l S
75 822.688 m 112.5 844.336 l S
75 822.688 m 75 779.383 l S
0 952.59 m -37.5 974.242 l S
0 952.59 m 37.5 974.242 l S
75 736.082 m 112.5 714.434 l S
0 606.18 m -37.5 584.527 l S
75 736.082 m 75 779.383 l S
0 606.18 m 37.5 584.527 l S
225 562.879 m 262.5 584.527 l S
225 562.879 m 225 519.578 l S
150 692.781 m 112.5 714.434 l S
75 562.879 m 75 519.578 l S
150 692.781 m 187.5 714.434 l S
75 562.879 m 37.5 584.527 l S
75 476.277 m 75 519.578 l S
75 476.277 m 37.5 454.625 l S
225 476.277 m 262.5 454.625 l S
150 346.371 m 112.5 324.723 l S
225 476.277 m 225 519.578 l S
150 346.371 m 187.5 324.723 l S
375 303.07 m 412.5 324.723 l S
375 303.07 m 375 259.77 l S
300 432.973 m 262.5 454.625 l S
225 303.07 m 225 259.77 l S
300 432.973 m 337.5 454.625 l S
225 303.07 m 187.5 324.723 l S
225 216.469 m 225 259.77 l S
225 216.469 m 187.5 194.816 l S
375 216.469 m 412.5 194.816 l S
300 86.562 m 262.5 64.914 l S
375 216.469 m 375 259.77 l S
300 86.562 m 337.5 64.914 l S
525 43.262 m 562.5 64.914 l S
525 43.262 m 525 -0.039 l S
450 173.168 m 412.5 194.816 l S
375 43.262 m 375 -0.039 l S
450 173.168 m 487.5 194.816 l S
375 43.262 m 337.5 64.914 l S
75 1255.699 m 112.5 1234.047 l S
0 1125.793 m -37.5 1104.145 l S
75 1255.699 m 75 1299 l S
0 1125.793 m 37.5 1104.145 l S
225 1082.492 m 262.5 1104.145 l S
225 1082.492 m 225 1039.191 l S
150 1212.398 m 112.5 1234.047 l S
75 1082.492 m 75 1039.191 l S
150 1212.398 m 187.5 1234.047 l S
75 1082.492 m 37.5 1104.145 l S
75 995.891 m 75 1039.191 l S
75 995.891 m 37.5 974.242 l S
225 995.891 m 262.5 974.242 l S
150 865.988 m 112.5 844.336 l S
225 995.891 m 225 1039.191 l S
150 865.988 m 187.5 844.336 l S
375 822.688 m 412.5 844.336 l S
375 822.688 m 375 779.383 l S
300 952.59 m 262.5 974.242 l S
225 822.688 m 225 779.383 l S
300 952.59 m 337.5 974.242 l S
225 822.688 m 187.5 844.336 l S
225 736.082 m 225 779.383 l S
225 736.082 m 187.5 714.434 l S
375 736.082 m 412.5 714.434 l S
300 606.18 m 262.5 584.527 l S
375 736.082 m 375 779.383 l S
300 606.18 m 337.5 584.527 l S
525 562.879 m 562.5 584.527 l S
525 562.879 m 525 519.578 l S
450 692.781 m 412.5 714.434 l S
375 562.879 m 375 519.578 l S
450 692.781 m 487.5 714.434 l S
375 562.879 m 337.5 584.527 l S
375 476.277 m 375 519.578 l S
375 476.277 m 337.5 454.625 l S
525 476.277 m 562.5 454.625 l S
450 346.371 m 412.5 324.723 l S
525 476.277 m 525 519.578 l S
450 346.371 m 487.5 324.723 l S
675 303.07 m 712.5 324.723 l S
675 303.07 m 675 259.77 l S
600 432.973 m 562.5 454.625 l S
525 303.07 m 525 259.77 l S
600 432.973 m 637.5 454.625 l S
525 303.07 m 487.5 324.723 l S
525 216.469 m 525 259.77 l S
525 216.469 m 487.5 194.816 l S
675 216.469 m 712.5 194.816 l S
600 86.562 m 562.5 64.914 l S
675 216.469 m 675 259.77 l S
600 86.562 m 637.5 64.914 l S
825 43.262 m 862.5 64.914 l S
825 43.262 m 825 -0.039 l S
750 173.168 m 712.5 194.816 l S
675 43.262 m 675 -0.039 l S
750 173.168 m 787.5 194.816 l S
675 43.262 m 637.5 64.914 l S
225 1255.699 m 225 1299 l S
225 1255.699 m 187.5 1234.047 l S
375 1255.699 m 412.5 1234.047 l S
300 1125.793 m 262.5 1104.145 l S
375 1255.699 m 375 1299 l S
300 1125.793 m 337.5 1104.145 l S
525 1082.492 m 562.5 1104.145 l S
525 1082.492 m 525 1039.191 l S
450 1212.398 m 412.5 1234.047 l S
375 1082.492 m 375 1039.191 l S
450 1212.398 m 487.5 1234.047 l S
375 1082.492 m 337.5 1104.145 l S
375 995.891 m 375 1039.191 l S
375 995.891 m 337.5 974.242 l S
525 995.891 m 562.5 974.242 l S
450 865.988 m 412.5 844.336 l S
525 995.891 m 525 1039.191 l S
450 865.988 m 487.5 844.336 l S
675 822.688 m 712.5 844.336 l S
675 822.688 m 675 779.383 l S
600 952.59 m 562.5 974.242 l S
525 822.688 m 525 779.383 l S
600 952.59 m 637.5 974.242 l S
525 822.688 m 487.5 844.336 l S
525 736.082 m 525 779.383 l S
525 736.082 m 487.5 714.434 l S
675 736.082 m 712.5 714.434 l S
600 606.18 m 562.5 584.527 l S
675 736.082 m 675 779.383 l S
600 606.18 m 637.5 584.527 l S
825 562.879 m 862.5 584.527 l S
825 562.879 m 825 519.578 l S
750 692.781 m 712.5 714.434 l S
675 562.879 m 675 519.578 l S
750 692.781 m 787.5 714.434 l S
675 562.879 m 637.5 584.527 l S
675 476.277 m 675 519.578 l S
675 476.277 m 637.5 454.625 l S
825 476.277 m 862.5 454.625 l S
750 346.371 m 712.5 324.723 l S
825 476.277 m 825 519.578 l S
750 346.371 m 787.5 324.723 l S
975 303.07 m 1012.5 324.723 l S
975 303.07 m 975 259.77 l S
900 432.973 m 862.5 454.625 l S
825 303.07 m 825 259.77 l S
900 432.973 m 937.5 454.625 l S
825 303.07 m 787.5 324.723 l S
825 216.469 m 825 259.77 l S
825 216.469 m 787.5 194.816 l S
975 216.469 m 1012.5 194.816 l S
900 86.562 m 862.5 64.914 l S
975 216.469 m 975 259.77 l S
900 86.562 m 937.5 64.914 l S
1125 43.262 m 1162.5 64.914 l S
1125 43.262 m 1125 -0.039 l S
1050 173.168 m 1012.5 194.816 l S
975 43.262 m 975 -0.039 l S
1050 173.168 m 1087.5 194.816 l S
975 43.262 m 937.5 64.914 l S
525 1255.699 m 525 1299 l S
525 1255.699 m 487.5 1234.047 l S
675 1255.699 m 712.5 1234.047 l S
600 1125.793 m 562.5 1104.145 l S
675 1255.699 m 675 1299 l S
600 1125.793 m 637.5 1104.145 l S
825 1082.492 m 862.5 1104.145 l S
825 1082.492 m 825 1039.191 l S
750 1212.398 m 712.5 1234.047 l S
675 1082.492 m 675 1039.191 l S
750 1212.398 m 787.5 1234.047 l S
675 1082.492 m 637.5 1104.145 l S
675 995.891 m 675 1039.191 l S
675 995.891 m 637.5 974.242 l S
825 995.891 m 862.5 974.242 l S
750 865.988 m 712.5 844.336 l S
825 995.891 m 825 1039.191 l S
750 865.988 m 787.5 844.336 l S
975 822.688 m 1012.5 844.336 l S
975 822.688 m 975 779.383 l S
900 952.59 m 862.5 974.242 l S
825 822.688 m 825 779.383 l S
900 952.59 m 937.5 974.242 l S
825 822.688 m 787.5 844.336 l S
825 736.082 m 825 779.383 l S
825 736.082 m 787.5 714.434 l S
975 736.082 m 1012.5 714.434 l S
900 606.18 m 862.5 584.527 l S
975 736.082 m 975 779.383 l S
900 606.18 m 937.5 584.527 l S
1125 562.879 m 1162.5 584.527 l S
1125 562.879 m 1125 519.578 l S
1050 692.781 m 1012.5 714.434 l S
975 562.879 m 975 519.578 l S
1050 692.781 m 1087.5 714.434 l S
975 562.879 m 937.5 584.527 l S
975 476.277 m 975 519.578 l S
975 476.277 m 937.5 454.625 l S
1125 476.277 m 1162.5 454.625 l S
1050 346.371 m 1012.5 324.723 l S
1125 476.277 m 1125 519.578 l S
1050 346.371 m 1087.5 324.723 l S
1275 303.07 m 1312.5 324.723 l S
1275 303.07 m 1275 259.77 l S
1200 432.973 m 1162.5 454.625 l S
1125 303.07 m 1125 259.77 l S
1200 432.973 m 1237.5 454.625 l S
1125 303.07 m 1087.5 324.723 l S
1125 216.469 m 1125 259.77 l S
1125 216.469 m 1087.5 194.816 l S
1275 216.469 m 1312.5 194.816 l S
1200 86.562 m 1162.5 64.914 l S
1275 216.469 m 1275 259.77 l S
1200 86.562 m 1237.5 64.914 l S
1350 173.168 m 1312.5 194.816 l S
1275 43.262 m 1275 -0.039 l S
1350 173.168 m 1387.5 194.816 l S
1275 43.262 m 1237.5 64.914 l S
825 1255.699 m 825 1299 l S
825 1255.699 m 787.5 1234.047 l S
975 1255.699 m 1012.5 1234.047 l S
900 1125.793 m 862.5 1104.145 l S
975 1255.699 m 975 1299 l S
900 1125.793 m 937.5 1104.145 l S
1125 1082.492 m 1162.5 1104.145 l S
1125 1082.492 m 1125 1039.191 l S
1050 1212.398 m 1012.5 1234.047 l S
975 1082.492 m 975 1039.191 l S
1050 1212.398 m 1087.5 1234.047 l S
975 1082.492 m 937.5 1104.145 l S
975 995.891 m 975 1039.191 l S
975 995.891 m 937.5 974.242 l S
1125 995.891 m 1162.5 974.242 l S
1050 865.988 m 1012.5 844.336 l S
1125 995.891 m 1125 1039.191 l S
1050 865.988 m 1087.5 844.336 l S
1275 822.688 m 1312.5 844.336 l S
1275 822.688 m 1275 779.383 l S
1200 952.59 m 1162.5 974.242 l S
1125 822.688 m 1125 779.383 l S
1200 952.59 m 1237.5 974.242 l S
1125 822.688 m 1087.5 844.336 l S
1125 736.082 m 1125 779.383 l S
1125 736.082 m 1087.5 714.434 l S
1275 736.082 m 1312.5 714.434 l S
1200 606.18 m 1162.5 584.527 l S
1275 736.082 m 1275 779.383 l S
1200 606.18 m 1237.5 584.527 l S
1350 692.781 m 1312.5 714.434 l S
1275 562.879 m 1275 519.578 l S
1350 692.781 m 1387.5 714.434 l S
1275 562.879 m 1237.5 584.527 l S
1275 476.277 m 1275 519.578 l S
1275 476.277 m 1237.5 454.625 l S
1350 346.371 m 1312.5 324.723 l S
1350 346.371 m 1387.5 324.723 l S
1125 1255.699 m 1125 1299 l S
1125 1255.699 m 1087.5 1234.047 l S
1275 1255.699 m 1312.5 1234.047 l S
1200 1125.793 m 1162.5 1104.145 l S
1275 1255.699 m 1275 1299 l S
1200 1125.793 m 1237.5 1104.145 l S
1350 1212.398 m 1312.5 1234.047 l S
1275 1082.492 m 1275 1039.191 l S
1350 1212.398 m 1387.5 1234.047 l S
1275 1082.492 m 1237.5 1104.145 l S
1275 995.891 m 1275 1039.191 l S
1275 995.891 m 1237.5 974.242 l S
1350 865.988 m 1312.5 844.336 l S
1350 865.988 m 1387.5 844.336 l S
Q Q
showpage
%%Trailer
%%Trailer
cleartomark
countdictstack
exch sub { end } repeat
restore
%%EOF
