%!PS-Adobe-2.0 EPSF-2.0
%%BoundingBox: 0 0 1350 1299
%%HiResBoundingBox: 0.000000 0.000000 1350.000000 1299.000000
%%Creator: cairo 1.14.2 (http://cairographics.org)
%%CreationDate: Mon Sep  7 08:21:54 2015
%%DocumentData: Clean7Bit
%%LanguageLevel: 2
%%DocumentMedia: 476x458mm 1350 1299 0 () ()
%%EndComments
% EPSF created by ps2eps 1.68
%%BeginProlog
save
countdictstack
mark
newpath
/showpage {} def
/setpagedevice {pop} def
%%EndProlog
%%Page 1 1
%%BeginProlog
/languagelevel where
{ pop languagelevel } { 1 } ifelse
2 lt { /Helvetica findfont 12 scalefont setfont 50 500 moveto
  (This print job requires a PostScript Language Level 2 printer.) show
  showpage quit } if
/q { gsave } bind def
/Q { grestore } bind def
/cm { 6 array astore concat } bind def
/w { setlinewidth } bind def
/J { setlinecap } bind def
/j { setlinejoin } bind def
/M { setmiterlimit } bind def
/d { setdash } bind def
/m { moveto } bind def
/l { lineto } bind def
/c { curveto } bind def
/h { closepath } bind def
/re { exch dup neg 3 1 roll 5 3 roll moveto 0 rlineto
      0 exch rlineto 0 rlineto closepath } bind def
/S { stroke } bind def
/f { fill } bind def
/f* { eofill } bind def
/n { newpath } bind def
/W { clip } bind def
/W* { eoclip } bind def
/BT { } bind def
/ET { } bind def
/pdfmark where { pop globaldict /?pdfmark /exec load put }
    { globaldict begin /?pdfmark /pop load def /pdfmark
    /cleartomark load def end } ifelse
/BDC { mark 3 1 roll /BDC pdfmark } bind def
/EMC { mark /EMC pdfmark } bind def
/cairo_store_point { /cairo_point_y exch def /cairo_point_x exch def } def
/Tj { show currentpoint cairo_store_point } bind def
/TJ {
  {
    dup
    type /stringtype eq
    { show } { -0.001 mul 0 cairo_font_matrix dtransform rmoveto } ifelse
  } forall
  currentpoint cairo_store_point
} bind def
/cairo_selectfont { cairo_font_matrix aload pop pop pop 0 0 6 array astore
    cairo_font exch selectfont cairo_point_x cairo_point_y moveto } bind def
/Tf { pop /cairo_font exch def /cairo_font_matrix where
      { pop cairo_selectfont } if } bind def
/Td { matrix translate cairo_font_matrix matrix concatmatrix dup
      /cairo_font_matrix exch def dup 4 get exch 5 get cairo_store_point
      /cairo_font where { pop cairo_selectfont } if } bind def
/Tm { 2 copy 8 2 roll 6 array astore /cairo_font_matrix exch def
      cairo_store_point /cairo_font where { pop cairo_selectfont } if } bind def
/g { setgray } bind def
/rg { setrgbcolor } bind def
/d1 { setcachedevice } bind def
/cairo_set_page_size {
  % Change paper size, but only if different from previous paper size otherwise
  % duplex fails. PLRM specifies a tolerance of 5 pts when matching paper size
  % so we use the same when checking if the size changes.
  /setpagedevice where {
    pop currentpagedevice
    /PageSize known {
      2 copy
      currentpagedevice /PageSize get aload pop
      exch 4 1 roll
      sub abs 5 gt
      3 1 roll
      sub abs 5 gt
      or
    } {
      true
    } ifelse
    {
      2 array astore
      2 dict begin
        /PageSize exch def
        /ImagingBBox null def
      currentdict end
      setpagedevice
    } {
      pop pop
    } ifelse
  } {
    pop
  } ifelse
} def
%%EndProlog
%%BeginSetup
%%EndSetup
%%Page: 1 1
%%BeginPageSetup
%%PageMedia: 476x458mm
%%PageBoundingBox: 0 0 1350 1299
1350 1299 cairo_set_page_size
%%EndPageSetup
q 0 0 1350 1299 rectclip q
0.984314 g
0 0 1350 1299 rectfill
0.788235 g
1.875 w
0 J
1 j
[] 0.0 d
4 M 0 1299 1350 -1299.039 re S
0 g
2.5 w
1 J
0 519.578 m -50 606.18 -100 635.047 -75 591.746 c S
0 519.578 m -100 519.578 -150 548.445 -100 548.445 c S
0 519.578 m -50 432.973 -100 404.105 -75 447.41 c S
0 519.578 m -100 519.578 -150 490.711 -100 490.711 c S
150 259.77 m 100 346.371 50 375.238 75 331.938 c S
150 259.77 m 50 259.77 0 288.637 50 288.637 c S
0 519.578 m -50 432.973 -50 375.238 -25 418.539 c S
0 519.578 m 50 432.973 50 375.238 25 418.539 c S
150 259.77 m 100 173.168 50 144.301 75 187.602 c S
0 -0.039 m -50 86.562 -50 144.301 -25 101 c S
150 259.77 m 50 259.77 0 230.902 50 230.902 c S
0 -0.039 m 50 86.562 50 144.301 25 101 c S
300 -0.039 m 250 86.562 200 115.434 225 72.129 c S
300 -0.039 m 200 -0.039 150 28.828 200 28.828 c S
150 259.77 m 100 173.168 100 115.434 125 158.734 c S
0 -0.039 m 100 -0.039 150 28.828 100 28.828 c S
150 259.77 m 200 173.168 200 115.434 175 158.734 c S
0 -0.039 m 50 86.562 100 115.434 75 72.129 c S
0 1039.191 m -50 1125.793 -100 1154.664 -75 1111.359 c S
0 1039.191 m -100 1039.191 -150 1068.059 -100 1068.059 c S
0 1039.191 m -50 952.59 -100 923.723 -75 967.023 c S
0 1039.191 m -100 1039.191 -150 1010.324 -100 1010.324 c S
150 779.383 m 100 865.988 50 894.855 75 851.555 c S
150 779.383 m 50 779.383 0 808.254 50 808.254 c S
0 1039.191 m -50 952.59 -50 894.855 -25 938.156 c S
0 1039.191 m 50 952.59 50 894.855 25 938.156 c S
150 779.383 m 100 692.781 50 663.914 75 707.215 c S
0 519.578 m -50 606.18 -50 663.914 -25 620.613 c S
150 779.383 m 50 779.383 0 750.516 50 750.516 c S
0 519.578 m 50 606.18 50 663.914 25 620.613 c S
300 519.578 m 250 606.18 200 635.047 225 591.746 c S
300 519.578 m 200 519.578 150 548.445 200 548.445 c S
150 779.383 m 100 692.781 100 635.047 125 678.348 c S
0 519.578 m 100 519.578 150 548.445 100 548.445 c S
150 779.383 m 200 692.781 200 635.047 175 678.348 c S
0 519.578 m 50 606.18 100 635.047 75 591.746 c S
0 519.578 m 100 519.578 150 490.711 100 490.711 c S
0 519.578 m 50 432.973 100 404.105 75 447.41 c S
300 519.578 m 250 432.973 200 404.105 225 447.41 c S
150 259.77 m 100 346.371 100 404.105 125 360.805 c S
300 519.578 m 200 519.578 150 490.711 200 490.711 c S
150 259.77 m 200 346.371 200 404.105 175 360.805 c S
450 259.77 m 400 346.371 350 375.238 375 331.938 c S
450 259.77 m 350 259.77 300 288.637 350 288.637 c S
300 519.578 m 250 432.973 250 375.238 275 418.539 c S
150 259.77 m 250 259.77 300 288.637 250 288.637 c S
300 519.578 m 350 432.973 350 375.238 325 418.539 c S
150 259.77 m 200 346.371 250 375.238 225 331.938 c S
150 259.77 m 250 259.77 300 230.902 250 230.902 c S
150 259.77 m 200 173.168 250 144.301 225 187.602 c S
450 259.77 m 400 173.168 350 144.301 375 187.602 c S
300 -0.039 m 250 86.562 250 144.301 275 101 c S
450 259.77 m 350 259.77 300 230.902 350 230.902 c S
300 -0.039 m 350 86.562 350 144.301 325 101 c S
600 -0.039 m 550 86.562 500 115.434 525 72.129 c S
600 -0.039 m 500 -0.039 450 28.828 500 28.828 c S
450 259.77 m 400 173.168 400 115.434 425 158.734 c S
300 -0.039 m 400 -0.039 450 28.828 400 28.828 c S
450 259.77 m 500 173.168 500 115.434 475 158.734 c S
300 -0.039 m 350 86.562 400 115.434 375 72.129 c S
150 1299 m 100 1212.398 50 1183.531 75 1226.832 c S
0 1039.191 m -50 1125.793 -50 1183.531 -25 1140.23 c S
150 1299 m 50 1299 0 1270.133 50 1270.133 c S
0 1039.191 m 50 1125.793 50 1183.531 25 1140.23 c S
300 1039.191 m 250 1125.793 200 1154.664 225 1111.359 c S
300 1039.191 m 200 1039.191 150 1068.059 200 1068.059 c S
150 1299 m 100 1212.398 100 1154.664 125 1197.965 c S
0 1039.191 m 100 1039.191 150 1068.059 100 1068.059 c S
150 1299 m 200 1212.398 200 1154.664 175 1197.965 c S
0 1039.191 m 50 1125.793 100 1154.664 75 1111.359 c S
0 1039.191 m 100 1039.191 150 1010.324 100 1010.324 c S
0 1039.191 m 50 952.59 100 923.723 75 967.023 c S
300 1039.191 m 250 952.59 200 923.723 225 967.023 c S
150 779.383 m 100 865.988 100 923.723 125 880.422 c S
300 1039.191 m 200 1039.191 150 1010.324 200 1010.324 c S
150 779.383 m 200 865.988 200 923.723 175 880.422 c S
450 779.383 m 400 865.988 350 894.855 375 851.555 c S
450 779.383 m 350 779.383 300 808.254 350 808.254 c S
300 1039.191 m 250 952.59 250 894.855 275 938.156 c S
150 779.383 m 250 779.383 300 808.254 250 808.254 c S
300 1039.191 m 350 952.59 350 894.855 325 938.156 c S
150 779.383 m 200 865.988 250 894.855 225 851.555 c S
150 779.383 m 250 779.383 300 750.516 250 750.516 c S
150 779.383 m 200 692.781 250 663.914 225 707.215 c S
450 779.383 m 400 692.781 350 663.914 375 707.215 c S
300 519.578 m 250 606.18 250 663.914 275 620.613 c S
450 779.383 m 350 779.383 300 750.516 350 750.516 c S
300 519.578 m 350 606.18 350 663.914 325 620.613 c S
600 519.578 m 550 606.18 500 635.047 525 591.746 c S
600 519.578 m 500 519.578 450 548.445 500 548.445 c S
450 779.383 m 400 692.781 400 635.047 425 678.348 c S
300 519.578 m 400 519.578 450 548.445 400 548.445 c S
450 779.383 m 500 692.781 500 635.047 475 678.348 c S
300 519.578 m 350 606.18 400 635.047 375 591.746 c S
300 519.578 m 400 519.578 450 490.711 400 490.711 c S
300 519.578 m 350 432.973 400 404.105 375 447.41 c S
600 519.578 m 550 432.973 500 404.105 525 447.41 c S
450 259.77 m 400 346.371 400 404.105 425 360.805 c S
600 519.578 m 500 519.578 450 490.711 500 490.711 c S
450 259.77 m 500 346.371 500 404.105 475 360.805 c S
750 259.77 m 700 346.371 650 375.238 675 331.938 c S
750 259.77 m 650 259.77 600 288.637 650 288.637 c S
600 519.578 m 550 432.973 550 375.238 575 418.539 c S
450 259.77 m 550 259.77 600 288.637 550 288.637 c S
600 519.578 m 650 432.973 650 375.238 625 418.539 c S
450 259.77 m 500 346.371 550 375.238 525 331.938 c S
450 259.77 m 550 259.77 600 230.902 550 230.902 c S
450 259.77 m 500 173.168 550 144.301 525 187.602 c S
750 259.77 m 700 173.168 650 144.301 675 187.602 c S
600 -0.039 m 550 86.562 550 144.301 575 101 c S
750 259.77 m 650 259.77 600 230.902 650 230.902 c S
600 -0.039 m 650 86.562 650 144.301 625 101 c S
900 -0.039 m 850 86.562 800 115.434 825 72.129 c S
900 -0.039 m 800 -0.039 750 28.828 800 28.828 c S
750 259.77 m 700 173.168 700 115.434 725 158.734 c S
600 -0.039 m 700 -0.039 750 28.828 700 28.828 c S
750 259.77 m 800 173.168 800 115.434 775 158.734 c S
600 -0.039 m 650 86.562 700 115.434 675 72.129 c S
150 1299 m 250 1299 300 1270.133 250 1270.133 c S
150 1299 m 200 1212.398 250 1183.531 225 1226.832 c S
450 1299 m 400 1212.398 350 1183.531 375 1226.832 c S
300 1039.191 m 250 1125.793 250 1183.531 275 1140.23 c S
450 1299 m 350 1299 300 1270.133 350 1270.133 c S
300 1039.191 m 350 1125.793 350 1183.531 325 1140.23 c S
600 1039.191 m 550 1125.793 500 1154.664 525 1111.359 c S
600 1039.191 m 500 1039.191 450 1068.059 500 1068.059 c S
450 1299 m 400 1212.398 400 1154.664 425 1197.965 c S
300 1039.191 m 400 1039.191 450 1068.059 400 1068.059 c S
450 1299 m 500 1212.398 500 1154.664 475 1197.965 c S
300 1039.191 m 350 1125.793 400 1154.664 375 1111.359 c S
300 1039.191 m 400 1039.191 450 1010.324 400 1010.324 c S
300 1039.191 m 350 952.59 400 923.723 375 967.023 c S
600 1039.191 m 550 952.59 500 923.723 525 967.023 c S
450 779.383 m 400 865.988 400 923.723 425 880.422 c S
600 1039.191 m 500 1039.191 450 1010.324 500 1010.324 c S
450 779.383 m 500 865.988 500 923.723 475 880.422 c S
750 779.383 m 700 865.988 650 894.855 675 851.555 c S
750 779.383 m 650 779.383 600 808.254 650 808.254 c S
600 1039.191 m 550 952.59 550 894.855 575 938.156 c S
450 779.383 m 550 779.383 600 808.254 550 808.254 c S
600 1039.191 m 650 952.59 650 894.855 625 938.156 c S
450 779.383 m 500 865.988 550 894.855 525 851.555 c S
450 779.383 m 550 779.383 600 750.516 550 750.516 c S
450 779.383 m 500 692.781 550 663.914 525 707.215 c S
750 779.383 m 700 692.781 650 663.914 675 707.215 c S
600 519.578 m 550 606.18 550 663.914 575 620.613 c S
750 779.383 m 650 779.383 600 750.516 650 750.516 c S
600 519.578 m 650 606.18 650 663.914 625 620.613 c S
900 519.578 m 850 606.18 800 635.047 825 591.746 c S
900 519.578 m 800 519.578 750 548.445 800 548.445 c S
750 779.383 m 700 692.781 700 635.047 725 678.348 c S
600 519.578 m 700 519.578 750 548.445 700 548.445 c S
750 779.383 m 800 692.781 800 635.047 775 678.348 c S
600 519.578 m 650 606.18 700 635.047 675 591.746 c S
600 519.578 m 700 519.578 750 490.711 700 490.711 c S
600 519.578 m 650 432.973 700 404.105 675 447.41 c S
900 519.578 m 850 432.973 800 404.105 825 447.41 c S
750 259.77 m 700 346.371 700 404.105 725 360.805 c S
900 519.578 m 800 519.578 750 490.711 800 490.711 c S
750 259.77 m 800 346.371 800 404.105 775 360.805 c S
1050 259.77 m 1000 346.371 950 375.238 975 331.938 c S
1050 259.77 m 950 259.77 900 288.637 950 288.637 c S
900 519.578 m 850 432.973 850 375.238 875 418.539 c S
750 259.77 m 850 259.77 900 288.637 850 288.637 c S
900 519.578 m 950 432.973 950 375.238 925 418.539 c S
750 259.77 m 800 346.371 850 375.238 825 331.938 c S
750 259.77 m 850 259.77 900 230.902 850 230.902 c S
750 259.77 m 800 173.168 850 144.301 825 187.602 c S
1050 259.77 m 1000 173.168 950 144.301 975 187.602 c S
900 -0.039 m 850 86.562 850 144.301 875 101 c S
1050 259.77 m 950 259.77 900 230.902 950 230.902 c S
900 -0.039 m 950 86.562 950 144.301 925 101 c S
1200 -0.039 m 1150 86.562 1100 115.434 1125 72.129 c S
1200 -0.039 m 1100 -0.039 1050 28.828 1100 28.828 c S
1050 259.77 m 1000 173.168 1000 115.434 1025 158.734 c S
900 -0.039 m 1000 -0.039 1050 28.828 1000 28.828 c S
1050 259.77 m 1100 173.168 1100 115.434 1075 158.734 c S
900 -0.039 m 950 86.562 1000 115.434 975 72.129 c S
450 1299 m 550 1299 600 1270.133 550 1270.133 c S
450 1299 m 500 1212.398 550 1183.531 525 1226.832 c S
750 1299 m 700 1212.398 650 1183.531 675 1226.832 c S
600 1039.191 m 550 1125.793 550 1183.531 575 1140.23 c S
750 1299 m 650 1299 600 1270.133 650 1270.133 c S
600 1039.191 m 650 1125.793 650 1183.531 625 1140.23 c S
900 1039.191 m 850 1125.793 800 1154.664 825 1111.359 c S
900 1039.191 m 800 1039.191 750 1068.059 800 1068.059 c S
750 1299 m 700 1212.398 700 1154.664 725 1197.965 c S
600 1039.191 m 700 1039.191 750 1068.059 700 1068.059 c S
750 1299 m 800 1212.398 800 1154.664 775 1197.965 c S
600 1039.191 m 650 1125.793 700 1154.664 675 1111.359 c S
600 1039.191 m 700 1039.191 750 1010.324 700 1010.324 c S
600 1039.191 m 650 952.59 700 923.723 675 967.023 c S
900 1039.191 m 850 952.59 800 923.723 825 967.023 c S
750 779.383 m 700 865.988 700 923.723 725 880.422 c S
900 1039.191 m 800 1039.191 750 1010.324 800 1010.324 c S
750 779.383 m 800 865.988 800 923.723 775 880.422 c S
1050 779.383 m 1000 865.988 950 894.855 975 851.555 c S
1050 779.383 m 950 779.383 900 808.254 950 808.254 c S
900 1039.191 m 850 952.59 850 894.855 875 938.156 c S
750 779.383 m 850 779.383 900 808.254 850 808.254 c S
900 1039.191 m 950 952.59 950 894.855 925 938.156 c S
750 779.383 m 800 865.988 850 894.855 825 851.555 c S
750 779.383 m 850 779.383 900 750.516 850 750.516 c S
750 779.383 m 800 692.781 850 663.914 825 707.215 c S
1050 779.383 m 1000 692.781 950 663.914 975 707.215 c S
900 519.578 m 850 606.18 850 663.914 875 620.613 c S
1050 779.383 m 950 779.383 900 750.516 950 750.516 c S
900 519.578 m 950 606.18 950 663.914 925 620.613 c S
1200 519.578 m 1150 606.18 1100 635.047 1125 591.746 c S
1200 519.578 m 1100 519.578 1050 548.445 1100 548.445 c S
1050 779.383 m 1000 692.781 1000 635.047 1025 678.348 c S
900 519.578 m 1000 519.578 1050 548.445 1000 548.445 c S
1050 779.383 m 1100 692.781 1100 635.047 1075 678.348 c S
900 519.578 m 950 606.18 1000 635.047 975 591.746 c S
900 519.578 m 1000 519.578 1050 490.711 1000 490.711 c S
900 519.578 m 950 432.973 1000 404.105 975 447.41 c S
1200 519.578 m 1150 432.973 1100 404.105 1125 447.41 c S
1050 259.77 m 1000 346.371 1000 404.105 1025 360.805 c S
1200 519.578 m 1100 519.578 1050 490.711 1100 490.711 c S
1050 259.77 m 1100 346.371 1100 404.105 1075 360.805 c S
1350 259.77 m 1300 346.371 1250 375.238 1275 331.938 c S
1350 259.77 m 1250 259.77 1200 288.637 1250 288.637 c S
1200 519.578 m 1150 432.973 1150 375.238 1175 418.539 c S
1050 259.77 m 1150 259.77 1200 288.637 1150 288.637 c S
1200 519.578 m 1250 432.973 1250 375.238 1225 418.539 c S
1050 259.77 m 1100 346.371 1150 375.238 1125 331.938 c S
1050 259.77 m 1150 259.77 1200 230.902 1150 230.902 c S
1050 259.77 m 1100 173.168 1150 144.301 1125 187.602 c S
1350 259.77 m 1300 173.168 1250 144.301 1275 187.602 c S
1200 -0.039 m 1150 86.562 1150 144.301 1175 101 c S
1350 259.77 m 1250 259.77 1200 230.902 1250 230.902 c S
1200 -0.039 m 1250 86.562 1250 144.301 1225 101 c S
1350 259.77 m 1300 173.168 1300 115.434 1325 158.734 c S
1200 -0.039 m 1300 -0.039 1350 28.828 1300 28.828 c S
1350 259.77 m 1400 173.168 1400 115.434 1375 158.734 c S
1200 -0.039 m 1250 86.562 1300 115.434 1275 72.129 c S
750 1299 m 850 1299 900 1270.133 850 1270.133 c S
750 1299 m 800 1212.398 850 1183.531 825 1226.832 c S
1050 1299 m 1000 1212.398 950 1183.531 975 1226.832 c S
900 1039.191 m 850 1125.793 850 1183.531 875 1140.23 c S
1050 1299 m 950 1299 900 1270.133 950 1270.133 c S
900 1039.191 m 950 1125.793 950 1183.531 925 1140.23 c S
1200 1039.191 m 1150 1125.793 1100 1154.664 1125 1111.359 c S
1200 1039.191 m 1100 1039.191 1050 1068.059 1100 1068.059 c S
1050 1299 m 1000 1212.398 1000 1154.664 1025 1197.965 c S
900 1039.191 m 1000 1039.191 1050 1068.059 1000 1068.059 c S
1050 1299 m 1100 1212.398 1100 1154.664 1075 1197.965 c S
900 1039.191 m 950 1125.793 1000 1154.664 975 1111.359 c S
900 1039.191 m 1000 1039.191 1050 1010.324 1000 1010.324 c S
900 1039.191 m 950 952.59 1000 923.723 975 967.023 c S
1200 1039.191 m 1150 952.59 1100 923.723 1125 967.023 c S
1050 779.383 m 1000 865.988 1000 923.723 1025 880.422 c S
1200 1039.191 m 1100 1039.191 1050 1010.324 1100 1010.324 c S
1050 779.383 m 1100 865.988 1100 923.723 1075 880.422 c S
1350 779.383 m 1300 865.988 1250 894.855 1275 851.555 c S
1350 779.383 m 1250 779.383 1200 808.254 1250 808.254 c S
1200 1039.191 m 1150 952.59 1150 894.855 1175 938.156 c S
1050 779.383 m 1150 779.383 1200 808.254 1150 808.254 c S
1200 1039.191 m 1250 952.59 1250 894.855 1225 938.156 c S
1050 779.383 m 1100 865.988 1150 894.855 1125 851.555 c S
1050 779.383 m 1150 779.383 1200 750.516 1150 750.516 c S
1050 779.383 m 1100 692.781 1150 663.914 1125 707.215 c S
1350 779.383 m 1300 692.781 1250 663.914 1275 707.215 c S
1200 519.578 m 1150 606.18 1150 663.914 1175 620.613 c S
1350 779.383 m 1250 779.383 1200 750.516 1250 750.516 c S
1200 519.578 m 1250 606.18 1250 663.914 1225 620.613 c S
1350 779.383 m 1300 692.781 1300 635.047 1325 678.348 c S
1200 519.578 m 1300 519.578 1350 548.445 1300 548.445 c S
1350 779.383 m 1400 692.781 1400 635.047 1375 678.348 c S
1200 519.578 m 1250 606.18 1300 635.047 1275 591.746 c S
1200 519.578 m 1300 519.578 1350 490.711 1300 490.711 c S
1200 519.578 m 1250 432.973 1300 404.105 1275 447.41 c S
1350 259.77 m 1300 346.371 1300 404.105 1325 360.805 c S
1350 259.77 m 1400 346.371 1400 404.105 1375 360.805 c S
1350 259.77 m 1450 259.77 1500 288.637 1450 288.637 c S
1350 259.77 m 1400 346.371 1450 375.238 1425 331.938 c S
1350 259.77 m 1450 259.77 1500 230.902 1450 230.902 c S
1350 259.77 m 1400 173.168 1450 144.301 1425 187.602 c S
1050 1299 m 1150 1299 1200 1270.133 1150 1270.133 c S
1050 1299 m 1100 1212.398 1150 1183.531 1125 1226.832 c S
1350 1299 m 1300 1212.398 1250 1183.531 1275 1226.832 c S
1200 1039.191 m 1150 1125.793 1150 1183.531 1175 1140.23 c S
1350 1299 m 1250 1299 1200 1270.133 1250 1270.133 c S
1200 1039.191 m 1250 1125.793 1250 1183.531 1225 1140.23 c S
1350 1299 m 1300 1212.398 1300 1154.664 1325 1197.965 c S
1200 1039.191 m 1300 1039.191 1350 1068.059 1300 1068.059 c S
1350 1299 m 1400 1212.398 1400 1154.664 1375 1197.965 c S
1200 1039.191 m 1250 1125.793 1300 1154.664 1275 1111.359 c S
1200 1039.191 m 1300 1039.191 1350 1010.324 1300 1010.324 c S
1200 1039.191 m 1250 952.59 1300 923.723 1275 967.023 c S
1350 779.383 m 1300 865.988 1300 923.723 1325 880.422 c S
1350 779.383 m 1400 865.988 1400 923.723 1375 880.422 c S
1350 779.383 m 1450 779.383 1500 808.254 1450 808.254 c S
1350 779.383 m 1400 865.988 1450 894.855 1425 851.555 c S
1350 779.383 m 1450 779.383 1500 750.516 1450 750.516 c S
1350 779.383 m 1400 692.781 1450 663.914 1425 707.215 c S
Q Q
showpage
%%Trailer
%%Trailer
cleartomark
countdictstack
exch sub { end } repeat
restore
%%EOF
