%!PS-Adobe-2.0 EPSF-2.0
%%BoundingBox: 0 0 1350 1299
%%HiResBoundingBox: 0.000000 0.000000 1350.000000 1299.000000
%%Creator: cairo 1.14.2 (http://cairographics.org)
%%CreationDate: Mon Sep  7 08:21:54 2015
%%DocumentData: Clean7Bit
%%LanguageLevel: 2
%%DocumentMedia: 476x458mm 1350 1299 0 () ()
%%EndComments
% EPSF created by ps2eps 1.68
%%BeginProlog
save
countdictstack
mark
newpath
/showpage {} def
/setpagedevice {pop} def
%%EndProlog
%%Page 1 1
%%BeginProlog
/languagelevel where
{ pop languagelevel } { 1 } ifelse
2 lt { /Helvetica findfont 12 scalefont setfont 50 500 moveto
  (This print job requires a PostScript Language Level 2 printer.) show
  showpage quit } if
/q { gsave } bind def
/Q { grestore } bind def
/cm { 6 array astore concat } bind def
/w { setlinewidth } bind def
/J { setlinecap } bind def
/j { setlinejoin } bind def
/M { setmiterlimit } bind def
/d { setdash } bind def
/m { moveto } bind def
/l { lineto } bind def
/c { curveto } bind def
/h { closepath } bind def
/re { exch dup neg 3 1 roll 5 3 roll moveto 0 rlineto
      0 exch rlineto 0 rlineto closepath } bind def
/S { stroke } bind def
/f { fill } bind def
/f* { eofill } bind def
/n { newpath } bind def
/W { clip } bind def
/W* { eoclip } bind def
/BT { } bind def
/ET { } bind def
/pdfmark where { pop globaldict /?pdfmark /exec load put }
    { globaldict begin /?pdfmark /pop load def /pdfmark
    /cleartomark load def end } ifelse
/BDC { mark 3 1 roll /BDC pdfmark } bind def
/EMC { mark /EMC pdfmark } bind def
/cairo_store_point { /cairo_point_y exch def /cairo_point_x exch def } def
/Tj { show currentpoint cairo_store_point } bind def
/TJ {
  {
    dup
    type /stringtype eq
    { show } { -0.001 mul 0 cairo_font_matrix dtransform rmoveto } ifelse
  } forall
  currentpoint cairo_store_point
} bind def
/cairo_selectfont { cairo_font_matrix aload pop pop pop 0 0 6 array astore
    cairo_font exch selectfont cairo_point_x cairo_point_y moveto } bind def
/Tf { pop /cairo_font exch def /cairo_font_matrix where
      { pop cairo_selectfont } if } bind def
/Td { matrix translate cairo_font_matrix matrix concatmatrix dup
      /cairo_font_matrix exch def dup 4 get exch 5 get cairo_store_point
      /cairo_font where { pop cairo_selectfont } if } bind def
/Tm { 2 copy 8 2 roll 6 array astore /cairo_font_matrix exch def
      cairo_store_point /cairo_font where { pop cairo_selectfont } if } bind def
/g { setgray } bind def
/rg { setrgbcolor } bind def
/d1 { setcachedevice } bind def
/cairo_set_page_size {
  % Change paper size, but only if different from previous paper size otherwise
  % duplex fails. PLRM specifies a tolerance of 5 pts when matching paper size
  % so we use the same when checking if the size changes.
  /setpagedevice where {
    pop currentpagedevice
    /PageSize known {
      2 copy
      currentpagedevice /PageSize get aload pop
      exch 4 1 roll
      sub abs 5 gt
      3 1 roll
      sub abs 5 gt
      or
    } {
      true
    } ifelse
    {
      2 array astore
      2 dict begin
        /PageSize exch def
        /ImagingBBox null def
      currentdict end
      setpagedevice
    } {
      pop pop
    } ifelse
  } {
    pop
  } ifelse
} def
%%EndProlog
%%BeginSetup
%%EndSetup
%%Page: 1 1
%%BeginPageSetup
%%PageMedia: 476x458mm
%%PageBoundingBox: 0 0 1350 1299
1350 1299 cairo_set_page_size
%%EndPageSetup
q 0 0 1350 1299 rectclip q
0.984314 g
0 0 1350 1299 rectfill
0.788235 g
1.875 w
0 J
1 j
[] 0.0 d
4 M 0 1299 1350 -1299.039 re S
0 g
2.5 w
1 J
75 389.672 m 125 303.07 l 100 288.637 l S
0 259.77 m 100 259.77 l 100 288.637 l S
-75 389.672 m -50 432.973 l -25 476.277 l 0 461.844 l S
0 259.77 m -100 259.77 l -100 288.637 l S
75 389.672 m 50 432.973 l 25 476.277 l 0 461.844 l S
0 259.77 m -100 259.77 l -100 230.902 l S
75 129.867 m 125 216.469 l 100 230.902 l S
-75 129.867 m -50 86.562 l -25 43.262 l 0 57.695 l S
0 259.77 m 100 259.77 l 100 230.902 l S
75 129.867 m 50 86.562 l 25 43.262 l 0 57.695 l S
225 129.867 m 250 86.562 l 275 43.262 l 250 28.828 l S
150 -0.039 m 250 -0.039 l 250 28.828 l S
75 129.867 m 125 216.469 l 150 202.035 l S
150 -0.039 m 50 -0.039 l 50 28.828 l S
225 129.867 m 175 216.469 l 150 202.035 l S
75 129.867 m 50 86.562 l 25 43.262 l 50 28.828 l S
75 909.289 m 125 822.688 l 100 808.254 l S
0 779.383 m 100 779.383 l 100 808.254 l S
-75 909.289 m -25 995.891 l 0 981.457 l S
0 779.383 m -100 779.383 l -100 808.254 l S
75 909.289 m 25 995.891 l 0 981.457 l S
0 779.383 m -100 779.383 l -100 750.516 l S
75 649.48 m 125 736.082 l 100 750.516 l S
-75 649.48 m -25 562.879 l 0 577.312 l S
0 779.383 m 100 779.383 l 100 750.516 l S
75 649.48 m 25 562.879 l 0 577.312 l S
225 649.48 m 275 562.879 l 250 548.445 l S
150 519.578 m 250 519.578 l 250 548.445 l S
75 649.48 m 125 736.082 l 150 721.648 l S
150 519.578 m 50 519.578 l 50 548.445 l S
225 649.48 m 175 736.082 l 150 721.648 l S
75 649.48 m 25 562.879 l 50 548.445 l S
150 519.578 m 50 519.578 l 50 490.711 l S
75 389.672 m 50 432.973 l 25 476.277 l 50 490.711 l S
225 389.672 m 250 432.973 l 275 476.277 l 250 490.711 l S
75 389.672 m 125 303.07 l 150 317.504 l S
150 519.578 m 250 519.578 l 250 490.711 l S
225 389.672 m 175 303.07 l 150 317.504 l S
375 389.672 m 425 303.07 l 400 288.637 l S
300 259.77 m 400 259.77 l 400 288.637 l S
225 389.672 m 250 432.973 l 275 476.277 l 300 461.844 l S
300 259.77 m 200 259.77 l 200 288.637 l S
375 389.672 m 350 432.973 l 325 476.277 l 300 461.844 l S
225 389.672 m 175 303.07 l 200 288.637 l S
300 259.77 m 200 259.77 l 200 230.902 l S
225 129.867 m 175 216.469 l 200 230.902 l S
375 129.867 m 425 216.469 l 400 230.902 l S
225 129.867 m 250 86.562 l 275 43.262 l 300 57.695 l S
300 259.77 m 400 259.77 l 400 230.902 l S
375 129.867 m 350 86.562 l 325 43.262 l 300 57.695 l S
525 129.867 m 550 86.562 l 575 43.262 l 550 28.828 l S
450 -0.039 m 550 -0.039 l 550 28.828 l S
375 129.867 m 425 216.469 l 450 202.035 l S
450 -0.039 m 350 -0.039 l 350 28.828 l S
525 129.867 m 475 216.469 l 450 202.035 l S
375 129.867 m 350 86.562 l 325 43.262 l 350 28.828 l S
0 1299 m -100 1299 l -100 1270.133 l S
75 1169.098 m 125 1255.699 l 100 1270.133 l S
-75 1169.098 m -50 1125.793 l -25 1082.492 l 0 1096.926 l S
0 1299 m 100 1299 l 100 1270.133 l S
75 1169.098 m 50 1125.793 l 25 1082.492 l 0 1096.926 l S
225 1169.098 m 250 1125.793 l 275 1082.492 l 250 1068.059 l S
150 1039.191 m 250 1039.191 l 250 1068.059 l S
75 1169.098 m 125 1255.699 l 150 1241.266 l S
150 1039.191 m 50 1039.191 l 50 1068.059 l S
225 1169.098 m 175 1255.699 l 150 1241.266 l S
75 1169.098 m 50 1125.793 l 25 1082.492 l 50 1068.059 l S
150 1039.191 m 50 1039.191 l 50 1010.324 l S
75 909.289 m 25 995.891 l 50 1010.324 l S
225 909.289 m 275 995.891 l 250 1010.324 l S
75 909.289 m 125 822.688 l 150 837.121 l S
150 1039.191 m 250 1039.191 l 250 1010.324 l S
225 909.289 m 175 822.688 l 150 837.121 l S
375 909.289 m 425 822.688 l 400 808.254 l S
300 779.383 m 400 779.383 l 400 808.254 l S
225 909.289 m 275 995.891 l 300 981.457 l S
300 779.383 m 200 779.383 l 200 808.254 l S
375 909.289 m 325 995.891 l 300 981.457 l S
225 909.289 m 175 822.688 l 200 808.254 l S
300 779.383 m 200 779.383 l 200 750.516 l S
225 649.48 m 175 736.082 l 200 750.516 l S
375 649.48 m 425 736.082 l 400 750.516 l S
225 649.48 m 275 562.879 l 300 577.312 l S
300 779.383 m 400 779.383 l 400 750.516 l S
375 649.48 m 325 562.879 l 300 577.312 l S
525 649.48 m 575 562.879 l 550 548.445 l S
450 519.578 m 550 519.578 l 550 548.445 l S
375 649.48 m 425 736.082 l 450 721.648 l S
450 519.578 m 350 519.578 l 350 548.445 l S
525 649.48 m 475 736.082 l 450 721.648 l S
375 649.48 m 325 562.879 l 350 548.445 l S
450 519.578 m 350 519.578 l 350 490.711 l S
375 389.672 m 350 432.973 l 325 476.277 l 350 490.711 l S
525 389.672 m 550 432.973 l 575 476.277 l 550 490.711 l S
375 389.672 m 425 303.07 l 450 317.504 l S
450 519.578 m 550 519.578 l 550 490.711 l S
525 389.672 m 475 303.07 l 450 317.504 l S
675 389.672 m 725 303.07 l 700 288.637 l S
600 259.77 m 700 259.77 l 700 288.637 l S
525 389.672 m 550 432.973 l 575 476.277 l 600 461.844 l S
600 259.77 m 500 259.77 l 500 288.637 l S
675 389.672 m 650 432.973 l 625 476.277 l 600 461.844 l S
525 389.672 m 475 303.07 l 500 288.637 l S
600 259.77 m 500 259.77 l 500 230.902 l S
525 129.867 m 475 216.469 l 500 230.902 l S
675 129.867 m 725 216.469 l 700 230.902 l S
525 129.867 m 550 86.562 l 575 43.262 l 600 57.695 l S
600 259.77 m 700 259.77 l 700 230.902 l S
675 129.867 m 650 86.562 l 625 43.262 l 600 57.695 l S
825 129.867 m 850 86.562 l 875 43.262 l 850 28.828 l S
750 -0.039 m 850 -0.039 l 850 28.828 l S
675 129.867 m 725 216.469 l 750 202.035 l S
750 -0.039 m 650 -0.039 l 650 28.828 l S
825 129.867 m 775 216.469 l 750 202.035 l S
675 129.867 m 650 86.562 l 625 43.262 l 650 28.828 l S
300 1299 m 200 1299 l 200 1270.133 l S
225 1169.098 m 175 1255.699 l 200 1270.133 l S
375 1169.098 m 425 1255.699 l 400 1270.133 l S
225 1169.098 m 250 1125.793 l 275 1082.492 l 300 1096.926 l S
300 1299 m 400 1299 l 400 1270.133 l S
375 1169.098 m 350 1125.793 l 325 1082.492 l 300 1096.926 l S
525 1169.098 m 550 1125.793 l 575 1082.492 l 550 1068.059 l S
450 1039.191 m 550 1039.191 l 550 1068.059 l S
375 1169.098 m 425 1255.699 l 450 1241.266 l S
450 1039.191 m 350 1039.191 l 350 1068.059 l S
525 1169.098 m 475 1255.699 l 450 1241.266 l S
375 1169.098 m 350 1125.793 l 325 1082.492 l 350 1068.059 l S
450 1039.191 m 350 1039.191 l 350 1010.324 l S
375 909.289 m 325 995.891 l 350 1010.324 l S
525 909.289 m 575 995.891 l 550 1010.324 l S
375 909.289 m 425 822.688 l 450 837.121 l S
450 1039.191 m 550 1039.191 l 550 1010.324 l S
525 909.289 m 475 822.688 l 450 837.121 l S
675 909.289 m 725 822.688 l 700 808.254 l S
600 779.383 m 700 779.383 l 700 808.254 l S
525 909.289 m 575 995.891 l 600 981.457 l S
600 779.383 m 500 779.383 l 500 808.254 l S
675 909.289 m 625 995.891 l 600 981.457 l S
525 909.289 m 475 822.688 l 500 808.254 l S
600 779.383 m 500 779.383 l 500 750.516 l S
525 649.48 m 475 736.082 l 500 750.516 l S
675 649.48 m 725 736.082 l 700 750.516 l S
525 649.48 m 575 562.879 l 600 577.312 l S
600 779.383 m 700 779.383 l 700 750.516 l S
675 649.48 m 625 562.879 l 600 577.312 l S
825 649.48 m 875 562.879 l 850 548.445 l S
750 519.578 m 850 519.578 l 850 548.445 l S
675 649.48 m 725 736.082 l 750 721.648 l S
750 519.578 m 650 519.578 l 650 548.445 l S
825 649.48 m 775 736.082 l 750 721.648 l S
675 649.48 m 625 562.879 l 650 548.445 l S
750 519.578 m 650 519.578 l 650 490.711 l S
675 389.672 m 650 432.973 l 625 476.277 l 650 490.711 l S
825 389.672 m 850 432.973 l 875 476.277 l 850 490.711 l S
675 389.672 m 725 303.07 l 750 317.504 l S
750 519.578 m 850 519.578 l 850 490.711 l S
825 389.672 m 775 303.07 l 750 317.504 l S
975 389.672 m 1025 303.07 l 1000 288.637 l S
900 259.77 m 1000 259.77 l 1000 288.637 l S
825 389.672 m 850 432.973 l 875 476.277 l 900 461.844 l S
900 259.77 m 800 259.77 l 800 288.637 l S
975 389.672 m 950 432.973 l 925 476.277 l 900 461.844 l S
825 389.672 m 775 303.07 l 800 288.637 l S
900 259.77 m 800 259.77 l 800 230.902 l S
825 129.867 m 775 216.469 l 800 230.902 l S
975 129.867 m 1025 216.469 l 1000 230.902 l S
825 129.867 m 850 86.562 l 875 43.262 l 900 57.695 l S
900 259.77 m 1000 259.77 l 1000 230.902 l S
975 129.867 m 950 86.562 l 925 43.262 l 900 57.695 l S
1125 129.867 m 1150 86.562 l 1175 43.262 l 1150 28.828 l S
1050 -0.039 m 1150 -0.039 l 1150 28.828 l S
975 129.867 m 1025 216.469 l 1050 202.035 l S
1050 -0.039 m 950 -0.039 l 950 28.828 l S
1125 129.867 m 1075 216.469 l 1050 202.035 l S
975 129.867 m 950 86.562 l 925 43.262 l 950 28.828 l S
600 1299 m 500 1299 l 500 1270.133 l S
525 1169.098 m 475 1255.699 l 500 1270.133 l S
675 1169.098 m 725 1255.699 l 700 1270.133 l S
525 1169.098 m 550 1125.793 l 575 1082.492 l 600 1096.926 l S
600 1299 m 700 1299 l 700 1270.133 l S
675 1169.098 m 650 1125.793 l 625 1082.492 l 600 1096.926 l S
825 1169.098 m 850 1125.793 l 875 1082.492 l 850 1068.059 l S
750 1039.191 m 850 1039.191 l 850 1068.059 l S
675 1169.098 m 725 1255.699 l 750 1241.266 l S
750 1039.191 m 650 1039.191 l 650 1068.059 l S
825 1169.098 m 775 1255.699 l 750 1241.266 l S
675 1169.098 m 650 1125.793 l 625 1082.492 l 650 1068.059 l S
750 1039.191 m 650 1039.191 l 650 1010.324 l S
675 909.289 m 625 995.891 l 650 1010.324 l S
825 909.289 m 875 995.891 l 850 1010.324 l S
675 909.289 m 725 822.688 l 750 837.121 l S
750 1039.191 m 850 1039.191 l 850 1010.324 l S
825 909.289 m 775 822.688 l 750 837.121 l S
975 909.289 m 1025 822.688 l 1000 808.254 l S
900 779.383 m 1000 779.383 l 1000 808.254 l S
825 909.289 m 875 995.891 l 900 981.457 l S
900 779.383 m 800 779.383 l 800 808.254 l S
975 909.289 m 925 995.891 l 900 981.457 l S
825 909.289 m 775 822.688 l 800 808.254 l S
900 779.383 m 800 779.383 l 800 750.516 l S
825 649.48 m 775 736.082 l 800 750.516 l S
975 649.48 m 1025 736.082 l 1000 750.516 l S
825 649.48 m 875 562.879 l 900 577.312 l S
900 779.383 m 1000 779.383 l 1000 750.516 l S
975 649.48 m 925 562.879 l 900 577.312 l S
1125 649.48 m 1175 562.879 l 1150 548.445 l S
1050 519.578 m 1150 519.578 l 1150 548.445 l S
975 649.48 m 1025 736.082 l 1050 721.648 l S
1050 519.578 m 950 519.578 l 950 548.445 l S
1125 649.48 m 1075 736.082 l 1050 721.648 l S
975 649.48 m 925 562.879 l 950 548.445 l S
1050 519.578 m 950 519.578 l 950 490.711 l S
975 389.672 m 950 432.973 l 925 476.277 l 950 490.711 l S
1125 389.672 m 1150 432.973 l 1175 476.277 l 1150 490.711 l S
975 389.672 m 1025 303.07 l 1050 317.504 l S
1050 519.578 m 1150 519.578 l 1150 490.711 l S
1125 389.672 m 1075 303.07 l 1050 317.504 l S
1275 389.672 m 1325 303.07 l 1300 288.637 l S
1200 259.77 m 1300 259.77 l 1300 288.637 l S
1125 389.672 m 1150 432.973 l 1175 476.277 l 1200 461.844 l S
1200 259.77 m 1100 259.77 l 1100 288.637 l S
1275 389.672 m 1250 432.973 l 1225 476.277 l 1200 461.844 l S
1125 389.672 m 1075 303.07 l 1100 288.637 l S
1200 259.77 m 1100 259.77 l 1100 230.902 l S
1125 129.867 m 1075 216.469 l 1100 230.902 l S
1275 129.867 m 1325 216.469 l 1300 230.902 l S
1125 129.867 m 1150 86.562 l 1175 43.262 l 1200 57.695 l S
1200 259.77 m 1300 259.77 l 1300 230.902 l S
1275 129.867 m 1250 86.562 l 1225 43.262 l 1200 57.695 l S
1350 -0.039 m 1450 -0.039 l 1450 28.828 l S
1275 129.867 m 1325 216.469 l 1350 202.035 l S
1350 -0.039 m 1250 -0.039 l 1250 28.828 l S
1425 129.867 m 1375 216.469 l 1350 202.035 l S
1275 129.867 m 1250 86.562 l 1225 43.262 l 1250 28.828 l S
900 1299 m 800 1299 l 800 1270.133 l S
825 1169.098 m 775 1255.699 l 800 1270.133 l S
975 1169.098 m 1025 1255.699 l 1000 1270.133 l S
825 1169.098 m 850 1125.793 l 875 1082.492 l 900 1096.926 l S
900 1299 m 1000 1299 l 1000 1270.133 l S
975 1169.098 m 950 1125.793 l 925 1082.492 l 900 1096.926 l S
1125 1169.098 m 1150 1125.793 l 1175 1082.492 l 1150 1068.059 l S
1050 1039.191 m 1150 1039.191 l 1150 1068.059 l S
975 1169.098 m 1025 1255.699 l 1050 1241.266 l S
1050 1039.191 m 950 1039.191 l 950 1068.059 l S
1125 1169.098 m 1075 1255.699 l 1050 1241.266 l S
975 1169.098 m 950 1125.793 l 925 1082.492 l 950 1068.059 l S
1050 1039.191 m 950 1039.191 l 950 1010.324 l S
975 909.289 m 925 995.891 l 950 1010.324 l S
1125 909.289 m 1175 995.891 l 1150 1010.324 l S
975 909.289 m 1025 822.688 l 1050 837.121 l S
1050 1039.191 m 1150 1039.191 l 1150 1010.324 l S
1125 909.289 m 1075 822.688 l 1050 837.121 l S
1275 909.289 m 1325 822.688 l 1300 808.254 l S
1200 779.383 m 1300 779.383 l 1300 808.254 l S
1125 909.289 m 1175 995.891 l 1200 981.457 l S
1200 779.383 m 1100 779.383 l 1100 808.254 l S
1275 909.289 m 1225 995.891 l 1200 981.457 l S
1125 909.289 m 1075 822.688 l 1100 808.254 l S
1200 779.383 m 1100 779.383 l 1100 750.516 l S
1125 649.48 m 1075 736.082 l 1100 750.516 l S
1275 649.48 m 1325 736.082 l 1300 750.516 l S
1125 649.48 m 1175 562.879 l 1200 577.312 l S
1200 779.383 m 1300 779.383 l 1300 750.516 l S
1275 649.48 m 1225 562.879 l 1200 577.312 l S
1350 519.578 m 1450 519.578 l 1450 548.445 l S
1275 649.48 m 1325 736.082 l 1350 721.648 l S
1350 519.578 m 1250 519.578 l 1250 548.445 l S
1425 649.48 m 1375 736.082 l 1350 721.648 l S
1275 649.48 m 1225 562.879 l 1250 548.445 l S
1350 519.578 m 1250 519.578 l 1250 490.711 l S
1275 389.672 m 1250 432.973 l 1225 476.277 l 1250 490.711 l S
1275 389.672 m 1325 303.07 l 1350 317.504 l S
1350 519.578 m 1450 519.578 l 1450 490.711 l S
1425 389.672 m 1375 303.07 l 1350 317.504 l S
1200 1299 m 1100 1299 l 1100 1270.133 l S
1125 1169.098 m 1075 1255.699 l 1100 1270.133 l S
1275 1169.098 m 1325 1255.699 l 1300 1270.133 l S
1125 1169.098 m 1150 1125.793 l 1175 1082.492 l 1200 1096.926 l S
1200 1299 m 1300 1299 l 1300 1270.133 l S
1275 1169.098 m 1250 1125.793 l 1225 1082.492 l 1200 1096.926 l S
1350 1039.191 m 1450 1039.191 l 1450 1068.059 l S
1275 1169.098 m 1325 1255.699 l 1350 1241.266 l S
1350 1039.191 m 1250 1039.191 l 1250 1068.059 l S
1425 1169.098 m 1375 1255.699 l 1350 1241.266 l S
1275 1169.098 m 1250 1125.793 l 1225 1082.492 l 1250 1068.059 l S
1350 1039.191 m 1250 1039.191 l 1250 1010.324 l S
1275 909.289 m 1225 995.891 l 1250 1010.324 l S
1275 909.289 m 1325 822.688 l 1350 837.121 l S
1350 1039.191 m 1450 1039.191 l 1450 1010.324 l S
1425 909.289 m 1375 822.688 l 1350 837.121 l S
Q Q
showpage
%%Trailer
%%Trailer
cleartomark
countdictstack
exch sub { end } repeat
restore
%%EOF
