%!PS-Adobe-2.0 EPSF-2.0
%%BoundingBox: 0 0 1350 1299
%%HiResBoundingBox: 0.000000 0.000000 1350.000000 1299.000000
%%Creator: cairo 1.14.2 (http://cairographics.org)
%%CreationDate: Mon Sep  7 08:21:54 2015
%%DocumentData: Clean7Bit
%%LanguageLevel: 2
%%DocumentMedia: 476x458mm 1350 1299 0 () ()
%%EndComments
% EPSF created by ps2eps 1.68
%%BeginProlog
save
countdictstack
mark
newpath
/showpage {} def
/setpagedevice {pop} def
%%EndProlog
%%Page 1 1
%%BeginProlog
/languagelevel where
{ pop languagelevel } { 1 } ifelse
2 lt { /Helvetica findfont 12 scalefont setfont 50 500 moveto
  (This print job requires a PostScript Language Level 2 printer.) show
  showpage quit } if
/q { gsave } bind def
/Q { grestore } bind def
/cm { 6 array astore concat } bind def
/w { setlinewidth } bind def
/J { setlinecap } bind def
/j { setlinejoin } bind def
/M { setmiterlimit } bind def
/d { setdash } bind def
/m { moveto } bind def
/l { lineto } bind def
/c { curveto } bind def
/h { closepath } bind def
/re { exch dup neg 3 1 roll 5 3 roll moveto 0 rlineto
      0 exch rlineto 0 rlineto closepath } bind def
/S { stroke } bind def
/f { fill } bind def
/f* { eofill } bind def
/n { newpath } bind def
/W { clip } bind def
/W* { eoclip } bind def
/BT { } bind def
/ET { } bind def
/pdfmark where { pop globaldict /?pdfmark /exec load put }
    { globaldict begin /?pdfmark /pop load def /pdfmark
    /cleartomark load def end } ifelse
/BDC { mark 3 1 roll /BDC pdfmark } bind def
/EMC { mark /EMC pdfmark } bind def
/cairo_store_point { /cairo_point_y exch def /cairo_point_x exch def } def
/Tj { show currentpoint cairo_store_point } bind def
/TJ {
  {
    dup
    type /stringtype eq
    { show } { -0.001 mul 0 cairo_font_matrix dtransform rmoveto } ifelse
  } forall
  currentpoint cairo_store_point
} bind def
/cairo_selectfont { cairo_font_matrix aload pop pop pop 0 0 6 array astore
    cairo_font exch selectfont cairo_point_x cairo_point_y moveto } bind def
/Tf { pop /cairo_font exch def /cairo_font_matrix where
      { pop cairo_selectfont } if } bind def
/Td { matrix translate cairo_font_matrix matrix concatmatrix dup
      /cairo_font_matrix exch def dup 4 get exch 5 get cairo_store_point
      /cairo_font where { pop cairo_selectfont } if } bind def
/Tm { 2 copy 8 2 roll 6 array astore /cairo_font_matrix exch def
      cairo_store_point /cairo_font where { pop cairo_selectfont } if } bind def
/g { setgray } bind def
/rg { setrgbcolor } bind def
/d1 { setcachedevice } bind def
/cairo_set_page_size {
  % Change paper size, but only if different from previous paper size otherwise
  % duplex fails. PLRM specifies a tolerance of 5 pts when matching paper size
  % so we use the same when checking if the size changes.
  /setpagedevice where {
    pop currentpagedevice
    /PageSize known {
      2 copy
      currentpagedevice /PageSize get aload pop
      exch 4 1 roll
      sub abs 5 gt
      3 1 roll
      sub abs 5 gt
      or
    } {
      true
    } ifelse
    {
      2 array astore
      2 dict begin
        /PageSize exch def
        /ImagingBBox null def
      currentdict end
      setpagedevice
    } {
      pop pop
    } ifelse
  } {
    pop
  } ifelse
} def
%%EndProlog
%%BeginSetup
%%EndSetup
%%Page: 1 1
%%BeginPageSetup
%%PageMedia: 476x458mm
%%PageBoundingBox: 0 0 1350 1299
1350 1299 cairo_set_page_size
%%EndPageSetup
q 0 0 1350 1299 rectclip q
0.984314 g
0 0 1350 1299 rectfill
0.788235 g
1.875 w
0 J
1 j
[] 0.0 d
4 M 0 1299 1350 -1299.039 re S
0 g
2.5 w
1 J
75 389.672 m 25 360.805 75 331.938 125 303.07 c S
0 259.77 m 0 317.504 50 288.637 100 259.77 c S
0 259.77 m 0 317.504 -50 288.637 -100 259.77 c S
75 389.672 m 25 360.805 25 418.539 25 476.277 c S
0 259.77 m 0 202.035 -50 230.902 -100 259.77 c S
75 129.867 m 25 158.734 75 187.602 125 216.469 c S
0 259.77 m 0 202.035 50 230.902 100 259.77 c S
75 129.867 m 25 158.734 25 101 25 43.262 c S
225 129.867 m 175 101 225 72.129 275 43.262 c S
150 -0.039 m 150 57.695 200 28.828 250 -0.039 c S
75 129.867 m 125 101 125 158.734 125 216.469 c S
150 -0.039 m 150 57.695 100 28.828 50 -0.039 c S
225 129.867 m 175 101 175 158.734 175 216.469 c S
75 129.867 m 125 101 75 72.129 25 43.262 c S
75 909.289 m 25 880.422 75 851.555 125 822.688 c S
0 779.383 m 0 837.121 50 808.254 100 779.383 c S
0 779.383 m 0 837.121 -50 808.254 -100 779.383 c S
75 909.289 m 25 880.422 25 938.156 25 995.891 c S
0 779.383 m 0 721.648 -50 750.516 -100 779.383 c S
75 649.48 m 25 678.348 75 707.215 125 736.082 c S
0 779.383 m 0 721.648 50 750.516 100 779.383 c S
75 649.48 m 25 678.348 25 620.613 25 562.879 c S
225 649.48 m 175 620.613 225 591.746 275 562.879 c S
150 519.578 m 150 577.312 200 548.445 250 519.578 c S
75 649.48 m 125 620.613 125 678.348 125 736.082 c S
150 519.578 m 150 577.312 100 548.445 50 519.578 c S
225 649.48 m 175 620.613 175 678.348 175 736.082 c S
75 649.48 m 125 620.613 75 591.746 25 562.879 c S
150 519.578 m 150 461.844 100 490.711 50 519.578 c S
75 389.672 m 125 418.539 75 447.41 25 476.277 c S
225 389.672 m 175 418.539 225 447.41 275 476.277 c S
75 389.672 m 125 418.539 125 360.805 125 303.07 c S
150 519.578 m 150 461.844 200 490.711 250 519.578 c S
225 389.672 m 175 418.539 175 360.805 175 303.07 c S
375 389.672 m 325 360.805 375 331.938 425 303.07 c S
300 259.77 m 300 317.504 350 288.637 400 259.77 c S
225 389.672 m 275 360.805 275 418.539 275 476.277 c S
300 259.77 m 300 317.504 250 288.637 200 259.77 c S
375 389.672 m 325 360.805 325 418.539 325 476.277 c S
225 389.672 m 275 360.805 225 331.938 175 303.07 c S
300 259.77 m 300 202.035 250 230.902 200 259.77 c S
225 129.867 m 275 158.734 225 187.602 175 216.469 c S
375 129.867 m 325 158.734 375 187.602 425 216.469 c S
225 129.867 m 275 158.734 275 101 275 43.262 c S
300 259.77 m 300 202.035 350 230.902 400 259.77 c S
375 129.867 m 325 158.734 325 101 325 43.262 c S
525 129.867 m 475 101 525 72.129 575 43.262 c S
450 -0.039 m 450 57.695 500 28.828 550 -0.039 c S
375 129.867 m 425 101 425 158.734 425 216.469 c S
450 -0.039 m 450 57.695 400 28.828 350 -0.039 c S
525 129.867 m 475 101 475 158.734 475 216.469 c S
375 129.867 m 425 101 375 72.129 325 43.262 c S
0 1299 m 0 1241.266 -50 1270.133 -100 1299 c S
75 1169.098 m 25 1197.965 75 1226.832 125 1255.699 c S
0 1299 m 0 1241.266 50 1270.133 100 1299 c S
75 1169.098 m 25 1197.965 25 1140.23 25 1082.492 c S
225 1169.098 m 175 1140.23 225 1111.359 275 1082.492 c S
150 1039.191 m 150 1096.926 200 1068.059 250 1039.191 c S
75 1169.098 m 125 1140.23 125 1197.965 125 1255.699 c S
150 1039.191 m 150 1096.926 100 1068.059 50 1039.191 c S
225 1169.098 m 175 1140.23 175 1197.965 175 1255.699 c S
75 1169.098 m 125 1140.23 75 1111.359 25 1082.492 c S
150 1039.191 m 150 981.457 100 1010.324 50 1039.191 c S
75 909.289 m 125 938.156 75 967.023 25 995.891 c S
225 909.289 m 175 938.156 225 967.023 275 995.891 c S
75 909.289 m 125 938.156 125 880.422 125 822.688 c S
150 1039.191 m 150 981.457 200 1010.324 250 1039.191 c S
225 909.289 m 175 938.156 175 880.422 175 822.688 c S
375 909.289 m 325 880.422 375 851.555 425 822.688 c S
300 779.383 m 300 837.121 350 808.254 400 779.383 c S
225 909.289 m 275 880.422 275 938.156 275 995.891 c S
300 779.383 m 300 837.121 250 808.254 200 779.383 c S
375 909.289 m 325 880.422 325 938.156 325 995.891 c S
225 909.289 m 275 880.422 225 851.555 175 822.688 c S
300 779.383 m 300 721.648 250 750.516 200 779.383 c S
225 649.48 m 275 678.348 225 707.215 175 736.082 c S
375 649.48 m 325 678.348 375 707.215 425 736.082 c S
225 649.48 m 275 678.348 275 620.613 275 562.879 c S
300 779.383 m 300 721.648 350 750.516 400 779.383 c S
375 649.48 m 325 678.348 325 620.613 325 562.879 c S
525 649.48 m 475 620.613 525 591.746 575 562.879 c S
450 519.578 m 450 577.312 500 548.445 550 519.578 c S
375 649.48 m 425 620.613 425 678.348 425 736.082 c S
450 519.578 m 450 577.312 400 548.445 350 519.578 c S
525 649.48 m 475 620.613 475 678.348 475 736.082 c S
375 649.48 m 425 620.613 375 591.746 325 562.879 c S
450 519.578 m 450 461.844 400 490.711 350 519.578 c S
375 389.672 m 425 418.539 375 447.41 325 476.277 c S
525 389.672 m 475 418.539 525 447.41 575 476.277 c S
375 389.672 m 425 418.539 425 360.805 425 303.07 c S
450 519.578 m 450 461.844 500 490.711 550 519.578 c S
525 389.672 m 475 418.539 475 360.805 475 303.07 c S
675 389.672 m 625 360.805 675 331.938 725 303.07 c S
600 259.77 m 600 317.504 650 288.637 700 259.77 c S
525 389.672 m 575 360.805 575 418.539 575 476.277 c S
600 259.77 m 600 317.504 550 288.637 500 259.77 c S
675 389.672 m 625 360.805 625 418.539 625 476.277 c S
525 389.672 m 575 360.805 525 331.938 475 303.07 c S
600 259.77 m 600 202.035 550 230.902 500 259.77 c S
525 129.867 m 575 158.734 525 187.602 475 216.469 c S
675 129.867 m 625 158.734 675 187.602 725 216.469 c S
525 129.867 m 575 158.734 575 101 575 43.262 c S
600 259.77 m 600 202.035 650 230.902 700 259.77 c S
675 129.867 m 625 158.734 625 101 625 43.262 c S
825 129.867 m 775 101 825 72.129 875 43.262 c S
750 -0.039 m 750 57.695 800 28.828 850 -0.039 c S
675 129.867 m 725 101 725 158.734 725 216.469 c S
750 -0.039 m 750 57.695 700 28.828 650 -0.039 c S
825 129.867 m 775 101 775 158.734 775 216.469 c S
675 129.867 m 725 101 675 72.129 625 43.262 c S
300 1299 m 300 1241.266 250 1270.133 200 1299 c S
225 1169.098 m 275 1197.965 225 1226.832 175 1255.699 c S
375 1169.098 m 325 1197.965 375 1226.832 425 1255.699 c S
225 1169.098 m 275 1197.965 275 1140.23 275 1082.492 c S
300 1299 m 300 1241.266 350 1270.133 400 1299 c S
375 1169.098 m 325 1197.965 325 1140.23 325 1082.492 c S
525 1169.098 m 475 1140.23 525 1111.359 575 1082.492 c S
450 1039.191 m 450 1096.926 500 1068.059 550 1039.191 c S
375 1169.098 m 425 1140.23 425 1197.965 425 1255.699 c S
450 1039.191 m 450 1096.926 400 1068.059 350 1039.191 c S
525 1169.098 m 475 1140.23 475 1197.965 475 1255.699 c S
375 1169.098 m 425 1140.23 375 1111.359 325 1082.492 c S
450 1039.191 m 450 981.457 400 1010.324 350 1039.191 c S
375 909.289 m 425 938.156 375 967.023 325 995.891 c S
525 909.289 m 475 938.156 525 967.023 575 995.891 c S
375 909.289 m 425 938.156 425 880.422 425 822.688 c S
450 1039.191 m 450 981.457 500 1010.324 550 1039.191 c S
525 909.289 m 475 938.156 475 880.422 475 822.688 c S
675 909.289 m 625 880.422 675 851.555 725 822.688 c S
600 779.383 m 600 837.121 650 808.254 700 779.383 c S
525 909.289 m 575 880.422 575 938.156 575 995.891 c S
600 779.383 m 600 837.121 550 808.254 500 779.383 c S
675 909.289 m 625 880.422 625 938.156 625 995.891 c S
525 909.289 m 575 880.422 525 851.555 475 822.688 c S
600 779.383 m 600 721.648 550 750.516 500 779.383 c S
525 649.48 m 575 678.348 525 707.215 475 736.082 c S
675 649.48 m 625 678.348 675 707.215 725 736.082 c S
525 649.48 m 575 678.348 575 620.613 575 562.879 c S
600 779.383 m 600 721.648 650 750.516 700 779.383 c S
675 649.48 m 625 678.348 625 620.613 625 562.879 c S
825 649.48 m 775 620.613 825 591.746 875 562.879 c S
750 519.578 m 750 577.312 800 548.445 850 519.578 c S
675 649.48 m 725 620.613 725 678.348 725 736.082 c S
750 519.578 m 750 577.312 700 548.445 650 519.578 c S
825 649.48 m 775 620.613 775 678.348 775 736.082 c S
675 649.48 m 725 620.613 675 591.746 625 562.879 c S
750 519.578 m 750 461.844 700 490.711 650 519.578 c S
675 389.672 m 725 418.539 675 447.41 625 476.277 c S
825 389.672 m 775 418.539 825 447.41 875 476.277 c S
675 389.672 m 725 418.539 725 360.805 725 303.07 c S
750 519.578 m 750 461.844 800 490.711 850 519.578 c S
825 389.672 m 775 418.539 775 360.805 775 303.07 c S
975 389.672 m 925 360.805 975 331.938 1025 303.07 c S
900 259.77 m 900 317.504 950 288.637 1000 259.77 c S
825 389.672 m 875 360.805 875 418.539 875 476.277 c S
900 259.77 m 900 317.504 850 288.637 800 259.77 c S
975 389.672 m 925 360.805 925 418.539 925 476.277 c S
825 389.672 m 875 360.805 825 331.938 775 303.07 c S
900 259.77 m 900 202.035 850 230.902 800 259.77 c S
825 129.867 m 875 158.734 825 187.602 775 216.469 c S
975 129.867 m 925 158.734 975 187.602 1025 216.469 c S
825 129.867 m 875 158.734 875 101 875 43.262 c S
900 259.77 m 900 202.035 950 230.902 1000 259.77 c S
975 129.867 m 925 158.734 925 101 925 43.262 c S
1125 129.867 m 1075 101 1125 72.129 1175 43.262 c S
1050 -0.039 m 1050 57.695 1100 28.828 1150 -0.039 c S
975 129.867 m 1025 101 1025 158.734 1025 216.469 c S
1050 -0.039 m 1050 57.695 1000 28.828 950 -0.039 c S
1125 129.867 m 1075 101 1075 158.734 1075 216.469 c S
975 129.867 m 1025 101 975 72.129 925 43.262 c S
600 1299 m 600 1241.266 550 1270.133 500 1299 c S
525 1169.098 m 575 1197.965 525 1226.832 475 1255.699 c S
675 1169.098 m 625 1197.965 675 1226.832 725 1255.699 c S
525 1169.098 m 575 1197.965 575 1140.23 575 1082.492 c S
600 1299 m 600 1241.266 650 1270.133 700 1299 c S
675 1169.098 m 625 1197.965 625 1140.23 625 1082.492 c S
825 1169.098 m 775 1140.23 825 1111.359 875 1082.492 c S
750 1039.191 m 750 1096.926 800 1068.059 850 1039.191 c S
675 1169.098 m 725 1140.23 725 1197.965 725 1255.699 c S
750 1039.191 m 750 1096.926 700 1068.059 650 1039.191 c S
825 1169.098 m 775 1140.23 775 1197.965 775 1255.699 c S
675 1169.098 m 725 1140.23 675 1111.359 625 1082.492 c S
750 1039.191 m 750 981.457 700 1010.324 650 1039.191 c S
675 909.289 m 725 938.156 675 967.023 625 995.891 c S
825 909.289 m 775 938.156 825 967.023 875 995.891 c S
675 909.289 m 725 938.156 725 880.422 725 822.688 c S
750 1039.191 m 750 981.457 800 1010.324 850 1039.191 c S
825 909.289 m 775 938.156 775 880.422 775 822.688 c S
975 909.289 m 925 880.422 975 851.555 1025 822.688 c S
900 779.383 m 900 837.121 950 808.254 1000 779.383 c S
825 909.289 m 875 880.422 875 938.156 875 995.891 c S
900 779.383 m 900 837.121 850 808.254 800 779.383 c S
975 909.289 m 925 880.422 925 938.156 925 995.891 c S
825 909.289 m 875 880.422 825 851.555 775 822.688 c S
900 779.383 m 900 721.648 850 750.516 800 779.383 c S
825 649.48 m 875 678.348 825 707.215 775 736.082 c S
975 649.48 m 925 678.348 975 707.215 1025 736.082 c S
825 649.48 m 875 678.348 875 620.613 875 562.879 c S
900 779.383 m 900 721.648 950 750.516 1000 779.383 c S
975 649.48 m 925 678.348 925 620.613 925 562.879 c S
1125 649.48 m 1075 620.613 1125 591.746 1175 562.879 c S
1050 519.578 m 1050 577.312 1100 548.445 1150 519.578 c S
975 649.48 m 1025 620.613 1025 678.348 1025 736.082 c S
1050 519.578 m 1050 577.312 1000 548.445 950 519.578 c S
1125 649.48 m 1075 620.613 1075 678.348 1075 736.082 c S
975 649.48 m 1025 620.613 975 591.746 925 562.879 c S
1050 519.578 m 1050 461.844 1000 490.711 950 519.578 c S
975 389.672 m 1025 418.539 975 447.41 925 476.277 c S
1125 389.672 m 1075 418.539 1125 447.41 1175 476.277 c S
975 389.672 m 1025 418.539 1025 360.805 1025 303.07 c S
1050 519.578 m 1050 461.844 1100 490.711 1150 519.578 c S
1125 389.672 m 1075 418.539 1075 360.805 1075 303.07 c S
1275 389.672 m 1225 360.805 1275 331.938 1325 303.07 c S
1200 259.77 m 1200 317.504 1250 288.637 1300 259.77 c S
1125 389.672 m 1175 360.805 1175 418.539 1175 476.277 c S
1200 259.77 m 1200 317.504 1150 288.637 1100 259.77 c S
1275 389.672 m 1225 360.805 1225 418.539 1225 476.277 c S
1125 389.672 m 1175 360.805 1125 331.938 1075 303.07 c S
1200 259.77 m 1200 202.035 1150 230.902 1100 259.77 c S
1125 129.867 m 1175 158.734 1125 187.602 1075 216.469 c S
1275 129.867 m 1225 158.734 1275 187.602 1325 216.469 c S
1125 129.867 m 1175 158.734 1175 101 1175 43.262 c S
1200 259.77 m 1200 202.035 1250 230.902 1300 259.77 c S
1275 129.867 m 1225 158.734 1225 101 1225 43.262 c S
1350 -0.039 m 1350 57.695 1400 28.828 1450 -0.039 c S
1275 129.867 m 1325 101 1325 158.734 1325 216.469 c S
1350 -0.039 m 1350 57.695 1300 28.828 1250 -0.039 c S
1275 129.867 m 1325 101 1275 72.129 1225 43.262 c S
900 1299 m 900 1241.266 850 1270.133 800 1299 c S
825 1169.098 m 875 1197.965 825 1226.832 775 1255.699 c S
975 1169.098 m 925 1197.965 975 1226.832 1025 1255.699 c S
825 1169.098 m 875 1197.965 875 1140.23 875 1082.492 c S
900 1299 m 900 1241.266 950 1270.133 1000 1299 c S
975 1169.098 m 925 1197.965 925 1140.23 925 1082.492 c S
1125 1169.098 m 1075 1140.23 1125 1111.359 1175 1082.492 c S
1050 1039.191 m 1050 1096.926 1100 1068.059 1150 1039.191 c S
975 1169.098 m 1025 1140.23 1025 1197.965 1025 1255.699 c S
1050 1039.191 m 1050 1096.926 1000 1068.059 950 1039.191 c S
1125 1169.098 m 1075 1140.23 1075 1197.965 1075 1255.699 c S
975 1169.098 m 1025 1140.23 975 1111.359 925 1082.492 c S
1050 1039.191 m 1050 981.457 1000 1010.324 950 1039.191 c S
975 909.289 m 1025 938.156 975 967.023 925 995.891 c S
1125 909.289 m 1075 938.156 1125 967.023 1175 995.891 c S
975 909.289 m 1025 938.156 1025 880.422 1025 822.688 c S
1050 1039.191 m 1050 981.457 1100 1010.324 1150 1039.191 c S
1125 909.289 m 1075 938.156 1075 880.422 1075 822.688 c S
1275 909.289 m 1225 880.422 1275 851.555 1325 822.688 c S
1200 779.383 m 1200 837.121 1250 808.254 1300 779.383 c S
1125 909.289 m 1175 880.422 1175 938.156 1175 995.891 c S
1200 779.383 m 1200 837.121 1150 808.254 1100 779.383 c S
1275 909.289 m 1225 880.422 1225 938.156 1225 995.891 c S
1125 909.289 m 1175 880.422 1125 851.555 1075 822.688 c S
1200 779.383 m 1200 721.648 1150 750.516 1100 779.383 c S
1125 649.48 m 1175 678.348 1125 707.215 1075 736.082 c S
1275 649.48 m 1225 678.348 1275 707.215 1325 736.082 c S
1125 649.48 m 1175 678.348 1175 620.613 1175 562.879 c S
1200 779.383 m 1200 721.648 1250 750.516 1300 779.383 c S
1275 649.48 m 1225 678.348 1225 620.613 1225 562.879 c S
1350 519.578 m 1350 577.312 1400 548.445 1450 519.578 c S
1275 649.48 m 1325 620.613 1325 678.348 1325 736.082 c S
1350 519.578 m 1350 577.312 1300 548.445 1250 519.578 c S
1275 649.48 m 1325 620.613 1275 591.746 1225 562.879 c S
1350 519.578 m 1350 461.844 1300 490.711 1250 519.578 c S
1275 389.672 m 1325 418.539 1275 447.41 1225 476.277 c S
1275 389.672 m 1325 418.539 1325 360.805 1325 303.07 c S
1350 519.578 m 1350 461.844 1400 490.711 1450 519.578 c S
1200 1299 m 1200 1241.266 1150 1270.133 1100 1299 c S
1125 1169.098 m 1175 1197.965 1125 1226.832 1075 1255.699 c S
1275 1169.098 m 1225 1197.965 1275 1226.832 1325 1255.699 c S
1125 1169.098 m 1175 1197.965 1175 1140.23 1175 1082.492 c S
1200 1299 m 1200 1241.266 1250 1270.133 1300 1299 c S
1275 1169.098 m 1225 1197.965 1225 1140.23 1225 1082.492 c S
1350 1039.191 m 1350 1096.926 1400 1068.059 1450 1039.191 c S
1275 1169.098 m 1325 1140.23 1325 1197.965 1325 1255.699 c S
1350 1039.191 m 1350 1096.926 1300 1068.059 1250 1039.191 c S
1275 1169.098 m 1325 1140.23 1275 1111.359 1225 1082.492 c S
1350 1039.191 m 1350 981.457 1300 1010.324 1250 1039.191 c S
1275 909.289 m 1325 938.156 1275 967.023 1225 995.891 c S
1275 909.289 m 1325 938.156 1325 880.422 1325 822.688 c S
1350 1039.191 m 1350 981.457 1400 1010.324 1450 1039.191 c S
Q Q
showpage
%%Trailer
%%Trailer
cleartomark
countdictstack
exch sub { end } repeat
restore
%%EOF
