<svg xmlns="http://www.w3.org/2000/svg" baseProfile="full" width="1350" height="1299.038" viewBox="525.0000000000001 -129.9038105676658 1350.0 1299.0381056766582">
    <title>
        Pattern design from http://ornamentist.org
    </title>
    <desc>
        This file is licensed under a Creative Commons CC BY 4.0 license: http://creativecommons.org/licenses/by/4.0/
    </desc>
    <defs>
        <style>
<![CDATA[
        
polyline {
  fill:            none;
  stroke:          black;
  stroke-linecap:  round;
  stroke-linejoin: round;
  stroke-width:    2.0pt;
}


polyline.closed {
  fill:      #d9d9d9;
  fill-rule: evenodd;
}


polygon {
  fill:            #d9d9d9;
  fill-rule:       evenodd;
  stroke:          black;
  stroke-linejoin: round;
  stroke-width:    2.0pt;
}


circle {
  fill:         #d9d9d9;
  stroke:       black;
  stroke-width: 2.0pt;
}


ellipse {
  fill:         #d9d9d9;
  stroke:       black;
  stroke-width: 2.0pt;
}


path {
  fill:            none;
  stroke:          black;
  stroke-linecap:  round;
  stroke-linejoin: round;
  stroke-width:    2.0pt;
}


path.closed {
  fill:      #d9d9d9;
  fill-rule: evenodd;
}


polygon.background,
path.background
{
  fill:   #fbfbfb;
  stroke: #c9c9c9;
  stroke-width: 1.5pt;
}

        ]]>
        </style>
    </defs>
    <clipPath id="design">
        <path d="M525-129.904h1350v1299.038H525z"/>
    </clipPath>
    <g clip-path="url(#design)" color-rendering="optimizeQuality" shape-rendering="geometricPrecision" id="graphics">
        <path class="background closed" d="M1875-129.904v1299.038H525V-129.904z"/>
        <path d="M-75-101.036l-50-28.868h-100l50 28.868" class="polyline-4-1 open"/>
        <path d="M-125-14.434L-175-43.3l-50-86.604 50 28.868M-25-14.434L25-43.3l50-86.604-50 28.868M-125-14.434V43.3l50 86.604V72.17" class="polyline-4-1 open"/>
        <path d="M-75-101.036l50-28.868H75l-50 28.868M-25-14.434V43.3l-50 86.604V72.17M125 14.434L175 43.3l50 86.604-50-28.868" class="polyline-4-1 open"/>
        <path d="M75 101.036l50 28.868h100l-50-28.868M25 14.434V-43.3l50-86.604v57.735M75 101.036l-50 28.868H-75l50-28.868M125 14.434V-43.3l-50-86.604v57.735" class="polyline-4-1 open"/>
        <path d="M25 14.434L-25 43.3l-50 86.604 50-28.868M75 158.77l-50-28.866H-75l50 28.867" class="polyline-4-1 open"/>
        <path d="M25 245.374l-50-28.868-50-86.602 50 28.867M125 245.374l50-28.868 50-86.602-50 28.867M25 245.374v57.735l50 86.6v-57.734" class="polyline-4-1 open"/>
        <path d="M75 158.77l50-28.866h100l-50 28.867M125 245.374v57.735l-50 86.6v-57.734M275 274.24l50 28.87 50 86.6-50-28.866M225 360.844l50 28.867h100l-50-28.866M175 274.24v-57.734l50-86.602v57.735M225 360.844l-50 28.867H75l50-28.866M275 274.24v-57.734l-50-86.602v57.735M175 274.24l-50 28.87-50 86.6 50-28.866" class="polyline-4-1 open"/>
        <path d="M225 418.58l-50-28.87H75l50 28.87M175 505.18l-50-28.866-50-86.603 50 28.87M275 505.18l50-28.866 50-86.603-50 28.87M175 505.18v57.737l50 86.602v-57.736M225 418.58l50-28.87h100l-50 28.87M275 505.18v57.737l-50 86.602v-57.736M425 534.05l50 28.867 50 86.602-50-28.868M375 620.652l50 28.867h100l-50-28.868" class="polyline-4-1 open"/>
        <path d="M325 534.05v-57.736l50-86.603v57.736M375 620.652l-50 28.867H225l50-28.868M425 534.05v-57.736l-50-86.603v57.736M325 534.05l-50 28.867-50 86.602 50-28.868" class="polyline-4-1 open"/>
        <path d="M375 678.387l-50-28.868H225l50 28.867M325 764.99l-50-28.868-50-86.603 50 28.867M425 764.99l50-28.868 50-86.603-50 28.867M325 764.99v57.734l50 86.603v-57.735M375 678.387l50-28.868h100l-50 28.867M425 764.99v57.734l-50 86.603v-57.735M575 793.857l50 28.867 50 86.603-50-28.868M525 880.46l50 28.867h100l-50-28.868" class="polyline-4-1 open"/>
        <path d="M475 793.857v-57.735l50-86.603v57.734M525 880.46l-50 28.867H375l50-28.868M575 793.857v-57.735l-50-86.603v57.734M475 793.857l-50 28.867-50 86.603 50-28.868M525 938.194l-50-28.867H375l50 28.867" class="polyline-4-1 open"/>
        <path d="M475 1024.797l-50-28.868-50-86.603 50 28.867M575 1024.797l50-28.868 50-86.603-50 28.867M475 1024.797v57.735l50 86.602V1111.4" class="polyline-4-1 open"/>
        <path d="M525 938.194l50-28.867h100l-50 28.867M575 1024.797v57.735l-50 86.602V1111.4M725 1053.664l50 28.868 50 86.602-50-28.867" class="polyline-4-1 open"/>
        <path d="M675 1140.267l50 28.867h100l-50-28.867M625 1053.664V995.93l50-86.603v57.735M675 1140.267l-50 28.867H525l50-28.867M725 1053.664V995.93l-50-86.603v57.735" class="polyline-4-1 open"/>
        <path d="M625 1053.664l-50 28.868-50 86.602 50-28.867M225-101.036l-50-28.868H75l50 28.868" class="polyline-4-1 open"/>
        <path d="M175-14.434L125-43.3l-50-86.604 50 28.868M275-14.434L325-43.3l50-86.604-50 28.868M175-14.434V43.3l50 86.604V72.17" class="polyline-4-1 open"/>
        <path d="M225-101.036l50-28.868h100l-50 28.868M275-14.434V43.3l-50 86.604V72.17M425 14.434L475 43.3l50 86.604-50-28.868" class="polyline-4-1 open"/>
        <path d="M375 101.036l50 28.868h100l-50-28.868M325 14.434V-43.3l50-86.604v57.735M375 101.036l-50 28.868H225l50-28.868M425 14.434V-43.3l-50-86.604v57.735" class="polyline-4-1 open"/>
        <path d="M325 14.434L275 43.3l-50 86.604 50-28.868M375 158.77l-50-28.866H225l50 28.867" class="polyline-4-1 open"/>
        <path d="M325 245.374l-50-28.868-50-86.602 50 28.867M425 245.374l50-28.868 50-86.602-50 28.867M325 245.374v57.735l50 86.6v-57.734" class="polyline-4-1 open"/>
        <path d="M375 158.77l50-28.866h100l-50 28.867M425 245.374v57.735l-50 86.6v-57.734M575 274.24l50 28.87 50 86.6-50-28.866M525 360.844l50 28.867h100l-50-28.866M475 274.24v-57.734l50-86.602v57.735M525 360.844l-50 28.867H375l50-28.866M575 274.24v-57.734l-50-86.602v57.735M475 274.24l-50 28.87-50 86.6 50-28.866" class="polyline-4-1 open"/>
        <path d="M525 418.58l-50-28.87H375l50 28.87M475 505.18l-50-28.866-50-86.603 50 28.87M575 505.18l50-28.866 50-86.603-50 28.87M475 505.18v57.737l50 86.602v-57.736M525 418.58l50-28.87h100l-50 28.87M575 505.18v57.737l-50 86.602v-57.736M725 534.05l50 28.867 50 86.602-50-28.868M675 620.652l50 28.867h100l-50-28.868" class="polyline-4-1 open"/>
        <path d="M625 534.05v-57.736l50-86.603v57.736M675 620.652l-50 28.867H525l50-28.868M725 534.05v-57.736l-50-86.603v57.736M625 534.05l-50 28.867-50 86.602 50-28.868" class="polyline-4-1 open"/>
        <path d="M675 678.387l-50-28.868H525l50 28.867M625 764.99l-50-28.868-50-86.603 50 28.867M725 764.99l50-28.868 50-86.603-50 28.867M625 764.99v57.734l50 86.603v-57.735M675 678.387l50-28.868h100l-50 28.867M725 764.99v57.734l-50 86.603v-57.735M875 793.857l50 28.867 50 86.603-50-28.868M825 880.46l50 28.867h100l-50-28.868" class="polyline-4-1 open"/>
        <path d="M775 793.857v-57.735l50-86.603v57.734M825 880.46l-50 28.867H675l50-28.868M875 793.857v-57.735l-50-86.603v57.734M775 793.857l-50 28.867-50 86.603 50-28.868M825 938.194l-50-28.867H675l50 28.867" class="polyline-4-1 open"/>
        <path d="M775 1024.797l-50-28.868-50-86.603 50 28.867M875 1024.797l50-28.868 50-86.603-50 28.867M775 1024.797v57.735l50 86.602V1111.4" class="polyline-4-1 open"/>
        <path d="M825 938.194l50-28.867h100l-50 28.867M875 1024.797v57.735l-50 86.602V1111.4M1025 1053.664l50 28.868 50 86.602-50-28.867" class="polyline-4-1 open"/>
        <path d="M975 1140.267l50 28.867h100l-50-28.867M925 1053.664V995.93l50-86.603v57.735M975 1140.267l-50 28.867H825l50-28.867M1025 1053.664V995.93l-50-86.603v57.735" class="polyline-4-1 open"/>
        <path d="M925 1053.664l-50 28.868-50 86.602 50-28.867M525-101.036l-50-28.868H375l50 28.868" class="polyline-4-1 open"/>
        <path d="M475-14.434L425-43.3l-50-86.604 50 28.868M575-14.434L625-43.3l50-86.604-50 28.868M475-14.434V43.3l50 86.604V72.17" class="polyline-4-1 open"/>
        <path d="M525-101.036l50-28.868h100l-50 28.868M575-14.434V43.3l-50 86.604V72.17M725 14.434L775 43.3l50 86.604-50-28.868" class="polyline-4-1 open"/>
        <path d="M675 101.036l50 28.868h100l-50-28.868M625 14.434V-43.3l50-86.604v57.735M675 101.036l-50 28.868H525l50-28.868M725 14.434V-43.3l-50-86.604v57.735" class="polyline-4-1 open"/>
        <path d="M625 14.434L575 43.3l-50 86.604 50-28.868M675 158.77l-50-28.866H525l50 28.867" class="polyline-4-1 open"/>
        <path d="M625 245.374l-50-28.868-50-86.602 50 28.867M725 245.374l50-28.868 50-86.602-50 28.867M625 245.374v57.735l50 86.6v-57.734" class="polyline-4-1 open"/>
        <path d="M675 158.77l50-28.866h100l-50 28.867M725 245.374v57.735l-50 86.6v-57.734M875 274.24l50 28.87 50 86.6-50-28.866M825 360.844l50 28.867h100l-50-28.866M775 274.24v-57.734l50-86.602v57.735M825 360.844l-50 28.867H675l50-28.866M875 274.24v-57.734l-50-86.602v57.735M775 274.24l-50 28.87-50 86.6 50-28.866" class="polyline-4-1 open"/>
        <path d="M825 418.58l-50-28.87H675l50 28.87M775 505.18l-50-28.866-50-86.603 50 28.87M875 505.18l50-28.866 50-86.603-50 28.87M775 505.18v57.737l50 86.602v-57.736M825 418.58l50-28.87h100l-50 28.87M875 505.18v57.737l-50 86.602v-57.736M1025 534.05l50 28.867 50 86.602-50-28.868M975 620.652l50 28.867h100l-50-28.868" class="polyline-4-1 open"/>
        <path d="M925 534.05v-57.736l50-86.603v57.736M975 620.652l-50 28.867H825l50-28.868M1025 534.05v-57.736l-50-86.603v57.736M925 534.05l-50 28.867-50 86.602 50-28.868" class="polyline-4-1 open"/>
        <path d="M975 678.387l-50-28.868H825l50 28.867M925 764.99l-50-28.868-50-86.603 50 28.867M1025 764.99l50-28.868 50-86.603-50 28.867M925 764.99v57.734l50 86.603v-57.735M975 678.387l50-28.868h100l-50 28.867M1025 764.99v57.734l-50 86.603v-57.735M1175 793.857l50 28.867 50 86.603-50-28.868M1125 880.46l50 28.867h100l-50-28.868" class="polyline-4-1 open"/>
        <path d="M1075 793.857v-57.735l50-86.603v57.734M1125 880.46l-50 28.867H975l50-28.868M1175 793.857v-57.735l-50-86.603v57.734M1075 793.857l-50 28.867-50 86.603 50-28.868M1125 938.194l-50-28.867H975l50 28.867" class="polyline-4-1 open"/>
        <path d="M1075 1024.797l-50-28.868-50-86.603 50 28.867M1175 1024.797l50-28.868 50-86.603-50 28.867M1075 1024.797v57.735l50 86.602V1111.4" class="polyline-4-1 open"/>
        <path d="M1125 938.194l50-28.867h100l-50 28.867M1175 1024.797v57.735l-50 86.602V1111.4M1325 1053.664l50 28.868 50 86.602-50-28.867" class="polyline-4-1 open"/>
        <path d="M1275 1140.267l50 28.867h100l-50-28.867M1225 1053.664V995.93l50-86.603v57.735M1275 1140.267l-50 28.867h-100l50-28.867M1325 1053.664V995.93l-50-86.603v57.735" class="polyline-4-1 open"/>
        <path d="M1225 1053.664l-50 28.868-50 86.602 50-28.867M825-101.036l-50-28.868H675l50 28.868" class="polyline-4-1 open"/>
        <path d="M775-14.434L725-43.3l-50-86.604 50 28.868M875-14.434L925-43.3l50-86.604-50 28.868M775-14.434V43.3l50 86.604V72.17" class="polyline-4-1 open"/>
        <path d="M825-101.036l50-28.868h100l-50 28.868M875-14.434V43.3l-50 86.604V72.17M1025 14.434l50 28.867 50 86.604-50-28.868" class="polyline-4-1 open"/>
        <path d="M975 101.036l50 28.868h100l-50-28.868M925 14.434V-43.3l50-86.604v57.735M975 101.036l-50 28.868H825l50-28.868M1025 14.434V-43.3l-50-86.604v57.735" class="polyline-4-1 open"/>
        <path d="M925 14.434L875 43.3l-50 86.604 50-28.868M975 158.77l-50-28.866H825l50 28.867" class="polyline-4-1 open"/>
        <path d="M925 245.374l-50-28.868-50-86.602 50 28.867M1025 245.374l50-28.868 50-86.602-50 28.867M925 245.374v57.735l50 86.6v-57.734" class="polyline-4-1 open"/>
        <path d="M975 158.77l50-28.866h100l-50 28.867M1025 245.374v57.735l-50 86.6v-57.734M1175 274.24l50 28.87 50 86.6-50-28.866M1125 360.844l50 28.867h100l-50-28.866M1075 274.24v-57.734l50-86.602v57.735M1125 360.844l-50 28.867H975l50-28.866M1175 274.24v-57.734l-50-86.602v57.735M1075 274.24l-50 28.87-50 86.6 50-28.866" class="polyline-4-1 open"/>
        <path d="M1125 418.58l-50-28.87H975l50 28.87M1075 505.18l-50-28.866-50-86.603 50 28.87M1175 505.18l50-28.866 50-86.603-50 28.87M1075 505.18v57.737l50 86.602v-57.736M1125 418.58l50-28.87h100l-50 28.87M1175 505.18v57.737l-50 86.602v-57.736M1325 534.05l50 28.867 50 86.602-50-28.868M1275 620.652l50 28.867h100l-50-28.868" class="polyline-4-1 open"/>
        <path d="M1225 534.05v-57.736l50-86.603v57.736M1275 620.652l-50 28.867h-100l50-28.868M1325 534.05v-57.736l-50-86.603v57.736M1225 534.05l-50 28.867-50 86.602 50-28.868" class="polyline-4-1 open"/>
        <path d="M1275 678.387l-50-28.868h-100l50 28.867M1225 764.99l-50-28.868-50-86.603 50 28.867M1325 764.99l50-28.868 50-86.603-50 28.867M1225 764.99v57.734l50 86.603v-57.735M1275 678.387l50-28.868h100l-50 28.867M1325 764.99v57.734l-50 86.603v-57.735M1475 793.857l50 28.867 50 86.603-50-28.868M1425 880.46l50 28.867h100l-50-28.868" class="polyline-4-1 open"/>
        <path d="M1375 793.857v-57.735l50-86.603v57.734M1425 880.46l-50 28.867h-100l50-28.868M1475 793.857v-57.735l-50-86.603v57.734M1375 793.857l-50 28.867-50 86.603 50-28.868M1425 938.194l-50-28.867h-100l50 28.867" class="polyline-4-1 open"/>
        <path d="M1375 1024.797l-50-28.868-50-86.603 50 28.867M1475 1024.797l50-28.868 50-86.603-50 28.867M1375 1024.797v57.735l50 86.602V1111.4" class="polyline-4-1 open"/>
        <path d="M1425 938.194l50-28.867h100l-50 28.867M1475 1024.797v57.735l-50 86.602V1111.4M1625 1053.664l50 28.868 50 86.602-50-28.867" class="polyline-4-1 open"/>
        <path d="M1575 1140.267l50 28.867h100l-50-28.867M1525 1053.664V995.93l50-86.603v57.735M1575 1140.267l-50 28.867h-100l50-28.867M1625 1053.664V995.93l-50-86.603v57.735" class="polyline-4-1 open"/>
        <path d="M1525 1053.664l-50 28.868-50 86.602 50-28.867M1125-101.036l-50-28.868H975l50 28.868" class="polyline-4-1 open"/>
        <path d="M1075-14.434L1025-43.3l-50-86.604 50 28.868M1175-14.434l50-28.867 50-86.604-50 28.868M1075-14.434V43.3l50 86.604V72.17" class="polyline-4-1 open"/>
        <path d="M1125-101.036l50-28.868h100l-50 28.868M1175-14.434V43.3l-50 86.604V72.17M1325 14.434l50 28.867 50 86.604-50-28.868" class="polyline-4-1 open"/>
        <path d="M1275 101.036l50 28.868h100l-50-28.868M1225 14.434V-43.3l50-86.604v57.735M1275 101.036l-50 28.868h-100l50-28.868M1325 14.434V-43.3l-50-86.604v57.735" class="polyline-4-1 open"/>
        <path d="M1225 14.434L1175 43.3l-50 86.604 50-28.868M1275 158.77l-50-28.866h-100l50 28.867" class="polyline-4-1 open"/>
        <path d="M1225 245.374l-50-28.868-50-86.602 50 28.867M1325 245.374l50-28.868 50-86.602-50 28.867M1225 245.374v57.735l50 86.6v-57.734" class="polyline-4-1 open"/>
        <path d="M1275 158.77l50-28.866h100l-50 28.867M1325 245.374v57.735l-50 86.6v-57.734M1475 274.24l50 28.87 50 86.6-50-28.866M1425 360.844l50 28.867h100l-50-28.866M1375 274.24v-57.734l50-86.602v57.735M1425 360.844l-50 28.867h-100l50-28.866M1475 274.24v-57.734l-50-86.602v57.735M1375 274.24l-50 28.87-50 86.6 50-28.866" class="polyline-4-1 open"/>
        <path d="M1425 418.58l-50-28.87h-100l50 28.87M1375 505.18l-50-28.866-50-86.603 50 28.87M1475 505.18l50-28.866 50-86.603-50 28.87M1375 505.18v57.737l50 86.602v-57.736M1425 418.58l50-28.87h100l-50 28.87M1475 505.18v57.737l-50 86.602v-57.736M1625 534.05l50 28.867 50 86.602-50-28.868M1575 620.652l50 28.867h100l-50-28.868" class="polyline-4-1 open"/>
        <path d="M1525 534.05v-57.736l50-86.603v57.736M1575 620.652l-50 28.867h-100l50-28.868M1625 534.05v-57.736l-50-86.603v57.736M1525 534.05l-50 28.867-50 86.602 50-28.868" class="polyline-4-1 open"/>
        <path d="M1575 678.387l-50-28.868h-100l50 28.867M1525 764.99l-50-28.868-50-86.603 50 28.867M1625 764.99l50-28.868 50-86.603-50 28.867M1525 764.99v57.734l50 86.603v-57.735M1575 678.387l50-28.868h100l-50 28.867M1625 764.99v57.734l-50 86.603v-57.735M1775 793.857l50 28.867 50 86.603-50-28.868M1725 880.46l50 28.867h100l-50-28.868" class="polyline-4-1 open"/>
        <path d="M1675 793.857v-57.735l50-86.603v57.734M1725 880.46l-50 28.867h-100l50-28.868M1775 793.857v-57.735l-50-86.603v57.734M1675 793.857l-50 28.867-50 86.603 50-28.868M1725 938.194l-50-28.867h-100l50 28.867" class="polyline-4-1 open"/>
        <path d="M1675 1024.797l-50-28.868-50-86.603 50 28.867M1775 1024.797l50-28.868 50-86.603-50 28.867M1675 1024.797v57.735l50 86.602V1111.4" class="polyline-4-1 open"/>
        <path d="M1725 938.194l50-28.867h100l-50 28.867M1775 1024.797v57.735l-50 86.602V1111.4M1925 1053.664l50 28.868 50 86.602-50-28.867" class="polyline-4-1 open"/>
        <path d="M1875 1140.267l50 28.867h100l-50-28.867M1825 1053.664V995.93l50-86.603v57.735M1875 1140.267l-50 28.867h-100l50-28.867M1925 1053.664V995.93l-50-86.603v57.735" class="polyline-4-1 open"/>
        <path d="M1825 1053.664l-50 28.868-50 86.602 50-28.867M1425-101.036l-50-28.868h-100l50 28.868" class="polyline-4-1 open"/>
        <path d="M1375-14.434L1325-43.3l-50-86.604 50 28.868M1475-14.434l50-28.867 50-86.604-50 28.868M1375-14.434V43.3l50 86.604V72.17" class="polyline-4-1 open"/>
        <path d="M1425-101.036l50-28.868h100l-50 28.868M1475-14.434V43.3l-50 86.604V72.17M1625 14.434l50 28.867 50 86.604-50-28.868" class="polyline-4-1 open"/>
        <path d="M1575 101.036l50 28.868h100l-50-28.868M1525 14.434V-43.3l50-86.604v57.735M1575 101.036l-50 28.868h-100l50-28.868M1625 14.434V-43.3l-50-86.604v57.735" class="polyline-4-1 open"/>
        <path d="M1525 14.434L1475 43.3l-50 86.604 50-28.868M1575 158.77l-50-28.866h-100l50 28.867" class="polyline-4-1 open"/>
        <path d="M1525 245.374l-50-28.868-50-86.602 50 28.867M1625 245.374l50-28.868 50-86.602-50 28.867M1525 245.374v57.735l50 86.6v-57.734" class="polyline-4-1 open"/>
        <path d="M1575 158.77l50-28.866h100l-50 28.867M1625 245.374v57.735l-50 86.6v-57.734M1775 274.24l50 28.87 50 86.6-50-28.866M1725 360.844l50 28.867h100l-50-28.866M1675 274.24v-57.734l50-86.602v57.735M1725 360.844l-50 28.867h-100l50-28.866M1775 274.24v-57.734l-50-86.602v57.735M1675 274.24l-50 28.87-50 86.6 50-28.866" class="polyline-4-1 open"/>
        <path d="M1725 418.58l-50-28.87h-100l50 28.87M1675 505.18l-50-28.866-50-86.603 50 28.87M1775 505.18l50-28.866 50-86.603-50 28.87M1675 505.18v57.737l50 86.602v-57.736M1725 418.58l50-28.87h100l-50 28.87M1775 505.18v57.737l-50 86.602v-57.736M1925 534.05l50 28.867 50 86.602-50-28.868M1875 620.652l50 28.867h100l-50-28.868" class="polyline-4-1 open"/>
        <path d="M1825 534.05v-57.736l50-86.603v57.736M1875 620.652l-50 28.867h-100l50-28.868M1925 534.05v-57.736l-50-86.603v57.736M1825 534.05l-50 28.867-50 86.602 50-28.868" class="polyline-4-1 open"/>
        <path d="M1875 678.387l-50-28.868h-100l50 28.867M1825 764.99l-50-28.868-50-86.603 50 28.867M1925 764.99l50-28.868 50-86.603-50 28.867M1825 764.99v57.734l50 86.603v-57.735M1875 678.387l50-28.868h100l-50 28.867M1925 764.99v57.734l-50 86.603v-57.735M2075 793.857l50 28.867 50 86.603-50-28.868M2025 880.46l50 28.867h100l-50-28.868" class="polyline-4-1 open"/>
        <path d="M1975 793.857v-57.735l50-86.603v57.734M2025 880.46l-50 28.867h-100l50-28.868M2075 793.857v-57.735l-50-86.603v57.734M1975 793.857l-50 28.867-50 86.603 50-28.868M2025 938.194l-50-28.867h-100l50 28.867" class="polyline-4-1 open"/>
        <path d="M1975 1024.797l-50-28.868-50-86.603 50 28.867M2075 1024.797l50-28.868 50-86.603-50 28.867M1975 1024.797v57.735l50 86.602V1111.4" class="polyline-4-1 open"/>
        <path d="M2025 938.194l50-28.867h100l-50 28.867M2075 1024.797v57.735l-50 86.602V1111.4M2225 1053.664l50 28.868 50 86.602-50-28.867" class="polyline-4-1 open"/>
        <path d="M2175 1140.267l50 28.867h100l-50-28.867M2125 1053.664V995.93l50-86.603v57.735M2175 1140.267l-50 28.867h-100l50-28.867M2225 1053.664V995.93l-50-86.603v57.735" class="polyline-4-1 open"/>
        <path d="M2125 1053.664l-50 28.868-50 86.602 50-28.867M1725-101.036l-50-28.868h-100l50 28.868" class="polyline-4-1 open"/>
        <path d="M1675-14.434L1625-43.3l-50-86.604 50 28.868M1775-14.434l50-28.867 50-86.604-50 28.868M1675-14.434V43.3l50 86.604V72.17" class="polyline-4-1 open"/>
        <path d="M1725-101.036l50-28.868h100l-50 28.868M1775-14.434V43.3l-50 86.604V72.17M1925 14.434l50 28.867 50 86.604-50-28.868" class="polyline-4-1 open"/>
        <path d="M1875 101.036l50 28.868h100l-50-28.868M1825 14.434V-43.3l50-86.604v57.735M1875 101.036l-50 28.868h-100l50-28.868M1925 14.434V-43.3l-50-86.604v57.735" class="polyline-4-1 open"/>
        <path d="M1825 14.434L1775 43.3l-50 86.604 50-28.868M1875 158.77l-50-28.866h-100l50 28.867" class="polyline-4-1 open"/>
        <path d="M1825 245.374l-50-28.868-50-86.602 50 28.867M1925 245.374l50-28.868 50-86.602-50 28.867M1825 245.374v57.735l50 86.6v-57.734" class="polyline-4-1 open"/>
        <path d="M1875 158.77l50-28.866h100l-50 28.867M1925 245.374v57.735l-50 86.6v-57.734M2075 274.24l50 28.87 50 86.6-50-28.866M2025 360.844l50 28.867h100l-50-28.866M1975 274.24v-57.734l50-86.602v57.735M2025 360.844l-50 28.867h-100l50-28.866M2075 274.24v-57.734l-50-86.602v57.735M1975 274.24l-50 28.87-50 86.6 50-28.866" class="polyline-4-1 open"/>
        <path d="M2025 418.58l-50-28.87h-100l50 28.87M1975 505.18l-50-28.866-50-86.603 50 28.87M2075 505.18l50-28.866 50-86.603-50 28.87M1975 505.18v57.737l50 86.602v-57.736M2025 418.58l50-28.87h100l-50 28.87M2075 505.18v57.737l-50 86.602v-57.736M2225 534.05l50 28.867 50 86.602-50-28.868M2175 620.652l50 28.867h100l-50-28.868" class="polyline-4-1 open"/>
        <path d="M2125 534.05v-57.736l50-86.603v57.736M2175 620.652l-50 28.867h-100l50-28.868M2225 534.05v-57.736l-50-86.603v57.736M2125 534.05l-50 28.867-50 86.602 50-28.868" class="polyline-4-1 open"/>
        <path d="M2175 678.387l-50-28.868h-100l50 28.867M2125 764.99l-50-28.868-50-86.603 50 28.867M2225 764.99l50-28.868 50-86.603-50 28.867M2125 764.99v57.734l50 86.603v-57.735M2175 678.387l50-28.868h100l-50 28.867M2225 764.99v57.734l-50 86.603v-57.735M2375 793.857l50 28.867 50 86.603-50-28.868M2325 880.46l50 28.867h100l-50-28.868" class="polyline-4-1 open"/>
        <path d="M2275 793.857v-57.735l50-86.603v57.734M2325 880.46l-50 28.867h-100l50-28.868M2375 793.857v-57.735l-50-86.603v57.734M2275 793.857l-50 28.867-50 86.603 50-28.868M2325 938.194l-50-28.867h-100l50 28.867" class="polyline-4-1 open"/>
        <path d="M2275 1024.797l-50-28.868-50-86.603 50 28.867M2375 1024.797l50-28.868 50-86.603-50 28.867M2275 1024.797v57.735l50 86.602V1111.4" class="polyline-4-1 open"/>
        <path d="M2325 938.194l50-28.867h100l-50 28.867M2375 1024.797v57.735l-50 86.602V1111.4M2525 1053.664l50 28.868 50 86.602-50-28.867" class="polyline-4-1 open"/>
        <path d="M2475 1140.267l50 28.867h100l-50-28.867M2425 1053.664V995.93l50-86.603v57.735M2475 1140.267l-50 28.867h-100l50-28.867M2525 1053.664V995.93l-50-86.603v57.735" class="polyline-4-1 open"/>
        <path d="M2425 1053.664l-50 28.868-50 86.602 50-28.867" class="polyline-4-1 open"/>
    </g>
</svg>
