%!PS-Adobe-2.0 EPSF-2.0
%%BoundingBox: 0 0 1350 1299
%%HiResBoundingBox: 0.000000 0.000000 1350.000000 1299.000000
%%Creator: cairo 1.14.2 (http://cairographics.org)
%%CreationDate: Mon Sep  7 08:21:54 2015
%%DocumentData: Clean7Bit
%%LanguageLevel: 2
%%DocumentMedia: 476x458mm 1350 1299 0 () ()
%%EndComments
% EPSF created by ps2eps 1.68
%%BeginProlog
save
countdictstack
mark
newpath
/showpage {} def
/setpagedevice {pop} def
%%EndProlog
%%Page 1 1
%%BeginProlog
/languagelevel where
{ pop languagelevel } { 1 } ifelse
2 lt { /Helvetica findfont 12 scalefont setfont 50 500 moveto
  (This print job requires a PostScript Language Level 2 printer.) show
  showpage quit } if
/q { gsave } bind def
/Q { grestore } bind def
/cm { 6 array astore concat } bind def
/w { setlinewidth } bind def
/J { setlinecap } bind def
/j { setlinejoin } bind def
/M { setmiterlimit } bind def
/d { setdash } bind def
/m { moveto } bind def
/l { lineto } bind def
/c { curveto } bind def
/h { closepath } bind def
/re { exch dup neg 3 1 roll 5 3 roll moveto 0 rlineto
      0 exch rlineto 0 rlineto closepath } bind def
/S { stroke } bind def
/f { fill } bind def
/f* { eofill } bind def
/n { newpath } bind def
/W { clip } bind def
/W* { eoclip } bind def
/BT { } bind def
/ET { } bind def
/pdfmark where { pop globaldict /?pdfmark /exec load put }
    { globaldict begin /?pdfmark /pop load def /pdfmark
    /cleartomark load def end } ifelse
/BDC { mark 3 1 roll /BDC pdfmark } bind def
/EMC { mark /EMC pdfmark } bind def
/cairo_store_point { /cairo_point_y exch def /cairo_point_x exch def } def
/Tj { show currentpoint cairo_store_point } bind def
/TJ {
  {
    dup
    type /stringtype eq
    { show } { -0.001 mul 0 cairo_font_matrix dtransform rmoveto } ifelse
  } forall
  currentpoint cairo_store_point
} bind def
/cairo_selectfont { cairo_font_matrix aload pop pop pop 0 0 6 array astore
    cairo_font exch selectfont cairo_point_x cairo_point_y moveto } bind def
/Tf { pop /cairo_font exch def /cairo_font_matrix where
      { pop cairo_selectfont } if } bind def
/Td { matrix translate cairo_font_matrix matrix concatmatrix dup
      /cairo_font_matrix exch def dup 4 get exch 5 get cairo_store_point
      /cairo_font where { pop cairo_selectfont } if } bind def
/Tm { 2 copy 8 2 roll 6 array astore /cairo_font_matrix exch def
      cairo_store_point /cairo_font where { pop cairo_selectfont } if } bind def
/g { setgray } bind def
/rg { setrgbcolor } bind def
/d1 { setcachedevice } bind def
/cairo_set_page_size {
  % Change paper size, but only if different from previous paper size otherwise
  % duplex fails. PLRM specifies a tolerance of 5 pts when matching paper size
  % so we use the same when checking if the size changes.
  /setpagedevice where {
    pop currentpagedevice
    /PageSize known {
      2 copy
      currentpagedevice /PageSize get aload pop
      exch 4 1 roll
      sub abs 5 gt
      3 1 roll
      sub abs 5 gt
      or
    } {
      true
    } ifelse
    {
      2 array astore
      2 dict begin
        /PageSize exch def
        /ImagingBBox null def
      currentdict end
      setpagedevice
    } {
      pop pop
    } ifelse
  } {
    pop
  } ifelse
} def
%%EndProlog
%%BeginSetup
%%EndSetup
%%Page: 1 1
%%BeginPageSetup
%%PageMedia: 476x458mm
%%PageBoundingBox: 0 0 1350 1299
1350 1299 cairo_set_page_size
%%EndPageSetup
q 0 0 1350 1299 rectclip q
0.984314 g
0 0 1350 1299 rectfill
0.788235 g
1.875 w
0 J
1 j
[] 0.0 d
4 M 0 1299 1350 -1299.039 re S
0 g
2.5 w
1 J
-100 635.047 m -50 606.18 l 0 519.578 l -50 548.445 l S
-150 548.445 m -100 519.578 l 0 519.578 l -50 548.445 l S
-100 404.105 m -50 432.973 l 0 519.578 l -50 490.711 l S
-150 490.711 m -100 519.578 l 0 519.578 l -50 490.711 l S
50 375.238 m 100 346.371 l 150 259.77 l 100 288.637 l S
0 288.637 m 50 259.77 l 150 259.77 l 100 288.637 l S
-50 375.238 m -50 432.973 l 0 519.578 l 0 461.844 l S
0 288.637 m -50 259.77 l -150 259.77 l -100 288.637 l S
50 375.238 m 50 432.973 l 0 519.578 l 0 461.844 l S
0 230.902 m -50 259.77 l -150 259.77 l -100 230.902 l S
50 144.301 m 100 173.168 l 150 259.77 l 100 230.902 l S
-50 144.301 m -50 86.562 l 0 -0.039 l 0 57.695 l S
0 230.902 m 50 259.77 l 150 259.77 l 100 230.902 l S
50 144.301 m 50 86.562 l 0 -0.039 l 0 57.695 l S
200 115.434 m 250 86.562 l 300 -0.039 l 250 28.828 l S
150 28.828 m 200 -0.039 l 300 -0.039 l 250 28.828 l S
100 115.434 m 100 173.168 l 150 259.77 l 150 202.035 l S
150 28.828 m 100 -0.039 l 0 -0.039 l 50 28.828 l S
200 115.434 m 200 173.168 l 150 259.77 l 150 202.035 l S
100 115.434 m 50 86.562 l 0 -0.039 l 50 28.828 l S
-100 1154.664 m -50 1125.793 l 0 1039.191 l -50 1068.059 l S
-150 1068.059 m -100 1039.191 l 0 1039.191 l -50 1068.059 l S
-100 923.723 m -50 952.59 l 0 1039.191 l -50 1010.324 l S
-150 1010.324 m -100 1039.191 l 0 1039.191 l -50 1010.324 l S
50 894.855 m 100 865.988 l 150 779.383 l 100 808.254 l S
0 808.254 m 50 779.383 l 150 779.383 l 100 808.254 l S
-50 894.855 m -50 952.59 l 0 1039.191 l 0 981.457 l S
0 808.254 m -50 779.383 l -150 779.383 l -100 808.254 l S
50 894.855 m 50 952.59 l 0 1039.191 l 0 981.457 l S
0 750.516 m -50 779.383 l -150 779.383 l -100 750.516 l S
50 663.914 m 100 692.781 l 150 779.383 l 100 750.516 l S
-50 663.914 m -50 606.18 l 0 519.578 l 0 577.312 l S
0 750.516 m 50 779.383 l 150 779.383 l 100 750.516 l S
50 663.914 m 50 606.18 l 0 519.578 l 0 577.312 l S
200 635.047 m 250 606.18 l 300 519.578 l 250 548.445 l S
150 548.445 m 200 519.578 l 300 519.578 l 250 548.445 l S
100 635.047 m 100 692.781 l 150 779.383 l 150 721.648 l S
150 548.445 m 100 519.578 l 0 519.578 l 50 548.445 l S
200 635.047 m 200 692.781 l 150 779.383 l 150 721.648 l S
100 635.047 m 50 606.18 l 0 519.578 l 50 548.445 l S
150 490.711 m 100 519.578 l 0 519.578 l 50 490.711 l S
100 404.105 m 50 432.973 l 0 519.578 l 50 490.711 l S
200 404.105 m 250 432.973 l 300 519.578 l 250 490.711 l S
100 404.105 m 100 346.371 l 150 259.77 l 150 317.504 l S
150 490.711 m 200 519.578 l 300 519.578 l 250 490.711 l S
200 404.105 m 200 346.371 l 150 259.77 l 150 317.504 l S
350 375.238 m 400 346.371 l 450 259.77 l 400 288.637 l S
300 288.637 m 350 259.77 l 450 259.77 l 400 288.637 l S
250 375.238 m 250 432.973 l 300 519.578 l 300 461.844 l S
300 288.637 m 250 259.77 l 150 259.77 l 200 288.637 l S
350 375.238 m 350 432.973 l 300 519.578 l 300 461.844 l S
250 375.238 m 200 346.371 l 150 259.77 l 200 288.637 l S
300 230.902 m 250 259.77 l 150 259.77 l 200 230.902 l S
250 144.301 m 200 173.168 l 150 259.77 l 200 230.902 l S
350 144.301 m 400 173.168 l 450 259.77 l 400 230.902 l S
250 144.301 m 250 86.562 l 300 -0.039 l 300 57.695 l S
300 230.902 m 350 259.77 l 450 259.77 l 400 230.902 l S
350 144.301 m 350 86.562 l 300 -0.039 l 300 57.695 l S
500 115.434 m 550 86.562 l 600 -0.039 l 550 28.828 l S
450 28.828 m 500 -0.039 l 600 -0.039 l 550 28.828 l S
400 115.434 m 400 173.168 l 450 259.77 l 450 202.035 l S
450 28.828 m 400 -0.039 l 300 -0.039 l 350 28.828 l S
500 115.434 m 500 173.168 l 450 259.77 l 450 202.035 l S
400 115.434 m 350 86.562 l 300 -0.039 l 350 28.828 l S
0 1270.133 m -50 1299 l -150 1299 l -100 1270.133 l S
50 1183.531 m 100 1212.398 l 150 1299 l 100 1270.133 l S
-50 1183.531 m -50 1125.793 l 0 1039.191 l 0 1096.926 l S
0 1270.133 m 50 1299 l 150 1299 l 100 1270.133 l S
50 1183.531 m 50 1125.793 l 0 1039.191 l 0 1096.926 l S
200 1154.664 m 250 1125.793 l 300 1039.191 l 250 1068.059 l S
150 1068.059 m 200 1039.191 l 300 1039.191 l 250 1068.059 l S
100 1154.664 m 100 1212.398 l 150 1299 l 150 1241.266 l S
150 1068.059 m 100 1039.191 l 0 1039.191 l 50 1068.059 l S
200 1154.664 m 200 1212.398 l 150 1299 l 150 1241.266 l S
100 1154.664 m 50 1125.793 l 0 1039.191 l 50 1068.059 l S
150 1010.324 m 100 1039.191 l 0 1039.191 l 50 1010.324 l S
100 923.723 m 50 952.59 l 0 1039.191 l 50 1010.324 l S
200 923.723 m 250 952.59 l 300 1039.191 l 250 1010.324 l S
100 923.723 m 100 865.988 l 150 779.383 l 150 837.121 l S
150 1010.324 m 200 1039.191 l 300 1039.191 l 250 1010.324 l S
200 923.723 m 200 865.988 l 150 779.383 l 150 837.121 l S
350 894.855 m 400 865.988 l 450 779.383 l 400 808.254 l S
300 808.254 m 350 779.383 l 450 779.383 l 400 808.254 l S
250 894.855 m 250 952.59 l 300 1039.191 l 300 981.457 l S
300 808.254 m 250 779.383 l 150 779.383 l 200 808.254 l S
350 894.855 m 350 952.59 l 300 1039.191 l 300 981.457 l S
250 894.855 m 200 865.988 l 150 779.383 l 200 808.254 l S
300 750.516 m 250 779.383 l 150 779.383 l 200 750.516 l S
250 663.914 m 200 692.781 l 150 779.383 l 200 750.516 l S
350 663.914 m 400 692.781 l 450 779.383 l 400 750.516 l S
250 663.914 m 250 606.18 l 300 519.578 l 300 577.312 l S
300 750.516 m 350 779.383 l 450 779.383 l 400 750.516 l S
350 663.914 m 350 606.18 l 300 519.578 l 300 577.312 l S
500 635.047 m 550 606.18 l 600 519.578 l 550 548.445 l S
450 548.445 m 500 519.578 l 600 519.578 l 550 548.445 l S
400 635.047 m 400 692.781 l 450 779.383 l 450 721.648 l S
450 548.445 m 400 519.578 l 300 519.578 l 350 548.445 l S
500 635.047 m 500 692.781 l 450 779.383 l 450 721.648 l S
400 635.047 m 350 606.18 l 300 519.578 l 350 548.445 l S
450 490.711 m 400 519.578 l 300 519.578 l 350 490.711 l S
400 404.105 m 350 432.973 l 300 519.578 l 350 490.711 l S
500 404.105 m 550 432.973 l 600 519.578 l 550 490.711 l S
400 404.105 m 400 346.371 l 450 259.77 l 450 317.504 l S
450 490.711 m 500 519.578 l 600 519.578 l 550 490.711 l S
500 404.105 m 500 346.371 l 450 259.77 l 450 317.504 l S
650 375.238 m 700 346.371 l 750 259.77 l 700 288.637 l S
600 288.637 m 650 259.77 l 750 259.77 l 700 288.637 l S
550 375.238 m 550 432.973 l 600 519.578 l 600 461.844 l S
600 288.637 m 550 259.77 l 450 259.77 l 500 288.637 l S
650 375.238 m 650 432.973 l 600 519.578 l 600 461.844 l S
550 375.238 m 500 346.371 l 450 259.77 l 500 288.637 l S
600 230.902 m 550 259.77 l 450 259.77 l 500 230.902 l S
550 144.301 m 500 173.168 l 450 259.77 l 500 230.902 l S
650 144.301 m 700 173.168 l 750 259.77 l 700 230.902 l S
550 144.301 m 550 86.562 l 600 -0.039 l 600 57.695 l S
600 230.902 m 650 259.77 l 750 259.77 l 700 230.902 l S
650 144.301 m 650 86.562 l 600 -0.039 l 600 57.695 l S
800 115.434 m 850 86.562 l 900 -0.039 l 850 28.828 l S
750 28.828 m 800 -0.039 l 900 -0.039 l 850 28.828 l S
700 115.434 m 700 173.168 l 750 259.77 l 750 202.035 l S
750 28.828 m 700 -0.039 l 600 -0.039 l 650 28.828 l S
800 115.434 m 800 173.168 l 750 259.77 l 750 202.035 l S
700 115.434 m 650 86.562 l 600 -0.039 l 650 28.828 l S
300 1270.133 m 250 1299 l 150 1299 l 200 1270.133 l S
250 1183.531 m 200 1212.398 l 150 1299 l 200 1270.133 l S
350 1183.531 m 400 1212.398 l 450 1299 l 400 1270.133 l S
250 1183.531 m 250 1125.793 l 300 1039.191 l 300 1096.926 l S
300 1270.133 m 350 1299 l 450 1299 l 400 1270.133 l S
350 1183.531 m 350 1125.793 l 300 1039.191 l 300 1096.926 l S
500 1154.664 m 550 1125.793 l 600 1039.191 l 550 1068.059 l S
450 1068.059 m 500 1039.191 l 600 1039.191 l 550 1068.059 l S
400 1154.664 m 400 1212.398 l 450 1299 l 450 1241.266 l S
450 1068.059 m 400 1039.191 l 300 1039.191 l 350 1068.059 l S
500 1154.664 m 500 1212.398 l 450 1299 l 450 1241.266 l S
400 1154.664 m 350 1125.793 l 300 1039.191 l 350 1068.059 l S
450 1010.324 m 400 1039.191 l 300 1039.191 l 350 1010.324 l S
400 923.723 m 350 952.59 l 300 1039.191 l 350 1010.324 l S
500 923.723 m 550 952.59 l 600 1039.191 l 550 1010.324 l S
400 923.723 m 400 865.988 l 450 779.383 l 450 837.121 l S
450 1010.324 m 500 1039.191 l 600 1039.191 l 550 1010.324 l S
500 923.723 m 500 865.988 l 450 779.383 l 450 837.121 l S
650 894.855 m 700 865.988 l 750 779.383 l 700 808.254 l S
600 808.254 m 650 779.383 l 750 779.383 l 700 808.254 l S
550 894.855 m 550 952.59 l 600 1039.191 l 600 981.457 l S
600 808.254 m 550 779.383 l 450 779.383 l 500 808.254 l S
650 894.855 m 650 952.59 l 600 1039.191 l 600 981.457 l S
550 894.855 m 500 865.988 l 450 779.383 l 500 808.254 l S
600 750.516 m 550 779.383 l 450 779.383 l 500 750.516 l S
550 663.914 m 500 692.781 l 450 779.383 l 500 750.516 l S
650 663.914 m 700 692.781 l 750 779.383 l 700 750.516 l S
550 663.914 m 550 606.18 l 600 519.578 l 600 577.312 l S
600 750.516 m 650 779.383 l 750 779.383 l 700 750.516 l S
650 663.914 m 650 606.18 l 600 519.578 l 600 577.312 l S
800 635.047 m 850 606.18 l 900 519.578 l 850 548.445 l S
750 548.445 m 800 519.578 l 900 519.578 l 850 548.445 l S
700 635.047 m 700 692.781 l 750 779.383 l 750 721.648 l S
750 548.445 m 700 519.578 l 600 519.578 l 650 548.445 l S
800 635.047 m 800 692.781 l 750 779.383 l 750 721.648 l S
700 635.047 m 650 606.18 l 600 519.578 l 650 548.445 l S
750 490.711 m 700 519.578 l 600 519.578 l 650 490.711 l S
700 404.105 m 650 432.973 l 600 519.578 l 650 490.711 l S
800 404.105 m 850 432.973 l 900 519.578 l 850 490.711 l S
700 404.105 m 700 346.371 l 750 259.77 l 750 317.504 l S
750 490.711 m 800 519.578 l 900 519.578 l 850 490.711 l S
800 404.105 m 800 346.371 l 750 259.77 l 750 317.504 l S
950 375.238 m 1000 346.371 l 1050 259.77 l 1000 288.637 l S
900 288.637 m 950 259.77 l 1050 259.77 l 1000 288.637 l S
850 375.238 m 850 432.973 l 900 519.578 l 900 461.844 l S
900 288.637 m 850 259.77 l 750 259.77 l 800 288.637 l S
950 375.238 m 950 432.973 l 900 519.578 l 900 461.844 l S
850 375.238 m 800 346.371 l 750 259.77 l 800 288.637 l S
900 230.902 m 850 259.77 l 750 259.77 l 800 230.902 l S
850 144.301 m 800 173.168 l 750 259.77 l 800 230.902 l S
950 144.301 m 1000 173.168 l 1050 259.77 l 1000 230.902 l S
850 144.301 m 850 86.562 l 900 -0.039 l 900 57.695 l S
900 230.902 m 950 259.77 l 1050 259.77 l 1000 230.902 l S
950 144.301 m 950 86.562 l 900 -0.039 l 900 57.695 l S
1100 115.434 m 1150 86.562 l 1200 -0.039 l 1150 28.828 l S
1050 28.828 m 1100 -0.039 l 1200 -0.039 l 1150 28.828 l S
1000 115.434 m 1000 173.168 l 1050 259.77 l 1050 202.035 l S
1050 28.828 m 1000 -0.039 l 900 -0.039 l 950 28.828 l S
1100 115.434 m 1100 173.168 l 1050 259.77 l 1050 202.035 l S
1000 115.434 m 950 86.562 l 900 -0.039 l 950 28.828 l S
600 1270.133 m 550 1299 l 450 1299 l 500 1270.133 l S
550 1183.531 m 500 1212.398 l 450 1299 l 500 1270.133 l S
650 1183.531 m 700 1212.398 l 750 1299 l 700 1270.133 l S
550 1183.531 m 550 1125.793 l 600 1039.191 l 600 1096.926 l S
600 1270.133 m 650 1299 l 750 1299 l 700 1270.133 l S
650 1183.531 m 650 1125.793 l 600 1039.191 l 600 1096.926 l S
800 1154.664 m 850 1125.793 l 900 1039.191 l 850 1068.059 l S
750 1068.059 m 800 1039.191 l 900 1039.191 l 850 1068.059 l S
700 1154.664 m 700 1212.398 l 750 1299 l 750 1241.266 l S
750 1068.059 m 700 1039.191 l 600 1039.191 l 650 1068.059 l S
800 1154.664 m 800 1212.398 l 750 1299 l 750 1241.266 l S
700 1154.664 m 650 1125.793 l 600 1039.191 l 650 1068.059 l S
750 1010.324 m 700 1039.191 l 600 1039.191 l 650 1010.324 l S
700 923.723 m 650 952.59 l 600 1039.191 l 650 1010.324 l S
800 923.723 m 850 952.59 l 900 1039.191 l 850 1010.324 l S
700 923.723 m 700 865.988 l 750 779.383 l 750 837.121 l S
750 1010.324 m 800 1039.191 l 900 1039.191 l 850 1010.324 l S
800 923.723 m 800 865.988 l 750 779.383 l 750 837.121 l S
950 894.855 m 1000 865.988 l 1050 779.383 l 1000 808.254 l S
900 808.254 m 950 779.383 l 1050 779.383 l 1000 808.254 l S
850 894.855 m 850 952.59 l 900 1039.191 l 900 981.457 l S
900 808.254 m 850 779.383 l 750 779.383 l 800 808.254 l S
950 894.855 m 950 952.59 l 900 1039.191 l 900 981.457 l S
850 894.855 m 800 865.988 l 750 779.383 l 800 808.254 l S
900 750.516 m 850 779.383 l 750 779.383 l 800 750.516 l S
850 663.914 m 800 692.781 l 750 779.383 l 800 750.516 l S
950 663.914 m 1000 692.781 l 1050 779.383 l 1000 750.516 l S
850 663.914 m 850 606.18 l 900 519.578 l 900 577.312 l S
900 750.516 m 950 779.383 l 1050 779.383 l 1000 750.516 l S
950 663.914 m 950 606.18 l 900 519.578 l 900 577.312 l S
1100 635.047 m 1150 606.18 l 1200 519.578 l 1150 548.445 l S
1050 548.445 m 1100 519.578 l 1200 519.578 l 1150 548.445 l S
1000 635.047 m 1000 692.781 l 1050 779.383 l 1050 721.648 l S
1050 548.445 m 1000 519.578 l 900 519.578 l 950 548.445 l S
1100 635.047 m 1100 692.781 l 1050 779.383 l 1050 721.648 l S
1000 635.047 m 950 606.18 l 900 519.578 l 950 548.445 l S
1050 490.711 m 1000 519.578 l 900 519.578 l 950 490.711 l S
1000 404.105 m 950 432.973 l 900 519.578 l 950 490.711 l S
1100 404.105 m 1150 432.973 l 1200 519.578 l 1150 490.711 l S
1000 404.105 m 1000 346.371 l 1050 259.77 l 1050 317.504 l S
1050 490.711 m 1100 519.578 l 1200 519.578 l 1150 490.711 l S
1100 404.105 m 1100 346.371 l 1050 259.77 l 1050 317.504 l S
1250 375.238 m 1300 346.371 l 1350 259.77 l 1300 288.637 l S
1200 288.637 m 1250 259.77 l 1350 259.77 l 1300 288.637 l S
1150 375.238 m 1150 432.973 l 1200 519.578 l 1200 461.844 l S
1200 288.637 m 1150 259.77 l 1050 259.77 l 1100 288.637 l S
1250 375.238 m 1250 432.973 l 1200 519.578 l 1200 461.844 l S
1150 375.238 m 1100 346.371 l 1050 259.77 l 1100 288.637 l S
1200 230.902 m 1150 259.77 l 1050 259.77 l 1100 230.902 l S
1150 144.301 m 1100 173.168 l 1050 259.77 l 1100 230.902 l S
1250 144.301 m 1300 173.168 l 1350 259.77 l 1300 230.902 l S
1150 144.301 m 1150 86.562 l 1200 -0.039 l 1200 57.695 l S
1200 230.902 m 1250 259.77 l 1350 259.77 l 1300 230.902 l S
1250 144.301 m 1250 86.562 l 1200 -0.039 l 1200 57.695 l S
1350 28.828 m 1400 -0.039 l 1500 -0.039 l 1450 28.828 l S
1300 115.434 m 1300 173.168 l 1350 259.77 l 1350 202.035 l S
1350 28.828 m 1300 -0.039 l 1200 -0.039 l 1250 28.828 l S
1400 115.434 m 1400 173.168 l 1350 259.77 l 1350 202.035 l S
1300 115.434 m 1250 86.562 l 1200 -0.039 l 1250 28.828 l S
900 1270.133 m 850 1299 l 750 1299 l 800 1270.133 l S
850 1183.531 m 800 1212.398 l 750 1299 l 800 1270.133 l S
950 1183.531 m 1000 1212.398 l 1050 1299 l 1000 1270.133 l S
850 1183.531 m 850 1125.793 l 900 1039.191 l 900 1096.926 l S
900 1270.133 m 950 1299 l 1050 1299 l 1000 1270.133 l S
950 1183.531 m 950 1125.793 l 900 1039.191 l 900 1096.926 l S
1100 1154.664 m 1150 1125.793 l 1200 1039.191 l 1150 1068.059 l S
1050 1068.059 m 1100 1039.191 l 1200 1039.191 l 1150 1068.059 l S
1000 1154.664 m 1000 1212.398 l 1050 1299 l 1050 1241.266 l S
1050 1068.059 m 1000 1039.191 l 900 1039.191 l 950 1068.059 l S
1100 1154.664 m 1100 1212.398 l 1050 1299 l 1050 1241.266 l S
1000 1154.664 m 950 1125.793 l 900 1039.191 l 950 1068.059 l S
1050 1010.324 m 1000 1039.191 l 900 1039.191 l 950 1010.324 l S
1000 923.723 m 950 952.59 l 900 1039.191 l 950 1010.324 l S
1100 923.723 m 1150 952.59 l 1200 1039.191 l 1150 1010.324 l S
1000 923.723 m 1000 865.988 l 1050 779.383 l 1050 837.121 l S
1050 1010.324 m 1100 1039.191 l 1200 1039.191 l 1150 1010.324 l S
1100 923.723 m 1100 865.988 l 1050 779.383 l 1050 837.121 l S
1250 894.855 m 1300 865.988 l 1350 779.383 l 1300 808.254 l S
1200 808.254 m 1250 779.383 l 1350 779.383 l 1300 808.254 l S
1150 894.855 m 1150 952.59 l 1200 1039.191 l 1200 981.457 l S
1200 808.254 m 1150 779.383 l 1050 779.383 l 1100 808.254 l S
1250 894.855 m 1250 952.59 l 1200 1039.191 l 1200 981.457 l S
1150 894.855 m 1100 865.988 l 1050 779.383 l 1100 808.254 l S
1200 750.516 m 1150 779.383 l 1050 779.383 l 1100 750.516 l S
1150 663.914 m 1100 692.781 l 1050 779.383 l 1100 750.516 l S
1250 663.914 m 1300 692.781 l 1350 779.383 l 1300 750.516 l S
1150 663.914 m 1150 606.18 l 1200 519.578 l 1200 577.312 l S
1200 750.516 m 1250 779.383 l 1350 779.383 l 1300 750.516 l S
1250 663.914 m 1250 606.18 l 1200 519.578 l 1200 577.312 l S
1350 548.445 m 1400 519.578 l 1500 519.578 l 1450 548.445 l S
1300 635.047 m 1300 692.781 l 1350 779.383 l 1350 721.648 l S
1350 548.445 m 1300 519.578 l 1200 519.578 l 1250 548.445 l S
1400 635.047 m 1400 692.781 l 1350 779.383 l 1350 721.648 l S
1300 635.047 m 1250 606.18 l 1200 519.578 l 1250 548.445 l S
1350 490.711 m 1300 519.578 l 1200 519.578 l 1250 490.711 l S
1300 404.105 m 1250 432.973 l 1200 519.578 l 1250 490.711 l S
1300 404.105 m 1300 346.371 l 1350 259.77 l 1350 317.504 l S
1350 490.711 m 1400 519.578 l 1500 519.578 l 1450 490.711 l S
1400 404.105 m 1400 346.371 l 1350 259.77 l 1350 317.504 l S
1500 288.637 m 1450 259.77 l 1350 259.77 l 1400 288.637 l S
1450 375.238 m 1400 346.371 l 1350 259.77 l 1400 288.637 l S
1500 230.902 m 1450 259.77 l 1350 259.77 l 1400 230.902 l S
1450 144.301 m 1400 173.168 l 1350 259.77 l 1400 230.902 l S
1200 1270.133 m 1150 1299 l 1050 1299 l 1100 1270.133 l S
1150 1183.531 m 1100 1212.398 l 1050 1299 l 1100 1270.133 l S
1250 1183.531 m 1300 1212.398 l 1350 1299 l 1300 1270.133 l S
1150 1183.531 m 1150 1125.793 l 1200 1039.191 l 1200 1096.926 l S
1200 1270.133 m 1250 1299 l 1350 1299 l 1300 1270.133 l S
1250 1183.531 m 1250 1125.793 l 1200 1039.191 l 1200 1096.926 l S
1350 1068.059 m 1400 1039.191 l 1500 1039.191 l 1450 1068.059 l S
1300 1154.664 m 1300 1212.398 l 1350 1299 l 1350 1241.266 l S
1350 1068.059 m 1300 1039.191 l 1200 1039.191 l 1250 1068.059 l S
1400 1154.664 m 1400 1212.398 l 1350 1299 l 1350 1241.266 l S
1300 1154.664 m 1250 1125.793 l 1200 1039.191 l 1250 1068.059 l S
1350 1010.324 m 1300 1039.191 l 1200 1039.191 l 1250 1010.324 l S
1300 923.723 m 1250 952.59 l 1200 1039.191 l 1250 1010.324 l S
1300 923.723 m 1300 865.988 l 1350 779.383 l 1350 837.121 l S
1350 1010.324 m 1400 1039.191 l 1500 1039.191 l 1450 1010.324 l S
1400 923.723 m 1400 865.988 l 1350 779.383 l 1350 837.121 l S
1500 808.254 m 1450 779.383 l 1350 779.383 l 1400 808.254 l S
1450 894.855 m 1400 865.988 l 1350 779.383 l 1400 808.254 l S
1500 750.516 m 1450 779.383 l 1350 779.383 l 1400 750.516 l S
1450 663.914 m 1400 692.781 l 1350 779.383 l 1400 750.516 l S
Q Q
showpage
%%Trailer
%%Trailer
cleartomark
countdictstack
exch sub { end } repeat
restore
%%EOF
