%!PS-Adobe-2.0 EPSF-2.0
%%BoundingBox: 0 0 1350 1299
%%HiResBoundingBox: 0.000000 0.000000 1350.000000 1299.000000
%%Creator: cairo 1.14.2 (http://cairographics.org)
%%CreationDate: Mon Sep  7 08:21:55 2015
%%DocumentData: Clean7Bit
%%LanguageLevel: 2
%%DocumentMedia: 476x458mm 1350 1299 0 () ()
%%EndComments
% EPSF created by ps2eps 1.68
%%BeginProlog
save
countdictstack
mark
newpath
/showpage {} def
/setpagedevice {pop} def
%%EndProlog
%%Page 1 1
%%BeginProlog
/languagelevel where
{ pop languagelevel } { 1 } ifelse
2 lt { /Helvetica findfont 12 scalefont setfont 50 500 moveto
  (This print job requires a PostScript Language Level 2 printer.) show
  showpage quit } if
/q { gsave } bind def
/Q { grestore } bind def
/cm { 6 array astore concat } bind def
/w { setlinewidth } bind def
/J { setlinecap } bind def
/j { setlinejoin } bind def
/M { setmiterlimit } bind def
/d { setdash } bind def
/m { moveto } bind def
/l { lineto } bind def
/c { curveto } bind def
/h { closepath } bind def
/re { exch dup neg 3 1 roll 5 3 roll moveto 0 rlineto
      0 exch rlineto 0 rlineto closepath } bind def
/S { stroke } bind def
/f { fill } bind def
/f* { eofill } bind def
/n { newpath } bind def
/W { clip } bind def
/W* { eoclip } bind def
/BT { } bind def
/ET { } bind def
/pdfmark where { pop globaldict /?pdfmark /exec load put }
    { globaldict begin /?pdfmark /pop load def /pdfmark
    /cleartomark load def end } ifelse
/BDC { mark 3 1 roll /BDC pdfmark } bind def
/EMC { mark /EMC pdfmark } bind def
/cairo_store_point { /cairo_point_y exch def /cairo_point_x exch def } def
/Tj { show currentpoint cairo_store_point } bind def
/TJ {
  {
    dup
    type /stringtype eq
    { show } { -0.001 mul 0 cairo_font_matrix dtransform rmoveto } ifelse
  } forall
  currentpoint cairo_store_point
} bind def
/cairo_selectfont { cairo_font_matrix aload pop pop pop 0 0 6 array astore
    cairo_font exch selectfont cairo_point_x cairo_point_y moveto } bind def
/Tf { pop /cairo_font exch def /cairo_font_matrix where
      { pop cairo_selectfont } if } bind def
/Td { matrix translate cairo_font_matrix matrix concatmatrix dup
      /cairo_font_matrix exch def dup 4 get exch 5 get cairo_store_point
      /cairo_font where { pop cairo_selectfont } if } bind def
/Tm { 2 copy 8 2 roll 6 array astore /cairo_font_matrix exch def
      cairo_store_point /cairo_font where { pop cairo_selectfont } if } bind def
/g { setgray } bind def
/rg { setrgbcolor } bind def
/d1 { setcachedevice } bind def
/cairo_set_page_size {
  % Change paper size, but only if different from previous paper size otherwise
  % duplex fails. PLRM specifies a tolerance of 5 pts when matching paper size
  % so we use the same when checking if the size changes.
  /setpagedevice where {
    pop currentpagedevice
    /PageSize known {
      2 copy
      currentpagedevice /PageSize get aload pop
      exch 4 1 roll
      sub abs 5 gt
      3 1 roll
      sub abs 5 gt
      or
    } {
      true
    } ifelse
    {
      2 array astore
      2 dict begin
        /PageSize exch def
        /ImagingBBox null def
      currentdict end
      setpagedevice
    } {
      pop pop
    } ifelse
  } {
    pop
  } ifelse
} def
%%EndProlog
%%BeginSetup
%%EndSetup
%%Page: 1 1
%%BeginPageSetup
%%PageMedia: 476x458mm
%%PageBoundingBox: 0 0 1350 1299
1350 1299 cairo_set_page_size
%%EndPageSetup
q 0 0 1350 1299 rectclip q
0.984314 g
0 0 1350 1299 rectfill
0.788235 g
1.875 w
0 J
1 j
[] 0.0 d
4 M 0 1299 1350 -1299.039 re S
0 g
2.5 w
1 J
125 303.07 m 150 259.77 100 346.371 100 288.637 c S
100 259.77 m 150 259.77 50 259.77 100 288.637 c S
-25 476.277 m 0 519.578 -50 432.973 0 461.844 c S
25 476.277 m 0 519.578 50 432.973 0 461.844 c S
125 216.469 m 150 259.77 100 173.168 100 230.902 c S
-25 43.262 m 0 -0.039 -50 86.562 0 57.695 c S
100 259.77 m 150 259.77 50 259.77 100 230.902 c S
25 43.262 m 0 -0.039 50 86.562 0 57.695 c S
275 43.262 m 300 -0.039 250 86.562 250 28.828 c S
250 -0.039 m 300 -0.039 200 -0.039 250 28.828 c S
125 216.469 m 150 259.77 100 173.168 150 202.035 c S
50 -0.039 m 0 -0.039 100 -0.039 50 28.828 c S
175 216.469 m 150 259.77 200 173.168 150 202.035 c S
25 43.262 m 0 -0.039 50 86.562 50 28.828 c S
125 822.688 m 150 779.383 100 865.988 100 808.254 c S
100 779.383 m 150 779.383 50 779.383 100 808.254 c S
-25 995.891 m 0 1039.191 -50 952.59 0 981.457 c S
25 995.891 m 0 1039.191 50 952.59 0 981.457 c S
125 736.082 m 150 779.383 100 692.781 100 750.516 c S
-25 562.879 m 0 519.578 -50 606.18 0 577.312 c S
100 779.383 m 150 779.383 50 779.383 100 750.516 c S
25 562.879 m 0 519.578 50 606.18 0 577.312 c S
275 562.879 m 300 519.578 250 606.18 250 548.445 c S
250 519.578 m 300 519.578 200 519.578 250 548.445 c S
125 736.082 m 150 779.383 100 692.781 150 721.648 c S
50 519.578 m 0 519.578 100 519.578 50 548.445 c S
175 736.082 m 150 779.383 200 692.781 150 721.648 c S
25 562.879 m 0 519.578 50 606.18 50 548.445 c S
50 519.578 m 0 519.578 100 519.578 50 490.711 c S
25 476.277 m 0 519.578 50 432.973 50 490.711 c S
275 476.277 m 300 519.578 250 432.973 250 490.711 c S
125 303.07 m 150 259.77 100 346.371 150 317.504 c S
250 519.578 m 300 519.578 200 519.578 250 490.711 c S
175 303.07 m 150 259.77 200 346.371 150 317.504 c S
425 303.07 m 450 259.77 400 346.371 400 288.637 c S
400 259.77 m 450 259.77 350 259.77 400 288.637 c S
275 476.277 m 300 519.578 250 432.973 300 461.844 c S
200 259.77 m 150 259.77 250 259.77 200 288.637 c S
325 476.277 m 300 519.578 350 432.973 300 461.844 c S
175 303.07 m 150 259.77 200 346.371 200 288.637 c S
200 259.77 m 150 259.77 250 259.77 200 230.902 c S
175 216.469 m 150 259.77 200 173.168 200 230.902 c S
425 216.469 m 450 259.77 400 173.168 400 230.902 c S
275 43.262 m 300 -0.039 250 86.562 300 57.695 c S
400 259.77 m 450 259.77 350 259.77 400 230.902 c S
325 43.262 m 300 -0.039 350 86.562 300 57.695 c S
575 43.262 m 600 -0.039 550 86.562 550 28.828 c S
550 -0.039 m 600 -0.039 500 -0.039 550 28.828 c S
425 216.469 m 450 259.77 400 173.168 450 202.035 c S
350 -0.039 m 300 -0.039 400 -0.039 350 28.828 c S
475 216.469 m 450 259.77 500 173.168 450 202.035 c S
325 43.262 m 300 -0.039 350 86.562 350 28.828 c S
125 1255.699 m 150 1299 100 1212.398 100 1270.133 c S
-25 1082.492 m 0 1039.191 -50 1125.793 0 1096.926 c S
100 1299 m 150 1299 50 1299 100 1270.133 c S
25 1082.492 m 0 1039.191 50 1125.793 0 1096.926 c S
275 1082.492 m 300 1039.191 250 1125.793 250 1068.059 c S
250 1039.191 m 300 1039.191 200 1039.191 250 1068.059 c S
125 1255.699 m 150 1299 100 1212.398 150 1241.266 c S
50 1039.191 m 0 1039.191 100 1039.191 50 1068.059 c S
175 1255.699 m 150 1299 200 1212.398 150 1241.266 c S
25 1082.492 m 0 1039.191 50 1125.793 50 1068.059 c S
50 1039.191 m 0 1039.191 100 1039.191 50 1010.324 c S
25 995.891 m 0 1039.191 50 952.59 50 1010.324 c S
275 995.891 m 300 1039.191 250 952.59 250 1010.324 c S
125 822.688 m 150 779.383 100 865.988 150 837.121 c S
250 1039.191 m 300 1039.191 200 1039.191 250 1010.324 c S
175 822.688 m 150 779.383 200 865.988 150 837.121 c S
425 822.688 m 450 779.383 400 865.988 400 808.254 c S
400 779.383 m 450 779.383 350 779.383 400 808.254 c S
275 995.891 m 300 1039.191 250 952.59 300 981.457 c S
200 779.383 m 150 779.383 250 779.383 200 808.254 c S
325 995.891 m 300 1039.191 350 952.59 300 981.457 c S
175 822.688 m 150 779.383 200 865.988 200 808.254 c S
200 779.383 m 150 779.383 250 779.383 200 750.516 c S
175 736.082 m 150 779.383 200 692.781 200 750.516 c S
425 736.082 m 450 779.383 400 692.781 400 750.516 c S
275 562.879 m 300 519.578 250 606.18 300 577.312 c S
400 779.383 m 450 779.383 350 779.383 400 750.516 c S
325 562.879 m 300 519.578 350 606.18 300 577.312 c S
575 562.879 m 600 519.578 550 606.18 550 548.445 c S
550 519.578 m 600 519.578 500 519.578 550 548.445 c S
425 736.082 m 450 779.383 400 692.781 450 721.648 c S
350 519.578 m 300 519.578 400 519.578 350 548.445 c S
475 736.082 m 450 779.383 500 692.781 450 721.648 c S
325 562.879 m 300 519.578 350 606.18 350 548.445 c S
350 519.578 m 300 519.578 400 519.578 350 490.711 c S
325 476.277 m 300 519.578 350 432.973 350 490.711 c S
575 476.277 m 600 519.578 550 432.973 550 490.711 c S
425 303.07 m 450 259.77 400 346.371 450 317.504 c S
550 519.578 m 600 519.578 500 519.578 550 490.711 c S
475 303.07 m 450 259.77 500 346.371 450 317.504 c S
725 303.07 m 750 259.77 700 346.371 700 288.637 c S
700 259.77 m 750 259.77 650 259.77 700 288.637 c S
575 476.277 m 600 519.578 550 432.973 600 461.844 c S
500 259.77 m 450 259.77 550 259.77 500 288.637 c S
625 476.277 m 600 519.578 650 432.973 600 461.844 c S
475 303.07 m 450 259.77 500 346.371 500 288.637 c S
500 259.77 m 450 259.77 550 259.77 500 230.902 c S
475 216.469 m 450 259.77 500 173.168 500 230.902 c S
725 216.469 m 750 259.77 700 173.168 700 230.902 c S
575 43.262 m 600 -0.039 550 86.562 600 57.695 c S
700 259.77 m 750 259.77 650 259.77 700 230.902 c S
625 43.262 m 600 -0.039 650 86.562 600 57.695 c S
875 43.262 m 900 -0.039 850 86.562 850 28.828 c S
850 -0.039 m 900 -0.039 800 -0.039 850 28.828 c S
725 216.469 m 750 259.77 700 173.168 750 202.035 c S
650 -0.039 m 600 -0.039 700 -0.039 650 28.828 c S
775 216.469 m 750 259.77 800 173.168 750 202.035 c S
625 43.262 m 600 -0.039 650 86.562 650 28.828 c S
200 1299 m 150 1299 250 1299 200 1270.133 c S
175 1255.699 m 150 1299 200 1212.398 200 1270.133 c S
425 1255.699 m 450 1299 400 1212.398 400 1270.133 c S
275 1082.492 m 300 1039.191 250 1125.793 300 1096.926 c S
400 1299 m 450 1299 350 1299 400 1270.133 c S
325 1082.492 m 300 1039.191 350 1125.793 300 1096.926 c S
575 1082.492 m 600 1039.191 550 1125.793 550 1068.059 c S
550 1039.191 m 600 1039.191 500 1039.191 550 1068.059 c S
425 1255.699 m 450 1299 400 1212.398 450 1241.266 c S
350 1039.191 m 300 1039.191 400 1039.191 350 1068.059 c S
475 1255.699 m 450 1299 500 1212.398 450 1241.266 c S
325 1082.492 m 300 1039.191 350 1125.793 350 1068.059 c S
350 1039.191 m 300 1039.191 400 1039.191 350 1010.324 c S
325 995.891 m 300 1039.191 350 952.59 350 1010.324 c S
575 995.891 m 600 1039.191 550 952.59 550 1010.324 c S
425 822.688 m 450 779.383 400 865.988 450 837.121 c S
550 1039.191 m 600 1039.191 500 1039.191 550 1010.324 c S
475 822.688 m 450 779.383 500 865.988 450 837.121 c S
725 822.688 m 750 779.383 700 865.988 700 808.254 c S
700 779.383 m 750 779.383 650 779.383 700 808.254 c S
575 995.891 m 600 1039.191 550 952.59 600 981.457 c S
500 779.383 m 450 779.383 550 779.383 500 808.254 c S
625 995.891 m 600 1039.191 650 952.59 600 981.457 c S
475 822.688 m 450 779.383 500 865.988 500 808.254 c S
500 779.383 m 450 779.383 550 779.383 500 750.516 c S
475 736.082 m 450 779.383 500 692.781 500 750.516 c S
725 736.082 m 750 779.383 700 692.781 700 750.516 c S
575 562.879 m 600 519.578 550 606.18 600 577.312 c S
700 779.383 m 750 779.383 650 779.383 700 750.516 c S
625 562.879 m 600 519.578 650 606.18 600 577.312 c S
875 562.879 m 900 519.578 850 606.18 850 548.445 c S
850 519.578 m 900 519.578 800 519.578 850 548.445 c S
725 736.082 m 750 779.383 700 692.781 750 721.648 c S
650 519.578 m 600 519.578 700 519.578 650 548.445 c S
775 736.082 m 750 779.383 800 692.781 750 721.648 c S
625 562.879 m 600 519.578 650 606.18 650 548.445 c S
650 519.578 m 600 519.578 700 519.578 650 490.711 c S
625 476.277 m 600 519.578 650 432.973 650 490.711 c S
875 476.277 m 900 519.578 850 432.973 850 490.711 c S
725 303.07 m 750 259.77 700 346.371 750 317.504 c S
850 519.578 m 900 519.578 800 519.578 850 490.711 c S
775 303.07 m 750 259.77 800 346.371 750 317.504 c S
1025 303.07 m 1050 259.77 1000 346.371 1000 288.637 c S
1000 259.77 m 1050 259.77 950 259.77 1000 288.637 c S
875 476.277 m 900 519.578 850 432.973 900 461.844 c S
800 259.77 m 750 259.77 850 259.77 800 288.637 c S
925 476.277 m 900 519.578 950 432.973 900 461.844 c S
775 303.07 m 750 259.77 800 346.371 800 288.637 c S
800 259.77 m 750 259.77 850 259.77 800 230.902 c S
775 216.469 m 750 259.77 800 173.168 800 230.902 c S
1025 216.469 m 1050 259.77 1000 173.168 1000 230.902 c S
875 43.262 m 900 -0.039 850 86.562 900 57.695 c S
1000 259.77 m 1050 259.77 950 259.77 1000 230.902 c S
925 43.262 m 900 -0.039 950 86.562 900 57.695 c S
1175 43.262 m 1200 -0.039 1150 86.562 1150 28.828 c S
1150 -0.039 m 1200 -0.039 1100 -0.039 1150 28.828 c S
1025 216.469 m 1050 259.77 1000 173.168 1050 202.035 c S
950 -0.039 m 900 -0.039 1000 -0.039 950 28.828 c S
1075 216.469 m 1050 259.77 1100 173.168 1050 202.035 c S
925 43.262 m 900 -0.039 950 86.562 950 28.828 c S
500 1299 m 450 1299 550 1299 500 1270.133 c S
475 1255.699 m 450 1299 500 1212.398 500 1270.133 c S
725 1255.699 m 750 1299 700 1212.398 700 1270.133 c S
575 1082.492 m 600 1039.191 550 1125.793 600 1096.926 c S
700 1299 m 750 1299 650 1299 700 1270.133 c S
625 1082.492 m 600 1039.191 650 1125.793 600 1096.926 c S
875 1082.492 m 900 1039.191 850 1125.793 850 1068.059 c S
850 1039.191 m 900 1039.191 800 1039.191 850 1068.059 c S
725 1255.699 m 750 1299 700 1212.398 750 1241.266 c S
650 1039.191 m 600 1039.191 700 1039.191 650 1068.059 c S
775 1255.699 m 750 1299 800 1212.398 750 1241.266 c S
625 1082.492 m 600 1039.191 650 1125.793 650 1068.059 c S
650 1039.191 m 600 1039.191 700 1039.191 650 1010.324 c S
625 995.891 m 600 1039.191 650 952.59 650 1010.324 c S
875 995.891 m 900 1039.191 850 952.59 850 1010.324 c S
725 822.688 m 750 779.383 700 865.988 750 837.121 c S
850 1039.191 m 900 1039.191 800 1039.191 850 1010.324 c S
775 822.688 m 750 779.383 800 865.988 750 837.121 c S
1025 822.688 m 1050 779.383 1000 865.988 1000 808.254 c S
1000 779.383 m 1050 779.383 950 779.383 1000 808.254 c S
875 995.891 m 900 1039.191 850 952.59 900 981.457 c S
800 779.383 m 750 779.383 850 779.383 800 808.254 c S
925 995.891 m 900 1039.191 950 952.59 900 981.457 c S
775 822.688 m 750 779.383 800 865.988 800 808.254 c S
800 779.383 m 750 779.383 850 779.383 800 750.516 c S
775 736.082 m 750 779.383 800 692.781 800 750.516 c S
1025 736.082 m 1050 779.383 1000 692.781 1000 750.516 c S
875 562.879 m 900 519.578 850 606.18 900 577.312 c S
1000 779.383 m 1050 779.383 950 779.383 1000 750.516 c S
925 562.879 m 900 519.578 950 606.18 900 577.312 c S
1175 562.879 m 1200 519.578 1150 606.18 1150 548.445 c S
1150 519.578 m 1200 519.578 1100 519.578 1150 548.445 c S
1025 736.082 m 1050 779.383 1000 692.781 1050 721.648 c S
950 519.578 m 900 519.578 1000 519.578 950 548.445 c S
1075 736.082 m 1050 779.383 1100 692.781 1050 721.648 c S
925 562.879 m 900 519.578 950 606.18 950 548.445 c S
950 519.578 m 900 519.578 1000 519.578 950 490.711 c S
925 476.277 m 900 519.578 950 432.973 950 490.711 c S
1175 476.277 m 1200 519.578 1150 432.973 1150 490.711 c S
1025 303.07 m 1050 259.77 1000 346.371 1050 317.504 c S
1150 519.578 m 1200 519.578 1100 519.578 1150 490.711 c S
1075 303.07 m 1050 259.77 1100 346.371 1050 317.504 c S
1325 303.07 m 1350 259.77 1300 346.371 1300 288.637 c S
1300 259.77 m 1350 259.77 1250 259.77 1300 288.637 c S
1175 476.277 m 1200 519.578 1150 432.973 1200 461.844 c S
1100 259.77 m 1050 259.77 1150 259.77 1100 288.637 c S
1225 476.277 m 1200 519.578 1250 432.973 1200 461.844 c S
1075 303.07 m 1050 259.77 1100 346.371 1100 288.637 c S
1100 259.77 m 1050 259.77 1150 259.77 1100 230.902 c S
1075 216.469 m 1050 259.77 1100 173.168 1100 230.902 c S
1325 216.469 m 1350 259.77 1300 173.168 1300 230.902 c S
1175 43.262 m 1200 -0.039 1150 86.562 1200 57.695 c S
1300 259.77 m 1350 259.77 1250 259.77 1300 230.902 c S
1225 43.262 m 1200 -0.039 1250 86.562 1200 57.695 c S
1325 216.469 m 1350 259.77 1300 173.168 1350 202.035 c S
1250 -0.039 m 1200 -0.039 1300 -0.039 1250 28.828 c S
1375 216.469 m 1350 259.77 1400 173.168 1350 202.035 c S
1225 43.262 m 1200 -0.039 1250 86.562 1250 28.828 c S
800 1299 m 750 1299 850 1299 800 1270.133 c S
775 1255.699 m 750 1299 800 1212.398 800 1270.133 c S
1025 1255.699 m 1050 1299 1000 1212.398 1000 1270.133 c S
875 1082.492 m 900 1039.191 850 1125.793 900 1096.926 c S
1000 1299 m 1050 1299 950 1299 1000 1270.133 c S
925 1082.492 m 900 1039.191 950 1125.793 900 1096.926 c S
1175 1082.492 m 1200 1039.191 1150 1125.793 1150 1068.059 c S
1150 1039.191 m 1200 1039.191 1100 1039.191 1150 1068.059 c S
1025 1255.699 m 1050 1299 1000 1212.398 1050 1241.266 c S
950 1039.191 m 900 1039.191 1000 1039.191 950 1068.059 c S
1075 1255.699 m 1050 1299 1100 1212.398 1050 1241.266 c S
925 1082.492 m 900 1039.191 950 1125.793 950 1068.059 c S
950 1039.191 m 900 1039.191 1000 1039.191 950 1010.324 c S
925 995.891 m 900 1039.191 950 952.59 950 1010.324 c S
1175 995.891 m 1200 1039.191 1150 952.59 1150 1010.324 c S
1025 822.688 m 1050 779.383 1000 865.988 1050 837.121 c S
1150 1039.191 m 1200 1039.191 1100 1039.191 1150 1010.324 c S
1075 822.688 m 1050 779.383 1100 865.988 1050 837.121 c S
1325 822.688 m 1350 779.383 1300 865.988 1300 808.254 c S
1300 779.383 m 1350 779.383 1250 779.383 1300 808.254 c S
1175 995.891 m 1200 1039.191 1150 952.59 1200 981.457 c S
1100 779.383 m 1050 779.383 1150 779.383 1100 808.254 c S
1225 995.891 m 1200 1039.191 1250 952.59 1200 981.457 c S
1075 822.688 m 1050 779.383 1100 865.988 1100 808.254 c S
1100 779.383 m 1050 779.383 1150 779.383 1100 750.516 c S
1075 736.082 m 1050 779.383 1100 692.781 1100 750.516 c S
1325 736.082 m 1350 779.383 1300 692.781 1300 750.516 c S
1175 562.879 m 1200 519.578 1150 606.18 1200 577.312 c S
1300 779.383 m 1350 779.383 1250 779.383 1300 750.516 c S
1225 562.879 m 1200 519.578 1250 606.18 1200 577.312 c S
1325 736.082 m 1350 779.383 1300 692.781 1350 721.648 c S
1250 519.578 m 1200 519.578 1300 519.578 1250 548.445 c S
1375 736.082 m 1350 779.383 1400 692.781 1350 721.648 c S
1225 562.879 m 1200 519.578 1250 606.18 1250 548.445 c S
1250 519.578 m 1200 519.578 1300 519.578 1250 490.711 c S
1225 476.277 m 1200 519.578 1250 432.973 1250 490.711 c S
1325 303.07 m 1350 259.77 1300 346.371 1350 317.504 c S
1375 303.07 m 1350 259.77 1400 346.371 1350 317.504 c S
1100 1299 m 1050 1299 1150 1299 1100 1270.133 c S
1075 1255.699 m 1050 1299 1100 1212.398 1100 1270.133 c S
1325 1255.699 m 1350 1299 1300 1212.398 1300 1270.133 c S
1175 1082.492 m 1200 1039.191 1150 1125.793 1200 1096.926 c S
1300 1299 m 1350 1299 1250 1299 1300 1270.133 c S
1225 1082.492 m 1200 1039.191 1250 1125.793 1200 1096.926 c S
1325 1255.699 m 1350 1299 1300 1212.398 1350 1241.266 c S
1250 1039.191 m 1200 1039.191 1300 1039.191 1250 1068.059 c S
1375 1255.699 m 1350 1299 1400 1212.398 1350 1241.266 c S
1225 1082.492 m 1200 1039.191 1250 1125.793 1250 1068.059 c S
1250 1039.191 m 1200 1039.191 1300 1039.191 1250 1010.324 c S
1225 995.891 m 1200 1039.191 1250 952.59 1250 1010.324 c S
1325 822.688 m 1350 779.383 1300 865.988 1350 837.121 c S
1375 822.688 m 1350 779.383 1400 865.988 1350 837.121 c S
Q Q
showpage
%%Trailer
%%Trailer
cleartomark
countdictstack
exch sub { end } repeat
restore
%%EOF
