%!PS-Adobe-2.0 EPSF-2.0
%%BoundingBox: 0 0 2100 1000
%%HiResBoundingBox: 0.000000 0.000000 2100.000000 1000.000000
%%Creator: cairo 1.14.2 (http://cairographics.org)
%%CreationDate: Mon Sep  7 08:21:55 2015
%%DocumentData: Clean7Bit
%%LanguageLevel: 2
%%DocumentMedia: 741x353mm 2100 1000 0 () ()
%%EndComments
% EPSF created by ps2eps 1.68
%%BeginProlog
save
countdictstack
mark
newpath
/showpage {} def
/setpagedevice {pop} def
%%EndProlog
%%Page 1 1
%%BeginProlog
/languagelevel where
{ pop languagelevel } { 1 } ifelse
2 lt { /Helvetica findfont 12 scalefont setfont 50 500 moveto
  (This print job requires a PostScript Language Level 2 printer.) show
  showpage quit } if
/q { gsave } bind def
/Q { grestore } bind def
/cm { 6 array astore concat } bind def
/w { setlinewidth } bind def
/J { setlinecap } bind def
/j { setlinejoin } bind def
/M { setmiterlimit } bind def
/d { setdash } bind def
/m { moveto } bind def
/l { lineto } bind def
/c { curveto } bind def
/h { closepath } bind def
/re { exch dup neg 3 1 roll 5 3 roll moveto 0 rlineto
      0 exch rlineto 0 rlineto closepath } bind def
/S { stroke } bind def
/f { fill } bind def
/f* { eofill } bind def
/n { newpath } bind def
/W { clip } bind def
/W* { eoclip } bind def
/BT { } bind def
/ET { } bind def
/pdfmark where { pop globaldict /?pdfmark /exec load put }
    { globaldict begin /?pdfmark /pop load def /pdfmark
    /cleartomark load def end } ifelse
/BDC { mark 3 1 roll /BDC pdfmark } bind def
/EMC { mark /EMC pdfmark } bind def
/cairo_store_point { /cairo_point_y exch def /cairo_point_x exch def } def
/Tj { show currentpoint cairo_store_point } bind def
/TJ {
  {
    dup
    type /stringtype eq
    { show } { -0.001 mul 0 cairo_font_matrix dtransform rmoveto } ifelse
  } forall
  currentpoint cairo_store_point
} bind def
/cairo_selectfont { cairo_font_matrix aload pop pop pop 0 0 6 array astore
    cairo_font exch selectfont cairo_point_x cairo_point_y moveto } bind def
/Tf { pop /cairo_font exch def /cairo_font_matrix where
      { pop cairo_selectfont } if } bind def
/Td { matrix translate cairo_font_matrix matrix concatmatrix dup
      /cairo_font_matrix exch def dup 4 get exch 5 get cairo_store_point
      /cairo_font where { pop cairo_selectfont } if } bind def
/Tm { 2 copy 8 2 roll 6 array astore /cairo_font_matrix exch def
      cairo_store_point /cairo_font where { pop cairo_selectfont } if } bind def
/g { setgray } bind def
/rg { setrgbcolor } bind def
/d1 { setcachedevice } bind def
/cairo_set_page_size {
  % Change paper size, but only if different from previous paper size otherwise
  % duplex fails. PLRM specifies a tolerance of 5 pts when matching paper size
  % so we use the same when checking if the size changes.
  /setpagedevice where {
    pop currentpagedevice
    /PageSize known {
      2 copy
      currentpagedevice /PageSize get aload pop
      exch 4 1 roll
      sub abs 5 gt
      3 1 roll
      sub abs 5 gt
      or
    } {
      true
    } ifelse
    {
      2 array astore
      2 dict begin
        /PageSize exch def
        /ImagingBBox null def
      currentdict end
      setpagedevice
    } {
      pop pop
    } ifelse
  } {
    pop
  } ifelse
} def
%%EndProlog
%%BeginSetup
%%EndSetup
%%Page: 1 1
%%BeginPageSetup
%%PageMedia: 741x353mm
%%PageBoundingBox: 0 0 2100 1000
2100 1000 cairo_set_page_size
%%EndPageSetup
q 0 0 2100 1000 rectclip q
0.984314 g
0 0 2100 1000 rectfill
0.788235 g
1.875 w
0 J
1 j
[] 0.0 d
4 M 0 1000 2100 -1000 re S
0 g
2.5 w
1 J
150 1000 m 0 800 l S
300 800 m 150 1000 l S
150 800 m 0 600 l S
300 600 m 150 800 l S
150 600 m 0 400 l S
300 400 m 150 600 l S
150 400 m 0 200 l S
300 200 m 150 400 l S
150 200 m 0 0 l S
300 0 m 150 200 l S
450 1000 m 300 800 l S
600 800 m 450 1000 l S
450 800 m 300 600 l S
600 600 m 450 800 l S
450 600 m 300 400 l S
600 400 m 450 600 l S
450 400 m 300 200 l S
600 200 m 450 400 l S
450 200 m 300 0 l S
600 0 m 450 200 l S
750 1000 m 600 800 l S
900 800 m 750 1000 l S
750 800 m 600 600 l S
900 600 m 750 800 l S
750 600 m 600 400 l S
900 400 m 750 600 l S
750 400 m 600 200 l S
900 200 m 750 400 l S
750 200 m 600 0 l S
900 0 m 750 200 l S
1050 1000 m 900 800 l S
1200 800 m 1050 1000 l S
1050 800 m 900 600 l S
1200 600 m 1050 800 l S
1050 600 m 900 400 l S
1200 400 m 1050 600 l S
1050 400 m 900 200 l S
1200 200 m 1050 400 l S
1050 200 m 900 0 l S
1200 0 m 1050 200 l S
1350 1000 m 1200 800 l S
1500 800 m 1350 1000 l S
1350 800 m 1200 600 l S
1500 600 m 1350 800 l S
1350 600 m 1200 400 l S
1500 400 m 1350 600 l S
1350 400 m 1200 200 l S
1500 200 m 1350 400 l S
1350 200 m 1200 0 l S
1500 0 m 1350 200 l S
1650 1000 m 1500 800 l S
1800 800 m 1650 1000 l S
1650 800 m 1500 600 l S
1800 600 m 1650 800 l S
1650 600 m 1500 400 l S
1800 400 m 1650 600 l S
1650 400 m 1500 200 l S
1800 200 m 1650 400 l S
1650 200 m 1500 0 l S
1800 0 m 1650 200 l S
1950 1000 m 1800 800 l S
2100 800 m 1950 1000 l S
1950 800 m 1800 600 l S
2100 600 m 1950 800 l S
1950 600 m 1800 400 l S
2100 400 m 1950 600 l S
1950 400 m 1800 200 l S
2100 200 m 1950 400 l S
1950 200 m 1800 0 l S
2100 0 m 1950 200 l S
Q Q
showpage
%%Trailer
%%Trailer
cleartomark
countdictstack
exch sub { end } repeat
restore
%%EOF
