%!PS-Adobe-2.0 EPSF-2.0
%%BoundingBox: 0 0 2800 1500
%%HiResBoundingBox: 0.000000 0.000000 2800.000000 1500.000000
%%Creator: cairo 1.14.2 (http://cairographics.org)
%%CreationDate: Mon Sep  7 08:21:55 2015
%%DocumentData: Clean7Bit
%%LanguageLevel: 2
%%DocumentMedia: 988x529mm 2800 1500 0 () ()
%%EndComments
% EPSF created by ps2eps 1.68
%%BeginProlog
save
countdictstack
mark
newpath
/showpage {} def
/setpagedevice {pop} def
%%EndProlog
%%Page 1 1
%%BeginProlog
/languagelevel where
{ pop languagelevel } { 1 } ifelse
2 lt { /Helvetica findfont 12 scalefont setfont 50 500 moveto
  (This print job requires a PostScript Language Level 2 printer.) show
  showpage quit } if
/q { gsave } bind def
/Q { grestore } bind def
/cm { 6 array astore concat } bind def
/w { setlinewidth } bind def
/J { setlinecap } bind def
/j { setlinejoin } bind def
/M { setmiterlimit } bind def
/d { setdash } bind def
/m { moveto } bind def
/l { lineto } bind def
/c { curveto } bind def
/h { closepath } bind def
/re { exch dup neg 3 1 roll 5 3 roll moveto 0 rlineto
      0 exch rlineto 0 rlineto closepath } bind def
/S { stroke } bind def
/f { fill } bind def
/f* { eofill } bind def
/n { newpath } bind def
/W { clip } bind def
/W* { eoclip } bind def
/BT { } bind def
/ET { } bind def
/pdfmark where { pop globaldict /?pdfmark /exec load put }
    { globaldict begin /?pdfmark /pop load def /pdfmark
    /cleartomark load def end } ifelse
/BDC { mark 3 1 roll /BDC pdfmark } bind def
/EMC { mark /EMC pdfmark } bind def
/cairo_store_point { /cairo_point_y exch def /cairo_point_x exch def } def
/Tj { show currentpoint cairo_store_point } bind def
/TJ {
  {
    dup
    type /stringtype eq
    { show } { -0.001 mul 0 cairo_font_matrix dtransform rmoveto } ifelse
  } forall
  currentpoint cairo_store_point
} bind def
/cairo_selectfont { cairo_font_matrix aload pop pop pop 0 0 6 array astore
    cairo_font exch selectfont cairo_point_x cairo_point_y moveto } bind def
/Tf { pop /cairo_font exch def /cairo_font_matrix where
      { pop cairo_selectfont } if } bind def
/Td { matrix translate cairo_font_matrix matrix concatmatrix dup
      /cairo_font_matrix exch def dup 4 get exch 5 get cairo_store_point
      /cairo_font where { pop cairo_selectfont } if } bind def
/Tm { 2 copy 8 2 roll 6 array astore /cairo_font_matrix exch def
      cairo_store_point /cairo_font where { pop cairo_selectfont } if } bind def
/g { setgray } bind def
/rg { setrgbcolor } bind def
/d1 { setcachedevice } bind def
/cairo_set_page_size {
  % Change paper size, but only if different from previous paper size otherwise
  % duplex fails. PLRM specifies a tolerance of 5 pts when matching paper size
  % so we use the same when checking if the size changes.
  /setpagedevice where {
    pop currentpagedevice
    /PageSize known {
      2 copy
      currentpagedevice /PageSize get aload pop
      exch 4 1 roll
      sub abs 5 gt
      3 1 roll
      sub abs 5 gt
      or
    } {
      true
    } ifelse
    {
      2 array astore
      2 dict begin
        /PageSize exch def
        /ImagingBBox null def
      currentdict end
      setpagedevice
    } {
      pop pop
    } ifelse
  } {
    pop
  } ifelse
} def
%%EndProlog
%%BeginSetup
%%EndSetup
%%Page: 1 1
%%BeginPageSetup
%%PageMedia: 988x529mm
%%PageBoundingBox: 0 0 2800 1500
2800 1500 cairo_set_page_size
%%EndPageSetup
q 0 0 2800 1500 rectclip q
0.984314 g
0 0 2800 1500 rectfill
0.788235 g
1.875 w
0 J
1 j
[] 0.0 d
4 M 0 1500 2800 -1500 re S
0 g
2.5 w
1 J
133.332 1400 m 133.332 1500 0 1450 200 1400 c S
333.332 1450 m 333.332 1350 200 1400 400 1450 c S
66.668 1250 m 66.668 1350 200 1300 0 1250 c S
266.668 1300 m 266.668 1200 400 1250 200 1300 c S
133.332 1100 m 133.332 1200 0 1150 200 1100 c S
333.332 1150 m 333.332 1050 200 1100 400 1150 c S
66.668 950 m 66.668 1050 200 1000 0 950 c S
266.668 1000 m 266.668 900 400 950 200 1000 c S
133.332 800 m 133.332 900 0 850 200 800 c S
333.332 850 m 333.332 750 200 800 400 850 c S
66.668 650 m 66.668 750 200 700 0 650 c S
266.668 700 m 266.668 600 400 650 200 700 c S
133.332 500 m 133.332 600 0 550 200 500 c S
333.332 550 m 333.332 450 200 500 400 550 c S
66.668 350 m 66.668 450 200 400 0 350 c S
266.668 400 m 266.668 300 400 350 200 400 c S
133.332 200 m 133.332 300 0 250 200 200 c S
333.332 250 m 333.332 150 200 200 400 250 c S
66.668 50 m 66.668 150 200 100 0 50 c S
266.668 100 m 266.668 0 400 50 200 100 c S
533.332 1400 m 533.332 1500 400 1450 600 1400 c S
733.332 1450 m 733.332 1350 600 1400 800 1450 c S
466.668 1250 m 466.668 1350 600 1300 400 1250 c S
666.668 1300 m 666.668 1200 800 1250 600 1300 c S
533.332 1100 m 533.332 1200 400 1150 600 1100 c S
733.332 1150 m 733.332 1050 600 1100 800 1150 c S
466.668 950 m 466.668 1050 600 1000 400 950 c S
666.668 1000 m 666.668 900 800 950 600 1000 c S
533.332 800 m 533.332 900 400 850 600 800 c S
733.332 850 m 733.332 750 600 800 800 850 c S
466.668 650 m 466.668 750 600 700 400 650 c S
666.668 700 m 666.668 600 800 650 600 700 c S
533.332 500 m 533.332 600 400 550 600 500 c S
733.332 550 m 733.332 450 600 500 800 550 c S
466.668 350 m 466.668 450 600 400 400 350 c S
666.668 400 m 666.668 300 800 350 600 400 c S
533.332 200 m 533.332 300 400 250 600 200 c S
733.332 250 m 733.332 150 600 200 800 250 c S
466.668 50 m 466.668 150 600 100 400 50 c S
666.668 100 m 666.668 0 800 50 600 100 c S
933.332 1400 m 933.332 1500 800 1450 1000 1400 c S
1133.332 1450 m 1133.332 1350 1000 1400 1200 1450 c S
866.668 1250 m 866.668 1350 1000 1300 800 1250 c S
1066.668 1300 m 1066.668 1200 1200 1250 1000 1300 c S
933.332 1100 m 933.332 1200 800 1150 1000 1100 c S
1133.332 1150 m 1133.332 1050 1000 1100 1200 1150 c S
866.668 950 m 866.668 1050 1000 1000 800 950 c S
1066.668 1000 m 1066.668 900 1200 950 1000 1000 c S
933.332 800 m 933.332 900 800 850 1000 800 c S
1133.332 850 m 1133.332 750 1000 800 1200 850 c S
866.668 650 m 866.668 750 1000 700 800 650 c S
1066.668 700 m 1066.668 600 1200 650 1000 700 c S
933.332 500 m 933.332 600 800 550 1000 500 c S
1133.332 550 m 1133.332 450 1000 500 1200 550 c S
866.668 350 m 866.668 450 1000 400 800 350 c S
1066.668 400 m 1066.668 300 1200 350 1000 400 c S
933.332 200 m 933.332 300 800 250 1000 200 c S
1133.332 250 m 1133.332 150 1000 200 1200 250 c S
866.668 50 m 866.668 150 1000 100 800 50 c S
1066.668 100 m 1066.668 0 1200 50 1000 100 c S
1333.332 1400 m 1333.332 1500 1200 1450 1400 1400 c S
1533.332 1450 m 1533.332 1350 1400 1400 1600 1450 c S
1266.668 1250 m 1266.668 1350 1400 1300 1200 1250 c S
1466.668 1300 m 1466.668 1200 1600 1250 1400 1300 c S
1333.332 1100 m 1333.332 1200 1200 1150 1400 1100 c S
1533.332 1150 m 1533.332 1050 1400 1100 1600 1150 c S
1266.668 950 m 1266.668 1050 1400 1000 1200 950 c S
1466.668 1000 m 1466.668 900 1600 950 1400 1000 c S
1333.332 800 m 1333.332 900 1200 850 1400 800 c S
1533.332 850 m 1533.332 750 1400 800 1600 850 c S
1266.668 650 m 1266.668 750 1400 700 1200 650 c S
1466.668 700 m 1466.668 600 1600 650 1400 700 c S
1333.332 500 m 1333.332 600 1200 550 1400 500 c S
1533.332 550 m 1533.332 450 1400 500 1600 550 c S
1266.668 350 m 1266.668 450 1400 400 1200 350 c S
1466.668 400 m 1466.668 300 1600 350 1400 400 c S
1333.332 200 m 1333.332 300 1200 250 1400 200 c S
1533.332 250 m 1533.332 150 1400 200 1600 250 c S
1266.668 50 m 1266.668 150 1400 100 1200 50 c S
1466.668 100 m 1466.668 0 1600 50 1400 100 c S
1733.332 1400 m 1733.332 1500 1600 1450 1800 1400 c S
1933.332 1450 m 1933.332 1350 1800 1400 2000 1450 c S
1666.668 1250 m 1666.668 1350 1800 1300 1600 1250 c S
1866.668 1300 m 1866.668 1200 2000 1250 1800 1300 c S
1733.332 1100 m 1733.332 1200 1600 1150 1800 1100 c S
1933.332 1150 m 1933.332 1050 1800 1100 2000 1150 c S
1666.668 950 m 1666.668 1050 1800 1000 1600 950 c S
1866.668 1000 m 1866.668 900 2000 950 1800 1000 c S
1733.332 800 m 1733.332 900 1600 850 1800 800 c S
1933.332 850 m 1933.332 750 1800 800 2000 850 c S
1666.668 650 m 1666.668 750 1800 700 1600 650 c S
1866.668 700 m 1866.668 600 2000 650 1800 700 c S
1733.332 500 m 1733.332 600 1600 550 1800 500 c S
1933.332 550 m 1933.332 450 1800 500 2000 550 c S
1666.668 350 m 1666.668 450 1800 400 1600 350 c S
1866.668 400 m 1866.668 300 2000 350 1800 400 c S
1733.332 200 m 1733.332 300 1600 250 1800 200 c S
1933.332 250 m 1933.332 150 1800 200 2000 250 c S
1666.668 50 m 1666.668 150 1800 100 1600 50 c S
1866.668 100 m 1866.668 0 2000 50 1800 100 c S
2133.332 1400 m 2133.332 1500 2000 1450 2200 1400 c S
2333.332 1450 m 2333.332 1350 2200 1400 2400 1450 c S
2066.668 1250 m 2066.668 1350 2200 1300 2000 1250 c S
2266.668 1300 m 2266.668 1200 2400 1250 2200 1300 c S
2133.332 1100 m 2133.332 1200 2000 1150 2200 1100 c S
2333.332 1150 m 2333.332 1050 2200 1100 2400 1150 c S
2066.668 950 m 2066.668 1050 2200 1000 2000 950 c S
2266.668 1000 m 2266.668 900 2400 950 2200 1000 c S
2133.332 800 m 2133.332 900 2000 850 2200 800 c S
2333.332 850 m 2333.332 750 2200 800 2400 850 c S
2066.668 650 m 2066.668 750 2200 700 2000 650 c S
2266.668 700 m 2266.668 600 2400 650 2200 700 c S
2133.332 500 m 2133.332 600 2000 550 2200 500 c S
2333.332 550 m 2333.332 450 2200 500 2400 550 c S
2066.668 350 m 2066.668 450 2200 400 2000 350 c S
2266.668 400 m 2266.668 300 2400 350 2200 400 c S
2133.332 200 m 2133.332 300 2000 250 2200 200 c S
2333.332 250 m 2333.332 150 2200 200 2400 250 c S
2066.668 50 m 2066.668 150 2200 100 2000 50 c S
2266.668 100 m 2266.668 0 2400 50 2200 100 c S
2533.332 1400 m 2533.332 1500 2400 1450 2600 1400 c S
2733.332 1450 m 2733.332 1350 2600 1400 2800 1450 c S
2466.668 1250 m 2466.668 1350 2600 1300 2400 1250 c S
2666.668 1300 m 2666.668 1200 2800 1250 2600 1300 c S
2533.332 1100 m 2533.332 1200 2400 1150 2600 1100 c S
2733.332 1150 m 2733.332 1050 2600 1100 2800 1150 c S
2466.668 950 m 2466.668 1050 2600 1000 2400 950 c S
2666.668 1000 m 2666.668 900 2800 950 2600 1000 c S
2533.332 800 m 2533.332 900 2400 850 2600 800 c S
2733.332 850 m 2733.332 750 2600 800 2800 850 c S
2466.668 650 m 2466.668 750 2600 700 2400 650 c S
2666.668 700 m 2666.668 600 2800 650 2600 700 c S
2533.332 500 m 2533.332 600 2400 550 2600 500 c S
2733.332 550 m 2733.332 450 2600 500 2800 550 c S
2466.668 350 m 2466.668 450 2600 400 2400 350 c S
2666.668 400 m 2666.668 300 2800 350 2600 400 c S
2533.332 200 m 2533.332 300 2400 250 2600 200 c S
2733.332 250 m 2733.332 150 2600 200 2800 250 c S
2466.668 50 m 2466.668 150 2600 100 2400 50 c S
2666.668 100 m 2666.668 0 2800 50 2600 100 c S
Q Q
showpage
%%Trailer
%%Trailer
cleartomark
countdictstack
exch sub { end } repeat
restore
%%EOF
