%!PS-Adobe-2.0 EPSF-2.0
%%BoundingBox: 0 0 1750 1250
%%HiResBoundingBox: 0.000000 0.000000 1750.000000 1250.000000
%%Creator: cairo 1.14.2 (http://cairographics.org)
%%CreationDate: Mon Sep  7 08:21:55 2015
%%DocumentData: Clean7Bit
%%LanguageLevel: 2
%%DocumentMedia: 617x441mm 1750 1250 0 () ()
%%EndComments
% EPSF created by ps2eps 1.68
%%BeginProlog
save
countdictstack
mark
newpath
/showpage {} def
/setpagedevice {pop} def
%%EndProlog
%%Page 1 1
%%BeginProlog
/languagelevel where
{ pop languagelevel } { 1 } ifelse
2 lt { /Helvetica findfont 12 scalefont setfont 50 500 moveto
  (This print job requires a PostScript Language Level 2 printer.) show
  showpage quit } if
/q { gsave } bind def
/Q { grestore } bind def
/cm { 6 array astore concat } bind def
/w { setlinewidth } bind def
/J { setlinecap } bind def
/j { setlinejoin } bind def
/M { setmiterlimit } bind def
/d { setdash } bind def
/m { moveto } bind def
/l { lineto } bind def
/c { curveto } bind def
/h { closepath } bind def
/re { exch dup neg 3 1 roll 5 3 roll moveto 0 rlineto
      0 exch rlineto 0 rlineto closepath } bind def
/S { stroke } bind def
/f { fill } bind def
/f* { eofill } bind def
/n { newpath } bind def
/W { clip } bind def
/W* { eoclip } bind def
/BT { } bind def
/ET { } bind def
/pdfmark where { pop globaldict /?pdfmark /exec load put }
    { globaldict begin /?pdfmark /pop load def /pdfmark
    /cleartomark load def end } ifelse
/BDC { mark 3 1 roll /BDC pdfmark } bind def
/EMC { mark /EMC pdfmark } bind def
/cairo_store_point { /cairo_point_y exch def /cairo_point_x exch def } def
/Tj { show currentpoint cairo_store_point } bind def
/TJ {
  {
    dup
    type /stringtype eq
    { show } { -0.001 mul 0 cairo_font_matrix dtransform rmoveto } ifelse
  } forall
  currentpoint cairo_store_point
} bind def
/cairo_selectfont { cairo_font_matrix aload pop pop pop 0 0 6 array astore
    cairo_font exch selectfont cairo_point_x cairo_point_y moveto } bind def
/Tf { pop /cairo_font exch def /cairo_font_matrix where
      { pop cairo_selectfont } if } bind def
/Td { matrix translate cairo_font_matrix matrix concatmatrix dup
      /cairo_font_matrix exch def dup 4 get exch 5 get cairo_store_point
      /cairo_font where { pop cairo_selectfont } if } bind def
/Tm { 2 copy 8 2 roll 6 array astore /cairo_font_matrix exch def
      cairo_store_point /cairo_font where { pop cairo_selectfont } if } bind def
/g { setgray } bind def
/rg { setrgbcolor } bind def
/d1 { setcachedevice } bind def
/cairo_set_page_size {
  % Change paper size, but only if different from previous paper size otherwise
  % duplex fails. PLRM specifies a tolerance of 5 pts when matching paper size
  % so we use the same when checking if the size changes.
  /setpagedevice where {
    pop currentpagedevice
    /PageSize known {
      2 copy
      currentpagedevice /PageSize get aload pop
      exch 4 1 roll
      sub abs 5 gt
      3 1 roll
      sub abs 5 gt
      or
    } {
      true
    } ifelse
    {
      2 array astore
      2 dict begin
        /PageSize exch def
        /ImagingBBox null def
      currentdict end
      setpagedevice
    } {
      pop pop
    } ifelse
  } {
    pop
  } ifelse
} def
%%EndProlog
%%BeginSetup
%%EndSetup
%%Page: 1 1
%%BeginPageSetup
%%PageMedia: 617x441mm
%%PageBoundingBox: 0 0 1750 1250
1750 1250 cairo_set_page_size
%%EndPageSetup
q 0 0 1750 1250 rectclip q
0.984314 g
0 0 1750 1250 rectfill
0.788235 g
1.875 w
0 J
1 j
[] 0.0 d
4 M 0 1250 1750 -1250 re S
0 g
2.5 w
1 J
0 1125 m -34.52 1159.52 -34.52 1215.48 0 1250 c 34.52 1284.52 90.48 1284.52
 125 1250 c S
0 1125 m 34.52 1159.52 90.48 1159.52 125 1125 c 159.52 1090.48 159.52 1034.52
 125 1000 c S
0 875 m -34.52 909.52 -34.52 965.48 0 1000 c 34.52 1034.52 90.48 1034.52
 125 1000 c S
0 875 m 34.52 909.52 90.48 909.52 125 875 c 159.52 840.48 159.52 784.52
 125 750 c S
0 625 m -34.52 659.52 -34.52 715.48 0 750 c 34.52 784.52 90.48 784.52 125
 750 c S
0 625 m 34.52 659.52 90.48 659.52 125 625 c 159.52 590.48 159.52 534.52
 125 500 c S
0 375 m -34.52 409.52 -34.52 465.48 0 500 c 34.52 534.52 90.48 534.52 125
 500 c S
0 375 m 34.52 409.52 90.48 409.52 125 375 c 159.52 340.48 159.52 284.52
 125 250 c S
0 125 m -34.52 159.52 -34.52 215.48 0 250 c 34.52 284.52 90.48 284.52 125
 250 c S
0 125 m 34.52 159.52 90.48 159.52 125 125 c 159.52 90.48 159.52 34.52 125
 0 c S
250 1125 m 215.48 1159.52 215.48 1215.48 250 1250 c 284.52 1284.52 340.48
 1284.52 375 1250 c S
250 1125 m 284.52 1159.52 340.48 1159.52 375 1125 c 409.52 1090.48 409.52
 1034.52 375 1000 c S
250 875 m 215.48 909.52 215.48 965.48 250 1000 c 284.52 1034.52 340.48 
1034.52 375 1000 c S
250 875 m 284.52 909.52 340.48 909.52 375 875 c 409.52 840.48 409.52 784.52
 375 750 c S
250 625 m 215.48 659.52 215.48 715.48 250 750 c 284.52 784.52 340.48 784.52
 375 750 c S
250 625 m 284.52 659.52 340.48 659.52 375 625 c 409.52 590.48 409.52 534.52
 375 500 c S
250 375 m 215.48 409.52 215.48 465.48 250 500 c 284.52 534.52 340.48 534.52
 375 500 c S
250 375 m 284.52 409.52 340.48 409.52 375 375 c 409.52 340.48 409.52 284.52
 375 250 c S
250 125 m 215.48 159.52 215.48 215.48 250 250 c 284.52 284.52 340.48 284.52
 375 250 c S
250 125 m 284.52 159.52 340.48 159.52 375 125 c 409.52 90.48 409.52 34.52
 375 0 c S
500 1125 m 465.48 1159.52 465.48 1215.48 500 1250 c 534.52 1284.52 590.48
 1284.52 625 1250 c S
500 1125 m 534.52 1159.52 590.48 1159.52 625 1125 c 659.52 1090.48 659.52
 1034.52 625 1000 c S
500 875 m 465.48 909.52 465.48 965.48 500 1000 c 534.52 1034.52 590.48 
1034.52 625 1000 c S
500 875 m 534.52 909.52 590.48 909.52 625 875 c 659.52 840.48 659.52 784.52
 625 750 c S
500 625 m 465.48 659.52 465.48 715.48 500 750 c 534.52 784.52 590.48 784.52
 625 750 c S
500 625 m 534.52 659.52 590.48 659.52 625 625 c 659.52 590.48 659.52 534.52
 625 500 c S
500 375 m 465.48 409.52 465.48 465.48 500 500 c 534.52 534.52 590.48 534.52
 625 500 c S
500 375 m 534.52 409.52 590.48 409.52 625 375 c 659.52 340.48 659.52 284.52
 625 250 c S
500 125 m 465.48 159.52 465.48 215.48 500 250 c 534.52 284.52 590.48 284.52
 625 250 c S
500 125 m 534.52 159.52 590.48 159.52 625 125 c 659.52 90.48 659.52 34.52
 625 0 c S
750 1125 m 715.48 1159.52 715.48 1215.48 750 1250 c 784.52 1284.52 840.48
 1284.52 875 1250 c S
750 1125 m 784.52 1159.52 840.48 1159.52 875 1125 c 909.52 1090.48 909.52
 1034.52 875 1000 c S
750 875 m 715.48 909.52 715.48 965.48 750 1000 c 784.52 1034.52 840.48 
1034.52 875 1000 c S
750 875 m 784.52 909.52 840.48 909.52 875 875 c 909.52 840.48 909.52 784.52
 875 750 c S
750 625 m 715.48 659.52 715.48 715.48 750 750 c 784.52 784.52 840.48 784.52
 875 750 c S
750 625 m 784.52 659.52 840.48 659.52 875 625 c 909.52 590.48 909.52 534.52
 875 500 c S
750 375 m 715.48 409.52 715.48 465.48 750 500 c 784.52 534.52 840.48 534.52
 875 500 c S
750 375 m 784.52 409.52 840.48 409.52 875 375 c 909.52 340.48 909.52 284.52
 875 250 c S
750 125 m 715.48 159.52 715.48 215.48 750 250 c 784.52 284.52 840.48 284.52
 875 250 c S
750 125 m 784.52 159.52 840.48 159.52 875 125 c 909.52 90.48 909.52 34.52
 875 0 c S
1000 1125 m 965.48 1159.52 965.48 1215.48 1000 1250 c 1034.52 1284.52 1090.48
 1284.52 1125 1250 c S
1000 1125 m 1034.52 1159.52 1090.48 1159.52 1125 1125 c 1159.52 1090.48
 1159.52 1034.52 1125 1000 c S
1000 875 m 965.48 909.52 965.48 965.48 1000 1000 c 1034.52 1034.52 1090.48
 1034.52 1125 1000 c S
1000 875 m 1034.52 909.52 1090.48 909.52 1125 875 c 1159.52 840.48 1159.52
 784.52 1125 750 c S
1000 625 m 965.48 659.52 965.48 715.48 1000 750 c 1034.52 784.52 1090.48
 784.52 1125 750 c S
1000 625 m 1034.52 659.52 1090.48 659.52 1125 625 c 1159.52 590.48 1159.52
 534.52 1125 500 c S
1000 375 m 965.48 409.52 965.48 465.48 1000 500 c 1034.52 534.52 1090.48
 534.52 1125 500 c S
1000 375 m 1034.52 409.52 1090.48 409.52 1125 375 c 1159.52 340.48 1159.52
 284.52 1125 250 c S
1000 125 m 965.48 159.52 965.48 215.48 1000 250 c 1034.52 284.52 1090.48
 284.52 1125 250 c S
1000 125 m 1034.52 159.52 1090.48 159.52 1125 125 c 1159.52 90.48 1159.52
 34.52 1125 0 c S
1250 1125 m 1215.48 1159.52 1215.48 1215.48 1250 1250 c 1284.52 1284.52
 1340.48 1284.52 1375 1250 c S
1250 1125 m 1284.52 1159.52 1340.48 1159.52 1375 1125 c 1409.52 1090.48
 1409.52 1034.52 1375 1000 c S
1250 875 m 1215.48 909.52 1215.48 965.48 1250 1000 c 1284.52 1034.52 1340.48
 1034.52 1375 1000 c S
1250 875 m 1284.52 909.52 1340.48 909.52 1375 875 c 1409.52 840.48 1409.52
 784.52 1375 750 c S
1250 625 m 1215.48 659.52 1215.48 715.48 1250 750 c 1284.52 784.52 1340.48
 784.52 1375 750 c S
1250 625 m 1284.52 659.52 1340.48 659.52 1375 625 c 1409.52 590.48 1409.52
 534.52 1375 500 c S
1250 375 m 1215.48 409.52 1215.48 465.48 1250 500 c 1284.52 534.52 1340.48
 534.52 1375 500 c S
1250 375 m 1284.52 409.52 1340.48 409.52 1375 375 c 1409.52 340.48 1409.52
 284.52 1375 250 c S
1250 125 m 1215.48 159.52 1215.48 215.48 1250 250 c 1284.52 284.52 1340.48
 284.52 1375 250 c S
1250 125 m 1284.52 159.52 1340.48 159.52 1375 125 c 1409.52 90.48 1409.52
 34.52 1375 0 c S
1500 1125 m 1465.48 1159.52 1465.48 1215.48 1500 1250 c 1534.52 1284.52
 1590.48 1284.52 1625 1250 c S
1500 1125 m 1534.52 1159.52 1590.48 1159.52 1625 1125 c 1659.52 1090.48
 1659.52 1034.52 1625 1000 c S
1500 875 m 1465.48 909.52 1465.48 965.48 1500 1000 c 1534.52 1034.52 1590.48
 1034.52 1625 1000 c S
1500 875 m 1534.52 909.52 1590.48 909.52 1625 875 c 1659.52 840.48 1659.52
 784.52 1625 750 c S
1500 625 m 1465.48 659.52 1465.48 715.48 1500 750 c 1534.52 784.52 1590.48
 784.52 1625 750 c S
1500 625 m 1534.52 659.52 1590.48 659.52 1625 625 c 1659.52 590.48 1659.52
 534.52 1625 500 c S
1500 375 m 1465.48 409.52 1465.48 465.48 1500 500 c 1534.52 534.52 1590.48
 534.52 1625 500 c S
1500 375 m 1534.52 409.52 1590.48 409.52 1625 375 c 1659.52 340.48 1659.52
 284.52 1625 250 c S
1500 125 m 1465.48 159.52 1465.48 215.48 1500 250 c 1534.52 284.52 1590.48
 284.52 1625 250 c S
1500 125 m 1534.52 159.52 1590.48 159.52 1625 125 c 1659.52 90.48 1659.52
 34.52 1625 0 c S
Q Q
showpage
%%Trailer
%%Trailer
cleartomark
countdictstack
exch sub { end } repeat
restore
%%EOF
