%!PS-Adobe-2.0 EPSF-2.0
%%BoundingBox: 0 0 2800 1500
%%HiResBoundingBox: 0.000000 0.000000 2800.000000 1500.000000
%%Creator: cairo 1.14.2 (http://cairographics.org)
%%CreationDate: Mon Sep  7 08:21:55 2015
%%DocumentData: Clean7Bit
%%LanguageLevel: 2
%%DocumentMedia: 988x529mm 2800 1500 0 () ()
%%EndComments
% EPSF created by ps2eps 1.68
%%BeginProlog
save
countdictstack
mark
newpath
/showpage {} def
/setpagedevice {pop} def
%%EndProlog
%%Page 1 1
%%BeginProlog
/languagelevel where
{ pop languagelevel } { 1 } ifelse
2 lt { /Helvetica findfont 12 scalefont setfont 50 500 moveto
  (This print job requires a PostScript Language Level 2 printer.) show
  showpage quit } if
/q { gsave } bind def
/Q { grestore } bind def
/cm { 6 array astore concat } bind def
/w { setlinewidth } bind def
/J { setlinecap } bind def
/j { setlinejoin } bind def
/M { setmiterlimit } bind def
/d { setdash } bind def
/m { moveto } bind def
/l { lineto } bind def
/c { curveto } bind def
/h { closepath } bind def
/re { exch dup neg 3 1 roll 5 3 roll moveto 0 rlineto
      0 exch rlineto 0 rlineto closepath } bind def
/S { stroke } bind def
/f { fill } bind def
/f* { eofill } bind def
/n { newpath } bind def
/W { clip } bind def
/W* { eoclip } bind def
/BT { } bind def
/ET { } bind def
/pdfmark where { pop globaldict /?pdfmark /exec load put }
    { globaldict begin /?pdfmark /pop load def /pdfmark
    /cleartomark load def end } ifelse
/BDC { mark 3 1 roll /BDC pdfmark } bind def
/EMC { mark /EMC pdfmark } bind def
/cairo_store_point { /cairo_point_y exch def /cairo_point_x exch def } def
/Tj { show currentpoint cairo_store_point } bind def
/TJ {
  {
    dup
    type /stringtype eq
    { show } { -0.001 mul 0 cairo_font_matrix dtransform rmoveto } ifelse
  } forall
  currentpoint cairo_store_point
} bind def
/cairo_selectfont { cairo_font_matrix aload pop pop pop 0 0 6 array astore
    cairo_font exch selectfont cairo_point_x cairo_point_y moveto } bind def
/Tf { pop /cairo_font exch def /cairo_font_matrix where
      { pop cairo_selectfont } if } bind def
/Td { matrix translate cairo_font_matrix matrix concatmatrix dup
      /cairo_font_matrix exch def dup 4 get exch 5 get cairo_store_point
      /cairo_font where { pop cairo_selectfont } if } bind def
/Tm { 2 copy 8 2 roll 6 array astore /cairo_font_matrix exch def
      cairo_store_point /cairo_font where { pop cairo_selectfont } if } bind def
/g { setgray } bind def
/rg { setrgbcolor } bind def
/d1 { setcachedevice } bind def
/cairo_set_page_size {
  % Change paper size, but only if different from previous paper size otherwise
  % duplex fails. PLRM specifies a tolerance of 5 pts when matching paper size
  % so we use the same when checking if the size changes.
  /setpagedevice where {
    pop currentpagedevice
    /PageSize known {
      2 copy
      currentpagedevice /PageSize get aload pop
      exch 4 1 roll
      sub abs 5 gt
      3 1 roll
      sub abs 5 gt
      or
    } {
      true
    } ifelse
    {
      2 array astore
      2 dict begin
        /PageSize exch def
        /ImagingBBox null def
      currentdict end
      setpagedevice
    } {
      pop pop
    } ifelse
  } {
    pop
  } ifelse
} def
%%EndProlog
%%BeginSetup
%%EndSetup
%%Page: 1 1
%%BeginPageSetup
%%PageMedia: 988x529mm
%%PageBoundingBox: 0 0 2800 1500
2800 1500 cairo_set_page_size
%%EndPageSetup
q 0 0 2800 1500 rectclip q
0.984314 g
0 0 2800 1500 rectfill
0.788235 g
1.875 w
0 J
1 j
[] 0.0 d
4 M 0 1500 2800 -1500 re S
0 g
2.5 w
1 J
200 1350 m 66.668 1350 33.332 1400 100 1500 c S
200 1350 m 66.668 1350 33.332 1300 100 1200 c S
200 1200 m 333.332 1200 366.668 1250 300 1350 c S
200 1500 m 333.332 1500 366.668 1450 300 1350 c S
200 1050 m 66.668 1050 33.332 1100 100 1200 c S
200 1050 m 66.668 1050 33.332 1000 100 900 c S
200 900 m 333.332 900 366.668 950 300 1050 c S
200 1200 m 333.332 1200 366.668 1150 300 1050 c S
200 750 m 66.668 750 33.332 800 100 900 c S
200 750 m 66.668 750 33.332 700 100 600 c S
200 600 m 333.332 600 366.668 650 300 750 c S
200 900 m 333.332 900 366.668 850 300 750 c S
200 450 m 66.668 450 33.332 500 100 600 c S
200 450 m 66.668 450 33.332 400 100 300 c S
200 300 m 333.332 300 366.668 350 300 450 c S
200 600 m 333.332 600 366.668 550 300 450 c S
200 150 m 66.668 150 33.332 200 100 300 c S
200 150 m 66.668 150 33.332 100 100 0 c S
200 0 m 333.332 0 366.668 50 300 150 c S
200 300 m 333.332 300 366.668 250 300 150 c S
600 1350 m 466.668 1350 433.332 1400 500 1500 c S
600 1350 m 466.668 1350 433.332 1300 500 1200 c S
600 1200 m 733.332 1200 766.668 1250 700 1350 c S
600 1500 m 733.332 1500 766.668 1450 700 1350 c S
600 1050 m 466.668 1050 433.332 1100 500 1200 c S
600 1050 m 466.668 1050 433.332 1000 500 900 c S
600 900 m 733.332 900 766.668 950 700 1050 c S
600 1200 m 733.332 1200 766.668 1150 700 1050 c S
600 750 m 466.668 750 433.332 800 500 900 c S
600 750 m 466.668 750 433.332 700 500 600 c S
600 600 m 733.332 600 766.668 650 700 750 c S
600 900 m 733.332 900 766.668 850 700 750 c S
600 450 m 466.668 450 433.332 500 500 600 c S
600 450 m 466.668 450 433.332 400 500 300 c S
600 300 m 733.332 300 766.668 350 700 450 c S
600 600 m 733.332 600 766.668 550 700 450 c S
600 150 m 466.668 150 433.332 200 500 300 c S
600 150 m 466.668 150 433.332 100 500 0 c S
600 0 m 733.332 0 766.668 50 700 150 c S
600 300 m 733.332 300 766.668 250 700 150 c S
1000 1350 m 866.668 1350 833.332 1400 900 1500 c S
1000 1350 m 866.668 1350 833.332 1300 900 1200 c S
1000 1200 m 1133.332 1200 1166.668 1250 1100 1350 c S
1000 1500 m 1133.332 1500 1166.668 1450 1100 1350 c S
1000 1050 m 866.668 1050 833.332 1100 900 1200 c S
1000 1050 m 866.668 1050 833.332 1000 900 900 c S
1000 900 m 1133.332 900 1166.668 950 1100 1050 c S
1000 1200 m 1133.332 1200 1166.668 1150 1100 1050 c S
1000 750 m 866.668 750 833.332 800 900 900 c S
1000 750 m 866.668 750 833.332 700 900 600 c S
1000 600 m 1133.332 600 1166.668 650 1100 750 c S
1000 900 m 1133.332 900 1166.668 850 1100 750 c S
1000 450 m 866.668 450 833.332 500 900 600 c S
1000 450 m 866.668 450 833.332 400 900 300 c S
1000 300 m 1133.332 300 1166.668 350 1100 450 c S
1000 600 m 1133.332 600 1166.668 550 1100 450 c S
1000 150 m 866.668 150 833.332 200 900 300 c S
1000 150 m 866.668 150 833.332 100 900 0 c S
1000 0 m 1133.332 0 1166.668 50 1100 150 c S
1000 300 m 1133.332 300 1166.668 250 1100 150 c S
1400 1350 m 1266.668 1350 1233.332 1400 1300 1500 c S
1400 1350 m 1266.668 1350 1233.332 1300 1300 1200 c S
1400 1200 m 1533.332 1200 1566.668 1250 1500 1350 c S
1400 1500 m 1533.332 1500 1566.668 1450 1500 1350 c S
1400 1050 m 1266.668 1050 1233.332 1100 1300 1200 c S
1400 1050 m 1266.668 1050 1233.332 1000 1300 900 c S
1400 900 m 1533.332 900 1566.668 950 1500 1050 c S
1400 1200 m 1533.332 1200 1566.668 1150 1500 1050 c S
1400 750 m 1266.668 750 1233.332 800 1300 900 c S
1400 750 m 1266.668 750 1233.332 700 1300 600 c S
1400 600 m 1533.332 600 1566.668 650 1500 750 c S
1400 900 m 1533.332 900 1566.668 850 1500 750 c S
1400 450 m 1266.668 450 1233.332 500 1300 600 c S
1400 450 m 1266.668 450 1233.332 400 1300 300 c S
1400 300 m 1533.332 300 1566.668 350 1500 450 c S
1400 600 m 1533.332 600 1566.668 550 1500 450 c S
1400 150 m 1266.668 150 1233.332 200 1300 300 c S
1400 150 m 1266.668 150 1233.332 100 1300 0 c S
1400 0 m 1533.332 0 1566.668 50 1500 150 c S
1400 300 m 1533.332 300 1566.668 250 1500 150 c S
1800 1350 m 1666.668 1350 1633.332 1400 1700 1500 c S
1800 1350 m 1666.668 1350 1633.332 1300 1700 1200 c S
1800 1200 m 1933.332 1200 1966.668 1250 1900 1350 c S
1800 1500 m 1933.332 1500 1966.668 1450 1900 1350 c S
1800 1050 m 1666.668 1050 1633.332 1100 1700 1200 c S
1800 1050 m 1666.668 1050 1633.332 1000 1700 900 c S
1800 900 m 1933.332 900 1966.668 950 1900 1050 c S
1800 1200 m 1933.332 1200 1966.668 1150 1900 1050 c S
1800 750 m 1666.668 750 1633.332 800 1700 900 c S
1800 750 m 1666.668 750 1633.332 700 1700 600 c S
1800 600 m 1933.332 600 1966.668 650 1900 750 c S
1800 900 m 1933.332 900 1966.668 850 1900 750 c S
1800 450 m 1666.668 450 1633.332 500 1700 600 c S
1800 450 m 1666.668 450 1633.332 400 1700 300 c S
1800 300 m 1933.332 300 1966.668 350 1900 450 c S
1800 600 m 1933.332 600 1966.668 550 1900 450 c S
1800 150 m 1666.668 150 1633.332 200 1700 300 c S
1800 150 m 1666.668 150 1633.332 100 1700 0 c S
1800 0 m 1933.332 0 1966.668 50 1900 150 c S
1800 300 m 1933.332 300 1966.668 250 1900 150 c S
2200 1350 m 2066.668 1350 2033.332 1400 2100 1500 c S
2200 1350 m 2066.668 1350 2033.332 1300 2100 1200 c S
2200 1200 m 2333.332 1200 2366.668 1250 2300 1350 c S
2200 1500 m 2333.332 1500 2366.668 1450 2300 1350 c S
2200 1050 m 2066.668 1050 2033.332 1100 2100 1200 c S
2200 1050 m 2066.668 1050 2033.332 1000 2100 900 c S
2200 900 m 2333.332 900 2366.668 950 2300 1050 c S
2200 1200 m 2333.332 1200 2366.668 1150 2300 1050 c S
2200 750 m 2066.668 750 2033.332 800 2100 900 c S
2200 750 m 2066.668 750 2033.332 700 2100 600 c S
2200 600 m 2333.332 600 2366.668 650 2300 750 c S
2200 900 m 2333.332 900 2366.668 850 2300 750 c S
2200 450 m 2066.668 450 2033.332 500 2100 600 c S
2200 450 m 2066.668 450 2033.332 400 2100 300 c S
2200 300 m 2333.332 300 2366.668 350 2300 450 c S
2200 600 m 2333.332 600 2366.668 550 2300 450 c S
2200 150 m 2066.668 150 2033.332 200 2100 300 c S
2200 150 m 2066.668 150 2033.332 100 2100 0 c S
2200 0 m 2333.332 0 2366.668 50 2300 150 c S
2200 300 m 2333.332 300 2366.668 250 2300 150 c S
2600 1350 m 2466.668 1350 2433.332 1400 2500 1500 c S
2600 1350 m 2466.668 1350 2433.332 1300 2500 1200 c S
2600 1200 m 2733.332 1200 2766.668 1250 2700 1350 c S
2600 1500 m 2733.332 1500 2766.668 1450 2700 1350 c S
2600 1050 m 2466.668 1050 2433.332 1100 2500 1200 c S
2600 1050 m 2466.668 1050 2433.332 1000 2500 900 c S
2600 900 m 2733.332 900 2766.668 950 2700 1050 c S
2600 1200 m 2733.332 1200 2766.668 1150 2700 1050 c S
2600 750 m 2466.668 750 2433.332 800 2500 900 c S
2600 750 m 2466.668 750 2433.332 700 2500 600 c S
2600 600 m 2733.332 600 2766.668 650 2700 750 c S
2600 900 m 2733.332 900 2766.668 850 2700 750 c S
2600 450 m 2466.668 450 2433.332 500 2500 600 c S
2600 450 m 2466.668 450 2433.332 400 2500 300 c S
2600 300 m 2733.332 300 2766.668 350 2700 450 c S
2600 600 m 2733.332 600 2766.668 550 2700 450 c S
2600 150 m 2466.668 150 2433.332 200 2500 300 c S
2600 150 m 2466.668 150 2433.332 100 2500 0 c S
2600 0 m 2733.332 0 2766.668 50 2700 150 c S
2600 300 m 2733.332 300 2766.668 250 2700 150 c S
Q Q
showpage
%%Trailer
%%Trailer
cleartomark
countdictstack
exch sub { end } repeat
restore
%%EOF
