<svg xmlns="http://www.w3.org/2000/svg" baseProfile="full" width="2800" height="1500" viewBox="-100.0 -75.0 2800.0 1500.0">
    <title>
        Pattern design from http://ornamentist.org
    </title>
    <desc>
        This file is licensed under a Creative Commons CC BY 4.0 license: http://creativecommons.org/licenses/by/4.0/
    </desc>
    <defs>
        <style>
<![CDATA[
        
polyline {
  fill:            none;
  stroke:          black;
  stroke-linecap:  round;
  stroke-linejoin: round;
  stroke-width:    2.0pt;
}


polyline.closed {
  fill:      #d9d9d9;
  fill-rule: evenodd;
}


polygon {
  fill:            #d9d9d9;
  fill-rule:       evenodd;
  stroke:          black;
  stroke-linejoin: round;
  stroke-width:    2.0pt;
}


circle {
  fill:         #d9d9d9;
  stroke:       black;
  stroke-width: 2.0pt;
}


ellipse {
  fill:         #d9d9d9;
  stroke:       black;
  stroke-width: 2.0pt;
}


path {
  fill:            none;
  stroke:          black;
  stroke-linecap:  round;
  stroke-linejoin: round;
  stroke-width:    2.0pt;
}


path.closed {
  fill:      #d9d9d9;
  fill-rule: evenodd;
}


polygon.background,
path.background
{
  fill:   #fbfbfb;
  stroke: #c9c9c9;
  stroke-width: 1.5pt;
}

        ]]>
        </style>
    </defs>
    <clipPath id="design">
        <path d="M-100-75h2800v1500H-100z"/>
    </clipPath>
    <g clip-path="url(#design)" color-rendering="optimizeQuality" shape-rendering="geometricPrecision" id="graphics">
        <path class="background closed" d="M2700-75v1500H-100V-75z"/>
        <path d="M100 75Q-100 75 0-75M100 75Q-100 75 0 225M100 225q200 0 100-150M100-75q200 0 100 150M100 375q-200 0-100-150M100 375q-200 0-100 150M100 525q200 0 100-150M100 225q200 0 100 150M100 675q-200 0-100-150M100 675q-200 0-100 150M100 825q200 0 100-150M100 525q200 0 100 150M100 975q-200 0-100-150M100 975q-200 0-100 150M100 1125q200 0 100-150M100 825q200 0 100 150M100 1275q-200 0-100-150M100 1275q-200 0-100 150M100 1425q200 0 100-150M100 1125q200 0 100 150M500 75Q300 75 400-75M500 75q-200 0-100 150M500 225q200 0 100-150M500-75q200 0 100 150M500 375q-200 0-100-150M500 375q-200 0-100 150M500 525q200 0 100-150M500 225q200 0 100 150M500 675q-200 0-100-150M500 675q-200 0-100 150M500 825q200 0 100-150M500 525q200 0 100 150M500 975q-200 0-100-150M500 975q-200 0-100 150M500 1125q200 0 100-150M500 825q200 0 100 150M500 1275q-200 0-100-150M500 1275q-200 0-100 150M500 1425q200 0 100-150M500 1125q200 0 100 150M900 75Q700 75 800-75M900 75q-200 0-100 150M900 225q200 0 100-150M900-75q200 0 100 150M900 375q-200 0-100-150M900 375q-200 0-100 150M900 525q200 0 100-150M900 225q200 0 100 150M900 675q-200 0-100-150M900 675q-200 0-100 150M900 825q200 0 100-150M900 525q200 0 100 150M900 975q-200 0-100-150M900 975q-200 0-100 150M900 1125q200 0 100-150M900 825q200 0 100 150M900 1275q-200 0-100-150M900 1275q-200 0-100 150M900 1425q200 0 100-150M900 1125q200 0 100 150M1300 75q-200 0-100-150M1300 75q-200 0-100 150M1300 225q200 0 100-150M1300-75q200 0 100 150M1300 375q-200 0-100-150M1300 375q-200 0-100 150M1300 525q200 0 100-150M1300 225q200 0 100 150M1300 675q-200 0-100-150M1300 675q-200 0-100 150M1300 825q200 0 100-150M1300 525q200 0 100 150M1300 975q-200 0-100-150M1300 975q-200 0-100 150M1300 1125q200 0 100-150M1300 825q200 0 100 150M1300 1275q-200 0-100-150M1300 1275q-200 0-100 150M1300 1425q200 0 100-150M1300 1125q200 0 100 150M1700 75q-200 0-100-150M1700 75q-200 0-100 150M1700 225q200 0 100-150M1700-75q200 0 100 150M1700 375q-200 0-100-150M1700 375q-200 0-100 150M1700 525q200 0 100-150M1700 225q200 0 100 150M1700 675q-200 0-100-150M1700 675q-200 0-100 150M1700 825q200 0 100-150M1700 525q200 0 100 150M1700 975q-200 0-100-150M1700 975q-200 0-100 150M1700 1125q200 0 100-150M1700 825q200 0 100 150M1700 1275q-200 0-100-150M1700 1275q-200 0-100 150M1700 1425q200 0 100-150M1700 1125q200 0 100 150M2100 75q-200 0-100-150M2100 75q-200 0-100 150M2100 225q200 0 100-150M2100-75q200 0 100 150M2100 375q-200 0-100-150M2100 375q-200 0-100 150M2100 525q200 0 100-150M2100 225q200 0 100 150M2100 675q-200 0-100-150M2100 675q-200 0-100 150M2100 825q200 0 100-150M2100 525q200 0 100 150M2100 975q-200 0-100-150M2100 975q-200 0-100 150M2100 1125q200 0 100-150M2100 825q200 0 100 150M2100 1275q-200 0-100-150M2100 1275q-200 0-100 150M2100 1425q200 0 100-150M2100 1125q200 0 100 150M2500 75q-200 0-100-150M2500 75q-200 0-100 150M2500 225q200 0 100-150M2500-75q200 0 100 150M2500 375q-200 0-100-150M2500 375q-200 0-100 150M2500 525q200 0 100-150M2500 225q200 0 100 150M2500 675q-200 0-100-150M2500 675q-200 0-100 150M2500 825q200 0 100-150M2500 525q200 0 100 150M2500 975q-200 0-100-150M2500 975q-200 0-100 150M2500 1125q200 0 100-150M2500 825q200 0 100 150M2500 1275q-200 0-100-150M2500 1275q-200 0-100 150M2500 1425q200 0 100-150M2500 1125q200 0 100 150" class="bezier-2-1 open"/>
    </g>
</svg>
