%!PS-Adobe-2.0 EPSF-2.0
%%BoundingBox: 0 0 2800 1500
%%HiResBoundingBox: 0.000000 0.000000 2800.000000 1500.000000
%%Creator: cairo 1.14.2 (http://cairographics.org)
%%CreationDate: Mon Sep  7 08:21:55 2015
%%DocumentData: Clean7Bit
%%LanguageLevel: 2
%%DocumentMedia: 988x529mm 2800 1500 0 () ()
%%EndComments
% EPSF created by ps2eps 1.68
%%BeginProlog
save
countdictstack
mark
newpath
/showpage {} def
/setpagedevice {pop} def
%%EndProlog
%%Page 1 1
%%BeginProlog
/languagelevel where
{ pop languagelevel } { 1 } ifelse
2 lt { /Helvetica findfont 12 scalefont setfont 50 500 moveto
  (This print job requires a PostScript Language Level 2 printer.) show
  showpage quit } if
/q { gsave } bind def
/Q { grestore } bind def
/cm { 6 array astore concat } bind def
/w { setlinewidth } bind def
/J { setlinecap } bind def
/j { setlinejoin } bind def
/M { setmiterlimit } bind def
/d { setdash } bind def
/m { moveto } bind def
/l { lineto } bind def
/c { curveto } bind def
/h { closepath } bind def
/re { exch dup neg 3 1 roll 5 3 roll moveto 0 rlineto
      0 exch rlineto 0 rlineto closepath } bind def
/S { stroke } bind def
/f { fill } bind def
/f* { eofill } bind def
/n { newpath } bind def
/W { clip } bind def
/W* { eoclip } bind def
/BT { } bind def
/ET { } bind def
/pdfmark where { pop globaldict /?pdfmark /exec load put }
    { globaldict begin /?pdfmark /pop load def /pdfmark
    /cleartomark load def end } ifelse
/BDC { mark 3 1 roll /BDC pdfmark } bind def
/EMC { mark /EMC pdfmark } bind def
/cairo_store_point { /cairo_point_y exch def /cairo_point_x exch def } def
/Tj { show currentpoint cairo_store_point } bind def
/TJ {
  {
    dup
    type /stringtype eq
    { show } { -0.001 mul 0 cairo_font_matrix dtransform rmoveto } ifelse
  } forall
  currentpoint cairo_store_point
} bind def
/cairo_selectfont { cairo_font_matrix aload pop pop pop 0 0 6 array astore
    cairo_font exch selectfont cairo_point_x cairo_point_y moveto } bind def
/Tf { pop /cairo_font exch def /cairo_font_matrix where
      { pop cairo_selectfont } if } bind def
/Td { matrix translate cairo_font_matrix matrix concatmatrix dup
      /cairo_font_matrix exch def dup 4 get exch 5 get cairo_store_point
      /cairo_font where { pop cairo_selectfont } if } bind def
/Tm { 2 copy 8 2 roll 6 array astore /cairo_font_matrix exch def
      cairo_store_point /cairo_font where { pop cairo_selectfont } if } bind def
/g { setgray } bind def
/rg { setrgbcolor } bind def
/d1 { setcachedevice } bind def
/cairo_set_page_size {
  % Change paper size, but only if different from previous paper size otherwise
  % duplex fails. PLRM specifies a tolerance of 5 pts when matching paper size
  % so we use the same when checking if the size changes.
  /setpagedevice where {
    pop currentpagedevice
    /PageSize known {
      2 copy
      currentpagedevice /PageSize get aload pop
      exch 4 1 roll
      sub abs 5 gt
      3 1 roll
      sub abs 5 gt
      or
    } {
      true
    } ifelse
    {
      2 array astore
      2 dict begin
        /PageSize exch def
        /ImagingBBox null def
      currentdict end
      setpagedevice
    } {
      pop pop
    } ifelse
  } {
    pop
  } ifelse
} def
%%EndProlog
%%BeginSetup
%%EndSetup
%%Page: 1 1
%%BeginPageSetup
%%PageMedia: 988x529mm
%%PageBoundingBox: 0 0 2800 1500
2800 1500 cairo_set_page_size
%%EndPageSetup
q 0 0 2800 1500 rectclip q
0.984314 g
0 0 2800 1500 rectfill
0.788235 g
1.875 w
0 J
1 j
[] 0.0 d
4 M 0 1500 2800 -1500 re S
0 g
2.5 w
1 J
200 1350 m 0 1350 100 1350 200 1500 c S
200 1350 m 0 1350 100 1350 200 1200 c S
200 1200 m 400 1200 300 1200 200 1350 c S
200 1500 m 400 1500 300 1500 200 1350 c S
200 1050 m 0 1050 100 1050 200 1200 c S
200 1050 m 0 1050 100 1050 200 900 c S
200 900 m 400 900 300 900 200 1050 c S
200 1200 m 400 1200 300 1200 200 1050 c S
200 750 m 0 750 100 750 200 900 c S
200 750 m 0 750 100 750 200 600 c S
200 600 m 400 600 300 600 200 750 c S
200 900 m 400 900 300 900 200 750 c S
200 450 m 0 450 100 450 200 600 c S
200 450 m 0 450 100 450 200 300 c S
200 300 m 400 300 300 300 200 450 c S
200 600 m 400 600 300 600 200 450 c S
200 150 m 0 150 100 150 200 300 c S
200 150 m 0 150 100 150 200 0 c S
200 0 m 400 0 300 0 200 150 c S
200 300 m 400 300 300 300 200 150 c S
600 1350 m 400 1350 500 1350 600 1500 c S
600 1350 m 400 1350 500 1350 600 1200 c S
600 1200 m 800 1200 700 1200 600 1350 c S
600 1500 m 800 1500 700 1500 600 1350 c S
600 1050 m 400 1050 500 1050 600 1200 c S
600 1050 m 400 1050 500 1050 600 900 c S
600 900 m 800 900 700 900 600 1050 c S
600 1200 m 800 1200 700 1200 600 1050 c S
600 750 m 400 750 500 750 600 900 c S
600 750 m 400 750 500 750 600 600 c S
600 600 m 800 600 700 600 600 750 c S
600 900 m 800 900 700 900 600 750 c S
600 450 m 400 450 500 450 600 600 c S
600 450 m 400 450 500 450 600 300 c S
600 300 m 800 300 700 300 600 450 c S
600 600 m 800 600 700 600 600 450 c S
600 150 m 400 150 500 150 600 300 c S
600 150 m 400 150 500 150 600 0 c S
600 0 m 800 0 700 0 600 150 c S
600 300 m 800 300 700 300 600 150 c S
1000 1350 m 800 1350 900 1350 1000 1500 c S
1000 1350 m 800 1350 900 1350 1000 1200 c S
1000 1200 m 1200 1200 1100 1200 1000 1350 c S
1000 1500 m 1200 1500 1100 1500 1000 1350 c S
1000 1050 m 800 1050 900 1050 1000 1200 c S
1000 1050 m 800 1050 900 1050 1000 900 c S
1000 900 m 1200 900 1100 900 1000 1050 c S
1000 1200 m 1200 1200 1100 1200 1000 1050 c S
1000 750 m 800 750 900 750 1000 900 c S
1000 750 m 800 750 900 750 1000 600 c S
1000 600 m 1200 600 1100 600 1000 750 c S
1000 900 m 1200 900 1100 900 1000 750 c S
1000 450 m 800 450 900 450 1000 600 c S
1000 450 m 800 450 900 450 1000 300 c S
1000 300 m 1200 300 1100 300 1000 450 c S
1000 600 m 1200 600 1100 600 1000 450 c S
1000 150 m 800 150 900 150 1000 300 c S
1000 150 m 800 150 900 150 1000 0 c S
1000 0 m 1200 0 1100 0 1000 150 c S
1000 300 m 1200 300 1100 300 1000 150 c S
1400 1350 m 1200 1350 1300 1350 1400 1500 c S
1400 1350 m 1200 1350 1300 1350 1400 1200 c S
1400 1200 m 1600 1200 1500 1200 1400 1350 c S
1400 1500 m 1600 1500 1500 1500 1400 1350 c S
1400 1050 m 1200 1050 1300 1050 1400 1200 c S
1400 1050 m 1200 1050 1300 1050 1400 900 c S
1400 900 m 1600 900 1500 900 1400 1050 c S
1400 1200 m 1600 1200 1500 1200 1400 1050 c S
1400 750 m 1200 750 1300 750 1400 900 c S
1400 750 m 1200 750 1300 750 1400 600 c S
1400 600 m 1600 600 1500 600 1400 750 c S
1400 900 m 1600 900 1500 900 1400 750 c S
1400 450 m 1200 450 1300 450 1400 600 c S
1400 450 m 1200 450 1300 450 1400 300 c S
1400 300 m 1600 300 1500 300 1400 450 c S
1400 600 m 1600 600 1500 600 1400 450 c S
1400 150 m 1200 150 1300 150 1400 300 c S
1400 150 m 1200 150 1300 150 1400 0 c S
1400 0 m 1600 0 1500 0 1400 150 c S
1400 300 m 1600 300 1500 300 1400 150 c S
1800 1350 m 1600 1350 1700 1350 1800 1500 c S
1800 1350 m 1600 1350 1700 1350 1800 1200 c S
1800 1200 m 2000 1200 1900 1200 1800 1350 c S
1800 1500 m 2000 1500 1900 1500 1800 1350 c S
1800 1050 m 1600 1050 1700 1050 1800 1200 c S
1800 1050 m 1600 1050 1700 1050 1800 900 c S
1800 900 m 2000 900 1900 900 1800 1050 c S
1800 1200 m 2000 1200 1900 1200 1800 1050 c S
1800 750 m 1600 750 1700 750 1800 900 c S
1800 750 m 1600 750 1700 750 1800 600 c S
1800 600 m 2000 600 1900 600 1800 750 c S
1800 900 m 2000 900 1900 900 1800 750 c S
1800 450 m 1600 450 1700 450 1800 600 c S
1800 450 m 1600 450 1700 450 1800 300 c S
1800 300 m 2000 300 1900 300 1800 450 c S
1800 600 m 2000 600 1900 600 1800 450 c S
1800 150 m 1600 150 1700 150 1800 300 c S
1800 150 m 1600 150 1700 150 1800 0 c S
1800 0 m 2000 0 1900 0 1800 150 c S
1800 300 m 2000 300 1900 300 1800 150 c S
2200 1350 m 2000 1350 2100 1350 2200 1500 c S
2200 1350 m 2000 1350 2100 1350 2200 1200 c S
2200 1200 m 2400 1200 2300 1200 2200 1350 c S
2200 1500 m 2400 1500 2300 1500 2200 1350 c S
2200 1050 m 2000 1050 2100 1050 2200 1200 c S
2200 1050 m 2000 1050 2100 1050 2200 900 c S
2200 900 m 2400 900 2300 900 2200 1050 c S
2200 1200 m 2400 1200 2300 1200 2200 1050 c S
2200 750 m 2000 750 2100 750 2200 900 c S
2200 750 m 2000 750 2100 750 2200 600 c S
2200 600 m 2400 600 2300 600 2200 750 c S
2200 900 m 2400 900 2300 900 2200 750 c S
2200 450 m 2000 450 2100 450 2200 600 c S
2200 450 m 2000 450 2100 450 2200 300 c S
2200 300 m 2400 300 2300 300 2200 450 c S
2200 600 m 2400 600 2300 600 2200 450 c S
2200 150 m 2000 150 2100 150 2200 300 c S
2200 150 m 2000 150 2100 150 2200 0 c S
2200 0 m 2400 0 2300 0 2200 150 c S
2200 300 m 2400 300 2300 300 2200 150 c S
2600 1350 m 2400 1350 2500 1350 2600 1500 c S
2600 1350 m 2400 1350 2500 1350 2600 1200 c S
2600 1200 m 2800 1200 2700 1200 2600 1350 c S
2600 1500 m 2800 1500 2700 1500 2600 1350 c S
2600 1050 m 2400 1050 2500 1050 2600 1200 c S
2600 1050 m 2400 1050 2500 1050 2600 900 c S
2600 900 m 2800 900 2700 900 2600 1050 c S
2600 1200 m 2800 1200 2700 1200 2600 1050 c S
2600 750 m 2400 750 2500 750 2600 900 c S
2600 750 m 2400 750 2500 750 2600 600 c S
2600 600 m 2800 600 2700 600 2600 750 c S
2600 900 m 2800 900 2700 900 2600 750 c S
2600 450 m 2400 450 2500 450 2600 600 c S
2600 450 m 2400 450 2500 450 2600 300 c S
2600 300 m 2800 300 2700 300 2600 450 c S
2600 600 m 2800 600 2700 600 2600 450 c S
2600 150 m 2400 150 2500 150 2600 300 c S
2600 150 m 2400 150 2500 150 2600 0 c S
2600 0 m 2800 0 2700 0 2600 150 c S
2600 300 m 2800 300 2700 300 2600 150 c S
Q Q
showpage
%%Trailer
%%Trailer
cleartomark
countdictstack
exch sub { end } repeat
restore
%%EOF
