%!PS-Adobe-2.0 EPSF-2.0
%%BoundingBox: 0 0 2800 1500
%%HiResBoundingBox: 0.000000 0.000000 2800.000000 1500.000000
%%Creator: cairo 1.14.2 (http://cairographics.org)
%%CreationDate: Mon Sep  7 08:21:56 2015
%%DocumentData: Clean7Bit
%%LanguageLevel: 2
%%DocumentMedia: 988x529mm 2800 1500 0 () ()
%%EndComments
% EPSF created by ps2eps 1.68
%%BeginProlog
save
countdictstack
mark
newpath
/showpage {} def
/setpagedevice {pop} def
%%EndProlog
%%Page 1 1
%%BeginProlog
/languagelevel where
{ pop languagelevel } { 1 } ifelse
2 lt { /Helvetica findfont 12 scalefont setfont 50 500 moveto
  (This print job requires a PostScript Language Level 2 printer.) show
  showpage quit } if
/q { gsave } bind def
/Q { grestore } bind def
/cm { 6 array astore concat } bind def
/w { setlinewidth } bind def
/J { setlinecap } bind def
/j { setlinejoin } bind def
/M { setmiterlimit } bind def
/d { setdash } bind def
/m { moveto } bind def
/l { lineto } bind def
/c { curveto } bind def
/h { closepath } bind def
/re { exch dup neg 3 1 roll 5 3 roll moveto 0 rlineto
      0 exch rlineto 0 rlineto closepath } bind def
/S { stroke } bind def
/f { fill } bind def
/f* { eofill } bind def
/n { newpath } bind def
/W { clip } bind def
/W* { eoclip } bind def
/BT { } bind def
/ET { } bind def
/pdfmark where { pop globaldict /?pdfmark /exec load put }
    { globaldict begin /?pdfmark /pop load def /pdfmark
    /cleartomark load def end } ifelse
/BDC { mark 3 1 roll /BDC pdfmark } bind def
/EMC { mark /EMC pdfmark } bind def
/cairo_store_point { /cairo_point_y exch def /cairo_point_x exch def } def
/Tj { show currentpoint cairo_store_point } bind def
/TJ {
  {
    dup
    type /stringtype eq
    { show } { -0.001 mul 0 cairo_font_matrix dtransform rmoveto } ifelse
  } forall
  currentpoint cairo_store_point
} bind def
/cairo_selectfont { cairo_font_matrix aload pop pop pop 0 0 6 array astore
    cairo_font exch selectfont cairo_point_x cairo_point_y moveto } bind def
/Tf { pop /cairo_font exch def /cairo_font_matrix where
      { pop cairo_selectfont } if } bind def
/Td { matrix translate cairo_font_matrix matrix concatmatrix dup
      /cairo_font_matrix exch def dup 4 get exch 5 get cairo_store_point
      /cairo_font where { pop cairo_selectfont } if } bind def
/Tm { 2 copy 8 2 roll 6 array astore /cairo_font_matrix exch def
      cairo_store_point /cairo_font where { pop cairo_selectfont } if } bind def
/g { setgray } bind def
/rg { setrgbcolor } bind def
/d1 { setcachedevice } bind def
/cairo_set_page_size {
  % Change paper size, but only if different from previous paper size otherwise
  % duplex fails. PLRM specifies a tolerance of 5 pts when matching paper size
  % so we use the same when checking if the size changes.
  /setpagedevice where {
    pop currentpagedevice
    /PageSize known {
      2 copy
      currentpagedevice /PageSize get aload pop
      exch 4 1 roll
      sub abs 5 gt
      3 1 roll
      sub abs 5 gt
      or
    } {
      true
    } ifelse
    {
      2 array astore
      2 dict begin
        /PageSize exch def
        /ImagingBBox null def
      currentdict end
      setpagedevice
    } {
      pop pop
    } ifelse
  } {
    pop
  } ifelse
} def
%%EndProlog
%%BeginSetup
%%EndSetup
%%Page: 1 1
%%BeginPageSetup
%%PageMedia: 988x529mm
%%PageBoundingBox: 0 0 2800 1500
2800 1500 cairo_set_page_size
%%EndPageSetup
q 0 0 2800 1500 rectclip q
0.984314 g
0 0 2800 1500 rectfill
0.788235 g
1.875 w
0 J
1 j
[] 0.0 d
4 M 0 1500 2800 -1500 re S
0.85098 g
133.332 1450 m 133.332 1350 l 0 1400 l 0 1500 l h
133.332 1450 m f*
0 g
2.5 w
133.332 1450 m 133.332 1350 l 0 1400 l 0 1500 l h
133.332 1450 m S
0.85098 g
266.668 1450 m 400 1500 l 400 1400 l 266.668 1350 l h
266.668 1450 m f*
0 g
266.668 1450 m 400 1500 l 400 1400 l 266.668 1350 l h
266.668 1450 m S
0.85098 g
133.332 1250 m 0 1200 l 0 1300 l 133.332 1350 l h
133.332 1250 m f*
0 g
133.332 1250 m 0 1200 l 0 1300 l 133.332 1350 l h
133.332 1250 m S
0.85098 g
266.668 1250 m 266.668 1350 l 400 1300 l 400 1200 l h
266.668 1250 m f*
0 g
266.668 1250 m 266.668 1350 l 400 1300 l 400 1200 l h
266.668 1250 m S
0.85098 g
133.332 1150 m 133.332 1050 l 0 1100 l 0 1200 l h
133.332 1150 m f*
0 g
133.332 1150 m 133.332 1050 l 0 1100 l 0 1200 l h
133.332 1150 m S
0.85098 g
266.668 1150 m 400 1200 l 400 1100 l 266.668 1050 l h
266.668 1150 m f*
0 g
266.668 1150 m 400 1200 l 400 1100 l 266.668 1050 l h
266.668 1150 m S
0.85098 g
133.332 950 m 0 900 l 0 1000 l 133.332 1050 l h
133.332 950 m f*
0 g
133.332 950 m 0 900 l 0 1000 l 133.332 1050 l h
133.332 950 m S
0.85098 g
266.668 950 m 266.668 1050 l 400 1000 l 400 900 l h
266.668 950 m f*
0 g
266.668 950 m 266.668 1050 l 400 1000 l 400 900 l h
266.668 950 m S
0.85098 g
133.332 850 m 133.332 750 l 0 800 l 0 900 l h
133.332 850 m f*
0 g
133.332 850 m 133.332 750 l 0 800 l 0 900 l h
133.332 850 m S
0.85098 g
266.668 850 m 400 900 l 400 800 l 266.668 750 l h
266.668 850 m f*
0 g
266.668 850 m 400 900 l 400 800 l 266.668 750 l h
266.668 850 m S
0.85098 g
133.332 650 m 0 600 l 0 700 l 133.332 750 l h
133.332 650 m f*
0 g
133.332 650 m 0 600 l 0 700 l 133.332 750 l h
133.332 650 m S
0.85098 g
266.668 650 m 266.668 750 l 400 700 l 400 600 l h
266.668 650 m f*
0 g
266.668 650 m 266.668 750 l 400 700 l 400 600 l h
266.668 650 m S
0.85098 g
133.332 550 m 133.332 450 l 0 500 l 0 600 l h
133.332 550 m f*
0 g
133.332 550 m 133.332 450 l 0 500 l 0 600 l h
133.332 550 m S
0.85098 g
266.668 550 m 400 600 l 400 500 l 266.668 450 l h
266.668 550 m f*
0 g
266.668 550 m 400 600 l 400 500 l 266.668 450 l h
266.668 550 m S
0.85098 g
133.332 350 m 0 300 l 0 400 l 133.332 450 l h
133.332 350 m f*
0 g
133.332 350 m 0 300 l 0 400 l 133.332 450 l h
133.332 350 m S
0.85098 g
266.668 350 m 266.668 450 l 400 400 l 400 300 l h
266.668 350 m f*
0 g
266.668 350 m 266.668 450 l 400 400 l 400 300 l h
266.668 350 m S
0.85098 g
133.332 250 m 133.332 150 l 0 200 l 0 300 l h
133.332 250 m f*
0 g
133.332 250 m 133.332 150 l 0 200 l 0 300 l h
133.332 250 m S
0.85098 g
266.668 250 m 400 300 l 400 200 l 266.668 150 l h
266.668 250 m f*
0 g
266.668 250 m 400 300 l 400 200 l 266.668 150 l h
266.668 250 m S
0.85098 g
133.332 50 m 0 0 l 0 100 l 133.332 150 l h
133.332 50 m f*
0 g
133.332 50 m 0 0 l 0 100 l 133.332 150 l h
133.332 50 m S
0.85098 g
266.668 50 m 266.668 150 l 400 100 l 400 0 l h
266.668 50 m f*
0 g
266.668 50 m 266.668 150 l 400 100 l 400 0 l h
266.668 50 m S
0.85098 g
533.332 1450 m 533.332 1350 l 400 1400 l 400 1500 l h
533.332 1450 m f*
0 g
533.332 1450 m 533.332 1350 l 400 1400 l 400 1500 l h
533.332 1450 m S
0.85098 g
666.668 1450 m 800 1500 l 800 1400 l 666.668 1350 l h
666.668 1450 m f*
0 g
666.668 1450 m 800 1500 l 800 1400 l 666.668 1350 l h
666.668 1450 m S
0.85098 g
533.332 1250 m 400 1200 l 400 1300 l 533.332 1350 l h
533.332 1250 m f*
0 g
533.332 1250 m 400 1200 l 400 1300 l 533.332 1350 l h
533.332 1250 m S
0.85098 g
666.668 1250 m 666.668 1350 l 800 1300 l 800 1200 l h
666.668 1250 m f*
0 g
666.668 1250 m 666.668 1350 l 800 1300 l 800 1200 l h
666.668 1250 m S
0.85098 g
533.332 1150 m 533.332 1050 l 400 1100 l 400 1200 l h
533.332 1150 m f*
0 g
533.332 1150 m 533.332 1050 l 400 1100 l 400 1200 l h
533.332 1150 m S
0.85098 g
666.668 1150 m 800 1200 l 800 1100 l 666.668 1050 l h
666.668 1150 m f*
0 g
666.668 1150 m 800 1200 l 800 1100 l 666.668 1050 l h
666.668 1150 m S
0.85098 g
533.332 950 m 400 900 l 400 1000 l 533.332 1050 l h
533.332 950 m f*
0 g
533.332 950 m 400 900 l 400 1000 l 533.332 1050 l h
533.332 950 m S
0.85098 g
666.668 950 m 666.668 1050 l 800 1000 l 800 900 l h
666.668 950 m f*
0 g
666.668 950 m 666.668 1050 l 800 1000 l 800 900 l h
666.668 950 m S
0.85098 g
533.332 850 m 533.332 750 l 400 800 l 400 900 l h
533.332 850 m f*
0 g
533.332 850 m 533.332 750 l 400 800 l 400 900 l h
533.332 850 m S
0.85098 g
666.668 850 m 800 900 l 800 800 l 666.668 750 l h
666.668 850 m f*
0 g
666.668 850 m 800 900 l 800 800 l 666.668 750 l h
666.668 850 m S
0.85098 g
533.332 650 m 400 600 l 400 700 l 533.332 750 l h
533.332 650 m f*
0 g
533.332 650 m 400 600 l 400 700 l 533.332 750 l h
533.332 650 m S
0.85098 g
666.668 650 m 666.668 750 l 800 700 l 800 600 l h
666.668 650 m f*
0 g
666.668 650 m 666.668 750 l 800 700 l 800 600 l h
666.668 650 m S
0.85098 g
533.332 550 m 533.332 450 l 400 500 l 400 600 l h
533.332 550 m f*
0 g
533.332 550 m 533.332 450 l 400 500 l 400 600 l h
533.332 550 m S
0.85098 g
666.668 550 m 800 600 l 800 500 l 666.668 450 l h
666.668 550 m f*
0 g
666.668 550 m 800 600 l 800 500 l 666.668 450 l h
666.668 550 m S
0.85098 g
533.332 350 m 400 300 l 400 400 l 533.332 450 l h
533.332 350 m f*
0 g
533.332 350 m 400 300 l 400 400 l 533.332 450 l h
533.332 350 m S
0.85098 g
666.668 350 m 666.668 450 l 800 400 l 800 300 l h
666.668 350 m f*
0 g
666.668 350 m 666.668 450 l 800 400 l 800 300 l h
666.668 350 m S
0.85098 g
533.332 250 m 533.332 150 l 400 200 l 400 300 l h
533.332 250 m f*
0 g
533.332 250 m 533.332 150 l 400 200 l 400 300 l h
533.332 250 m S
0.85098 g
666.668 250 m 800 300 l 800 200 l 666.668 150 l h
666.668 250 m f*
0 g
666.668 250 m 800 300 l 800 200 l 666.668 150 l h
666.668 250 m S
0.85098 g
533.332 50 m 400 0 l 400 100 l 533.332 150 l h
533.332 50 m f*
0 g
533.332 50 m 400 0 l 400 100 l 533.332 150 l h
533.332 50 m S
0.85098 g
666.668 50 m 666.668 150 l 800 100 l 800 0 l h
666.668 50 m f*
0 g
666.668 50 m 666.668 150 l 800 100 l 800 0 l h
666.668 50 m S
0.85098 g
933.332 1450 m 933.332 1350 l 800 1400 l 800 1500 l h
933.332 1450 m f*
0 g
933.332 1450 m 933.332 1350 l 800 1400 l 800 1500 l h
933.332 1450 m S
0.85098 g
1066.668 1450 m 1200 1500 l 1200 1400 l 1066.668 1350 l h
1066.668 1450 m f*
0 g
1066.668 1450 m 1200 1500 l 1200 1400 l 1066.668 1350 l h
1066.668 1450 m S
0.85098 g
933.332 1250 m 800 1200 l 800 1300 l 933.332 1350 l h
933.332 1250 m f*
0 g
933.332 1250 m 800 1200 l 800 1300 l 933.332 1350 l h
933.332 1250 m S
0.85098 g
1066.668 1250 m 1066.668 1350 l 1200 1300 l 1200 1200 l h
1066.668 1250 m f*
0 g
1066.668 1250 m 1066.668 1350 l 1200 1300 l 1200 1200 l h
1066.668 1250 m S
0.85098 g
933.332 1150 m 933.332 1050 l 800 1100 l 800 1200 l h
933.332 1150 m f*
0 g
933.332 1150 m 933.332 1050 l 800 1100 l 800 1200 l h
933.332 1150 m S
0.85098 g
1066.668 1150 m 1200 1200 l 1200 1100 l 1066.668 1050 l h
1066.668 1150 m f*
0 g
1066.668 1150 m 1200 1200 l 1200 1100 l 1066.668 1050 l h
1066.668 1150 m S
0.85098 g
933.332 950 m 800 900 l 800 1000 l 933.332 1050 l h
933.332 950 m f*
0 g
933.332 950 m 800 900 l 800 1000 l 933.332 1050 l h
933.332 950 m S
0.85098 g
1066.668 950 m 1066.668 1050 l 1200 1000 l 1200 900 l h
1066.668 950 m f*
0 g
1066.668 950 m 1066.668 1050 l 1200 1000 l 1200 900 l h
1066.668 950 m S
0.85098 g
933.332 850 m 933.332 750 l 800 800 l 800 900 l h
933.332 850 m f*
0 g
933.332 850 m 933.332 750 l 800 800 l 800 900 l h
933.332 850 m S
0.85098 g
1066.668 850 m 1200 900 l 1200 800 l 1066.668 750 l h
1066.668 850 m f*
0 g
1066.668 850 m 1200 900 l 1200 800 l 1066.668 750 l h
1066.668 850 m S
0.85098 g
933.332 650 m 800 600 l 800 700 l 933.332 750 l h
933.332 650 m f*
0 g
933.332 650 m 800 600 l 800 700 l 933.332 750 l h
933.332 650 m S
0.85098 g
1066.668 650 m 1066.668 750 l 1200 700 l 1200 600 l h
1066.668 650 m f*
0 g
1066.668 650 m 1066.668 750 l 1200 700 l 1200 600 l h
1066.668 650 m S
0.85098 g
933.332 550 m 933.332 450 l 800 500 l 800 600 l h
933.332 550 m f*
0 g
933.332 550 m 933.332 450 l 800 500 l 800 600 l h
933.332 550 m S
0.85098 g
1066.668 550 m 1200 600 l 1200 500 l 1066.668 450 l h
1066.668 550 m f*
0 g
1066.668 550 m 1200 600 l 1200 500 l 1066.668 450 l h
1066.668 550 m S
0.85098 g
933.332 350 m 800 300 l 800 400 l 933.332 450 l h
933.332 350 m f*
0 g
933.332 350 m 800 300 l 800 400 l 933.332 450 l h
933.332 350 m S
0.85098 g
1066.668 350 m 1066.668 450 l 1200 400 l 1200 300 l h
1066.668 350 m f*
0 g
1066.668 350 m 1066.668 450 l 1200 400 l 1200 300 l h
1066.668 350 m S
0.85098 g
933.332 250 m 933.332 150 l 800 200 l 800 300 l h
933.332 250 m f*
0 g
933.332 250 m 933.332 150 l 800 200 l 800 300 l h
933.332 250 m S
0.85098 g
1066.668 250 m 1200 300 l 1200 200 l 1066.668 150 l h
1066.668 250 m f*
0 g
1066.668 250 m 1200 300 l 1200 200 l 1066.668 150 l h
1066.668 250 m S
0.85098 g
933.332 50 m 800 0 l 800 100 l 933.332 150 l h
933.332 50 m f*
0 g
933.332 50 m 800 0 l 800 100 l 933.332 150 l h
933.332 50 m S
0.85098 g
1066.668 50 m 1066.668 150 l 1200 100 l 1200 0 l h
1066.668 50 m f*
0 g
1066.668 50 m 1066.668 150 l 1200 100 l 1200 0 l h
1066.668 50 m S
0.85098 g
1333.332 1450 m 1333.332 1350 l 1200 1400 l 1200 1500 l h
1333.332 1450 m f*
0 g
1333.332 1450 m 1333.332 1350 l 1200 1400 l 1200 1500 l h
1333.332 1450 m S
0.85098 g
1466.668 1450 m 1600 1500 l 1600 1400 l 1466.668 1350 l h
1466.668 1450 m f*
0 g
1466.668 1450 m 1600 1500 l 1600 1400 l 1466.668 1350 l h
1466.668 1450 m S
0.85098 g
1333.332 1250 m 1200 1200 l 1200 1300 l 1333.332 1350 l h
1333.332 1250 m f*
0 g
1333.332 1250 m 1200 1200 l 1200 1300 l 1333.332 1350 l h
1333.332 1250 m S
0.85098 g
1466.668 1250 m 1466.668 1350 l 1600 1300 l 1600 1200 l h
1466.668 1250 m f*
0 g
1466.668 1250 m 1466.668 1350 l 1600 1300 l 1600 1200 l h
1466.668 1250 m S
0.85098 g
1333.332 1150 m 1333.332 1050 l 1200 1100 l 1200 1200 l h
1333.332 1150 m f*
0 g
1333.332 1150 m 1333.332 1050 l 1200 1100 l 1200 1200 l h
1333.332 1150 m S
0.85098 g
1466.668 1150 m 1600 1200 l 1600 1100 l 1466.668 1050 l h
1466.668 1150 m f*
0 g
1466.668 1150 m 1600 1200 l 1600 1100 l 1466.668 1050 l h
1466.668 1150 m S
0.85098 g
1333.332 950 m 1200 900 l 1200 1000 l 1333.332 1050 l h
1333.332 950 m f*
0 g
1333.332 950 m 1200 900 l 1200 1000 l 1333.332 1050 l h
1333.332 950 m S
0.85098 g
1466.668 950 m 1466.668 1050 l 1600 1000 l 1600 900 l h
1466.668 950 m f*
0 g
1466.668 950 m 1466.668 1050 l 1600 1000 l 1600 900 l h
1466.668 950 m S
0.85098 g
1333.332 850 m 1333.332 750 l 1200 800 l 1200 900 l h
1333.332 850 m f*
0 g
1333.332 850 m 1333.332 750 l 1200 800 l 1200 900 l h
1333.332 850 m S
0.85098 g
1466.668 850 m 1600 900 l 1600 800 l 1466.668 750 l h
1466.668 850 m f*
0 g
1466.668 850 m 1600 900 l 1600 800 l 1466.668 750 l h
1466.668 850 m S
0.85098 g
1333.332 650 m 1200 600 l 1200 700 l 1333.332 750 l h
1333.332 650 m f*
0 g
1333.332 650 m 1200 600 l 1200 700 l 1333.332 750 l h
1333.332 650 m S
0.85098 g
1466.668 650 m 1466.668 750 l 1600 700 l 1600 600 l h
1466.668 650 m f*
0 g
1466.668 650 m 1466.668 750 l 1600 700 l 1600 600 l h
1466.668 650 m S
0.85098 g
1333.332 550 m 1333.332 450 l 1200 500 l 1200 600 l h
1333.332 550 m f*
0 g
1333.332 550 m 1333.332 450 l 1200 500 l 1200 600 l h
1333.332 550 m S
0.85098 g
1466.668 550 m 1600 600 l 1600 500 l 1466.668 450 l h
1466.668 550 m f*
0 g
1466.668 550 m 1600 600 l 1600 500 l 1466.668 450 l h
1466.668 550 m S
0.85098 g
1333.332 350 m 1200 300 l 1200 400 l 1333.332 450 l h
1333.332 350 m f*
0 g
1333.332 350 m 1200 300 l 1200 400 l 1333.332 450 l h
1333.332 350 m S
0.85098 g
1466.668 350 m 1466.668 450 l 1600 400 l 1600 300 l h
1466.668 350 m f*
0 g
1466.668 350 m 1466.668 450 l 1600 400 l 1600 300 l h
1466.668 350 m S
0.85098 g
1333.332 250 m 1333.332 150 l 1200 200 l 1200 300 l h
1333.332 250 m f*
0 g
1333.332 250 m 1333.332 150 l 1200 200 l 1200 300 l h
1333.332 250 m S
0.85098 g
1466.668 250 m 1600 300 l 1600 200 l 1466.668 150 l h
1466.668 250 m f*
0 g
1466.668 250 m 1600 300 l 1600 200 l 1466.668 150 l h
1466.668 250 m S
0.85098 g
1333.332 50 m 1200 0 l 1200 100 l 1333.332 150 l h
1333.332 50 m f*
0 g
1333.332 50 m 1200 0 l 1200 100 l 1333.332 150 l h
1333.332 50 m S
0.85098 g
1466.668 50 m 1466.668 150 l 1600 100 l 1600 0 l h
1466.668 50 m f*
0 g
1466.668 50 m 1466.668 150 l 1600 100 l 1600 0 l h
1466.668 50 m S
0.85098 g
1733.332 1450 m 1733.332 1350 l 1600 1400 l 1600 1500 l h
1733.332 1450 m f*
0 g
1733.332 1450 m 1733.332 1350 l 1600 1400 l 1600 1500 l h
1733.332 1450 m S
0.85098 g
1866.668 1450 m 2000 1500 l 2000 1400 l 1866.668 1350 l h
1866.668 1450 m f*
0 g
1866.668 1450 m 2000 1500 l 2000 1400 l 1866.668 1350 l h
1866.668 1450 m S
0.85098 g
1733.332 1250 m 1600 1200 l 1600 1300 l 1733.332 1350 l h
1733.332 1250 m f*
0 g
1733.332 1250 m 1600 1200 l 1600 1300 l 1733.332 1350 l h
1733.332 1250 m S
0.85098 g
1866.668 1250 m 1866.668 1350 l 2000 1300 l 2000 1200 l h
1866.668 1250 m f*
0 g
1866.668 1250 m 1866.668 1350 l 2000 1300 l 2000 1200 l h
1866.668 1250 m S
0.85098 g
1733.332 1150 m 1733.332 1050 l 1600 1100 l 1600 1200 l h
1733.332 1150 m f*
0 g
1733.332 1150 m 1733.332 1050 l 1600 1100 l 1600 1200 l h
1733.332 1150 m S
0.85098 g
1866.668 1150 m 2000 1200 l 2000 1100 l 1866.668 1050 l h
1866.668 1150 m f*
0 g
1866.668 1150 m 2000 1200 l 2000 1100 l 1866.668 1050 l h
1866.668 1150 m S
0.85098 g
1733.332 950 m 1600 900 l 1600 1000 l 1733.332 1050 l h
1733.332 950 m f*
0 g
1733.332 950 m 1600 900 l 1600 1000 l 1733.332 1050 l h
1733.332 950 m S
0.85098 g
1866.668 950 m 1866.668 1050 l 2000 1000 l 2000 900 l h
1866.668 950 m f*
0 g
1866.668 950 m 1866.668 1050 l 2000 1000 l 2000 900 l h
1866.668 950 m S
0.85098 g
1733.332 850 m 1733.332 750 l 1600 800 l 1600 900 l h
1733.332 850 m f*
0 g
1733.332 850 m 1733.332 750 l 1600 800 l 1600 900 l h
1733.332 850 m S
0.85098 g
1866.668 850 m 2000 900 l 2000 800 l 1866.668 750 l h
1866.668 850 m f*
0 g
1866.668 850 m 2000 900 l 2000 800 l 1866.668 750 l h
1866.668 850 m S
0.85098 g
1733.332 650 m 1600 600 l 1600 700 l 1733.332 750 l h
1733.332 650 m f*
0 g
1733.332 650 m 1600 600 l 1600 700 l 1733.332 750 l h
1733.332 650 m S
0.85098 g
1866.668 650 m 1866.668 750 l 2000 700 l 2000 600 l h
1866.668 650 m f*
0 g
1866.668 650 m 1866.668 750 l 2000 700 l 2000 600 l h
1866.668 650 m S
0.85098 g
1733.332 550 m 1733.332 450 l 1600 500 l 1600 600 l h
1733.332 550 m f*
0 g
1733.332 550 m 1733.332 450 l 1600 500 l 1600 600 l h
1733.332 550 m S
0.85098 g
1866.668 550 m 2000 600 l 2000 500 l 1866.668 450 l h
1866.668 550 m f*
0 g
1866.668 550 m 2000 600 l 2000 500 l 1866.668 450 l h
1866.668 550 m S
0.85098 g
1733.332 350 m 1600 300 l 1600 400 l 1733.332 450 l h
1733.332 350 m f*
0 g
1733.332 350 m 1600 300 l 1600 400 l 1733.332 450 l h
1733.332 350 m S
0.85098 g
1866.668 350 m 1866.668 450 l 2000 400 l 2000 300 l h
1866.668 350 m f*
0 g
1866.668 350 m 1866.668 450 l 2000 400 l 2000 300 l h
1866.668 350 m S
0.85098 g
1733.332 250 m 1733.332 150 l 1600 200 l 1600 300 l h
1733.332 250 m f*
0 g
1733.332 250 m 1733.332 150 l 1600 200 l 1600 300 l h
1733.332 250 m S
0.85098 g
1866.668 250 m 2000 300 l 2000 200 l 1866.668 150 l h
1866.668 250 m f*
0 g
1866.668 250 m 2000 300 l 2000 200 l 1866.668 150 l h
1866.668 250 m S
0.85098 g
1733.332 50 m 1600 0 l 1600 100 l 1733.332 150 l h
1733.332 50 m f*
0 g
1733.332 50 m 1600 0 l 1600 100 l 1733.332 150 l h
1733.332 50 m S
0.85098 g
1866.668 50 m 1866.668 150 l 2000 100 l 2000 0 l h
1866.668 50 m f*
0 g
1866.668 50 m 1866.668 150 l 2000 100 l 2000 0 l h
1866.668 50 m S
0.85098 g
2133.332 1450 m 2133.332 1350 l 2000 1400 l 2000 1500 l h
2133.332 1450 m f*
0 g
2133.332 1450 m 2133.332 1350 l 2000 1400 l 2000 1500 l h
2133.332 1450 m S
0.85098 g
2266.668 1450 m 2400 1500 l 2400 1400 l 2266.668 1350 l h
2266.668 1450 m f*
0 g
2266.668 1450 m 2400 1500 l 2400 1400 l 2266.668 1350 l h
2266.668 1450 m S
0.85098 g
2133.332 1250 m 2000 1200 l 2000 1300 l 2133.332 1350 l h
2133.332 1250 m f*
0 g
2133.332 1250 m 2000 1200 l 2000 1300 l 2133.332 1350 l h
2133.332 1250 m S
0.85098 g
2266.668 1250 m 2266.668 1350 l 2400 1300 l 2400 1200 l h
2266.668 1250 m f*
0 g
2266.668 1250 m 2266.668 1350 l 2400 1300 l 2400 1200 l h
2266.668 1250 m S
0.85098 g
2133.332 1150 m 2133.332 1050 l 2000 1100 l 2000 1200 l h
2133.332 1150 m f*
0 g
2133.332 1150 m 2133.332 1050 l 2000 1100 l 2000 1200 l h
2133.332 1150 m S
0.85098 g
2266.668 1150 m 2400 1200 l 2400 1100 l 2266.668 1050 l h
2266.668 1150 m f*
0 g
2266.668 1150 m 2400 1200 l 2400 1100 l 2266.668 1050 l h
2266.668 1150 m S
0.85098 g
2133.332 950 m 2000 900 l 2000 1000 l 2133.332 1050 l h
2133.332 950 m f*
0 g
2133.332 950 m 2000 900 l 2000 1000 l 2133.332 1050 l h
2133.332 950 m S
0.85098 g
2266.668 950 m 2266.668 1050 l 2400 1000 l 2400 900 l h
2266.668 950 m f*
0 g
2266.668 950 m 2266.668 1050 l 2400 1000 l 2400 900 l h
2266.668 950 m S
0.85098 g
2133.332 850 m 2133.332 750 l 2000 800 l 2000 900 l h
2133.332 850 m f*
0 g
2133.332 850 m 2133.332 750 l 2000 800 l 2000 900 l h
2133.332 850 m S
0.85098 g
2266.668 850 m 2400 900 l 2400 800 l 2266.668 750 l h
2266.668 850 m f*
0 g
2266.668 850 m 2400 900 l 2400 800 l 2266.668 750 l h
2266.668 850 m S
0.85098 g
2133.332 650 m 2000 600 l 2000 700 l 2133.332 750 l h
2133.332 650 m f*
0 g
2133.332 650 m 2000 600 l 2000 700 l 2133.332 750 l h
2133.332 650 m S
0.85098 g
2266.668 650 m 2266.668 750 l 2400 700 l 2400 600 l h
2266.668 650 m f*
0 g
2266.668 650 m 2266.668 750 l 2400 700 l 2400 600 l h
2266.668 650 m S
0.85098 g
2133.332 550 m 2133.332 450 l 2000 500 l 2000 600 l h
2133.332 550 m f*
0 g
2133.332 550 m 2133.332 450 l 2000 500 l 2000 600 l h
2133.332 550 m S
0.85098 g
2266.668 550 m 2400 600 l 2400 500 l 2266.668 450 l h
2266.668 550 m f*
0 g
2266.668 550 m 2400 600 l 2400 500 l 2266.668 450 l h
2266.668 550 m S
0.85098 g
2133.332 350 m 2000 300 l 2000 400 l 2133.332 450 l h
2133.332 350 m f*
0 g
2133.332 350 m 2000 300 l 2000 400 l 2133.332 450 l h
2133.332 350 m S
0.85098 g
2266.668 350 m 2266.668 450 l 2400 400 l 2400 300 l h
2266.668 350 m f*
0 g
2266.668 350 m 2266.668 450 l 2400 400 l 2400 300 l h
2266.668 350 m S
0.85098 g
2133.332 250 m 2133.332 150 l 2000 200 l 2000 300 l h
2133.332 250 m f*
0 g
2133.332 250 m 2133.332 150 l 2000 200 l 2000 300 l h
2133.332 250 m S
0.85098 g
2266.668 250 m 2400 300 l 2400 200 l 2266.668 150 l h
2266.668 250 m f*
0 g
2266.668 250 m 2400 300 l 2400 200 l 2266.668 150 l h
2266.668 250 m S
0.85098 g
2133.332 50 m 2000 0 l 2000 100 l 2133.332 150 l h
2133.332 50 m f*
0 g
2133.332 50 m 2000 0 l 2000 100 l 2133.332 150 l h
2133.332 50 m S
0.85098 g
2266.668 50 m 2266.668 150 l 2400 100 l 2400 0 l h
2266.668 50 m f*
0 g
2266.668 50 m 2266.668 150 l 2400 100 l 2400 0 l h
2266.668 50 m S
0.85098 g
2533.332 1450 m 2533.332 1350 l 2400 1400 l 2400 1500 l h
2533.332 1450 m f*
0 g
2533.332 1450 m 2533.332 1350 l 2400 1400 l 2400 1500 l h
2533.332 1450 m S
0.85098 g
2666.668 1450 m 2800 1500 l 2800 1400 l 2666.668 1350 l h
2666.668 1450 m f*
0 g
2666.668 1450 m 2800 1500 l 2800 1400 l 2666.668 1350 l h
2666.668 1450 m S
0.85098 g
2533.332 1250 m 2400 1200 l 2400 1300 l 2533.332 1350 l h
2533.332 1250 m f*
0 g
2533.332 1250 m 2400 1200 l 2400 1300 l 2533.332 1350 l h
2533.332 1250 m S
0.85098 g
2666.668 1250 m 2666.668 1350 l 2800 1300 l 2800 1200 l h
2666.668 1250 m f*
0 g
2666.668 1250 m 2666.668 1350 l 2800 1300 l 2800 1200 l h
2666.668 1250 m S
0.85098 g
2533.332 1150 m 2533.332 1050 l 2400 1100 l 2400 1200 l h
2533.332 1150 m f*
0 g
2533.332 1150 m 2533.332 1050 l 2400 1100 l 2400 1200 l h
2533.332 1150 m S
0.85098 g
2666.668 1150 m 2800 1200 l 2800 1100 l 2666.668 1050 l h
2666.668 1150 m f*
0 g
2666.668 1150 m 2800 1200 l 2800 1100 l 2666.668 1050 l h
2666.668 1150 m S
0.85098 g
2533.332 950 m 2400 900 l 2400 1000 l 2533.332 1050 l h
2533.332 950 m f*
0 g
2533.332 950 m 2400 900 l 2400 1000 l 2533.332 1050 l h
2533.332 950 m S
0.85098 g
2666.668 950 m 2666.668 1050 l 2800 1000 l 2800 900 l h
2666.668 950 m f*
0 g
2666.668 950 m 2666.668 1050 l 2800 1000 l 2800 900 l h
2666.668 950 m S
0.85098 g
2533.332 850 m 2533.332 750 l 2400 800 l 2400 900 l h
2533.332 850 m f*
0 g
2533.332 850 m 2533.332 750 l 2400 800 l 2400 900 l h
2533.332 850 m S
0.85098 g
2666.668 850 m 2800 900 l 2800 800 l 2666.668 750 l h
2666.668 850 m f*
0 g
2666.668 850 m 2800 900 l 2800 800 l 2666.668 750 l h
2666.668 850 m S
0.85098 g
2533.332 650 m 2400 600 l 2400 700 l 2533.332 750 l h
2533.332 650 m f*
0 g
2533.332 650 m 2400 600 l 2400 700 l 2533.332 750 l h
2533.332 650 m S
0.85098 g
2666.668 650 m 2666.668 750 l 2800 700 l 2800 600 l h
2666.668 650 m f*
0 g
2666.668 650 m 2666.668 750 l 2800 700 l 2800 600 l h
2666.668 650 m S
0.85098 g
2533.332 550 m 2533.332 450 l 2400 500 l 2400 600 l h
2533.332 550 m f*
0 g
2533.332 550 m 2533.332 450 l 2400 500 l 2400 600 l h
2533.332 550 m S
0.85098 g
2666.668 550 m 2800 600 l 2800 500 l 2666.668 450 l h
2666.668 550 m f*
0 g
2666.668 550 m 2800 600 l 2800 500 l 2666.668 450 l h
2666.668 550 m S
0.85098 g
2533.332 350 m 2400 300 l 2400 400 l 2533.332 450 l h
2533.332 350 m f*
0 g
2533.332 350 m 2400 300 l 2400 400 l 2533.332 450 l h
2533.332 350 m S
0.85098 g
2666.668 350 m 2666.668 450 l 2800 400 l 2800 300 l h
2666.668 350 m f*
0 g
2666.668 350 m 2666.668 450 l 2800 400 l 2800 300 l h
2666.668 350 m S
0.85098 g
2533.332 250 m 2533.332 150 l 2400 200 l 2400 300 l h
2533.332 250 m f*
0 g
2533.332 250 m 2533.332 150 l 2400 200 l 2400 300 l h
2533.332 250 m S
0.85098 g
2666.668 250 m 2800 300 l 2800 200 l 2666.668 150 l h
2666.668 250 m f*
0 g
2666.668 250 m 2800 300 l 2800 200 l 2666.668 150 l h
2666.668 250 m S
0.85098 g
2533.332 50 m 2400 0 l 2400 100 l 2533.332 150 l h
2533.332 50 m f*
0 g
2533.332 50 m 2400 0 l 2400 100 l 2533.332 150 l h
2533.332 50 m S
0.85098 g
2666.668 50 m 2666.668 150 l 2800 100 l 2800 0 l h
2666.668 50 m f*
0 g
2666.668 50 m 2666.668 150 l 2800 100 l 2800 0 l h
2666.668 50 m S
Q Q
showpage
%%Trailer
%%Trailer
cleartomark
countdictstack
exch sub { end } repeat
restore
%%EOF
