%!PS-Adobe-2.0 EPSF-2.0
%%BoundingBox: 0 0 1164 636
%%HiResBoundingBox: 0.000000 0.000000 1164.000000 636.000000
%%Creator: cairo 1.14.2 (http://cairographics.org)
%%CreationDate: Mon Sep  7 08:21:38 2015
%%DocumentData: Clean7Bit
%%LanguageLevel: 2
%%DocumentMedia: 411x224mm 1164 636 0 () ()
%%EndComments
% EPSF created by ps2eps 1.68
%%BeginProlog
save
countdictstack
mark
newpath
/showpage {} def
/setpagedevice {pop} def
%%EndProlog
%%Page 1 1
%%BeginProlog
/languagelevel where
{ pop languagelevel } { 1 } ifelse
2 lt { /Helvetica findfont 12 scalefont setfont 50 500 moveto
  (This print job requires a PostScript Language Level 2 printer.) show
  showpage quit } if
/q { gsave } bind def
/Q { grestore } bind def
/cm { 6 array astore concat } bind def
/w { setlinewidth } bind def
/J { setlinecap } bind def
/j { setlinejoin } bind def
/M { setmiterlimit } bind def
/d { setdash } bind def
/m { moveto } bind def
/l { lineto } bind def
/c { curveto } bind def
/h { closepath } bind def
/re { exch dup neg 3 1 roll 5 3 roll moveto 0 rlineto
      0 exch rlineto 0 rlineto closepath } bind def
/S { stroke } bind def
/f { fill } bind def
/f* { eofill } bind def
/n { newpath } bind def
/W { clip } bind def
/W* { eoclip } bind def
/BT { } bind def
/ET { } bind def
/pdfmark where { pop globaldict /?pdfmark /exec load put }
    { globaldict begin /?pdfmark /pop load def /pdfmark
    /cleartomark load def end } ifelse
/BDC { mark 3 1 roll /BDC pdfmark } bind def
/EMC { mark /EMC pdfmark } bind def
/cairo_store_point { /cairo_point_y exch def /cairo_point_x exch def } def
/Tj { show currentpoint cairo_store_point } bind def
/TJ {
  {
    dup
    type /stringtype eq
    { show } { -0.001 mul 0 cairo_font_matrix dtransform rmoveto } ifelse
  } forall
  currentpoint cairo_store_point
} bind def
/cairo_selectfont { cairo_font_matrix aload pop pop pop 0 0 6 array astore
    cairo_font exch selectfont cairo_point_x cairo_point_y moveto } bind def
/Tf { pop /cairo_font exch def /cairo_font_matrix where
      { pop cairo_selectfont } if } bind def
/Td { matrix translate cairo_font_matrix matrix concatmatrix dup
      /cairo_font_matrix exch def dup 4 get exch 5 get cairo_store_point
      /cairo_font where { pop cairo_selectfont } if } bind def
/Tm { 2 copy 8 2 roll 6 array astore /cairo_font_matrix exch def
      cairo_store_point /cairo_font where { pop cairo_selectfont } if } bind def
/g { setgray } bind def
/rg { setrgbcolor } bind def
/d1 { setcachedevice } bind def
/cairo_set_page_size {
  % Change paper size, but only if different from previous paper size otherwise
  % duplex fails. PLRM specifies a tolerance of 5 pts when matching paper size
  % so we use the same when checking if the size changes.
  /setpagedevice where {
    pop currentpagedevice
    /PageSize known {
      2 copy
      currentpagedevice /PageSize get aload pop
      exch 4 1 roll
      sub abs 5 gt
      3 1 roll
      sub abs 5 gt
      or
    } {
      true
    } ifelse
    {
      2 array astore
      2 dict begin
        /PageSize exch def
        /ImagingBBox null def
      currentdict end
      setpagedevice
    } {
      pop pop
    } ifelse
  } {
    pop
  } ifelse
} def
%%EndProlog
%%BeginSetup
%%EndSetup
%%Page: 1 1
%%BeginPageSetup
%%PageMedia: 411x224mm
%%PageBoundingBox: 0 0 1164 636
1164 636 cairo_set_page_size
%%EndPageSetup
q 0 0 1164 636 rectclip q
Q q
0.984314 g
0 636 1163.605 -636.395 re f*
0.788235 g
1.875 w
0 J
1 j
[] 0.0 d
4 M 0 636 1163.605 -636.395 re S
0 g
2.5 w
1 J
29.289 70.316 m 58.02 86.027 53.418 101.742 15.48 117.453 c S
29.289 70.316 m 0.559 54.602 5.16 38.887 43.098 23.176 c S
100 -0.395 m 128.73 15.316 124.129 31.031 86.191 46.746 c S
17.156 282.445 m 45.887 298.16 41.285 313.875 3.352 329.586 c S
17.156 282.445 m -11.574 266.734 -6.973 251.02 30.965 235.305 c S
87.867 211.734 m 116.598 227.449 111.996 243.164 74.062 258.875 c S
87.867 211.734 m 59.137 196.023 63.738 180.309 101.676 164.594 c S
158.578 141.023 m 187.309 156.738 182.707 172.453 144.773 188.164 c S
158.578 141.023 m 129.848 125.312 134.449 109.598 172.387 93.887 c S
229.289 70.316 m 258.02 86.027 253.418 101.742 215.48 117.453 c S
229.289 70.316 m 200.559 54.602 205.16 38.887 243.098 23.176 c S
300 -0.395 m 328.73 15.316 324.129 31.031 286.191 46.746 c S
5.023 494.578 m 33.758 510.293 29.152 526.004 -8.781 541.719 c S
5.023 494.578 m -23.707 478.863 -19.102 463.152 18.832 447.438 c S
75.734 423.867 m 104.469 439.582 99.863 455.297 61.93 471.008 c S
75.734 423.867 m 47.004 408.156 51.605 392.441 89.543 376.727 c S
146.445 353.156 m 175.176 368.871 170.574 384.586 132.641 400.297 c S
146.445 353.156 m 117.715 337.445 122.316 321.73 160.254 306.016 c S
217.156 282.445 m 245.887 298.16 241.285 313.875 203.352 329.586 c S
217.156 282.445 m 188.426 266.734 193.027 251.02 230.965 235.305 c S
287.867 211.734 m 316.598 227.449 311.996 243.164 274.062 258.875 c S
287.867 211.734 m 259.137 196.023 263.738 180.309 301.676 164.594 c S
358.578 141.023 m 387.309 156.738 382.707 172.453 344.773 188.164 c S
358.578 141.023 m 329.848 125.312 334.449 109.598 372.387 93.887 c S
429.289 70.316 m 458.02 86.027 453.418 101.742 415.48 117.453 c S
429.289 70.316 m 400.559 54.602 405.16 38.887 443.098 23.176 c S
500 -0.395 m 528.73 15.316 524.129 31.031 486.191 46.746 c S
63.605 636 m 34.871 620.285 39.477 604.574 77.41 588.859 c S
134.316 565.289 m 163.047 581.004 158.441 596.715 120.508 612.43 c S
134.316 565.289 m 105.582 549.574 110.188 533.863 148.121 518.148 c S
205.023 494.578 m 233.758 510.293 229.152 526.004 191.219 541.719 c S
205.023 494.578 m 176.293 478.863 180.898 463.152 218.832 447.438 c S
275.734 423.867 m 304.469 439.582 299.863 455.297 261.93 471.008 c S
275.734 423.867 m 247.004 408.156 251.605 392.441 289.543 376.727 c S
346.445 353.156 m 375.176 368.871 370.574 384.586 332.641 400.297 c S
346.445 353.156 m 317.715 337.445 322.316 321.73 360.254 306.016 c S
417.156 282.445 m 445.887 298.16 441.285 313.875 403.352 329.586 c S
417.156 282.445 m 388.426 266.734 393.027 251.02 430.965 235.305 c S
487.867 211.734 m 516.598 227.449 511.996 243.164 474.062 258.875 c S
487.867 211.734 m 459.137 196.023 463.738 180.309 501.676 164.594 c S
558.578 141.023 m 587.309 156.738 582.707 172.453 544.773 188.164 c S
558.578 141.023 m 529.848 125.312 534.449 109.598 572.387 93.887 c S
629.289 70.316 m 658.02 86.027 653.418 101.742 615.48 117.453 c S
629.289 70.316 m 600.559 54.602 605.16 38.887 643.098 23.176 c S
700 -0.395 m 728.73 15.316 724.129 31.031 686.191 46.746 c S
263.605 636 m 234.871 620.285 239.477 604.574 277.41 588.859 c S
334.316 565.289 m 363.047 581.004 358.441 596.715 320.508 612.43 c S
334.316 565.289 m 305.582 549.574 310.188 533.863 348.121 518.148 c S
405.023 494.578 m 433.758 510.293 429.152 526.004 391.219 541.719 c S
405.023 494.578 m 376.293 478.863 380.898 463.152 418.832 447.438 c S
475.734 423.867 m 504.469 439.582 499.863 455.297 461.93 471.008 c S
475.734 423.867 m 447.004 408.156 451.605 392.441 489.543 376.727 c S
546.445 353.156 m 575.176 368.871 570.574 384.586 532.641 400.297 c S
546.445 353.156 m 517.715 337.445 522.316 321.73 560.254 306.016 c S
617.156 282.445 m 645.887 298.16 641.285 313.875 603.352 329.586 c S
617.156 282.445 m 588.426 266.734 593.027 251.02 630.965 235.305 c S
687.867 211.734 m 716.598 227.449 711.996 243.164 674.062 258.875 c S
687.867 211.734 m 659.137 196.023 663.738 180.309 701.676 164.594 c S
758.578 141.023 m 787.309 156.738 782.707 172.453 744.773 188.164 c S
758.578 141.023 m 729.848 125.312 734.449 109.598 772.387 93.887 c S
829.289 70.316 m 858.02 86.027 853.418 101.742 815.48 117.453 c S
829.289 70.316 m 800.559 54.602 805.16 38.887 843.098 23.176 c S
900 -0.395 m 928.73 15.316 924.129 31.031 886.191 46.746 c S
463.605 636 m 434.871 620.285 439.477 604.574 477.41 588.859 c S
534.316 565.289 m 563.047 581.004 558.441 596.715 520.508 612.43 c S
534.316 565.289 m 505.582 549.574 510.188 533.863 548.121 518.148 c S
605.023 494.578 m 633.758 510.293 629.152 526.004 591.219 541.719 c S
605.023 494.578 m 576.293 478.863 580.898 463.152 618.832 447.438 c S
675.734 423.867 m 704.469 439.582 699.863 455.297 661.93 471.008 c S
675.734 423.867 m 647.004 408.156 651.605 392.441 689.543 376.727 c S
746.445 353.156 m 775.176 368.871 770.574 384.586 732.641 400.297 c S
746.445 353.156 m 717.715 337.445 722.316 321.73 760.254 306.016 c S
817.156 282.445 m 845.887 298.16 841.285 313.875 803.352 329.586 c S
817.156 282.445 m 788.426 266.734 793.027 251.02 830.965 235.305 c S
887.867 211.734 m 916.598 227.449 911.996 243.164 874.062 258.875 c S
887.867 211.734 m 859.137 196.023 863.738 180.309 901.676 164.594 c S
958.578 141.023 m 987.309 156.738 982.707 172.453 944.773 188.164 c S
958.578 141.023 m 929.848 125.312 934.449 109.598 972.387 93.887 c S
1029.289 70.316 m 1058.02 86.027 1053.418 101.742 1015.48 117.453 c S
1029.289 70.316 m 1000.559 54.602 1005.16 38.887 1043.098 23.176 c S
1100 -0.395 m 1128.73 15.316 1124.129 31.031 1086.191 46.746 c S
663.605 636 m 634.871 620.285 639.477 604.574 677.41 588.859 c S
734.316 565.289 m 763.047 581.004 758.441 596.715 720.508 612.43 c S
734.316 565.289 m 705.582 549.574 710.188 533.863 748.121 518.148 c S
805.023 494.578 m 833.758 510.293 829.152 526.004 791.219 541.719 c S
805.023 494.578 m 776.293 478.863 780.898 463.152 818.832 447.438 c S
875.734 423.867 m 904.469 439.582 899.863 455.297 861.93 471.008 c S
875.734 423.867 m 847.004 408.156 851.605 392.441 889.543 376.727 c S
946.445 353.156 m 975.176 368.871 970.574 384.586 932.641 400.297 c S
946.445 353.156 m 917.715 337.445 922.316 321.73 960.254 306.016 c S
1017.156 282.445 m 1045.887 298.16 1041.285 313.875 1003.352 329.586 c S
1017.156 282.445 m 988.426 266.734 993.027 251.02 1030.965 235.305 c S
1087.867 211.734 m 1116.598 227.449 1111.996 243.164 1074.062 258.875 c
 S
1087.867 211.734 m 1059.137 196.023 1063.738 180.309 1101.676 164.594 c
 S
Q q
1143 190 20.605 -51 re W n
0 g
2.5 w
1 J
1 j
[] 0.0 d
4 M 1158.578 141.023 m 1187.309 156.738 1182.707 172.453 1144.773 188.164 c
 S
Q q
1138 143 25.605 -51 re W n
0 g
2.5 w
1 J
1 j
[] 0.0 d
4 M 1158.578 141.023 m 1129.848 125.312 1134.449 109.598 1172.387 93.887 c S
Q q
0 g
2.5 w
1 J
1 j
[] 0.0 d
4 M 863.605 636 m 834.871 620.285 839.477 604.574 877.41 588.859 c S
934.316 565.289 m 963.047 581.004 958.441 596.715 920.508 612.43 c S
934.316 565.289 m 905.582 549.574 910.188 533.863 948.121 518.148 c S
1005.023 494.578 m 1033.758 510.293 1029.152 526.004 991.219 541.719 c S
1005.023 494.578 m 976.293 478.863 980.898 463.152 1018.832 447.438 c S
1075.734 423.867 m 1104.469 439.582 1099.863 455.297 1061.93 471.008 c S
1075.734 423.867 m 1047.004 408.156 1051.605 392.441 1089.543 376.727 c
 S
Q q
1131 402 32.605 -51 re W n
0 g
2.5 w
1 J
1 j
[] 0.0 d
4 M 1146.445 353.156 m 1175.176 368.871 1170.574 384.586 1132.641 400.297 c
 S
Q q
0 g
2.5 w
1 J
1 j
[] 0.0 d
4 M 1146.445 353.156 m 1117.715 337.445 1122.316 321.73 1160.254 306.016 c S
1063.605 636 m 1034.871 620.285 1039.477 604.574 1077.41 588.859 c S
1134.316 565.289 m 1163.047 581.004 1158.441 596.715 1120.508 612.43 c S
1134.316 565.289 m 1105.582 549.574 1110.188 533.863 1148.121 518.148 c
 S
Q Q
showpage
%%Trailer
%%Trailer
cleartomark
countdictstack
exch sub { end } repeat
restore
%%EOF
