%!PS-Adobe-2.0 EPSF-2.0
%%BoundingBox: 0 0 1200 1039
%%HiResBoundingBox: 0.000000 0.000000 1200.000000 1039.000000
%%Creator: cairo 1.14.2 (http://cairographics.org)
%%CreationDate: Mon Sep  7 08:21:38 2015
%%DocumentData: Clean7Bit
%%LanguageLevel: 2
%%DocumentMedia: 423x367mm 1200 1039 0 () ()
%%EndComments
% EPSF created by ps2eps 1.68
%%BeginProlog
save
countdictstack
mark
newpath
/showpage {} def
/setpagedevice {pop} def
%%EndProlog
%%Page 1 1
%%BeginProlog
/languagelevel where
{ pop languagelevel } { 1 } ifelse
2 lt { /Helvetica findfont 12 scalefont setfont 50 500 moveto
  (This print job requires a PostScript Language Level 2 printer.) show
  showpage quit } if
/q { gsave } bind def
/Q { grestore } bind def
/cm { 6 array astore concat } bind def
/w { setlinewidth } bind def
/J { setlinecap } bind def
/j { setlinejoin } bind def
/M { setmiterlimit } bind def
/d { setdash } bind def
/m { moveto } bind def
/l { lineto } bind def
/c { curveto } bind def
/h { closepath } bind def
/re { exch dup neg 3 1 roll 5 3 roll moveto 0 rlineto
      0 exch rlineto 0 rlineto closepath } bind def
/S { stroke } bind def
/f { fill } bind def
/f* { eofill } bind def
/n { newpath } bind def
/W { clip } bind def
/W* { eoclip } bind def
/BT { } bind def
/ET { } bind def
/pdfmark where { pop globaldict /?pdfmark /exec load put }
    { globaldict begin /?pdfmark /pop load def /pdfmark
    /cleartomark load def end } ifelse
/BDC { mark 3 1 roll /BDC pdfmark } bind def
/EMC { mark /EMC pdfmark } bind def
/cairo_store_point { /cairo_point_y exch def /cairo_point_x exch def } def
/Tj { show currentpoint cairo_store_point } bind def
/TJ {
  {
    dup
    type /stringtype eq
    { show } { -0.001 mul 0 cairo_font_matrix dtransform rmoveto } ifelse
  } forall
  currentpoint cairo_store_point
} bind def
/cairo_selectfont { cairo_font_matrix aload pop pop pop 0 0 6 array astore
    cairo_font exch selectfont cairo_point_x cairo_point_y moveto } bind def
/Tf { pop /cairo_font exch def /cairo_font_matrix where
      { pop cairo_selectfont } if } bind def
/Td { matrix translate cairo_font_matrix matrix concatmatrix dup
      /cairo_font_matrix exch def dup 4 get exch 5 get cairo_store_point
      /cairo_font where { pop cairo_selectfont } if } bind def
/Tm { 2 copy 8 2 roll 6 array astore /cairo_font_matrix exch def
      cairo_store_point /cairo_font where { pop cairo_selectfont } if } bind def
/g { setgray } bind def
/rg { setrgbcolor } bind def
/d1 { setcachedevice } bind def
/cairo_set_page_size {
  % Change paper size, but only if different from previous paper size otherwise
  % duplex fails. PLRM specifies a tolerance of 5 pts when matching paper size
  % so we use the same when checking if the size changes.
  /setpagedevice where {
    pop currentpagedevice
    /PageSize known {
      2 copy
      currentpagedevice /PageSize get aload pop
      exch 4 1 roll
      sub abs 5 gt
      3 1 roll
      sub abs 5 gt
      or
    } {
      true
    } ifelse
    {
      2 array astore
      2 dict begin
        /PageSize exch def
        /ImagingBBox null def
      currentdict end
      setpagedevice
    } {
      pop pop
    } ifelse
  } {
    pop
  } ifelse
} def
%%EndProlog
%%BeginSetup
%%EndSetup
%%Page: 1 1
%%BeginPageSetup
%%PageMedia: 423x367mm
%%PageBoundingBox: 0 0 1200 1039
1200 1039 cairo_set_page_size
%%EndPageSetup
q 0 0 1200 1039 rectclip q
0.984314 g
0 0 1200 1039 rectfill
0.788235 g
1.875 w
0 J
1 j
[] 0.0 d
4 M 0 1039 1200 -1039.23 re S
0 g
2.5 w
0 519.383 m -150 259.578 l -150 317.312 l -100 403.914 l -100 346.18 l 
h
0 519.383 m S
0 519.383 m -100 346.18 l -50 375.047 l -100 288.445 l -150 259.578 l h
0 519.383 m S
-300 519.383 m 0 519.383 l -50 490.516 l -150 490.516 l -100 519.383 l 
h
-300 519.383 m S
-300 519.383 m -100 519.383 l -150 548.254 l -50 548.254 l 0 519.383 l 
h
-300 519.383 m S
0.85098 g
150 259.578 m 0 -0.23 l 0 57.504 l 50 144.105 l 50 86.371 l h
150 259.578 m f*
0 g
150 259.578 m 0 -0.23 l 0 57.504 l 50 144.105 l 50 86.371 l h
150 259.578 m S
0.85098 g
150 259.578 m 50 86.371 l 100 115.238 l 50 28.637 l 0 -0.23 l h
150 259.578 m f*
0 g
150 259.578 m 50 86.371 l 100 115.238 l 50 28.637 l 0 -0.23 l h
150 259.578 m S
0 -0.23 m -150 259.578 l -100 230.711 l -50 144.105 l -100 172.973 l h
0 -0.23 m S
0.85098 g
-150 259.578 m 150 259.578 l 100 230.711 l 0 230.711 l 50 259.578 l h
-150 259.578 m f*
0 g
-150 259.578 m 150 259.578 l 100 230.711 l 0 230.711 l 50 259.578 l h
-150 259.578 m S
0 -0.23 m -100 172.973 l -100 115.238 l -150 201.844 l -150 259.578 l h
0 -0.23 m S
0.85098 g
-150 259.578 m 50 259.578 l 0 288.445 l 100 288.445 l 150 259.578 l h
-150 259.578 m f*
0 g
-150 259.578 m 50 259.578 l 0 288.445 l 100 288.445 l 150 259.578 l h
-150 259.578 m S
0 1039 m -150 779.191 l -150 836.926 l -100 923.531 l -100 865.793 l h
0 1039 m S
0 1039 m -100 865.793 l -50 894.664 l -100 808.059 l -150 779.191 l h
0 1039 m S
-300 1039 m 0 1039 l -50 1010.133 l -150 1010.133 l -100 1039 l h
-300 1039 m S
-300 1039 m -100 1039 l -150 1067.867 l -50 1067.867 l 0 1039 l h
-300 1039 m S
0.85098 g
150 779.191 m 0 519.383 l 0 577.121 l 50 663.723 l 50 605.988 l h
150 779.191 m f*
0 g
150 779.191 m 0 519.383 l 0 577.121 l 50 663.723 l 50 605.988 l h
150 779.191 m S
0.85098 g
150 779.191 m 50 605.988 l 100 634.855 l 50 548.254 l 0 519.383 l h
150 779.191 m f*
0 g
150 779.191 m 50 605.988 l 100 634.855 l 50 548.254 l 0 519.383 l h
150 779.191 m S
0 519.383 m -150 779.191 l -100 750.324 l -50 663.723 l -100 692.59 l h
0 519.383 m S
0.85098 g
-150 779.191 m 150 779.191 l 100 750.324 l 0 750.324 l 50 779.191 l h
-150 779.191 m f*
0 g
-150 779.191 m 150 779.191 l 100 750.324 l 0 750.324 l 50 779.191 l h
-150 779.191 m S
0 519.383 m -100 692.59 l -100 634.855 l -150 721.457 l -150 779.191 l 
h
0 519.383 m S
0.85098 g
-150 779.191 m 50 779.191 l 0 808.059 l 100 808.059 l 150 779.191 l h
-150 779.191 m f*
0 g
-150 779.191 m 50 779.191 l 0 808.059 l 100 808.059 l 150 779.191 l h
-150 779.191 m S
0.85098 g
300 519.383 m 150 259.578 l 150 317.312 l 200 403.914 l 200 346.18 l h
300 519.383 m f*
0 g
300 519.383 m 150 259.578 l 150 317.312 l 200 403.914 l 200 346.18 l h
300 519.383 m S
0.85098 g
300 519.383 m 200 346.18 l 250 375.047 l 200 288.445 l 150 259.578 l h
300 519.383 m f*
0 g
300 519.383 m 200 346.18 l 250 375.047 l 200 288.445 l 150 259.578 l h
300 519.383 m S
0.85098 g
150 259.578 m 0 519.383 l 50 490.516 l 100 403.914 l 50 432.781 l h
150 259.578 m f*
0 g
150 259.578 m 0 519.383 l 50 490.516 l 100 403.914 l 50 432.781 l h
150 259.578 m S
0.85098 g
0 519.383 m 300 519.383 l 250 490.516 l 150 490.516 l 200 519.383 l h
0 519.383 m f*
0 g
0 519.383 m 300 519.383 l 250 490.516 l 150 490.516 l 200 519.383 l h
0 519.383 m S
0.85098 g
150 259.578 m 50 432.781 l 50 375.047 l 0 461.648 l 0 519.383 l h
150 259.578 m f*
0 g
150 259.578 m 50 432.781 l 50 375.047 l 0 461.648 l 0 519.383 l h
150 259.578 m S
0.85098 g
0 519.383 m 200 519.383 l 150 548.254 l 250 548.254 l 300 519.383 l h
0 519.383 m f*
0 g
0 519.383 m 200 519.383 l 150 548.254 l 250 548.254 l 300 519.383 l h
0 519.383 m S
0.85098 g
450 259.578 m 300 -0.23 l 300 57.504 l 350 144.105 l 350 86.371 l h
450 259.578 m f*
0 g
450 259.578 m 300 -0.23 l 300 57.504 l 350 144.105 l 350 86.371 l h
450 259.578 m S
0.85098 g
450 259.578 m 350 86.371 l 400 115.238 l 350 28.637 l 300 -0.23 l h
450 259.578 m f*
0 g
450 259.578 m 350 86.371 l 400 115.238 l 350 28.637 l 300 -0.23 l h
450 259.578 m S
0.85098 g
300 -0.23 m 150 259.578 l 200 230.711 l 250 144.105 l 200 172.973 l h
300 -0.23 m f*
0 g
300 -0.23 m 150 259.578 l 200 230.711 l 250 144.105 l 200 172.973 l h
300 -0.23 m S
0.85098 g
150 259.578 m 450 259.578 l 400 230.711 l 300 230.711 l 350 259.578 l h
150 259.578 m f*
0 g
150 259.578 m 450 259.578 l 400 230.711 l 300 230.711 l 350 259.578 l h
150 259.578 m S
0.85098 g
300 -0.23 m 200 172.973 l 200 115.238 l 150 201.844 l 150 259.578 l h
300 -0.23 m f*
0 g
300 -0.23 m 200 172.973 l 200 115.238 l 150 201.844 l 150 259.578 l h
300 -0.23 m S
0.85098 g
150 259.578 m 350 259.578 l 300 288.445 l 400 288.445 l 450 259.578 l h
150 259.578 m f*
0 g
150 259.578 m 350 259.578 l 300 288.445 l 400 288.445 l 450 259.578 l h
150 259.578 m S
0.85098 g
300 1039 m 150 779.191 l 150 836.926 l 200 923.531 l 200 865.793 l h
300 1039 m f*
0 g
300 1039 m 150 779.191 l 150 836.926 l 200 923.531 l 200 865.793 l h
300 1039 m S
0.85098 g
300 1039 m 200 865.793 l 250 894.664 l 200 808.059 l 150 779.191 l h
300 1039 m f*
0 g
300 1039 m 200 865.793 l 250 894.664 l 200 808.059 l 150 779.191 l h
300 1039 m S
0.85098 g
150 779.191 m 0 1039 l 50 1010.133 l 100 923.531 l 50 952.398 l h
150 779.191 m f*
0 g
150 779.191 m 0 1039 l 50 1010.133 l 100 923.531 l 50 952.398 l h
150 779.191 m S
0.85098 g
0 1039 m 300 1039 l 250 1010.133 l 150 1010.133 l 200 1039 l h
0 1039 m f*
0 g
0 1039 m 300 1039 l 250 1010.133 l 150 1010.133 l 200 1039 l h
0 1039 m S
0.85098 g
150 779.191 m 50 952.398 l 50 894.664 l 0 981.266 l 0 1039 l h
150 779.191 m f*
0 g
150 779.191 m 50 952.398 l 50 894.664 l 0 981.266 l 0 1039 l h
150 779.191 m S
0 1039 m 200 1039 l 150 1067.867 l 250 1067.867 l 300 1039 l h
0 1039 m S
0.85098 g
450 779.191 m 300 519.383 l 300 577.121 l 350 663.723 l 350 605.988 l h
450 779.191 m f*
0 g
450 779.191 m 300 519.383 l 300 577.121 l 350 663.723 l 350 605.988 l h
450 779.191 m S
0.85098 g
450 779.191 m 350 605.988 l 400 634.855 l 350 548.254 l 300 519.383 l h
450 779.191 m f*
0 g
450 779.191 m 350 605.988 l 400 634.855 l 350 548.254 l 300 519.383 l h
450 779.191 m S
0.85098 g
300 519.383 m 150 779.191 l 200 750.324 l 250 663.723 l 200 692.59 l h
300 519.383 m f*
0 g
300 519.383 m 150 779.191 l 200 750.324 l 250 663.723 l 200 692.59 l h
300 519.383 m S
0.85098 g
150 779.191 m 450 779.191 l 400 750.324 l 300 750.324 l 350 779.191 l h
150 779.191 m f*
0 g
150 779.191 m 450 779.191 l 400 750.324 l 300 750.324 l 350 779.191 l h
150 779.191 m S
0.85098 g
300 519.383 m 200 692.59 l 200 634.855 l 150 721.457 l 150 779.191 l h
300 519.383 m f*
0 g
300 519.383 m 200 692.59 l 200 634.855 l 150 721.457 l 150 779.191 l h
300 519.383 m S
0.85098 g
150 779.191 m 350 779.191 l 300 808.059 l 400 808.059 l 450 779.191 l h
150 779.191 m f*
0 g
150 779.191 m 350 779.191 l 300 808.059 l 400 808.059 l 450 779.191 l h
150 779.191 m S
0.85098 g
600 519.383 m 450 259.578 l 450 317.312 l 500 403.914 l 500 346.18 l h
600 519.383 m f*
0 g
600 519.383 m 450 259.578 l 450 317.312 l 500 403.914 l 500 346.18 l h
600 519.383 m S
0.85098 g
600 519.383 m 500 346.18 l 550 375.047 l 500 288.445 l 450 259.578 l h
600 519.383 m f*
0 g
600 519.383 m 500 346.18 l 550 375.047 l 500 288.445 l 450 259.578 l h
600 519.383 m S
0.85098 g
450 259.578 m 300 519.383 l 350 490.516 l 400 403.914 l 350 432.781 l h
450 259.578 m f*
0 g
450 259.578 m 300 519.383 l 350 490.516 l 400 403.914 l 350 432.781 l h
450 259.578 m S
0.85098 g
300 519.383 m 600 519.383 l 550 490.516 l 450 490.516 l 500 519.383 l h
300 519.383 m f*
0 g
300 519.383 m 600 519.383 l 550 490.516 l 450 490.516 l 500 519.383 l h
300 519.383 m S
0.85098 g
450 259.578 m 350 432.781 l 350 375.047 l 300 461.648 l 300 519.383 l h
450 259.578 m f*
0 g
450 259.578 m 350 432.781 l 350 375.047 l 300 461.648 l 300 519.383 l h
450 259.578 m S
0.85098 g
300 519.383 m 500 519.383 l 450 548.254 l 550 548.254 l 600 519.383 l h
300 519.383 m f*
0 g
300 519.383 m 500 519.383 l 450 548.254 l 550 548.254 l 600 519.383 l h
300 519.383 m S
0.85098 g
750 259.578 m 600 -0.23 l 600 57.504 l 650 144.105 l 650 86.371 l h
750 259.578 m f*
0 g
750 259.578 m 600 -0.23 l 600 57.504 l 650 144.105 l 650 86.371 l h
750 259.578 m S
0.85098 g
750 259.578 m 650 86.371 l 700 115.238 l 650 28.637 l 600 -0.23 l h
750 259.578 m f*
0 g
750 259.578 m 650 86.371 l 700 115.238 l 650 28.637 l 600 -0.23 l h
750 259.578 m S
0.85098 g
600 -0.23 m 450 259.578 l 500 230.711 l 550 144.105 l 500 172.973 l h
600 -0.23 m f*
0 g
600 -0.23 m 450 259.578 l 500 230.711 l 550 144.105 l 500 172.973 l h
600 -0.23 m S
0.85098 g
450 259.578 m 750 259.578 l 700 230.711 l 600 230.711 l 650 259.578 l h
450 259.578 m f*
0 g
450 259.578 m 750 259.578 l 700 230.711 l 600 230.711 l 650 259.578 l h
450 259.578 m S
0.85098 g
600 -0.23 m 500 172.973 l 500 115.238 l 450 201.844 l 450 259.578 l h
600 -0.23 m f*
0 g
600 -0.23 m 500 172.973 l 500 115.238 l 450 201.844 l 450 259.578 l h
600 -0.23 m S
0.85098 g
450 259.578 m 650 259.578 l 600 288.445 l 700 288.445 l 750 259.578 l h
450 259.578 m f*
0 g
450 259.578 m 650 259.578 l 600 288.445 l 700 288.445 l 750 259.578 l h
450 259.578 m S
0.85098 g
600 1039 m 450 779.191 l 450 836.926 l 500 923.531 l 500 865.793 l h
600 1039 m f*
0 g
600 1039 m 450 779.191 l 450 836.926 l 500 923.531 l 500 865.793 l h
600 1039 m S
0.85098 g
600 1039 m 500 865.793 l 550 894.664 l 500 808.059 l 450 779.191 l h
600 1039 m f*
0 g
600 1039 m 500 865.793 l 550 894.664 l 500 808.059 l 450 779.191 l h
600 1039 m S
0.85098 g
450 779.191 m 300 1039 l 350 1010.133 l 400 923.531 l 350 952.398 l h
450 779.191 m f*
0 g
450 779.191 m 300 1039 l 350 1010.133 l 400 923.531 l 350 952.398 l h
450 779.191 m S
0.85098 g
300 1039 m 600 1039 l 550 1010.133 l 450 1010.133 l 500 1039 l h
300 1039 m f*
0 g
300 1039 m 600 1039 l 550 1010.133 l 450 1010.133 l 500 1039 l h
300 1039 m S
0.85098 g
450 779.191 m 350 952.398 l 350 894.664 l 300 981.266 l 300 1039 l h
450 779.191 m f*
0 g
450 779.191 m 350 952.398 l 350 894.664 l 300 981.266 l 300 1039 l h
450 779.191 m S
300 1039 m 500 1039 l 450 1067.867 l 550 1067.867 l 600 1039 l h
300 1039 m S
0.85098 g
750 779.191 m 600 519.383 l 600 577.121 l 650 663.723 l 650 605.988 l h
750 779.191 m f*
0 g
750 779.191 m 600 519.383 l 600 577.121 l 650 663.723 l 650 605.988 l h
750 779.191 m S
0.85098 g
750 779.191 m 650 605.988 l 700 634.855 l 650 548.254 l 600 519.383 l h
750 779.191 m f*
0 g
750 779.191 m 650 605.988 l 700 634.855 l 650 548.254 l 600 519.383 l h
750 779.191 m S
0.85098 g
600 519.383 m 450 779.191 l 500 750.324 l 550 663.723 l 500 692.59 l h
600 519.383 m f*
0 g
600 519.383 m 450 779.191 l 500 750.324 l 550 663.723 l 500 692.59 l h
600 519.383 m S
0.85098 g
450 779.191 m 750 779.191 l 700 750.324 l 600 750.324 l 650 779.191 l h
450 779.191 m f*
0 g
450 779.191 m 750 779.191 l 700 750.324 l 600 750.324 l 650 779.191 l h
450 779.191 m S
0.85098 g
600 519.383 m 500 692.59 l 500 634.855 l 450 721.457 l 450 779.191 l h
600 519.383 m f*
0 g
600 519.383 m 500 692.59 l 500 634.855 l 450 721.457 l 450 779.191 l h
600 519.383 m S
0.85098 g
450 779.191 m 650 779.191 l 600 808.059 l 700 808.059 l 750 779.191 l h
450 779.191 m f*
0 g
450 779.191 m 650 779.191 l 600 808.059 l 700 808.059 l 750 779.191 l h
450 779.191 m S
0.85098 g
900 519.383 m 750 259.578 l 750 317.312 l 800 403.914 l 800 346.18 l h
900 519.383 m f*
0 g
900 519.383 m 750 259.578 l 750 317.312 l 800 403.914 l 800 346.18 l h
900 519.383 m S
0.85098 g
900 519.383 m 800 346.18 l 850 375.047 l 800 288.445 l 750 259.578 l h
900 519.383 m f*
0 g
900 519.383 m 800 346.18 l 850 375.047 l 800 288.445 l 750 259.578 l h
900 519.383 m S
0.85098 g
750 259.578 m 600 519.383 l 650 490.516 l 700 403.914 l 650 432.781 l h
750 259.578 m f*
0 g
750 259.578 m 600 519.383 l 650 490.516 l 700 403.914 l 650 432.781 l h
750 259.578 m S
0.85098 g
600 519.383 m 900 519.383 l 850 490.516 l 750 490.516 l 800 519.383 l h
600 519.383 m f*
0 g
600 519.383 m 900 519.383 l 850 490.516 l 750 490.516 l 800 519.383 l h
600 519.383 m S
0.85098 g
750 259.578 m 650 432.781 l 650 375.047 l 600 461.648 l 600 519.383 l h
750 259.578 m f*
0 g
750 259.578 m 650 432.781 l 650 375.047 l 600 461.648 l 600 519.383 l h
750 259.578 m S
0.85098 g
600 519.383 m 800 519.383 l 750 548.254 l 850 548.254 l 900 519.383 l h
600 519.383 m f*
0 g
600 519.383 m 800 519.383 l 750 548.254 l 850 548.254 l 900 519.383 l h
600 519.383 m S
0.85098 g
1050 259.578 m 900 -0.23 l 900 57.504 l 950 144.105 l 950 86.371 l h
1050 259.578 m f*
0 g
1050 259.578 m 900 -0.23 l 900 57.504 l 950 144.105 l 950 86.371 l h
1050 259.578 m S
0.85098 g
1050 259.578 m 950 86.371 l 1000 115.238 l 950 28.637 l 900 -0.23 l h
1050 259.578 m f*
0 g
1050 259.578 m 950 86.371 l 1000 115.238 l 950 28.637 l 900 -0.23 l h
1050 259.578 m S
0.85098 g
900 -0.23 m 750 259.578 l 800 230.711 l 850 144.105 l 800 172.973 l h
900 -0.23 m f*
0 g
900 -0.23 m 750 259.578 l 800 230.711 l 850 144.105 l 800 172.973 l h
900 -0.23 m S
0.85098 g
750 259.578 m 1050 259.578 l 1000 230.711 l 900 230.711 l 950 259.578 l
 h
750 259.578 m f*
0 g
750 259.578 m 1050 259.578 l 1000 230.711 l 900 230.711 l 950 259.578 l
 h
750 259.578 m S
0.85098 g
900 -0.23 m 800 172.973 l 800 115.238 l 750 201.844 l 750 259.578 l h
900 -0.23 m f*
0 g
900 -0.23 m 800 172.973 l 800 115.238 l 750 201.844 l 750 259.578 l h
900 -0.23 m S
0.85098 g
750 259.578 m 950 259.578 l 900 288.445 l 1000 288.445 l 1050 259.578 l
 h
750 259.578 m f*
0 g
750 259.578 m 950 259.578 l 900 288.445 l 1000 288.445 l 1050 259.578 l
 h
750 259.578 m S
0.85098 g
900 1039 m 750 779.191 l 750 836.926 l 800 923.531 l 800 865.793 l h
900 1039 m f*
0 g
900 1039 m 750 779.191 l 750 836.926 l 800 923.531 l 800 865.793 l h
900 1039 m S
0.85098 g
900 1039 m 800 865.793 l 850 894.664 l 800 808.059 l 750 779.191 l h
900 1039 m f*
0 g
900 1039 m 800 865.793 l 850 894.664 l 800 808.059 l 750 779.191 l h
900 1039 m S
0.85098 g
750 779.191 m 600 1039 l 650 1010.133 l 700 923.531 l 650 952.398 l h
750 779.191 m f*
0 g
750 779.191 m 600 1039 l 650 1010.133 l 700 923.531 l 650 952.398 l h
750 779.191 m S
0.85098 g
600 1039 m 900 1039 l 850 1010.133 l 750 1010.133 l 800 1039 l h
600 1039 m f*
0 g
600 1039 m 900 1039 l 850 1010.133 l 750 1010.133 l 800 1039 l h
600 1039 m S
0.85098 g
750 779.191 m 650 952.398 l 650 894.664 l 600 981.266 l 600 1039 l h
750 779.191 m f*
0 g
750 779.191 m 650 952.398 l 650 894.664 l 600 981.266 l 600 1039 l h
750 779.191 m S
600 1039 m 800 1039 l 750 1067.867 l 850 1067.867 l 900 1039 l h
600 1039 m S
0.85098 g
1050 779.191 m 900 519.383 l 900 577.121 l 950 663.723 l 950 605.988 l 
h
1050 779.191 m f*
0 g
1050 779.191 m 900 519.383 l 900 577.121 l 950 663.723 l 950 605.988 l 
h
1050 779.191 m S
0.85098 g
1050 779.191 m 950 605.988 l 1000 634.855 l 950 548.254 l 900 519.383 l
 h
1050 779.191 m f*
0 g
1050 779.191 m 950 605.988 l 1000 634.855 l 950 548.254 l 900 519.383 l
 h
1050 779.191 m S
0.85098 g
900 519.383 m 750 779.191 l 800 750.324 l 850 663.723 l 800 692.59 l h
900 519.383 m f*
0 g
900 519.383 m 750 779.191 l 800 750.324 l 850 663.723 l 800 692.59 l h
900 519.383 m S
0.85098 g
750 779.191 m 1050 779.191 l 1000 750.324 l 900 750.324 l 950 779.191 l
 h
750 779.191 m f*
0 g
750 779.191 m 1050 779.191 l 1000 750.324 l 900 750.324 l 950 779.191 l
 h
750 779.191 m S
0.85098 g
900 519.383 m 800 692.59 l 800 634.855 l 750 721.457 l 750 779.191 l h
900 519.383 m f*
0 g
900 519.383 m 800 692.59 l 800 634.855 l 750 721.457 l 750 779.191 l h
900 519.383 m S
0.85098 g
750 779.191 m 950 779.191 l 900 808.059 l 1000 808.059 l 1050 779.191 l
 h
750 779.191 m f*
0 g
750 779.191 m 950 779.191 l 900 808.059 l 1000 808.059 l 1050 779.191 l
 h
750 779.191 m S
0.85098 g
1200 519.383 m 1050 259.578 l 1050 317.312 l 1100 403.914 l 1100 346.18
 l h
1200 519.383 m f*
0 g
1200 519.383 m 1050 259.578 l 1050 317.312 l 1100 403.914 l 1100 346.18
 l h
1200 519.383 m S
0.85098 g
1200 519.383 m 1100 346.18 l 1150 375.047 l 1100 288.445 l 1050 259.578
 l h
1200 519.383 m f*
0 g
1200 519.383 m 1100 346.18 l 1150 375.047 l 1100 288.445 l 1050 259.578
 l h
1200 519.383 m S
0.85098 g
1050 259.578 m 900 519.383 l 950 490.516 l 1000 403.914 l 950 432.781 l
 h
1050 259.578 m f*
0 g
1050 259.578 m 900 519.383 l 950 490.516 l 1000 403.914 l 950 432.781 l
 h
1050 259.578 m S
0.85098 g
900 519.383 m 1200 519.383 l 1150 490.516 l 1050 490.516 l 1100 519.383
 l h
900 519.383 m f*
0 g
900 519.383 m 1200 519.383 l 1150 490.516 l 1050 490.516 l 1100 519.383
 l h
900 519.383 m S
0.85098 g
1050 259.578 m 950 432.781 l 950 375.047 l 900 461.648 l 900 519.383 l 
h
1050 259.578 m f*
0 g
1050 259.578 m 950 432.781 l 950 375.047 l 900 461.648 l 900 519.383 l 
h
1050 259.578 m S
0.85098 g
900 519.383 m 1100 519.383 l 1050 548.254 l 1150 548.254 l 1200 519.383
 l h
900 519.383 m f*
0 g
900 519.383 m 1100 519.383 l 1050 548.254 l 1150 548.254 l 1200 519.383
 l h
900 519.383 m S
1350 259.578 m 1200 -0.23 l 1200 57.504 l 1250 144.105 l 1250 86.371 l 
h
1350 259.578 m S
1350 259.578 m 1250 86.371 l 1300 115.238 l 1250 28.637 l 1200 -0.23 l 
h
1350 259.578 m S
0.85098 g
1200 -0.23 m 1050 259.578 l 1100 230.711 l 1150 144.105 l 1100 172.973 
l h
1200 -0.23 m f*
0 g
1200 -0.23 m 1050 259.578 l 1100 230.711 l 1150 144.105 l 1100 172.973 
l h
1200 -0.23 m S
0.85098 g
1050 259.578 m 1350 259.578 l 1300 230.711 l 1200 230.711 l 1250 259.578
 l h
1050 259.578 m f*
0 g
1050 259.578 m 1350 259.578 l 1300 230.711 l 1200 230.711 l 1250 259.578
 l h
1050 259.578 m S
0.85098 g
1200 -0.23 m 1100 172.973 l 1100 115.238 l 1050 201.844 l 1050 259.578 
l h
1200 -0.23 m f*
0 g
1200 -0.23 m 1100 172.973 l 1100 115.238 l 1050 201.844 l 1050 259.578 
l h
1200 -0.23 m S
0.85098 g
1050 259.578 m 1250 259.578 l 1200 288.445 l 1300 288.445 l 1350 259.578
 l h
1050 259.578 m f*
0 g
1050 259.578 m 1250 259.578 l 1200 288.445 l 1300 288.445 l 1350 259.578
 l h
1050 259.578 m S
0.85098 g
1200 1039 m 1050 779.191 l 1050 836.926 l 1100 923.531 l 1100 865.793 l
 h
1200 1039 m f*
0 g
1200 1039 m 1050 779.191 l 1050 836.926 l 1100 923.531 l 1100 865.793 l
 h
1200 1039 m S
0.85098 g
1200 1039 m 1100 865.793 l 1150 894.664 l 1100 808.059 l 1050 779.191 l
 h
1200 1039 m f*
0 g
1200 1039 m 1100 865.793 l 1150 894.664 l 1100 808.059 l 1050 779.191 l
 h
1200 1039 m S
0.85098 g
1050 779.191 m 900 1039 l 950 1010.133 l 1000 923.531 l 950 952.398 l h
1050 779.191 m f*
0 g
1050 779.191 m 900 1039 l 950 1010.133 l 1000 923.531 l 950 952.398 l h
1050 779.191 m S
0.85098 g
900 1039 m 1200 1039 l 1150 1010.133 l 1050 1010.133 l 1100 1039 l h
900 1039 m f*
0 g
900 1039 m 1200 1039 l 1150 1010.133 l 1050 1010.133 l 1100 1039 l h
900 1039 m S
0.85098 g
1050 779.191 m 950 952.398 l 950 894.664 l 900 981.266 l 900 1039 l h
1050 779.191 m f*
0 g
1050 779.191 m 950 952.398 l 950 894.664 l 900 981.266 l 900 1039 l h
1050 779.191 m S
900 1039 m 1100 1039 l 1050 1067.867 l 1150 1067.867 l 1200 1039 l h
900 1039 m S
1350 779.191 m 1200 519.383 l 1200 577.121 l 1250 663.723 l 1250 605.988
 l h
1350 779.191 m S
1350 779.191 m 1250 605.988 l 1300 634.855 l 1250 548.254 l 1200 519.383
 l h
1350 779.191 m S
0.85098 g
1200 519.383 m 1050 779.191 l 1100 750.324 l 1150 663.723 l 1100 692.59
 l h
1200 519.383 m f*
0 g
1200 519.383 m 1050 779.191 l 1100 750.324 l 1150 663.723 l 1100 692.59
 l h
1200 519.383 m S
0.85098 g
1050 779.191 m 1350 779.191 l 1300 750.324 l 1200 750.324 l 1250 779.191
 l h
1050 779.191 m f*
0 g
1050 779.191 m 1350 779.191 l 1300 750.324 l 1200 750.324 l 1250 779.191
 l h
1050 779.191 m S
0.85098 g
1200 519.383 m 1100 692.59 l 1100 634.855 l 1050 721.457 l 1050 779.191
 l h
1200 519.383 m f*
0 g
1200 519.383 m 1100 692.59 l 1100 634.855 l 1050 721.457 l 1050 779.191
 l h
1200 519.383 m S
0.85098 g
1050 779.191 m 1250 779.191 l 1200 808.059 l 1300 808.059 l 1350 779.191
 l h
1050 779.191 m f*
0 g
1050 779.191 m 1250 779.191 l 1200 808.059 l 1300 808.059 l 1350 779.191
 l h
1050 779.191 m S
1350 259.578 m 1200 519.383 l 1250 490.516 l 1300 403.914 l 1250 432.781
 l h
1350 259.578 m S
1200 519.383 m 1500 519.383 l 1450 490.516 l 1350 490.516 l 1400 519.383
 l h
1200 519.383 m S
1350 259.578 m 1250 432.781 l 1250 375.047 l 1200 461.648 l 1200 519.383
 l h
1350 259.578 m S
1200 519.383 m 1400 519.383 l 1350 548.254 l 1450 548.254 l 1500 519.383
 l h
1200 519.383 m S
Q Q
showpage
%%Trailer
%%Trailer
cleartomark
countdictstack
exch sub { end } repeat
restore
%%EOF
