%!PS-Adobe-2.0 EPSF-2.0
%%BoundingBox: 0 0 1200 1039
%%HiResBoundingBox: 0.000000 0.000000 1200.000000 1039.000000
%%Creator: cairo 1.14.2 (http://cairographics.org)
%%CreationDate: Mon Sep  7 08:21:38 2015
%%DocumentData: Clean7Bit
%%LanguageLevel: 2
%%DocumentMedia: 423x367mm 1200 1039 0 () ()
%%EndComments
% EPSF created by ps2eps 1.68
%%BeginProlog
save
countdictstack
mark
newpath
/showpage {} def
/setpagedevice {pop} def
%%EndProlog
%%Page 1 1
%%BeginProlog
/languagelevel where
{ pop languagelevel } { 1 } ifelse
2 lt { /Helvetica findfont 12 scalefont setfont 50 500 moveto
  (This print job requires a PostScript Language Level 2 printer.) show
  showpage quit } if
/q { gsave } bind def
/Q { grestore } bind def
/cm { 6 array astore concat } bind def
/w { setlinewidth } bind def
/J { setlinecap } bind def
/j { setlinejoin } bind def
/M { setmiterlimit } bind def
/d { setdash } bind def
/m { moveto } bind def
/l { lineto } bind def
/c { curveto } bind def
/h { closepath } bind def
/re { exch dup neg 3 1 roll 5 3 roll moveto 0 rlineto
      0 exch rlineto 0 rlineto closepath } bind def
/S { stroke } bind def
/f { fill } bind def
/f* { eofill } bind def
/n { newpath } bind def
/W { clip } bind def
/W* { eoclip } bind def
/BT { } bind def
/ET { } bind def
/pdfmark where { pop globaldict /?pdfmark /exec load put }
    { globaldict begin /?pdfmark /pop load def /pdfmark
    /cleartomark load def end } ifelse
/BDC { mark 3 1 roll /BDC pdfmark } bind def
/EMC { mark /EMC pdfmark } bind def
/cairo_store_point { /cairo_point_y exch def /cairo_point_x exch def } def
/Tj { show currentpoint cairo_store_point } bind def
/TJ {
  {
    dup
    type /stringtype eq
    { show } { -0.001 mul 0 cairo_font_matrix dtransform rmoveto } ifelse
  } forall
  currentpoint cairo_store_point
} bind def
/cairo_selectfont { cairo_font_matrix aload pop pop pop 0 0 6 array astore
    cairo_font exch selectfont cairo_point_x cairo_point_y moveto } bind def
/Tf { pop /cairo_font exch def /cairo_font_matrix where
      { pop cairo_selectfont } if } bind def
/Td { matrix translate cairo_font_matrix matrix concatmatrix dup
      /cairo_font_matrix exch def dup 4 get exch 5 get cairo_store_point
      /cairo_font where { pop cairo_selectfont } if } bind def
/Tm { 2 copy 8 2 roll 6 array astore /cairo_font_matrix exch def
      cairo_store_point /cairo_font where { pop cairo_selectfont } if } bind def
/g { setgray } bind def
/rg { setrgbcolor } bind def
/d1 { setcachedevice } bind def
/cairo_set_page_size {
  % Change paper size, but only if different from previous paper size otherwise
  % duplex fails. PLRM specifies a tolerance of 5 pts when matching paper size
  % so we use the same when checking if the size changes.
  /setpagedevice where {
    pop currentpagedevice
    /PageSize known {
      2 copy
      currentpagedevice /PageSize get aload pop
      exch 4 1 roll
      sub abs 5 gt
      3 1 roll
      sub abs 5 gt
      or
    } {
      true
    } ifelse
    {
      2 array astore
      2 dict begin
        /PageSize exch def
        /ImagingBBox null def
      currentdict end
      setpagedevice
    } {
      pop pop
    } ifelse
  } {
    pop
  } ifelse
} def
%%EndProlog
%%BeginSetup
%%EndSetup
%%Page: 1 1
%%BeginPageSetup
%%PageMedia: 423x367mm
%%PageBoundingBox: 0 0 1200 1039
1200 1039 cairo_set_page_size
%%EndPageSetup
q 0 0 1200 1039 rectclip q
0.984314 g
0 0 1200 1039 rectfill
0.788235 g
1.875 w
0 J
1 j
[] 0.0 d
4 M 0 1039 1200 -1039.23 re S
0 g
2.5 w
1 J
0 346.18 m -50 375.047 -100 288.445 -150 259.578 c S
-150 432.781 m -150 490.516 -50 490.516 0 519.383 c S
-150 605.988 m -150 548.254 -50 548.254 0 519.383 c S
0 172.973 m 50 144.105 0 57.504 0 -0.23 c S
150 86.371 m 100 115.238 50 28.637 0 -0.23 c S
0 172.973 m -50 144.105 -100 230.711 -150 259.578 c S
0 172.973 m 0 230.711 100 230.711 150 259.578 c S
0 346.18 m 0 288.445 100 288.445 150 259.578 c S
0 865.793 m -50 894.664 -100 808.059 -150 779.191 c S
-150 952.398 m -150 1010.133 -50 1010.133 0 1039 c S
-150 1125.602 m -150 1067.867 -50 1067.867 0 1039 c S
0 692.59 m 50 663.723 0 577.121 0 519.383 c S
150 605.988 m 100 634.855 50 548.254 0 519.383 c S
0 692.59 m -50 663.723 -100 750.324 -150 779.191 c S
0 692.59 m 0 750.324 100 750.324 150 779.191 c S
0 865.793 m 0 808.059 100 808.059 150 779.191 c S
150 432.781 m 200 403.914 150 317.312 150 259.578 c S
300 346.18 m 250 375.047 200 288.445 150 259.578 c S
150 432.781 m 100 403.914 50 490.516 0 519.383 c S
150 432.781 m 150 490.516 250 490.516 300 519.383 c S
0 346.18 m 50 375.047 0 461.648 0 519.383 c S
150 605.988 m 150 548.254 250 548.254 300 519.383 c S
300 172.973 m 350 144.105 300 57.504 300 -0.23 c S
450 86.371 m 400 115.238 350 28.637 300 -0.23 c S
300 172.973 m 250 144.105 200 230.711 150 259.578 c S
300 172.973 m 300 230.711 400 230.711 450 259.578 c S
150 86.371 m 200 115.238 150 201.844 150 259.578 c S
300 346.18 m 300 288.445 400 288.445 450 259.578 c S
150 952.398 m 200 923.531 150 836.926 150 779.191 c S
300 865.793 m 250 894.664 200 808.059 150 779.191 c S
150 952.398 m 100 923.531 50 1010.133 0 1039 c S
150 952.398 m 150 1010.133 250 1010.133 300 1039 c S
0 865.793 m 50 894.664 0 981.266 0 1039 c S
150 1125.602 m 150 1067.867 250 1067.867 300 1039 c S
300 692.59 m 350 663.723 300 577.121 300 519.383 c S
450 605.988 m 400 634.855 350 548.254 300 519.383 c S
300 692.59 m 250 663.723 200 750.324 150 779.191 c S
300 692.59 m 300 750.324 400 750.324 450 779.191 c S
150 605.988 m 200 634.855 150 721.457 150 779.191 c S
300 865.793 m 300 808.059 400 808.059 450 779.191 c S
450 432.781 m 500 403.914 450 317.312 450 259.578 c S
600 346.18 m 550 375.047 500 288.445 450 259.578 c S
450 432.781 m 400 403.914 350 490.516 300 519.383 c S
450 432.781 m 450 490.516 550 490.516 600 519.383 c S
300 346.18 m 350 375.047 300 461.648 300 519.383 c S
450 605.988 m 450 548.254 550 548.254 600 519.383 c S
600 172.973 m 650 144.105 600 57.504 600 -0.23 c S
750 86.371 m 700 115.238 650 28.637 600 -0.23 c S
600 172.973 m 550 144.105 500 230.711 450 259.578 c S
600 172.973 m 600 230.711 700 230.711 750 259.578 c S
450 86.371 m 500 115.238 450 201.844 450 259.578 c S
600 346.18 m 600 288.445 700 288.445 750 259.578 c S
450 952.398 m 500 923.531 450 836.926 450 779.191 c S
600 865.793 m 550 894.664 500 808.059 450 779.191 c S
450 952.398 m 400 923.531 350 1010.133 300 1039 c S
450 952.398 m 450 1010.133 550 1010.133 600 1039 c S
300 865.793 m 350 894.664 300 981.266 300 1039 c S
450 1125.602 m 450 1067.867 550 1067.867 600 1039 c S
600 692.59 m 650 663.723 600 577.121 600 519.383 c S
750 605.988 m 700 634.855 650 548.254 600 519.383 c S
600 692.59 m 550 663.723 500 750.324 450 779.191 c S
600 692.59 m 600 750.324 700 750.324 750 779.191 c S
450 605.988 m 500 634.855 450 721.457 450 779.191 c S
600 865.793 m 600 808.059 700 808.059 750 779.191 c S
750 432.781 m 800 403.914 750 317.312 750 259.578 c S
900 346.18 m 850 375.047 800 288.445 750 259.578 c S
750 432.781 m 700 403.914 650 490.516 600 519.383 c S
750 432.781 m 750 490.516 850 490.516 900 519.383 c S
600 346.18 m 650 375.047 600 461.648 600 519.383 c S
750 605.988 m 750 548.254 850 548.254 900 519.383 c S
900 172.973 m 950 144.105 900 57.504 900 -0.23 c S
1050 86.371 m 1000 115.238 950 28.637 900 -0.23 c S
900 172.973 m 850 144.105 800 230.711 750 259.578 c S
900 172.973 m 900 230.711 1000 230.711 1050 259.578 c S
750 86.371 m 800 115.238 750 201.844 750 259.578 c S
900 346.18 m 900 288.445 1000 288.445 1050 259.578 c S
750 952.398 m 800 923.531 750 836.926 750 779.191 c S
900 865.793 m 850 894.664 800 808.059 750 779.191 c S
750 952.398 m 700 923.531 650 1010.133 600 1039 c S
750 952.398 m 750 1010.133 850 1010.133 900 1039 c S
600 865.793 m 650 894.664 600 981.266 600 1039 c S
750 1125.602 m 750 1067.867 850 1067.867 900 1039 c S
900 692.59 m 950 663.723 900 577.121 900 519.383 c S
1050 605.988 m 1000 634.855 950 548.254 900 519.383 c S
900 692.59 m 850 663.723 800 750.324 750 779.191 c S
900 692.59 m 900 750.324 1000 750.324 1050 779.191 c S
750 605.988 m 800 634.855 750 721.457 750 779.191 c S
900 865.793 m 900 808.059 1000 808.059 1050 779.191 c S
1050 432.781 m 1100 403.914 1050 317.312 1050 259.578 c S
1200 346.18 m 1150 375.047 1100 288.445 1050 259.578 c S
1050 432.781 m 1000 403.914 950 490.516 900 519.383 c S
1050 432.781 m 1050 490.516 1150 490.516 1200 519.383 c S
900 346.18 m 950 375.047 900 461.648 900 519.383 c S
1050 605.988 m 1050 548.254 1150 548.254 1200 519.383 c S
1200 172.973 m 1250 144.105 1200 57.504 1200 -0.23 c S
1350 86.371 m 1300 115.238 1250 28.637 1200 -0.23 c S
1200 172.973 m 1150 144.105 1100 230.711 1050 259.578 c S
1200 172.973 m 1200 230.711 1300 230.711 1350 259.578 c S
1050 86.371 m 1100 115.238 1050 201.844 1050 259.578 c S
1200 346.18 m 1200 288.445 1300 288.445 1350 259.578 c S
1050 952.398 m 1100 923.531 1050 836.926 1050 779.191 c S
1200 865.793 m 1150 894.664 1100 808.059 1050 779.191 c S
1050 952.398 m 1000 923.531 950 1010.133 900 1039 c S
1050 952.398 m 1050 1010.133 1150 1010.133 1200 1039 c S
900 865.793 m 950 894.664 900 981.266 900 1039 c S
1050 1125.602 m 1050 1067.867 1150 1067.867 1200 1039 c S
1200 692.59 m 1250 663.723 1200 577.121 1200 519.383 c S
1350 605.988 m 1300 634.855 1250 548.254 1200 519.383 c S
1200 692.59 m 1150 663.723 1100 750.324 1050 779.191 c S
1200 692.59 m 1200 750.324 1300 750.324 1350 779.191 c S
1050 605.988 m 1100 634.855 1050 721.457 1050 779.191 c S
1200 865.793 m 1200 808.059 1300 808.059 1350 779.191 c S
1350 432.781 m 1300 403.914 1250 490.516 1200 519.383 c S
1200 346.18 m 1250 375.047 1200 461.648 1200 519.383 c S
Q Q
showpage
%%Trailer
%%Trailer
cleartomark
countdictstack
exch sub { end } repeat
restore
%%EOF
