%!PS-Adobe-2.0 EPSF-2.0
%%BoundingBox: 0 0 1200 1039
%%HiResBoundingBox: 0.000000 0.000000 1200.000000 1039.000000
%%Creator: cairo 1.14.2 (http://cairographics.org)
%%CreationDate: Mon Sep  7 08:21:39 2015
%%DocumentData: Clean7Bit
%%LanguageLevel: 2
%%DocumentMedia: 423x367mm 1200 1039 0 () ()
%%EndComments
% EPSF created by ps2eps 1.68
%%BeginProlog
save
countdictstack
mark
newpath
/showpage {} def
/setpagedevice {pop} def
%%EndProlog
%%Page 1 1
%%BeginProlog
/languagelevel where
{ pop languagelevel } { 1 } ifelse
2 lt { /Helvetica findfont 12 scalefont setfont 50 500 moveto
  (This print job requires a PostScript Language Level 2 printer.) show
  showpage quit } if
/q { gsave } bind def
/Q { grestore } bind def
/cm { 6 array astore concat } bind def
/w { setlinewidth } bind def
/J { setlinecap } bind def
/j { setlinejoin } bind def
/M { setmiterlimit } bind def
/d { setdash } bind def
/m { moveto } bind def
/l { lineto } bind def
/c { curveto } bind def
/h { closepath } bind def
/re { exch dup neg 3 1 roll 5 3 roll moveto 0 rlineto
      0 exch rlineto 0 rlineto closepath } bind def
/S { stroke } bind def
/f { fill } bind def
/f* { eofill } bind def
/n { newpath } bind def
/W { clip } bind def
/W* { eoclip } bind def
/BT { } bind def
/ET { } bind def
/pdfmark where { pop globaldict /?pdfmark /exec load put }
    { globaldict begin /?pdfmark /pop load def /pdfmark
    /cleartomark load def end } ifelse
/BDC { mark 3 1 roll /BDC pdfmark } bind def
/EMC { mark /EMC pdfmark } bind def
/cairo_store_point { /cairo_point_y exch def /cairo_point_x exch def } def
/Tj { show currentpoint cairo_store_point } bind def
/TJ {
  {
    dup
    type /stringtype eq
    { show } { -0.001 mul 0 cairo_font_matrix dtransform rmoveto } ifelse
  } forall
  currentpoint cairo_store_point
} bind def
/cairo_selectfont { cairo_font_matrix aload pop pop pop 0 0 6 array astore
    cairo_font exch selectfont cairo_point_x cairo_point_y moveto } bind def
/Tf { pop /cairo_font exch def /cairo_font_matrix where
      { pop cairo_selectfont } if } bind def
/Td { matrix translate cairo_font_matrix matrix concatmatrix dup
      /cairo_font_matrix exch def dup 4 get exch 5 get cairo_store_point
      /cairo_font where { pop cairo_selectfont } if } bind def
/Tm { 2 copy 8 2 roll 6 array astore /cairo_font_matrix exch def
      cairo_store_point /cairo_font where { pop cairo_selectfont } if } bind def
/g { setgray } bind def
/rg { setrgbcolor } bind def
/d1 { setcachedevice } bind def
/cairo_set_page_size {
  % Change paper size, but only if different from previous paper size otherwise
  % duplex fails. PLRM specifies a tolerance of 5 pts when matching paper size
  % so we use the same when checking if the size changes.
  /setpagedevice where {
    pop currentpagedevice
    /PageSize known {
      2 copy
      currentpagedevice /PageSize get aload pop
      exch 4 1 roll
      sub abs 5 gt
      3 1 roll
      sub abs 5 gt
      or
    } {
      true
    } ifelse
    {
      2 array astore
      2 dict begin
        /PageSize exch def
        /ImagingBBox null def
      currentdict end
      setpagedevice
    } {
      pop pop
    } ifelse
  } {
    pop
  } ifelse
} def
%%EndProlog
%%BeginSetup
%%EndSetup
%%Page: 1 1
%%BeginPageSetup
%%PageMedia: 423x367mm
%%PageBoundingBox: 0 0 1200 1039
1200 1039 cairo_set_page_size
%%EndPageSetup
q 0 0 1200 1039 rectclip q
0.984314 g
0 0 1200 1039 rectfill
0.788235 g
1.875 w
0 J
1 j
[] 0.0 d
4 M 0 1039 1200 -1039.23 re S
0 g
2.5 w
1 J
100 115.238 m 100 101.434 77.613 90.238 50 90.238 c 22.387 90.238 0 101.434
 0 115.238 c S
100 115.238 m 88.043 108.336 67.156 122.125 53.348 146.039 c 39.543 169.957
 38.043 194.938 50 201.844 c S
0 288.445 m 11.957 295.348 32.844 281.559 46.652 257.645 c 60.457 233.73
 61.957 208.746 50 201.844 c S
-100 115.238 m -100 129.047 -77.613 140.238 -50 140.238 c -22.387 140.238
 0 129.047 0 115.238 c S
0 288.445 m 11.957 281.543 10.457 256.559 -3.348 232.645 c -17.156 208.73
 -38.043 194.938 -50 201.844 c S
100 634.855 m 100 621.047 77.613 609.855 50 609.855 c 22.387 609.855 0 
621.047 0 634.855 c S
100 634.855 m 88.043 627.953 67.156 641.742 53.348 665.656 c 39.543 689.57
 38.043 714.555 50 721.457 c S
0 808.059 m 11.957 814.965 32.844 801.172 46.652 777.258 c 60.457 753.344
 61.957 728.359 50 721.457 c S
-100 634.855 m -100 648.66 -77.613 659.855 -50 659.855 c -22.387 659.855
 0 648.66 0 634.855 c S
0 808.059 m 11.957 801.156 10.457 776.172 -3.348 752.258 c -17.156 728.344
 -38.043 714.555 -50 721.457 c S
250 375.047 m 250 361.238 227.613 350.047 200 350.047 c 172.387 350.047
 150 361.238 150 375.047 c S
250 375.047 m 238.043 368.145 217.156 381.934 203.348 405.848 c 189.543
 429.762 188.043 454.746 200 461.648 c S
50 375.047 m 38.043 381.949 39.543 406.934 53.348 430.848 c 67.156 454.762
 88.043 468.555 100 461.648 c S
150 548.254 m 161.957 555.156 182.844 541.367 196.652 517.449 c 210.457
 493.535 211.957 468.555 200 461.648 c S
50 375.047 m 50 388.855 72.387 400.047 100 400.047 c 127.613 400.047 150
 388.855 150 375.047 c S
150 548.254 m 161.957 541.348 160.457 516.367 146.652 492.449 c 132.844
 468.535 111.957 454.746 100 461.648 c S
400 115.238 m 400 101.434 377.613 90.238 350 90.238 c 322.387 90.238 300
 101.434 300 115.238 c S
400 115.238 m 388.043 108.336 367.156 122.125 353.348 146.039 c 339.543
 169.957 338.043 194.938 350 201.844 c S
200 115.238 m 188.043 122.145 189.543 147.125 203.348 171.039 c 217.156
 194.957 238.043 208.746 250 201.844 c S
300 288.445 m 311.957 295.348 332.844 281.559 346.652 257.645 c 360.457
 233.73 361.957 208.746 350 201.844 c S
200 115.238 m 200 129.047 222.387 140.238 250 140.238 c 277.613 140.238
 300 129.047 300 115.238 c S
300 288.445 m 311.957 281.543 310.457 256.559 296.652 232.645 c 282.844
 208.73 261.957 194.938 250 201.844 c S
250 894.664 m 250 880.855 227.613 869.664 200 869.664 c 172.387 869.664
 150 880.855 150 894.664 c S
250 894.664 m 238.043 887.758 217.156 901.551 203.348 925.465 c 189.543
 949.379 188.043 974.363 200 981.266 c S
50 894.664 m 38.043 901.566 39.543 926.551 53.348 950.465 c 67.156 974.379
 88.043 988.168 100 981.266 c S
150 1067.867 m 161.957 1074.77 182.844 1060.98 196.652 1037.066 c 210.457
 1013.152 211.957 988.168 200 981.266 c S
50 894.664 m 50 908.469 72.387 919.664 100 919.664 c 127.613 919.664 150
 908.469 150 894.664 c S
150 1067.867 m 161.957 1060.965 160.457 1035.98 146.652 1012.066 c 132.844
 988.152 111.957 974.363 100 981.266 c S
400 634.855 m 400 621.047 377.613 609.855 350 609.855 c 322.387 609.855
 300 621.047 300 634.855 c S
400 634.855 m 388.043 627.953 367.156 641.742 353.348 665.656 c 339.543
 689.57 338.043 714.555 350 721.457 c S
200 634.855 m 188.043 641.758 189.543 666.742 203.348 690.656 c 217.156
 714.57 238.043 728.359 250 721.457 c S
300 808.059 m 311.957 814.965 332.844 801.172 346.652 777.258 c 360.457
 753.344 361.957 728.359 350 721.457 c S
200 634.855 m 200 648.66 222.387 659.855 250 659.855 c 277.613 659.855 
300 648.66 300 634.855 c S
300 808.059 m 311.957 801.156 310.457 776.172 296.652 752.258 c 282.844
 728.344 261.957 714.555 250 721.457 c S
550 375.047 m 550 361.238 527.613 350.047 500 350.047 c 472.387 350.047
 450 361.238 450 375.047 c S
550 375.047 m 538.043 368.145 517.156 381.934 503.348 405.848 c 489.543
 429.762 488.043 454.746 500 461.648 c S
350 375.047 m 338.043 381.949 339.543 406.934 353.348 430.848 c 367.156
 454.762 388.043 468.555 400 461.648 c S
450 548.254 m 461.957 555.156 482.844 541.367 496.652 517.449 c 510.457
 493.535 511.957 468.555 500 461.648 c S
350 375.047 m 350 388.855 372.387 400.047 400 400.047 c 427.613 400.047
 450 388.855 450 375.047 c S
450 548.254 m 461.957 541.348 460.457 516.367 446.652 492.449 c 432.844
 468.535 411.957 454.746 400 461.648 c S
700 115.238 m 700 101.434 677.613 90.238 650 90.238 c 622.387 90.238 600
 101.434 600 115.238 c S
700 115.238 m 688.043 108.336 667.156 122.125 653.348 146.039 c 639.543
 169.957 638.043 194.938 650 201.844 c S
500 115.238 m 488.043 122.145 489.543 147.125 503.348 171.039 c 517.156
 194.957 538.043 208.746 550 201.844 c S
600 288.445 m 611.957 295.348 632.844 281.559 646.652 257.645 c 660.457
 233.73 661.957 208.746 650 201.844 c S
500 115.238 m 500 129.047 522.387 140.238 550 140.238 c 577.613 140.238
 600 129.047 600 115.238 c S
600 288.445 m 611.957 281.543 610.457 256.559 596.652 232.645 c 582.844
 208.73 561.957 194.938 550 201.844 c S
550 894.664 m 550 880.855 527.613 869.664 500 869.664 c 472.387 869.664
 450 880.855 450 894.664 c S
550 894.664 m 538.043 887.758 517.156 901.551 503.348 925.465 c 489.543
 949.379 488.043 974.363 500 981.266 c S
350 894.664 m 338.043 901.566 339.543 926.551 353.348 950.465 c 367.156
 974.379 388.043 988.168 400 981.266 c S
450 1067.867 m 461.957 1074.77 482.844 1060.98 496.652 1037.066 c 510.457
 1013.152 511.957 988.168 500 981.266 c S
350 894.664 m 350 908.469 372.387 919.664 400 919.664 c 427.613 919.664
 450 908.469 450 894.664 c S
450 1067.867 m 461.957 1060.965 460.457 1035.98 446.652 1012.066 c 432.844
 988.152 411.957 974.363 400 981.266 c S
700 634.855 m 700 621.047 677.613 609.855 650 609.855 c 622.387 609.855
 600 621.047 600 634.855 c S
700 634.855 m 688.043 627.953 667.156 641.742 653.348 665.656 c 639.543
 689.57 638.043 714.555 650 721.457 c S
500 634.855 m 488.043 641.758 489.543 666.742 503.348 690.656 c 517.156
 714.57 538.043 728.359 550 721.457 c S
600 808.059 m 611.957 814.965 632.844 801.172 646.652 777.258 c 660.457
 753.344 661.957 728.359 650 721.457 c S
500 634.855 m 500 648.66 522.387 659.855 550 659.855 c 577.613 659.855 
600 648.66 600 634.855 c S
600 808.059 m 611.957 801.156 610.457 776.172 596.652 752.258 c 582.844
 728.344 561.957 714.555 550 721.457 c S
850 375.047 m 850 361.238 827.613 350.047 800 350.047 c 772.387 350.047
 750 361.238 750 375.047 c S
850 375.047 m 838.043 368.145 817.156 381.934 803.348 405.848 c 789.543
 429.762 788.043 454.746 800 461.648 c S
650 375.047 m 638.043 381.949 639.543 406.934 653.348 430.848 c 667.156
 454.762 688.043 468.555 700 461.648 c S
750 548.254 m 761.957 555.156 782.844 541.367 796.652 517.449 c 810.457
 493.535 811.957 468.555 800 461.648 c S
650 375.047 m 650 388.855 672.387 400.047 700 400.047 c 727.613 400.047
 750 388.855 750 375.047 c S
750 548.254 m 761.957 541.348 760.457 516.367 746.652 492.449 c 732.844
 468.535 711.957 454.746 700 461.648 c S
1000 115.238 m 1000 101.434 977.613 90.238 950 90.238 c 922.387 90.238 
900 101.434 900 115.238 c S
1000 115.238 m 988.043 108.336 967.156 122.125 953.348 146.039 c 939.543
 169.957 938.043 194.938 950 201.844 c S
800 115.238 m 788.043 122.145 789.543 147.125 803.348 171.039 c 817.156
 194.957 838.043 208.746 850 201.844 c S
900 288.445 m 911.957 295.348 932.844 281.559 946.652 257.645 c 960.457
 233.73 961.957 208.746 950 201.844 c S
800 115.238 m 800 129.047 822.387 140.238 850 140.238 c 877.613 140.238
 900 129.047 900 115.238 c S
900 288.445 m 911.957 281.543 910.457 256.559 896.652 232.645 c 882.844
 208.73 861.957 194.938 850 201.844 c S
850 894.664 m 850 880.855 827.613 869.664 800 869.664 c 772.387 869.664
 750 880.855 750 894.664 c S
850 894.664 m 838.043 887.758 817.156 901.551 803.348 925.465 c 789.543
 949.379 788.043 974.363 800 981.266 c S
650 894.664 m 638.043 901.566 639.543 926.551 653.348 950.465 c 667.156
 974.379 688.043 988.168 700 981.266 c S
750 1067.867 m 761.957 1074.77 782.844 1060.98 796.652 1037.066 c 810.457
 1013.152 811.957 988.168 800 981.266 c S
650 894.664 m 650 908.469 672.387 919.664 700 919.664 c 727.613 919.664
 750 908.469 750 894.664 c S
750 1067.867 m 761.957 1060.965 760.457 1035.98 746.652 1012.066 c 732.844
 988.152 711.957 974.363 700 981.266 c S
1000 634.855 m 1000 621.047 977.613 609.855 950 609.855 c 922.387 609.855
 900 621.047 900 634.855 c S
1000 634.855 m 988.043 627.953 967.156 641.742 953.348 665.656 c 939.543
 689.57 938.043 714.555 950 721.457 c S
800 634.855 m 788.043 641.758 789.543 666.742 803.348 690.656 c 817.156
 714.57 838.043 728.359 850 721.457 c S
900 808.059 m 911.957 814.965 932.844 801.172 946.652 777.258 c 960.457
 753.344 961.957 728.359 950 721.457 c S
800 634.855 m 800 648.66 822.387 659.855 850 659.855 c 877.613 659.855 
900 648.66 900 634.855 c S
900 808.059 m 911.957 801.156 910.457 776.172 896.652 752.258 c 882.844
 728.344 861.957 714.555 850 721.457 c S
1150 375.047 m 1150 361.238 1127.613 350.047 1100 350.047 c 1072.387 350.047
 1050 361.238 1050 375.047 c S
1150 375.047 m 1138.043 368.145 1117.156 381.934 1103.348 405.848 c 1089.543
 429.762 1088.043 454.746 1100 461.648 c S
950 375.047 m 938.043 381.949 939.543 406.934 953.348 430.848 c 967.156
 454.762 988.043 468.555 1000 461.648 c S
1050 548.254 m 1061.957 555.156 1082.844 541.367 1096.652 517.449 c 1110.457
 493.535 1111.957 468.555 1100 461.648 c S
950 375.047 m 950 388.855 972.387 400.047 1000 400.047 c 1027.613 400.047
 1050 388.855 1050 375.047 c S
1050 548.254 m 1061.957 541.348 1060.457 516.367 1046.652 492.449 c 1032.844
 468.535 1011.957 454.746 1000 461.648 c S
1300 115.238 m 1300 101.434 1277.613 90.238 1250 90.238 c 1222.387 90.238
 1200 101.434 1200 115.238 c S
1100 115.238 m 1088.043 122.145 1089.543 147.125 1103.348 171.039 c 1117.156
 194.957 1138.043 208.746 1150 201.844 c S
1200 288.445 m 1211.957 295.348 1232.844 281.559 1246.652 257.645 c 1260.457
 233.73 1261.957 208.746 1250 201.844 c S
1100 115.238 m 1100 129.047 1122.387 140.238 1150 140.238 c 1177.613 140.238
 1200 129.047 1200 115.238 c S
1200 288.445 m 1211.957 281.543 1210.457 256.559 1196.652 232.645 c 1182.844
 208.73 1161.957 194.938 1150 201.844 c S
1150 894.664 m 1150 880.855 1127.613 869.664 1100 869.664 c 1072.387 869.664
 1050 880.855 1050 894.664 c S
1150 894.664 m 1138.043 887.758 1117.156 901.551 1103.348 925.465 c 1089.543
 949.379 1088.043 974.363 1100 981.266 c S
950 894.664 m 938.043 901.566 939.543 926.551 953.348 950.465 c 967.156
 974.379 988.043 988.168 1000 981.266 c S
1050 1067.867 m 1061.957 1074.77 1082.844 1060.98 1096.652 1037.066 c 1110.457
 1013.152 1111.957 988.168 1100 981.266 c S
950 894.664 m 950 908.469 972.387 919.664 1000 919.664 c 1027.613 919.664
 1050 908.469 1050 894.664 c S
1050 1067.867 m 1061.957 1060.965 1060.457 1035.98 1046.652 1012.066 c 
1032.844 988.152 1011.957 974.363 1000 981.266 c S
1300 634.855 m 1300 621.047 1277.613 609.855 1250 609.855 c 1222.387 609.855
 1200 621.047 1200 634.855 c S
1100 634.855 m 1088.043 641.758 1089.543 666.742 1103.348 690.656 c 1117.156
 714.57 1138.043 728.359 1150 721.457 c S
1200 808.059 m 1211.957 814.965 1232.844 801.172 1246.652 777.258 c 1260.457
 753.344 1261.957 728.359 1250 721.457 c S
1100 634.855 m 1100 648.66 1122.387 659.855 1150 659.855 c 1177.613 659.855
 1200 648.66 1200 634.855 c S
1200 808.059 m 1211.957 801.156 1210.457 776.172 1196.652 752.258 c 1182.844
 728.344 1161.957 714.555 1150 721.457 c S
Q Q
showpage
%%Trailer
%%Trailer
cleartomark
countdictstack
exch sub { end } repeat
restore
%%EOF
