<svg xmlns="http://www.w3.org/2000/svg" baseProfile="full" width="2100" height="1400" viewBox="-87.5 -87.5 2100.0 1400.0">
    <title>
        Pattern design from http://ornamentist.org
    </title>
    <desc>
        This file is licensed under a Creative Commons CC BY 4.0 license: http://creativecommons.org/licenses/by/4.0/
    </desc>
    <defs>
        <style>
<![CDATA[
        
polyline {
  fill:            none;
  stroke:          black;
  stroke-linecap:  round;
  stroke-linejoin: round;
  stroke-width:    2.0pt;
}


polyline.closed {
  fill:      #d9d9d9;
  fill-rule: evenodd;
}


polygon {
  fill:            #d9d9d9;
  fill-rule:       evenodd;
  stroke:          black;
  stroke-linejoin: round;
  stroke-width:    2.0pt;
}


circle {
  fill:         #d9d9d9;
  stroke:       black;
  stroke-width: 2.0pt;
}


ellipse {
  fill:         #d9d9d9;
  stroke:       black;
  stroke-width: 2.0pt;
}


path {
  fill:            none;
  stroke:          black;
  stroke-linecap:  round;
  stroke-linejoin: round;
  stroke-width:    2.0pt;
}


path.closed {
  fill:      #d9d9d9;
  fill-rule: evenodd;
}


polygon.background,
path.background
{
  fill:   #fbfbfb;
  stroke: #c9c9c9;
  stroke-width: 1.5pt;
}

        ]]>
        </style>
    </defs>
    <clipPath id="design">
        <path d="M-87.5-87.5h2100v1400h-2100z"/>
    </clipPath>
    <g clip-path="url(#design)" color-rendering="optimizeQuality" shape-rendering="geometricPrecision" id="graphics">
        <path class="background closed" d="M2012.5-87.5v1400h-2100v-1400z"/>
        <path d="M87.5 0v-87.5H0v175M175 87.5h87.5V0h-175M87.5 175v87.5H175v-175M0 87.5h-87.5V175h175M87.5 350v-87.5H0v175M175 437.5h87.5V350h-175M87.5 525v87.5H175v-175M0 437.5h-87.5V525h175M87.5 700v-87.5H0v175M175 787.5h87.5V700h-175M87.5 875v87.5H175v-175M0 787.5h-87.5V875h175M87.5 1050v-87.5H0v175M175 1137.5h87.5V1050h-175M87.5 1225v87.5H175v-175M0 1137.5h-87.5v87.5h175M437.5 0v-87.5H350v175M525 87.5h87.5V0h-175M437.5 175v87.5H525v-175M350 87.5h-87.5V175h175M437.5 350v-87.5H350v175M525 437.5h87.5V350h-175M437.5 525v87.5H525v-175M350 437.5h-87.5V525h175M437.5 700v-87.5H350v175M525 787.5h87.5V700h-175M437.5 875v87.5H525v-175M350 787.5h-87.5V875h175M437.5 1050v-87.5H350v175M525 1137.5h87.5V1050h-175M437.5 1225v87.5H525v-175M350 1137.5h-87.5v87.5h175M787.5 0v-87.5H700v175M875 87.5h87.5V0h-175M787.5 175v87.5H875v-175M700 87.5h-87.5V175h175M787.5 350v-87.5H700v175M875 437.5h87.5V350h-175M787.5 525v87.5H875v-175M700 437.5h-87.5V525h175M787.5 700v-87.5H700v175M875 787.5h87.5V700h-175M787.5 875v87.5H875v-175M700 787.5h-87.5V875h175M787.5 1050v-87.5H700v175M875 1137.5h87.5V1050h-175M787.5 1225v87.5H875v-175M700 1137.5h-87.5v87.5h175M1137.5 0v-87.5H1050v175M1225 87.5h87.5V0h-175M1137.5 175v87.5h87.5v-175M1050 87.5h-87.5V175h175M1137.5 350v-87.5H1050v175M1225 437.5h87.5V350h-175M1137.5 525v87.5h87.5v-175M1050 437.5h-87.5V525h175M1137.5 700v-87.5H1050v175M1225 787.5h87.5V700h-175M1137.5 875v87.5h87.5v-175M1050 787.5h-87.5V875h175M1137.5 1050v-87.5H1050v175M1225 1137.5h87.5V1050h-175M1137.5 1225v87.5h87.5v-175M1050 1137.5h-87.5v87.5h175M1487.5 0v-87.5H1400v175M1575 87.5h87.5V0h-175M1487.5 175v87.5h87.5v-175M1400 87.5h-87.5V175h175M1487.5 350v-87.5H1400v175M1575 437.5h87.5V350h-175M1487.5 525v87.5h87.5v-175M1400 437.5h-87.5V525h175M1487.5 700v-87.5H1400v175M1575 787.5h87.5V700h-175M1487.5 875v87.5h87.5v-175M1400 787.5h-87.5V875h175M1487.5 1050v-87.5H1400v175M1575 1137.5h87.5V1050h-175M1487.5 1225v87.5h87.5v-175M1400 1137.5h-87.5v87.5h175M1837.5 0v-87.5H1750v175M1925 87.5h87.5V0h-175M1837.5 175v87.5h87.5v-175M1750 87.5h-87.5V175h175M1837.5 350v-87.5H1750v175M1925 437.5h87.5V350h-175M1837.5 525v87.5h87.5v-175M1750 437.5h-87.5V525h175M1837.5 700v-87.5H1750v175M1925 787.5h87.5V700h-175M1837.5 875v87.5h87.5v-175M1750 787.5h-87.5V875h175M1837.5 1050v-87.5H1750v175M1925 1137.5h87.5V1050h-175M1837.5 1225v87.5h87.5v-175M1750 1137.5h-87.5v87.5h175" class="polyline-5-1 open"/>
    </g>
</svg>
