%!PS-Adobe-2.0 EPSF-2.0
%%BoundingBox: 0 0 2100 1400
%%HiResBoundingBox: 0.000000 0.000000 2100.000000 1400.000000
%%Creator: cairo 1.14.2 (http://cairographics.org)
%%CreationDate: Mon Sep  7 08:21:39 2015
%%DocumentData: Clean7Bit
%%LanguageLevel: 2
%%DocumentMedia: 741x494mm 2100 1400 0 () ()
%%EndComments
% EPSF created by ps2eps 1.68
%%BeginProlog
save
countdictstack
mark
newpath
/showpage {} def
/setpagedevice {pop} def
%%EndProlog
%%Page 1 1
%%BeginProlog
/languagelevel where
{ pop languagelevel } { 1 } ifelse
2 lt { /Helvetica findfont 12 scalefont setfont 50 500 moveto
  (This print job requires a PostScript Language Level 2 printer.) show
  showpage quit } if
/q { gsave } bind def
/Q { grestore } bind def
/cm { 6 array astore concat } bind def
/w { setlinewidth } bind def
/J { setlinecap } bind def
/j { setlinejoin } bind def
/M { setmiterlimit } bind def
/d { setdash } bind def
/m { moveto } bind def
/l { lineto } bind def
/c { curveto } bind def
/h { closepath } bind def
/re { exch dup neg 3 1 roll 5 3 roll moveto 0 rlineto
      0 exch rlineto 0 rlineto closepath } bind def
/S { stroke } bind def
/f { fill } bind def
/f* { eofill } bind def
/n { newpath } bind def
/W { clip } bind def
/W* { eoclip } bind def
/BT { } bind def
/ET { } bind def
/pdfmark where { pop globaldict /?pdfmark /exec load put }
    { globaldict begin /?pdfmark /pop load def /pdfmark
    /cleartomark load def end } ifelse
/BDC { mark 3 1 roll /BDC pdfmark } bind def
/EMC { mark /EMC pdfmark } bind def
/cairo_store_point { /cairo_point_y exch def /cairo_point_x exch def } def
/Tj { show currentpoint cairo_store_point } bind def
/TJ {
  {
    dup
    type /stringtype eq
    { show } { -0.001 mul 0 cairo_font_matrix dtransform rmoveto } ifelse
  } forall
  currentpoint cairo_store_point
} bind def
/cairo_selectfont { cairo_font_matrix aload pop pop pop 0 0 6 array astore
    cairo_font exch selectfont cairo_point_x cairo_point_y moveto } bind def
/Tf { pop /cairo_font exch def /cairo_font_matrix where
      { pop cairo_selectfont } if } bind def
/Td { matrix translate cairo_font_matrix matrix concatmatrix dup
      /cairo_font_matrix exch def dup 4 get exch 5 get cairo_store_point
      /cairo_font where { pop cairo_selectfont } if } bind def
/Tm { 2 copy 8 2 roll 6 array astore /cairo_font_matrix exch def
      cairo_store_point /cairo_font where { pop cairo_selectfont } if } bind def
/g { setgray } bind def
/rg { setrgbcolor } bind def
/d1 { setcachedevice } bind def
/cairo_set_page_size {
  % Change paper size, but only if different from previous paper size otherwise
  % duplex fails. PLRM specifies a tolerance of 5 pts when matching paper size
  % so we use the same when checking if the size changes.
  /setpagedevice where {
    pop currentpagedevice
    /PageSize known {
      2 copy
      currentpagedevice /PageSize get aload pop
      exch 4 1 roll
      sub abs 5 gt
      3 1 roll
      sub abs 5 gt
      or
    } {
      true
    } ifelse
    {
      2 array astore
      2 dict begin
        /PageSize exch def
        /ImagingBBox null def
      currentdict end
      setpagedevice
    } {
      pop pop
    } ifelse
  } {
    pop
  } ifelse
} def
%%EndProlog
%%BeginSetup
%%EndSetup
%%Page: 1 1
%%BeginPageSetup
%%PageMedia: 741x494mm
%%PageBoundingBox: 0 0 2100 1400
2100 1400 cairo_set_page_size
%%EndPageSetup
q 0 0 2100 1400 rectclip q
0.984314 g
0 0 2100 1400 rectfill
0.788235 g
1.875 w
0 J
1 j
[] 0.0 d
4 M 0 1400 2100 -1400 re S
0 g
2.5 w
1 J
175 1283.332 m 116.668 1400 116.668 1283.332 175 1225 c S
233.332 1225 m 350 1283.332 233.332 1283.332 175 1225 c S
175 1166.668 m 233.332 1050 233.332 1166.668 175 1225 c S
116.668 1225 m 0 1166.668 116.668 1166.668 175 1225 c S
233.332 1225 m 350 1166.668 233.332 1166.668 175 1225 c S
116.668 1225 m 0 1283.332 116.668 1283.332 175 1225 c S
175 1166.668 m 116.668 1050 116.668 1166.668 175 1225 c S
175 1283.332 m 233.332 1400 233.332 1283.332 175 1225 c S
175 933.332 m 116.668 1050 116.668 933.332 175 875 c S
233.332 875 m 350 933.332 233.332 933.332 175 875 c S
175 816.668 m 233.332 700 233.332 816.668 175 875 c S
116.668 875 m 0 816.668 116.668 816.668 175 875 c S
233.332 875 m 350 816.668 233.332 816.668 175 875 c S
116.668 875 m 0 933.332 116.668 933.332 175 875 c S
175 816.668 m 116.668 700 116.668 816.668 175 875 c S
175 933.332 m 233.332 1050 233.332 933.332 175 875 c S
175 583.332 m 116.668 700 116.668 583.332 175 525 c S
233.332 525 m 350 583.332 233.332 583.332 175 525 c S
175 466.668 m 233.332 350 233.332 466.668 175 525 c S
116.668 525 m 0 466.668 116.668 466.668 175 525 c S
233.332 525 m 350 466.668 233.332 466.668 175 525 c S
116.668 525 m 0 583.332 116.668 583.332 175 525 c S
175 466.668 m 116.668 350 116.668 466.668 175 525 c S
175 583.332 m 233.332 700 233.332 583.332 175 525 c S
175 233.332 m 116.668 350 116.668 233.332 175 175 c S
233.332 175 m 350 233.332 233.332 233.332 175 175 c S
175 116.668 m 233.332 0 233.332 116.668 175 175 c S
116.668 175 m 0 116.668 116.668 116.668 175 175 c S
233.332 175 m 350 116.668 233.332 116.668 175 175 c S
116.668 175 m 0 233.332 116.668 233.332 175 175 c S
175 116.668 m 116.668 0 116.668 116.668 175 175 c S
175 233.332 m 233.332 350 233.332 233.332 175 175 c S
525 1283.332 m 466.668 1400 466.668 1283.332 525 1225 c S
583.332 1225 m 700 1283.332 583.332 1283.332 525 1225 c S
525 1166.668 m 583.332 1050 583.332 1166.668 525 1225 c S
466.668 1225 m 350 1166.668 466.668 1166.668 525 1225 c S
583.332 1225 m 700 1166.668 583.332 1166.668 525 1225 c S
466.668 1225 m 350 1283.332 466.668 1283.332 525 1225 c S
525 1166.668 m 466.668 1050 466.668 1166.668 525 1225 c S
525 1283.332 m 583.332 1400 583.332 1283.332 525 1225 c S
525 933.332 m 466.668 1050 466.668 933.332 525 875 c S
583.332 875 m 700 933.332 583.332 933.332 525 875 c S
525 816.668 m 583.332 700 583.332 816.668 525 875 c S
466.668 875 m 350 816.668 466.668 816.668 525 875 c S
583.332 875 m 700 816.668 583.332 816.668 525 875 c S
466.668 875 m 350 933.332 466.668 933.332 525 875 c S
525 816.668 m 466.668 700 466.668 816.668 525 875 c S
525 933.332 m 583.332 1050 583.332 933.332 525 875 c S
525 583.332 m 466.668 700 466.668 583.332 525 525 c S
583.332 525 m 700 583.332 583.332 583.332 525 525 c S
525 466.668 m 583.332 350 583.332 466.668 525 525 c S
466.668 525 m 350 466.668 466.668 466.668 525 525 c S
583.332 525 m 700 466.668 583.332 466.668 525 525 c S
466.668 525 m 350 583.332 466.668 583.332 525 525 c S
525 466.668 m 466.668 350 466.668 466.668 525 525 c S
525 583.332 m 583.332 700 583.332 583.332 525 525 c S
525 233.332 m 466.668 350 466.668 233.332 525 175 c S
583.332 175 m 700 233.332 583.332 233.332 525 175 c S
525 116.668 m 583.332 0 583.332 116.668 525 175 c S
466.668 175 m 350 116.668 466.668 116.668 525 175 c S
583.332 175 m 700 116.668 583.332 116.668 525 175 c S
466.668 175 m 350 233.332 466.668 233.332 525 175 c S
525 116.668 m 466.668 0 466.668 116.668 525 175 c S
525 233.332 m 583.332 350 583.332 233.332 525 175 c S
875 1283.332 m 816.668 1400 816.668 1283.332 875 1225 c S
933.332 1225 m 1050 1283.332 933.332 1283.332 875 1225 c S
875 1166.668 m 933.332 1050 933.332 1166.668 875 1225 c S
816.668 1225 m 700 1166.668 816.668 1166.668 875 1225 c S
933.332 1225 m 1050 1166.668 933.332 1166.668 875 1225 c S
816.668 1225 m 700 1283.332 816.668 1283.332 875 1225 c S
875 1166.668 m 816.668 1050 816.668 1166.668 875 1225 c S
875 1283.332 m 933.332 1400 933.332 1283.332 875 1225 c S
875 933.332 m 816.668 1050 816.668 933.332 875 875 c S
933.332 875 m 1050 933.332 933.332 933.332 875 875 c S
875 816.668 m 933.332 700 933.332 816.668 875 875 c S
816.668 875 m 700 816.668 816.668 816.668 875 875 c S
933.332 875 m 1050 816.668 933.332 816.668 875 875 c S
816.668 875 m 700 933.332 816.668 933.332 875 875 c S
875 816.668 m 816.668 700 816.668 816.668 875 875 c S
875 933.332 m 933.332 1050 933.332 933.332 875 875 c S
875 583.332 m 816.668 700 816.668 583.332 875 525 c S
933.332 525 m 1050 583.332 933.332 583.332 875 525 c S
875 466.668 m 933.332 350 933.332 466.668 875 525 c S
816.668 525 m 700 466.668 816.668 466.668 875 525 c S
933.332 525 m 1050 466.668 933.332 466.668 875 525 c S
816.668 525 m 700 583.332 816.668 583.332 875 525 c S
875 466.668 m 816.668 350 816.668 466.668 875 525 c S
875 583.332 m 933.332 700 933.332 583.332 875 525 c S
875 233.332 m 816.668 350 816.668 233.332 875 175 c S
933.332 175 m 1050 233.332 933.332 233.332 875 175 c S
875 116.668 m 933.332 0 933.332 116.668 875 175 c S
816.668 175 m 700 116.668 816.668 116.668 875 175 c S
933.332 175 m 1050 116.668 933.332 116.668 875 175 c S
816.668 175 m 700 233.332 816.668 233.332 875 175 c S
875 116.668 m 816.668 0 816.668 116.668 875 175 c S
875 233.332 m 933.332 350 933.332 233.332 875 175 c S
1225 1283.332 m 1166.668 1400 1166.668 1283.332 1225 1225 c S
1283.332 1225 m 1400 1283.332 1283.332 1283.332 1225 1225 c S
1225 1166.668 m 1283.332 1050 1283.332 1166.668 1225 1225 c S
1166.668 1225 m 1050 1166.668 1166.668 1166.668 1225 1225 c S
1283.332 1225 m 1400 1166.668 1283.332 1166.668 1225 1225 c S
1166.668 1225 m 1050 1283.332 1166.668 1283.332 1225 1225 c S
1225 1166.668 m 1166.668 1050 1166.668 1166.668 1225 1225 c S
1225 1283.332 m 1283.332 1400 1283.332 1283.332 1225 1225 c S
1225 933.332 m 1166.668 1050 1166.668 933.332 1225 875 c S
1283.332 875 m 1400 933.332 1283.332 933.332 1225 875 c S
1225 816.668 m 1283.332 700 1283.332 816.668 1225 875 c S
1166.668 875 m 1050 816.668 1166.668 816.668 1225 875 c S
1283.332 875 m 1400 816.668 1283.332 816.668 1225 875 c S
1166.668 875 m 1050 933.332 1166.668 933.332 1225 875 c S
1225 816.668 m 1166.668 700 1166.668 816.668 1225 875 c S
1225 933.332 m 1283.332 1050 1283.332 933.332 1225 875 c S
1225 583.332 m 1166.668 700 1166.668 583.332 1225 525 c S
1283.332 525 m 1400 583.332 1283.332 583.332 1225 525 c S
1225 466.668 m 1283.332 350 1283.332 466.668 1225 525 c S
1166.668 525 m 1050 466.668 1166.668 466.668 1225 525 c S
1283.332 525 m 1400 466.668 1283.332 466.668 1225 525 c S
1166.668 525 m 1050 583.332 1166.668 583.332 1225 525 c S
1225 466.668 m 1166.668 350 1166.668 466.668 1225 525 c S
1225 583.332 m 1283.332 700 1283.332 583.332 1225 525 c S
1225 233.332 m 1166.668 350 1166.668 233.332 1225 175 c S
1283.332 175 m 1400 233.332 1283.332 233.332 1225 175 c S
1225 116.668 m 1283.332 0 1283.332 116.668 1225 175 c S
1166.668 175 m 1050 116.668 1166.668 116.668 1225 175 c S
1283.332 175 m 1400 116.668 1283.332 116.668 1225 175 c S
1166.668 175 m 1050 233.332 1166.668 233.332 1225 175 c S
1225 116.668 m 1166.668 0 1166.668 116.668 1225 175 c S
1225 233.332 m 1283.332 350 1283.332 233.332 1225 175 c S
1575 1283.332 m 1516.668 1400 1516.668 1283.332 1575 1225 c S
1633.332 1225 m 1750 1283.332 1633.332 1283.332 1575 1225 c S
1575 1166.668 m 1633.332 1050 1633.332 1166.668 1575 1225 c S
1516.668 1225 m 1400 1166.668 1516.668 1166.668 1575 1225 c S
1633.332 1225 m 1750 1166.668 1633.332 1166.668 1575 1225 c S
1516.668 1225 m 1400 1283.332 1516.668 1283.332 1575 1225 c S
1575 1166.668 m 1516.668 1050 1516.668 1166.668 1575 1225 c S
1575 1283.332 m 1633.332 1400 1633.332 1283.332 1575 1225 c S
1575 933.332 m 1516.668 1050 1516.668 933.332 1575 875 c S
1633.332 875 m 1750 933.332 1633.332 933.332 1575 875 c S
1575 816.668 m 1633.332 700 1633.332 816.668 1575 875 c S
1516.668 875 m 1400 816.668 1516.668 816.668 1575 875 c S
1633.332 875 m 1750 816.668 1633.332 816.668 1575 875 c S
1516.668 875 m 1400 933.332 1516.668 933.332 1575 875 c S
1575 816.668 m 1516.668 700 1516.668 816.668 1575 875 c S
1575 933.332 m 1633.332 1050 1633.332 933.332 1575 875 c S
1575 583.332 m 1516.668 700 1516.668 583.332 1575 525 c S
1633.332 525 m 1750 583.332 1633.332 583.332 1575 525 c S
1575 466.668 m 1633.332 350 1633.332 466.668 1575 525 c S
1516.668 525 m 1400 466.668 1516.668 466.668 1575 525 c S
1633.332 525 m 1750 466.668 1633.332 466.668 1575 525 c S
1516.668 525 m 1400 583.332 1516.668 583.332 1575 525 c S
1575 466.668 m 1516.668 350 1516.668 466.668 1575 525 c S
1575 583.332 m 1633.332 700 1633.332 583.332 1575 525 c S
1575 233.332 m 1516.668 350 1516.668 233.332 1575 175 c S
1633.332 175 m 1750 233.332 1633.332 233.332 1575 175 c S
1575 116.668 m 1633.332 0 1633.332 116.668 1575 175 c S
1516.668 175 m 1400 116.668 1516.668 116.668 1575 175 c S
1633.332 175 m 1750 116.668 1633.332 116.668 1575 175 c S
1516.668 175 m 1400 233.332 1516.668 233.332 1575 175 c S
1575 116.668 m 1516.668 0 1516.668 116.668 1575 175 c S
1575 233.332 m 1633.332 350 1633.332 233.332 1575 175 c S
1925 1283.332 m 1866.668 1400 1866.668 1283.332 1925 1225 c S
1983.332 1225 m 2100 1283.332 1983.332 1283.332 1925 1225 c S
1925 1166.668 m 1983.332 1050 1983.332 1166.668 1925 1225 c S
1866.668 1225 m 1750 1166.668 1866.668 1166.668 1925 1225 c S
1983.332 1225 m 2100 1166.668 1983.332 1166.668 1925 1225 c S
1866.668 1225 m 1750 1283.332 1866.668 1283.332 1925 1225 c S
1925 1166.668 m 1866.668 1050 1866.668 1166.668 1925 1225 c S
1925 1283.332 m 1983.332 1400 1983.332 1283.332 1925 1225 c S
1925 933.332 m 1866.668 1050 1866.668 933.332 1925 875 c S
1983.332 875 m 2100 933.332 1983.332 933.332 1925 875 c S
1925 816.668 m 1983.332 700 1983.332 816.668 1925 875 c S
1866.668 875 m 1750 816.668 1866.668 816.668 1925 875 c S
1983.332 875 m 2100 816.668 1983.332 816.668 1925 875 c S
1866.668 875 m 1750 933.332 1866.668 933.332 1925 875 c S
1925 816.668 m 1866.668 700 1866.668 816.668 1925 875 c S
1925 933.332 m 1983.332 1050 1983.332 933.332 1925 875 c S
1925 583.332 m 1866.668 700 1866.668 583.332 1925 525 c S
1983.332 525 m 2100 583.332 1983.332 583.332 1925 525 c S
1925 466.668 m 1983.332 350 1983.332 466.668 1925 525 c S
1866.668 525 m 1750 466.668 1866.668 466.668 1925 525 c S
1983.332 525 m 2100 466.668 1983.332 466.668 1925 525 c S
1866.668 525 m 1750 583.332 1866.668 583.332 1925 525 c S
1925 466.668 m 1866.668 350 1866.668 466.668 1925 525 c S
1925 583.332 m 1983.332 700 1983.332 583.332 1925 525 c S
1925 233.332 m 1866.668 350 1866.668 233.332 1925 175 c S
1983.332 175 m 2100 233.332 1983.332 233.332 1925 175 c S
1925 116.668 m 1983.332 0 1983.332 116.668 1925 175 c S
1866.668 175 m 1750 116.668 1866.668 116.668 1925 175 c S
1983.332 175 m 2100 116.668 1983.332 116.668 1925 175 c S
1866.668 175 m 1750 233.332 1866.668 233.332 1925 175 c S
1925 116.668 m 1866.668 0 1866.668 116.668 1925 175 c S
1925 233.332 m 1983.332 350 1983.332 233.332 1925 175 c S
Q Q
showpage
%%Trailer
%%Trailer
cleartomark
countdictstack
exch sub { end } repeat
restore
%%EOF
