%!PS-Adobe-2.0 EPSF-2.0
%%BoundingBox: 0 0 1200 1039
%%HiResBoundingBox: 0.000000 0.000000 1200.000000 1039.000000
%%Creator: cairo 1.14.2 (http://cairographics.org)
%%CreationDate: Mon Sep  7 08:21:39 2015
%%DocumentData: Clean7Bit
%%LanguageLevel: 2
%%DocumentMedia: 423x367mm 1200 1039 0 () ()
%%EndComments
% EPSF created by ps2eps 1.68
%%BeginProlog
save
countdictstack
mark
newpath
/showpage {} def
/setpagedevice {pop} def
%%EndProlog
%%Page 1 1
%%BeginProlog
/languagelevel where
{ pop languagelevel } { 1 } ifelse
2 lt { /Helvetica findfont 12 scalefont setfont 50 500 moveto
  (This print job requires a PostScript Language Level 2 printer.) show
  showpage quit } if
/q { gsave } bind def
/Q { grestore } bind def
/cm { 6 array astore concat } bind def
/w { setlinewidth } bind def
/J { setlinecap } bind def
/j { setlinejoin } bind def
/M { setmiterlimit } bind def
/d { setdash } bind def
/m { moveto } bind def
/l { lineto } bind def
/c { curveto } bind def
/h { closepath } bind def
/re { exch dup neg 3 1 roll 5 3 roll moveto 0 rlineto
      0 exch rlineto 0 rlineto closepath } bind def
/S { stroke } bind def
/f { fill } bind def
/f* { eofill } bind def
/n { newpath } bind def
/W { clip } bind def
/W* { eoclip } bind def
/BT { } bind def
/ET { } bind def
/pdfmark where { pop globaldict /?pdfmark /exec load put }
    { globaldict begin /?pdfmark /pop load def /pdfmark
    /cleartomark load def end } ifelse
/BDC { mark 3 1 roll /BDC pdfmark } bind def
/EMC { mark /EMC pdfmark } bind def
/cairo_store_point { /cairo_point_y exch def /cairo_point_x exch def } def
/Tj { show currentpoint cairo_store_point } bind def
/TJ {
  {
    dup
    type /stringtype eq
    { show } { -0.001 mul 0 cairo_font_matrix dtransform rmoveto } ifelse
  } forall
  currentpoint cairo_store_point
} bind def
/cairo_selectfont { cairo_font_matrix aload pop pop pop 0 0 6 array astore
    cairo_font exch selectfont cairo_point_x cairo_point_y moveto } bind def
/Tf { pop /cairo_font exch def /cairo_font_matrix where
      { pop cairo_selectfont } if } bind def
/Td { matrix translate cairo_font_matrix matrix concatmatrix dup
      /cairo_font_matrix exch def dup 4 get exch 5 get cairo_store_point
      /cairo_font where { pop cairo_selectfont } if } bind def
/Tm { 2 copy 8 2 roll 6 array astore /cairo_font_matrix exch def
      cairo_store_point /cairo_font where { pop cairo_selectfont } if } bind def
/g { setgray } bind def
/rg { setrgbcolor } bind def
/d1 { setcachedevice } bind def
/cairo_set_page_size {
  % Change paper size, but only if different from previous paper size otherwise
  % duplex fails. PLRM specifies a tolerance of 5 pts when matching paper size
  % so we use the same when checking if the size changes.
  /setpagedevice where {
    pop currentpagedevice
    /PageSize known {
      2 copy
      currentpagedevice /PageSize get aload pop
      exch 4 1 roll
      sub abs 5 gt
      3 1 roll
      sub abs 5 gt
      or
    } {
      true
    } ifelse
    {
      2 array astore
      2 dict begin
        /PageSize exch def
        /ImagingBBox null def
      currentdict end
      setpagedevice
    } {
      pop pop
    } ifelse
  } {
    pop
  } ifelse
} def
%%EndProlog
%%BeginSetup
%%EndSetup
%%Page: 1 1
%%BeginPageSetup
%%PageMedia: 423x367mm
%%PageBoundingBox: 0 0 1200 1039
1200 1039 cairo_set_page_size
%%EndPageSetup
q 0 0 1200 1039 rectclip q
0.984314 g
0 0 1200 1039 rectfill
0.788235 g
1.875 w
0 J
1 j
[] 0.0 d
4 M 0 1039 1200 -1039.23 re S
0.85098 g
0 346.18 m 50 317.312 l 0 288.445 l -50 317.312 l h
0 346.18 m f*
0 g
2.5 w
0 346.18 m 50 317.312 l 0 288.445 l -50 317.312 l h
0 346.18 m S
0 346.18 m -50 317.312 l -50 375.047 l 0 403.914 l h
0 346.18 m S
0.85098 g
0 346.18 m 0 403.914 l 50 375.047 l 50 317.312 l h
0 346.18 m f*
0 g
0 346.18 m 0 403.914 l 50 375.047 l 50 317.312 l h
0 346.18 m S
0.85098 g
0 172.973 m -50 201.844 l 0 230.711 l 50 201.844 l h
0 172.973 m f*
0 g
0 172.973 m -50 201.844 l 0 230.711 l 50 201.844 l h
0 172.973 m S
0.85098 g
0 172.973 m 50 201.844 l 50 144.105 l 0 115.238 l h
0 172.973 m f*
0 g
0 172.973 m 50 201.844 l 50 144.105 l 0 115.238 l h
0 172.973 m S
0 172.973 m 0 115.238 l -50 144.105 l -50 201.844 l h
0 172.973 m S
0.85098 g
150 86.371 m 200 57.504 l 150 28.637 l 100 57.504 l h
150 86.371 m f*
0 g
150 86.371 m 200 57.504 l 150 28.637 l 100 57.504 l h
150 86.371 m S
0.85098 g
150 86.371 m 100 57.504 l 100 115.238 l 150 144.105 l h
150 86.371 m f*
0 g
150 86.371 m 100 57.504 l 100 115.238 l 150 144.105 l h
150 86.371 m S
0.85098 g
150 86.371 m 150 144.105 l 200 115.238 l 200 57.504 l h
150 86.371 m f*
0 g
150 86.371 m 150 144.105 l 200 115.238 l 200 57.504 l h
150 86.371 m S
0.85098 g
0 865.793 m 50 836.926 l 0 808.059 l -50 836.926 l h
0 865.793 m f*
0 g
0 865.793 m 50 836.926 l 0 808.059 l -50 836.926 l h
0 865.793 m S
0 865.793 m -50 836.926 l -50 894.664 l 0 923.531 l h
0 865.793 m S
0.85098 g
0 865.793 m 0 923.531 l 50 894.664 l 50 836.926 l h
0 865.793 m f*
0 g
0 865.793 m 0 923.531 l 50 894.664 l 50 836.926 l h
0 865.793 m S
0.85098 g
0 692.59 m -50 721.457 l 0 750.324 l 50 721.457 l h
0 692.59 m f*
0 g
0 692.59 m -50 721.457 l 0 750.324 l 50 721.457 l h
0 692.59 m S
0.85098 g
0 692.59 m 50 721.457 l 50 663.723 l 0 634.855 l h
0 692.59 m f*
0 g
0 692.59 m 50 721.457 l 50 663.723 l 0 634.855 l h
0 692.59 m S
0 692.59 m 0 634.855 l -50 663.723 l -50 721.457 l h
0 692.59 m S
0.85098 g
150 605.988 m 200 577.121 l 150 548.254 l 100 577.121 l h
150 605.988 m f*
0 g
150 605.988 m 200 577.121 l 150 548.254 l 100 577.121 l h
150 605.988 m S
0.85098 g
150 605.988 m 100 577.121 l 100 634.855 l 150 663.723 l h
150 605.988 m f*
0 g
150 605.988 m 100 577.121 l 100 634.855 l 150 663.723 l h
150 605.988 m S
0.85098 g
150 605.988 m 150 663.723 l 200 634.855 l 200 577.121 l h
150 605.988 m f*
0 g
150 605.988 m 150 663.723 l 200 634.855 l 200 577.121 l h
150 605.988 m S
0.85098 g
150 432.781 m 100 461.648 l 150 490.516 l 200 461.648 l h
150 432.781 m f*
0 g
150 432.781 m 100 461.648 l 150 490.516 l 200 461.648 l h
150 432.781 m S
0.85098 g
150 432.781 m 200 461.648 l 200 403.914 l 150 375.047 l h
150 432.781 m f*
0 g
150 432.781 m 200 461.648 l 200 403.914 l 150 375.047 l h
150 432.781 m S
0.85098 g
150 432.781 m 150 375.047 l 100 403.914 l 100 461.648 l h
150 432.781 m f*
0 g
150 432.781 m 150 375.047 l 100 403.914 l 100 461.648 l h
150 432.781 m S
0.85098 g
300 346.18 m 350 317.312 l 300 288.445 l 250 317.312 l h
300 346.18 m f*
0 g
300 346.18 m 350 317.312 l 300 288.445 l 250 317.312 l h
300 346.18 m S
0.85098 g
300 346.18 m 250 317.312 l 250 375.047 l 300 403.914 l h
300 346.18 m f*
0 g
300 346.18 m 250 317.312 l 250 375.047 l 300 403.914 l h
300 346.18 m S
0.85098 g
300 346.18 m 300 403.914 l 350 375.047 l 350 317.312 l h
300 346.18 m f*
0 g
300 346.18 m 300 403.914 l 350 375.047 l 350 317.312 l h
300 346.18 m S
0.85098 g
300 172.973 m 250 201.844 l 300 230.711 l 350 201.844 l h
300 172.973 m f*
0 g
300 172.973 m 250 201.844 l 300 230.711 l 350 201.844 l h
300 172.973 m S
0.85098 g
300 172.973 m 350 201.844 l 350 144.105 l 300 115.238 l h
300 172.973 m f*
0 g
300 172.973 m 350 201.844 l 350 144.105 l 300 115.238 l h
300 172.973 m S
0.85098 g
300 172.973 m 300 115.238 l 250 144.105 l 250 201.844 l h
300 172.973 m f*
0 g
300 172.973 m 300 115.238 l 250 144.105 l 250 201.844 l h
300 172.973 m S
0.85098 g
450 86.371 m 500 57.504 l 450 28.637 l 400 57.504 l h
450 86.371 m f*
0 g
450 86.371 m 500 57.504 l 450 28.637 l 400 57.504 l h
450 86.371 m S
0.85098 g
450 86.371 m 400 57.504 l 400 115.238 l 450 144.105 l h
450 86.371 m f*
0 g
450 86.371 m 400 57.504 l 400 115.238 l 450 144.105 l h
450 86.371 m S
0.85098 g
450 86.371 m 450 144.105 l 500 115.238 l 500 57.504 l h
450 86.371 m f*
0 g
450 86.371 m 450 144.105 l 500 115.238 l 500 57.504 l h
450 86.371 m S
0.85098 g
150 952.398 m 100 981.266 l 150 1010.133 l 200 981.266 l h
150 952.398 m f*
0 g
150 952.398 m 100 981.266 l 150 1010.133 l 200 981.266 l h
150 952.398 m S
0.85098 g
150 952.398 m 200 981.266 l 200 923.531 l 150 894.664 l h
150 952.398 m f*
0 g
150 952.398 m 200 981.266 l 200 923.531 l 150 894.664 l h
150 952.398 m S
0.85098 g
150 952.398 m 150 894.664 l 100 923.531 l 100 981.266 l h
150 952.398 m f*
0 g
150 952.398 m 150 894.664 l 100 923.531 l 100 981.266 l h
150 952.398 m S
0.85098 g
300 865.793 m 350 836.926 l 300 808.059 l 250 836.926 l h
300 865.793 m f*
0 g
300 865.793 m 350 836.926 l 300 808.059 l 250 836.926 l h
300 865.793 m S
0.85098 g
300 865.793 m 250 836.926 l 250 894.664 l 300 923.531 l h
300 865.793 m f*
0 g
300 865.793 m 250 836.926 l 250 894.664 l 300 923.531 l h
300 865.793 m S
0.85098 g
300 865.793 m 300 923.531 l 350 894.664 l 350 836.926 l h
300 865.793 m f*
0 g
300 865.793 m 300 923.531 l 350 894.664 l 350 836.926 l h
300 865.793 m S
0.85098 g
300 692.59 m 250 721.457 l 300 750.324 l 350 721.457 l h
300 692.59 m f*
0 g
300 692.59 m 250 721.457 l 300 750.324 l 350 721.457 l h
300 692.59 m S
0.85098 g
300 692.59 m 350 721.457 l 350 663.723 l 300 634.855 l h
300 692.59 m f*
0 g
300 692.59 m 350 721.457 l 350 663.723 l 300 634.855 l h
300 692.59 m S
0.85098 g
300 692.59 m 300 634.855 l 250 663.723 l 250 721.457 l h
300 692.59 m f*
0 g
300 692.59 m 300 634.855 l 250 663.723 l 250 721.457 l h
300 692.59 m S
0.85098 g
450 605.988 m 500 577.121 l 450 548.254 l 400 577.121 l h
450 605.988 m f*
0 g
450 605.988 m 500 577.121 l 450 548.254 l 400 577.121 l h
450 605.988 m S
0.85098 g
450 605.988 m 400 577.121 l 400 634.855 l 450 663.723 l h
450 605.988 m f*
0 g
450 605.988 m 400 577.121 l 400 634.855 l 450 663.723 l h
450 605.988 m S
0.85098 g
450 605.988 m 450 663.723 l 500 634.855 l 500 577.121 l h
450 605.988 m f*
0 g
450 605.988 m 450 663.723 l 500 634.855 l 500 577.121 l h
450 605.988 m S
0.85098 g
450 432.781 m 400 461.648 l 450 490.516 l 500 461.648 l h
450 432.781 m f*
0 g
450 432.781 m 400 461.648 l 450 490.516 l 500 461.648 l h
450 432.781 m S
0.85098 g
450 432.781 m 500 461.648 l 500 403.914 l 450 375.047 l h
450 432.781 m f*
0 g
450 432.781 m 500 461.648 l 500 403.914 l 450 375.047 l h
450 432.781 m S
0.85098 g
450 432.781 m 450 375.047 l 400 403.914 l 400 461.648 l h
450 432.781 m f*
0 g
450 432.781 m 450 375.047 l 400 403.914 l 400 461.648 l h
450 432.781 m S
0.85098 g
600 346.18 m 650 317.312 l 600 288.445 l 550 317.312 l h
600 346.18 m f*
0 g
600 346.18 m 650 317.312 l 600 288.445 l 550 317.312 l h
600 346.18 m S
0.85098 g
600 346.18 m 550 317.312 l 550 375.047 l 600 403.914 l h
600 346.18 m f*
0 g
600 346.18 m 550 317.312 l 550 375.047 l 600 403.914 l h
600 346.18 m S
0.85098 g
600 346.18 m 600 403.914 l 650 375.047 l 650 317.312 l h
600 346.18 m f*
0 g
600 346.18 m 600 403.914 l 650 375.047 l 650 317.312 l h
600 346.18 m S
0.85098 g
600 172.973 m 550 201.844 l 600 230.711 l 650 201.844 l h
600 172.973 m f*
0 g
600 172.973 m 550 201.844 l 600 230.711 l 650 201.844 l h
600 172.973 m S
0.85098 g
600 172.973 m 650 201.844 l 650 144.105 l 600 115.238 l h
600 172.973 m f*
0 g
600 172.973 m 650 201.844 l 650 144.105 l 600 115.238 l h
600 172.973 m S
0.85098 g
600 172.973 m 600 115.238 l 550 144.105 l 550 201.844 l h
600 172.973 m f*
0 g
600 172.973 m 600 115.238 l 550 144.105 l 550 201.844 l h
600 172.973 m S
0.85098 g
750 86.371 m 800 57.504 l 750 28.637 l 700 57.504 l h
750 86.371 m f*
0 g
750 86.371 m 800 57.504 l 750 28.637 l 700 57.504 l h
750 86.371 m S
0.85098 g
750 86.371 m 700 57.504 l 700 115.238 l 750 144.105 l h
750 86.371 m f*
0 g
750 86.371 m 700 57.504 l 700 115.238 l 750 144.105 l h
750 86.371 m S
0.85098 g
750 86.371 m 750 144.105 l 800 115.238 l 800 57.504 l h
750 86.371 m f*
0 g
750 86.371 m 750 144.105 l 800 115.238 l 800 57.504 l h
750 86.371 m S
0.85098 g
450 952.398 m 400 981.266 l 450 1010.133 l 500 981.266 l h
450 952.398 m f*
0 g
450 952.398 m 400 981.266 l 450 1010.133 l 500 981.266 l h
450 952.398 m S
0.85098 g
450 952.398 m 500 981.266 l 500 923.531 l 450 894.664 l h
450 952.398 m f*
0 g
450 952.398 m 500 981.266 l 500 923.531 l 450 894.664 l h
450 952.398 m S
0.85098 g
450 952.398 m 450 894.664 l 400 923.531 l 400 981.266 l h
450 952.398 m f*
0 g
450 952.398 m 450 894.664 l 400 923.531 l 400 981.266 l h
450 952.398 m S
0.85098 g
600 865.793 m 650 836.926 l 600 808.059 l 550 836.926 l h
600 865.793 m f*
0 g
600 865.793 m 650 836.926 l 600 808.059 l 550 836.926 l h
600 865.793 m S
0.85098 g
600 865.793 m 550 836.926 l 550 894.664 l 600 923.531 l h
600 865.793 m f*
0 g
600 865.793 m 550 836.926 l 550 894.664 l 600 923.531 l h
600 865.793 m S
0.85098 g
600 865.793 m 600 923.531 l 650 894.664 l 650 836.926 l h
600 865.793 m f*
0 g
600 865.793 m 600 923.531 l 650 894.664 l 650 836.926 l h
600 865.793 m S
0.85098 g
600 692.59 m 550 721.457 l 600 750.324 l 650 721.457 l h
600 692.59 m f*
0 g
600 692.59 m 550 721.457 l 600 750.324 l 650 721.457 l h
600 692.59 m S
0.85098 g
600 692.59 m 650 721.457 l 650 663.723 l 600 634.855 l h
600 692.59 m f*
0 g
600 692.59 m 650 721.457 l 650 663.723 l 600 634.855 l h
600 692.59 m S
0.85098 g
600 692.59 m 600 634.855 l 550 663.723 l 550 721.457 l h
600 692.59 m f*
0 g
600 692.59 m 600 634.855 l 550 663.723 l 550 721.457 l h
600 692.59 m S
0.85098 g
750 605.988 m 800 577.121 l 750 548.254 l 700 577.121 l h
750 605.988 m f*
0 g
750 605.988 m 800 577.121 l 750 548.254 l 700 577.121 l h
750 605.988 m S
0.85098 g
750 605.988 m 700 577.121 l 700 634.855 l 750 663.723 l h
750 605.988 m f*
0 g
750 605.988 m 700 577.121 l 700 634.855 l 750 663.723 l h
750 605.988 m S
0.85098 g
750 605.988 m 750 663.723 l 800 634.855 l 800 577.121 l h
750 605.988 m f*
0 g
750 605.988 m 750 663.723 l 800 634.855 l 800 577.121 l h
750 605.988 m S
0.85098 g
750 432.781 m 700 461.648 l 750 490.516 l 800 461.648 l h
750 432.781 m f*
0 g
750 432.781 m 700 461.648 l 750 490.516 l 800 461.648 l h
750 432.781 m S
0.85098 g
750 432.781 m 800 461.648 l 800 403.914 l 750 375.047 l h
750 432.781 m f*
0 g
750 432.781 m 800 461.648 l 800 403.914 l 750 375.047 l h
750 432.781 m S
0.85098 g
750 432.781 m 750 375.047 l 700 403.914 l 700 461.648 l h
750 432.781 m f*
0 g
750 432.781 m 750 375.047 l 700 403.914 l 700 461.648 l h
750 432.781 m S
0.85098 g
900 346.18 m 950 317.312 l 900 288.445 l 850 317.312 l h
900 346.18 m f*
0 g
900 346.18 m 950 317.312 l 900 288.445 l 850 317.312 l h
900 346.18 m S
0.85098 g
900 346.18 m 850 317.312 l 850 375.047 l 900 403.914 l h
900 346.18 m f*
0 g
900 346.18 m 850 317.312 l 850 375.047 l 900 403.914 l h
900 346.18 m S
0.85098 g
900 346.18 m 900 403.914 l 950 375.047 l 950 317.312 l h
900 346.18 m f*
0 g
900 346.18 m 900 403.914 l 950 375.047 l 950 317.312 l h
900 346.18 m S
0.85098 g
900 172.973 m 850 201.844 l 900 230.711 l 950 201.844 l h
900 172.973 m f*
0 g
900 172.973 m 850 201.844 l 900 230.711 l 950 201.844 l h
900 172.973 m S
0.85098 g
900 172.973 m 950 201.844 l 950 144.105 l 900 115.238 l h
900 172.973 m f*
0 g
900 172.973 m 950 201.844 l 950 144.105 l 900 115.238 l h
900 172.973 m S
0.85098 g
900 172.973 m 900 115.238 l 850 144.105 l 850 201.844 l h
900 172.973 m f*
0 g
900 172.973 m 900 115.238 l 850 144.105 l 850 201.844 l h
900 172.973 m S
0.85098 g
1050 86.371 m 1100 57.504 l 1050 28.637 l 1000 57.504 l h
1050 86.371 m f*
0 g
1050 86.371 m 1100 57.504 l 1050 28.637 l 1000 57.504 l h
1050 86.371 m S
0.85098 g
1050 86.371 m 1000 57.504 l 1000 115.238 l 1050 144.105 l h
1050 86.371 m f*
0 g
1050 86.371 m 1000 57.504 l 1000 115.238 l 1050 144.105 l h
1050 86.371 m S
0.85098 g
1050 86.371 m 1050 144.105 l 1100 115.238 l 1100 57.504 l h
1050 86.371 m f*
0 g
1050 86.371 m 1050 144.105 l 1100 115.238 l 1100 57.504 l h
1050 86.371 m S
0.85098 g
750 952.398 m 700 981.266 l 750 1010.133 l 800 981.266 l h
750 952.398 m f*
0 g
750 952.398 m 700 981.266 l 750 1010.133 l 800 981.266 l h
750 952.398 m S
0.85098 g
750 952.398 m 800 981.266 l 800 923.531 l 750 894.664 l h
750 952.398 m f*
0 g
750 952.398 m 800 981.266 l 800 923.531 l 750 894.664 l h
750 952.398 m S
0.85098 g
750 952.398 m 750 894.664 l 700 923.531 l 700 981.266 l h
750 952.398 m f*
0 g
750 952.398 m 750 894.664 l 700 923.531 l 700 981.266 l h
750 952.398 m S
0.85098 g
900 865.793 m 950 836.926 l 900 808.059 l 850 836.926 l h
900 865.793 m f*
0 g
900 865.793 m 950 836.926 l 900 808.059 l 850 836.926 l h
900 865.793 m S
0.85098 g
900 865.793 m 850 836.926 l 850 894.664 l 900 923.531 l h
900 865.793 m f*
0 g
900 865.793 m 850 836.926 l 850 894.664 l 900 923.531 l h
900 865.793 m S
0.85098 g
900 865.793 m 900 923.531 l 950 894.664 l 950 836.926 l h
900 865.793 m f*
0 g
900 865.793 m 900 923.531 l 950 894.664 l 950 836.926 l h
900 865.793 m S
0.85098 g
900 692.59 m 850 721.457 l 900 750.324 l 950 721.457 l h
900 692.59 m f*
0 g
900 692.59 m 850 721.457 l 900 750.324 l 950 721.457 l h
900 692.59 m S
0.85098 g
900 692.59 m 950 721.457 l 950 663.723 l 900 634.855 l h
900 692.59 m f*
0 g
900 692.59 m 950 721.457 l 950 663.723 l 900 634.855 l h
900 692.59 m S
0.85098 g
900 692.59 m 900 634.855 l 850 663.723 l 850 721.457 l h
900 692.59 m f*
0 g
900 692.59 m 900 634.855 l 850 663.723 l 850 721.457 l h
900 692.59 m S
0.85098 g
1050 605.988 m 1100 577.121 l 1050 548.254 l 1000 577.121 l h
1050 605.988 m f*
0 g
1050 605.988 m 1100 577.121 l 1050 548.254 l 1000 577.121 l h
1050 605.988 m S
0.85098 g
1050 605.988 m 1000 577.121 l 1000 634.855 l 1050 663.723 l h
1050 605.988 m f*
0 g
1050 605.988 m 1000 577.121 l 1000 634.855 l 1050 663.723 l h
1050 605.988 m S
0.85098 g
1050 605.988 m 1050 663.723 l 1100 634.855 l 1100 577.121 l h
1050 605.988 m f*
0 g
1050 605.988 m 1050 663.723 l 1100 634.855 l 1100 577.121 l h
1050 605.988 m S
0.85098 g
1050 432.781 m 1000 461.648 l 1050 490.516 l 1100 461.648 l h
1050 432.781 m f*
0 g
1050 432.781 m 1000 461.648 l 1050 490.516 l 1100 461.648 l h
1050 432.781 m S
0.85098 g
1050 432.781 m 1100 461.648 l 1100 403.914 l 1050 375.047 l h
1050 432.781 m f*
0 g
1050 432.781 m 1100 461.648 l 1100 403.914 l 1050 375.047 l h
1050 432.781 m S
0.85098 g
1050 432.781 m 1050 375.047 l 1000 403.914 l 1000 461.648 l h
1050 432.781 m f*
0 g
1050 432.781 m 1050 375.047 l 1000 403.914 l 1000 461.648 l h
1050 432.781 m S
0.85098 g
1200 346.18 m 1250 317.312 l 1200 288.445 l 1150 317.312 l h
1200 346.18 m f*
0 g
1200 346.18 m 1250 317.312 l 1200 288.445 l 1150 317.312 l h
1200 346.18 m S
0.85098 g
1200 346.18 m 1150 317.312 l 1150 375.047 l 1200 403.914 l h
1200 346.18 m f*
0 g
1200 346.18 m 1150 317.312 l 1150 375.047 l 1200 403.914 l h
1200 346.18 m S
1200 346.18 m 1200 403.914 l 1250 375.047 l 1250 317.312 l h
1200 346.18 m S
0.85098 g
1200 172.973 m 1150 201.844 l 1200 230.711 l 1250 201.844 l h
1200 172.973 m f*
0 g
1200 172.973 m 1150 201.844 l 1200 230.711 l 1250 201.844 l h
1200 172.973 m S
1200 172.973 m 1250 201.844 l 1250 144.105 l 1200 115.238 l h
1200 172.973 m S
0.85098 g
1200 172.973 m 1200 115.238 l 1150 144.105 l 1150 201.844 l h
1200 172.973 m f*
0 g
1200 172.973 m 1200 115.238 l 1150 144.105 l 1150 201.844 l h
1200 172.973 m S
0.85098 g
1050 952.398 m 1000 981.266 l 1050 1010.133 l 1100 981.266 l h
1050 952.398 m f*
0 g
1050 952.398 m 1000 981.266 l 1050 1010.133 l 1100 981.266 l h
1050 952.398 m S
0.85098 g
1050 952.398 m 1100 981.266 l 1100 923.531 l 1050 894.664 l h
1050 952.398 m f*
0 g
1050 952.398 m 1100 981.266 l 1100 923.531 l 1050 894.664 l h
1050 952.398 m S
0.85098 g
1050 952.398 m 1050 894.664 l 1000 923.531 l 1000 981.266 l h
1050 952.398 m f*
0 g
1050 952.398 m 1050 894.664 l 1000 923.531 l 1000 981.266 l h
1050 952.398 m S
0.85098 g
1200 865.793 m 1250 836.926 l 1200 808.059 l 1150 836.926 l h
1200 865.793 m f*
0 g
1200 865.793 m 1250 836.926 l 1200 808.059 l 1150 836.926 l h
1200 865.793 m S
0.85098 g
1200 865.793 m 1150 836.926 l 1150 894.664 l 1200 923.531 l h
1200 865.793 m f*
0 g
1200 865.793 m 1150 836.926 l 1150 894.664 l 1200 923.531 l h
1200 865.793 m S
1200 865.793 m 1200 923.531 l 1250 894.664 l 1250 836.926 l h
1200 865.793 m S
0.85098 g
1200 692.59 m 1150 721.457 l 1200 750.324 l 1250 721.457 l h
1200 692.59 m f*
0 g
1200 692.59 m 1150 721.457 l 1200 750.324 l 1250 721.457 l h
1200 692.59 m S
1200 692.59 m 1250 721.457 l 1250 663.723 l 1200 634.855 l h
1200 692.59 m S
0.85098 g
1200 692.59 m 1200 634.855 l 1150 663.723 l 1150 721.457 l h
1200 692.59 m f*
0 g
1200 692.59 m 1200 634.855 l 1150 663.723 l 1150 721.457 l h
1200 692.59 m S
Q Q
showpage
%%Trailer
%%Trailer
cleartomark
countdictstack
exch sub { end } repeat
restore
%%EOF
