%!PS-Adobe-2.0 EPSF-2.0
%%BoundingBox: 0 0 1200 1039
%%HiResBoundingBox: 0.000000 0.000000 1200.000000 1039.000000
%%Creator: cairo 1.14.2 (http://cairographics.org)
%%CreationDate: Mon Sep  7 08:21:39 2015
%%DocumentData: Clean7Bit
%%LanguageLevel: 2
%%DocumentMedia: 423x367mm 1200 1039 0 () ()
%%EndComments
% EPSF created by ps2eps 1.68
%%BeginProlog
save
countdictstack
mark
newpath
/showpage {} def
/setpagedevice {pop} def
%%EndProlog
%%Page 1 1
%%BeginProlog
/languagelevel where
{ pop languagelevel } { 1 } ifelse
2 lt { /Helvetica findfont 12 scalefont setfont 50 500 moveto
  (This print job requires a PostScript Language Level 2 printer.) show
  showpage quit } if
/q { gsave } bind def
/Q { grestore } bind def
/cm { 6 array astore concat } bind def
/w { setlinewidth } bind def
/J { setlinecap } bind def
/j { setlinejoin } bind def
/M { setmiterlimit } bind def
/d { setdash } bind def
/m { moveto } bind def
/l { lineto } bind def
/c { curveto } bind def
/h { closepath } bind def
/re { exch dup neg 3 1 roll 5 3 roll moveto 0 rlineto
      0 exch rlineto 0 rlineto closepath } bind def
/S { stroke } bind def
/f { fill } bind def
/f* { eofill } bind def
/n { newpath } bind def
/W { clip } bind def
/W* { eoclip } bind def
/BT { } bind def
/ET { } bind def
/pdfmark where { pop globaldict /?pdfmark /exec load put }
    { globaldict begin /?pdfmark /pop load def /pdfmark
    /cleartomark load def end } ifelse
/BDC { mark 3 1 roll /BDC pdfmark } bind def
/EMC { mark /EMC pdfmark } bind def
/cairo_store_point { /cairo_point_y exch def /cairo_point_x exch def } def
/Tj { show currentpoint cairo_store_point } bind def
/TJ {
  {
    dup
    type /stringtype eq
    { show } { -0.001 mul 0 cairo_font_matrix dtransform rmoveto } ifelse
  } forall
  currentpoint cairo_store_point
} bind def
/cairo_selectfont { cairo_font_matrix aload pop pop pop 0 0 6 array astore
    cairo_font exch selectfont cairo_point_x cairo_point_y moveto } bind def
/Tf { pop /cairo_font exch def /cairo_font_matrix where
      { pop cairo_selectfont } if } bind def
/Td { matrix translate cairo_font_matrix matrix concatmatrix dup
      /cairo_font_matrix exch def dup 4 get exch 5 get cairo_store_point
      /cairo_font where { pop cairo_selectfont } if } bind def
/Tm { 2 copy 8 2 roll 6 array astore /cairo_font_matrix exch def
      cairo_store_point /cairo_font where { pop cairo_selectfont } if } bind def
/g { setgray } bind def
/rg { setrgbcolor } bind def
/d1 { setcachedevice } bind def
/cairo_set_page_size {
  % Change paper size, but only if different from previous paper size otherwise
  % duplex fails. PLRM specifies a tolerance of 5 pts when matching paper size
  % so we use the same when checking if the size changes.
  /setpagedevice where {
    pop currentpagedevice
    /PageSize known {
      2 copy
      currentpagedevice /PageSize get aload pop
      exch 4 1 roll
      sub abs 5 gt
      3 1 roll
      sub abs 5 gt
      or
    } {
      true
    } ifelse
    {
      2 array astore
      2 dict begin
        /PageSize exch def
        /ImagingBBox null def
      currentdict end
      setpagedevice
    } {
      pop pop
    } ifelse
  } {
    pop
  } ifelse
} def
%%EndProlog
%%BeginSetup
%%EndSetup
%%Page: 1 1
%%BeginPageSetup
%%PageMedia: 423x367mm
%%PageBoundingBox: 0 0 1200 1039
1200 1039 cairo_set_page_size
%%EndPageSetup
q 0 0 1200 1039 rectclip q
0.984314 g
0 0 1200 1039 rectfill
0.788235 g
1.875 w
0 J
1 j
[] 0.0 d
4 M 0 1039 1200 -1039.23 re S
0 g
2.5 w
1 J
-150 605.988 m -250 548.254 -150 548.254 0 519.383 c S
-150 432.781 m -150 317.312 -100 403.914 0 519.383 c S
0 346.18 m -100 288.445 0 288.445 150 259.578 c S
0 346.18 m 0 461.648 -50 375.047 -150 259.578 c S
0 346.18 m 100 288.445 50 375.047 0 519.383 c S
0 172.973 m 100 230.711 0 230.711 -150 259.578 c S
0 172.973 m 0 57.504 50 144.105 150 259.578 c S
0 172.973 m -100 230.711 -50 144.105 0 -0.23 c S
150 86.371 m 50 28.637 150 28.637 300 -0.23 c S
150 86.371 m 150 201.844 100 115.238 0 -0.23 c S
150 86.371 m 250 28.637 200 115.238 150 259.578 c S
-150 952.398 m -150 836.926 -100 923.531 0 1039 c S
0 865.793 m -100 808.059 0 808.059 150 779.191 c S
0 865.793 m 0 981.266 -50 894.664 -150 779.191 c S
0 865.793 m 100 808.059 50 894.664 0 1039 c S
0 692.59 m 100 750.324 0 750.324 -150 779.191 c S
0 692.59 m 0 577.121 50 663.723 150 779.191 c S
0 692.59 m -100 750.324 -50 663.723 0 519.383 c S
150 605.988 m 50 548.254 150 548.254 300 519.383 c S
150 605.988 m 150 721.457 100 634.855 0 519.383 c S
150 605.988 m 250 548.254 200 634.855 150 779.191 c S
150 432.781 m 250 490.516 150 490.516 0 519.383 c S
150 432.781 m 150 317.312 200 403.914 300 519.383 c S
150 432.781 m 50 490.516 100 403.914 150 259.578 c S
300 346.18 m 200 288.445 300 288.445 450 259.578 c S
300 346.18 m 300 461.648 250 375.047 150 259.578 c S
300 346.18 m 400 288.445 350 375.047 300 519.383 c S
300 172.973 m 400 230.711 300 230.711 150 259.578 c S
300 172.973 m 300 57.504 350 144.105 450 259.578 c S
300 172.973 m 200 230.711 250 144.105 300 -0.23 c S
450 86.371 m 350 28.637 450 28.637 600 -0.23 c S
450 86.371 m 450 201.844 400 115.238 300 -0.23 c S
450 86.371 m 550 28.637 500 115.238 450 259.578 c S
150 952.398 m 250 1010.133 150 1010.133 0 1039 c S
150 952.398 m 150 836.926 200 923.531 300 1039 c S
150 952.398 m 50 1010.133 100 923.531 150 779.191 c S
300 865.793 m 200 808.059 300 808.059 450 779.191 c S
300 865.793 m 300 981.266 250 894.664 150 779.191 c S
300 865.793 m 400 808.059 350 894.664 300 1039 c S
300 692.59 m 400 750.324 300 750.324 150 779.191 c S
300 692.59 m 300 577.121 350 663.723 450 779.191 c S
300 692.59 m 200 750.324 250 663.723 300 519.383 c S
450 605.988 m 350 548.254 450 548.254 600 519.383 c S
450 605.988 m 450 721.457 400 634.855 300 519.383 c S
450 605.988 m 550 548.254 500 634.855 450 779.191 c S
450 432.781 m 550 490.516 450 490.516 300 519.383 c S
450 432.781 m 450 317.312 500 403.914 600 519.383 c S
450 432.781 m 350 490.516 400 403.914 450 259.578 c S
600 346.18 m 500 288.445 600 288.445 750 259.578 c S
600 346.18 m 600 461.648 550 375.047 450 259.578 c S
600 346.18 m 700 288.445 650 375.047 600 519.383 c S
600 172.973 m 700 230.711 600 230.711 450 259.578 c S
600 172.973 m 600 57.504 650 144.105 750 259.578 c S
600 172.973 m 500 230.711 550 144.105 600 -0.23 c S
750 86.371 m 650 28.637 750 28.637 900 -0.23 c S
750 86.371 m 750 201.844 700 115.238 600 -0.23 c S
750 86.371 m 850 28.637 800 115.238 750 259.578 c S
450 952.398 m 550 1010.133 450 1010.133 300 1039 c S
450 952.398 m 450 836.926 500 923.531 600 1039 c S
450 952.398 m 350 1010.133 400 923.531 450 779.191 c S
600 865.793 m 500 808.059 600 808.059 750 779.191 c S
600 865.793 m 600 981.266 550 894.664 450 779.191 c S
600 865.793 m 700 808.059 650 894.664 600 1039 c S
600 692.59 m 700 750.324 600 750.324 450 779.191 c S
600 692.59 m 600 577.121 650 663.723 750 779.191 c S
600 692.59 m 500 750.324 550 663.723 600 519.383 c S
750 605.988 m 650 548.254 750 548.254 900 519.383 c S
750 605.988 m 750 721.457 700 634.855 600 519.383 c S
750 605.988 m 850 548.254 800 634.855 750 779.191 c S
750 432.781 m 850 490.516 750 490.516 600 519.383 c S
750 432.781 m 750 317.312 800 403.914 900 519.383 c S
750 432.781 m 650 490.516 700 403.914 750 259.578 c S
900 346.18 m 800 288.445 900 288.445 1050 259.578 c S
900 346.18 m 900 461.648 850 375.047 750 259.578 c S
900 346.18 m 1000 288.445 950 375.047 900 519.383 c S
900 172.973 m 1000 230.711 900 230.711 750 259.578 c S
900 172.973 m 900 57.504 950 144.105 1050 259.578 c S
900 172.973 m 800 230.711 850 144.105 900 -0.23 c S
1050 86.371 m 950 28.637 1050 28.637 1200 -0.23 c S
1050 86.371 m 1050 201.844 1000 115.238 900 -0.23 c S
1050 86.371 m 1150 28.637 1100 115.238 1050 259.578 c S
750 952.398 m 850 1010.133 750 1010.133 600 1039 c S
750 952.398 m 750 836.926 800 923.531 900 1039 c S
750 952.398 m 650 1010.133 700 923.531 750 779.191 c S
900 865.793 m 800 808.059 900 808.059 1050 779.191 c S
900 865.793 m 900 981.266 850 894.664 750 779.191 c S
900 865.793 m 1000 808.059 950 894.664 900 1039 c S
900 692.59 m 1000 750.324 900 750.324 750 779.191 c S
900 692.59 m 900 577.121 950 663.723 1050 779.191 c S
900 692.59 m 800 750.324 850 663.723 900 519.383 c S
1050 605.988 m 950 548.254 1050 548.254 1200 519.383 c S
1050 605.988 m 1050 721.457 1000 634.855 900 519.383 c S
1050 605.988 m 1150 548.254 1100 634.855 1050 779.191 c S
1050 432.781 m 1150 490.516 1050 490.516 900 519.383 c S
1050 432.781 m 1050 317.312 1100 403.914 1200 519.383 c S
1050 432.781 m 950 490.516 1000 403.914 1050 259.578 c S
1200 346.18 m 1100 288.445 1200 288.445 1350 259.578 c S
1200 346.18 m 1200 461.648 1150 375.047 1050 259.578 c S
1200 346.18 m 1300 288.445 1250 375.047 1200 519.383 c S
1200 172.973 m 1300 230.711 1200 230.711 1050 259.578 c S
1200 172.973 m 1200 57.504 1250 144.105 1350 259.578 c S
1200 172.973 m 1100 230.711 1150 144.105 1200 -0.23 c S
1350 86.371 m 1350 201.844 1300 115.238 1200 -0.23 c S
1050 952.398 m 1150 1010.133 1050 1010.133 900 1039 c S
1050 952.398 m 1050 836.926 1100 923.531 1200 1039 c S
1050 952.398 m 950 1010.133 1000 923.531 1050 779.191 c S
1200 865.793 m 1100 808.059 1200 808.059 1350 779.191 c S
1200 865.793 m 1200 981.266 1150 894.664 1050 779.191 c S
1200 865.793 m 1300 808.059 1250 894.664 1200 1039 c S
1200 692.59 m 1300 750.324 1200 750.324 1050 779.191 c S
1200 692.59 m 1200 577.121 1250 663.723 1350 779.191 c S
1200 692.59 m 1100 750.324 1150 663.723 1200 519.383 c S
1350 605.988 m 1350 721.457 1300 634.855 1200 519.383 c S
1350 432.781 m 1450 490.516 1350 490.516 1200 519.383 c S
Q Q
showpage
%%Trailer
%%Trailer
cleartomark
countdictstack
exch sub { end } repeat
restore
%%EOF
