%!PS-Adobe-2.0 EPSF-2.0
%%BoundingBox: 0 0 1200 1039
%%HiResBoundingBox: 0.000000 0.000000 1200.000000 1039.000000
%%Creator: cairo 1.14.2 (http://cairographics.org)
%%CreationDate: Mon Sep  7 08:21:40 2015
%%DocumentData: Clean7Bit
%%LanguageLevel: 2
%%DocumentMedia: 423x367mm 1200 1039 0 () ()
%%EndComments
% EPSF created by ps2eps 1.68
%%BeginProlog
save
countdictstack
mark
newpath
/showpage {} def
/setpagedevice {pop} def
%%EndProlog
%%Page 1 1
%%BeginProlog
/languagelevel where
{ pop languagelevel } { 1 } ifelse
2 lt { /Helvetica findfont 12 scalefont setfont 50 500 moveto
  (This print job requires a PostScript Language Level 2 printer.) show
  showpage quit } if
/q { gsave } bind def
/Q { grestore } bind def
/cm { 6 array astore concat } bind def
/w { setlinewidth } bind def
/J { setlinecap } bind def
/j { setlinejoin } bind def
/M { setmiterlimit } bind def
/d { setdash } bind def
/m { moveto } bind def
/l { lineto } bind def
/c { curveto } bind def
/h { closepath } bind def
/re { exch dup neg 3 1 roll 5 3 roll moveto 0 rlineto
      0 exch rlineto 0 rlineto closepath } bind def
/S { stroke } bind def
/f { fill } bind def
/f* { eofill } bind def
/n { newpath } bind def
/W { clip } bind def
/W* { eoclip } bind def
/BT { } bind def
/ET { } bind def
/pdfmark where { pop globaldict /?pdfmark /exec load put }
    { globaldict begin /?pdfmark /pop load def /pdfmark
    /cleartomark load def end } ifelse
/BDC { mark 3 1 roll /BDC pdfmark } bind def
/EMC { mark /EMC pdfmark } bind def
/cairo_store_point { /cairo_point_y exch def /cairo_point_x exch def } def
/Tj { show currentpoint cairo_store_point } bind def
/TJ {
  {
    dup
    type /stringtype eq
    { show } { -0.001 mul 0 cairo_font_matrix dtransform rmoveto } ifelse
  } forall
  currentpoint cairo_store_point
} bind def
/cairo_selectfont { cairo_font_matrix aload pop pop pop 0 0 6 array astore
    cairo_font exch selectfont cairo_point_x cairo_point_y moveto } bind def
/Tf { pop /cairo_font exch def /cairo_font_matrix where
      { pop cairo_selectfont } if } bind def
/Td { matrix translate cairo_font_matrix matrix concatmatrix dup
      /cairo_font_matrix exch def dup 4 get exch 5 get cairo_store_point
      /cairo_font where { pop cairo_selectfont } if } bind def
/Tm { 2 copy 8 2 roll 6 array astore /cairo_font_matrix exch def
      cairo_store_point /cairo_font where { pop cairo_selectfont } if } bind def
/g { setgray } bind def
/rg { setrgbcolor } bind def
/d1 { setcachedevice } bind def
/cairo_set_page_size {
  % Change paper size, but only if different from previous paper size otherwise
  % duplex fails. PLRM specifies a tolerance of 5 pts when matching paper size
  % so we use the same when checking if the size changes.
  /setpagedevice where {
    pop currentpagedevice
    /PageSize known {
      2 copy
      currentpagedevice /PageSize get aload pop
      exch 4 1 roll
      sub abs 5 gt
      3 1 roll
      sub abs 5 gt
      or
    } {
      true
    } ifelse
    {
      2 array astore
      2 dict begin
        /PageSize exch def
        /ImagingBBox null def
      currentdict end
      setpagedevice
    } {
      pop pop
    } ifelse
  } {
    pop
  } ifelse
} def
%%EndProlog
%%BeginSetup
%%EndSetup
%%Page: 1 1
%%BeginPageSetup
%%PageMedia: 423x367mm
%%PageBoundingBox: 0 0 1200 1039
1200 1039 cairo_set_page_size
%%EndPageSetup
q 0 0 1200 1039 rectclip q
0.984314 g
0 0 1200 1039 rectfill
0.788235 g
1.875 w
0 J
1 j
[] 0.0 d
4 M 0 1039 1200 -1039.23 re S
0 g
2.5 w
1 J
-25 562.688 m -125 620.422 -75 591.555 0 519.383 c S
-50 519.383 m -150 577.121 -100 548.254 0 519.383 c S
-25 476.082 m -125 418.348 -75 447.215 0 519.383 c S
-50 519.383 m -150 461.648 -100 490.516 0 519.383 c S
125 302.879 m 25 360.613 75 331.746 150 259.578 c S
100 259.578 m 0 317.312 50 288.445 150 259.578 c S
-25 476.082 m -25 360.613 -25 418.348 0 519.383 c S
25 476.082 m 25 360.613 25 418.348 0 519.383 c S
125 216.277 m 25 158.539 75 187.41 150 259.578 c S
-25 43.07 m -25 158.539 -25 100.805 0 -0.23 c S
100 259.578 m 0 201.844 50 230.711 150 259.578 c S
25 43.07 m 25 158.539 25 100.805 0 -0.23 c S
275 43.07 m 175 100.805 225 71.938 300 -0.23 c S
250 -0.23 m 150 57.504 200 28.637 300 -0.23 c S
125 216.277 m 125 100.805 125 158.539 150 259.578 c S
50 -0.23 m 150 57.504 100 28.637 0 -0.23 c S
175 216.277 m 175 100.805 175 158.539 150 259.578 c S
25 43.07 m 125 100.805 75 71.938 0 -0.23 c S
-25 995.699 m -125 937.965 -75 966.832 0 1039 c S
-50 1039 m -150 981.266 -100 1010.133 0 1039 c S
125 822.492 m 25 880.23 75 851.359 150 779.191 c S
100 779.191 m 0 836.926 50 808.059 150 779.191 c S
-25 995.699 m -25 880.23 -25 937.965 0 1039 c S
25 995.699 m 25 880.23 25 937.965 0 1039 c S
125 735.891 m 25 678.156 75 707.023 150 779.191 c S
-25 562.688 m -25 678.156 -25 620.422 0 519.383 c S
100 779.191 m 0 721.457 50 750.324 150 779.191 c S
25 562.688 m 25 678.156 25 620.422 0 519.383 c S
275 562.688 m 175 620.422 225 591.555 300 519.383 c S
250 519.383 m 150 577.121 200 548.254 300 519.383 c S
125 735.891 m 125 620.422 125 678.156 150 779.191 c S
50 519.383 m 150 577.121 100 548.254 0 519.383 c S
175 735.891 m 175 620.422 175 678.156 150 779.191 c S
25 562.688 m 125 620.422 75 591.555 0 519.383 c S
50 519.383 m 150 461.648 100 490.516 0 519.383 c S
25 476.082 m 125 418.348 75 447.215 0 519.383 c S
275 476.082 m 175 418.348 225 447.215 300 519.383 c S
125 302.879 m 125 418.348 125 360.613 150 259.578 c S
250 519.383 m 150 461.648 200 490.516 300 519.383 c S
175 302.879 m 175 418.348 175 360.613 150 259.578 c S
425 302.879 m 325 360.613 375 331.746 450 259.578 c S
400 259.578 m 300 317.312 350 288.445 450 259.578 c S
275 476.082 m 275 360.613 275 418.348 300 519.383 c S
200 259.578 m 300 317.312 250 288.445 150 259.578 c S
325 476.082 m 325 360.613 325 418.348 300 519.383 c S
175 302.879 m 275 360.613 225 331.746 150 259.578 c S
200 259.578 m 300 201.844 250 230.711 150 259.578 c S
175 216.277 m 275 158.539 225 187.41 150 259.578 c S
425 216.277 m 325 158.539 375 187.41 450 259.578 c S
275 43.07 m 275 158.539 275 100.805 300 -0.23 c S
400 259.578 m 300 201.844 350 230.711 450 259.578 c S
325 43.07 m 325 158.539 325 100.805 300 -0.23 c S
575 43.07 m 475 100.805 525 71.938 600 -0.23 c S
550 -0.23 m 450 57.504 500 28.637 600 -0.23 c S
425 216.277 m 425 100.805 425 158.539 450 259.578 c S
350 -0.23 m 450 57.504 400 28.637 300 -0.23 c S
475 216.277 m 475 100.805 475 158.539 450 259.578 c S
325 43.07 m 425 100.805 375 71.938 300 -0.23 c S
50 1039 m 150 981.266 100 1010.133 0 1039 c S
25 995.699 m 125 937.965 75 966.832 0 1039 c S
275 995.699 m 175 937.965 225 966.832 300 1039 c S
125 822.492 m 125 937.965 125 880.23 150 779.191 c S
250 1039 m 150 981.266 200 1010.133 300 1039 c S
175 822.492 m 175 937.965 175 880.23 150 779.191 c S
425 822.492 m 325 880.23 375 851.359 450 779.191 c S
400 779.191 m 300 836.926 350 808.059 450 779.191 c S
275 995.699 m 275 880.23 275 937.965 300 1039 c S
200 779.191 m 300 836.926 250 808.059 150 779.191 c S
325 995.699 m 325 880.23 325 937.965 300 1039 c S
175 822.492 m 275 880.23 225 851.359 150 779.191 c S
200 779.191 m 300 721.457 250 750.324 150 779.191 c S
175 735.891 m 275 678.156 225 707.023 150 779.191 c S
425 735.891 m 325 678.156 375 707.023 450 779.191 c S
275 562.688 m 275 678.156 275 620.422 300 519.383 c S
400 779.191 m 300 721.457 350 750.324 450 779.191 c S
325 562.688 m 325 678.156 325 620.422 300 519.383 c S
575 562.688 m 475 620.422 525 591.555 600 519.383 c S
550 519.383 m 450 577.121 500 548.254 600 519.383 c S
425 735.891 m 425 620.422 425 678.156 450 779.191 c S
350 519.383 m 450 577.121 400 548.254 300 519.383 c S
475 735.891 m 475 620.422 475 678.156 450 779.191 c S
325 562.688 m 425 620.422 375 591.555 300 519.383 c S
350 519.383 m 450 461.648 400 490.516 300 519.383 c S
325 476.082 m 425 418.348 375 447.215 300 519.383 c S
575 476.082 m 475 418.348 525 447.215 600 519.383 c S
425 302.879 m 425 418.348 425 360.613 450 259.578 c S
550 519.383 m 450 461.648 500 490.516 600 519.383 c S
475 302.879 m 475 418.348 475 360.613 450 259.578 c S
725 302.879 m 625 360.613 675 331.746 750 259.578 c S
700 259.578 m 600 317.312 650 288.445 750 259.578 c S
575 476.082 m 575 360.613 575 418.348 600 519.383 c S
500 259.578 m 600 317.312 550 288.445 450 259.578 c S
625 476.082 m 625 360.613 625 418.348 600 519.383 c S
475 302.879 m 575 360.613 525 331.746 450 259.578 c S
500 259.578 m 600 201.844 550 230.711 450 259.578 c S
475 216.277 m 575 158.539 525 187.41 450 259.578 c S
725 216.277 m 625 158.539 675 187.41 750 259.578 c S
575 43.07 m 575 158.539 575 100.805 600 -0.23 c S
700 259.578 m 600 201.844 650 230.711 750 259.578 c S
625 43.07 m 625 158.539 625 100.805 600 -0.23 c S
875 43.07 m 775 100.805 825 71.938 900 -0.23 c S
850 -0.23 m 750 57.504 800 28.637 900 -0.23 c S
725 216.277 m 725 100.805 725 158.539 750 259.578 c S
650 -0.23 m 750 57.504 700 28.637 600 -0.23 c S
775 216.277 m 775 100.805 775 158.539 750 259.578 c S
625 43.07 m 725 100.805 675 71.938 600 -0.23 c S
350 1039 m 450 981.266 400 1010.133 300 1039 c S
325 995.699 m 425 937.965 375 966.832 300 1039 c S
575 995.699 m 475 937.965 525 966.832 600 1039 c S
425 822.492 m 425 937.965 425 880.23 450 779.191 c S
550 1039 m 450 981.266 500 1010.133 600 1039 c S
475 822.492 m 475 937.965 475 880.23 450 779.191 c S
725 822.492 m 625 880.23 675 851.359 750 779.191 c S
700 779.191 m 600 836.926 650 808.059 750 779.191 c S
575 995.699 m 575 880.23 575 937.965 600 1039 c S
500 779.191 m 600 836.926 550 808.059 450 779.191 c S
625 995.699 m 625 880.23 625 937.965 600 1039 c S
475 822.492 m 575 880.23 525 851.359 450 779.191 c S
500 779.191 m 600 721.457 550 750.324 450 779.191 c S
475 735.891 m 575 678.156 525 707.023 450 779.191 c S
725 735.891 m 625 678.156 675 707.023 750 779.191 c S
575 562.688 m 575 678.156 575 620.422 600 519.383 c S
700 779.191 m 600 721.457 650 750.324 750 779.191 c S
625 562.688 m 625 678.156 625 620.422 600 519.383 c S
875 562.688 m 775 620.422 825 591.555 900 519.383 c S
850 519.383 m 750 577.121 800 548.254 900 519.383 c S
725 735.891 m 725 620.422 725 678.156 750 779.191 c S
650 519.383 m 750 577.121 700 548.254 600 519.383 c S
775 735.891 m 775 620.422 775 678.156 750 779.191 c S
625 562.688 m 725 620.422 675 591.555 600 519.383 c S
650 519.383 m 750 461.648 700 490.516 600 519.383 c S
625 476.082 m 725 418.348 675 447.215 600 519.383 c S
875 476.082 m 775 418.348 825 447.215 900 519.383 c S
725 302.879 m 725 418.348 725 360.613 750 259.578 c S
850 519.383 m 750 461.648 800 490.516 900 519.383 c S
775 302.879 m 775 418.348 775 360.613 750 259.578 c S
1025 302.879 m 925 360.613 975 331.746 1050 259.578 c S
1000 259.578 m 900 317.312 950 288.445 1050 259.578 c S
875 476.082 m 875 360.613 875 418.348 900 519.383 c S
800 259.578 m 900 317.312 850 288.445 750 259.578 c S
925 476.082 m 925 360.613 925 418.348 900 519.383 c S
775 302.879 m 875 360.613 825 331.746 750 259.578 c S
800 259.578 m 900 201.844 850 230.711 750 259.578 c S
775 216.277 m 875 158.539 825 187.41 750 259.578 c S
1025 216.277 m 925 158.539 975 187.41 1050 259.578 c S
875 43.07 m 875 158.539 875 100.805 900 -0.23 c S
1000 259.578 m 900 201.844 950 230.711 1050 259.578 c S
925 43.07 m 925 158.539 925 100.805 900 -0.23 c S
1175 43.07 m 1075 100.805 1125 71.938 1200 -0.23 c S
1150 -0.23 m 1050 57.504 1100 28.637 1200 -0.23 c S
1025 216.277 m 1025 100.805 1025 158.539 1050 259.578 c S
950 -0.23 m 1050 57.504 1000 28.637 900 -0.23 c S
1075 216.277 m 1075 100.805 1075 158.539 1050 259.578 c S
925 43.07 m 1025 100.805 975 71.938 900 -0.23 c S
650 1039 m 750 981.266 700 1010.133 600 1039 c S
625 995.699 m 725 937.965 675 966.832 600 1039 c S
875 995.699 m 775 937.965 825 966.832 900 1039 c S
725 822.492 m 725 937.965 725 880.23 750 779.191 c S
850 1039 m 750 981.266 800 1010.133 900 1039 c S
775 822.492 m 775 937.965 775 880.23 750 779.191 c S
1025 822.492 m 925 880.23 975 851.359 1050 779.191 c S
1000 779.191 m 900 836.926 950 808.059 1050 779.191 c S
875 995.699 m 875 880.23 875 937.965 900 1039 c S
800 779.191 m 900 836.926 850 808.059 750 779.191 c S
925 995.699 m 925 880.23 925 937.965 900 1039 c S
775 822.492 m 875 880.23 825 851.359 750 779.191 c S
800 779.191 m 900 721.457 850 750.324 750 779.191 c S
775 735.891 m 875 678.156 825 707.023 750 779.191 c S
1025 735.891 m 925 678.156 975 707.023 1050 779.191 c S
875 562.688 m 875 678.156 875 620.422 900 519.383 c S
1000 779.191 m 900 721.457 950 750.324 1050 779.191 c S
925 562.688 m 925 678.156 925 620.422 900 519.383 c S
1175 562.688 m 1075 620.422 1125 591.555 1200 519.383 c S
1150 519.383 m 1050 577.121 1100 548.254 1200 519.383 c S
1025 735.891 m 1025 620.422 1025 678.156 1050 779.191 c S
950 519.383 m 1050 577.121 1000 548.254 900 519.383 c S
1075 735.891 m 1075 620.422 1075 678.156 1050 779.191 c S
925 562.688 m 1025 620.422 975 591.555 900 519.383 c S
950 519.383 m 1050 461.648 1000 490.516 900 519.383 c S
925 476.082 m 1025 418.348 975 447.215 900 519.383 c S
1175 476.082 m 1075 418.348 1125 447.215 1200 519.383 c S
1025 302.879 m 1025 418.348 1025 360.613 1050 259.578 c S
1150 519.383 m 1050 461.648 1100 490.516 1200 519.383 c S
1075 302.879 m 1075 418.348 1075 360.613 1050 259.578 c S
1175 476.082 m 1175 360.613 1175 418.348 1200 519.383 c S
1100 259.578 m 1200 317.312 1150 288.445 1050 259.578 c S
1225 476.082 m 1225 360.613 1225 418.348 1200 519.383 c S
1075 302.879 m 1175 360.613 1125 331.746 1050 259.578 c S
1100 259.578 m 1200 201.844 1150 230.711 1050 259.578 c S
1075 216.277 m 1175 158.539 1125 187.41 1050 259.578 c S
1175 43.07 m 1175 158.539 1175 100.805 1200 -0.23 c S
1225 43.07 m 1225 158.539 1225 100.805 1200 -0.23 c S
1250 -0.23 m 1350 57.504 1300 28.637 1200 -0.23 c S
1225 43.07 m 1325 100.805 1275 71.938 1200 -0.23 c S
950 1039 m 1050 981.266 1000 1010.133 900 1039 c S
925 995.699 m 1025 937.965 975 966.832 900 1039 c S
1175 995.699 m 1075 937.965 1125 966.832 1200 1039 c S
1025 822.492 m 1025 937.965 1025 880.23 1050 779.191 c S
1150 1039 m 1050 981.266 1100 1010.133 1200 1039 c S
1075 822.492 m 1075 937.965 1075 880.23 1050 779.191 c S
1175 995.699 m 1175 880.23 1175 937.965 1200 1039 c S
1100 779.191 m 1200 836.926 1150 808.059 1050 779.191 c S
1225 995.699 m 1225 880.23 1225 937.965 1200 1039 c S
1075 822.492 m 1175 880.23 1125 851.359 1050 779.191 c S
1100 779.191 m 1200 721.457 1150 750.324 1050 779.191 c S
1075 735.891 m 1175 678.156 1125 707.023 1050 779.191 c S
1175 562.688 m 1175 678.156 1175 620.422 1200 519.383 c S
1225 562.688 m 1225 678.156 1225 620.422 1200 519.383 c S
1250 519.383 m 1350 577.121 1300 548.254 1200 519.383 c S
1225 562.688 m 1325 620.422 1275 591.555 1200 519.383 c S
1250 519.383 m 1350 461.648 1300 490.516 1200 519.383 c S
1225 476.082 m 1325 418.348 1275 447.215 1200 519.383 c S
Q Q
showpage
%%Trailer
%%Trailer
cleartomark
countdictstack
exch sub { end } repeat
restore
%%EOF
