%!PS-Adobe-2.0 EPSF-2.0
%%BoundingBox: 0 0 1200 1039
%%HiResBoundingBox: 0.000000 0.000000 1200.000000 1039.000000
%%Creator: cairo 1.14.2 (http://cairographics.org)
%%CreationDate: Mon Sep  7 08:21:40 2015
%%DocumentData: Clean7Bit
%%LanguageLevel: 2
%%DocumentMedia: 423x367mm 1200 1039 0 () ()
%%EndComments
% EPSF created by ps2eps 1.68
%%BeginProlog
save
countdictstack
mark
newpath
/showpage {} def
/setpagedevice {pop} def
%%EndProlog
%%Page 1 1
%%BeginProlog
/languagelevel where
{ pop languagelevel } { 1 } ifelse
2 lt { /Helvetica findfont 12 scalefont setfont 50 500 moveto
  (This print job requires a PostScript Language Level 2 printer.) show
  showpage quit } if
/q { gsave } bind def
/Q { grestore } bind def
/cm { 6 array astore concat } bind def
/w { setlinewidth } bind def
/J { setlinecap } bind def
/j { setlinejoin } bind def
/M { setmiterlimit } bind def
/d { setdash } bind def
/m { moveto } bind def
/l { lineto } bind def
/c { curveto } bind def
/h { closepath } bind def
/re { exch dup neg 3 1 roll 5 3 roll moveto 0 rlineto
      0 exch rlineto 0 rlineto closepath } bind def
/S { stroke } bind def
/f { fill } bind def
/f* { eofill } bind def
/n { newpath } bind def
/W { clip } bind def
/W* { eoclip } bind def
/BT { } bind def
/ET { } bind def
/pdfmark where { pop globaldict /?pdfmark /exec load put }
    { globaldict begin /?pdfmark /pop load def /pdfmark
    /cleartomark load def end } ifelse
/BDC { mark 3 1 roll /BDC pdfmark } bind def
/EMC { mark /EMC pdfmark } bind def
/cairo_store_point { /cairo_point_y exch def /cairo_point_x exch def } def
/Tj { show currentpoint cairo_store_point } bind def
/TJ {
  {
    dup
    type /stringtype eq
    { show } { -0.001 mul 0 cairo_font_matrix dtransform rmoveto } ifelse
  } forall
  currentpoint cairo_store_point
} bind def
/cairo_selectfont { cairo_font_matrix aload pop pop pop 0 0 6 array astore
    cairo_font exch selectfont cairo_point_x cairo_point_y moveto } bind def
/Tf { pop /cairo_font exch def /cairo_font_matrix where
      { pop cairo_selectfont } if } bind def
/Td { matrix translate cairo_font_matrix matrix concatmatrix dup
      /cairo_font_matrix exch def dup 4 get exch 5 get cairo_store_point
      /cairo_font where { pop cairo_selectfont } if } bind def
/Tm { 2 copy 8 2 roll 6 array astore /cairo_font_matrix exch def
      cairo_store_point /cairo_font where { pop cairo_selectfont } if } bind def
/g { setgray } bind def
/rg { setrgbcolor } bind def
/d1 { setcachedevice } bind def
/cairo_set_page_size {
  % Change paper size, but only if different from previous paper size otherwise
  % duplex fails. PLRM specifies a tolerance of 5 pts when matching paper size
  % so we use the same when checking if the size changes.
  /setpagedevice where {
    pop currentpagedevice
    /PageSize known {
      2 copy
      currentpagedevice /PageSize get aload pop
      exch 4 1 roll
      sub abs 5 gt
      3 1 roll
      sub abs 5 gt
      or
    } {
      true
    } ifelse
    {
      2 array astore
      2 dict begin
        /PageSize exch def
        /ImagingBBox null def
      currentdict end
      setpagedevice
    } {
      pop pop
    } ifelse
  } {
    pop
  } ifelse
} def
%%EndProlog
%%BeginSetup
%%EndSetup
%%Page: 1 1
%%BeginPageSetup
%%PageMedia: 423x367mm
%%PageBoundingBox: 0 0 1200 1039
1200 1039 cairo_set_page_size
%%EndPageSetup
q 0 0 1200 1039 rectclip q
0.984314 g
0 0 1200 1039 rectfill
0.788235 g
1.875 w
0 J
1 j
[] 0.0 d
4 M 0 1039 1200 -1039.23 re S
0 g
2.5 w
1 J
125 302.879 m 25 360.613 l 75 331.746 l 100 346.18 l S
100 259.578 m 0 317.312 l 50 288.445 l 50 259.578 l S
-100 259.578 m 0 317.312 l -50 288.445 l -50 259.578 l S
25 476.082 m 25 360.613 l 25 418.348 l 50 432.781 l S
-100 259.578 m 0 201.844 l -50 230.711 l -50 259.578 l S
125 216.277 m 25 158.539 l 75 187.41 l 100 172.973 l S
100 259.578 m 0 201.844 l 50 230.711 l 50 259.578 l S
25 43.07 m 25 158.539 l 25 100.805 l 50 86.371 l S
275 43.07 m 175 100.805 l 225 71.938 l 250 86.371 l S
250 -0.23 m 150 57.504 l 200 28.637 l 200 -0.23 l S
125 216.277 m 125 100.805 l 125 158.539 l 100 172.973 l S
50 -0.23 m 150 57.504 l 100 28.637 l 100 -0.23 l S
175 216.277 m 175 100.805 l 175 158.539 l 200 172.973 l S
25 43.07 m 125 100.805 l 75 71.938 l 50 86.371 l S
125 822.492 m 25 880.23 l 75 851.359 l 100 865.793 l S
100 779.191 m 0 836.926 l 50 808.059 l 50 779.191 l S
-100 779.191 m 0 836.926 l -50 808.059 l -50 779.191 l S
25 995.699 m 25 880.23 l 25 937.965 l 50 952.398 l S
-100 779.191 m 0 721.457 l -50 750.324 l -50 779.191 l S
125 735.891 m 25 678.156 l 75 707.023 l 100 692.59 l S
100 779.191 m 0 721.457 l 50 750.324 l 50 779.191 l S
25 562.688 m 25 678.156 l 25 620.422 l 50 605.988 l S
275 562.688 m 175 620.422 l 225 591.555 l 250 605.988 l S
250 519.383 m 150 577.121 l 200 548.254 l 200 519.383 l S
125 735.891 m 125 620.422 l 125 678.156 l 100 692.59 l S
50 519.383 m 150 577.121 l 100 548.254 l 100 519.383 l S
175 735.891 m 175 620.422 l 175 678.156 l 200 692.59 l S
25 562.688 m 125 620.422 l 75 591.555 l 50 605.988 l S
50 519.383 m 150 461.648 l 100 490.516 l 100 519.383 l S
25 476.082 m 125 418.348 l 75 447.215 l 50 432.781 l S
275 476.082 m 175 418.348 l 225 447.215 l 250 432.781 l S
125 302.879 m 125 418.348 l 125 360.613 l 100 346.18 l S
250 519.383 m 150 461.648 l 200 490.516 l 200 519.383 l S
175 302.879 m 175 418.348 l 175 360.613 l 200 346.18 l S
425 302.879 m 325 360.613 l 375 331.746 l 400 346.18 l S
400 259.578 m 300 317.312 l 350 288.445 l 350 259.578 l S
275 476.082 m 275 360.613 l 275 418.348 l 250 432.781 l S
200 259.578 m 300 317.312 l 250 288.445 l 250 259.578 l S
325 476.082 m 325 360.613 l 325 418.348 l 350 432.781 l S
175 302.879 m 275 360.613 l 225 331.746 l 200 346.18 l S
200 259.578 m 300 201.844 l 250 230.711 l 250 259.578 l S
175 216.277 m 275 158.539 l 225 187.41 l 200 172.973 l S
425 216.277 m 325 158.539 l 375 187.41 l 400 172.973 l S
275 43.07 m 275 158.539 l 275 100.805 l 250 86.371 l S
400 259.578 m 300 201.844 l 350 230.711 l 350 259.578 l S
325 43.07 m 325 158.539 l 325 100.805 l 350 86.371 l S
575 43.07 m 475 100.805 l 525 71.938 l 550 86.371 l S
550 -0.23 m 450 57.504 l 500 28.637 l 500 -0.23 l S
425 216.277 m 425 100.805 l 425 158.539 l 400 172.973 l S
350 -0.23 m 450 57.504 l 400 28.637 l 400 -0.23 l S
475 216.277 m 475 100.805 l 475 158.539 l 500 172.973 l S
325 43.07 m 425 100.805 l 375 71.938 l 350 86.371 l S
50 1039 m 150 981.266 l 100 1010.133 l 100 1039 l S
25 995.699 m 125 937.965 l 75 966.832 l 50 952.398 l S
275 995.699 m 175 937.965 l 225 966.832 l 250 952.398 l S
125 822.492 m 125 937.965 l 125 880.23 l 100 865.793 l S
250 1039 m 150 981.266 l 200 1010.133 l 200 1039 l S
175 822.492 m 175 937.965 l 175 880.23 l 200 865.793 l S
425 822.492 m 325 880.23 l 375 851.359 l 400 865.793 l S
400 779.191 m 300 836.926 l 350 808.059 l 350 779.191 l S
275 995.699 m 275 880.23 l 275 937.965 l 250 952.398 l S
200 779.191 m 300 836.926 l 250 808.059 l 250 779.191 l S
325 995.699 m 325 880.23 l 325 937.965 l 350 952.398 l S
175 822.492 m 275 880.23 l 225 851.359 l 200 865.793 l S
200 779.191 m 300 721.457 l 250 750.324 l 250 779.191 l S
175 735.891 m 275 678.156 l 225 707.023 l 200 692.59 l S
425 735.891 m 325 678.156 l 375 707.023 l 400 692.59 l S
275 562.688 m 275 678.156 l 275 620.422 l 250 605.988 l S
400 779.191 m 300 721.457 l 350 750.324 l 350 779.191 l S
325 562.688 m 325 678.156 l 325 620.422 l 350 605.988 l S
575 562.688 m 475 620.422 l 525 591.555 l 550 605.988 l S
550 519.383 m 450 577.121 l 500 548.254 l 500 519.383 l S
425 735.891 m 425 620.422 l 425 678.156 l 400 692.59 l S
350 519.383 m 450 577.121 l 400 548.254 l 400 519.383 l S
475 735.891 m 475 620.422 l 475 678.156 l 500 692.59 l S
325 562.688 m 425 620.422 l 375 591.555 l 350 605.988 l S
350 519.383 m 450 461.648 l 400 490.516 l 400 519.383 l S
325 476.082 m 425 418.348 l 375 447.215 l 350 432.781 l S
575 476.082 m 475 418.348 l 525 447.215 l 550 432.781 l S
425 302.879 m 425 418.348 l 425 360.613 l 400 346.18 l S
550 519.383 m 450 461.648 l 500 490.516 l 500 519.383 l S
475 302.879 m 475 418.348 l 475 360.613 l 500 346.18 l S
725 302.879 m 625 360.613 l 675 331.746 l 700 346.18 l S
700 259.578 m 600 317.312 l 650 288.445 l 650 259.578 l S
575 476.082 m 575 360.613 l 575 418.348 l 550 432.781 l S
500 259.578 m 600 317.312 l 550 288.445 l 550 259.578 l S
625 476.082 m 625 360.613 l 625 418.348 l 650 432.781 l S
475 302.879 m 575 360.613 l 525 331.746 l 500 346.18 l S
500 259.578 m 600 201.844 l 550 230.711 l 550 259.578 l S
475 216.277 m 575 158.539 l 525 187.41 l 500 172.973 l S
725 216.277 m 625 158.539 l 675 187.41 l 700 172.973 l S
575 43.07 m 575 158.539 l 575 100.805 l 550 86.371 l S
700 259.578 m 600 201.844 l 650 230.711 l 650 259.578 l S
625 43.07 m 625 158.539 l 625 100.805 l 650 86.371 l S
875 43.07 m 775 100.805 l 825 71.938 l 850 86.371 l S
850 -0.23 m 750 57.504 l 800 28.637 l 800 -0.23 l S
725 216.277 m 725 100.805 l 725 158.539 l 700 172.973 l S
650 -0.23 m 750 57.504 l 700 28.637 l 700 -0.23 l S
775 216.277 m 775 100.805 l 775 158.539 l 800 172.973 l S
625 43.07 m 725 100.805 l 675 71.938 l 650 86.371 l S
350 1039 m 450 981.266 l 400 1010.133 l 400 1039 l S
325 995.699 m 425 937.965 l 375 966.832 l 350 952.398 l S
575 995.699 m 475 937.965 l 525 966.832 l 550 952.398 l S
425 822.492 m 425 937.965 l 425 880.23 l 400 865.793 l S
550 1039 m 450 981.266 l 500 1010.133 l 500 1039 l S
475 822.492 m 475 937.965 l 475 880.23 l 500 865.793 l S
725 822.492 m 625 880.23 l 675 851.359 l 700 865.793 l S
700 779.191 m 600 836.926 l 650 808.059 l 650 779.191 l S
575 995.699 m 575 880.23 l 575 937.965 l 550 952.398 l S
500 779.191 m 600 836.926 l 550 808.059 l 550 779.191 l S
625 995.699 m 625 880.23 l 625 937.965 l 650 952.398 l S
475 822.492 m 575 880.23 l 525 851.359 l 500 865.793 l S
500 779.191 m 600 721.457 l 550 750.324 l 550 779.191 l S
475 735.891 m 575 678.156 l 525 707.023 l 500 692.59 l S
725 735.891 m 625 678.156 l 675 707.023 l 700 692.59 l S
575 562.688 m 575 678.156 l 575 620.422 l 550 605.988 l S
700 779.191 m 600 721.457 l 650 750.324 l 650 779.191 l S
625 562.688 m 625 678.156 l 625 620.422 l 650 605.988 l S
875 562.688 m 775 620.422 l 825 591.555 l 850 605.988 l S
850 519.383 m 750 577.121 l 800 548.254 l 800 519.383 l S
725 735.891 m 725 620.422 l 725 678.156 l 700 692.59 l S
650 519.383 m 750 577.121 l 700 548.254 l 700 519.383 l S
775 735.891 m 775 620.422 l 775 678.156 l 800 692.59 l S
625 562.688 m 725 620.422 l 675 591.555 l 650 605.988 l S
650 519.383 m 750 461.648 l 700 490.516 l 700 519.383 l S
625 476.082 m 725 418.348 l 675 447.215 l 650 432.781 l S
875 476.082 m 775 418.348 l 825 447.215 l 850 432.781 l S
725 302.879 m 725 418.348 l 725 360.613 l 700 346.18 l S
850 519.383 m 750 461.648 l 800 490.516 l 800 519.383 l S
775 302.879 m 775 418.348 l 775 360.613 l 800 346.18 l S
1025 302.879 m 925 360.613 l 975 331.746 l 1000 346.18 l S
1000 259.578 m 900 317.312 l 950 288.445 l 950 259.578 l S
875 476.082 m 875 360.613 l 875 418.348 l 850 432.781 l S
800 259.578 m 900 317.312 l 850 288.445 l 850 259.578 l S
925 476.082 m 925 360.613 l 925 418.348 l 950 432.781 l S
775 302.879 m 875 360.613 l 825 331.746 l 800 346.18 l S
800 259.578 m 900 201.844 l 850 230.711 l 850 259.578 l S
775 216.277 m 875 158.539 l 825 187.41 l 800 172.973 l S
1025 216.277 m 925 158.539 l 975 187.41 l 1000 172.973 l S
875 43.07 m 875 158.539 l 875 100.805 l 850 86.371 l S
1000 259.578 m 900 201.844 l 950 230.711 l 950 259.578 l S
925 43.07 m 925 158.539 l 925 100.805 l 950 86.371 l S
1175 43.07 m 1075 100.805 l 1125 71.938 l 1150 86.371 l S
1150 -0.23 m 1050 57.504 l 1100 28.637 l 1100 -0.23 l S
1025 216.277 m 1025 100.805 l 1025 158.539 l 1000 172.973 l S
950 -0.23 m 1050 57.504 l 1000 28.637 l 1000 -0.23 l S
1075 216.277 m 1075 100.805 l 1075 158.539 l 1100 172.973 l S
925 43.07 m 1025 100.805 l 975 71.938 l 950 86.371 l S
650 1039 m 750 981.266 l 700 1010.133 l 700 1039 l S
625 995.699 m 725 937.965 l 675 966.832 l 650 952.398 l S
875 995.699 m 775 937.965 l 825 966.832 l 850 952.398 l S
725 822.492 m 725 937.965 l 725 880.23 l 700 865.793 l S
850 1039 m 750 981.266 l 800 1010.133 l 800 1039 l S
775 822.492 m 775 937.965 l 775 880.23 l 800 865.793 l S
1025 822.492 m 925 880.23 l 975 851.359 l 1000 865.793 l S
1000 779.191 m 900 836.926 l 950 808.059 l 950 779.191 l S
875 995.699 m 875 880.23 l 875 937.965 l 850 952.398 l S
800 779.191 m 900 836.926 l 850 808.059 l 850 779.191 l S
925 995.699 m 925 880.23 l 925 937.965 l 950 952.398 l S
775 822.492 m 875 880.23 l 825 851.359 l 800 865.793 l S
800 779.191 m 900 721.457 l 850 750.324 l 850 779.191 l S
775 735.891 m 875 678.156 l 825 707.023 l 800 692.59 l S
1025 735.891 m 925 678.156 l 975 707.023 l 1000 692.59 l S
875 562.688 m 875 678.156 l 875 620.422 l 850 605.988 l S
1000 779.191 m 900 721.457 l 950 750.324 l 950 779.191 l S
925 562.688 m 925 678.156 l 925 620.422 l 950 605.988 l S
1175 562.688 m 1075 620.422 l 1125 591.555 l 1150 605.988 l S
1150 519.383 m 1050 577.121 l 1100 548.254 l 1100 519.383 l S
1025 735.891 m 1025 620.422 l 1025 678.156 l 1000 692.59 l S
950 519.383 m 1050 577.121 l 1000 548.254 l 1000 519.383 l S
1075 735.891 m 1075 620.422 l 1075 678.156 l 1100 692.59 l S
925 562.688 m 1025 620.422 l 975 591.555 l 950 605.988 l S
950 519.383 m 1050 461.648 l 1000 490.516 l 1000 519.383 l S
925 476.082 m 1025 418.348 l 975 447.215 l 950 432.781 l S
1175 476.082 m 1075 418.348 l 1125 447.215 l 1150 432.781 l S
1025 302.879 m 1025 418.348 l 1025 360.613 l 1000 346.18 l S
1150 519.383 m 1050 461.648 l 1100 490.516 l 1100 519.383 l S
1075 302.879 m 1075 418.348 l 1075 360.613 l 1100 346.18 l S
1300 259.578 m 1200 317.312 l 1250 288.445 l 1250 259.578 l S
1175 476.082 m 1175 360.613 l 1175 418.348 l 1150 432.781 l S
1100 259.578 m 1200 317.312 l 1150 288.445 l 1150 259.578 l S
1075 302.879 m 1175 360.613 l 1125 331.746 l 1100 346.18 l S
1100 259.578 m 1200 201.844 l 1150 230.711 l 1150 259.578 l S
1075 216.277 m 1175 158.539 l 1125 187.41 l 1100 172.973 l S
1175 43.07 m 1175 158.539 l 1175 100.805 l 1150 86.371 l S
1300 259.578 m 1200 201.844 l 1250 230.711 l 1250 259.578 l S
950 1039 m 1050 981.266 l 1000 1010.133 l 1000 1039 l S
925 995.699 m 1025 937.965 l 975 966.832 l 950 952.398 l S
1175 995.699 m 1075 937.965 l 1125 966.832 l 1150 952.398 l S
1025 822.492 m 1025 937.965 l 1025 880.23 l 1000 865.793 l S
1150 1039 m 1050 981.266 l 1100 1010.133 l 1100 1039 l S
1075 822.492 m 1075 937.965 l 1075 880.23 l 1100 865.793 l S
1300 779.191 m 1200 836.926 l 1250 808.059 l 1250 779.191 l S
1175 995.699 m 1175 880.23 l 1175 937.965 l 1150 952.398 l S
1100 779.191 m 1200 836.926 l 1150 808.059 l 1150 779.191 l S
1075 822.492 m 1175 880.23 l 1125 851.359 l 1100 865.793 l S
1100 779.191 m 1200 721.457 l 1150 750.324 l 1150 779.191 l S
1075 735.891 m 1175 678.156 l 1125 707.023 l 1100 692.59 l S
1175 562.688 m 1175 678.156 l 1175 620.422 l 1150 605.988 l S
1300 779.191 m 1200 721.457 l 1250 750.324 l 1250 779.191 l S
Q Q
showpage
%%Trailer
%%Trailer
cleartomark
countdictstack
exch sub { end } repeat
restore
%%EOF
