%!PS-Adobe-2.0 EPSF-2.0
%%BoundingBox: 0 0 1200 1039
%%HiResBoundingBox: 0.000000 0.000000 1200.000000 1039.000000
%%Creator: cairo 1.14.2 (http://cairographics.org)
%%CreationDate: Mon Sep  7 08:21:40 2015
%%DocumentData: Clean7Bit
%%LanguageLevel: 2
%%DocumentMedia: 423x367mm 1200 1039 0 () ()
%%EndComments
% EPSF created by ps2eps 1.68
%%BeginProlog
save
countdictstack
mark
newpath
/showpage {} def
/setpagedevice {pop} def
%%EndProlog
%%Page 1 1
%%BeginProlog
/languagelevel where
{ pop languagelevel } { 1 } ifelse
2 lt { /Helvetica findfont 12 scalefont setfont 50 500 moveto
  (This print job requires a PostScript Language Level 2 printer.) show
  showpage quit } if
/q { gsave } bind def
/Q { grestore } bind def
/cm { 6 array astore concat } bind def
/w { setlinewidth } bind def
/J { setlinecap } bind def
/j { setlinejoin } bind def
/M { setmiterlimit } bind def
/d { setdash } bind def
/m { moveto } bind def
/l { lineto } bind def
/c { curveto } bind def
/h { closepath } bind def
/re { exch dup neg 3 1 roll 5 3 roll moveto 0 rlineto
      0 exch rlineto 0 rlineto closepath } bind def
/S { stroke } bind def
/f { fill } bind def
/f* { eofill } bind def
/n { newpath } bind def
/W { clip } bind def
/W* { eoclip } bind def
/BT { } bind def
/ET { } bind def
/pdfmark where { pop globaldict /?pdfmark /exec load put }
    { globaldict begin /?pdfmark /pop load def /pdfmark
    /cleartomark load def end } ifelse
/BDC { mark 3 1 roll /BDC pdfmark } bind def
/EMC { mark /EMC pdfmark } bind def
/cairo_store_point { /cairo_point_y exch def /cairo_point_x exch def } def
/Tj { show currentpoint cairo_store_point } bind def
/TJ {
  {
    dup
    type /stringtype eq
    { show } { -0.001 mul 0 cairo_font_matrix dtransform rmoveto } ifelse
  } forall
  currentpoint cairo_store_point
} bind def
/cairo_selectfont { cairo_font_matrix aload pop pop pop 0 0 6 array astore
    cairo_font exch selectfont cairo_point_x cairo_point_y moveto } bind def
/Tf { pop /cairo_font exch def /cairo_font_matrix where
      { pop cairo_selectfont } if } bind def
/Td { matrix translate cairo_font_matrix matrix concatmatrix dup
      /cairo_font_matrix exch def dup 4 get exch 5 get cairo_store_point
      /cairo_font where { pop cairo_selectfont } if } bind def
/Tm { 2 copy 8 2 roll 6 array astore /cairo_font_matrix exch def
      cairo_store_point /cairo_font where { pop cairo_selectfont } if } bind def
/g { setgray } bind def
/rg { setrgbcolor } bind def
/d1 { setcachedevice } bind def
/cairo_set_page_size {
  % Change paper size, but only if different from previous paper size otherwise
  % duplex fails. PLRM specifies a tolerance of 5 pts when matching paper size
  % so we use the same when checking if the size changes.
  /setpagedevice where {
    pop currentpagedevice
    /PageSize known {
      2 copy
      currentpagedevice /PageSize get aload pop
      exch 4 1 roll
      sub abs 5 gt
      3 1 roll
      sub abs 5 gt
      or
    } {
      true
    } ifelse
    {
      2 array astore
      2 dict begin
        /PageSize exch def
        /ImagingBBox null def
      currentdict end
      setpagedevice
    } {
      pop pop
    } ifelse
  } {
    pop
  } ifelse
} def
%%EndProlog
%%BeginSetup
%%EndSetup
%%Page: 1 1
%%BeginPageSetup
%%PageMedia: 423x367mm
%%PageBoundingBox: 0 0 1200 1039
1200 1039 cairo_set_page_size
%%EndPageSetup
q 0 0 1200 1039 rectclip q
0.984314 g
0 0 1200 1039 rectfill
0.788235 g
1.875 w
0 J
1 j
[] 0.0 d
4 M 0 1039 1200 -1039.23 re S
0 g
2.5 w
1 J
0 346.18 m 50 375.047 l 75 331.746 l 100 346.18 l S
0 346.18 m 0 288.445 l 50 288.445 l 50 259.578 l S
0 346.18 m -50 375.047 l -25 418.348 l -50 432.781 l S
0 346.18 m 0 288.445 l -50 288.445 l -50 259.578 l S
0 346.18 m 50 375.047 l 25 418.348 l 50 432.781 l S
0 346.18 m -50 375.047 l -75 331.746 l -100 346.18 l S
0 172.973 m 0 230.711 l -50 230.711 l -50 259.578 l S
0 172.973 m -50 144.105 l -75 187.41 l -100 172.973 l S
0 172.973 m 50 144.105 l 75 187.41 l 100 172.973 l S
0 172.973 m -50 144.105 l -25 100.805 l -50 86.371 l S
0 172.973 m 0 230.711 l 50 230.711 l 50 259.578 l S
0 172.973 m 50 144.105 l 25 100.805 l 50 86.371 l S
150 86.371 m 200 115.238 l 225 71.938 l 250 86.371 l S
150 86.371 m 150 28.637 l 200 28.637 l 200 -0.23 l S
150 86.371 m 100 115.238 l 125 158.539 l 100 172.973 l S
150 86.371 m 150 28.637 l 100 28.637 l 100 -0.23 l S
150 86.371 m 200 115.238 l 175 158.539 l 200 172.973 l S
150 86.371 m 100 115.238 l 75 71.938 l 50 86.371 l S
0 865.793 m 50 894.664 l 75 851.359 l 100 865.793 l S
0 865.793 m 0 808.059 l 50 808.059 l 50 779.191 l S
0 865.793 m -50 894.664 l -25 937.965 l -50 952.398 l S
0 865.793 m 0 808.059 l -50 808.059 l -50 779.191 l S
0 865.793 m 50 894.664 l 25 937.965 l 50 952.398 l S
0 865.793 m -50 894.664 l -75 851.359 l -100 865.793 l S
0 692.59 m 0 750.324 l -50 750.324 l -50 779.191 l S
0 692.59 m -50 663.723 l -75 707.023 l -100 692.59 l S
0 692.59 m 50 663.723 l 75 707.023 l 100 692.59 l S
0 692.59 m -50 663.723 l -25 620.422 l -50 605.988 l S
0 692.59 m 0 750.324 l 50 750.324 l 50 779.191 l S
0 692.59 m 50 663.723 l 25 620.422 l 50 605.988 l S
150 605.988 m 200 634.855 l 225 591.555 l 250 605.988 l S
150 605.988 m 150 548.254 l 200 548.254 l 200 519.383 l S
150 605.988 m 100 634.855 l 125 678.156 l 100 692.59 l S
150 605.988 m 150 548.254 l 100 548.254 l 100 519.383 l S
150 605.988 m 200 634.855 l 175 678.156 l 200 692.59 l S
150 605.988 m 100 634.855 l 75 591.555 l 50 605.988 l S
150 432.781 m 150 490.516 l 100 490.516 l 100 519.383 l S
150 432.781 m 100 403.914 l 75 447.215 l 50 432.781 l S
150 432.781 m 200 403.914 l 225 447.215 l 250 432.781 l S
150 432.781 m 100 403.914 l 125 360.613 l 100 346.18 l S
150 432.781 m 150 490.516 l 200 490.516 l 200 519.383 l S
150 432.781 m 200 403.914 l 175 360.613 l 200 346.18 l S
300 346.18 m 350 375.047 l 375 331.746 l 400 346.18 l S
300 346.18 m 300 288.445 l 350 288.445 l 350 259.578 l S
300 346.18 m 250 375.047 l 275 418.348 l 250 432.781 l S
300 346.18 m 300 288.445 l 250 288.445 l 250 259.578 l S
300 346.18 m 350 375.047 l 325 418.348 l 350 432.781 l S
300 346.18 m 250 375.047 l 225 331.746 l 200 346.18 l S
300 172.973 m 300 230.711 l 250 230.711 l 250 259.578 l S
300 172.973 m 250 144.105 l 225 187.41 l 200 172.973 l S
300 172.973 m 350 144.105 l 375 187.41 l 400 172.973 l S
300 172.973 m 250 144.105 l 275 100.805 l 250 86.371 l S
300 172.973 m 300 230.711 l 350 230.711 l 350 259.578 l S
300 172.973 m 350 144.105 l 325 100.805 l 350 86.371 l S
450 86.371 m 500 115.238 l 525 71.938 l 550 86.371 l S
450 86.371 m 450 28.637 l 500 28.637 l 500 -0.23 l S
450 86.371 m 400 115.238 l 425 158.539 l 400 172.973 l S
450 86.371 m 450 28.637 l 400 28.637 l 400 -0.23 l S
450 86.371 m 500 115.238 l 475 158.539 l 500 172.973 l S
450 86.371 m 400 115.238 l 375 71.938 l 350 86.371 l S
150 952.398 m 150 1010.133 l 100 1010.133 l 100 1039 l S
150 952.398 m 100 923.531 l 75 966.832 l 50 952.398 l S
150 952.398 m 200 923.531 l 225 966.832 l 250 952.398 l S
150 952.398 m 100 923.531 l 125 880.23 l 100 865.793 l S
150 952.398 m 150 1010.133 l 200 1010.133 l 200 1039 l S
150 952.398 m 200 923.531 l 175 880.23 l 200 865.793 l S
300 865.793 m 350 894.664 l 375 851.359 l 400 865.793 l S
300 865.793 m 300 808.059 l 350 808.059 l 350 779.191 l S
300 865.793 m 250 894.664 l 275 937.965 l 250 952.398 l S
300 865.793 m 300 808.059 l 250 808.059 l 250 779.191 l S
300 865.793 m 350 894.664 l 325 937.965 l 350 952.398 l S
300 865.793 m 250 894.664 l 225 851.359 l 200 865.793 l S
300 692.59 m 300 750.324 l 250 750.324 l 250 779.191 l S
300 692.59 m 250 663.723 l 225 707.023 l 200 692.59 l S
300 692.59 m 350 663.723 l 375 707.023 l 400 692.59 l S
300 692.59 m 250 663.723 l 275 620.422 l 250 605.988 l S
300 692.59 m 300 750.324 l 350 750.324 l 350 779.191 l S
300 692.59 m 350 663.723 l 325 620.422 l 350 605.988 l S
450 605.988 m 500 634.855 l 525 591.555 l 550 605.988 l S
450 605.988 m 450 548.254 l 500 548.254 l 500 519.383 l S
450 605.988 m 400 634.855 l 425 678.156 l 400 692.59 l S
450 605.988 m 450 548.254 l 400 548.254 l 400 519.383 l S
450 605.988 m 500 634.855 l 475 678.156 l 500 692.59 l S
450 605.988 m 400 634.855 l 375 591.555 l 350 605.988 l S
450 432.781 m 450 490.516 l 400 490.516 l 400 519.383 l S
450 432.781 m 400 403.914 l 375 447.215 l 350 432.781 l S
450 432.781 m 500 403.914 l 525 447.215 l 550 432.781 l S
450 432.781 m 400 403.914 l 425 360.613 l 400 346.18 l S
450 432.781 m 450 490.516 l 500 490.516 l 500 519.383 l S
450 432.781 m 500 403.914 l 475 360.613 l 500 346.18 l S
600 346.18 m 650 375.047 l 675 331.746 l 700 346.18 l S
600 346.18 m 600 288.445 l 650 288.445 l 650 259.578 l S
600 346.18 m 550 375.047 l 575 418.348 l 550 432.781 l S
600 346.18 m 600 288.445 l 550 288.445 l 550 259.578 l S
600 346.18 m 650 375.047 l 625 418.348 l 650 432.781 l S
600 346.18 m 550 375.047 l 525 331.746 l 500 346.18 l S
600 172.973 m 600 230.711 l 550 230.711 l 550 259.578 l S
600 172.973 m 550 144.105 l 525 187.41 l 500 172.973 l S
600 172.973 m 650 144.105 l 675 187.41 l 700 172.973 l S
600 172.973 m 550 144.105 l 575 100.805 l 550 86.371 l S
600 172.973 m 600 230.711 l 650 230.711 l 650 259.578 l S
600 172.973 m 650 144.105 l 625 100.805 l 650 86.371 l S
750 86.371 m 800 115.238 l 825 71.938 l 850 86.371 l S
750 86.371 m 750 28.637 l 800 28.637 l 800 -0.23 l S
750 86.371 m 700 115.238 l 725 158.539 l 700 172.973 l S
750 86.371 m 750 28.637 l 700 28.637 l 700 -0.23 l S
750 86.371 m 800 115.238 l 775 158.539 l 800 172.973 l S
750 86.371 m 700 115.238 l 675 71.938 l 650 86.371 l S
450 952.398 m 450 1010.133 l 400 1010.133 l 400 1039 l S
450 952.398 m 400 923.531 l 375 966.832 l 350 952.398 l S
450 952.398 m 500 923.531 l 525 966.832 l 550 952.398 l S
450 952.398 m 400 923.531 l 425 880.23 l 400 865.793 l S
450 952.398 m 450 1010.133 l 500 1010.133 l 500 1039 l S
450 952.398 m 500 923.531 l 475 880.23 l 500 865.793 l S
600 865.793 m 650 894.664 l 675 851.359 l 700 865.793 l S
600 865.793 m 600 808.059 l 650 808.059 l 650 779.191 l S
600 865.793 m 550 894.664 l 575 937.965 l 550 952.398 l S
600 865.793 m 600 808.059 l 550 808.059 l 550 779.191 l S
600 865.793 m 650 894.664 l 625 937.965 l 650 952.398 l S
600 865.793 m 550 894.664 l 525 851.359 l 500 865.793 l S
600 692.59 m 600 750.324 l 550 750.324 l 550 779.191 l S
600 692.59 m 550 663.723 l 525 707.023 l 500 692.59 l S
600 692.59 m 650 663.723 l 675 707.023 l 700 692.59 l S
600 692.59 m 550 663.723 l 575 620.422 l 550 605.988 l S
600 692.59 m 600 750.324 l 650 750.324 l 650 779.191 l S
600 692.59 m 650 663.723 l 625 620.422 l 650 605.988 l S
750 605.988 m 800 634.855 l 825 591.555 l 850 605.988 l S
750 605.988 m 750 548.254 l 800 548.254 l 800 519.383 l S
750 605.988 m 700 634.855 l 725 678.156 l 700 692.59 l S
750 605.988 m 750 548.254 l 700 548.254 l 700 519.383 l S
750 605.988 m 800 634.855 l 775 678.156 l 800 692.59 l S
750 605.988 m 700 634.855 l 675 591.555 l 650 605.988 l S
750 432.781 m 750 490.516 l 700 490.516 l 700 519.383 l S
750 432.781 m 700 403.914 l 675 447.215 l 650 432.781 l S
750 432.781 m 800 403.914 l 825 447.215 l 850 432.781 l S
750 432.781 m 700 403.914 l 725 360.613 l 700 346.18 l S
750 432.781 m 750 490.516 l 800 490.516 l 800 519.383 l S
750 432.781 m 800 403.914 l 775 360.613 l 800 346.18 l S
900 346.18 m 950 375.047 l 975 331.746 l 1000 346.18 l S
900 346.18 m 900 288.445 l 950 288.445 l 950 259.578 l S
900 346.18 m 850 375.047 l 875 418.348 l 850 432.781 l S
900 346.18 m 900 288.445 l 850 288.445 l 850 259.578 l S
900 346.18 m 950 375.047 l 925 418.348 l 950 432.781 l S
900 346.18 m 850 375.047 l 825 331.746 l 800 346.18 l S
900 172.973 m 900 230.711 l 850 230.711 l 850 259.578 l S
900 172.973 m 850 144.105 l 825 187.41 l 800 172.973 l S
900 172.973 m 950 144.105 l 975 187.41 l 1000 172.973 l S
900 172.973 m 850 144.105 l 875 100.805 l 850 86.371 l S
900 172.973 m 900 230.711 l 950 230.711 l 950 259.578 l S
900 172.973 m 950 144.105 l 925 100.805 l 950 86.371 l S
1050 86.371 m 1100 115.238 l 1125 71.938 l 1150 86.371 l S
1050 86.371 m 1050 28.637 l 1100 28.637 l 1100 -0.23 l S
1050 86.371 m 1000 115.238 l 1025 158.539 l 1000 172.973 l S
1050 86.371 m 1050 28.637 l 1000 28.637 l 1000 -0.23 l S
1050 86.371 m 1100 115.238 l 1075 158.539 l 1100 172.973 l S
1050 86.371 m 1000 115.238 l 975 71.938 l 950 86.371 l S
750 952.398 m 750 1010.133 l 700 1010.133 l 700 1039 l S
750 952.398 m 700 923.531 l 675 966.832 l 650 952.398 l S
750 952.398 m 800 923.531 l 825 966.832 l 850 952.398 l S
750 952.398 m 700 923.531 l 725 880.23 l 700 865.793 l S
750 952.398 m 750 1010.133 l 800 1010.133 l 800 1039 l S
750 952.398 m 800 923.531 l 775 880.23 l 800 865.793 l S
900 865.793 m 950 894.664 l 975 851.359 l 1000 865.793 l S
900 865.793 m 900 808.059 l 950 808.059 l 950 779.191 l S
900 865.793 m 850 894.664 l 875 937.965 l 850 952.398 l S
900 865.793 m 900 808.059 l 850 808.059 l 850 779.191 l S
900 865.793 m 950 894.664 l 925 937.965 l 950 952.398 l S
900 865.793 m 850 894.664 l 825 851.359 l 800 865.793 l S
900 692.59 m 900 750.324 l 850 750.324 l 850 779.191 l S
900 692.59 m 850 663.723 l 825 707.023 l 800 692.59 l S
900 692.59 m 950 663.723 l 975 707.023 l 1000 692.59 l S
900 692.59 m 850 663.723 l 875 620.422 l 850 605.988 l S
900 692.59 m 900 750.324 l 950 750.324 l 950 779.191 l S
900 692.59 m 950 663.723 l 925 620.422 l 950 605.988 l S
1050 605.988 m 1100 634.855 l 1125 591.555 l 1150 605.988 l S
1050 605.988 m 1050 548.254 l 1100 548.254 l 1100 519.383 l S
1050 605.988 m 1000 634.855 l 1025 678.156 l 1000 692.59 l S
1050 605.988 m 1050 548.254 l 1000 548.254 l 1000 519.383 l S
1050 605.988 m 1100 634.855 l 1075 678.156 l 1100 692.59 l S
1050 605.988 m 1000 634.855 l 975 591.555 l 950 605.988 l S
1050 432.781 m 1050 490.516 l 1000 490.516 l 1000 519.383 l S
1050 432.781 m 1000 403.914 l 975 447.215 l 950 432.781 l S
1050 432.781 m 1100 403.914 l 1125 447.215 l 1150 432.781 l S
1050 432.781 m 1000 403.914 l 1025 360.613 l 1000 346.18 l S
1050 432.781 m 1050 490.516 l 1100 490.516 l 1100 519.383 l S
1050 432.781 m 1100 403.914 l 1075 360.613 l 1100 346.18 l S
1200 346.18 m 1250 375.047 l 1275 331.746 l 1300 346.18 l S
1200 346.18 m 1200 288.445 l 1250 288.445 l 1250 259.578 l S
1200 346.18 m 1150 375.047 l 1175 418.348 l 1150 432.781 l S
1200 346.18 m 1200 288.445 l 1150 288.445 l 1150 259.578 l S
1200 346.18 m 1250 375.047 l 1225 418.348 l 1250 432.781 l S
1200 346.18 m 1150 375.047 l 1125 331.746 l 1100 346.18 l S
1200 172.973 m 1200 230.711 l 1150 230.711 l 1150 259.578 l S
1200 172.973 m 1150 144.105 l 1125 187.41 l 1100 172.973 l S
1200 172.973 m 1250 144.105 l 1275 187.41 l 1300 172.973 l S
1200 172.973 m 1150 144.105 l 1175 100.805 l 1150 86.371 l S
1200 172.973 m 1200 230.711 l 1250 230.711 l 1250 259.578 l S
1200 172.973 m 1250 144.105 l 1225 100.805 l 1250 86.371 l S
1050 952.398 m 1050 1010.133 l 1000 1010.133 l 1000 1039 l S
1050 952.398 m 1000 923.531 l 975 966.832 l 950 952.398 l S
1050 952.398 m 1100 923.531 l 1125 966.832 l 1150 952.398 l S
1050 952.398 m 1000 923.531 l 1025 880.23 l 1000 865.793 l S
1050 952.398 m 1050 1010.133 l 1100 1010.133 l 1100 1039 l S
1050 952.398 m 1100 923.531 l 1075 880.23 l 1100 865.793 l S
1200 865.793 m 1250 894.664 l 1275 851.359 l 1300 865.793 l S
1200 865.793 m 1200 808.059 l 1250 808.059 l 1250 779.191 l S
1200 865.793 m 1150 894.664 l 1175 937.965 l 1150 952.398 l S
1200 865.793 m 1200 808.059 l 1150 808.059 l 1150 779.191 l S
1200 865.793 m 1250 894.664 l 1225 937.965 l 1250 952.398 l S
1200 865.793 m 1150 894.664 l 1125 851.359 l 1100 865.793 l S
1200 692.59 m 1200 750.324 l 1150 750.324 l 1150 779.191 l S
1200 692.59 m 1150 663.723 l 1125 707.023 l 1100 692.59 l S
1200 692.59 m 1250 663.723 l 1275 707.023 l 1300 692.59 l S
1200 692.59 m 1150 663.723 l 1175 620.422 l 1150 605.988 l S
1200 692.59 m 1200 750.324 l 1250 750.324 l 1250 779.191 l S
1200 692.59 m 1250 663.723 l 1225 620.422 l 1250 605.988 l S
Q Q
showpage
%%Trailer
%%Trailer
cleartomark
countdictstack
exch sub { end } repeat
restore
%%EOF
