%!PS-Adobe-2.0 EPSF-2.0
%%BoundingBox: 0 0 1800 800
%%HiResBoundingBox: 0.000000 0.000000 1800.000000 800.000000
%%Creator: cairo 1.14.2 (http://cairographics.org)
%%CreationDate: Mon Sep  7 08:21:40 2015
%%DocumentData: Clean7Bit
%%LanguageLevel: 2
%%DocumentMedia: 635x282mm 1800 800 0 () ()
%%EndComments
% EPSF created by ps2eps 1.68
%%BeginProlog
save
countdictstack
mark
newpath
/showpage {} def
/setpagedevice {pop} def
%%EndProlog
%%Page 1 1
%%BeginProlog
/languagelevel where
{ pop languagelevel } { 1 } ifelse
2 lt { /Helvetica findfont 12 scalefont setfont 50 500 moveto
  (This print job requires a PostScript Language Level 2 printer.) show
  showpage quit } if
/q { gsave } bind def
/Q { grestore } bind def
/cm { 6 array astore concat } bind def
/w { setlinewidth } bind def
/J { setlinecap } bind def
/j { setlinejoin } bind def
/M { setmiterlimit } bind def
/d { setdash } bind def
/m { moveto } bind def
/l { lineto } bind def
/c { curveto } bind def
/h { closepath } bind def
/re { exch dup neg 3 1 roll 5 3 roll moveto 0 rlineto
      0 exch rlineto 0 rlineto closepath } bind def
/S { stroke } bind def
/f { fill } bind def
/f* { eofill } bind def
/n { newpath } bind def
/W { clip } bind def
/W* { eoclip } bind def
/BT { } bind def
/ET { } bind def
/pdfmark where { pop globaldict /?pdfmark /exec load put }
    { globaldict begin /?pdfmark /pop load def /pdfmark
    /cleartomark load def end } ifelse
/BDC { mark 3 1 roll /BDC pdfmark } bind def
/EMC { mark /EMC pdfmark } bind def
/cairo_store_point { /cairo_point_y exch def /cairo_point_x exch def } def
/Tj { show currentpoint cairo_store_point } bind def
/TJ {
  {
    dup
    type /stringtype eq
    { show } { -0.001 mul 0 cairo_font_matrix dtransform rmoveto } ifelse
  } forall
  currentpoint cairo_store_point
} bind def
/cairo_selectfont { cairo_font_matrix aload pop pop pop 0 0 6 array astore
    cairo_font exch selectfont cairo_point_x cairo_point_y moveto } bind def
/Tf { pop /cairo_font exch def /cairo_font_matrix where
      { pop cairo_selectfont } if } bind def
/Td { matrix translate cairo_font_matrix matrix concatmatrix dup
      /cairo_font_matrix exch def dup 4 get exch 5 get cairo_store_point
      /cairo_font where { pop cairo_selectfont } if } bind def
/Tm { 2 copy 8 2 roll 6 array astore /cairo_font_matrix exch def
      cairo_store_point /cairo_font where { pop cairo_selectfont } if } bind def
/g { setgray } bind def
/rg { setrgbcolor } bind def
/d1 { setcachedevice } bind def
/cairo_set_page_size {
  % Change paper size, but only if different from previous paper size otherwise
  % duplex fails. PLRM specifies a tolerance of 5 pts when matching paper size
  % so we use the same when checking if the size changes.
  /setpagedevice where {
    pop currentpagedevice
    /PageSize known {
      2 copy
      currentpagedevice /PageSize get aload pop
      exch 4 1 roll
      sub abs 5 gt
      3 1 roll
      sub abs 5 gt
      or
    } {
      true
    } ifelse
    {
      2 array astore
      2 dict begin
        /PageSize exch def
        /ImagingBBox null def
      currentdict end
      setpagedevice
    } {
      pop pop
    } ifelse
  } {
    pop
  } ifelse
} def
%%EndProlog
%%BeginSetup
%%EndSetup
%%Page: 1 1
%%BeginPageSetup
%%PageMedia: 635x282mm
%%PageBoundingBox: 0 0 1800 800
1800 800 cairo_set_page_size
%%EndPageSetup
q 0 0 1800 800 rectclip q
0.984314 g
0 0 1800 800 rectfill
0.788235 g
1.875 w
0 J
1 j
[] 0.0 d
4 M 0 800 1800 -800 re S
0 g
2.5 w
1 J
150 600 m 100 800 0 600 100 666.668 c S
300 800 m 250 600 150 800 250 733.332 c S
150 400 m 100 600 0 400 100 466.668 c S
300 600 m 250 400 150 600 250 533.332 c S
150 200 m 100 400 0 200 100 266.668 c S
300 400 m 250 200 150 400 250 333.332 c S
150 0 m 100 200 0 0 100 66.668 c S
300 200 m 250 0 150 200 250 133.332 c S
450 600 m 400 800 300 600 400 666.668 c S
600 800 m 550 600 450 800 550 733.332 c S
450 400 m 400 600 300 400 400 466.668 c S
600 600 m 550 400 450 600 550 533.332 c S
450 200 m 400 400 300 200 400 266.668 c S
600 400 m 550 200 450 400 550 333.332 c S
450 0 m 400 200 300 0 400 66.668 c S
600 200 m 550 0 450 200 550 133.332 c S
750 600 m 700 800 600 600 700 666.668 c S
900 800 m 850 600 750 800 850 733.332 c S
750 400 m 700 600 600 400 700 466.668 c S
900 600 m 850 400 750 600 850 533.332 c S
750 200 m 700 400 600 200 700 266.668 c S
900 400 m 850 200 750 400 850 333.332 c S
750 0 m 700 200 600 0 700 66.668 c S
900 200 m 850 0 750 200 850 133.332 c S
1050 600 m 1000 800 900 600 1000 666.668 c S
1200 800 m 1150 600 1050 800 1150 733.332 c S
1050 400 m 1000 600 900 400 1000 466.668 c S
1200 600 m 1150 400 1050 600 1150 533.332 c S
1050 200 m 1000 400 900 200 1000 266.668 c S
1200 400 m 1150 200 1050 400 1150 333.332 c S
1050 0 m 1000 200 900 0 1000 66.668 c S
1200 200 m 1150 0 1050 200 1150 133.332 c S
1350 600 m 1300 800 1200 600 1300 666.668 c S
1500 800 m 1450 600 1350 800 1450 733.332 c S
1350 400 m 1300 600 1200 400 1300 466.668 c S
1500 600 m 1450 400 1350 600 1450 533.332 c S
1350 200 m 1300 400 1200 200 1300 266.668 c S
1500 400 m 1450 200 1350 400 1450 333.332 c S
1350 0 m 1300 200 1200 0 1300 66.668 c S
1500 200 m 1450 0 1350 200 1450 133.332 c S
1650 600 m 1600 800 1500 600 1600 666.668 c S
1800 800 m 1750 600 1650 800 1750 733.332 c S
1650 400 m 1600 600 1500 400 1600 466.668 c S
1800 600 m 1750 400 1650 600 1750 533.332 c S
1650 200 m 1600 400 1500 200 1600 266.668 c S
1800 400 m 1750 200 1650 400 1750 333.332 c S
1650 0 m 1600 200 1500 0 1600 66.668 c S
1800 200 m 1750 0 1650 200 1750 133.332 c S
Q Q
showpage
%%Trailer
%%Trailer
cleartomark
countdictstack
exch sub { end } repeat
restore
%%EOF
