%!PS-Adobe-2.0 EPSF-2.0
%%BoundingBox: 0 0 1800 800
%%HiResBoundingBox: 0.000000 0.000000 1800.000000 800.000000
%%Creator: cairo 1.14.2 (http://cairographics.org)
%%CreationDate: Mon Sep  7 08:21:40 2015
%%DocumentData: Clean7Bit
%%LanguageLevel: 2
%%DocumentMedia: 635x282mm 1800 800 0 () ()
%%EndComments
% EPSF created by ps2eps 1.68
%%BeginProlog
save
countdictstack
mark
newpath
/showpage {} def
/setpagedevice {pop} def
%%EndProlog
%%Page 1 1
%%BeginProlog
/languagelevel where
{ pop languagelevel } { 1 } ifelse
2 lt { /Helvetica findfont 12 scalefont setfont 50 500 moveto
  (This print job requires a PostScript Language Level 2 printer.) show
  showpage quit } if
/q { gsave } bind def
/Q { grestore } bind def
/cm { 6 array astore concat } bind def
/w { setlinewidth } bind def
/J { setlinecap } bind def
/j { setlinejoin } bind def
/M { setmiterlimit } bind def
/d { setdash } bind def
/m { moveto } bind def
/l { lineto } bind def
/c { curveto } bind def
/h { closepath } bind def
/re { exch dup neg 3 1 roll 5 3 roll moveto 0 rlineto
      0 exch rlineto 0 rlineto closepath } bind def
/S { stroke } bind def
/f { fill } bind def
/f* { eofill } bind def
/n { newpath } bind def
/W { clip } bind def
/W* { eoclip } bind def
/BT { } bind def
/ET { } bind def
/pdfmark where { pop globaldict /?pdfmark /exec load put }
    { globaldict begin /?pdfmark /pop load def /pdfmark
    /cleartomark load def end } ifelse
/BDC { mark 3 1 roll /BDC pdfmark } bind def
/EMC { mark /EMC pdfmark } bind def
/cairo_store_point { /cairo_point_y exch def /cairo_point_x exch def } def
/Tj { show currentpoint cairo_store_point } bind def
/TJ {
  {
    dup
    type /stringtype eq
    { show } { -0.001 mul 0 cairo_font_matrix dtransform rmoveto } ifelse
  } forall
  currentpoint cairo_store_point
} bind def
/cairo_selectfont { cairo_font_matrix aload pop pop pop 0 0 6 array astore
    cairo_font exch selectfont cairo_point_x cairo_point_y moveto } bind def
/Tf { pop /cairo_font exch def /cairo_font_matrix where
      { pop cairo_selectfont } if } bind def
/Td { matrix translate cairo_font_matrix matrix concatmatrix dup
      /cairo_font_matrix exch def dup 4 get exch 5 get cairo_store_point
      /cairo_font where { pop cairo_selectfont } if } bind def
/Tm { 2 copy 8 2 roll 6 array astore /cairo_font_matrix exch def
      cairo_store_point /cairo_font where { pop cairo_selectfont } if } bind def
/g { setgray } bind def
/rg { setrgbcolor } bind def
/d1 { setcachedevice } bind def
/cairo_set_page_size {
  % Change paper size, but only if different from previous paper size otherwise
  % duplex fails. PLRM specifies a tolerance of 5 pts when matching paper size
  % so we use the same when checking if the size changes.
  /setpagedevice where {
    pop currentpagedevice
    /PageSize known {
      2 copy
      currentpagedevice /PageSize get aload pop
      exch 4 1 roll
      sub abs 5 gt
      3 1 roll
      sub abs 5 gt
      or
    } {
      true
    } ifelse
    {
      2 array astore
      2 dict begin
        /PageSize exch def
        /ImagingBBox null def
      currentdict end
      setpagedevice
    } {
      pop pop
    } ifelse
  } {
    pop
  } ifelse
} def
%%EndProlog
%%BeginSetup
%%EndSetup
%%Page: 1 1
%%BeginPageSetup
%%PageMedia: 635x282mm
%%PageBoundingBox: 0 0 1800 800
1800 800 cairo_set_page_size
%%EndPageSetup
q 0 0 1800 800 rectclip q
0.984314 g
0 0 1800 800 rectfill
0.788235 g
1.875 w
0 J
1 j
[] 0.0 d
4 M 0 800 1800 -800 re S
0.85098 g
66.668 766.668 m 66.668 743.656 48.012 725 25 725 c 1.988 725 -16.668 743.656
 -16.668 766.668 c -16.668 789.68 1.988 808.332 25 808.332 c 48.012 808.332
 66.668 789.68 66.668 766.668 c h
66.668 766.668 m f
0 g
2.5 w
0 j
66.668 766.668 m 66.668 743.656 48.012 725 25 725 c 1.988 725 -16.668 743.656
 -16.668 766.668 c -16.668 789.68 1.988 808.332 25 808.332 c 48.012 808.332
 66.668 789.68 66.668 766.668 c h
66.668 766.668 m S
0.85098 g
216.668 633.332 m 216.668 610.32 198.012 591.668 175 591.668 c 151.988 
591.668 133.332 610.32 133.332 633.332 c 133.332 656.344 151.988 675 175
 675 c 198.012 675 216.668 656.344 216.668 633.332 c h
216.668 633.332 m f
0 g
216.668 633.332 m 216.668 610.32 198.012 591.668 175 591.668 c 151.988 
591.668 133.332 610.32 133.332 633.332 c 133.332 656.344 151.988 675 175
 675 c 198.012 675 216.668 656.344 216.668 633.332 c h
216.668 633.332 m S
0.85098 g
66.668 566.668 m 66.668 543.656 48.012 525 25 525 c 1.988 525 -16.668 543.656
 -16.668 566.668 c -16.668 589.68 1.988 608.332 25 608.332 c 48.012 608.332
 66.668 589.68 66.668 566.668 c h
66.668 566.668 m f
0 g
66.668 566.668 m 66.668 543.656 48.012 525 25 525 c 1.988 525 -16.668 543.656
 -16.668 566.668 c -16.668 589.68 1.988 608.332 25 608.332 c 48.012 608.332
 66.668 589.68 66.668 566.668 c h
66.668 566.668 m S
0.85098 g
216.668 433.332 m 216.668 410.32 198.012 391.668 175 391.668 c 151.988 
391.668 133.332 410.32 133.332 433.332 c 133.332 456.344 151.988 475 175
 475 c 198.012 475 216.668 456.344 216.668 433.332 c h
216.668 433.332 m f
0 g
216.668 433.332 m 216.668 410.32 198.012 391.668 175 391.668 c 151.988 
391.668 133.332 410.32 133.332 433.332 c 133.332 456.344 151.988 475 175
 475 c 198.012 475 216.668 456.344 216.668 433.332 c h
216.668 433.332 m S
0.85098 g
66.668 366.668 m 66.668 343.656 48.012 325 25 325 c 1.988 325 -16.668 343.656
 -16.668 366.668 c -16.668 389.68 1.988 408.332 25 408.332 c 48.012 408.332
 66.668 389.68 66.668 366.668 c h
66.668 366.668 m f
0 g
66.668 366.668 m 66.668 343.656 48.012 325 25 325 c 1.988 325 -16.668 343.656
 -16.668 366.668 c -16.668 389.68 1.988 408.332 25 408.332 c 48.012 408.332
 66.668 389.68 66.668 366.668 c h
66.668 366.668 m S
0.85098 g
216.668 233.332 m 216.668 210.32 198.012 191.668 175 191.668 c 151.988 
191.668 133.332 210.32 133.332 233.332 c 133.332 256.344 151.988 275 175
 275 c 198.012 275 216.668 256.344 216.668 233.332 c h
216.668 233.332 m f
0 g
216.668 233.332 m 216.668 210.32 198.012 191.668 175 191.668 c 151.988 
191.668 133.332 210.32 133.332 233.332 c 133.332 256.344 151.988 275 175
 275 c 198.012 275 216.668 256.344 216.668 233.332 c h
216.668 233.332 m S
0.85098 g
66.668 166.668 m 66.668 143.656 48.012 125 25 125 c 1.988 125 -16.668 143.656
 -16.668 166.668 c -16.668 189.68 1.988 208.332 25 208.332 c 48.012 208.332
 66.668 189.68 66.668 166.668 c h
66.668 166.668 m f
0 g
66.668 166.668 m 66.668 143.656 48.012 125 25 125 c 1.988 125 -16.668 143.656
 -16.668 166.668 c -16.668 189.68 1.988 208.332 25 208.332 c 48.012 208.332
 66.668 189.68 66.668 166.668 c h
66.668 166.668 m S
0.85098 g
216.668 33.332 m 216.668 10.32 198.012 -8.332 175 -8.332 c 151.988 -8.332
 133.332 10.32 133.332 33.332 c 133.332 56.344 151.988 75 175 75 c 198.012
 75 216.668 56.344 216.668 33.332 c h
216.668 33.332 m f
0 g
216.668 33.332 m 216.668 10.32 198.012 -8.332 175 -8.332 c 151.988 -8.332
 133.332 10.32 133.332 33.332 c 133.332 56.344 151.988 75 175 75 c 198.012
 75 216.668 56.344 216.668 33.332 c h
216.668 33.332 m S
0.85098 g
366.668 766.668 m 366.668 743.656 348.012 725 325 725 c 301.988 725 283.332
 743.656 283.332 766.668 c 283.332 789.68 301.988 808.332 325 808.332 c 
348.012 808.332 366.668 789.68 366.668 766.668 c h
366.668 766.668 m f
0 g
366.668 766.668 m 366.668 743.656 348.012 725 325 725 c 301.988 725 283.332
 743.656 283.332 766.668 c 283.332 789.68 301.988 808.332 325 808.332 c 
348.012 808.332 366.668 789.68 366.668 766.668 c h
366.668 766.668 m S
0.85098 g
516.668 633.332 m 516.668 610.32 498.012 591.668 475 591.668 c 451.988 
591.668 433.332 610.32 433.332 633.332 c 433.332 656.344 451.988 675 475
 675 c 498.012 675 516.668 656.344 516.668 633.332 c h
516.668 633.332 m f
0 g
516.668 633.332 m 516.668 610.32 498.012 591.668 475 591.668 c 451.988 
591.668 433.332 610.32 433.332 633.332 c 433.332 656.344 451.988 675 475
 675 c 498.012 675 516.668 656.344 516.668 633.332 c h
516.668 633.332 m S
0.85098 g
366.668 566.668 m 366.668 543.656 348.012 525 325 525 c 301.988 525 283.332
 543.656 283.332 566.668 c 283.332 589.68 301.988 608.332 325 608.332 c 
348.012 608.332 366.668 589.68 366.668 566.668 c h
366.668 566.668 m f
0 g
366.668 566.668 m 366.668 543.656 348.012 525 325 525 c 301.988 525 283.332
 543.656 283.332 566.668 c 283.332 589.68 301.988 608.332 325 608.332 c 
348.012 608.332 366.668 589.68 366.668 566.668 c h
366.668 566.668 m S
0.85098 g
516.668 433.332 m 516.668 410.32 498.012 391.668 475 391.668 c 451.988 
391.668 433.332 410.32 433.332 433.332 c 433.332 456.344 451.988 475 475
 475 c 498.012 475 516.668 456.344 516.668 433.332 c h
516.668 433.332 m f
0 g
516.668 433.332 m 516.668 410.32 498.012 391.668 475 391.668 c 451.988 
391.668 433.332 410.32 433.332 433.332 c 433.332 456.344 451.988 475 475
 475 c 498.012 475 516.668 456.344 516.668 433.332 c h
516.668 433.332 m S
0.85098 g
366.668 366.668 m 366.668 343.656 348.012 325 325 325 c 301.988 325 283.332
 343.656 283.332 366.668 c 283.332 389.68 301.988 408.332 325 408.332 c 
348.012 408.332 366.668 389.68 366.668 366.668 c h
366.668 366.668 m f
0 g
366.668 366.668 m 366.668 343.656 348.012 325 325 325 c 301.988 325 283.332
 343.656 283.332 366.668 c 283.332 389.68 301.988 408.332 325 408.332 c 
348.012 408.332 366.668 389.68 366.668 366.668 c h
366.668 366.668 m S
0.85098 g
516.668 233.332 m 516.668 210.32 498.012 191.668 475 191.668 c 451.988 
191.668 433.332 210.32 433.332 233.332 c 433.332 256.344 451.988 275 475
 275 c 498.012 275 516.668 256.344 516.668 233.332 c h
516.668 233.332 m f
0 g
516.668 233.332 m 516.668 210.32 498.012 191.668 475 191.668 c 451.988 
191.668 433.332 210.32 433.332 233.332 c 433.332 256.344 451.988 275 475
 275 c 498.012 275 516.668 256.344 516.668 233.332 c h
516.668 233.332 m S
0.85098 g
366.668 166.668 m 366.668 143.656 348.012 125 325 125 c 301.988 125 283.332
 143.656 283.332 166.668 c 283.332 189.68 301.988 208.332 325 208.332 c 
348.012 208.332 366.668 189.68 366.668 166.668 c h
366.668 166.668 m f
0 g
366.668 166.668 m 366.668 143.656 348.012 125 325 125 c 301.988 125 283.332
 143.656 283.332 166.668 c 283.332 189.68 301.988 208.332 325 208.332 c 
348.012 208.332 366.668 189.68 366.668 166.668 c h
366.668 166.668 m S
0.85098 g
516.668 33.332 m 516.668 10.32 498.012 -8.332 475 -8.332 c 451.988 -8.332
 433.332 10.32 433.332 33.332 c 433.332 56.344 451.988 75 475 75 c 498.012
 75 516.668 56.344 516.668 33.332 c h
516.668 33.332 m f
0 g
516.668 33.332 m 516.668 10.32 498.012 -8.332 475 -8.332 c 451.988 -8.332
 433.332 10.32 433.332 33.332 c 433.332 56.344 451.988 75 475 75 c 498.012
 75 516.668 56.344 516.668 33.332 c h
516.668 33.332 m S
0.85098 g
666.668 766.668 m 666.668 743.656 648.012 725 625 725 c 601.988 725 583.332
 743.656 583.332 766.668 c 583.332 789.68 601.988 808.332 625 808.332 c 
648.012 808.332 666.668 789.68 666.668 766.668 c h
666.668 766.668 m f
0 g
666.668 766.668 m 666.668 743.656 648.012 725 625 725 c 601.988 725 583.332
 743.656 583.332 766.668 c 583.332 789.68 601.988 808.332 625 808.332 c 
648.012 808.332 666.668 789.68 666.668 766.668 c h
666.668 766.668 m S
0.85098 g
816.668 633.332 m 816.668 610.32 798.012 591.668 775 591.668 c 751.988 
591.668 733.332 610.32 733.332 633.332 c 733.332 656.344 751.988 675 775
 675 c 798.012 675 816.668 656.344 816.668 633.332 c h
816.668 633.332 m f
0 g
816.668 633.332 m 816.668 610.32 798.012 591.668 775 591.668 c 751.988 
591.668 733.332 610.32 733.332 633.332 c 733.332 656.344 751.988 675 775
 675 c 798.012 675 816.668 656.344 816.668 633.332 c h
816.668 633.332 m S
0.85098 g
666.668 566.668 m 666.668 543.656 648.012 525 625 525 c 601.988 525 583.332
 543.656 583.332 566.668 c 583.332 589.68 601.988 608.332 625 608.332 c 
648.012 608.332 666.668 589.68 666.668 566.668 c h
666.668 566.668 m f
0 g
666.668 566.668 m 666.668 543.656 648.012 525 625 525 c 601.988 525 583.332
 543.656 583.332 566.668 c 583.332 589.68 601.988 608.332 625 608.332 c 
648.012 608.332 666.668 589.68 666.668 566.668 c h
666.668 566.668 m S
0.85098 g
816.668 433.332 m 816.668 410.32 798.012 391.668 775 391.668 c 751.988 
391.668 733.332 410.32 733.332 433.332 c 733.332 456.344 751.988 475 775
 475 c 798.012 475 816.668 456.344 816.668 433.332 c h
816.668 433.332 m f
0 g
816.668 433.332 m 816.668 410.32 798.012 391.668 775 391.668 c 751.988 
391.668 733.332 410.32 733.332 433.332 c 733.332 456.344 751.988 475 775
 475 c 798.012 475 816.668 456.344 816.668 433.332 c h
816.668 433.332 m S
0.85098 g
666.668 366.668 m 666.668 343.656 648.012 325 625 325 c 601.988 325 583.332
 343.656 583.332 366.668 c 583.332 389.68 601.988 408.332 625 408.332 c 
648.012 408.332 666.668 389.68 666.668 366.668 c h
666.668 366.668 m f
0 g
666.668 366.668 m 666.668 343.656 648.012 325 625 325 c 601.988 325 583.332
 343.656 583.332 366.668 c 583.332 389.68 601.988 408.332 625 408.332 c 
648.012 408.332 666.668 389.68 666.668 366.668 c h
666.668 366.668 m S
0.85098 g
816.668 233.332 m 816.668 210.32 798.012 191.668 775 191.668 c 751.988 
191.668 733.332 210.32 733.332 233.332 c 733.332 256.344 751.988 275 775
 275 c 798.012 275 816.668 256.344 816.668 233.332 c h
816.668 233.332 m f
0 g
816.668 233.332 m 816.668 210.32 798.012 191.668 775 191.668 c 751.988 
191.668 733.332 210.32 733.332 233.332 c 733.332 256.344 751.988 275 775
 275 c 798.012 275 816.668 256.344 816.668 233.332 c h
816.668 233.332 m S
0.85098 g
666.668 166.668 m 666.668 143.656 648.012 125 625 125 c 601.988 125 583.332
 143.656 583.332 166.668 c 583.332 189.68 601.988 208.332 625 208.332 c 
648.012 208.332 666.668 189.68 666.668 166.668 c h
666.668 166.668 m f
0 g
666.668 166.668 m 666.668 143.656 648.012 125 625 125 c 601.988 125 583.332
 143.656 583.332 166.668 c 583.332 189.68 601.988 208.332 625 208.332 c 
648.012 208.332 666.668 189.68 666.668 166.668 c h
666.668 166.668 m S
0.85098 g
816.668 33.332 m 816.668 10.32 798.012 -8.332 775 -8.332 c 751.988 -8.332
 733.332 10.32 733.332 33.332 c 733.332 56.344 751.988 75 775 75 c 798.012
 75 816.668 56.344 816.668 33.332 c h
816.668 33.332 m f
0 g
816.668 33.332 m 816.668 10.32 798.012 -8.332 775 -8.332 c 751.988 -8.332
 733.332 10.32 733.332 33.332 c 733.332 56.344 751.988 75 775 75 c 798.012
 75 816.668 56.344 816.668 33.332 c h
816.668 33.332 m S
0.85098 g
966.668 766.668 m 966.668 743.656 948.012 725 925 725 c 901.988 725 883.332
 743.656 883.332 766.668 c 883.332 789.68 901.988 808.332 925 808.332 c 
948.012 808.332 966.668 789.68 966.668 766.668 c h
966.668 766.668 m f
0 g
966.668 766.668 m 966.668 743.656 948.012 725 925 725 c 901.988 725 883.332
 743.656 883.332 766.668 c 883.332 789.68 901.988 808.332 925 808.332 c 
948.012 808.332 966.668 789.68 966.668 766.668 c h
966.668 766.668 m S
0.85098 g
1116.668 633.332 m 1116.668 610.32 1098.012 591.668 1075 591.668 c 1051.988
 591.668 1033.332 610.32 1033.332 633.332 c 1033.332 656.344 1051.988 675
 1075 675 c 1098.012 675 1116.668 656.344 1116.668 633.332 c h
1116.668 633.332 m f
0 g
1116.668 633.332 m 1116.668 610.32 1098.012 591.668 1075 591.668 c 1051.988
 591.668 1033.332 610.32 1033.332 633.332 c 1033.332 656.344 1051.988 675
 1075 675 c 1098.012 675 1116.668 656.344 1116.668 633.332 c h
1116.668 633.332 m S
0.85098 g
966.668 566.668 m 966.668 543.656 948.012 525 925 525 c 901.988 525 883.332
 543.656 883.332 566.668 c 883.332 589.68 901.988 608.332 925 608.332 c 
948.012 608.332 966.668 589.68 966.668 566.668 c h
966.668 566.668 m f
0 g
966.668 566.668 m 966.668 543.656 948.012 525 925 525 c 901.988 525 883.332
 543.656 883.332 566.668 c 883.332 589.68 901.988 608.332 925 608.332 c 
948.012 608.332 966.668 589.68 966.668 566.668 c h
966.668 566.668 m S
0.85098 g
1116.668 433.332 m 1116.668 410.32 1098.012 391.668 1075 391.668 c 1051.988
 391.668 1033.332 410.32 1033.332 433.332 c 1033.332 456.344 1051.988 475
 1075 475 c 1098.012 475 1116.668 456.344 1116.668 433.332 c h
1116.668 433.332 m f
0 g
1116.668 433.332 m 1116.668 410.32 1098.012 391.668 1075 391.668 c 1051.988
 391.668 1033.332 410.32 1033.332 433.332 c 1033.332 456.344 1051.988 475
 1075 475 c 1098.012 475 1116.668 456.344 1116.668 433.332 c h
1116.668 433.332 m S
0.85098 g
966.668 366.668 m 966.668 343.656 948.012 325 925 325 c 901.988 325 883.332
 343.656 883.332 366.668 c 883.332 389.68 901.988 408.332 925 408.332 c 
948.012 408.332 966.668 389.68 966.668 366.668 c h
966.668 366.668 m f
0 g
966.668 366.668 m 966.668 343.656 948.012 325 925 325 c 901.988 325 883.332
 343.656 883.332 366.668 c 883.332 389.68 901.988 408.332 925 408.332 c 
948.012 408.332 966.668 389.68 966.668 366.668 c h
966.668 366.668 m S
0.85098 g
1116.668 233.332 m 1116.668 210.32 1098.012 191.668 1075 191.668 c 1051.988
 191.668 1033.332 210.32 1033.332 233.332 c 1033.332 256.344 1051.988 275
 1075 275 c 1098.012 275 1116.668 256.344 1116.668 233.332 c h
1116.668 233.332 m f
0 g
1116.668 233.332 m 1116.668 210.32 1098.012 191.668 1075 191.668 c 1051.988
 191.668 1033.332 210.32 1033.332 233.332 c 1033.332 256.344 1051.988 275
 1075 275 c 1098.012 275 1116.668 256.344 1116.668 233.332 c h
1116.668 233.332 m S
0.85098 g
966.668 166.668 m 966.668 143.656 948.012 125 925 125 c 901.988 125 883.332
 143.656 883.332 166.668 c 883.332 189.68 901.988 208.332 925 208.332 c 
948.012 208.332 966.668 189.68 966.668 166.668 c h
966.668 166.668 m f
0 g
966.668 166.668 m 966.668 143.656 948.012 125 925 125 c 901.988 125 883.332
 143.656 883.332 166.668 c 883.332 189.68 901.988 208.332 925 208.332 c 
948.012 208.332 966.668 189.68 966.668 166.668 c h
966.668 166.668 m S
0.85098 g
1116.668 33.332 m 1116.668 10.32 1098.012 -8.332 1075 -8.332 c 1051.988
 -8.332 1033.332 10.32 1033.332 33.332 c 1033.332 56.344 1051.988 75 1075
 75 c 1098.012 75 1116.668 56.344 1116.668 33.332 c h
1116.668 33.332 m f
0 g
1116.668 33.332 m 1116.668 10.32 1098.012 -8.332 1075 -8.332 c 1051.988
 -8.332 1033.332 10.32 1033.332 33.332 c 1033.332 56.344 1051.988 75 1075
 75 c 1098.012 75 1116.668 56.344 1116.668 33.332 c h
1116.668 33.332 m S
0.85098 g
1266.668 766.668 m 1266.668 743.656 1248.012 725 1225 725 c 1201.988 725
 1183.332 743.656 1183.332 766.668 c 1183.332 789.68 1201.988 808.332 1225
 808.332 c 1248.012 808.332 1266.668 789.68 1266.668 766.668 c h
1266.668 766.668 m f
0 g
1266.668 766.668 m 1266.668 743.656 1248.012 725 1225 725 c 1201.988 725
 1183.332 743.656 1183.332 766.668 c 1183.332 789.68 1201.988 808.332 1225
 808.332 c 1248.012 808.332 1266.668 789.68 1266.668 766.668 c h
1266.668 766.668 m S
0.85098 g
1416.668 633.332 m 1416.668 610.32 1398.012 591.668 1375 591.668 c 1351.988
 591.668 1333.332 610.32 1333.332 633.332 c 1333.332 656.344 1351.988 675
 1375 675 c 1398.012 675 1416.668 656.344 1416.668 633.332 c h
1416.668 633.332 m f
0 g
1416.668 633.332 m 1416.668 610.32 1398.012 591.668 1375 591.668 c 1351.988
 591.668 1333.332 610.32 1333.332 633.332 c 1333.332 656.344 1351.988 675
 1375 675 c 1398.012 675 1416.668 656.344 1416.668 633.332 c h
1416.668 633.332 m S
0.85098 g
1266.668 566.668 m 1266.668 543.656 1248.012 525 1225 525 c 1201.988 525
 1183.332 543.656 1183.332 566.668 c 1183.332 589.68 1201.988 608.332 1225
 608.332 c 1248.012 608.332 1266.668 589.68 1266.668 566.668 c h
1266.668 566.668 m f
0 g
1266.668 566.668 m 1266.668 543.656 1248.012 525 1225 525 c 1201.988 525
 1183.332 543.656 1183.332 566.668 c 1183.332 589.68 1201.988 608.332 1225
 608.332 c 1248.012 608.332 1266.668 589.68 1266.668 566.668 c h
1266.668 566.668 m S
0.85098 g
1416.668 433.332 m 1416.668 410.32 1398.012 391.668 1375 391.668 c 1351.988
 391.668 1333.332 410.32 1333.332 433.332 c 1333.332 456.344 1351.988 475
 1375 475 c 1398.012 475 1416.668 456.344 1416.668 433.332 c h
1416.668 433.332 m f
0 g
1416.668 433.332 m 1416.668 410.32 1398.012 391.668 1375 391.668 c 1351.988
 391.668 1333.332 410.32 1333.332 433.332 c 1333.332 456.344 1351.988 475
 1375 475 c 1398.012 475 1416.668 456.344 1416.668 433.332 c h
1416.668 433.332 m S
0.85098 g
1266.668 366.668 m 1266.668 343.656 1248.012 325 1225 325 c 1201.988 325
 1183.332 343.656 1183.332 366.668 c 1183.332 389.68 1201.988 408.332 1225
 408.332 c 1248.012 408.332 1266.668 389.68 1266.668 366.668 c h
1266.668 366.668 m f
0 g
1266.668 366.668 m 1266.668 343.656 1248.012 325 1225 325 c 1201.988 325
 1183.332 343.656 1183.332 366.668 c 1183.332 389.68 1201.988 408.332 1225
 408.332 c 1248.012 408.332 1266.668 389.68 1266.668 366.668 c h
1266.668 366.668 m S
0.85098 g
1416.668 233.332 m 1416.668 210.32 1398.012 191.668 1375 191.668 c 1351.988
 191.668 1333.332 210.32 1333.332 233.332 c 1333.332 256.344 1351.988 275
 1375 275 c 1398.012 275 1416.668 256.344 1416.668 233.332 c h
1416.668 233.332 m f
0 g
1416.668 233.332 m 1416.668 210.32 1398.012 191.668 1375 191.668 c 1351.988
 191.668 1333.332 210.32 1333.332 233.332 c 1333.332 256.344 1351.988 275
 1375 275 c 1398.012 275 1416.668 256.344 1416.668 233.332 c h
1416.668 233.332 m S
0.85098 g
1266.668 166.668 m 1266.668 143.656 1248.012 125 1225 125 c 1201.988 125
 1183.332 143.656 1183.332 166.668 c 1183.332 189.68 1201.988 208.332 1225
 208.332 c 1248.012 208.332 1266.668 189.68 1266.668 166.668 c h
1266.668 166.668 m f
0 g
1266.668 166.668 m 1266.668 143.656 1248.012 125 1225 125 c 1201.988 125
 1183.332 143.656 1183.332 166.668 c 1183.332 189.68 1201.988 208.332 1225
 208.332 c 1248.012 208.332 1266.668 189.68 1266.668 166.668 c h
1266.668 166.668 m S
0.85098 g
1416.668 33.332 m 1416.668 10.32 1398.012 -8.332 1375 -8.332 c 1351.988
 -8.332 1333.332 10.32 1333.332 33.332 c 1333.332 56.344 1351.988 75 1375
 75 c 1398.012 75 1416.668 56.344 1416.668 33.332 c h
1416.668 33.332 m f
0 g
1416.668 33.332 m 1416.668 10.32 1398.012 -8.332 1375 -8.332 c 1351.988
 -8.332 1333.332 10.32 1333.332 33.332 c 1333.332 56.344 1351.988 75 1375
 75 c 1398.012 75 1416.668 56.344 1416.668 33.332 c h
1416.668 33.332 m S
0.85098 g
1566.668 766.668 m 1566.668 743.656 1548.012 725 1525 725 c 1501.988 725
 1483.332 743.656 1483.332 766.668 c 1483.332 789.68 1501.988 808.332 1525
 808.332 c 1548.012 808.332 1566.668 789.68 1566.668 766.668 c h
1566.668 766.668 m f
0 g
1566.668 766.668 m 1566.668 743.656 1548.012 725 1525 725 c 1501.988 725
 1483.332 743.656 1483.332 766.668 c 1483.332 789.68 1501.988 808.332 1525
 808.332 c 1548.012 808.332 1566.668 789.68 1566.668 766.668 c h
1566.668 766.668 m S
0.85098 g
1716.668 633.332 m 1716.668 610.32 1698.012 591.668 1675 591.668 c 1651.988
 591.668 1633.332 610.32 1633.332 633.332 c 1633.332 656.344 1651.988 675
 1675 675 c 1698.012 675 1716.668 656.344 1716.668 633.332 c h
1716.668 633.332 m f
0 g
1716.668 633.332 m 1716.668 610.32 1698.012 591.668 1675 591.668 c 1651.988
 591.668 1633.332 610.32 1633.332 633.332 c 1633.332 656.344 1651.988 675
 1675 675 c 1698.012 675 1716.668 656.344 1716.668 633.332 c h
1716.668 633.332 m S
0.85098 g
1566.668 566.668 m 1566.668 543.656 1548.012 525 1525 525 c 1501.988 525
 1483.332 543.656 1483.332 566.668 c 1483.332 589.68 1501.988 608.332 1525
 608.332 c 1548.012 608.332 1566.668 589.68 1566.668 566.668 c h
1566.668 566.668 m f
0 g
1566.668 566.668 m 1566.668 543.656 1548.012 525 1525 525 c 1501.988 525
 1483.332 543.656 1483.332 566.668 c 1483.332 589.68 1501.988 608.332 1525
 608.332 c 1548.012 608.332 1566.668 589.68 1566.668 566.668 c h
1566.668 566.668 m S
0.85098 g
1716.668 433.332 m 1716.668 410.32 1698.012 391.668 1675 391.668 c 1651.988
 391.668 1633.332 410.32 1633.332 433.332 c 1633.332 456.344 1651.988 475
 1675 475 c 1698.012 475 1716.668 456.344 1716.668 433.332 c h
1716.668 433.332 m f
0 g
1716.668 433.332 m 1716.668 410.32 1698.012 391.668 1675 391.668 c 1651.988
 391.668 1633.332 410.32 1633.332 433.332 c 1633.332 456.344 1651.988 475
 1675 475 c 1698.012 475 1716.668 456.344 1716.668 433.332 c h
1716.668 433.332 m S
0.85098 g
1566.668 366.668 m 1566.668 343.656 1548.012 325 1525 325 c 1501.988 325
 1483.332 343.656 1483.332 366.668 c 1483.332 389.68 1501.988 408.332 1525
 408.332 c 1548.012 408.332 1566.668 389.68 1566.668 366.668 c h
1566.668 366.668 m f
0 g
1566.668 366.668 m 1566.668 343.656 1548.012 325 1525 325 c 1501.988 325
 1483.332 343.656 1483.332 366.668 c 1483.332 389.68 1501.988 408.332 1525
 408.332 c 1548.012 408.332 1566.668 389.68 1566.668 366.668 c h
1566.668 366.668 m S
0.85098 g
1716.668 233.332 m 1716.668 210.32 1698.012 191.668 1675 191.668 c 1651.988
 191.668 1633.332 210.32 1633.332 233.332 c 1633.332 256.344 1651.988 275
 1675 275 c 1698.012 275 1716.668 256.344 1716.668 233.332 c h
1716.668 233.332 m f
0 g
1716.668 233.332 m 1716.668 210.32 1698.012 191.668 1675 191.668 c 1651.988
 191.668 1633.332 210.32 1633.332 233.332 c 1633.332 256.344 1651.988 275
 1675 275 c 1698.012 275 1716.668 256.344 1716.668 233.332 c h
1716.668 233.332 m S
0.85098 g
1566.668 166.668 m 1566.668 143.656 1548.012 125 1525 125 c 1501.988 125
 1483.332 143.656 1483.332 166.668 c 1483.332 189.68 1501.988 208.332 1525
 208.332 c 1548.012 208.332 1566.668 189.68 1566.668 166.668 c h
1566.668 166.668 m f
0 g
1566.668 166.668 m 1566.668 143.656 1548.012 125 1525 125 c 1501.988 125
 1483.332 143.656 1483.332 166.668 c 1483.332 189.68 1501.988 208.332 1525
 208.332 c 1548.012 208.332 1566.668 189.68 1566.668 166.668 c h
1566.668 166.668 m S
0.85098 g
1716.668 33.332 m 1716.668 10.32 1698.012 -8.332 1675 -8.332 c 1651.988
 -8.332 1633.332 10.32 1633.332 33.332 c 1633.332 56.344 1651.988 75 1675
 75 c 1698.012 75 1716.668 56.344 1716.668 33.332 c h
1716.668 33.332 m f
0 g
1716.668 33.332 m 1716.668 10.32 1698.012 -8.332 1675 -8.332 c 1651.988
 -8.332 1633.332 10.32 1633.332 33.332 c 1633.332 56.344 1651.988 75 1675
 75 c 1698.012 75 1716.668 56.344 1716.668 33.332 c h
1716.668 33.332 m S
Q Q
showpage
%%Trailer
%%Trailer
cleartomark
countdictstack
exch sub { end } repeat
restore
%%EOF
