%!PS-Adobe-2.0 EPSF-2.0
%%BoundingBox: 0 0 2400 1200
%%HiResBoundingBox: 0.000000 0.000000 2400.000000 1200.000000
%%Creator: cairo 1.14.2 (http://cairographics.org)
%%CreationDate: Mon Sep  7 08:21:40 2015
%%DocumentData: Clean7Bit
%%LanguageLevel: 2
%%DocumentMedia: 847x423mm 2400 1200 0 () ()
%%EndComments
% EPSF created by ps2eps 1.68
%%BeginProlog
save
countdictstack
mark
newpath
/showpage {} def
/setpagedevice {pop} def
%%EndProlog
%%Page 1 1
%%BeginProlog
/languagelevel where
{ pop languagelevel } { 1 } ifelse
2 lt { /Helvetica findfont 12 scalefont setfont 50 500 moveto
  (This print job requires a PostScript Language Level 2 printer.) show
  showpage quit } if
/q { gsave } bind def
/Q { grestore } bind def
/cm { 6 array astore concat } bind def
/w { setlinewidth } bind def
/J { setlinecap } bind def
/j { setlinejoin } bind def
/M { setmiterlimit } bind def
/d { setdash } bind def
/m { moveto } bind def
/l { lineto } bind def
/c { curveto } bind def
/h { closepath } bind def
/re { exch dup neg 3 1 roll 5 3 roll moveto 0 rlineto
      0 exch rlineto 0 rlineto closepath } bind def
/S { stroke } bind def
/f { fill } bind def
/f* { eofill } bind def
/n { newpath } bind def
/W { clip } bind def
/W* { eoclip } bind def
/BT { } bind def
/ET { } bind def
/pdfmark where { pop globaldict /?pdfmark /exec load put }
    { globaldict begin /?pdfmark /pop load def /pdfmark
    /cleartomark load def end } ifelse
/BDC { mark 3 1 roll /BDC pdfmark } bind def
/EMC { mark /EMC pdfmark } bind def
/cairo_store_point { /cairo_point_y exch def /cairo_point_x exch def } def
/Tj { show currentpoint cairo_store_point } bind def
/TJ {
  {
    dup
    type /stringtype eq
    { show } { -0.001 mul 0 cairo_font_matrix dtransform rmoveto } ifelse
  } forall
  currentpoint cairo_store_point
} bind def
/cairo_selectfont { cairo_font_matrix aload pop pop pop 0 0 6 array astore
    cairo_font exch selectfont cairo_point_x cairo_point_y moveto } bind def
/Tf { pop /cairo_font exch def /cairo_font_matrix where
      { pop cairo_selectfont } if } bind def
/Td { matrix translate cairo_font_matrix matrix concatmatrix dup
      /cairo_font_matrix exch def dup 4 get exch 5 get cairo_store_point
      /cairo_font where { pop cairo_selectfont } if } bind def
/Tm { 2 copy 8 2 roll 6 array astore /cairo_font_matrix exch def
      cairo_store_point /cairo_font where { pop cairo_selectfont } if } bind def
/g { setgray } bind def
/rg { setrgbcolor } bind def
/d1 { setcachedevice } bind def
/cairo_set_page_size {
  % Change paper size, but only if different from previous paper size otherwise
  % duplex fails. PLRM specifies a tolerance of 5 pts when matching paper size
  % so we use the same when checking if the size changes.
  /setpagedevice where {
    pop currentpagedevice
    /PageSize known {
      2 copy
      currentpagedevice /PageSize get aload pop
      exch 4 1 roll
      sub abs 5 gt
      3 1 roll
      sub abs 5 gt
      or
    } {
      true
    } ifelse
    {
      2 array astore
      2 dict begin
        /PageSize exch def
        /ImagingBBox null def
      currentdict end
      setpagedevice
    } {
      pop pop
    } ifelse
  } {
    pop
  } ifelse
} def
%%EndProlog
%%BeginSetup
%%EndSetup
%%Page: 1 1
%%BeginPageSetup
%%PageMedia: 847x423mm
%%PageBoundingBox: 0 0 2400 1200
2400 1200 cairo_set_page_size
%%EndPageSetup
q 0 0 2400 1200 rectclip q
0.984314 g
0 0 2400 1200 rectfill
0.788235 g
1.875 w
0 J
1 j
[] 0.0 d
4 M 0 1200 2400 -1200 re S
0 g
2.5 w
1 J
0 1200 m 66.668 1150 200 1150 200 1100 c S
200 1050 m 266.668 1100 400 1100 400 1150 c S
200 1050 m 133.332 1000 0 1000 0 950 c S
400 900 m 333.332 950 200 950 200 1000 c S
0 900 m 66.668 850 200 850 200 800 c S
200 750 m 266.668 800 400 800 400 850 c S
200 750 m 133.332 700 0 700 0 650 c S
400 600 m 333.332 650 200 650 200 700 c S
0 600 m 66.668 550 200 550 200 500 c S
200 450 m 266.668 500 400 500 400 550 c S
200 450 m 133.332 400 0 400 0 350 c S
400 300 m 333.332 350 200 350 200 400 c S
0 300 m 66.668 250 200 250 200 200 c S
200 150 m 266.668 200 400 200 400 250 c S
200 150 m 133.332 100 0 100 0 50 c S
400 0 m 333.332 50 200 50 200 100 c S
400 1200 m 466.668 1150 600 1150 600 1100 c S
600 1050 m 666.668 1100 800 1100 800 1150 c S
600 1050 m 533.332 1000 400 1000 400 950 c S
800 900 m 733.332 950 600 950 600 1000 c S
400 900 m 466.668 850 600 850 600 800 c S
600 750 m 666.668 800 800 800 800 850 c S
600 750 m 533.332 700 400 700 400 650 c S
800 600 m 733.332 650 600 650 600 700 c S
400 600 m 466.668 550 600 550 600 500 c S
600 450 m 666.668 500 800 500 800 550 c S
600 450 m 533.332 400 400 400 400 350 c S
800 300 m 733.332 350 600 350 600 400 c S
400 300 m 466.668 250 600 250 600 200 c S
600 150 m 666.668 200 800 200 800 250 c S
600 150 m 533.332 100 400 100 400 50 c S
800 0 m 733.332 50 600 50 600 100 c S
800 1200 m 866.668 1150 1000 1150 1000 1100 c S
1000 1050 m 1066.668 1100 1200 1100 1200 1150 c S
1000 1050 m 933.332 1000 800 1000 800 950 c S
1200 900 m 1133.332 950 1000 950 1000 1000 c S
800 900 m 866.668 850 1000 850 1000 800 c S
1000 750 m 1066.668 800 1200 800 1200 850 c S
1000 750 m 933.332 700 800 700 800 650 c S
1200 600 m 1133.332 650 1000 650 1000 700 c S
800 600 m 866.668 550 1000 550 1000 500 c S
1000 450 m 1066.668 500 1200 500 1200 550 c S
1000 450 m 933.332 400 800 400 800 350 c S
1200 300 m 1133.332 350 1000 350 1000 400 c S
800 300 m 866.668 250 1000 250 1000 200 c S
1000 150 m 1066.668 200 1200 200 1200 250 c S
1000 150 m 933.332 100 800 100 800 50 c S
1200 0 m 1133.332 50 1000 50 1000 100 c S
1200 1200 m 1266.668 1150 1400 1150 1400 1100 c S
1400 1050 m 1466.668 1100 1600 1100 1600 1150 c S
1400 1050 m 1333.332 1000 1200 1000 1200 950 c S
1600 900 m 1533.332 950 1400 950 1400 1000 c S
1200 900 m 1266.668 850 1400 850 1400 800 c S
1400 750 m 1466.668 800 1600 800 1600 850 c S
1400 750 m 1333.332 700 1200 700 1200 650 c S
1600 600 m 1533.332 650 1400 650 1400 700 c S
1200 600 m 1266.668 550 1400 550 1400 500 c S
1400 450 m 1466.668 500 1600 500 1600 550 c S
1400 450 m 1333.332 400 1200 400 1200 350 c S
1600 300 m 1533.332 350 1400 350 1400 400 c S
1200 300 m 1266.668 250 1400 250 1400 200 c S
1400 150 m 1466.668 200 1600 200 1600 250 c S
1400 150 m 1333.332 100 1200 100 1200 50 c S
1600 0 m 1533.332 50 1400 50 1400 100 c S
1600 1200 m 1666.668 1150 1800 1150 1800 1100 c S
1800 1050 m 1866.668 1100 2000 1100 2000 1150 c S
1800 1050 m 1733.332 1000 1600 1000 1600 950 c S
2000 900 m 1933.332 950 1800 950 1800 1000 c S
1600 900 m 1666.668 850 1800 850 1800 800 c S
1800 750 m 1866.668 800 2000 800 2000 850 c S
1800 750 m 1733.332 700 1600 700 1600 650 c S
2000 600 m 1933.332 650 1800 650 1800 700 c S
1600 600 m 1666.668 550 1800 550 1800 500 c S
1800 450 m 1866.668 500 2000 500 2000 550 c S
1800 450 m 1733.332 400 1600 400 1600 350 c S
2000 300 m 1933.332 350 1800 350 1800 400 c S
1600 300 m 1666.668 250 1800 250 1800 200 c S
1800 150 m 1866.668 200 2000 200 2000 250 c S
1800 150 m 1733.332 100 1600 100 1600 50 c S
2000 0 m 1933.332 50 1800 50 1800 100 c S
2000 1200 m 2066.668 1150 2200 1150 2200 1100 c S
2200 1050 m 2266.668 1100 2400 1100 2400 1150 c S
2200 1050 m 2133.332 1000 2000 1000 2000 950 c S
2400 900 m 2333.332 950 2200 950 2200 1000 c S
2000 900 m 2066.668 850 2200 850 2200 800 c S
2200 750 m 2266.668 800 2400 800 2400 850 c S
2200 750 m 2133.332 700 2000 700 2000 650 c S
2400 600 m 2333.332 650 2200 650 2200 700 c S
2000 600 m 2066.668 550 2200 550 2200 500 c S
2200 450 m 2266.668 500 2400 500 2400 550 c S
2200 450 m 2133.332 400 2000 400 2000 350 c S
2400 300 m 2333.332 350 2200 350 2200 400 c S
2000 300 m 2066.668 250 2200 250 2200 200 c S
2200 150 m 2266.668 200 2400 200 2400 250 c S
2200 150 m 2133.332 100 2000 100 2000 50 c S
2400 0 m 2333.332 50 2200 50 2200 100 c S
Q Q
showpage
%%Trailer
%%Trailer
cleartomark
countdictstack
exch sub { end } repeat
restore
%%EOF
