%!PS-Adobe-2.0 EPSF-2.0
%%BoundingBox: 0 0 800 693
%%HiResBoundingBox: 0.000000 0.000000 800.000000 693.000000
%%Creator: cairo 1.14.2 (http://cairographics.org)
%%CreationDate: Mon Sep  7 08:21:46 2015
%%DocumentData: Clean7Bit
%%LanguageLevel: 2
%%DocumentMedia: 282x244mm 800 693 0 () ()
%%EndComments
% EPSF created by ps2eps 1.68
%%BeginProlog
save
countdictstack
mark
newpath
/showpage {} def
/setpagedevice {pop} def
%%EndProlog
%%Page 1 1
%%BeginProlog
/languagelevel where
{ pop languagelevel } { 1 } ifelse
2 lt { /Helvetica findfont 12 scalefont setfont 50 500 moveto
  (This print job requires a PostScript Language Level 2 printer.) show
  showpage quit } if
/q { gsave } bind def
/Q { grestore } bind def
/cm { 6 array astore concat } bind def
/w { setlinewidth } bind def
/J { setlinecap } bind def
/j { setlinejoin } bind def
/M { setmiterlimit } bind def
/d { setdash } bind def
/m { moveto } bind def
/l { lineto } bind def
/c { curveto } bind def
/h { closepath } bind def
/re { exch dup neg 3 1 roll 5 3 roll moveto 0 rlineto
      0 exch rlineto 0 rlineto closepath } bind def
/S { stroke } bind def
/f { fill } bind def
/f* { eofill } bind def
/n { newpath } bind def
/W { clip } bind def
/W* { eoclip } bind def
/BT { } bind def
/ET { } bind def
/pdfmark where { pop globaldict /?pdfmark /exec load put }
    { globaldict begin /?pdfmark /pop load def /pdfmark
    /cleartomark load def end } ifelse
/BDC { mark 3 1 roll /BDC pdfmark } bind def
/EMC { mark /EMC pdfmark } bind def
/cairo_store_point { /cairo_point_y exch def /cairo_point_x exch def } def
/Tj { show currentpoint cairo_store_point } bind def
/TJ {
  {
    dup
    type /stringtype eq
    { show } { -0.001 mul 0 cairo_font_matrix dtransform rmoveto } ifelse
  } forall
  currentpoint cairo_store_point
} bind def
/cairo_selectfont { cairo_font_matrix aload pop pop pop 0 0 6 array astore
    cairo_font exch selectfont cairo_point_x cairo_point_y moveto } bind def
/Tf { pop /cairo_font exch def /cairo_font_matrix where
      { pop cairo_selectfont } if } bind def
/Td { matrix translate cairo_font_matrix matrix concatmatrix dup
      /cairo_font_matrix exch def dup 4 get exch 5 get cairo_store_point
      /cairo_font where { pop cairo_selectfont } if } bind def
/Tm { 2 copy 8 2 roll 6 array astore /cairo_font_matrix exch def
      cairo_store_point /cairo_font where { pop cairo_selectfont } if } bind def
/g { setgray } bind def
/rg { setrgbcolor } bind def
/d1 { setcachedevice } bind def
/cairo_set_page_size {
  % Change paper size, but only if different from previous paper size otherwise
  % duplex fails. PLRM specifies a tolerance of 5 pts when matching paper size
  % so we use the same when checking if the size changes.
  /setpagedevice where {
    pop currentpagedevice
    /PageSize known {
      2 copy
      currentpagedevice /PageSize get aload pop
      exch 4 1 roll
      sub abs 5 gt
      3 1 roll
      sub abs 5 gt
      or
    } {
      true
    } ifelse
    {
      2 array astore
      2 dict begin
        /PageSize exch def
        /ImagingBBox null def
      currentdict end
      setpagedevice
    } {
      pop pop
    } ifelse
  } {
    pop
  } ifelse
} def
%%EndProlog
%%BeginSetup
%%EndSetup
%%Page: 1 1
%%BeginPageSetup
%%PageMedia: 282x244mm
%%PageBoundingBox: 0 0 800 693
800 693 cairo_set_page_size
%%EndPageSetup
q 0 0 800 693 rectclip q
Q q
0.984314 g
0 693 800 -692.82 re f*
0.788235 g
1.875 w
0 J
1 j
[] 0.0 d
4 M 0 693 800 -692.82 re S
0 g
2.5 w
1 J
25 649.699 m -25 563.098 50 606.398 -100 519.793 c S
25 649.699 m 125 649.699 50 606.398 200 693 c S
75 563.098 m -25 563.098 50 606.398 -100 519.793 c S
75 563.098 m 125 649.699 50 606.398 200 693 c S
-75 476.492 m 25 476.492 -50 433.191 100 519.793 c S
-25 389.891 m 25 476.492 -50 433.191 100 519.793 c S
-175 303.289 m -75 303.289 -150 259.988 0 346.59 c S
-125 216.688 m -75 303.289 -150 259.988 0 346.59 c S
225 649.699 m 175 563.098 250 606.398 100 519.793 c S
225 649.699 m 325 649.699 250 606.398 400 693 c S
275 563.098 m 175 563.098 250 606.398 100 519.793 c S
275 563.098 m 325 649.699 250 606.398 400 693 c S
125 476.492 m 75 389.891 150 433.191 0 346.59 c S
125 476.492 m 225 476.492 150 433.191 300 519.793 c S
175 389.891 m 75 389.891 150 433.191 0 346.59 c S
175 389.891 m 225 476.492 150 433.191 300 519.793 c S
25 303.289 m -25 216.688 50 259.988 -100 173.383 c S
25 303.289 m 125 303.289 50 259.988 200 346.59 c S
75 216.688 m -25 216.688 50 259.988 -100 173.383 c S
75 216.688 m 125 303.289 50 259.988 200 346.59 c S
-75 130.082 m 25 130.082 -50 86.781 100 173.383 c S
-25 43.48 m 25 130.082 -50 86.781 100 173.383 c S
425 649.699 m 375 563.098 450 606.398 300 519.793 c S
425 649.699 m 525 649.699 450 606.398 600 693 c S
475 563.098 m 375 563.098 450 606.398 300 519.793 c S
475 563.098 m 525 649.699 450 606.398 600 693 c S
325 476.492 m 275 389.891 350 433.191 200 346.59 c S
325 476.492 m 425 476.492 350 433.191 500 519.793 c S
375 389.891 m 275 389.891 350 433.191 200 346.59 c S
375 389.891 m 425 476.492 350 433.191 500 519.793 c S
225 303.289 m 175 216.688 250 259.988 100 173.383 c S
225 303.289 m 325 303.289 250 259.988 400 346.59 c S
275 216.688 m 175 216.688 250 259.988 100 173.383 c S
275 216.688 m 325 303.289 250 259.988 400 346.59 c S
Q q
0 132 127 -131.82 re W n
0 g
2.5 w
1 J
1 j
[] 0.0 d
4 M 125 130.082 m 75 43.48 150 86.781 0 0.18 c S
Q q
0 g
2.5 w
1 J
1 j
[] 0.0 d
4 M 125 130.082 m 225 130.082 150 86.781 300 173.383 c S
Q q
0 56 177 -55.82 re W n
0 g
2.5 w
1 J
1 j
[] 0.0 d
4 M 175 43.48 m 75 43.48 150 86.781 0 0.18 c S
Q q
0 g
2.5 w
1 J
1 j
[] 0.0 d
4 M 175 43.48 m 225 130.082 150 86.781 300 173.383 c S
625 649.699 m 575 563.098 650 606.398 500 519.793 c S
625 649.699 m 725 649.699 650 606.398 800 693 c S
675 563.098 m 575 563.098 650 606.398 500 519.793 c S
675 563.098 m 725 649.699 650 606.398 800 693 c S
525 476.492 m 475 389.891 550 433.191 400 346.59 c S
525 476.492 m 625 476.492 550 433.191 700 519.793 c S
575 389.891 m 475 389.891 550 433.191 400 346.59 c S
575 389.891 m 625 476.492 550 433.191 700 519.793 c S
425 303.289 m 375 216.688 450 259.988 300 173.383 c S
425 303.289 m 525 303.289 450 259.988 600 346.59 c S
475 216.688 m 375 216.688 450 259.988 300 173.383 c S
475 216.688 m 525 303.289 450 259.988 600 346.59 c S
Q q
198 132 129 -131.82 re W n
0 g
2.5 w
1 J
1 j
[] 0.0 d
4 M 325 130.082 m 275 43.48 350 86.781 200 0.18 c S
Q q
0 g
2.5 w
1 J
1 j
[] 0.0 d
4 M 325 130.082 m 425 130.082 350 86.781 500 173.383 c S
Q q
198 56 179 -55.82 re W n
0 g
2.5 w
1 J
1 j
[] 0.0 d
4 M 375 43.48 m 275 43.48 350 86.781 200 0.18 c S
Q q
0 g
2.5 w
1 J
1 j
[] 0.0 d
4 M 375 43.48 m 425 130.082 350 86.781 500 173.383 c S
825 649.699 m 775 563.098 850 606.398 700 519.793 c S
875 563.098 m 775 563.098 850 606.398 700 519.793 c S
725 476.492 m 675 389.891 750 433.191 600 346.59 c S
725 476.492 m 825 476.492 750 433.191 900 519.793 c S
775 389.891 m 675 389.891 750 433.191 600 346.59 c S
775 389.891 m 825 476.492 750 433.191 900 519.793 c S
625 303.289 m 575 216.688 650 259.988 500 173.383 c S
625 303.289 m 725 303.289 650 259.988 800 346.59 c S
675 216.688 m 575 216.688 650 259.988 500 173.383 c S
675 216.688 m 725 303.289 650 259.988 800 346.59 c S
Q q
398 132 129 -131.82 re W n
0 g
2.5 w
1 J
1 j
[] 0.0 d
4 M 525 130.082 m 475 43.48 550 86.781 400 0.18 c S
Q q
0 g
2.5 w
1 J
1 j
[] 0.0 d
4 M 525 130.082 m 625 130.082 550 86.781 700 173.383 c S
Q q
398 56 179 -55.82 re W n
0 g
2.5 w
1 J
1 j
[] 0.0 d
4 M 575 43.48 m 475 43.48 550 86.781 400 0.18 c S
Q q
0 g
2.5 w
1 J
1 j
[] 0.0 d
4 M 575 43.48 m 625 130.082 550 86.781 700 173.383 c S
925 476.492 m 875 389.891 950 433.191 800 346.59 c S
975 389.891 m 875 389.891 950 433.191 800 346.59 c S
825 303.289 m 775 216.688 850 259.988 700 173.383 c S
875 216.688 m 775 216.688 850 259.988 700 173.383 c S
Q q
598 132 129 -131.82 re W n
0 g
2.5 w
1 J
1 j
[] 0.0 d
4 M 725 130.082 m 675 43.48 750 86.781 600 0.18 c S
Q q
0 g
2.5 w
1 J
1 j
[] 0.0 d
4 M 725 130.082 m 825 130.082 750 86.781 900 173.383 c S
Q q
598 56 179 -55.82 re W n
0 g
2.5 w
1 J
1 j
[] 0.0 d
4 M 775 43.48 m 675 43.48 750 86.781 600 0.18 c S
Q q
0 g
2.5 w
1 J
1 j
[] 0.0 d
4 M 775 43.48 m 825 130.082 750 86.781 900 173.383 c S
Q Q
showpage
%%Trailer
%%Trailer
cleartomark
countdictstack
exch sub { end } repeat
restore
%%EOF
