%!PS-Adobe-2.0 EPSF-2.0
%%BoundingBox: 0 0 1200 1039
%%HiResBoundingBox: 0.000000 0.000000 1200.000000 1039.000000
%%Creator: cairo 1.14.2 (http://cairographics.org)
%%CreationDate: Mon Sep  7 08:21:46 2015
%%DocumentData: Clean7Bit
%%LanguageLevel: 2
%%DocumentMedia: 423x367mm 1200 1039 0 () ()
%%EndComments
% EPSF created by ps2eps 1.68
%%BeginProlog
save
countdictstack
mark
newpath
/showpage {} def
/setpagedevice {pop} def
%%EndProlog
%%Page 1 1
%%BeginProlog
/languagelevel where
{ pop languagelevel } { 1 } ifelse
2 lt { /Helvetica findfont 12 scalefont setfont 50 500 moveto
  (This print job requires a PostScript Language Level 2 printer.) show
  showpage quit } if
/q { gsave } bind def
/Q { grestore } bind def
/cm { 6 array astore concat } bind def
/w { setlinewidth } bind def
/J { setlinecap } bind def
/j { setlinejoin } bind def
/M { setmiterlimit } bind def
/d { setdash } bind def
/m { moveto } bind def
/l { lineto } bind def
/c { curveto } bind def
/h { closepath } bind def
/re { exch dup neg 3 1 roll 5 3 roll moveto 0 rlineto
      0 exch rlineto 0 rlineto closepath } bind def
/S { stroke } bind def
/f { fill } bind def
/f* { eofill } bind def
/n { newpath } bind def
/W { clip } bind def
/W* { eoclip } bind def
/BT { } bind def
/ET { } bind def
/pdfmark where { pop globaldict /?pdfmark /exec load put }
    { globaldict begin /?pdfmark /pop load def /pdfmark
    /cleartomark load def end } ifelse
/BDC { mark 3 1 roll /BDC pdfmark } bind def
/EMC { mark /EMC pdfmark } bind def
/cairo_store_point { /cairo_point_y exch def /cairo_point_x exch def } def
/Tj { show currentpoint cairo_store_point } bind def
/TJ {
  {
    dup
    type /stringtype eq
    { show } { -0.001 mul 0 cairo_font_matrix dtransform rmoveto } ifelse
  } forall
  currentpoint cairo_store_point
} bind def
/cairo_selectfont { cairo_font_matrix aload pop pop pop 0 0 6 array astore
    cairo_font exch selectfont cairo_point_x cairo_point_y moveto } bind def
/Tf { pop /cairo_font exch def /cairo_font_matrix where
      { pop cairo_selectfont } if } bind def
/Td { matrix translate cairo_font_matrix matrix concatmatrix dup
      /cairo_font_matrix exch def dup 4 get exch 5 get cairo_store_point
      /cairo_font where { pop cairo_selectfont } if } bind def
/Tm { 2 copy 8 2 roll 6 array astore /cairo_font_matrix exch def
      cairo_store_point /cairo_font where { pop cairo_selectfont } if } bind def
/g { setgray } bind def
/rg { setrgbcolor } bind def
/d1 { setcachedevice } bind def
/cairo_set_page_size {
  % Change paper size, but only if different from previous paper size otherwise
  % duplex fails. PLRM specifies a tolerance of 5 pts when matching paper size
  % so we use the same when checking if the size changes.
  /setpagedevice where {
    pop currentpagedevice
    /PageSize known {
      2 copy
      currentpagedevice /PageSize get aload pop
      exch 4 1 roll
      sub abs 5 gt
      3 1 roll
      sub abs 5 gt
      or
    } {
      true
    } ifelse
    {
      2 array astore
      2 dict begin
        /PageSize exch def
        /ImagingBBox null def
      currentdict end
      setpagedevice
    } {
      pop pop
    } ifelse
  } {
    pop
  } ifelse
} def
%%EndProlog
%%BeginSetup
%%EndSetup
%%Page: 1 1
%%BeginPageSetup
%%PageMedia: 423x367mm
%%PageBoundingBox: 0 0 1200 1039
1200 1039 cairo_set_page_size
%%EndPageSetup
q 0 0 1200 1039 rectclip q
0.984314 g
0 0 1200 1039 rectfill
0.788235 g
1.875 w
0 J
1 j
[] 0.0 d
4 M 0 1039 1200 -1039.23 re S
0 g
2.5 w
1 J
0 519.383 m -100 346.18 -150 432.781 -150 317.312 c S
0 519.383 m -100 346.18 0 346.18 -100 288.445 c S
150 259.578 m 50 86.371 0 172.973 0 57.504 c S
150 259.578 m 50 86.371 150 86.371 50 28.637 c S
0 -0.23 m -100 172.973 0 172.973 -100 230.711 c S
-150 259.578 m 50 259.578 0 172.973 100 230.711 c S
0 -0.23 m -100 172.973 -150 86.371 -150 201.844 c S
-150 259.578 m 50 259.578 0 346.18 100 288.445 c S
0 1039 m -100 865.793 -150 952.398 -150 836.926 c S
0 1039 m -100 865.793 0 865.793 -100 808.059 c S
150 779.191 m 50 605.988 0 692.59 0 577.121 c S
150 779.191 m 50 605.988 150 605.988 50 548.254 c S
0 519.383 m -100 692.59 0 692.59 -100 750.324 c S
-150 779.191 m 50 779.191 0 692.59 100 750.324 c S
0 519.383 m -100 692.59 -150 605.988 -150 721.457 c S
-150 779.191 m 50 779.191 0 865.793 100 808.059 c S
300 519.383 m 200 346.18 150 432.781 150 317.312 c S
300 519.383 m 200 346.18 300 346.18 200 288.445 c S
150 259.578 m 50 432.781 150 432.781 50 490.516 c S
0 519.383 m 200 519.383 150 432.781 250 490.516 c S
150 259.578 m 50 432.781 0 346.18 0 461.648 c S
0 519.383 m 200 519.383 150 605.988 250 548.254 c S
450 259.578 m 350 86.371 300 172.973 300 57.504 c S
450 259.578 m 350 86.371 450 86.371 350 28.637 c S
300 -0.23 m 200 172.973 300 172.973 200 230.711 c S
150 259.578 m 350 259.578 300 172.973 400 230.711 c S
300 -0.23 m 200 172.973 150 86.371 150 201.844 c S
150 259.578 m 350 259.578 300 346.18 400 288.445 c S
300 1039 m 200 865.793 150 952.398 150 836.926 c S
300 1039 m 200 865.793 300 865.793 200 808.059 c S
150 779.191 m 50 952.398 150 952.398 50 1010.133 c S
0 1039 m 200 1039 150 952.398 250 1010.133 c S
150 779.191 m 50 952.398 0 865.793 0 981.266 c S
0 1039 m 200 1039 150 1125.602 250 1067.867 c S
450 779.191 m 350 605.988 300 692.59 300 577.121 c S
450 779.191 m 350 605.988 450 605.988 350 548.254 c S
300 519.383 m 200 692.59 300 692.59 200 750.324 c S
150 779.191 m 350 779.191 300 692.59 400 750.324 c S
300 519.383 m 200 692.59 150 605.988 150 721.457 c S
150 779.191 m 350 779.191 300 865.793 400 808.059 c S
600 519.383 m 500 346.18 450 432.781 450 317.312 c S
600 519.383 m 500 346.18 600 346.18 500 288.445 c S
450 259.578 m 350 432.781 450 432.781 350 490.516 c S
300 519.383 m 500 519.383 450 432.781 550 490.516 c S
450 259.578 m 350 432.781 300 346.18 300 461.648 c S
300 519.383 m 500 519.383 450 605.988 550 548.254 c S
750 259.578 m 650 86.371 600 172.973 600 57.504 c S
750 259.578 m 650 86.371 750 86.371 650 28.637 c S
600 -0.23 m 500 172.973 600 172.973 500 230.711 c S
450 259.578 m 650 259.578 600 172.973 700 230.711 c S
600 -0.23 m 500 172.973 450 86.371 450 201.844 c S
450 259.578 m 650 259.578 600 346.18 700 288.445 c S
600 1039 m 500 865.793 450 952.398 450 836.926 c S
600 1039 m 500 865.793 600 865.793 500 808.059 c S
450 779.191 m 350 952.398 450 952.398 350 1010.133 c S
300 1039 m 500 1039 450 952.398 550 1010.133 c S
450 779.191 m 350 952.398 300 865.793 300 981.266 c S
300 1039 m 500 1039 450 1125.602 550 1067.867 c S
750 779.191 m 650 605.988 600 692.59 600 577.121 c S
750 779.191 m 650 605.988 750 605.988 650 548.254 c S
600 519.383 m 500 692.59 600 692.59 500 750.324 c S
450 779.191 m 650 779.191 600 692.59 700 750.324 c S
600 519.383 m 500 692.59 450 605.988 450 721.457 c S
450 779.191 m 650 779.191 600 865.793 700 808.059 c S
900 519.383 m 800 346.18 750 432.781 750 317.312 c S
900 519.383 m 800 346.18 900 346.18 800 288.445 c S
750 259.578 m 650 432.781 750 432.781 650 490.516 c S
600 519.383 m 800 519.383 750 432.781 850 490.516 c S
750 259.578 m 650 432.781 600 346.18 600 461.648 c S
600 519.383 m 800 519.383 750 605.988 850 548.254 c S
1050 259.578 m 950 86.371 900 172.973 900 57.504 c S
1050 259.578 m 950 86.371 1050 86.371 950 28.637 c S
900 -0.23 m 800 172.973 900 172.973 800 230.711 c S
750 259.578 m 950 259.578 900 172.973 1000 230.711 c S
900 -0.23 m 800 172.973 750 86.371 750 201.844 c S
750 259.578 m 950 259.578 900 346.18 1000 288.445 c S
900 1039 m 800 865.793 750 952.398 750 836.926 c S
900 1039 m 800 865.793 900 865.793 800 808.059 c S
750 779.191 m 650 952.398 750 952.398 650 1010.133 c S
600 1039 m 800 1039 750 952.398 850 1010.133 c S
750 779.191 m 650 952.398 600 865.793 600 981.266 c S
600 1039 m 800 1039 750 1125.602 850 1067.867 c S
1050 779.191 m 950 605.988 900 692.59 900 577.121 c S
1050 779.191 m 950 605.988 1050 605.988 950 548.254 c S
900 519.383 m 800 692.59 900 692.59 800 750.324 c S
750 779.191 m 950 779.191 900 692.59 1000 750.324 c S
900 519.383 m 800 692.59 750 605.988 750 721.457 c S
750 779.191 m 950 779.191 900 865.793 1000 808.059 c S
1200 519.383 m 1100 346.18 1050 432.781 1050 317.312 c S
1200 519.383 m 1100 346.18 1200 346.18 1100 288.445 c S
1050 259.578 m 950 432.781 1050 432.781 950 490.516 c S
900 519.383 m 1100 519.383 1050 432.781 1150 490.516 c S
1050 259.578 m 950 432.781 900 346.18 900 461.648 c S
900 519.383 m 1100 519.383 1050 605.988 1150 548.254 c S
1350 259.578 m 1250 86.371 1200 172.973 1200 57.504 c S
1200 -0.23 m 1100 172.973 1200 172.973 1100 230.711 c S
1050 259.578 m 1250 259.578 1200 172.973 1300 230.711 c S
1200 -0.23 m 1100 172.973 1050 86.371 1050 201.844 c S
1050 259.578 m 1250 259.578 1200 346.18 1300 288.445 c S
1200 1039 m 1100 865.793 1050 952.398 1050 836.926 c S
1200 1039 m 1100 865.793 1200 865.793 1100 808.059 c S
1050 779.191 m 950 952.398 1050 952.398 950 1010.133 c S
900 1039 m 1100 1039 1050 952.398 1150 1010.133 c S
1050 779.191 m 950 952.398 900 865.793 900 981.266 c S
900 1039 m 1100 1039 1050 1125.602 1150 1067.867 c S
1350 779.191 m 1250 605.988 1200 692.59 1200 577.121 c S
1200 519.383 m 1100 692.59 1200 692.59 1100 750.324 c S
1050 779.191 m 1250 779.191 1200 692.59 1300 750.324 c S
1200 519.383 m 1100 692.59 1050 605.988 1050 721.457 c S
1050 779.191 m 1250 779.191 1200 865.793 1300 808.059 c S
1200 519.383 m 1400 519.383 1350 432.781 1450 490.516 c S
1350 259.578 m 1250 432.781 1200 346.18 1200 461.648 c S
1200 519.383 m 1400 519.383 1350 605.988 1450 548.254 c S
Q Q
showpage
%%Trailer
%%Trailer
cleartomark
countdictstack
exch sub { end } repeat
restore
%%EOF
