%!PS-Adobe-2.0 EPSF-2.0
%%BoundingBox: 0 0 1200 1039
%%HiResBoundingBox: 0.000000 0.000000 1200.000000 1039.000000
%%Creator: cairo 1.14.2 (http://cairographics.org)
%%CreationDate: Mon Sep  7 08:21:46 2015
%%DocumentData: Clean7Bit
%%LanguageLevel: 2
%%DocumentMedia: 423x367mm 1200 1039 0 () ()
%%EndComments
% EPSF created by ps2eps 1.68
%%BeginProlog
save
countdictstack
mark
newpath
/showpage {} def
/setpagedevice {pop} def
%%EndProlog
%%Page 1 1
%%BeginProlog
/languagelevel where
{ pop languagelevel } { 1 } ifelse
2 lt { /Helvetica findfont 12 scalefont setfont 50 500 moveto
  (This print job requires a PostScript Language Level 2 printer.) show
  showpage quit } if
/q { gsave } bind def
/Q { grestore } bind def
/cm { 6 array astore concat } bind def
/w { setlinewidth } bind def
/J { setlinecap } bind def
/j { setlinejoin } bind def
/M { setmiterlimit } bind def
/d { setdash } bind def
/m { moveto } bind def
/l { lineto } bind def
/c { curveto } bind def
/h { closepath } bind def
/re { exch dup neg 3 1 roll 5 3 roll moveto 0 rlineto
      0 exch rlineto 0 rlineto closepath } bind def
/S { stroke } bind def
/f { fill } bind def
/f* { eofill } bind def
/n { newpath } bind def
/W { clip } bind def
/W* { eoclip } bind def
/BT { } bind def
/ET { } bind def
/pdfmark where { pop globaldict /?pdfmark /exec load put }
    { globaldict begin /?pdfmark /pop load def /pdfmark
    /cleartomark load def end } ifelse
/BDC { mark 3 1 roll /BDC pdfmark } bind def
/EMC { mark /EMC pdfmark } bind def
/cairo_store_point { /cairo_point_y exch def /cairo_point_x exch def } def
/Tj { show currentpoint cairo_store_point } bind def
/TJ {
  {
    dup
    type /stringtype eq
    { show } { -0.001 mul 0 cairo_font_matrix dtransform rmoveto } ifelse
  } forall
  currentpoint cairo_store_point
} bind def
/cairo_selectfont { cairo_font_matrix aload pop pop pop 0 0 6 array astore
    cairo_font exch selectfont cairo_point_x cairo_point_y moveto } bind def
/Tf { pop /cairo_font exch def /cairo_font_matrix where
      { pop cairo_selectfont } if } bind def
/Td { matrix translate cairo_font_matrix matrix concatmatrix dup
      /cairo_font_matrix exch def dup 4 get exch 5 get cairo_store_point
      /cairo_font where { pop cairo_selectfont } if } bind def
/Tm { 2 copy 8 2 roll 6 array astore /cairo_font_matrix exch def
      cairo_store_point /cairo_font where { pop cairo_selectfont } if } bind def
/g { setgray } bind def
/rg { setrgbcolor } bind def
/d1 { setcachedevice } bind def
/cairo_set_page_size {
  % Change paper size, but only if different from previous paper size otherwise
  % duplex fails. PLRM specifies a tolerance of 5 pts when matching paper size
  % so we use the same when checking if the size changes.
  /setpagedevice where {
    pop currentpagedevice
    /PageSize known {
      2 copy
      currentpagedevice /PageSize get aload pop
      exch 4 1 roll
      sub abs 5 gt
      3 1 roll
      sub abs 5 gt
      or
    } {
      true
    } ifelse
    {
      2 array astore
      2 dict begin
        /PageSize exch def
        /ImagingBBox null def
      currentdict end
      setpagedevice
    } {
      pop pop
    } ifelse
  } {
    pop
  } ifelse
} def
%%EndProlog
%%BeginSetup
%%EndSetup
%%Page: 1 1
%%BeginPageSetup
%%PageMedia: 423x367mm
%%PageBoundingBox: 0 0 1200 1039
1200 1039 cairo_set_page_size
%%EndPageSetup
q 0 0 1200 1039 rectclip q
0.984314 g
0 0 1200 1039 rectfill
0.788235 g
1.875 w
0 J
1 j
[] 0.0 d
4 M 0 1039 1200 -1039.23 re S
0 g
2.5 w
1 J
-150 259.578 m -100 288.445 l -100 403.914 l 0 346.18 l S
0 519.383 m 0 461.648 l -100 403.914 l 0 346.18 l S
0 519.383 m -50 548.254 l -150 490.516 l -150 605.988 l S
0 -0.23 m 50 28.637 l 50 144.105 l 150 86.371 l S
150 259.578 m 150 201.844 l 50 144.105 l 150 86.371 l S
150 259.578 m 100 288.445 l 0 230.711 l 0 346.18 l S
0 -0.23 m -50 28.637 l -50 144.105 l -150 86.371 l S
-150 259.578 m -100 288.445 l 0 230.711 l 0 346.18 l S
-150 779.191 m -100 808.059 l -100 923.531 l 0 865.793 l S
0 1039 m 0 981.266 l -100 923.531 l 0 865.793 l S
0 1039 m -50 1067.867 l -150 1010.133 l -150 1125.602 l S
0 519.383 m 50 548.254 l 50 663.723 l 150 605.988 l S
150 779.191 m 150 721.457 l 50 663.723 l 150 605.988 l S
150 779.191 m 100 808.059 l 0 750.324 l 0 865.793 l S
0 519.383 m -50 548.254 l -50 663.723 l -150 605.988 l S
-150 779.191 m -100 808.059 l 0 750.324 l 0 865.793 l S
150 259.578 m 200 288.445 l 200 403.914 l 300 346.18 l S
300 519.383 m 300 461.648 l 200 403.914 l 300 346.18 l S
0 519.383 m 0 461.648 l 100 403.914 l 0 346.18 l S
300 519.383 m 250 548.254 l 150 490.516 l 150 605.988 l S
150 259.578 m 100 288.445 l 100 403.914 l 0 346.18 l S
0 519.383 m 50 548.254 l 150 490.516 l 150 605.988 l S
300 -0.23 m 350 28.637 l 350 144.105 l 450 86.371 l S
450 259.578 m 450 201.844 l 350 144.105 l 450 86.371 l S
150 259.578 m 150 201.844 l 250 144.105 l 150 86.371 l S
450 259.578 m 400 288.445 l 300 230.711 l 300 346.18 l S
300 -0.23 m 250 28.637 l 250 144.105 l 150 86.371 l S
150 259.578 m 200 288.445 l 300 230.711 l 300 346.18 l S
150 779.191 m 200 808.059 l 200 923.531 l 300 865.793 l S
300 1039 m 300 981.266 l 200 923.531 l 300 865.793 l S
0 1039 m 0 981.266 l 100 923.531 l 0 865.793 l S
300 1039 m 250 1067.867 l 150 1010.133 l 150 1125.602 l S
150 779.191 m 100 808.059 l 100 923.531 l 0 865.793 l S
0 1039 m 50 1067.867 l 150 1010.133 l 150 1125.602 l S
300 519.383 m 350 548.254 l 350 663.723 l 450 605.988 l S
450 779.191 m 450 721.457 l 350 663.723 l 450 605.988 l S
150 779.191 m 150 721.457 l 250 663.723 l 150 605.988 l S
450 779.191 m 400 808.059 l 300 750.324 l 300 865.793 l S
300 519.383 m 250 548.254 l 250 663.723 l 150 605.988 l S
150 779.191 m 200 808.059 l 300 750.324 l 300 865.793 l S
450 259.578 m 500 288.445 l 500 403.914 l 600 346.18 l S
600 519.383 m 600 461.648 l 500 403.914 l 600 346.18 l S
300 519.383 m 300 461.648 l 400 403.914 l 300 346.18 l S
600 519.383 m 550 548.254 l 450 490.516 l 450 605.988 l S
450 259.578 m 400 288.445 l 400 403.914 l 300 346.18 l S
300 519.383 m 350 548.254 l 450 490.516 l 450 605.988 l S
600 -0.23 m 650 28.637 l 650 144.105 l 750 86.371 l S
750 259.578 m 750 201.844 l 650 144.105 l 750 86.371 l S
450 259.578 m 450 201.844 l 550 144.105 l 450 86.371 l S
750 259.578 m 700 288.445 l 600 230.711 l 600 346.18 l S
600 -0.23 m 550 28.637 l 550 144.105 l 450 86.371 l S
450 259.578 m 500 288.445 l 600 230.711 l 600 346.18 l S
450 779.191 m 500 808.059 l 500 923.531 l 600 865.793 l S
600 1039 m 600 981.266 l 500 923.531 l 600 865.793 l S
300 1039 m 300 981.266 l 400 923.531 l 300 865.793 l S
600 1039 m 550 1067.867 l 450 1010.133 l 450 1125.602 l S
450 779.191 m 400 808.059 l 400 923.531 l 300 865.793 l S
300 1039 m 350 1067.867 l 450 1010.133 l 450 1125.602 l S
600 519.383 m 650 548.254 l 650 663.723 l 750 605.988 l S
750 779.191 m 750 721.457 l 650 663.723 l 750 605.988 l S
450 779.191 m 450 721.457 l 550 663.723 l 450 605.988 l S
750 779.191 m 700 808.059 l 600 750.324 l 600 865.793 l S
600 519.383 m 550 548.254 l 550 663.723 l 450 605.988 l S
450 779.191 m 500 808.059 l 600 750.324 l 600 865.793 l S
750 259.578 m 800 288.445 l 800 403.914 l 900 346.18 l S
900 519.383 m 900 461.648 l 800 403.914 l 900 346.18 l S
600 519.383 m 600 461.648 l 700 403.914 l 600 346.18 l S
900 519.383 m 850 548.254 l 750 490.516 l 750 605.988 l S
750 259.578 m 700 288.445 l 700 403.914 l 600 346.18 l S
600 519.383 m 650 548.254 l 750 490.516 l 750 605.988 l S
900 -0.23 m 950 28.637 l 950 144.105 l 1050 86.371 l S
1050 259.578 m 1050 201.844 l 950 144.105 l 1050 86.371 l S
750 259.578 m 750 201.844 l 850 144.105 l 750 86.371 l S
1050 259.578 m 1000 288.445 l 900 230.711 l 900 346.18 l S
900 -0.23 m 850 28.637 l 850 144.105 l 750 86.371 l S
750 259.578 m 800 288.445 l 900 230.711 l 900 346.18 l S
750 779.191 m 800 808.059 l 800 923.531 l 900 865.793 l S
900 1039 m 900 981.266 l 800 923.531 l 900 865.793 l S
600 1039 m 600 981.266 l 700 923.531 l 600 865.793 l S
900 1039 m 850 1067.867 l 750 1010.133 l 750 1125.602 l S
750 779.191 m 700 808.059 l 700 923.531 l 600 865.793 l S
600 1039 m 650 1067.867 l 750 1010.133 l 750 1125.602 l S
900 519.383 m 950 548.254 l 950 663.723 l 1050 605.988 l S
1050 779.191 m 1050 721.457 l 950 663.723 l 1050 605.988 l S
750 779.191 m 750 721.457 l 850 663.723 l 750 605.988 l S
1050 779.191 m 1000 808.059 l 900 750.324 l 900 865.793 l S
900 519.383 m 850 548.254 l 850 663.723 l 750 605.988 l S
750 779.191 m 800 808.059 l 900 750.324 l 900 865.793 l S
1050 259.578 m 1100 288.445 l 1100 403.914 l 1200 346.18 l S
1200 519.383 m 1200 461.648 l 1100 403.914 l 1200 346.18 l S
900 519.383 m 900 461.648 l 1000 403.914 l 900 346.18 l S
1200 519.383 m 1150 548.254 l 1050 490.516 l 1050 605.988 l S
1050 259.578 m 1000 288.445 l 1000 403.914 l 900 346.18 l S
900 519.383 m 950 548.254 l 1050 490.516 l 1050 605.988 l S
1200 -0.23 m 1250 28.637 l 1250 144.105 l 1350 86.371 l S
1050 259.578 m 1050 201.844 l 1150 144.105 l 1050 86.371 l S
1350 259.578 m 1300 288.445 l 1200 230.711 l 1200 346.18 l S
1200 -0.23 m 1150 28.637 l 1150 144.105 l 1050 86.371 l S
1050 259.578 m 1100 288.445 l 1200 230.711 l 1200 346.18 l S
1050 779.191 m 1100 808.059 l 1100 923.531 l 1200 865.793 l S
1200 1039 m 1200 981.266 l 1100 923.531 l 1200 865.793 l S
900 1039 m 900 981.266 l 1000 923.531 l 900 865.793 l S
1200 1039 m 1150 1067.867 l 1050 1010.133 l 1050 1125.602 l S
1050 779.191 m 1000 808.059 l 1000 923.531 l 900 865.793 l S
900 1039 m 950 1067.867 l 1050 1010.133 l 1050 1125.602 l S
1200 519.383 m 1250 548.254 l 1250 663.723 l 1350 605.988 l S
1050 779.191 m 1050 721.457 l 1150 663.723 l 1050 605.988 l S
1350 779.191 m 1300 808.059 l 1200 750.324 l 1200 865.793 l S
1200 519.383 m 1150 548.254 l 1150 663.723 l 1050 605.988 l S
1050 779.191 m 1100 808.059 l 1200 750.324 l 1200 865.793 l S
1200 519.383 m 1200 461.648 l 1300 403.914 l 1200 346.18 l S
1350 259.578 m 1300 288.445 l 1300 403.914 l 1200 346.18 l S
1200 519.383 m 1250 548.254 l 1350 490.516 l 1350 605.988 l S
Q Q
showpage
%%Trailer
%%Trailer
cleartomark
countdictstack
exch sub { end } repeat
restore
%%EOF
