%!PS-Adobe-2.0 EPSF-2.0
%%BoundingBox: 0 0 2100 1400
%%HiResBoundingBox: 0.000000 0.000000 2100.000000 1400.000000
%%Creator: cairo 1.14.2 (http://cairographics.org)
%%CreationDate: Mon Sep  7 08:21:46 2015
%%DocumentData: Clean7Bit
%%LanguageLevel: 2
%%DocumentMedia: 741x494mm 2100 1400 0 () ()
%%EndComments
% EPSF created by ps2eps 1.68
%%BeginProlog
save
countdictstack
mark
newpath
/showpage {} def
/setpagedevice {pop} def
%%EndProlog
%%Page 1 1
%%BeginProlog
/languagelevel where
{ pop languagelevel } { 1 } ifelse
2 lt { /Helvetica findfont 12 scalefont setfont 50 500 moveto
  (This print job requires a PostScript Language Level 2 printer.) show
  showpage quit } if
/q { gsave } bind def
/Q { grestore } bind def
/cm { 6 array astore concat } bind def
/w { setlinewidth } bind def
/J { setlinecap } bind def
/j { setlinejoin } bind def
/M { setmiterlimit } bind def
/d { setdash } bind def
/m { moveto } bind def
/l { lineto } bind def
/c { curveto } bind def
/h { closepath } bind def
/re { exch dup neg 3 1 roll 5 3 roll moveto 0 rlineto
      0 exch rlineto 0 rlineto closepath } bind def
/S { stroke } bind def
/f { fill } bind def
/f* { eofill } bind def
/n { newpath } bind def
/W { clip } bind def
/W* { eoclip } bind def
/BT { } bind def
/ET { } bind def
/pdfmark where { pop globaldict /?pdfmark /exec load put }
    { globaldict begin /?pdfmark /pop load def /pdfmark
    /cleartomark load def end } ifelse
/BDC { mark 3 1 roll /BDC pdfmark } bind def
/EMC { mark /EMC pdfmark } bind def
/cairo_store_point { /cairo_point_y exch def /cairo_point_x exch def } def
/Tj { show currentpoint cairo_store_point } bind def
/TJ {
  {
    dup
    type /stringtype eq
    { show } { -0.001 mul 0 cairo_font_matrix dtransform rmoveto } ifelse
  } forall
  currentpoint cairo_store_point
} bind def
/cairo_selectfont { cairo_font_matrix aload pop pop pop 0 0 6 array astore
    cairo_font exch selectfont cairo_point_x cairo_point_y moveto } bind def
/Tf { pop /cairo_font exch def /cairo_font_matrix where
      { pop cairo_selectfont } if } bind def
/Td { matrix translate cairo_font_matrix matrix concatmatrix dup
      /cairo_font_matrix exch def dup 4 get exch 5 get cairo_store_point
      /cairo_font where { pop cairo_selectfont } if } bind def
/Tm { 2 copy 8 2 roll 6 array astore /cairo_font_matrix exch def
      cairo_store_point /cairo_font where { pop cairo_selectfont } if } bind def
/g { setgray } bind def
/rg { setrgbcolor } bind def
/d1 { setcachedevice } bind def
/cairo_set_page_size {
  % Change paper size, but only if different from previous paper size otherwise
  % duplex fails. PLRM specifies a tolerance of 5 pts when matching paper size
  % so we use the same when checking if the size changes.
  /setpagedevice where {
    pop currentpagedevice
    /PageSize known {
      2 copy
      currentpagedevice /PageSize get aload pop
      exch 4 1 roll
      sub abs 5 gt
      3 1 roll
      sub abs 5 gt
      or
    } {
      true
    } ifelse
    {
      2 array astore
      2 dict begin
        /PageSize exch def
        /ImagingBBox null def
      currentdict end
      setpagedevice
    } {
      pop pop
    } ifelse
  } {
    pop
  } ifelse
} def
%%EndProlog
%%BeginSetup
%%EndSetup
%%Page: 1 1
%%BeginPageSetup
%%PageMedia: 741x494mm
%%PageBoundingBox: 0 0 2100 1400
2100 1400 cairo_set_page_size
%%EndPageSetup
q 0 0 2100 1400 rectclip q
0.984314 g
0 0 2100 1400 rectfill
0.788235 g
1.875 w
0 J
1 j
[] 0.0 d
4 M 0 1400 2100 -1400 re S
0 g
2.5 w
1 J
0 1312.5 m 58.332 1254.168 87.5 1283.332 87.5 1400 c S
262.5 1400 m 204.168 1341.668 233.332 1312.5 350 1312.5 c S
350 1137.5 m 291.668 1195.832 262.5 1166.668 262.5 1050 c S
87.5 1050 m 145.832 1108.332 116.668 1137.5 0 1137.5 c S
0 962.5 m 58.332 904.168 87.5 933.332 87.5 1050 c S
262.5 1050 m 204.168 991.668 233.332 962.5 350 962.5 c S
350 787.5 m 291.668 845.832 262.5 816.668 262.5 700 c S
87.5 700 m 145.832 758.332 116.668 787.5 0 787.5 c S
0 612.5 m 58.332 554.168 87.5 583.332 87.5 700 c S
262.5 700 m 204.168 641.668 233.332 612.5 350 612.5 c S
350 437.5 m 291.668 495.832 262.5 466.668 262.5 350 c S
87.5 350 m 145.832 408.332 116.668 437.5 0 437.5 c S
0 262.5 m 58.332 204.168 87.5 233.332 87.5 350 c S
262.5 350 m 204.168 291.668 233.332 262.5 350 262.5 c S
350 87.5 m 291.668 145.832 262.5 116.668 262.5 0 c S
87.5 0 m 145.832 58.332 116.668 87.5 0 87.5 c S
350 1312.5 m 408.332 1254.168 437.5 1283.332 437.5 1400 c S
612.5 1400 m 554.168 1341.668 583.332 1312.5 700 1312.5 c S
700 1137.5 m 641.668 1195.832 612.5 1166.668 612.5 1050 c S
437.5 1050 m 495.832 1108.332 466.668 1137.5 350 1137.5 c S
350 962.5 m 408.332 904.168 437.5 933.332 437.5 1050 c S
612.5 1050 m 554.168 991.668 583.332 962.5 700 962.5 c S
700 787.5 m 641.668 845.832 612.5 816.668 612.5 700 c S
437.5 700 m 495.832 758.332 466.668 787.5 350 787.5 c S
350 612.5 m 408.332 554.168 437.5 583.332 437.5 700 c S
612.5 700 m 554.168 641.668 583.332 612.5 700 612.5 c S
700 437.5 m 641.668 495.832 612.5 466.668 612.5 350 c S
437.5 350 m 495.832 408.332 466.668 437.5 350 437.5 c S
350 262.5 m 408.332 204.168 437.5 233.332 437.5 350 c S
612.5 350 m 554.168 291.668 583.332 262.5 700 262.5 c S
700 87.5 m 641.668 145.832 612.5 116.668 612.5 0 c S
437.5 0 m 495.832 58.332 466.668 87.5 350 87.5 c S
700 1312.5 m 758.332 1254.168 787.5 1283.332 787.5 1400 c S
962.5 1400 m 904.168 1341.668 933.332 1312.5 1050 1312.5 c S
1050 1137.5 m 991.668 1195.832 962.5 1166.668 962.5 1050 c S
787.5 1050 m 845.832 1108.332 816.668 1137.5 700 1137.5 c S
700 962.5 m 758.332 904.168 787.5 933.332 787.5 1050 c S
962.5 1050 m 904.168 991.668 933.332 962.5 1050 962.5 c S
1050 787.5 m 991.668 845.832 962.5 816.668 962.5 700 c S
787.5 700 m 845.832 758.332 816.668 787.5 700 787.5 c S
700 612.5 m 758.332 554.168 787.5 583.332 787.5 700 c S
962.5 700 m 904.168 641.668 933.332 612.5 1050 612.5 c S
1050 437.5 m 991.668 495.832 962.5 466.668 962.5 350 c S
787.5 350 m 845.832 408.332 816.668 437.5 700 437.5 c S
700 262.5 m 758.332 204.168 787.5 233.332 787.5 350 c S
962.5 350 m 904.168 291.668 933.332 262.5 1050 262.5 c S
1050 87.5 m 991.668 145.832 962.5 116.668 962.5 0 c S
787.5 0 m 845.832 58.332 816.668 87.5 700 87.5 c S
1050 1312.5 m 1108.332 1254.168 1137.5 1283.332 1137.5 1400 c S
1312.5 1400 m 1254.168 1341.668 1283.332 1312.5 1400 1312.5 c S
1400 1137.5 m 1341.668 1195.832 1312.5 1166.668 1312.5 1050 c S
1137.5 1050 m 1195.832 1108.332 1166.668 1137.5 1050 1137.5 c S
1050 962.5 m 1108.332 904.168 1137.5 933.332 1137.5 1050 c S
1312.5 1050 m 1254.168 991.668 1283.332 962.5 1400 962.5 c S
1400 787.5 m 1341.668 845.832 1312.5 816.668 1312.5 700 c S
1137.5 700 m 1195.832 758.332 1166.668 787.5 1050 787.5 c S
1050 612.5 m 1108.332 554.168 1137.5 583.332 1137.5 700 c S
1312.5 700 m 1254.168 641.668 1283.332 612.5 1400 612.5 c S
1400 437.5 m 1341.668 495.832 1312.5 466.668 1312.5 350 c S
1137.5 350 m 1195.832 408.332 1166.668 437.5 1050 437.5 c S
1050 262.5 m 1108.332 204.168 1137.5 233.332 1137.5 350 c S
1312.5 350 m 1254.168 291.668 1283.332 262.5 1400 262.5 c S
1400 87.5 m 1341.668 145.832 1312.5 116.668 1312.5 0 c S
1137.5 0 m 1195.832 58.332 1166.668 87.5 1050 87.5 c S
1400 1312.5 m 1458.332 1254.168 1487.5 1283.332 1487.5 1400 c S
1662.5 1400 m 1604.168 1341.668 1633.332 1312.5 1750 1312.5 c S
1750 1137.5 m 1691.668 1195.832 1662.5 1166.668 1662.5 1050 c S
1487.5 1050 m 1545.832 1108.332 1516.668 1137.5 1400 1137.5 c S
1400 962.5 m 1458.332 904.168 1487.5 933.332 1487.5 1050 c S
1662.5 1050 m 1604.168 991.668 1633.332 962.5 1750 962.5 c S
1750 787.5 m 1691.668 845.832 1662.5 816.668 1662.5 700 c S
1487.5 700 m 1545.832 758.332 1516.668 787.5 1400 787.5 c S
1400 612.5 m 1458.332 554.168 1487.5 583.332 1487.5 700 c S
1662.5 700 m 1604.168 641.668 1633.332 612.5 1750 612.5 c S
1750 437.5 m 1691.668 495.832 1662.5 466.668 1662.5 350 c S
1487.5 350 m 1545.832 408.332 1516.668 437.5 1400 437.5 c S
1400 262.5 m 1458.332 204.168 1487.5 233.332 1487.5 350 c S
1662.5 350 m 1604.168 291.668 1633.332 262.5 1750 262.5 c S
1750 87.5 m 1691.668 145.832 1662.5 116.668 1662.5 0 c S
1487.5 0 m 1545.832 58.332 1516.668 87.5 1400 87.5 c S
1750 1312.5 m 1808.332 1254.168 1837.5 1283.332 1837.5 1400 c S
2012.5 1400 m 1954.168 1341.668 1983.332 1312.5 2100 1312.5 c S
2100 1137.5 m 2041.668 1195.832 2012.5 1166.668 2012.5 1050 c S
1837.5 1050 m 1895.832 1108.332 1866.668 1137.5 1750 1137.5 c S
1750 962.5 m 1808.332 904.168 1837.5 933.332 1837.5 1050 c S
2012.5 1050 m 1954.168 991.668 1983.332 962.5 2100 962.5 c S
2100 787.5 m 2041.668 845.832 2012.5 816.668 2012.5 700 c S
1837.5 700 m 1895.832 758.332 1866.668 787.5 1750 787.5 c S
1750 612.5 m 1808.332 554.168 1837.5 583.332 1837.5 700 c S
2012.5 700 m 1954.168 641.668 1983.332 612.5 2100 612.5 c S
2100 437.5 m 2041.668 495.832 2012.5 466.668 2012.5 350 c S
1837.5 350 m 1895.832 408.332 1866.668 437.5 1750 437.5 c S
1750 262.5 m 1808.332 204.168 1837.5 233.332 1837.5 350 c S
2012.5 350 m 1954.168 291.668 1983.332 262.5 2100 262.5 c S
2100 87.5 m 2041.668 145.832 2012.5 116.668 2012.5 0 c S
1837.5 0 m 1895.832 58.332 1866.668 87.5 1750 87.5 c S
Q Q
showpage
%%Trailer
%%Trailer
cleartomark
countdictstack
exch sub { end } repeat
restore
%%EOF
