%!PS-Adobe-2.0 EPSF-2.0
%%BoundingBox: 0 0 1200 1039
%%HiResBoundingBox: 0.000000 0.000000 1200.000000 1039.000000
%%Creator: cairo 1.14.2 (http://cairographics.org)
%%CreationDate: Mon Sep  7 08:21:46 2015
%%DocumentData: Clean7Bit
%%LanguageLevel: 2
%%DocumentMedia: 423x367mm 1200 1039 0 () ()
%%EndComments
% EPSF created by ps2eps 1.68
%%BeginProlog
save
countdictstack
mark
newpath
/showpage {} def
/setpagedevice {pop} def
%%EndProlog
%%Page 1 1
%%BeginProlog
/languagelevel where
{ pop languagelevel } { 1 } ifelse
2 lt { /Helvetica findfont 12 scalefont setfont 50 500 moveto
  (This print job requires a PostScript Language Level 2 printer.) show
  showpage quit } if
/q { gsave } bind def
/Q { grestore } bind def
/cm { 6 array astore concat } bind def
/w { setlinewidth } bind def
/J { setlinecap } bind def
/j { setlinejoin } bind def
/M { setmiterlimit } bind def
/d { setdash } bind def
/m { moveto } bind def
/l { lineto } bind def
/c { curveto } bind def
/h { closepath } bind def
/re { exch dup neg 3 1 roll 5 3 roll moveto 0 rlineto
      0 exch rlineto 0 rlineto closepath } bind def
/S { stroke } bind def
/f { fill } bind def
/f* { eofill } bind def
/n { newpath } bind def
/W { clip } bind def
/W* { eoclip } bind def
/BT { } bind def
/ET { } bind def
/pdfmark where { pop globaldict /?pdfmark /exec load put }
    { globaldict begin /?pdfmark /pop load def /pdfmark
    /cleartomark load def end } ifelse
/BDC { mark 3 1 roll /BDC pdfmark } bind def
/EMC { mark /EMC pdfmark } bind def
/cairo_store_point { /cairo_point_y exch def /cairo_point_x exch def } def
/Tj { show currentpoint cairo_store_point } bind def
/TJ {
  {
    dup
    type /stringtype eq
    { show } { -0.001 mul 0 cairo_font_matrix dtransform rmoveto } ifelse
  } forall
  currentpoint cairo_store_point
} bind def
/cairo_selectfont { cairo_font_matrix aload pop pop pop 0 0 6 array astore
    cairo_font exch selectfont cairo_point_x cairo_point_y moveto } bind def
/Tf { pop /cairo_font exch def /cairo_font_matrix where
      { pop cairo_selectfont } if } bind def
/Td { matrix translate cairo_font_matrix matrix concatmatrix dup
      /cairo_font_matrix exch def dup 4 get exch 5 get cairo_store_point
      /cairo_font where { pop cairo_selectfont } if } bind def
/Tm { 2 copy 8 2 roll 6 array astore /cairo_font_matrix exch def
      cairo_store_point /cairo_font where { pop cairo_selectfont } if } bind def
/g { setgray } bind def
/rg { setrgbcolor } bind def
/d1 { setcachedevice } bind def
/cairo_set_page_size {
  % Change paper size, but only if different from previous paper size otherwise
  % duplex fails. PLRM specifies a tolerance of 5 pts when matching paper size
  % so we use the same when checking if the size changes.
  /setpagedevice where {
    pop currentpagedevice
    /PageSize known {
      2 copy
      currentpagedevice /PageSize get aload pop
      exch 4 1 roll
      sub abs 5 gt
      3 1 roll
      sub abs 5 gt
      or
    } {
      true
    } ifelse
    {
      2 array astore
      2 dict begin
        /PageSize exch def
        /ImagingBBox null def
      currentdict end
      setpagedevice
    } {
      pop pop
    } ifelse
  } {
    pop
  } ifelse
} def
%%EndProlog
%%BeginSetup
%%EndSetup
%%Page: 1 1
%%BeginPageSetup
%%PageMedia: 423x367mm
%%PageBoundingBox: 0 0 1200 1039
1200 1039 cairo_set_page_size
%%EndPageSetup
q 0 0 1200 1039 rectclip q
0.984314 g
0 0 1200 1039 rectfill
0.788235 g
1.875 w
0 J
1 j
[] 0.0 d
4 M 0 1039 1200 -1039.23 re S
0 g
2.5 w
1 J
0 519.383 m -100 654.102 -150 682.969 -150 605.988 c S
0 519.383 m -166.668 500.141 -216.668 471.273 -150 432.781 c S
-150 259.578 m 16.668 278.82 66.668 307.691 0 346.18 c S
0 519.383 m -66.668 365.426 -66.668 307.691 0 346.18 c S
150 259.578 m 50 394.293 0 423.16 0 346.18 c S
150 259.578 m -16.668 240.332 -66.668 211.465 0 172.973 c S
0 -0.23 m 66.668 153.73 66.668 211.465 0 172.973 c S
-150 259.578 m -50 124.863 0 95.996 0 172.973 c S
0 -0.23 m 166.668 19.016 216.668 47.883 150 86.371 c S
150 259.578 m 83.332 105.617 83.332 47.883 150 86.371 c S
300 -0.23 m 200 134.484 150 163.352 150 86.371 c S
0 1039 m -166.668 1019.754 -216.668 990.887 -150 952.398 c S
-150 779.191 m 16.668 798.438 66.668 827.305 0 865.793 c S
0 1039 m -66.668 885.039 -66.668 827.305 0 865.793 c S
150 779.191 m 50 913.906 0 942.773 0 865.793 c S
150 779.191 m -16.668 759.949 -66.668 731.078 0 692.59 c S
0 519.383 m 66.668 673.344 66.668 731.078 0 692.59 c S
-150 779.191 m -50 644.477 0 615.609 0 692.59 c S
0 519.383 m 166.668 538.629 216.668 567.496 150 605.988 c S
150 779.191 m 83.332 625.23 83.332 567.496 150 605.988 c S
300 519.383 m 200 654.102 150 682.969 150 605.988 c S
300 519.383 m 133.332 500.141 83.332 471.273 150 432.781 c S
150 259.578 m 216.668 413.539 216.668 471.273 150 432.781 c S
0 519.383 m 100 384.668 150 355.801 150 432.781 c S
150 259.578 m 316.668 278.82 366.668 307.691 300 346.18 c S
300 519.383 m 233.332 365.426 233.332 307.691 300 346.18 c S
450 259.578 m 350 394.293 300 423.16 300 346.18 c S
450 259.578 m 283.332 240.332 233.332 211.465 300 172.973 c S
300 -0.23 m 366.668 153.73 366.668 211.465 300 172.973 c S
150 259.578 m 250 124.863 300 95.996 300 172.973 c S
300 -0.23 m 466.668 19.016 516.668 47.883 450 86.371 c S
450 259.578 m 383.332 105.617 383.332 47.883 450 86.371 c S
600 -0.23 m 500 134.484 450 163.352 450 86.371 c S
300 1039 m 133.332 1019.754 83.332 990.887 150 952.398 c S
150 779.191 m 216.668 933.152 216.668 990.887 150 952.398 c S
0 1039 m 100 904.285 150 875.418 150 952.398 c S
150 779.191 m 316.668 798.438 366.668 827.305 300 865.793 c S
300 1039 m 233.332 885.039 233.332 827.305 300 865.793 c S
450 779.191 m 350 913.906 300 942.773 300 865.793 c S
450 779.191 m 283.332 759.949 233.332 731.078 300 692.59 c S
300 519.383 m 366.668 673.344 366.668 731.078 300 692.59 c S
150 779.191 m 250 644.477 300 615.609 300 692.59 c S
300 519.383 m 466.668 538.629 516.668 567.496 450 605.988 c S
450 779.191 m 383.332 625.23 383.332 567.496 450 605.988 c S
600 519.383 m 500 654.102 450 682.969 450 605.988 c S
600 519.383 m 433.332 500.141 383.332 471.273 450 432.781 c S
450 259.578 m 516.668 413.539 516.668 471.273 450 432.781 c S
300 519.383 m 400 384.668 450 355.801 450 432.781 c S
450 259.578 m 616.668 278.82 666.668 307.691 600 346.18 c S
600 519.383 m 533.332 365.426 533.332 307.691 600 346.18 c S
750 259.578 m 650 394.293 600 423.16 600 346.18 c S
750 259.578 m 583.332 240.332 533.332 211.465 600 172.973 c S
600 -0.23 m 666.668 153.73 666.668 211.465 600 172.973 c S
450 259.578 m 550 124.863 600 95.996 600 172.973 c S
600 -0.23 m 766.668 19.016 816.668 47.883 750 86.371 c S
750 259.578 m 683.332 105.617 683.332 47.883 750 86.371 c S
900 -0.23 m 800 134.484 750 163.352 750 86.371 c S
600 1039 m 433.332 1019.754 383.332 990.887 450 952.398 c S
450 779.191 m 516.668 933.152 516.668 990.887 450 952.398 c S
300 1039 m 400 904.285 450 875.418 450 952.398 c S
450 779.191 m 616.668 798.438 666.668 827.305 600 865.793 c S
600 1039 m 533.332 885.039 533.332 827.305 600 865.793 c S
750 779.191 m 650 913.906 600 942.773 600 865.793 c S
750 779.191 m 583.332 759.949 533.332 731.078 600 692.59 c S
600 519.383 m 666.668 673.344 666.668 731.078 600 692.59 c S
450 779.191 m 550 644.477 600 615.609 600 692.59 c S
600 519.383 m 766.668 538.629 816.668 567.496 750 605.988 c S
750 779.191 m 683.332 625.23 683.332 567.496 750 605.988 c S
900 519.383 m 800 654.102 750 682.969 750 605.988 c S
900 519.383 m 733.332 500.141 683.332 471.273 750 432.781 c S
750 259.578 m 816.668 413.539 816.668 471.273 750 432.781 c S
600 519.383 m 700 384.668 750 355.801 750 432.781 c S
750 259.578 m 916.668 278.82 966.668 307.691 900 346.18 c S
900 519.383 m 833.332 365.426 833.332 307.691 900 346.18 c S
1050 259.578 m 950 394.293 900 423.16 900 346.18 c S
1050 259.578 m 883.332 240.332 833.332 211.465 900 172.973 c S
900 -0.23 m 966.668 153.73 966.668 211.465 900 172.973 c S
750 259.578 m 850 124.863 900 95.996 900 172.973 c S
900 -0.23 m 1066.668 19.016 1116.668 47.883 1050 86.371 c S
1050 259.578 m 983.332 105.617 983.332 47.883 1050 86.371 c S
1200 -0.23 m 1100 134.484 1050 163.352 1050 86.371 c S
900 1039 m 733.332 1019.754 683.332 990.887 750 952.398 c S
750 779.191 m 816.668 933.152 816.668 990.887 750 952.398 c S
600 1039 m 700 904.285 750 875.418 750 952.398 c S
750 779.191 m 916.668 798.438 966.668 827.305 900 865.793 c S
900 1039 m 833.332 885.039 833.332 827.305 900 865.793 c S
1050 779.191 m 950 913.906 900 942.773 900 865.793 c S
1050 779.191 m 883.332 759.949 833.332 731.078 900 692.59 c S
900 519.383 m 966.668 673.344 966.668 731.078 900 692.59 c S
750 779.191 m 850 644.477 900 615.609 900 692.59 c S
900 519.383 m 1066.668 538.629 1116.668 567.496 1050 605.988 c S
1050 779.191 m 983.332 625.23 983.332 567.496 1050 605.988 c S
1200 519.383 m 1100 654.102 1050 682.969 1050 605.988 c S
1200 519.383 m 1033.332 500.141 983.332 471.273 1050 432.781 c S
1050 259.578 m 1116.668 413.539 1116.668 471.273 1050 432.781 c S
900 519.383 m 1000 384.668 1050 355.801 1050 432.781 c S
1050 259.578 m 1216.668 278.82 1266.668 307.691 1200 346.18 c S
1200 519.383 m 1133.332 365.426 1133.332 307.691 1200 346.18 c S
1350 259.578 m 1250 394.293 1200 423.16 1200 346.18 c S
1350 259.578 m 1183.332 240.332 1133.332 211.465 1200 172.973 c S
1200 -0.23 m 1266.668 153.73 1266.668 211.465 1200 172.973 c S
1050 259.578 m 1150 124.863 1200 95.996 1200 172.973 c S
1200 -0.23 m 1366.668 19.016 1416.668 47.883 1350 86.371 c S
1200 1039 m 1033.332 1019.754 983.332 990.887 1050 952.398 c S
1050 779.191 m 1116.668 933.152 1116.668 990.887 1050 952.398 c S
900 1039 m 1000 904.285 1050 875.418 1050 952.398 c S
1050 779.191 m 1216.668 798.438 1266.668 827.305 1200 865.793 c S
1200 1039 m 1133.332 885.039 1133.332 827.305 1200 865.793 c S
1350 779.191 m 1250 913.906 1200 942.773 1200 865.793 c S
1350 779.191 m 1183.332 759.949 1133.332 731.078 1200 692.59 c S
1200 519.383 m 1266.668 673.344 1266.668 731.078 1200 692.59 c S
1050 779.191 m 1150 644.477 1200 615.609 1200 692.59 c S
1200 519.383 m 1366.668 538.629 1416.668 567.496 1350 605.988 c S
1200 519.383 m 1300 384.668 1350 355.801 1350 432.781 c S
Q Q
showpage
%%Trailer
%%Trailer
cleartomark
countdictstack
exch sub { end } repeat
restore
%%EOF
