%!PS-Adobe-2.0 EPSF-2.0
%%BoundingBox: 0 0 1200 1039
%%HiResBoundingBox: 0.000000 0.000000 1200.000000 1039.000000
%%Creator: cairo 1.14.2 (http://cairographics.org)
%%CreationDate: Mon Sep  7 08:21:46 2015
%%DocumentData: Clean7Bit
%%LanguageLevel: 2
%%DocumentMedia: 423x367mm 1200 1039 0 () ()
%%EndComments
% EPSF created by ps2eps 1.68
%%BeginProlog
save
countdictstack
mark
newpath
/showpage {} def
/setpagedevice {pop} def
%%EndProlog
%%Page 1 1
%%BeginProlog
/languagelevel where
{ pop languagelevel } { 1 } ifelse
2 lt { /Helvetica findfont 12 scalefont setfont 50 500 moveto
  (This print job requires a PostScript Language Level 2 printer.) show
  showpage quit } if
/q { gsave } bind def
/Q { grestore } bind def
/cm { 6 array astore concat } bind def
/w { setlinewidth } bind def
/J { setlinecap } bind def
/j { setlinejoin } bind def
/M { setmiterlimit } bind def
/d { setdash } bind def
/m { moveto } bind def
/l { lineto } bind def
/c { curveto } bind def
/h { closepath } bind def
/re { exch dup neg 3 1 roll 5 3 roll moveto 0 rlineto
      0 exch rlineto 0 rlineto closepath } bind def
/S { stroke } bind def
/f { fill } bind def
/f* { eofill } bind def
/n { newpath } bind def
/W { clip } bind def
/W* { eoclip } bind def
/BT { } bind def
/ET { } bind def
/pdfmark where { pop globaldict /?pdfmark /exec load put }
    { globaldict begin /?pdfmark /pop load def /pdfmark
    /cleartomark load def end } ifelse
/BDC { mark 3 1 roll /BDC pdfmark } bind def
/EMC { mark /EMC pdfmark } bind def
/cairo_store_point { /cairo_point_y exch def /cairo_point_x exch def } def
/Tj { show currentpoint cairo_store_point } bind def
/TJ {
  {
    dup
    type /stringtype eq
    { show } { -0.001 mul 0 cairo_font_matrix dtransform rmoveto } ifelse
  } forall
  currentpoint cairo_store_point
} bind def
/cairo_selectfont { cairo_font_matrix aload pop pop pop 0 0 6 array astore
    cairo_font exch selectfont cairo_point_x cairo_point_y moveto } bind def
/Tf { pop /cairo_font exch def /cairo_font_matrix where
      { pop cairo_selectfont } if } bind def
/Td { matrix translate cairo_font_matrix matrix concatmatrix dup
      /cairo_font_matrix exch def dup 4 get exch 5 get cairo_store_point
      /cairo_font where { pop cairo_selectfont } if } bind def
/Tm { 2 copy 8 2 roll 6 array astore /cairo_font_matrix exch def
      cairo_store_point /cairo_font where { pop cairo_selectfont } if } bind def
/g { setgray } bind def
/rg { setrgbcolor } bind def
/d1 { setcachedevice } bind def
/cairo_set_page_size {
  % Change paper size, but only if different from previous paper size otherwise
  % duplex fails. PLRM specifies a tolerance of 5 pts when matching paper size
  % so we use the same when checking if the size changes.
  /setpagedevice where {
    pop currentpagedevice
    /PageSize known {
      2 copy
      currentpagedevice /PageSize get aload pop
      exch 4 1 roll
      sub abs 5 gt
      3 1 roll
      sub abs 5 gt
      or
    } {
      true
    } ifelse
    {
      2 array astore
      2 dict begin
        /PageSize exch def
        /ImagingBBox null def
      currentdict end
      setpagedevice
    } {
      pop pop
    } ifelse
  } {
    pop
  } ifelse
} def
%%EndProlog
%%BeginSetup
%%EndSetup
%%Page: 1 1
%%BeginPageSetup
%%PageMedia: 423x367mm
%%PageBoundingBox: 0 0 1200 1039
1200 1039 cairo_set_page_size
%%EndPageSetup
q 0 0 1200 1039 rectclip q
0.984314 g
0 0 1200 1039 rectfill
0.788235 g
1.875 w
0 J
1 j
[] 0.0 d
4 M 0 1039 1200 -1039.23 re S
0 g
2.5 w
1 J
0 346.18 m 50 317.312 75 331.746 75 389.48 c S
0 346.18 m 50 317.312 50 288.445 0 259.578 c S
0 346.18 m 0 403.914 -25 418.348 -75 389.48 c S
0 346.18 m -50 317.312 -50 288.445 0 259.578 c S
0 346.18 m 0 403.914 25 418.348 75 389.48 c S
0 346.18 m -50 317.312 -75 331.746 -75 389.48 c S
0 172.973 m -50 201.844 -50 230.711 0 259.578 c S
0 172.973 m -50 201.844 -75 187.41 -75 129.672 c S
0 172.973 m 50 201.844 75 187.41 75 129.672 c S
0 172.973 m 0 115.238 -25 100.805 -75 129.672 c S
0 172.973 m 50 201.844 50 230.711 0 259.578 c S
0 172.973 m 0 115.238 25 100.805 75 129.672 c S
150 86.371 m 200 57.504 225 71.938 225 129.672 c S
150 86.371 m 200 57.504 200 28.637 150 -0.23 c S
150 86.371 m 150 144.105 125 158.539 75 129.672 c S
150 86.371 m 100 57.504 100 28.637 150 -0.23 c S
150 86.371 m 150 144.105 175 158.539 225 129.672 c S
150 86.371 m 100 57.504 75 71.938 75 129.672 c S
0 865.793 m 50 836.926 75 851.359 75 909.098 c S
0 865.793 m 50 836.926 50 808.059 0 779.191 c S
0 865.793 m 0 923.531 -25 937.965 -75 909.098 c S
0 865.793 m -50 836.926 -50 808.059 0 779.191 c S
0 865.793 m 0 923.531 25 937.965 75 909.098 c S
0 865.793 m -50 836.926 -75 851.359 -75 909.098 c S
0 692.59 m -50 721.457 -50 750.324 0 779.191 c S
0 692.59 m -50 721.457 -75 707.023 -75 649.289 c S
0 692.59 m 50 721.457 75 707.023 75 649.289 c S
0 692.59 m 0 634.855 -25 620.422 -75 649.289 c S
0 692.59 m 50 721.457 50 750.324 0 779.191 c S
0 692.59 m 0 634.855 25 620.422 75 649.289 c S
150 605.988 m 200 577.121 225 591.555 225 649.289 c S
150 605.988 m 200 577.121 200 548.254 150 519.383 c S
150 605.988 m 150 663.723 125 678.156 75 649.289 c S
150 605.988 m 100 577.121 100 548.254 150 519.383 c S
150 605.988 m 150 663.723 175 678.156 225 649.289 c S
150 605.988 m 100 577.121 75 591.555 75 649.289 c S
150 432.781 m 100 461.648 100 490.516 150 519.383 c S
150 432.781 m 100 461.648 75 447.215 75 389.48 c S
150 432.781 m 200 461.648 225 447.215 225 389.48 c S
150 432.781 m 150 375.047 125 360.613 75 389.48 c S
150 432.781 m 200 461.648 200 490.516 150 519.383 c S
150 432.781 m 150 375.047 175 360.613 225 389.48 c S
300 346.18 m 350 317.312 375 331.746 375 389.48 c S
300 346.18 m 350 317.312 350 288.445 300 259.578 c S
300 346.18 m 300 403.914 275 418.348 225 389.48 c S
300 346.18 m 250 317.312 250 288.445 300 259.578 c S
300 346.18 m 300 403.914 325 418.348 375 389.48 c S
300 346.18 m 250 317.312 225 331.746 225 389.48 c S
300 172.973 m 250 201.844 250 230.711 300 259.578 c S
300 172.973 m 250 201.844 225 187.41 225 129.672 c S
300 172.973 m 350 201.844 375 187.41 375 129.672 c S
300 172.973 m 300 115.238 275 100.805 225 129.672 c S
300 172.973 m 350 201.844 350 230.711 300 259.578 c S
300 172.973 m 300 115.238 325 100.805 375 129.672 c S
450 86.371 m 500 57.504 525 71.938 525 129.672 c S
450 86.371 m 500 57.504 500 28.637 450 -0.23 c S
450 86.371 m 450 144.105 425 158.539 375 129.672 c S
450 86.371 m 400 57.504 400 28.637 450 -0.23 c S
450 86.371 m 450 144.105 475 158.539 525 129.672 c S
450 86.371 m 400 57.504 375 71.938 375 129.672 c S
150 952.398 m 100 981.266 100 1010.133 150 1039 c S
150 952.398 m 100 981.266 75 966.832 75 909.098 c S
150 952.398 m 200 981.266 225 966.832 225 909.098 c S
150 952.398 m 150 894.664 125 880.23 75 909.098 c S
150 952.398 m 200 981.266 200 1010.133 150 1039 c S
150 952.398 m 150 894.664 175 880.23 225 909.098 c S
300 865.793 m 350 836.926 375 851.359 375 909.098 c S
300 865.793 m 350 836.926 350 808.059 300 779.191 c S
300 865.793 m 300 923.531 275 937.965 225 909.098 c S
300 865.793 m 250 836.926 250 808.059 300 779.191 c S
300 865.793 m 300 923.531 325 937.965 375 909.098 c S
300 865.793 m 250 836.926 225 851.359 225 909.098 c S
300 692.59 m 250 721.457 250 750.324 300 779.191 c S
300 692.59 m 250 721.457 225 707.023 225 649.289 c S
300 692.59 m 350 721.457 375 707.023 375 649.289 c S
300 692.59 m 300 634.855 275 620.422 225 649.289 c S
300 692.59 m 350 721.457 350 750.324 300 779.191 c S
300 692.59 m 300 634.855 325 620.422 375 649.289 c S
450 605.988 m 500 577.121 525 591.555 525 649.289 c S
450 605.988 m 500 577.121 500 548.254 450 519.383 c S
450 605.988 m 450 663.723 425 678.156 375 649.289 c S
450 605.988 m 400 577.121 400 548.254 450 519.383 c S
450 605.988 m 450 663.723 475 678.156 525 649.289 c S
450 605.988 m 400 577.121 375 591.555 375 649.289 c S
450 432.781 m 400 461.648 400 490.516 450 519.383 c S
450 432.781 m 400 461.648 375 447.215 375 389.48 c S
450 432.781 m 500 461.648 525 447.215 525 389.48 c S
450 432.781 m 450 375.047 425 360.613 375 389.48 c S
450 432.781 m 500 461.648 500 490.516 450 519.383 c S
450 432.781 m 450 375.047 475 360.613 525 389.48 c S
600 346.18 m 650 317.312 675 331.746 675 389.48 c S
600 346.18 m 650 317.312 650 288.445 600 259.578 c S
600 346.18 m 600 403.914 575 418.348 525 389.48 c S
600 346.18 m 550 317.312 550 288.445 600 259.578 c S
600 346.18 m 600 403.914 625 418.348 675 389.48 c S
600 346.18 m 550 317.312 525 331.746 525 389.48 c S
600 172.973 m 550 201.844 550 230.711 600 259.578 c S
600 172.973 m 550 201.844 525 187.41 525 129.672 c S
600 172.973 m 650 201.844 675 187.41 675 129.672 c S
600 172.973 m 600 115.238 575 100.805 525 129.672 c S
600 172.973 m 650 201.844 650 230.711 600 259.578 c S
600 172.973 m 600 115.238 625 100.805 675 129.672 c S
750 86.371 m 800 57.504 825 71.938 825 129.672 c S
750 86.371 m 800 57.504 800 28.637 750 -0.23 c S
750 86.371 m 750 144.105 725 158.539 675 129.672 c S
750 86.371 m 700 57.504 700 28.637 750 -0.23 c S
750 86.371 m 750 144.105 775 158.539 825 129.672 c S
750 86.371 m 700 57.504 675 71.938 675 129.672 c S
450 952.398 m 400 981.266 400 1010.133 450 1039 c S
450 952.398 m 400 981.266 375 966.832 375 909.098 c S
450 952.398 m 500 981.266 525 966.832 525 909.098 c S
450 952.398 m 450 894.664 425 880.23 375 909.098 c S
450 952.398 m 500 981.266 500 1010.133 450 1039 c S
450 952.398 m 450 894.664 475 880.23 525 909.098 c S
600 865.793 m 650 836.926 675 851.359 675 909.098 c S
600 865.793 m 650 836.926 650 808.059 600 779.191 c S
600 865.793 m 600 923.531 575 937.965 525 909.098 c S
600 865.793 m 550 836.926 550 808.059 600 779.191 c S
600 865.793 m 600 923.531 625 937.965 675 909.098 c S
600 865.793 m 550 836.926 525 851.359 525 909.098 c S
600 692.59 m 550 721.457 550 750.324 600 779.191 c S
600 692.59 m 550 721.457 525 707.023 525 649.289 c S
600 692.59 m 650 721.457 675 707.023 675 649.289 c S
600 692.59 m 600 634.855 575 620.422 525 649.289 c S
600 692.59 m 650 721.457 650 750.324 600 779.191 c S
600 692.59 m 600 634.855 625 620.422 675 649.289 c S
750 605.988 m 800 577.121 825 591.555 825 649.289 c S
750 605.988 m 800 577.121 800 548.254 750 519.383 c S
750 605.988 m 750 663.723 725 678.156 675 649.289 c S
750 605.988 m 700 577.121 700 548.254 750 519.383 c S
750 605.988 m 750 663.723 775 678.156 825 649.289 c S
750 605.988 m 700 577.121 675 591.555 675 649.289 c S
750 432.781 m 700 461.648 700 490.516 750 519.383 c S
750 432.781 m 700 461.648 675 447.215 675 389.48 c S
750 432.781 m 800 461.648 825 447.215 825 389.48 c S
750 432.781 m 750 375.047 725 360.613 675 389.48 c S
750 432.781 m 800 461.648 800 490.516 750 519.383 c S
750 432.781 m 750 375.047 775 360.613 825 389.48 c S
900 346.18 m 950 317.312 975 331.746 975 389.48 c S
900 346.18 m 950 317.312 950 288.445 900 259.578 c S
900 346.18 m 900 403.914 875 418.348 825 389.48 c S
900 346.18 m 850 317.312 850 288.445 900 259.578 c S
900 346.18 m 900 403.914 925 418.348 975 389.48 c S
900 346.18 m 850 317.312 825 331.746 825 389.48 c S
900 172.973 m 850 201.844 850 230.711 900 259.578 c S
900 172.973 m 850 201.844 825 187.41 825 129.672 c S
900 172.973 m 950 201.844 975 187.41 975 129.672 c S
900 172.973 m 900 115.238 875 100.805 825 129.672 c S
900 172.973 m 950 201.844 950 230.711 900 259.578 c S
900 172.973 m 900 115.238 925 100.805 975 129.672 c S
1050 86.371 m 1100 57.504 1125 71.938 1125 129.672 c S
1050 86.371 m 1100 57.504 1100 28.637 1050 -0.23 c S
1050 86.371 m 1050 144.105 1025 158.539 975 129.672 c S
1050 86.371 m 1000 57.504 1000 28.637 1050 -0.23 c S
1050 86.371 m 1050 144.105 1075 158.539 1125 129.672 c S
1050 86.371 m 1000 57.504 975 71.938 975 129.672 c S
750 952.398 m 700 981.266 700 1010.133 750 1039 c S
750 952.398 m 700 981.266 675 966.832 675 909.098 c S
750 952.398 m 800 981.266 825 966.832 825 909.098 c S
750 952.398 m 750 894.664 725 880.23 675 909.098 c S
750 952.398 m 800 981.266 800 1010.133 750 1039 c S
750 952.398 m 750 894.664 775 880.23 825 909.098 c S
900 865.793 m 950 836.926 975 851.359 975 909.098 c S
900 865.793 m 950 836.926 950 808.059 900 779.191 c S
900 865.793 m 900 923.531 875 937.965 825 909.098 c S
900 865.793 m 850 836.926 850 808.059 900 779.191 c S
900 865.793 m 900 923.531 925 937.965 975 909.098 c S
900 865.793 m 850 836.926 825 851.359 825 909.098 c S
900 692.59 m 850 721.457 850 750.324 900 779.191 c S
900 692.59 m 850 721.457 825 707.023 825 649.289 c S
900 692.59 m 950 721.457 975 707.023 975 649.289 c S
900 692.59 m 900 634.855 875 620.422 825 649.289 c S
900 692.59 m 950 721.457 950 750.324 900 779.191 c S
900 692.59 m 900 634.855 925 620.422 975 649.289 c S
1050 605.988 m 1100 577.121 1125 591.555 1125 649.289 c S
1050 605.988 m 1100 577.121 1100 548.254 1050 519.383 c S
1050 605.988 m 1050 663.723 1025 678.156 975 649.289 c S
1050 605.988 m 1000 577.121 1000 548.254 1050 519.383 c S
1050 605.988 m 1050 663.723 1075 678.156 1125 649.289 c S
1050 605.988 m 1000 577.121 975 591.555 975 649.289 c S
1050 432.781 m 1000 461.648 1000 490.516 1050 519.383 c S
1050 432.781 m 1000 461.648 975 447.215 975 389.48 c S
1050 432.781 m 1100 461.648 1125 447.215 1125 389.48 c S
1050 432.781 m 1050 375.047 1025 360.613 975 389.48 c S
1050 432.781 m 1100 461.648 1100 490.516 1050 519.383 c S
1050 432.781 m 1050 375.047 1075 360.613 1125 389.48 c S
1200 346.18 m 1250 317.312 1275 331.746 1275 389.48 c S
1200 346.18 m 1250 317.312 1250 288.445 1200 259.578 c S
1200 346.18 m 1200 403.914 1175 418.348 1125 389.48 c S
1200 346.18 m 1150 317.312 1150 288.445 1200 259.578 c S
1200 346.18 m 1200 403.914 1225 418.348 1275 389.48 c S
1200 346.18 m 1150 317.312 1125 331.746 1125 389.48 c S
1200 172.973 m 1150 201.844 1150 230.711 1200 259.578 c S
1200 172.973 m 1150 201.844 1125 187.41 1125 129.672 c S
1200 172.973 m 1250 201.844 1275 187.41 1275 129.672 c S
1200 172.973 m 1200 115.238 1175 100.805 1125 129.672 c S
1200 172.973 m 1250 201.844 1250 230.711 1200 259.578 c S
1200 172.973 m 1200 115.238 1225 100.805 1275 129.672 c S
1050 952.398 m 1000 981.266 1000 1010.133 1050 1039 c S
1050 952.398 m 1000 981.266 975 966.832 975 909.098 c S
1050 952.398 m 1100 981.266 1125 966.832 1125 909.098 c S
1050 952.398 m 1050 894.664 1025 880.23 975 909.098 c S
1050 952.398 m 1100 981.266 1100 1010.133 1050 1039 c S
1050 952.398 m 1050 894.664 1075 880.23 1125 909.098 c S
1200 865.793 m 1250 836.926 1275 851.359 1275 909.098 c S
1200 865.793 m 1250 836.926 1250 808.059 1200 779.191 c S
1200 865.793 m 1200 923.531 1175 937.965 1125 909.098 c S
1200 865.793 m 1150 836.926 1150 808.059 1200 779.191 c S
1200 865.793 m 1200 923.531 1225 937.965 1275 909.098 c S
1200 865.793 m 1150 836.926 1125 851.359 1125 909.098 c S
1200 692.59 m 1150 721.457 1150 750.324 1200 779.191 c S
1200 692.59 m 1150 721.457 1125 707.023 1125 649.289 c S
1200 692.59 m 1250 721.457 1275 707.023 1275 649.289 c S
1200 692.59 m 1200 634.855 1175 620.422 1125 649.289 c S
1200 692.59 m 1250 721.457 1250 750.324 1200 779.191 c S
1200 692.59 m 1200 634.855 1225 620.422 1275 649.289 c S
Q Q
showpage
%%Trailer
%%Trailer
cleartomark
countdictstack
exch sub { end } repeat
restore
%%EOF
