<svg xmlns="http://www.w3.org/2000/svg" baseProfile="full" width="1200" height="1039.23" viewBox="375.0000000000001 -129.9038105676658 1200.0 1039.2304845413264">
    <title>
        Pattern design from http://ornamentist.org
    </title>
    <desc>
        This file is licensed under a Creative Commons CC BY 4.0 license: http://creativecommons.org/licenses/by/4.0/
    </desc>
    <defs>
        <style>
<![CDATA[
        
polyline {
  fill:            none;
  stroke:          black;
  stroke-linecap:  round;
  stroke-linejoin: round;
  stroke-width:    2.0pt;
}


polyline.closed {
  fill:      #d9d9d9;
  fill-rule: evenodd;
}


polygon {
  fill:            #d9d9d9;
  fill-rule:       evenodd;
  stroke:          black;
  stroke-linejoin: round;
  stroke-width:    2.0pt;
}


circle {
  fill:         #d9d9d9;
  stroke:       black;
  stroke-width: 2.0pt;
}


ellipse {
  fill:         #d9d9d9;
  stroke:       black;
  stroke-width: 2.0pt;
}


path {
  fill:            none;
  stroke:          black;
  stroke-linecap:  round;
  stroke-linejoin: round;
  stroke-width:    2.0pt;
}


path.closed {
  fill:      #d9d9d9;
  fill-rule: evenodd;
}


polygon.background,
path.background
{
  fill:   #fbfbfb;
  stroke: #c9c9c9;
  stroke-width: 1.5pt;
}

        ]]>
        </style>
    </defs>
    <clipPath id="design">
        <path d="M375-129.904h1200v1039.23H375z"/>
    </clipPath>
    <g clip-path="url(#design)" color-rendering="optimizeQuality" shape-rendering="geometricPrecision" id="graphics">
        <path class="background closed" d="M1575-129.904v1039.23H375v-1039.23z"/>
        <path d="M-75-43.3q-75-43.303 0-86.604M-75-43.3Q-150-86.604-150 0M-75-43.3Q0-86.604 0 0M-75-43.3q0 86.6-75 43.3M-75-43.3q75-43.303 0-86.604M-75-43.3Q-75 43.3 0 0M75 43.3Q150 86.604 150 0M75 43.3q75 43.303 0 86.604M75 43.3Q75-43.3 0 0M75 43.3q-75 43.303 0 86.604M75 43.3Q75-43.3 150 0M75 43.3Q0 86.604 0 0M75 216.506q-75-43.3 0-86.602M75 216.506q-75-43.3-75 43.302M75 216.506q75-43.3 75 43.302M75 216.506q0 86.603-75 43.302M75 216.506q75-43.3 0-86.602M75 216.506q0 86.603 75 43.302M225 303.11q75 43.3 75-43.302M225 303.11q75 43.3 0 86.6M225 303.11q0-86.604-75-43.302M225 303.11q-75 43.3 0 86.6M225 303.11q0-86.604 75-43.302M225 303.11q-75 43.3-75-43.302M225 476.314q-75-43.3 0-86.603M225 476.314q-75-43.3-75 43.3M225 476.314q75-43.3 75 43.3M225 476.314q0 86.603-75 43.3M225 476.314q75-43.3 0-86.603M225 476.314q0 86.603 75 43.3M375 562.917q75 43.3 75-43.302M375 562.917q75 43.3 0 86.602M375 562.917q0-86.603-75-43.302M375 562.917q-75 43.3 0 86.602M375 562.917q0-86.603 75-43.302M375 562.917q-75 43.3-75-43.302M375 736.122q-75-43.302 0-86.603M375 736.122q-75-43.302-75 43.3M375 736.122q75-43.302 75 43.3M375 736.122q0 86.602-75 43.3M375 736.122q75-43.302 0-86.603M375 736.122q0 86.602 75 43.3M525 822.724q75 43.3 75-43.3M525 822.724q75 43.3 0 86.603M525 822.724q0-86.602-75-43.3M525 822.724q-75 43.3 0 86.603M525 822.724q0-86.602 75-43.3M525 822.724q-75 43.3-75-43.3M225-43.3q-75-43.303 0-86.604M225-43.3Q150-86.604 150 0M225-43.3Q300-86.604 300 0M225-43.3q0 86.6-75 43.3M225-43.3q75-43.303 0-86.604M225-43.3q0 86.6 75 43.3M375 43.3Q450 86.604 450 0M375 43.3q75 43.303 0 86.604M375 43.3q0-86.6-75-43.3M375 43.3q-75 43.303 0 86.604M375 43.3q0-86.6 75-43.3M375 43.3Q300 86.604 300 0M375 216.506q-75-43.3 0-86.602M375 216.506q-75-43.3-75 43.302M375 216.506q75-43.3 75 43.302M375 216.506q0 86.603-75 43.302M375 216.506q75-43.3 0-86.602M375 216.506q0 86.603 75 43.302M525 303.11q75 43.3 75-43.302M525 303.11q75 43.3 0 86.6M525 303.11q0-86.604-75-43.302M525 303.11q-75 43.3 0 86.6M525 303.11q0-86.604 75-43.302M525 303.11q-75 43.3-75-43.302M525 476.314q-75-43.3 0-86.603M525 476.314q-75-43.3-75 43.3M525 476.314q75-43.3 75 43.3M525 476.314q0 86.603-75 43.3M525 476.314q75-43.3 0-86.603M525 476.314q0 86.603 75 43.3M675 562.917q75 43.3 75-43.302M675 562.917q75 43.3 0 86.602M675 562.917q0-86.603-75-43.302M675 562.917q-75 43.3 0 86.602M675 562.917q0-86.603 75-43.302M675 562.917q-75 43.3-75-43.302M675 736.122q-75-43.302 0-86.603M675 736.122q-75-43.302-75 43.3M675 736.122q75-43.302 75 43.3M675 736.122q0 86.602-75 43.3M675 736.122q75-43.302 0-86.603M675 736.122q0 86.602 75 43.3M825 822.724q75 43.3 75-43.3M825 822.724q75 43.3 0 86.603M825 822.724q0-86.602-75-43.3M825 822.724q-75 43.3 0 86.603M825 822.724q0-86.602 75-43.3M825 822.724q-75 43.3-75-43.3M525-43.3q-75-43.303 0-86.604M525-43.3Q450-86.604 450 0M525-43.3Q600-86.604 600 0M525-43.3q0 86.6-75 43.3M525-43.3q75-43.303 0-86.604M525-43.3q0 86.6 75 43.3M675 43.3Q750 86.604 750 0M675 43.3q75 43.303 0 86.604M675 43.3q0-86.6-75-43.3M675 43.3q-75 43.303 0 86.604M675 43.3q0-86.6 75-43.3M675 43.3Q600 86.604 600 0M675 216.506q-75-43.3 0-86.602M675 216.506q-75-43.3-75 43.302M675 216.506q75-43.3 75 43.302M675 216.506q0 86.603-75 43.302M675 216.506q75-43.3 0-86.602M675 216.506q0 86.603 75 43.302M825 303.11q75 43.3 75-43.302M825 303.11q75 43.3 0 86.6M825 303.11q0-86.604-75-43.302M825 303.11q-75 43.3 0 86.6M825 303.11q0-86.604 75-43.302M825 303.11q-75 43.3-75-43.302M825 476.314q-75-43.3 0-86.603M825 476.314q-75-43.3-75 43.3M825 476.314q75-43.3 75 43.3M825 476.314q0 86.603-75 43.3M825 476.314q75-43.3 0-86.603M825 476.314q0 86.603 75 43.3M975 562.917q75 43.3 75-43.302M975 562.917q75 43.3 0 86.602M975 562.917q0-86.603-75-43.302M975 562.917q-75 43.3 0 86.602M975 562.917q0-86.603 75-43.302M975 562.917q-75 43.3-75-43.302M975 736.122q-75-43.302 0-86.603M975 736.122q-75-43.302-75 43.3M975 736.122q75-43.302 75 43.3M975 736.122q0 86.602-75 43.3M975 736.122q75-43.302 0-86.603M975 736.122q0 86.602 75 43.3M1125 822.724q75 43.3 75-43.3M1125 822.724q75 43.3 0 86.603M1125 822.724q0-86.602-75-43.3M1125 822.724q-75 43.3 0 86.603M1125 822.724q0-86.602 75-43.3M1125 822.724q-75 43.3-75-43.3M825-43.3q-75-43.303 0-86.604M825-43.3Q750-86.604 750 0M825-43.3Q900-86.604 900 0M825-43.3q0 86.6-75 43.3M825-43.3q75-43.303 0-86.604M825-43.3q0 86.6 75 43.3M975 43.3q75 43.303 75-43.3M975 43.3q75 43.303 0 86.604M975 43.3q0-86.6-75-43.3M975 43.3q-75 43.303 0 86.604M975 43.3q0-86.6 75-43.3M975 43.3Q900 86.604 900 0M975 216.506q-75-43.3 0-86.602M975 216.506q-75-43.3-75 43.302M975 216.506q75-43.3 75 43.302M975 216.506q0 86.603-75 43.302M975 216.506q75-43.3 0-86.602M975 216.506q0 86.603 75 43.302M1125 303.11q75 43.3 75-43.302M1125 303.11q75 43.3 0 86.6M1125 303.11q0-86.604-75-43.302M1125 303.11q-75 43.3 0 86.6M1125 303.11q0-86.604 75-43.302M1125 303.11q-75 43.3-75-43.302M1125 476.314q-75-43.3 0-86.603M1125 476.314q-75-43.3-75 43.3M1125 476.314q75-43.3 75 43.3M1125 476.314q0 86.603-75 43.3M1125 476.314q75-43.3 0-86.603M1125 476.314q0 86.603 75 43.3M1275 562.917q75 43.3 75-43.302M1275 562.917q75 43.3 0 86.602M1275 562.917q0-86.603-75-43.302M1275 562.917q-75 43.3 0 86.602M1275 562.917q0-86.603 75-43.302M1275 562.917q-75 43.3-75-43.302M1275 736.122q-75-43.302 0-86.603M1275 736.122q-75-43.302-75 43.3M1275 736.122q75-43.302 75 43.3M1275 736.122q0 86.602-75 43.3M1275 736.122q75-43.302 0-86.603M1275 736.122q0 86.602 75 43.3M1425 822.724q75 43.3 75-43.3M1425 822.724q75 43.3 0 86.603M1425 822.724q0-86.602-75-43.3M1425 822.724q-75 43.3 0 86.603M1425 822.724q0-86.602 75-43.3M1425 822.724q-75 43.3-75-43.3M1125-43.3q-75-43.303 0-86.604M1125-43.3q-75-43.303-75 43.3M1125-43.3q75-43.303 75 43.3M1125-43.3q0 86.6-75 43.3M1125-43.3q75-43.303 0-86.604M1125-43.3q0 86.6 75 43.3M1275 43.3q75 43.303 75-43.3M1275 43.3q75 43.303 0 86.604M1275 43.3q0-86.6-75-43.3M1275 43.3q-75 43.303 0 86.604M1275 43.3q0-86.6 75-43.3M1275 43.3q-75 43.303-75-43.3M1275 216.506q-75-43.3 0-86.602M1275 216.506q-75-43.3-75 43.302M1275 216.506q75-43.3 75 43.302M1275 216.506q0 86.603-75 43.302M1275 216.506q75-43.3 0-86.602M1275 216.506q0 86.603 75 43.302M1425 303.11q75 43.3 75-43.302M1425 303.11q75 43.3 0 86.6M1425 303.11q0-86.604-75-43.302M1425 303.11q-75 43.3 0 86.6M1425 303.11q0-86.604 75-43.302M1425 303.11q-75 43.3-75-43.302M1425 476.314q-75-43.3 0-86.603M1425 476.314q-75-43.3-75 43.3M1425 476.314q75-43.3 75 43.3M1425 476.314q0 86.603-75 43.3M1425 476.314q75-43.3 0-86.603M1425 476.314q0 86.603 75 43.3M1575 562.917q75 43.3 75-43.302M1575 562.917q75 43.3 0 86.602M1575 562.917q0-86.603-75-43.302M1575 562.917q-75 43.3 0 86.602M1575 562.917q0-86.603 75-43.302M1575 562.917q-75 43.3-75-43.302M1575 736.122q-75-43.302 0-86.603M1575 736.122q-75-43.302-75 43.3M1575 736.122q75-43.302 75 43.3M1575 736.122q0 86.602-75 43.3M1575 736.122q75-43.302 0-86.603M1575 736.122q0 86.602 75 43.3M1725 822.724q75 43.3 75-43.3M1725 822.724q75 43.3 0 86.603M1725 822.724q0-86.602-75-43.3M1725 822.724q-75 43.3 0 86.603M1725 822.724q0-86.602 75-43.3M1725 822.724q-75 43.3-75-43.3M1425-43.3q-75-43.303 0-86.604M1425-43.3q-75-43.303-75 43.3M1425-43.3q75-43.303 75 43.3M1425-43.3q0 86.6-75 43.3M1425-43.3q75-43.303 0-86.604M1425-43.3q0 86.6 75 43.3M1575 43.3q75 43.303 75-43.3M1575 43.3q75 43.303 0 86.604M1575 43.3q0-86.6-75-43.3M1575 43.3q-75 43.303 0 86.604M1575 43.3q0-86.6 75-43.3M1575 43.3q-75 43.303-75-43.3M1575 216.506q-75-43.3 0-86.602M1575 216.506q-75-43.3-75 43.302M1575 216.506q75-43.3 75 43.302M1575 216.506q0 86.603-75 43.302M1575 216.506q75-43.3 0-86.602M1575 216.506q0 86.603 75 43.302M1725 303.11q75 43.3 75-43.302M1725 303.11q75 43.3 0 86.6M1725 303.11q0-86.604-75-43.302M1725 303.11q-75 43.3 0 86.6M1725 303.11q0-86.604 75-43.302M1725 303.11q-75 43.3-75-43.302M1725 476.314q-75-43.3 0-86.603M1725 476.314q-75-43.3-75 43.3M1725 476.314q75-43.3 75 43.3M1725 476.314q0 86.603-75 43.3M1725 476.314q75-43.3 0-86.603M1725 476.314q0 86.603 75 43.3M1875 562.917q75 43.3 75-43.302M1875 562.917q75 43.3 0 86.602M1875 562.917q0-86.603-75-43.302M1875 562.917q-75 43.3 0 86.602M1875 562.917q0-86.603 75-43.302M1875 562.917q-75 43.3-75-43.302M1875 736.122q-75-43.302 0-86.603M1875 736.122q-75-43.302-75 43.3M1875 736.122q75-43.302 75 43.3M1875 736.122q0 86.602-75 43.3M1875 736.122q75-43.302 0-86.603M1875 736.122q0 86.602 75 43.3M2025 822.724q75 43.3 75-43.3M2025 822.724q75 43.3 0 86.603M2025 822.724q0-86.602-75-43.3M2025 822.724q-75 43.3 0 86.603M2025 822.724q0-86.602 75-43.3M2025 822.724q-75 43.3-75-43.3" class="bezier-2-1 open"/>
    </g>
</svg>
