%!PS-Adobe-2.0 EPSF-2.0
%%BoundingBox: 0 0 1200 1039
%%HiResBoundingBox: 0.000000 0.000000 1200.000000 1039.000000
%%Creator: cairo 1.14.2 (http://cairographics.org)
%%CreationDate: Mon Sep  7 08:21:47 2015
%%DocumentData: Clean7Bit
%%LanguageLevel: 2
%%DocumentMedia: 423x367mm 1200 1039 0 () ()
%%EndComments
% EPSF created by ps2eps 1.68
%%BeginProlog
save
countdictstack
mark
newpath
/showpage {} def
/setpagedevice {pop} def
%%EndProlog
%%Page 1 1
%%BeginProlog
/languagelevel where
{ pop languagelevel } { 1 } ifelse
2 lt { /Helvetica findfont 12 scalefont setfont 50 500 moveto
  (This print job requires a PostScript Language Level 2 printer.) show
  showpage quit } if
/q { gsave } bind def
/Q { grestore } bind def
/cm { 6 array astore concat } bind def
/w { setlinewidth } bind def
/J { setlinecap } bind def
/j { setlinejoin } bind def
/M { setmiterlimit } bind def
/d { setdash } bind def
/m { moveto } bind def
/l { lineto } bind def
/c { curveto } bind def
/h { closepath } bind def
/re { exch dup neg 3 1 roll 5 3 roll moveto 0 rlineto
      0 exch rlineto 0 rlineto closepath } bind def
/S { stroke } bind def
/f { fill } bind def
/f* { eofill } bind def
/n { newpath } bind def
/W { clip } bind def
/W* { eoclip } bind def
/BT { } bind def
/ET { } bind def
/pdfmark where { pop globaldict /?pdfmark /exec load put }
    { globaldict begin /?pdfmark /pop load def /pdfmark
    /cleartomark load def end } ifelse
/BDC { mark 3 1 roll /BDC pdfmark } bind def
/EMC { mark /EMC pdfmark } bind def
/cairo_store_point { /cairo_point_y exch def /cairo_point_x exch def } def
/Tj { show currentpoint cairo_store_point } bind def
/TJ {
  {
    dup
    type /stringtype eq
    { show } { -0.001 mul 0 cairo_font_matrix dtransform rmoveto } ifelse
  } forall
  currentpoint cairo_store_point
} bind def
/cairo_selectfont { cairo_font_matrix aload pop pop pop 0 0 6 array astore
    cairo_font exch selectfont cairo_point_x cairo_point_y moveto } bind def
/Tf { pop /cairo_font exch def /cairo_font_matrix where
      { pop cairo_selectfont } if } bind def
/Td { matrix translate cairo_font_matrix matrix concatmatrix dup
      /cairo_font_matrix exch def dup 4 get exch 5 get cairo_store_point
      /cairo_font where { pop cairo_selectfont } if } bind def
/Tm { 2 copy 8 2 roll 6 array astore /cairo_font_matrix exch def
      cairo_store_point /cairo_font where { pop cairo_selectfont } if } bind def
/g { setgray } bind def
/rg { setrgbcolor } bind def
/d1 { setcachedevice } bind def
/cairo_set_page_size {
  % Change paper size, but only if different from previous paper size otherwise
  % duplex fails. PLRM specifies a tolerance of 5 pts when matching paper size
  % so we use the same when checking if the size changes.
  /setpagedevice where {
    pop currentpagedevice
    /PageSize known {
      2 copy
      currentpagedevice /PageSize get aload pop
      exch 4 1 roll
      sub abs 5 gt
      3 1 roll
      sub abs 5 gt
      or
    } {
      true
    } ifelse
    {
      2 array astore
      2 dict begin
        /PageSize exch def
        /ImagingBBox null def
      currentdict end
      setpagedevice
    } {
      pop pop
    } ifelse
  } {
    pop
  } ifelse
} def
%%EndProlog
%%BeginSetup
%%EndSetup
%%Page: 1 1
%%BeginPageSetup
%%PageMedia: 423x367mm
%%PageBoundingBox: 0 0 1200 1039
1200 1039 cairo_set_page_size
%%EndPageSetup
q 0 0 1200 1039 rectclip q
0.984314 g
0 0 1200 1039 rectfill
0.788235 g
1.875 w
0 J
1 j
[] 0.0 d
4 M 0 1039 1200 -1039.23 re S
0 g
2.5 w
-75 591.555 m -50 605.988 l 0 519.383 l h
-75 591.555 m S
-100 548.254 m 0 519.383 l -100 519.383 l h
-100 548.254 m S
-75 447.215 m 0 519.383 l -50 432.781 l h
-75 447.215 m S
-100 490.516 m -100 519.383 l 0 519.383 l h
-100 490.516 m S
0.85098 g
75 331.746 m 100 346.18 l 150 259.578 l h
75 331.746 m f*
0 g
75 331.746 m 100 346.18 l 150 259.578 l h
75 331.746 m S
0.85098 g
50 288.445 m 150 259.578 l 50 259.578 l h
50 288.445 m f*
0 g
50 288.445 m 150 259.578 l 50 259.578 l h
50 288.445 m S
-25 418.348 m -50 432.781 l 0 519.383 l h
-25 418.348 m S
0.85098 g
25 418.348 m 0 519.383 l 50 432.781 l h
25 418.348 m f*
0 g
25 418.348 m 0 519.383 l 50 432.781 l h
25 418.348 m S
0.85098 g
75 187.41 m 150 259.578 l 100 172.973 l h
75 187.41 m f*
0 g
75 187.41 m 150 259.578 l 100 172.973 l h
75 187.41 m S
-25 100.805 m 0 -0.23 l -50 86.371 l h
-25 100.805 m S
0.85098 g
50 230.711 m 50 259.578 l 150 259.578 l h
50 230.711 m f*
0 g
50 230.711 m 50 259.578 l 150 259.578 l h
50 230.711 m S
0.85098 g
25 100.805 m 50 86.371 l 0 -0.23 l h
25 100.805 m f*
0 g
25 100.805 m 50 86.371 l 0 -0.23 l h
25 100.805 m S
0.85098 g
225 71.938 m 250 86.371 l 300 -0.23 l h
225 71.938 m f*
0 g
225 71.938 m 250 86.371 l 300 -0.23 l h
225 71.938 m S
0.85098 g
200 28.637 m 300 -0.23 l 200 -0.23 l h
200 28.637 m f*
0 g
200 28.637 m 300 -0.23 l 200 -0.23 l h
200 28.637 m S
0.85098 g
125 158.539 m 100 172.973 l 150 259.578 l h
125 158.539 m f*
0 g
125 158.539 m 100 172.973 l 150 259.578 l h
125 158.539 m S
0.85098 g
100 28.637 m 100 -0.23 l 0 -0.23 l h
100 28.637 m f*
0 g
100 28.637 m 100 -0.23 l 0 -0.23 l h
100 28.637 m S
0.85098 g
175 158.539 m 150 259.578 l 200 172.973 l h
175 158.539 m f*
0 g
175 158.539 m 150 259.578 l 200 172.973 l h
175 158.539 m S
0.85098 g
75 71.938 m 0 -0.23 l 50 86.371 l h
75 71.938 m f*
0 g
75 71.938 m 0 -0.23 l 50 86.371 l h
75 71.938 m S
-75 966.832 m 0 1039 l -50 952.398 l h
-75 966.832 m S
-100 1010.133 m -100 1039 l 0 1039 l h
-100 1010.133 m S
0.85098 g
75 851.359 m 100 865.793 l 150 779.191 l h
75 851.359 m f*
0 g
75 851.359 m 100 865.793 l 150 779.191 l h
75 851.359 m S
0.85098 g
50 808.059 m 150 779.191 l 50 779.191 l h
50 808.059 m f*
0 g
50 808.059 m 150 779.191 l 50 779.191 l h
50 808.059 m S
-25 937.965 m -50 952.398 l 0 1039 l h
-25 937.965 m S
0.85098 g
25 937.965 m 0 1039 l 50 952.398 l h
25 937.965 m f*
0 g
25 937.965 m 0 1039 l 50 952.398 l h
25 937.965 m S
0.85098 g
75 707.023 m 150 779.191 l 100 692.59 l h
75 707.023 m f*
0 g
75 707.023 m 150 779.191 l 100 692.59 l h
75 707.023 m S
-25 620.422 m 0 519.383 l -50 605.988 l h
-25 620.422 m S
0.85098 g
50 750.324 m 50 779.191 l 150 779.191 l h
50 750.324 m f*
0 g
50 750.324 m 50 779.191 l 150 779.191 l h
50 750.324 m S
0.85098 g
25 620.422 m 50 605.988 l 0 519.383 l h
25 620.422 m f*
0 g
25 620.422 m 50 605.988 l 0 519.383 l h
25 620.422 m S
0.85098 g
225 591.555 m 250 605.988 l 300 519.383 l h
225 591.555 m f*
0 g
225 591.555 m 250 605.988 l 300 519.383 l h
225 591.555 m S
0.85098 g
200 548.254 m 300 519.383 l 200 519.383 l h
200 548.254 m f*
0 g
200 548.254 m 300 519.383 l 200 519.383 l h
200 548.254 m S
0.85098 g
125 678.156 m 100 692.59 l 150 779.191 l h
125 678.156 m f*
0 g
125 678.156 m 100 692.59 l 150 779.191 l h
125 678.156 m S
0.85098 g
100 548.254 m 100 519.383 l 0 519.383 l h
100 548.254 m f*
0 g
100 548.254 m 100 519.383 l 0 519.383 l h
100 548.254 m S
0.85098 g
175 678.156 m 150 779.191 l 200 692.59 l h
175 678.156 m f*
0 g
175 678.156 m 150 779.191 l 200 692.59 l h
175 678.156 m S
0.85098 g
75 591.555 m 0 519.383 l 50 605.988 l h
75 591.555 m f*
0 g
75 591.555 m 0 519.383 l 50 605.988 l h
75 591.555 m S
0.85098 g
100 490.516 m 0 519.383 l 100 519.383 l h
100 490.516 m f*
0 g
100 490.516 m 0 519.383 l 100 519.383 l h
100 490.516 m S
0.85098 g
75 447.215 m 50 432.781 l 0 519.383 l h
75 447.215 m f*
0 g
75 447.215 m 50 432.781 l 0 519.383 l h
75 447.215 m S
0.85098 g
225 447.215 m 300 519.383 l 250 432.781 l h
225 447.215 m f*
0 g
225 447.215 m 300 519.383 l 250 432.781 l h
225 447.215 m S
0.85098 g
125 360.613 m 150 259.578 l 100 346.18 l h
125 360.613 m f*
0 g
125 360.613 m 150 259.578 l 100 346.18 l h
125 360.613 m S
0.85098 g
200 490.516 m 200 519.383 l 300 519.383 l h
200 490.516 m f*
0 g
200 490.516 m 200 519.383 l 300 519.383 l h
200 490.516 m S
0.85098 g
175 360.613 m 200 346.18 l 150 259.578 l h
175 360.613 m f*
0 g
175 360.613 m 200 346.18 l 150 259.578 l h
175 360.613 m S
0.85098 g
375 331.746 m 400 346.18 l 450 259.578 l h
375 331.746 m f*
0 g
375 331.746 m 400 346.18 l 450 259.578 l h
375 331.746 m S
0.85098 g
350 288.445 m 450 259.578 l 350 259.578 l h
350 288.445 m f*
0 g
350 288.445 m 450 259.578 l 350 259.578 l h
350 288.445 m S
0.85098 g
275 418.348 m 250 432.781 l 300 519.383 l h
275 418.348 m f*
0 g
275 418.348 m 250 432.781 l 300 519.383 l h
275 418.348 m S
0.85098 g
250 288.445 m 250 259.578 l 150 259.578 l h
250 288.445 m f*
0 g
250 288.445 m 250 259.578 l 150 259.578 l h
250 288.445 m S
0.85098 g
325 418.348 m 300 519.383 l 350 432.781 l h
325 418.348 m f*
0 g
325 418.348 m 300 519.383 l 350 432.781 l h
325 418.348 m S
0.85098 g
225 331.746 m 150 259.578 l 200 346.18 l h
225 331.746 m f*
0 g
225 331.746 m 150 259.578 l 200 346.18 l h
225 331.746 m S
0.85098 g
250 230.711 m 150 259.578 l 250 259.578 l h
250 230.711 m f*
0 g
250 230.711 m 150 259.578 l 250 259.578 l h
250 230.711 m S
0.85098 g
225 187.41 m 200 172.973 l 150 259.578 l h
225 187.41 m f*
0 g
225 187.41 m 200 172.973 l 150 259.578 l h
225 187.41 m S
0.85098 g
375 187.41 m 450 259.578 l 400 172.973 l h
375 187.41 m f*
0 g
375 187.41 m 450 259.578 l 400 172.973 l h
375 187.41 m S
0.85098 g
275 100.805 m 300 -0.23 l 250 86.371 l h
275 100.805 m f*
0 g
275 100.805 m 300 -0.23 l 250 86.371 l h
275 100.805 m S
0.85098 g
350 230.711 m 350 259.578 l 450 259.578 l h
350 230.711 m f*
0 g
350 230.711 m 350 259.578 l 450 259.578 l h
350 230.711 m S
0.85098 g
325 100.805 m 350 86.371 l 300 -0.23 l h
325 100.805 m f*
0 g
325 100.805 m 350 86.371 l 300 -0.23 l h
325 100.805 m S
0.85098 g
525 71.938 m 550 86.371 l 600 -0.23 l h
525 71.938 m f*
0 g
525 71.938 m 550 86.371 l 600 -0.23 l h
525 71.938 m S
0.85098 g
500 28.637 m 600 -0.23 l 500 -0.23 l h
500 28.637 m f*
0 g
500 28.637 m 600 -0.23 l 500 -0.23 l h
500 28.637 m S
0.85098 g
425 158.539 m 400 172.973 l 450 259.578 l h
425 158.539 m f*
0 g
425 158.539 m 400 172.973 l 450 259.578 l h
425 158.539 m S
0.85098 g
400 28.637 m 400 -0.23 l 300 -0.23 l h
400 28.637 m f*
0 g
400 28.637 m 400 -0.23 l 300 -0.23 l h
400 28.637 m S
0.85098 g
475 158.539 m 450 259.578 l 500 172.973 l h
475 158.539 m f*
0 g
475 158.539 m 450 259.578 l 500 172.973 l h
475 158.539 m S
0.85098 g
375 71.938 m 300 -0.23 l 350 86.371 l h
375 71.938 m f*
0 g
375 71.938 m 300 -0.23 l 350 86.371 l h
375 71.938 m S
0.85098 g
100 1010.133 m 0 1039 l 100 1039 l h
100 1010.133 m f*
0 g
100 1010.133 m 0 1039 l 100 1039 l h
100 1010.133 m S
0.85098 g
75 966.832 m 50 952.398 l 0 1039 l h
75 966.832 m f*
0 g
75 966.832 m 50 952.398 l 0 1039 l h
75 966.832 m S
0.85098 g
225 966.832 m 300 1039 l 250 952.398 l h
225 966.832 m f*
0 g
225 966.832 m 300 1039 l 250 952.398 l h
225 966.832 m S
0.85098 g
125 880.23 m 150 779.191 l 100 865.793 l h
125 880.23 m f*
0 g
125 880.23 m 150 779.191 l 100 865.793 l h
125 880.23 m S
0.85098 g
200 1010.133 m 200 1039 l 300 1039 l h
200 1010.133 m f*
0 g
200 1010.133 m 200 1039 l 300 1039 l h
200 1010.133 m S
0.85098 g
175 880.23 m 200 865.793 l 150 779.191 l h
175 880.23 m f*
0 g
175 880.23 m 200 865.793 l 150 779.191 l h
175 880.23 m S
0.85098 g
375 851.359 m 400 865.793 l 450 779.191 l h
375 851.359 m f*
0 g
375 851.359 m 400 865.793 l 450 779.191 l h
375 851.359 m S
0.85098 g
350 808.059 m 450 779.191 l 350 779.191 l h
350 808.059 m f*
0 g
350 808.059 m 450 779.191 l 350 779.191 l h
350 808.059 m S
0.85098 g
275 937.965 m 250 952.398 l 300 1039 l h
275 937.965 m f*
0 g
275 937.965 m 250 952.398 l 300 1039 l h
275 937.965 m S
0.85098 g
250 808.059 m 250 779.191 l 150 779.191 l h
250 808.059 m f*
0 g
250 808.059 m 250 779.191 l 150 779.191 l h
250 808.059 m S
0.85098 g
325 937.965 m 300 1039 l 350 952.398 l h
325 937.965 m f*
0 g
325 937.965 m 300 1039 l 350 952.398 l h
325 937.965 m S
0.85098 g
225 851.359 m 150 779.191 l 200 865.793 l h
225 851.359 m f*
0 g
225 851.359 m 150 779.191 l 200 865.793 l h
225 851.359 m S
0.85098 g
250 750.324 m 150 779.191 l 250 779.191 l h
250 750.324 m f*
0 g
250 750.324 m 150 779.191 l 250 779.191 l h
250 750.324 m S
0.85098 g
225 707.023 m 200 692.59 l 150 779.191 l h
225 707.023 m f*
0 g
225 707.023 m 200 692.59 l 150 779.191 l h
225 707.023 m S
0.85098 g
375 707.023 m 450 779.191 l 400 692.59 l h
375 707.023 m f*
0 g
375 707.023 m 450 779.191 l 400 692.59 l h
375 707.023 m S
0.85098 g
275 620.422 m 300 519.383 l 250 605.988 l h
275 620.422 m f*
0 g
275 620.422 m 300 519.383 l 250 605.988 l h
275 620.422 m S
0.85098 g
350 750.324 m 350 779.191 l 450 779.191 l h
350 750.324 m f*
0 g
350 750.324 m 350 779.191 l 450 779.191 l h
350 750.324 m S
0.85098 g
325 620.422 m 350 605.988 l 300 519.383 l h
325 620.422 m f*
0 g
325 620.422 m 350 605.988 l 300 519.383 l h
325 620.422 m S
0.85098 g
525 591.555 m 550 605.988 l 600 519.383 l h
525 591.555 m f*
0 g
525 591.555 m 550 605.988 l 600 519.383 l h
525 591.555 m S
0.85098 g
500 548.254 m 600 519.383 l 500 519.383 l h
500 548.254 m f*
0 g
500 548.254 m 600 519.383 l 500 519.383 l h
500 548.254 m S
0.85098 g
425 678.156 m 400 692.59 l 450 779.191 l h
425 678.156 m f*
0 g
425 678.156 m 400 692.59 l 450 779.191 l h
425 678.156 m S
0.85098 g
400 548.254 m 400 519.383 l 300 519.383 l h
400 548.254 m f*
0 g
400 548.254 m 400 519.383 l 300 519.383 l h
400 548.254 m S
0.85098 g
475 678.156 m 450 779.191 l 500 692.59 l h
475 678.156 m f*
0 g
475 678.156 m 450 779.191 l 500 692.59 l h
475 678.156 m S
0.85098 g
375 591.555 m 300 519.383 l 350 605.988 l h
375 591.555 m f*
0 g
375 591.555 m 300 519.383 l 350 605.988 l h
375 591.555 m S
0.85098 g
400 490.516 m 300 519.383 l 400 519.383 l h
400 490.516 m f*
0 g
400 490.516 m 300 519.383 l 400 519.383 l h
400 490.516 m S
0.85098 g
375 447.215 m 350 432.781 l 300 519.383 l h
375 447.215 m f*
0 g
375 447.215 m 350 432.781 l 300 519.383 l h
375 447.215 m S
0.85098 g
525 447.215 m 600 519.383 l 550 432.781 l h
525 447.215 m f*
0 g
525 447.215 m 600 519.383 l 550 432.781 l h
525 447.215 m S
0.85098 g
425 360.613 m 450 259.578 l 400 346.18 l h
425 360.613 m f*
0 g
425 360.613 m 450 259.578 l 400 346.18 l h
425 360.613 m S
0.85098 g
500 490.516 m 500 519.383 l 600 519.383 l h
500 490.516 m f*
0 g
500 490.516 m 500 519.383 l 600 519.383 l h
500 490.516 m S
0.85098 g
475 360.613 m 500 346.18 l 450 259.578 l h
475 360.613 m f*
0 g
475 360.613 m 500 346.18 l 450 259.578 l h
475 360.613 m S
0.85098 g
675 331.746 m 700 346.18 l 750 259.578 l h
675 331.746 m f*
0 g
675 331.746 m 700 346.18 l 750 259.578 l h
675 331.746 m S
0.85098 g
650 288.445 m 750 259.578 l 650 259.578 l h
650 288.445 m f*
0 g
650 288.445 m 750 259.578 l 650 259.578 l h
650 288.445 m S
0.85098 g
575 418.348 m 550 432.781 l 600 519.383 l h
575 418.348 m f*
0 g
575 418.348 m 550 432.781 l 600 519.383 l h
575 418.348 m S
0.85098 g
550 288.445 m 550 259.578 l 450 259.578 l h
550 288.445 m f*
0 g
550 288.445 m 550 259.578 l 450 259.578 l h
550 288.445 m S
0.85098 g
625 418.348 m 600 519.383 l 650 432.781 l h
625 418.348 m f*
0 g
625 418.348 m 600 519.383 l 650 432.781 l h
625 418.348 m S
0.85098 g
525 331.746 m 450 259.578 l 500 346.18 l h
525 331.746 m f*
0 g
525 331.746 m 450 259.578 l 500 346.18 l h
525 331.746 m S
0.85098 g
550 230.711 m 450 259.578 l 550 259.578 l h
550 230.711 m f*
0 g
550 230.711 m 450 259.578 l 550 259.578 l h
550 230.711 m S
0.85098 g
525 187.41 m 500 172.973 l 450 259.578 l h
525 187.41 m f*
0 g
525 187.41 m 500 172.973 l 450 259.578 l h
525 187.41 m S
0.85098 g
675 187.41 m 750 259.578 l 700 172.973 l h
675 187.41 m f*
0 g
675 187.41 m 750 259.578 l 700 172.973 l h
675 187.41 m S
0.85098 g
575 100.805 m 600 -0.23 l 550 86.371 l h
575 100.805 m f*
0 g
575 100.805 m 600 -0.23 l 550 86.371 l h
575 100.805 m S
0.85098 g
650 230.711 m 650 259.578 l 750 259.578 l h
650 230.711 m f*
0 g
650 230.711 m 650 259.578 l 750 259.578 l h
650 230.711 m S
0.85098 g
625 100.805 m 650 86.371 l 600 -0.23 l h
625 100.805 m f*
0 g
625 100.805 m 650 86.371 l 600 -0.23 l h
625 100.805 m S
0.85098 g
825 71.938 m 850 86.371 l 900 -0.23 l h
825 71.938 m f*
0 g
825 71.938 m 850 86.371 l 900 -0.23 l h
825 71.938 m S
0.85098 g
800 28.637 m 900 -0.23 l 800 -0.23 l h
800 28.637 m f*
0 g
800 28.637 m 900 -0.23 l 800 -0.23 l h
800 28.637 m S
0.85098 g
725 158.539 m 700 172.973 l 750 259.578 l h
725 158.539 m f*
0 g
725 158.539 m 700 172.973 l 750 259.578 l h
725 158.539 m S
0.85098 g
700 28.637 m 700 -0.23 l 600 -0.23 l h
700 28.637 m f*
0 g
700 28.637 m 700 -0.23 l 600 -0.23 l h
700 28.637 m S
0.85098 g
775 158.539 m 750 259.578 l 800 172.973 l h
775 158.539 m f*
0 g
775 158.539 m 750 259.578 l 800 172.973 l h
775 158.539 m S
0.85098 g
675 71.938 m 600 -0.23 l 650 86.371 l h
675 71.938 m f*
0 g
675 71.938 m 600 -0.23 l 650 86.371 l h
675 71.938 m S
0.85098 g
400 1010.133 m 300 1039 l 400 1039 l h
400 1010.133 m f*
0 g
400 1010.133 m 300 1039 l 400 1039 l h
400 1010.133 m S
0.85098 g
375 966.832 m 350 952.398 l 300 1039 l h
375 966.832 m f*
0 g
375 966.832 m 350 952.398 l 300 1039 l h
375 966.832 m S
0.85098 g
525 966.832 m 600 1039 l 550 952.398 l h
525 966.832 m f*
0 g
525 966.832 m 600 1039 l 550 952.398 l h
525 966.832 m S
0.85098 g
425 880.23 m 450 779.191 l 400 865.793 l h
425 880.23 m f*
0 g
425 880.23 m 450 779.191 l 400 865.793 l h
425 880.23 m S
0.85098 g
500 1010.133 m 500 1039 l 600 1039 l h
500 1010.133 m f*
0 g
500 1010.133 m 500 1039 l 600 1039 l h
500 1010.133 m S
0.85098 g
475 880.23 m 500 865.793 l 450 779.191 l h
475 880.23 m f*
0 g
475 880.23 m 500 865.793 l 450 779.191 l h
475 880.23 m S
0.85098 g
675 851.359 m 700 865.793 l 750 779.191 l h
675 851.359 m f*
0 g
675 851.359 m 700 865.793 l 750 779.191 l h
675 851.359 m S
0.85098 g
650 808.059 m 750 779.191 l 650 779.191 l h
650 808.059 m f*
0 g
650 808.059 m 750 779.191 l 650 779.191 l h
650 808.059 m S
0.85098 g
575 937.965 m 550 952.398 l 600 1039 l h
575 937.965 m f*
0 g
575 937.965 m 550 952.398 l 600 1039 l h
575 937.965 m S
0.85098 g
550 808.059 m 550 779.191 l 450 779.191 l h
550 808.059 m f*
0 g
550 808.059 m 550 779.191 l 450 779.191 l h
550 808.059 m S
0.85098 g
625 937.965 m 600 1039 l 650 952.398 l h
625 937.965 m f*
0 g
625 937.965 m 600 1039 l 650 952.398 l h
625 937.965 m S
0.85098 g
525 851.359 m 450 779.191 l 500 865.793 l h
525 851.359 m f*
0 g
525 851.359 m 450 779.191 l 500 865.793 l h
525 851.359 m S
0.85098 g
550 750.324 m 450 779.191 l 550 779.191 l h
550 750.324 m f*
0 g
550 750.324 m 450 779.191 l 550 779.191 l h
550 750.324 m S
0.85098 g
525 707.023 m 500 692.59 l 450 779.191 l h
525 707.023 m f*
0 g
525 707.023 m 500 692.59 l 450 779.191 l h
525 707.023 m S
0.85098 g
675 707.023 m 750 779.191 l 700 692.59 l h
675 707.023 m f*
0 g
675 707.023 m 750 779.191 l 700 692.59 l h
675 707.023 m S
0.85098 g
575 620.422 m 600 519.383 l 550 605.988 l h
575 620.422 m f*
0 g
575 620.422 m 600 519.383 l 550 605.988 l h
575 620.422 m S
0.85098 g
650 750.324 m 650 779.191 l 750 779.191 l h
650 750.324 m f*
0 g
650 750.324 m 650 779.191 l 750 779.191 l h
650 750.324 m S
0.85098 g
625 620.422 m 650 605.988 l 600 519.383 l h
625 620.422 m f*
0 g
625 620.422 m 650 605.988 l 600 519.383 l h
625 620.422 m S
0.85098 g
825 591.555 m 850 605.988 l 900 519.383 l h
825 591.555 m f*
0 g
825 591.555 m 850 605.988 l 900 519.383 l h
825 591.555 m S
0.85098 g
800 548.254 m 900 519.383 l 800 519.383 l h
800 548.254 m f*
0 g
800 548.254 m 900 519.383 l 800 519.383 l h
800 548.254 m S
0.85098 g
725 678.156 m 700 692.59 l 750 779.191 l h
725 678.156 m f*
0 g
725 678.156 m 700 692.59 l 750 779.191 l h
725 678.156 m S
0.85098 g
700 548.254 m 700 519.383 l 600 519.383 l h
700 548.254 m f*
0 g
700 548.254 m 700 519.383 l 600 519.383 l h
700 548.254 m S
0.85098 g
775 678.156 m 750 779.191 l 800 692.59 l h
775 678.156 m f*
0 g
775 678.156 m 750 779.191 l 800 692.59 l h
775 678.156 m S
0.85098 g
675 591.555 m 600 519.383 l 650 605.988 l h
675 591.555 m f*
0 g
675 591.555 m 600 519.383 l 650 605.988 l h
675 591.555 m S
0.85098 g
700 490.516 m 600 519.383 l 700 519.383 l h
700 490.516 m f*
0 g
700 490.516 m 600 519.383 l 700 519.383 l h
700 490.516 m S
0.85098 g
675 447.215 m 650 432.781 l 600 519.383 l h
675 447.215 m f*
0 g
675 447.215 m 650 432.781 l 600 519.383 l h
675 447.215 m S
0.85098 g
825 447.215 m 900 519.383 l 850 432.781 l h
825 447.215 m f*
0 g
825 447.215 m 900 519.383 l 850 432.781 l h
825 447.215 m S
0.85098 g
725 360.613 m 750 259.578 l 700 346.18 l h
725 360.613 m f*
0 g
725 360.613 m 750 259.578 l 700 346.18 l h
725 360.613 m S
0.85098 g
800 490.516 m 800 519.383 l 900 519.383 l h
800 490.516 m f*
0 g
800 490.516 m 800 519.383 l 900 519.383 l h
800 490.516 m S
0.85098 g
775 360.613 m 800 346.18 l 750 259.578 l h
775 360.613 m f*
0 g
775 360.613 m 800 346.18 l 750 259.578 l h
775 360.613 m S
0.85098 g
975 331.746 m 1000 346.18 l 1050 259.578 l h
975 331.746 m f*
0 g
975 331.746 m 1000 346.18 l 1050 259.578 l h
975 331.746 m S
0.85098 g
950 288.445 m 1050 259.578 l 950 259.578 l h
950 288.445 m f*
0 g
950 288.445 m 1050 259.578 l 950 259.578 l h
950 288.445 m S
0.85098 g
875 418.348 m 850 432.781 l 900 519.383 l h
875 418.348 m f*
0 g
875 418.348 m 850 432.781 l 900 519.383 l h
875 418.348 m S
0.85098 g
850 288.445 m 850 259.578 l 750 259.578 l h
850 288.445 m f*
0 g
850 288.445 m 850 259.578 l 750 259.578 l h
850 288.445 m S
0.85098 g
925 418.348 m 900 519.383 l 950 432.781 l h
925 418.348 m f*
0 g
925 418.348 m 900 519.383 l 950 432.781 l h
925 418.348 m S
0.85098 g
825 331.746 m 750 259.578 l 800 346.18 l h
825 331.746 m f*
0 g
825 331.746 m 750 259.578 l 800 346.18 l h
825 331.746 m S
0.85098 g
850 230.711 m 750 259.578 l 850 259.578 l h
850 230.711 m f*
0 g
850 230.711 m 750 259.578 l 850 259.578 l h
850 230.711 m S
0.85098 g
825 187.41 m 800 172.973 l 750 259.578 l h
825 187.41 m f*
0 g
825 187.41 m 800 172.973 l 750 259.578 l h
825 187.41 m S
0.85098 g
975 187.41 m 1050 259.578 l 1000 172.973 l h
975 187.41 m f*
0 g
975 187.41 m 1050 259.578 l 1000 172.973 l h
975 187.41 m S
0.85098 g
875 100.805 m 900 -0.23 l 850 86.371 l h
875 100.805 m f*
0 g
875 100.805 m 900 -0.23 l 850 86.371 l h
875 100.805 m S
0.85098 g
950 230.711 m 950 259.578 l 1050 259.578 l h
950 230.711 m f*
0 g
950 230.711 m 950 259.578 l 1050 259.578 l h
950 230.711 m S
0.85098 g
925 100.805 m 950 86.371 l 900 -0.23 l h
925 100.805 m f*
0 g
925 100.805 m 950 86.371 l 900 -0.23 l h
925 100.805 m S
0.85098 g
1125 71.938 m 1150 86.371 l 1200 -0.23 l h
1125 71.938 m f*
0 g
1125 71.938 m 1150 86.371 l 1200 -0.23 l h
1125 71.938 m S
0.85098 g
1100 28.637 m 1200 -0.23 l 1100 -0.23 l h
1100 28.637 m f*
0 g
1100 28.637 m 1200 -0.23 l 1100 -0.23 l h
1100 28.637 m S
0.85098 g
1025 158.539 m 1000 172.973 l 1050 259.578 l h
1025 158.539 m f*
0 g
1025 158.539 m 1000 172.973 l 1050 259.578 l h
1025 158.539 m S
0.85098 g
1000 28.637 m 1000 -0.23 l 900 -0.23 l h
1000 28.637 m f*
0 g
1000 28.637 m 1000 -0.23 l 900 -0.23 l h
1000 28.637 m S
0.85098 g
1075 158.539 m 1050 259.578 l 1100 172.973 l h
1075 158.539 m f*
0 g
1075 158.539 m 1050 259.578 l 1100 172.973 l h
1075 158.539 m S
0.85098 g
975 71.938 m 900 -0.23 l 950 86.371 l h
975 71.938 m f*
0 g
975 71.938 m 900 -0.23 l 950 86.371 l h
975 71.938 m S
0.85098 g
700 1010.133 m 600 1039 l 700 1039 l h
700 1010.133 m f*
0 g
700 1010.133 m 600 1039 l 700 1039 l h
700 1010.133 m S
0.85098 g
675 966.832 m 650 952.398 l 600 1039 l h
675 966.832 m f*
0 g
675 966.832 m 650 952.398 l 600 1039 l h
675 966.832 m S
0.85098 g
825 966.832 m 900 1039 l 850 952.398 l h
825 966.832 m f*
0 g
825 966.832 m 900 1039 l 850 952.398 l h
825 966.832 m S
0.85098 g
725 880.23 m 750 779.191 l 700 865.793 l h
725 880.23 m f*
0 g
725 880.23 m 750 779.191 l 700 865.793 l h
725 880.23 m S
0.85098 g
800 1010.133 m 800 1039 l 900 1039 l h
800 1010.133 m f*
0 g
800 1010.133 m 800 1039 l 900 1039 l h
800 1010.133 m S
0.85098 g
775 880.23 m 800 865.793 l 750 779.191 l h
775 880.23 m f*
0 g
775 880.23 m 800 865.793 l 750 779.191 l h
775 880.23 m S
0.85098 g
975 851.359 m 1000 865.793 l 1050 779.191 l h
975 851.359 m f*
0 g
975 851.359 m 1000 865.793 l 1050 779.191 l h
975 851.359 m S
0.85098 g
950 808.059 m 1050 779.191 l 950 779.191 l h
950 808.059 m f*
0 g
950 808.059 m 1050 779.191 l 950 779.191 l h
950 808.059 m S
0.85098 g
875 937.965 m 850 952.398 l 900 1039 l h
875 937.965 m f*
0 g
875 937.965 m 850 952.398 l 900 1039 l h
875 937.965 m S
0.85098 g
850 808.059 m 850 779.191 l 750 779.191 l h
850 808.059 m f*
0 g
850 808.059 m 850 779.191 l 750 779.191 l h
850 808.059 m S
0.85098 g
925 937.965 m 900 1039 l 950 952.398 l h
925 937.965 m f*
0 g
925 937.965 m 900 1039 l 950 952.398 l h
925 937.965 m S
0.85098 g
825 851.359 m 750 779.191 l 800 865.793 l h
825 851.359 m f*
0 g
825 851.359 m 750 779.191 l 800 865.793 l h
825 851.359 m S
0.85098 g
850 750.324 m 750 779.191 l 850 779.191 l h
850 750.324 m f*
0 g
850 750.324 m 750 779.191 l 850 779.191 l h
850 750.324 m S
0.85098 g
825 707.023 m 800 692.59 l 750 779.191 l h
825 707.023 m f*
0 g
825 707.023 m 800 692.59 l 750 779.191 l h
825 707.023 m S
0.85098 g
975 707.023 m 1050 779.191 l 1000 692.59 l h
975 707.023 m f*
0 g
975 707.023 m 1050 779.191 l 1000 692.59 l h
975 707.023 m S
0.85098 g
875 620.422 m 900 519.383 l 850 605.988 l h
875 620.422 m f*
0 g
875 620.422 m 900 519.383 l 850 605.988 l h
875 620.422 m S
0.85098 g
950 750.324 m 950 779.191 l 1050 779.191 l h
950 750.324 m f*
0 g
950 750.324 m 950 779.191 l 1050 779.191 l h
950 750.324 m S
0.85098 g
925 620.422 m 950 605.988 l 900 519.383 l h
925 620.422 m f*
0 g
925 620.422 m 950 605.988 l 900 519.383 l h
925 620.422 m S
0.85098 g
1125 591.555 m 1150 605.988 l 1200 519.383 l h
1125 591.555 m f*
0 g
1125 591.555 m 1150 605.988 l 1200 519.383 l h
1125 591.555 m S
0.85098 g
1100 548.254 m 1200 519.383 l 1100 519.383 l h
1100 548.254 m f*
0 g
1100 548.254 m 1200 519.383 l 1100 519.383 l h
1100 548.254 m S
0.85098 g
1025 678.156 m 1000 692.59 l 1050 779.191 l h
1025 678.156 m f*
0 g
1025 678.156 m 1000 692.59 l 1050 779.191 l h
1025 678.156 m S
0.85098 g
1000 548.254 m 1000 519.383 l 900 519.383 l h
1000 548.254 m f*
0 g
1000 548.254 m 1000 519.383 l 900 519.383 l h
1000 548.254 m S
0.85098 g
1075 678.156 m 1050 779.191 l 1100 692.59 l h
1075 678.156 m f*
0 g
1075 678.156 m 1050 779.191 l 1100 692.59 l h
1075 678.156 m S
0.85098 g
975 591.555 m 900 519.383 l 950 605.988 l h
975 591.555 m f*
0 g
975 591.555 m 900 519.383 l 950 605.988 l h
975 591.555 m S
0.85098 g
1000 490.516 m 900 519.383 l 1000 519.383 l h
1000 490.516 m f*
0 g
1000 490.516 m 900 519.383 l 1000 519.383 l h
1000 490.516 m S
0.85098 g
975 447.215 m 950 432.781 l 900 519.383 l h
975 447.215 m f*
0 g
975 447.215 m 950 432.781 l 900 519.383 l h
975 447.215 m S
0.85098 g
1125 447.215 m 1200 519.383 l 1150 432.781 l h
1125 447.215 m f*
0 g
1125 447.215 m 1200 519.383 l 1150 432.781 l h
1125 447.215 m S
0.85098 g
1025 360.613 m 1050 259.578 l 1000 346.18 l h
1025 360.613 m f*
0 g
1025 360.613 m 1050 259.578 l 1000 346.18 l h
1025 360.613 m S
0.85098 g
1100 490.516 m 1100 519.383 l 1200 519.383 l h
1100 490.516 m f*
0 g
1100 490.516 m 1100 519.383 l 1200 519.383 l h
1100 490.516 m S
0.85098 g
1075 360.613 m 1100 346.18 l 1050 259.578 l h
1075 360.613 m f*
0 g
1075 360.613 m 1100 346.18 l 1050 259.578 l h
1075 360.613 m S
0.85098 g
1175 418.348 m 1150 432.781 l 1200 519.383 l h
1175 418.348 m f*
0 g
1175 418.348 m 1150 432.781 l 1200 519.383 l h
1175 418.348 m S
0.85098 g
1150 288.445 m 1150 259.578 l 1050 259.578 l h
1150 288.445 m f*
0 g
1150 288.445 m 1150 259.578 l 1050 259.578 l h
1150 288.445 m S
1225 418.348 m 1200 519.383 l 1250 432.781 l h
1225 418.348 m S
0.85098 g
1125 331.746 m 1050 259.578 l 1100 346.18 l h
1125 331.746 m f*
0 g
1125 331.746 m 1050 259.578 l 1100 346.18 l h
1125 331.746 m S
0.85098 g
1150 230.711 m 1050 259.578 l 1150 259.578 l h
1150 230.711 m f*
0 g
1150 230.711 m 1050 259.578 l 1150 259.578 l h
1150 230.711 m S
0.85098 g
1125 187.41 m 1100 172.973 l 1050 259.578 l h
1125 187.41 m f*
0 g
1125 187.41 m 1100 172.973 l 1050 259.578 l h
1125 187.41 m S
0.85098 g
1175 100.805 m 1200 -0.23 l 1150 86.371 l h
1175 100.805 m f*
0 g
1175 100.805 m 1200 -0.23 l 1150 86.371 l h
1175 100.805 m S
1225 100.805 m 1250 86.371 l 1200 -0.23 l h
1225 100.805 m S
1300 28.637 m 1300 -0.23 l 1200 -0.23 l h
1300 28.637 m S
1275 71.938 m 1200 -0.23 l 1250 86.371 l h
1275 71.938 m S
0.85098 g
1000 1010.133 m 900 1039 l 1000 1039 l h
1000 1010.133 m f*
0 g
1000 1010.133 m 900 1039 l 1000 1039 l h
1000 1010.133 m S
0.85098 g
975 966.832 m 950 952.398 l 900 1039 l h
975 966.832 m f*
0 g
975 966.832 m 950 952.398 l 900 1039 l h
975 966.832 m S
0.85098 g
1125 966.832 m 1200 1039 l 1150 952.398 l h
1125 966.832 m f*
0 g
1125 966.832 m 1200 1039 l 1150 952.398 l h
1125 966.832 m S
0.85098 g
1025 880.23 m 1050 779.191 l 1000 865.793 l h
1025 880.23 m f*
0 g
1025 880.23 m 1050 779.191 l 1000 865.793 l h
1025 880.23 m S
0.85098 g
1100 1010.133 m 1100 1039 l 1200 1039 l h
1100 1010.133 m f*
0 g
1100 1010.133 m 1100 1039 l 1200 1039 l h
1100 1010.133 m S
0.85098 g
1075 880.23 m 1100 865.793 l 1050 779.191 l h
1075 880.23 m f*
0 g
1075 880.23 m 1100 865.793 l 1050 779.191 l h
1075 880.23 m S
0.85098 g
1175 937.965 m 1150 952.398 l 1200 1039 l h
1175 937.965 m f*
0 g
1175 937.965 m 1150 952.398 l 1200 1039 l h
1175 937.965 m S
0.85098 g
1150 808.059 m 1150 779.191 l 1050 779.191 l h
1150 808.059 m f*
0 g
1150 808.059 m 1150 779.191 l 1050 779.191 l h
1150 808.059 m S
1225 937.965 m 1200 1039 l 1250 952.398 l h
1225 937.965 m S
0.85098 g
1125 851.359 m 1050 779.191 l 1100 865.793 l h
1125 851.359 m f*
0 g
1125 851.359 m 1050 779.191 l 1100 865.793 l h
1125 851.359 m S
0.85098 g
1150 750.324 m 1050 779.191 l 1150 779.191 l h
1150 750.324 m f*
0 g
1150 750.324 m 1050 779.191 l 1150 779.191 l h
1150 750.324 m S
0.85098 g
1125 707.023 m 1100 692.59 l 1050 779.191 l h
1125 707.023 m f*
0 g
1125 707.023 m 1100 692.59 l 1050 779.191 l h
1125 707.023 m S
0.85098 g
1175 620.422 m 1200 519.383 l 1150 605.988 l h
1175 620.422 m f*
0 g
1175 620.422 m 1200 519.383 l 1150 605.988 l h
1175 620.422 m S
1225 620.422 m 1250 605.988 l 1200 519.383 l h
1225 620.422 m S
1300 548.254 m 1300 519.383 l 1200 519.383 l h
1300 548.254 m S
1275 591.555 m 1200 519.383 l 1250 605.988 l h
1275 591.555 m S
1300 490.516 m 1200 519.383 l 1300 519.383 l h
1300 490.516 m S
1275 447.215 m 1250 432.781 l 1200 519.383 l h
1275 447.215 m S
Q Q
showpage
%%Trailer
%%Trailer
cleartomark
countdictstack
exch sub { end } repeat
restore
%%EOF
