%!PS-Adobe-2.0 EPSF-2.0
%%BoundingBox: 0 0 1200 1039
%%HiResBoundingBox: 0.000000 0.000000 1200.000000 1039.000000
%%Creator: cairo 1.14.2 (http://cairographics.org)
%%CreationDate: Mon Sep  7 08:21:47 2015
%%DocumentData: Clean7Bit
%%LanguageLevel: 2
%%DocumentMedia: 423x367mm 1200 1039 0 () ()
%%EndComments
% EPSF created by ps2eps 1.68
%%BeginProlog
save
countdictstack
mark
newpath
/showpage {} def
/setpagedevice {pop} def
%%EndProlog
%%Page 1 1
%%BeginProlog
/languagelevel where
{ pop languagelevel } { 1 } ifelse
2 lt { /Helvetica findfont 12 scalefont setfont 50 500 moveto
  (This print job requires a PostScript Language Level 2 printer.) show
  showpage quit } if
/q { gsave } bind def
/Q { grestore } bind def
/cm { 6 array astore concat } bind def
/w { setlinewidth } bind def
/J { setlinecap } bind def
/j { setlinejoin } bind def
/M { setmiterlimit } bind def
/d { setdash } bind def
/m { moveto } bind def
/l { lineto } bind def
/c { curveto } bind def
/h { closepath } bind def
/re { exch dup neg 3 1 roll 5 3 roll moveto 0 rlineto
      0 exch rlineto 0 rlineto closepath } bind def
/S { stroke } bind def
/f { fill } bind def
/f* { eofill } bind def
/n { newpath } bind def
/W { clip } bind def
/W* { eoclip } bind def
/BT { } bind def
/ET { } bind def
/pdfmark where { pop globaldict /?pdfmark /exec load put }
    { globaldict begin /?pdfmark /pop load def /pdfmark
    /cleartomark load def end } ifelse
/BDC { mark 3 1 roll /BDC pdfmark } bind def
/EMC { mark /EMC pdfmark } bind def
/cairo_store_point { /cairo_point_y exch def /cairo_point_x exch def } def
/Tj { show currentpoint cairo_store_point } bind def
/TJ {
  {
    dup
    type /stringtype eq
    { show } { -0.001 mul 0 cairo_font_matrix dtransform rmoveto } ifelse
  } forall
  currentpoint cairo_store_point
} bind def
/cairo_selectfont { cairo_font_matrix aload pop pop pop 0 0 6 array astore
    cairo_font exch selectfont cairo_point_x cairo_point_y moveto } bind def
/Tf { pop /cairo_font exch def /cairo_font_matrix where
      { pop cairo_selectfont } if } bind def
/Td { matrix translate cairo_font_matrix matrix concatmatrix dup
      /cairo_font_matrix exch def dup 4 get exch 5 get cairo_store_point
      /cairo_font where { pop cairo_selectfont } if } bind def
/Tm { 2 copy 8 2 roll 6 array astore /cairo_font_matrix exch def
      cairo_store_point /cairo_font where { pop cairo_selectfont } if } bind def
/g { setgray } bind def
/rg { setrgbcolor } bind def
/d1 { setcachedevice } bind def
/cairo_set_page_size {
  % Change paper size, but only if different from previous paper size otherwise
  % duplex fails. PLRM specifies a tolerance of 5 pts when matching paper size
  % so we use the same when checking if the size changes.
  /setpagedevice where {
    pop currentpagedevice
    /PageSize known {
      2 copy
      currentpagedevice /PageSize get aload pop
      exch 4 1 roll
      sub abs 5 gt
      3 1 roll
      sub abs 5 gt
      or
    } {
      true
    } ifelse
    {
      2 array astore
      2 dict begin
        /PageSize exch def
        /ImagingBBox null def
      currentdict end
      setpagedevice
    } {
      pop pop
    } ifelse
  } {
    pop
  } ifelse
} def
%%EndProlog
%%BeginSetup
%%EndSetup
%%Page: 1 1
%%BeginPageSetup
%%PageMedia: 423x367mm
%%PageBoundingBox: 0 0 1200 1039
1200 1039 cairo_set_page_size
%%EndPageSetup
q 0 0 1200 1039 rectclip q
0.984314 g
0 0 1200 1039 rectfill
0.788235 g
1.875 w
0 J
1 j
[] 0.0 d
4 M 0 1039 1200 -1039.23 re S
0.85098 g
75 331.746 m 50 317.312 l 25 360.613 l 50 375.047 l 100 288.445 l h
75 331.746 m f*
0 g
2.5 w
75 331.746 m 50 317.312 l 25 360.613 l 50 375.047 l 100 288.445 l h
75 331.746 m S
0.85098 g
50 288.445 m 100 288.445 l 0 288.445 l 0 317.312 l 50 317.312 l h
50 288.445 m f*
0 g
50 288.445 m 100 288.445 l 0 288.445 l 0 317.312 l 50 317.312 l h
50 288.445 m S
-25 418.348 m 0 403.914 l -25 360.613 l -50 375.047 l 0 461.648 l h
-25 418.348 m S
-50 288.445 m -50 317.312 l 0 317.312 l 0 288.445 l -100 288.445 l h
-50 288.445 m S
0.85098 g
25 418.348 m 0 461.648 l 50 375.047 l 25 360.613 l 0 403.914 l h
25 418.348 m f*
0 g
25 418.348 m 0 461.648 l 50 375.047 l 25 360.613 l 0 403.914 l h
25 418.348 m S
-50 230.711 m -100 230.711 l 0 230.711 l 0 201.844 l -50 201.844 l h
-50 230.711 m S
0.85098 g
75 187.41 m 100 230.711 l 50 144.105 l 25 158.539 l 50 201.844 l h
75 187.41 m f*
0 g
75 187.41 m 100 230.711 l 50 144.105 l 25 158.539 l 50 201.844 l h
75 187.41 m S
-25 100.805 m 0 57.504 l -50 144.105 l -25 158.539 l 0 115.238 l h
-25 100.805 m S
0.85098 g
50 230.711 m 50 201.844 l 0 201.844 l 0 230.711 l 100 230.711 l h
50 230.711 m f*
0 g
50 230.711 m 50 201.844 l 0 201.844 l 0 230.711 l 100 230.711 l h
50 230.711 m S
0.85098 g
25 100.805 m 0 115.238 l 25 158.539 l 50 144.105 l 0 57.504 l h
25 100.805 m f*
0 g
25 100.805 m 0 115.238 l 25 158.539 l 50 144.105 l 0 57.504 l h
25 100.805 m S
0.85098 g
225 71.938 m 200 57.504 l 175 100.805 l 200 115.238 l 250 28.637 l h
225 71.938 m f*
0 g
225 71.938 m 200 57.504 l 175 100.805 l 200 115.238 l 250 28.637 l h
225 71.938 m S
0.85098 g
200 28.637 m 250 28.637 l 150 28.637 l 150 57.504 l 200 57.504 l h
200 28.637 m f*
0 g
200 28.637 m 250 28.637 l 150 28.637 l 150 57.504 l 200 57.504 l h
200 28.637 m S
0.85098 g
125 158.539 m 150 144.105 l 125 100.805 l 100 115.238 l 150 201.844 l h
125 158.539 m f*
0 g
125 158.539 m 150 144.105 l 125 100.805 l 100 115.238 l 150 201.844 l h
125 158.539 m S
0.85098 g
100 28.637 m 100 57.504 l 150 57.504 l 150 28.637 l 50 28.637 l h
100 28.637 m f*
0 g
100 28.637 m 100 57.504 l 150 57.504 l 150 28.637 l 50 28.637 l h
100 28.637 m S
0.85098 g
175 158.539 m 150 201.844 l 200 115.238 l 175 100.805 l 150 144.105 l h
175 158.539 m f*
0 g
175 158.539 m 150 201.844 l 200 115.238 l 175 100.805 l 150 144.105 l h
175 158.539 m S
0.85098 g
75 71.938 m 50 28.637 l 100 115.238 l 125 100.805 l 100 57.504 l h
75 71.938 m f*
0 g
75 71.938 m 50 28.637 l 100 115.238 l 125 100.805 l 100 57.504 l h
75 71.938 m S
0.85098 g
75 851.359 m 50 836.926 l 25 880.23 l 50 894.664 l 100 808.059 l h
75 851.359 m f*
0 g
75 851.359 m 50 836.926 l 25 880.23 l 50 894.664 l 100 808.059 l h
75 851.359 m S
0.85098 g
50 808.059 m 100 808.059 l 0 808.059 l 0 836.926 l 50 836.926 l h
50 808.059 m f*
0 g
50 808.059 m 100 808.059 l 0 808.059 l 0 836.926 l 50 836.926 l h
50 808.059 m S
-25 937.965 m 0 923.531 l -25 880.23 l -50 894.664 l 0 981.266 l h
-25 937.965 m S
-50 808.059 m -50 836.926 l 0 836.926 l 0 808.059 l -100 808.059 l h
-50 808.059 m S
0.85098 g
25 937.965 m 0 981.266 l 50 894.664 l 25 880.23 l 0 923.531 l h
25 937.965 m f*
0 g
25 937.965 m 0 981.266 l 50 894.664 l 25 880.23 l 0 923.531 l h
25 937.965 m S
-50 750.324 m -100 750.324 l 0 750.324 l 0 721.457 l -50 721.457 l h
-50 750.324 m S
0.85098 g
75 707.023 m 100 750.324 l 50 663.723 l 25 678.156 l 50 721.457 l h
75 707.023 m f*
0 g
75 707.023 m 100 750.324 l 50 663.723 l 25 678.156 l 50 721.457 l h
75 707.023 m S
-25 620.422 m 0 577.121 l -50 663.723 l -25 678.156 l 0 634.855 l h
-25 620.422 m S
0.85098 g
50 750.324 m 50 721.457 l 0 721.457 l 0 750.324 l 100 750.324 l h
50 750.324 m f*
0 g
50 750.324 m 50 721.457 l 0 721.457 l 0 750.324 l 100 750.324 l h
50 750.324 m S
0.85098 g
25 620.422 m 0 634.855 l 25 678.156 l 50 663.723 l 0 577.121 l h
25 620.422 m f*
0 g
25 620.422 m 0 634.855 l 25 678.156 l 50 663.723 l 0 577.121 l h
25 620.422 m S
0.85098 g
225 591.555 m 200 577.121 l 175 620.422 l 200 634.855 l 250 548.254 l h
225 591.555 m f*
0 g
225 591.555 m 200 577.121 l 175 620.422 l 200 634.855 l 250 548.254 l h
225 591.555 m S
0.85098 g
200 548.254 m 250 548.254 l 150 548.254 l 150 577.121 l 200 577.121 l h
200 548.254 m f*
0 g
200 548.254 m 250 548.254 l 150 548.254 l 150 577.121 l 200 577.121 l h
200 548.254 m S
0.85098 g
125 678.156 m 150 663.723 l 125 620.422 l 100 634.855 l 150 721.457 l h
125 678.156 m f*
0 g
125 678.156 m 150 663.723 l 125 620.422 l 100 634.855 l 150 721.457 l h
125 678.156 m S
0.85098 g
100 548.254 m 100 577.121 l 150 577.121 l 150 548.254 l 50 548.254 l h
100 548.254 m f*
0 g
100 548.254 m 100 577.121 l 150 577.121 l 150 548.254 l 50 548.254 l h
100 548.254 m S
0.85098 g
175 678.156 m 150 721.457 l 200 634.855 l 175 620.422 l 150 663.723 l h
175 678.156 m f*
0 g
175 678.156 m 150 721.457 l 200 634.855 l 175 620.422 l 150 663.723 l h
175 678.156 m S
0.85098 g
75 591.555 m 50 548.254 l 100 634.855 l 125 620.422 l 100 577.121 l h
75 591.555 m f*
0 g
75 591.555 m 50 548.254 l 100 634.855 l 125 620.422 l 100 577.121 l h
75 591.555 m S
0.85098 g
100 490.516 m 50 490.516 l 150 490.516 l 150 461.648 l 100 461.648 l h
100 490.516 m f*
0 g
100 490.516 m 50 490.516 l 150 490.516 l 150 461.648 l 100 461.648 l h
100 490.516 m S
0.85098 g
75 447.215 m 100 461.648 l 125 418.348 l 100 403.914 l 50 490.516 l h
75 447.215 m f*
0 g
75 447.215 m 100 461.648 l 125 418.348 l 100 403.914 l 50 490.516 l h
75 447.215 m S
0.85098 g
225 447.215 m 250 490.516 l 200 403.914 l 175 418.348 l 200 461.648 l h
225 447.215 m f*
0 g
225 447.215 m 250 490.516 l 200 403.914 l 175 418.348 l 200 461.648 l h
225 447.215 m S
0.85098 g
125 360.613 m 150 317.312 l 100 403.914 l 125 418.348 l 150 375.047 l h
125 360.613 m f*
0 g
125 360.613 m 150 317.312 l 100 403.914 l 125 418.348 l 150 375.047 l h
125 360.613 m S
0.85098 g
200 490.516 m 200 461.648 l 150 461.648 l 150 490.516 l 250 490.516 l h
200 490.516 m f*
0 g
200 490.516 m 200 461.648 l 150 461.648 l 150 490.516 l 250 490.516 l h
200 490.516 m S
0.85098 g
175 360.613 m 150 375.047 l 175 418.348 l 200 403.914 l 150 317.312 l h
175 360.613 m f*
0 g
175 360.613 m 150 375.047 l 175 418.348 l 200 403.914 l 150 317.312 l h
175 360.613 m S
0.85098 g
375 331.746 m 350 317.312 l 325 360.613 l 350 375.047 l 400 288.445 l h
375 331.746 m f*
0 g
375 331.746 m 350 317.312 l 325 360.613 l 350 375.047 l 400 288.445 l h
375 331.746 m S
0.85098 g
350 288.445 m 400 288.445 l 300 288.445 l 300 317.312 l 350 317.312 l h
350 288.445 m f*
0 g
350 288.445 m 400 288.445 l 300 288.445 l 300 317.312 l 350 317.312 l h
350 288.445 m S
0.85098 g
275 418.348 m 300 403.914 l 275 360.613 l 250 375.047 l 300 461.648 l h
275 418.348 m f*
0 g
275 418.348 m 300 403.914 l 275 360.613 l 250 375.047 l 300 461.648 l h
275 418.348 m S
0.85098 g
250 288.445 m 250 317.312 l 300 317.312 l 300 288.445 l 200 288.445 l h
250 288.445 m f*
0 g
250 288.445 m 250 317.312 l 300 317.312 l 300 288.445 l 200 288.445 l h
250 288.445 m S
0.85098 g
325 418.348 m 300 461.648 l 350 375.047 l 325 360.613 l 300 403.914 l h
325 418.348 m f*
0 g
325 418.348 m 300 461.648 l 350 375.047 l 325 360.613 l 300 403.914 l h
325 418.348 m S
0.85098 g
225 331.746 m 200 288.445 l 250 375.047 l 275 360.613 l 250 317.312 l h
225 331.746 m f*
0 g
225 331.746 m 200 288.445 l 250 375.047 l 275 360.613 l 250 317.312 l h
225 331.746 m S
0.85098 g
250 230.711 m 200 230.711 l 300 230.711 l 300 201.844 l 250 201.844 l h
250 230.711 m f*
0 g
250 230.711 m 200 230.711 l 300 230.711 l 300 201.844 l 250 201.844 l h
250 230.711 m S
0.85098 g
225 187.41 m 250 201.844 l 275 158.539 l 250 144.105 l 200 230.711 l h
225 187.41 m f*
0 g
225 187.41 m 250 201.844 l 275 158.539 l 250 144.105 l 200 230.711 l h
225 187.41 m S
0.85098 g
375 187.41 m 400 230.711 l 350 144.105 l 325 158.539 l 350 201.844 l h
375 187.41 m f*
0 g
375 187.41 m 400 230.711 l 350 144.105 l 325 158.539 l 350 201.844 l h
375 187.41 m S
0.85098 g
275 100.805 m 300 57.504 l 250 144.105 l 275 158.539 l 300 115.238 l h
275 100.805 m f*
0 g
275 100.805 m 300 57.504 l 250 144.105 l 275 158.539 l 300 115.238 l h
275 100.805 m S
0.85098 g
350 230.711 m 350 201.844 l 300 201.844 l 300 230.711 l 400 230.711 l h
350 230.711 m f*
0 g
350 230.711 m 350 201.844 l 300 201.844 l 300 230.711 l 400 230.711 l h
350 230.711 m S
0.85098 g
325 100.805 m 300 115.238 l 325 158.539 l 350 144.105 l 300 57.504 l h
325 100.805 m f*
0 g
325 100.805 m 300 115.238 l 325 158.539 l 350 144.105 l 300 57.504 l h
325 100.805 m S
0.85098 g
525 71.938 m 500 57.504 l 475 100.805 l 500 115.238 l 550 28.637 l h
525 71.938 m f*
0 g
525 71.938 m 500 57.504 l 475 100.805 l 500 115.238 l 550 28.637 l h
525 71.938 m S
0.85098 g
500 28.637 m 550 28.637 l 450 28.637 l 450 57.504 l 500 57.504 l h
500 28.637 m f*
0 g
500 28.637 m 550 28.637 l 450 28.637 l 450 57.504 l 500 57.504 l h
500 28.637 m S
0.85098 g
425 158.539 m 450 144.105 l 425 100.805 l 400 115.238 l 450 201.844 l h
425 158.539 m f*
0 g
425 158.539 m 450 144.105 l 425 100.805 l 400 115.238 l 450 201.844 l h
425 158.539 m S
0.85098 g
400 28.637 m 400 57.504 l 450 57.504 l 450 28.637 l 350 28.637 l h
400 28.637 m f*
0 g
400 28.637 m 400 57.504 l 450 57.504 l 450 28.637 l 350 28.637 l h
400 28.637 m S
0.85098 g
475 158.539 m 450 201.844 l 500 115.238 l 475 100.805 l 450 144.105 l h
475 158.539 m f*
0 g
475 158.539 m 450 201.844 l 500 115.238 l 475 100.805 l 450 144.105 l h
475 158.539 m S
0.85098 g
375 71.938 m 350 28.637 l 400 115.238 l 425 100.805 l 400 57.504 l h
375 71.938 m f*
0 g
375 71.938 m 350 28.637 l 400 115.238 l 425 100.805 l 400 57.504 l h
375 71.938 m S
0.85098 g
100 1010.133 m 50 1010.133 l 150 1010.133 l 150 981.266 l 100 981.266 l
 h
100 1010.133 m f*
0 g
100 1010.133 m 50 1010.133 l 150 1010.133 l 150 981.266 l 100 981.266 l
 h
100 1010.133 m S
0.85098 g
75 966.832 m 100 981.266 l 125 937.965 l 100 923.531 l 50 1010.133 l h
75 966.832 m f*
0 g
75 966.832 m 100 981.266 l 125 937.965 l 100 923.531 l 50 1010.133 l h
75 966.832 m S
0.85098 g
225 966.832 m 250 1010.133 l 200 923.531 l 175 937.965 l 200 981.266 l 
h
225 966.832 m f*
0 g
225 966.832 m 250 1010.133 l 200 923.531 l 175 937.965 l 200 981.266 l 
h
225 966.832 m S
0.85098 g
125 880.23 m 150 836.926 l 100 923.531 l 125 937.965 l 150 894.664 l h
125 880.23 m f*
0 g
125 880.23 m 150 836.926 l 100 923.531 l 125 937.965 l 150 894.664 l h
125 880.23 m S
0.85098 g
200 1010.133 m 200 981.266 l 150 981.266 l 150 1010.133 l 250 1010.133 
l h
200 1010.133 m f*
0 g
200 1010.133 m 200 981.266 l 150 981.266 l 150 1010.133 l 250 1010.133 
l h
200 1010.133 m S
0.85098 g
175 880.23 m 150 894.664 l 175 937.965 l 200 923.531 l 150 836.926 l h
175 880.23 m f*
0 g
175 880.23 m 150 894.664 l 175 937.965 l 200 923.531 l 150 836.926 l h
175 880.23 m S
0.85098 g
375 851.359 m 350 836.926 l 325 880.23 l 350 894.664 l 400 808.059 l h
375 851.359 m f*
0 g
375 851.359 m 350 836.926 l 325 880.23 l 350 894.664 l 400 808.059 l h
375 851.359 m S
0.85098 g
350 808.059 m 400 808.059 l 300 808.059 l 300 836.926 l 350 836.926 l h
350 808.059 m f*
0 g
350 808.059 m 400 808.059 l 300 808.059 l 300 836.926 l 350 836.926 l h
350 808.059 m S
0.85098 g
275 937.965 m 300 923.531 l 275 880.23 l 250 894.664 l 300 981.266 l h
275 937.965 m f*
0 g
275 937.965 m 300 923.531 l 275 880.23 l 250 894.664 l 300 981.266 l h
275 937.965 m S
0.85098 g
250 808.059 m 250 836.926 l 300 836.926 l 300 808.059 l 200 808.059 l h
250 808.059 m f*
0 g
250 808.059 m 250 836.926 l 300 836.926 l 300 808.059 l 200 808.059 l h
250 808.059 m S
0.85098 g
325 937.965 m 300 981.266 l 350 894.664 l 325 880.23 l 300 923.531 l h
325 937.965 m f*
0 g
325 937.965 m 300 981.266 l 350 894.664 l 325 880.23 l 300 923.531 l h
325 937.965 m S
0.85098 g
225 851.359 m 200 808.059 l 250 894.664 l 275 880.23 l 250 836.926 l h
225 851.359 m f*
0 g
225 851.359 m 200 808.059 l 250 894.664 l 275 880.23 l 250 836.926 l h
225 851.359 m S
0.85098 g
250 750.324 m 200 750.324 l 300 750.324 l 300 721.457 l 250 721.457 l h
250 750.324 m f*
0 g
250 750.324 m 200 750.324 l 300 750.324 l 300 721.457 l 250 721.457 l h
250 750.324 m S
0.85098 g
225 707.023 m 250 721.457 l 275 678.156 l 250 663.723 l 200 750.324 l h
225 707.023 m f*
0 g
225 707.023 m 250 721.457 l 275 678.156 l 250 663.723 l 200 750.324 l h
225 707.023 m S
0.85098 g
375 707.023 m 400 750.324 l 350 663.723 l 325 678.156 l 350 721.457 l h
375 707.023 m f*
0 g
375 707.023 m 400 750.324 l 350 663.723 l 325 678.156 l 350 721.457 l h
375 707.023 m S
0.85098 g
275 620.422 m 300 577.121 l 250 663.723 l 275 678.156 l 300 634.855 l h
275 620.422 m f*
0 g
275 620.422 m 300 577.121 l 250 663.723 l 275 678.156 l 300 634.855 l h
275 620.422 m S
0.85098 g
350 750.324 m 350 721.457 l 300 721.457 l 300 750.324 l 400 750.324 l h
350 750.324 m f*
0 g
350 750.324 m 350 721.457 l 300 721.457 l 300 750.324 l 400 750.324 l h
350 750.324 m S
0.85098 g
325 620.422 m 300 634.855 l 325 678.156 l 350 663.723 l 300 577.121 l h
325 620.422 m f*
0 g
325 620.422 m 300 634.855 l 325 678.156 l 350 663.723 l 300 577.121 l h
325 620.422 m S
0.85098 g
525 591.555 m 500 577.121 l 475 620.422 l 500 634.855 l 550 548.254 l h
525 591.555 m f*
0 g
525 591.555 m 500 577.121 l 475 620.422 l 500 634.855 l 550 548.254 l h
525 591.555 m S
0.85098 g
500 548.254 m 550 548.254 l 450 548.254 l 450 577.121 l 500 577.121 l h
500 548.254 m f*
0 g
500 548.254 m 550 548.254 l 450 548.254 l 450 577.121 l 500 577.121 l h
500 548.254 m S
0.85098 g
425 678.156 m 450 663.723 l 425 620.422 l 400 634.855 l 450 721.457 l h
425 678.156 m f*
0 g
425 678.156 m 450 663.723 l 425 620.422 l 400 634.855 l 450 721.457 l h
425 678.156 m S
0.85098 g
400 548.254 m 400 577.121 l 450 577.121 l 450 548.254 l 350 548.254 l h
400 548.254 m f*
0 g
400 548.254 m 400 577.121 l 450 577.121 l 450 548.254 l 350 548.254 l h
400 548.254 m S
0.85098 g
475 678.156 m 450 721.457 l 500 634.855 l 475 620.422 l 450 663.723 l h
475 678.156 m f*
0 g
475 678.156 m 450 721.457 l 500 634.855 l 475 620.422 l 450 663.723 l h
475 678.156 m S
0.85098 g
375 591.555 m 350 548.254 l 400 634.855 l 425 620.422 l 400 577.121 l h
375 591.555 m f*
0 g
375 591.555 m 350 548.254 l 400 634.855 l 425 620.422 l 400 577.121 l h
375 591.555 m S
0.85098 g
400 490.516 m 350 490.516 l 450 490.516 l 450 461.648 l 400 461.648 l h
400 490.516 m f*
0 g
400 490.516 m 350 490.516 l 450 490.516 l 450 461.648 l 400 461.648 l h
400 490.516 m S
0.85098 g
375 447.215 m 400 461.648 l 425 418.348 l 400 403.914 l 350 490.516 l h
375 447.215 m f*
0 g
375 447.215 m 400 461.648 l 425 418.348 l 400 403.914 l 350 490.516 l h
375 447.215 m S
0.85098 g
525 447.215 m 550 490.516 l 500 403.914 l 475 418.348 l 500 461.648 l h
525 447.215 m f*
0 g
525 447.215 m 550 490.516 l 500 403.914 l 475 418.348 l 500 461.648 l h
525 447.215 m S
0.85098 g
425 360.613 m 450 317.312 l 400 403.914 l 425 418.348 l 450 375.047 l h
425 360.613 m f*
0 g
425 360.613 m 450 317.312 l 400 403.914 l 425 418.348 l 450 375.047 l h
425 360.613 m S
0.85098 g
500 490.516 m 500 461.648 l 450 461.648 l 450 490.516 l 550 490.516 l h
500 490.516 m f*
0 g
500 490.516 m 500 461.648 l 450 461.648 l 450 490.516 l 550 490.516 l h
500 490.516 m S
0.85098 g
475 360.613 m 450 375.047 l 475 418.348 l 500 403.914 l 450 317.312 l h
475 360.613 m f*
0 g
475 360.613 m 450 375.047 l 475 418.348 l 500 403.914 l 450 317.312 l h
475 360.613 m S
0.85098 g
675 331.746 m 650 317.312 l 625 360.613 l 650 375.047 l 700 288.445 l h
675 331.746 m f*
0 g
675 331.746 m 650 317.312 l 625 360.613 l 650 375.047 l 700 288.445 l h
675 331.746 m S
0.85098 g
650 288.445 m 700 288.445 l 600 288.445 l 600 317.312 l 650 317.312 l h
650 288.445 m f*
0 g
650 288.445 m 700 288.445 l 600 288.445 l 600 317.312 l 650 317.312 l h
650 288.445 m S
0.85098 g
575 418.348 m 600 403.914 l 575 360.613 l 550 375.047 l 600 461.648 l h
575 418.348 m f*
0 g
575 418.348 m 600 403.914 l 575 360.613 l 550 375.047 l 600 461.648 l h
575 418.348 m S
0.85098 g
550 288.445 m 550 317.312 l 600 317.312 l 600 288.445 l 500 288.445 l h
550 288.445 m f*
0 g
550 288.445 m 550 317.312 l 600 317.312 l 600 288.445 l 500 288.445 l h
550 288.445 m S
0.85098 g
625 418.348 m 600 461.648 l 650 375.047 l 625 360.613 l 600 403.914 l h
625 418.348 m f*
0 g
625 418.348 m 600 461.648 l 650 375.047 l 625 360.613 l 600 403.914 l h
625 418.348 m S
0.85098 g
525 331.746 m 500 288.445 l 550 375.047 l 575 360.613 l 550 317.312 l h
525 331.746 m f*
0 g
525 331.746 m 500 288.445 l 550 375.047 l 575 360.613 l 550 317.312 l h
525 331.746 m S
0.85098 g
550 230.711 m 500 230.711 l 600 230.711 l 600 201.844 l 550 201.844 l h
550 230.711 m f*
0 g
550 230.711 m 500 230.711 l 600 230.711 l 600 201.844 l 550 201.844 l h
550 230.711 m S
0.85098 g
525 187.41 m 550 201.844 l 575 158.539 l 550 144.105 l 500 230.711 l h
525 187.41 m f*
0 g
525 187.41 m 550 201.844 l 575 158.539 l 550 144.105 l 500 230.711 l h
525 187.41 m S
0.85098 g
675 187.41 m 700 230.711 l 650 144.105 l 625 158.539 l 650 201.844 l h
675 187.41 m f*
0 g
675 187.41 m 700 230.711 l 650 144.105 l 625 158.539 l 650 201.844 l h
675 187.41 m S
0.85098 g
575 100.805 m 600 57.504 l 550 144.105 l 575 158.539 l 600 115.238 l h
575 100.805 m f*
0 g
575 100.805 m 600 57.504 l 550 144.105 l 575 158.539 l 600 115.238 l h
575 100.805 m S
0.85098 g
650 230.711 m 650 201.844 l 600 201.844 l 600 230.711 l 700 230.711 l h
650 230.711 m f*
0 g
650 230.711 m 650 201.844 l 600 201.844 l 600 230.711 l 700 230.711 l h
650 230.711 m S
0.85098 g
625 100.805 m 600 115.238 l 625 158.539 l 650 144.105 l 600 57.504 l h
625 100.805 m f*
0 g
625 100.805 m 600 115.238 l 625 158.539 l 650 144.105 l 600 57.504 l h
625 100.805 m S
0.85098 g
825 71.938 m 800 57.504 l 775 100.805 l 800 115.238 l 850 28.637 l h
825 71.938 m f*
0 g
825 71.938 m 800 57.504 l 775 100.805 l 800 115.238 l 850 28.637 l h
825 71.938 m S
0.85098 g
800 28.637 m 850 28.637 l 750 28.637 l 750 57.504 l 800 57.504 l h
800 28.637 m f*
0 g
800 28.637 m 850 28.637 l 750 28.637 l 750 57.504 l 800 57.504 l h
800 28.637 m S
0.85098 g
725 158.539 m 750 144.105 l 725 100.805 l 700 115.238 l 750 201.844 l h
725 158.539 m f*
0 g
725 158.539 m 750 144.105 l 725 100.805 l 700 115.238 l 750 201.844 l h
725 158.539 m S
0.85098 g
700 28.637 m 700 57.504 l 750 57.504 l 750 28.637 l 650 28.637 l h
700 28.637 m f*
0 g
700 28.637 m 700 57.504 l 750 57.504 l 750 28.637 l 650 28.637 l h
700 28.637 m S
0.85098 g
775 158.539 m 750 201.844 l 800 115.238 l 775 100.805 l 750 144.105 l h
775 158.539 m f*
0 g
775 158.539 m 750 201.844 l 800 115.238 l 775 100.805 l 750 144.105 l h
775 158.539 m S
0.85098 g
675 71.938 m 650 28.637 l 700 115.238 l 725 100.805 l 700 57.504 l h
675 71.938 m f*
0 g
675 71.938 m 650 28.637 l 700 115.238 l 725 100.805 l 700 57.504 l h
675 71.938 m S
0.85098 g
400 1010.133 m 350 1010.133 l 450 1010.133 l 450 981.266 l 400 981.266 
l h
400 1010.133 m f*
0 g
400 1010.133 m 350 1010.133 l 450 1010.133 l 450 981.266 l 400 981.266 
l h
400 1010.133 m S
0.85098 g
375 966.832 m 400 981.266 l 425 937.965 l 400 923.531 l 350 1010.133 l 
h
375 966.832 m f*
0 g
375 966.832 m 400 981.266 l 425 937.965 l 400 923.531 l 350 1010.133 l 
h
375 966.832 m S
0.85098 g
525 966.832 m 550 1010.133 l 500 923.531 l 475 937.965 l 500 981.266 l 
h
525 966.832 m f*
0 g
525 966.832 m 550 1010.133 l 500 923.531 l 475 937.965 l 500 981.266 l 
h
525 966.832 m S
0.85098 g
425 880.23 m 450 836.926 l 400 923.531 l 425 937.965 l 450 894.664 l h
425 880.23 m f*
0 g
425 880.23 m 450 836.926 l 400 923.531 l 425 937.965 l 450 894.664 l h
425 880.23 m S
0.85098 g
500 1010.133 m 500 981.266 l 450 981.266 l 450 1010.133 l 550 1010.133 
l h
500 1010.133 m f*
0 g
500 1010.133 m 500 981.266 l 450 981.266 l 450 1010.133 l 550 1010.133 
l h
500 1010.133 m S
0.85098 g
475 880.23 m 450 894.664 l 475 937.965 l 500 923.531 l 450 836.926 l h
475 880.23 m f*
0 g
475 880.23 m 450 894.664 l 475 937.965 l 500 923.531 l 450 836.926 l h
475 880.23 m S
0.85098 g
675 851.359 m 650 836.926 l 625 880.23 l 650 894.664 l 700 808.059 l h
675 851.359 m f*
0 g
675 851.359 m 650 836.926 l 625 880.23 l 650 894.664 l 700 808.059 l h
675 851.359 m S
0.85098 g
650 808.059 m 700 808.059 l 600 808.059 l 600 836.926 l 650 836.926 l h
650 808.059 m f*
0 g
650 808.059 m 700 808.059 l 600 808.059 l 600 836.926 l 650 836.926 l h
650 808.059 m S
0.85098 g
575 937.965 m 600 923.531 l 575 880.23 l 550 894.664 l 600 981.266 l h
575 937.965 m f*
0 g
575 937.965 m 600 923.531 l 575 880.23 l 550 894.664 l 600 981.266 l h
575 937.965 m S
0.85098 g
550 808.059 m 550 836.926 l 600 836.926 l 600 808.059 l 500 808.059 l h
550 808.059 m f*
0 g
550 808.059 m 550 836.926 l 600 836.926 l 600 808.059 l 500 808.059 l h
550 808.059 m S
0.85098 g
625 937.965 m 600 981.266 l 650 894.664 l 625 880.23 l 600 923.531 l h
625 937.965 m f*
0 g
625 937.965 m 600 981.266 l 650 894.664 l 625 880.23 l 600 923.531 l h
625 937.965 m S
0.85098 g
525 851.359 m 500 808.059 l 550 894.664 l 575 880.23 l 550 836.926 l h
525 851.359 m f*
0 g
525 851.359 m 500 808.059 l 550 894.664 l 575 880.23 l 550 836.926 l h
525 851.359 m S
0.85098 g
550 750.324 m 500 750.324 l 600 750.324 l 600 721.457 l 550 721.457 l h
550 750.324 m f*
0 g
550 750.324 m 500 750.324 l 600 750.324 l 600 721.457 l 550 721.457 l h
550 750.324 m S
0.85098 g
525 707.023 m 550 721.457 l 575 678.156 l 550 663.723 l 500 750.324 l h
525 707.023 m f*
0 g
525 707.023 m 550 721.457 l 575 678.156 l 550 663.723 l 500 750.324 l h
525 707.023 m S
0.85098 g
675 707.023 m 700 750.324 l 650 663.723 l 625 678.156 l 650 721.457 l h
675 707.023 m f*
0 g
675 707.023 m 700 750.324 l 650 663.723 l 625 678.156 l 650 721.457 l h
675 707.023 m S
0.85098 g
575 620.422 m 600 577.121 l 550 663.723 l 575 678.156 l 600 634.855 l h
575 620.422 m f*
0 g
575 620.422 m 600 577.121 l 550 663.723 l 575 678.156 l 600 634.855 l h
575 620.422 m S
0.85098 g
650 750.324 m 650 721.457 l 600 721.457 l 600 750.324 l 700 750.324 l h
650 750.324 m f*
0 g
650 750.324 m 650 721.457 l 600 721.457 l 600 750.324 l 700 750.324 l h
650 750.324 m S
0.85098 g
625 620.422 m 600 634.855 l 625 678.156 l 650 663.723 l 600 577.121 l h
625 620.422 m f*
0 g
625 620.422 m 600 634.855 l 625 678.156 l 650 663.723 l 600 577.121 l h
625 620.422 m S
0.85098 g
825 591.555 m 800 577.121 l 775 620.422 l 800 634.855 l 850 548.254 l h
825 591.555 m f*
0 g
825 591.555 m 800 577.121 l 775 620.422 l 800 634.855 l 850 548.254 l h
825 591.555 m S
0.85098 g
800 548.254 m 850 548.254 l 750 548.254 l 750 577.121 l 800 577.121 l h
800 548.254 m f*
0 g
800 548.254 m 850 548.254 l 750 548.254 l 750 577.121 l 800 577.121 l h
800 548.254 m S
0.85098 g
725 678.156 m 750 663.723 l 725 620.422 l 700 634.855 l 750 721.457 l h
725 678.156 m f*
0 g
725 678.156 m 750 663.723 l 725 620.422 l 700 634.855 l 750 721.457 l h
725 678.156 m S
0.85098 g
700 548.254 m 700 577.121 l 750 577.121 l 750 548.254 l 650 548.254 l h
700 548.254 m f*
0 g
700 548.254 m 700 577.121 l 750 577.121 l 750 548.254 l 650 548.254 l h
700 548.254 m S
0.85098 g
775 678.156 m 750 721.457 l 800 634.855 l 775 620.422 l 750 663.723 l h
775 678.156 m f*
0 g
775 678.156 m 750 721.457 l 800 634.855 l 775 620.422 l 750 663.723 l h
775 678.156 m S
0.85098 g
675 591.555 m 650 548.254 l 700 634.855 l 725 620.422 l 700 577.121 l h
675 591.555 m f*
0 g
675 591.555 m 650 548.254 l 700 634.855 l 725 620.422 l 700 577.121 l h
675 591.555 m S
0.85098 g
700 490.516 m 650 490.516 l 750 490.516 l 750 461.648 l 700 461.648 l h
700 490.516 m f*
0 g
700 490.516 m 650 490.516 l 750 490.516 l 750 461.648 l 700 461.648 l h
700 490.516 m S
0.85098 g
675 447.215 m 700 461.648 l 725 418.348 l 700 403.914 l 650 490.516 l h
675 447.215 m f*
0 g
675 447.215 m 700 461.648 l 725 418.348 l 700 403.914 l 650 490.516 l h
675 447.215 m S
0.85098 g
825 447.215 m 850 490.516 l 800 403.914 l 775 418.348 l 800 461.648 l h
825 447.215 m f*
0 g
825 447.215 m 850 490.516 l 800 403.914 l 775 418.348 l 800 461.648 l h
825 447.215 m S
0.85098 g
725 360.613 m 750 317.312 l 700 403.914 l 725 418.348 l 750 375.047 l h
725 360.613 m f*
0 g
725 360.613 m 750 317.312 l 700 403.914 l 725 418.348 l 750 375.047 l h
725 360.613 m S
0.85098 g
800 490.516 m 800 461.648 l 750 461.648 l 750 490.516 l 850 490.516 l h
800 490.516 m f*
0 g
800 490.516 m 800 461.648 l 750 461.648 l 750 490.516 l 850 490.516 l h
800 490.516 m S
0.85098 g
775 360.613 m 750 375.047 l 775 418.348 l 800 403.914 l 750 317.312 l h
775 360.613 m f*
0 g
775 360.613 m 750 375.047 l 775 418.348 l 800 403.914 l 750 317.312 l h
775 360.613 m S
0.85098 g
975 331.746 m 950 317.312 l 925 360.613 l 950 375.047 l 1000 288.445 l 
h
975 331.746 m f*
0 g
975 331.746 m 950 317.312 l 925 360.613 l 950 375.047 l 1000 288.445 l 
h
975 331.746 m S
0.85098 g
950 288.445 m 1000 288.445 l 900 288.445 l 900 317.312 l 950 317.312 l 
h
950 288.445 m f*
0 g
950 288.445 m 1000 288.445 l 900 288.445 l 900 317.312 l 950 317.312 l 
h
950 288.445 m S
0.85098 g
875 418.348 m 900 403.914 l 875 360.613 l 850 375.047 l 900 461.648 l h
875 418.348 m f*
0 g
875 418.348 m 900 403.914 l 875 360.613 l 850 375.047 l 900 461.648 l h
875 418.348 m S
0.85098 g
850 288.445 m 850 317.312 l 900 317.312 l 900 288.445 l 800 288.445 l h
850 288.445 m f*
0 g
850 288.445 m 850 317.312 l 900 317.312 l 900 288.445 l 800 288.445 l h
850 288.445 m S
0.85098 g
925 418.348 m 900 461.648 l 950 375.047 l 925 360.613 l 900 403.914 l h
925 418.348 m f*
0 g
925 418.348 m 900 461.648 l 950 375.047 l 925 360.613 l 900 403.914 l h
925 418.348 m S
0.85098 g
825 331.746 m 800 288.445 l 850 375.047 l 875 360.613 l 850 317.312 l h
825 331.746 m f*
0 g
825 331.746 m 800 288.445 l 850 375.047 l 875 360.613 l 850 317.312 l h
825 331.746 m S
0.85098 g
850 230.711 m 800 230.711 l 900 230.711 l 900 201.844 l 850 201.844 l h
850 230.711 m f*
0 g
850 230.711 m 800 230.711 l 900 230.711 l 900 201.844 l 850 201.844 l h
850 230.711 m S
0.85098 g
825 187.41 m 850 201.844 l 875 158.539 l 850 144.105 l 800 230.711 l h
825 187.41 m f*
0 g
825 187.41 m 850 201.844 l 875 158.539 l 850 144.105 l 800 230.711 l h
825 187.41 m S
0.85098 g
975 187.41 m 1000 230.711 l 950 144.105 l 925 158.539 l 950 201.844 l h
975 187.41 m f*
0 g
975 187.41 m 1000 230.711 l 950 144.105 l 925 158.539 l 950 201.844 l h
975 187.41 m S
0.85098 g
875 100.805 m 900 57.504 l 850 144.105 l 875 158.539 l 900 115.238 l h
875 100.805 m f*
0 g
875 100.805 m 900 57.504 l 850 144.105 l 875 158.539 l 900 115.238 l h
875 100.805 m S
0.85098 g
950 230.711 m 950 201.844 l 900 201.844 l 900 230.711 l 1000 230.711 l 
h
950 230.711 m f*
0 g
950 230.711 m 950 201.844 l 900 201.844 l 900 230.711 l 1000 230.711 l 
h
950 230.711 m S
0.85098 g
925 100.805 m 900 115.238 l 925 158.539 l 950 144.105 l 900 57.504 l h
925 100.805 m f*
0 g
925 100.805 m 900 115.238 l 925 158.539 l 950 144.105 l 900 57.504 l h
925 100.805 m S
0.85098 g
1125 71.938 m 1100 57.504 l 1075 100.805 l 1100 115.238 l 1150 28.637 l
 h
1125 71.938 m f*
0 g
1125 71.938 m 1100 57.504 l 1075 100.805 l 1100 115.238 l 1150 28.637 l
 h
1125 71.938 m S
0.85098 g
1100 28.637 m 1150 28.637 l 1050 28.637 l 1050 57.504 l 1100 57.504 l h
1100 28.637 m f*
0 g
1100 28.637 m 1150 28.637 l 1050 28.637 l 1050 57.504 l 1100 57.504 l h
1100 28.637 m S
0.85098 g
1025 158.539 m 1050 144.105 l 1025 100.805 l 1000 115.238 l 1050 201.844
 l h
1025 158.539 m f*
0 g
1025 158.539 m 1050 144.105 l 1025 100.805 l 1000 115.238 l 1050 201.844
 l h
1025 158.539 m S
0.85098 g
1000 28.637 m 1000 57.504 l 1050 57.504 l 1050 28.637 l 950 28.637 l h
1000 28.637 m f*
0 g
1000 28.637 m 1000 57.504 l 1050 57.504 l 1050 28.637 l 950 28.637 l h
1000 28.637 m S
0.85098 g
1075 158.539 m 1050 201.844 l 1100 115.238 l 1075 100.805 l 1050 144.105
 l h
1075 158.539 m f*
0 g
1075 158.539 m 1050 201.844 l 1100 115.238 l 1075 100.805 l 1050 144.105
 l h
1075 158.539 m S
0.85098 g
975 71.938 m 950 28.637 l 1000 115.238 l 1025 100.805 l 1000 57.504 l h
975 71.938 m f*
0 g
975 71.938 m 950 28.637 l 1000 115.238 l 1025 100.805 l 1000 57.504 l h
975 71.938 m S
0.85098 g
700 1010.133 m 650 1010.133 l 750 1010.133 l 750 981.266 l 700 981.266 
l h
700 1010.133 m f*
0 g
700 1010.133 m 650 1010.133 l 750 1010.133 l 750 981.266 l 700 981.266 
l h
700 1010.133 m S
0.85098 g
675 966.832 m 700 981.266 l 725 937.965 l 700 923.531 l 650 1010.133 l 
h
675 966.832 m f*
0 g
675 966.832 m 700 981.266 l 725 937.965 l 700 923.531 l 650 1010.133 l 
h
675 966.832 m S
0.85098 g
825 966.832 m 850 1010.133 l 800 923.531 l 775 937.965 l 800 981.266 l 
h
825 966.832 m f*
0 g
825 966.832 m 850 1010.133 l 800 923.531 l 775 937.965 l 800 981.266 l 
h
825 966.832 m S
0.85098 g
725 880.23 m 750 836.926 l 700 923.531 l 725 937.965 l 750 894.664 l h
725 880.23 m f*
0 g
725 880.23 m 750 836.926 l 700 923.531 l 725 937.965 l 750 894.664 l h
725 880.23 m S
0.85098 g
800 1010.133 m 800 981.266 l 750 981.266 l 750 1010.133 l 850 1010.133 
l h
800 1010.133 m f*
0 g
800 1010.133 m 800 981.266 l 750 981.266 l 750 1010.133 l 850 1010.133 
l h
800 1010.133 m S
0.85098 g
775 880.23 m 750 894.664 l 775 937.965 l 800 923.531 l 750 836.926 l h
775 880.23 m f*
0 g
775 880.23 m 750 894.664 l 775 937.965 l 800 923.531 l 750 836.926 l h
775 880.23 m S
0.85098 g
975 851.359 m 950 836.926 l 925 880.23 l 950 894.664 l 1000 808.059 l h
975 851.359 m f*
0 g
975 851.359 m 950 836.926 l 925 880.23 l 950 894.664 l 1000 808.059 l h
975 851.359 m S
0.85098 g
950 808.059 m 1000 808.059 l 900 808.059 l 900 836.926 l 950 836.926 l 
h
950 808.059 m f*
0 g
950 808.059 m 1000 808.059 l 900 808.059 l 900 836.926 l 950 836.926 l 
h
950 808.059 m S
0.85098 g
875 937.965 m 900 923.531 l 875 880.23 l 850 894.664 l 900 981.266 l h
875 937.965 m f*
0 g
875 937.965 m 900 923.531 l 875 880.23 l 850 894.664 l 900 981.266 l h
875 937.965 m S
0.85098 g
850 808.059 m 850 836.926 l 900 836.926 l 900 808.059 l 800 808.059 l h
850 808.059 m f*
0 g
850 808.059 m 850 836.926 l 900 836.926 l 900 808.059 l 800 808.059 l h
850 808.059 m S
0.85098 g
925 937.965 m 900 981.266 l 950 894.664 l 925 880.23 l 900 923.531 l h
925 937.965 m f*
0 g
925 937.965 m 900 981.266 l 950 894.664 l 925 880.23 l 900 923.531 l h
925 937.965 m S
0.85098 g
825 851.359 m 800 808.059 l 850 894.664 l 875 880.23 l 850 836.926 l h
825 851.359 m f*
0 g
825 851.359 m 800 808.059 l 850 894.664 l 875 880.23 l 850 836.926 l h
825 851.359 m S
0.85098 g
850 750.324 m 800 750.324 l 900 750.324 l 900 721.457 l 850 721.457 l h
850 750.324 m f*
0 g
850 750.324 m 800 750.324 l 900 750.324 l 900 721.457 l 850 721.457 l h
850 750.324 m S
0.85098 g
825 707.023 m 850 721.457 l 875 678.156 l 850 663.723 l 800 750.324 l h
825 707.023 m f*
0 g
825 707.023 m 850 721.457 l 875 678.156 l 850 663.723 l 800 750.324 l h
825 707.023 m S
0.85098 g
975 707.023 m 1000 750.324 l 950 663.723 l 925 678.156 l 950 721.457 l 
h
975 707.023 m f*
0 g
975 707.023 m 1000 750.324 l 950 663.723 l 925 678.156 l 950 721.457 l 
h
975 707.023 m S
0.85098 g
875 620.422 m 900 577.121 l 850 663.723 l 875 678.156 l 900 634.855 l h
875 620.422 m f*
0 g
875 620.422 m 900 577.121 l 850 663.723 l 875 678.156 l 900 634.855 l h
875 620.422 m S
0.85098 g
950 750.324 m 950 721.457 l 900 721.457 l 900 750.324 l 1000 750.324 l 
h
950 750.324 m f*
0 g
950 750.324 m 950 721.457 l 900 721.457 l 900 750.324 l 1000 750.324 l 
h
950 750.324 m S
0.85098 g
925 620.422 m 900 634.855 l 925 678.156 l 950 663.723 l 900 577.121 l h
925 620.422 m f*
0 g
925 620.422 m 900 634.855 l 925 678.156 l 950 663.723 l 900 577.121 l h
925 620.422 m S
0.85098 g
1125 591.555 m 1100 577.121 l 1075 620.422 l 1100 634.855 l 1150 548.254
 l h
1125 591.555 m f*
0 g
1125 591.555 m 1100 577.121 l 1075 620.422 l 1100 634.855 l 1150 548.254
 l h
1125 591.555 m S
0.85098 g
1100 548.254 m 1150 548.254 l 1050 548.254 l 1050 577.121 l 1100 577.121
 l h
1100 548.254 m f*
0 g
1100 548.254 m 1150 548.254 l 1050 548.254 l 1050 577.121 l 1100 577.121
 l h
1100 548.254 m S
0.85098 g
1025 678.156 m 1050 663.723 l 1025 620.422 l 1000 634.855 l 1050 721.457
 l h
1025 678.156 m f*
0 g
1025 678.156 m 1050 663.723 l 1025 620.422 l 1000 634.855 l 1050 721.457
 l h
1025 678.156 m S
0.85098 g
1000 548.254 m 1000 577.121 l 1050 577.121 l 1050 548.254 l 950 548.254
 l h
1000 548.254 m f*
0 g
1000 548.254 m 1000 577.121 l 1050 577.121 l 1050 548.254 l 950 548.254
 l h
1000 548.254 m S
0.85098 g
1075 678.156 m 1050 721.457 l 1100 634.855 l 1075 620.422 l 1050 663.723
 l h
1075 678.156 m f*
0 g
1075 678.156 m 1050 721.457 l 1100 634.855 l 1075 620.422 l 1050 663.723
 l h
1075 678.156 m S
0.85098 g
975 591.555 m 950 548.254 l 1000 634.855 l 1025 620.422 l 1000 577.121 
l h
975 591.555 m f*
0 g
975 591.555 m 950 548.254 l 1000 634.855 l 1025 620.422 l 1000 577.121 
l h
975 591.555 m S
0.85098 g
1000 490.516 m 950 490.516 l 1050 490.516 l 1050 461.648 l 1000 461.648
 l h
1000 490.516 m f*
0 g
1000 490.516 m 950 490.516 l 1050 490.516 l 1050 461.648 l 1000 461.648
 l h
1000 490.516 m S
0.85098 g
975 447.215 m 1000 461.648 l 1025 418.348 l 1000 403.914 l 950 490.516 
l h
975 447.215 m f*
0 g
975 447.215 m 1000 461.648 l 1025 418.348 l 1000 403.914 l 950 490.516 
l h
975 447.215 m S
0.85098 g
1125 447.215 m 1150 490.516 l 1100 403.914 l 1075 418.348 l 1100 461.648
 l h
1125 447.215 m f*
0 g
1125 447.215 m 1150 490.516 l 1100 403.914 l 1075 418.348 l 1100 461.648
 l h
1125 447.215 m S
0.85098 g
1025 360.613 m 1050 317.312 l 1000 403.914 l 1025 418.348 l 1050 375.047
 l h
1025 360.613 m f*
0 g
1025 360.613 m 1050 317.312 l 1000 403.914 l 1025 418.348 l 1050 375.047
 l h
1025 360.613 m S
0.85098 g
1100 490.516 m 1100 461.648 l 1050 461.648 l 1050 490.516 l 1150 490.516
 l h
1100 490.516 m f*
0 g
1100 490.516 m 1100 461.648 l 1050 461.648 l 1050 490.516 l 1150 490.516
 l h
1100 490.516 m S
0.85098 g
1075 360.613 m 1050 375.047 l 1075 418.348 l 1100 403.914 l 1050 317.312
 l h
1075 360.613 m f*
0 g
1075 360.613 m 1050 375.047 l 1075 418.348 l 1100 403.914 l 1050 317.312
 l h
1075 360.613 m S
1250 288.445 m 1300 288.445 l 1200 288.445 l 1200 317.312 l 1250 317.312
 l h
1250 288.445 m S
0.85098 g
1175 418.348 m 1200 403.914 l 1175 360.613 l 1150 375.047 l 1200 461.648
 l h
1175 418.348 m f*
0 g
1175 418.348 m 1200 403.914 l 1175 360.613 l 1150 375.047 l 1200 461.648
 l h
1175 418.348 m S
0.85098 g
1150 288.445 m 1150 317.312 l 1200 317.312 l 1200 288.445 l 1100 288.445
 l h
1150 288.445 m f*
0 g
1150 288.445 m 1150 317.312 l 1200 317.312 l 1200 288.445 l 1100 288.445
 l h
1150 288.445 m S
1225 418.348 m 1200 461.648 l 1250 375.047 l 1225 360.613 l 1200 403.914
 l h
1225 418.348 m S
0.85098 g
1125 331.746 m 1100 288.445 l 1150 375.047 l 1175 360.613 l 1150 317.312
 l h
1125 331.746 m f*
0 g
1125 331.746 m 1100 288.445 l 1150 375.047 l 1175 360.613 l 1150 317.312
 l h
1125 331.746 m S
0.85098 g
1150 230.711 m 1100 230.711 l 1200 230.711 l 1200 201.844 l 1150 201.844
 l h
1150 230.711 m f*
0 g
1150 230.711 m 1100 230.711 l 1200 230.711 l 1200 201.844 l 1150 201.844
 l h
1150 230.711 m S
0.85098 g
1125 187.41 m 1150 201.844 l 1175 158.539 l 1150 144.105 l 1100 230.711
 l h
1125 187.41 m f*
0 g
1125 187.41 m 1150 201.844 l 1175 158.539 l 1150 144.105 l 1100 230.711
 l h
1125 187.41 m S
0.85098 g
1175 100.805 m 1200 57.504 l 1150 144.105 l 1175 158.539 l 1200 115.238
 l h
1175 100.805 m f*
0 g
1175 100.805 m 1200 57.504 l 1150 144.105 l 1175 158.539 l 1200 115.238
 l h
1175 100.805 m S
1250 230.711 m 1250 201.844 l 1200 201.844 l 1200 230.711 l 1300 230.711
 l h
1250 230.711 m S
1225 100.805 m 1200 115.238 l 1225 158.539 l 1250 144.105 l 1200 57.504
 l h
1225 100.805 m S
0.85098 g
1000 1010.133 m 950 1010.133 l 1050 1010.133 l 1050 981.266 l 1000 981.266
 l h
1000 1010.133 m f*
0 g
1000 1010.133 m 950 1010.133 l 1050 1010.133 l 1050 981.266 l 1000 981.266
 l h
1000 1010.133 m S
0.85098 g
975 966.832 m 1000 981.266 l 1025 937.965 l 1000 923.531 l 950 1010.133
 l h
975 966.832 m f*
0 g
975 966.832 m 1000 981.266 l 1025 937.965 l 1000 923.531 l 950 1010.133
 l h
975 966.832 m S
0.85098 g
1125 966.832 m 1150 1010.133 l 1100 923.531 l 1075 937.965 l 1100 981.266
 l h
1125 966.832 m f*
0 g
1125 966.832 m 1150 1010.133 l 1100 923.531 l 1075 937.965 l 1100 981.266
 l h
1125 966.832 m S
0.85098 g
1025 880.23 m 1050 836.926 l 1000 923.531 l 1025 937.965 l 1050 894.664
 l h
1025 880.23 m f*
0 g
1025 880.23 m 1050 836.926 l 1000 923.531 l 1025 937.965 l 1050 894.664
 l h
1025 880.23 m S
0.85098 g
1100 1010.133 m 1100 981.266 l 1050 981.266 l 1050 1010.133 l 1150 1010.133
 l h
1100 1010.133 m f*
0 g
1100 1010.133 m 1100 981.266 l 1050 981.266 l 1050 1010.133 l 1150 1010.133
 l h
1100 1010.133 m S
0.85098 g
1075 880.23 m 1050 894.664 l 1075 937.965 l 1100 923.531 l 1050 836.926
 l h
1075 880.23 m f*
0 g
1075 880.23 m 1050 894.664 l 1075 937.965 l 1100 923.531 l 1050 836.926
 l h
1075 880.23 m S
1250 808.059 m 1300 808.059 l 1200 808.059 l 1200 836.926 l 1250 836.926
 l h
1250 808.059 m S
0.85098 g
1175 937.965 m 1200 923.531 l 1175 880.23 l 1150 894.664 l 1200 981.266
 l h
1175 937.965 m f*
0 g
1175 937.965 m 1200 923.531 l 1175 880.23 l 1150 894.664 l 1200 981.266
 l h
1175 937.965 m S
0.85098 g
1150 808.059 m 1150 836.926 l 1200 836.926 l 1200 808.059 l 1100 808.059
 l h
1150 808.059 m f*
0 g
1150 808.059 m 1150 836.926 l 1200 836.926 l 1200 808.059 l 1100 808.059
 l h
1150 808.059 m S
1225 937.965 m 1200 981.266 l 1250 894.664 l 1225 880.23 l 1200 923.531
 l h
1225 937.965 m S
0.85098 g
1125 851.359 m 1100 808.059 l 1150 894.664 l 1175 880.23 l 1150 836.926
 l h
1125 851.359 m f*
0 g
1125 851.359 m 1100 808.059 l 1150 894.664 l 1175 880.23 l 1150 836.926
 l h
1125 851.359 m S
0.85098 g
1150 750.324 m 1100 750.324 l 1200 750.324 l 1200 721.457 l 1150 721.457
 l h
1150 750.324 m f*
0 g
1150 750.324 m 1100 750.324 l 1200 750.324 l 1200 721.457 l 1150 721.457
 l h
1150 750.324 m S
0.85098 g
1125 707.023 m 1150 721.457 l 1175 678.156 l 1150 663.723 l 1100 750.324
 l h
1125 707.023 m f*
0 g
1125 707.023 m 1150 721.457 l 1175 678.156 l 1150 663.723 l 1100 750.324
 l h
1125 707.023 m S
0.85098 g
1175 620.422 m 1200 577.121 l 1150 663.723 l 1175 678.156 l 1200 634.855
 l h
1175 620.422 m f*
0 g
1175 620.422 m 1200 577.121 l 1150 663.723 l 1175 678.156 l 1200 634.855
 l h
1175 620.422 m S
1250 750.324 m 1250 721.457 l 1200 721.457 l 1200 750.324 l 1300 750.324
 l h
1250 750.324 m S
1225 620.422 m 1200 634.855 l 1225 678.156 l 1250 663.723 l 1200 577.121
 l h
1225 620.422 m S
Q Q
showpage
%%Trailer
%%Trailer
cleartomark
countdictstack
exch sub { end } repeat
restore
%%EOF
