%!PS-Adobe-2.0 EPSF-2.0
%%BoundingBox: 0 0 1200 1039
%%HiResBoundingBox: 0.000000 0.000000 1200.000000 1039.000000
%%Creator: cairo 1.14.2 (http://cairographics.org)
%%CreationDate: Mon Sep  7 08:21:47 2015
%%DocumentData: Clean7Bit
%%LanguageLevel: 2
%%DocumentMedia: 423x367mm 1200 1039 0 () ()
%%EndComments
% EPSF created by ps2eps 1.68
%%BeginProlog
save
countdictstack
mark
newpath
/showpage {} def
/setpagedevice {pop} def
%%EndProlog
%%Page 1 1
%%BeginProlog
/languagelevel where
{ pop languagelevel } { 1 } ifelse
2 lt { /Helvetica findfont 12 scalefont setfont 50 500 moveto
  (This print job requires a PostScript Language Level 2 printer.) show
  showpage quit } if
/q { gsave } bind def
/Q { grestore } bind def
/cm { 6 array astore concat } bind def
/w { setlinewidth } bind def
/J { setlinecap } bind def
/j { setlinejoin } bind def
/M { setmiterlimit } bind def
/d { setdash } bind def
/m { moveto } bind def
/l { lineto } bind def
/c { curveto } bind def
/h { closepath } bind def
/re { exch dup neg 3 1 roll 5 3 roll moveto 0 rlineto
      0 exch rlineto 0 rlineto closepath } bind def
/S { stroke } bind def
/f { fill } bind def
/f* { eofill } bind def
/n { newpath } bind def
/W { clip } bind def
/W* { eoclip } bind def
/BT { } bind def
/ET { } bind def
/pdfmark where { pop globaldict /?pdfmark /exec load put }
    { globaldict begin /?pdfmark /pop load def /pdfmark
    /cleartomark load def end } ifelse
/BDC { mark 3 1 roll /BDC pdfmark } bind def
/EMC { mark /EMC pdfmark } bind def
/cairo_store_point { /cairo_point_y exch def /cairo_point_x exch def } def
/Tj { show currentpoint cairo_store_point } bind def
/TJ {
  {
    dup
    type /stringtype eq
    { show } { -0.001 mul 0 cairo_font_matrix dtransform rmoveto } ifelse
  } forall
  currentpoint cairo_store_point
} bind def
/cairo_selectfont { cairo_font_matrix aload pop pop pop 0 0 6 array astore
    cairo_font exch selectfont cairo_point_x cairo_point_y moveto } bind def
/Tf { pop /cairo_font exch def /cairo_font_matrix where
      { pop cairo_selectfont } if } bind def
/Td { matrix translate cairo_font_matrix matrix concatmatrix dup
      /cairo_font_matrix exch def dup 4 get exch 5 get cairo_store_point
      /cairo_font where { pop cairo_selectfont } if } bind def
/Tm { 2 copy 8 2 roll 6 array astore /cairo_font_matrix exch def
      cairo_store_point /cairo_font where { pop cairo_selectfont } if } bind def
/g { setgray } bind def
/rg { setrgbcolor } bind def
/d1 { setcachedevice } bind def
/cairo_set_page_size {
  % Change paper size, but only if different from previous paper size otherwise
  % duplex fails. PLRM specifies a tolerance of 5 pts when matching paper size
  % so we use the same when checking if the size changes.
  /setpagedevice where {
    pop currentpagedevice
    /PageSize known {
      2 copy
      currentpagedevice /PageSize get aload pop
      exch 4 1 roll
      sub abs 5 gt
      3 1 roll
      sub abs 5 gt
      or
    } {
      true
    } ifelse
    {
      2 array astore
      2 dict begin
        /PageSize exch def
        /ImagingBBox null def
      currentdict end
      setpagedevice
    } {
      pop pop
    } ifelse
  } {
    pop
  } ifelse
} def
%%EndProlog
%%BeginSetup
%%EndSetup
%%Page: 1 1
%%BeginPageSetup
%%PageMedia: 423x367mm
%%PageBoundingBox: 0 0 1200 1039
1200 1039 cairo_set_page_size
%%EndPageSetup
q 0 0 1200 1039 rectclip q
0.984314 g
0 0 1200 1039 rectfill
0.788235 g
1.875 w
0 J
1 j
[] 0.0 d
4 M 0 1039 1200 -1039.23 re S
0 g
2.5 w
1 J
100 346.18 m 100 288.445 l S
50 259.578 m 100 288.445 l S
-50 432.781 m 0 461.648 l S
50 432.781 m 0 461.648 l S
100 172.973 m 100 230.711 l S
-50 86.371 m 0 57.504 l S
50 259.578 m 100 230.711 l S
50 86.371 m 0 57.504 l S
250 86.371 m 250 28.637 l S
200 -0.23 m 250 28.637 l S
100 172.973 m 150 201.844 l S
100 -0.23 m 50 28.637 l S
200 172.973 m 150 201.844 l S
50 86.371 m 50 28.637 l S
100 865.793 m 100 808.059 l S
50 779.191 m 100 808.059 l S
-50 952.398 m 0 981.266 l S
50 952.398 m 0 981.266 l S
100 692.59 m 100 750.324 l S
-50 605.988 m 0 577.121 l S
50 779.191 m 100 750.324 l S
50 605.988 m 0 577.121 l S
250 605.988 m 250 548.254 l S
200 519.383 m 250 548.254 l S
100 692.59 m 150 721.457 l S
100 519.383 m 50 548.254 l S
200 692.59 m 150 721.457 l S
50 605.988 m 50 548.254 l S
100 519.383 m 50 490.516 l S
50 432.781 m 50 490.516 l S
250 432.781 m 250 490.516 l S
100 346.18 m 150 317.312 l S
200 519.383 m 250 490.516 l S
200 346.18 m 150 317.312 l S
400 346.18 m 400 288.445 l S
350 259.578 m 400 288.445 l S
250 432.781 m 300 461.648 l S
250 259.578 m 200 288.445 l S
350 432.781 m 300 461.648 l S
200 346.18 m 200 288.445 l S
250 259.578 m 200 230.711 l S
200 172.973 m 200 230.711 l S
400 172.973 m 400 230.711 l S
250 86.371 m 300 57.504 l S
350 259.578 m 400 230.711 l S
350 86.371 m 300 57.504 l S
550 86.371 m 550 28.637 l S
500 -0.23 m 550 28.637 l S
400 172.973 m 450 201.844 l S
400 -0.23 m 350 28.637 l S
500 172.973 m 450 201.844 l S
350 86.371 m 350 28.637 l S
100 1039 m 50 1010.133 l S
50 952.398 m 50 1010.133 l S
250 952.398 m 250 1010.133 l S
100 865.793 m 150 836.926 l S
200 1039 m 250 1010.133 l S
200 865.793 m 150 836.926 l S
400 865.793 m 400 808.059 l S
350 779.191 m 400 808.059 l S
250 952.398 m 300 981.266 l S
250 779.191 m 200 808.059 l S
350 952.398 m 300 981.266 l S
200 865.793 m 200 808.059 l S
250 779.191 m 200 750.324 l S
200 692.59 m 200 750.324 l S
400 692.59 m 400 750.324 l S
250 605.988 m 300 577.121 l S
350 779.191 m 400 750.324 l S
350 605.988 m 300 577.121 l S
550 605.988 m 550 548.254 l S
500 519.383 m 550 548.254 l S
400 692.59 m 450 721.457 l S
400 519.383 m 350 548.254 l S
500 692.59 m 450 721.457 l S
350 605.988 m 350 548.254 l S
400 519.383 m 350 490.516 l S
350 432.781 m 350 490.516 l S
550 432.781 m 550 490.516 l S
400 346.18 m 450 317.312 l S
500 519.383 m 550 490.516 l S
500 346.18 m 450 317.312 l S
700 346.18 m 700 288.445 l S
650 259.578 m 700 288.445 l S
550 432.781 m 600 461.648 l S
550 259.578 m 500 288.445 l S
650 432.781 m 600 461.648 l S
500 346.18 m 500 288.445 l S
550 259.578 m 500 230.711 l S
500 172.973 m 500 230.711 l S
700 172.973 m 700 230.711 l S
550 86.371 m 600 57.504 l S
650 259.578 m 700 230.711 l S
650 86.371 m 600 57.504 l S
850 86.371 m 850 28.637 l S
800 -0.23 m 850 28.637 l S
700 172.973 m 750 201.844 l S
700 -0.23 m 650 28.637 l S
800 172.973 m 750 201.844 l S
650 86.371 m 650 28.637 l S
400 1039 m 350 1010.133 l S
350 952.398 m 350 1010.133 l S
550 952.398 m 550 1010.133 l S
400 865.793 m 450 836.926 l S
500 1039 m 550 1010.133 l S
500 865.793 m 450 836.926 l S
700 865.793 m 700 808.059 l S
650 779.191 m 700 808.059 l S
550 952.398 m 600 981.266 l S
550 779.191 m 500 808.059 l S
650 952.398 m 600 981.266 l S
500 865.793 m 500 808.059 l S
550 779.191 m 500 750.324 l S
500 692.59 m 500 750.324 l S
700 692.59 m 700 750.324 l S
550 605.988 m 600 577.121 l S
650 779.191 m 700 750.324 l S
650 605.988 m 600 577.121 l S
850 605.988 m 850 548.254 l S
800 519.383 m 850 548.254 l S
700 692.59 m 750 721.457 l S
700 519.383 m 650 548.254 l S
800 692.59 m 750 721.457 l S
650 605.988 m 650 548.254 l S
700 519.383 m 650 490.516 l S
650 432.781 m 650 490.516 l S
850 432.781 m 850 490.516 l S
700 346.18 m 750 317.312 l S
800 519.383 m 850 490.516 l S
800 346.18 m 750 317.312 l S
1000 346.18 m 1000 288.445 l S
950 259.578 m 1000 288.445 l S
850 432.781 m 900 461.648 l S
850 259.578 m 800 288.445 l S
950 432.781 m 900 461.648 l S
800 346.18 m 800 288.445 l S
850 259.578 m 800 230.711 l S
800 172.973 m 800 230.711 l S
1000 172.973 m 1000 230.711 l S
850 86.371 m 900 57.504 l S
950 259.578 m 1000 230.711 l S
950 86.371 m 900 57.504 l S
1150 86.371 m 1150 28.637 l S
1100 -0.23 m 1150 28.637 l S
1000 172.973 m 1050 201.844 l S
1000 -0.23 m 950 28.637 l S
1100 172.973 m 1050 201.844 l S
950 86.371 m 950 28.637 l S
700 1039 m 650 1010.133 l S
650 952.398 m 650 1010.133 l S
850 952.398 m 850 1010.133 l S
700 865.793 m 750 836.926 l S
800 1039 m 850 1010.133 l S
800 865.793 m 750 836.926 l S
1000 865.793 m 1000 808.059 l S
950 779.191 m 1000 808.059 l S
850 952.398 m 900 981.266 l S
850 779.191 m 800 808.059 l S
950 952.398 m 900 981.266 l S
800 865.793 m 800 808.059 l S
850 779.191 m 800 750.324 l S
800 692.59 m 800 750.324 l S
1000 692.59 m 1000 750.324 l S
850 605.988 m 900 577.121 l S
950 779.191 m 1000 750.324 l S
950 605.988 m 900 577.121 l S
1150 605.988 m 1150 548.254 l S
1100 519.383 m 1150 548.254 l S
1000 692.59 m 1050 721.457 l S
1000 519.383 m 950 548.254 l S
1100 692.59 m 1050 721.457 l S
950 605.988 m 950 548.254 l S
1000 519.383 m 950 490.516 l S
950 432.781 m 950 490.516 l S
1150 432.781 m 1150 490.516 l S
1000 346.18 m 1050 317.312 l S
1100 519.383 m 1150 490.516 l S
1100 346.18 m 1050 317.312 l S
1150 432.781 m 1200 461.648 l S
1150 259.578 m 1100 288.445 l S
1250 432.781 m 1200 461.648 l S
1100 346.18 m 1100 288.445 l S
1150 259.578 m 1100 230.711 l S
1100 172.973 m 1100 230.711 l S
1150 86.371 m 1200 57.504 l S
1250 86.371 m 1200 57.504 l S
1000 1039 m 950 1010.133 l S
950 952.398 m 950 1010.133 l S
1150 952.398 m 1150 1010.133 l S
1000 865.793 m 1050 836.926 l S
1100 1039 m 1150 1010.133 l S
1100 865.793 m 1050 836.926 l S
1150 952.398 m 1200 981.266 l S
1150 779.191 m 1100 808.059 l S
1250 952.398 m 1200 981.266 l S
1100 865.793 m 1100 808.059 l S
1150 779.191 m 1100 750.324 l S
1100 692.59 m 1100 750.324 l S
1150 605.988 m 1200 577.121 l S
1250 605.988 m 1200 577.121 l S
Q Q
showpage
%%Trailer
%%Trailer
cleartomark
countdictstack
exch sub { end } repeat
restore
%%EOF
