%!PS-Adobe-2.0 EPSF-2.0
%%BoundingBox: 0 0 1200 1039
%%HiResBoundingBox: 0.000000 0.000000 1200.000000 1039.000000
%%Creator: cairo 1.14.2 (http://cairographics.org)
%%CreationDate: Mon Sep  7 08:21:47 2015
%%DocumentData: Clean7Bit
%%LanguageLevel: 2
%%DocumentMedia: 423x367mm 1200 1039 0 () ()
%%EndComments
% EPSF created by ps2eps 1.68
%%BeginProlog
save
countdictstack
mark
newpath
/showpage {} def
/setpagedevice {pop} def
%%EndProlog
%%Page 1 1
%%BeginProlog
/languagelevel where
{ pop languagelevel } { 1 } ifelse
2 lt { /Helvetica findfont 12 scalefont setfont 50 500 moveto
  (This print job requires a PostScript Language Level 2 printer.) show
  showpage quit } if
/q { gsave } bind def
/Q { grestore } bind def
/cm { 6 array astore concat } bind def
/w { setlinewidth } bind def
/J { setlinecap } bind def
/j { setlinejoin } bind def
/M { setmiterlimit } bind def
/d { setdash } bind def
/m { moveto } bind def
/l { lineto } bind def
/c { curveto } bind def
/h { closepath } bind def
/re { exch dup neg 3 1 roll 5 3 roll moveto 0 rlineto
      0 exch rlineto 0 rlineto closepath } bind def
/S { stroke } bind def
/f { fill } bind def
/f* { eofill } bind def
/n { newpath } bind def
/W { clip } bind def
/W* { eoclip } bind def
/BT { } bind def
/ET { } bind def
/pdfmark where { pop globaldict /?pdfmark /exec load put }
    { globaldict begin /?pdfmark /pop load def /pdfmark
    /cleartomark load def end } ifelse
/BDC { mark 3 1 roll /BDC pdfmark } bind def
/EMC { mark /EMC pdfmark } bind def
/cairo_store_point { /cairo_point_y exch def /cairo_point_x exch def } def
/Tj { show currentpoint cairo_store_point } bind def
/TJ {
  {
    dup
    type /stringtype eq
    { show } { -0.001 mul 0 cairo_font_matrix dtransform rmoveto } ifelse
  } forall
  currentpoint cairo_store_point
} bind def
/cairo_selectfont { cairo_font_matrix aload pop pop pop 0 0 6 array astore
    cairo_font exch selectfont cairo_point_x cairo_point_y moveto } bind def
/Tf { pop /cairo_font exch def /cairo_font_matrix where
      { pop cairo_selectfont } if } bind def
/Td { matrix translate cairo_font_matrix matrix concatmatrix dup
      /cairo_font_matrix exch def dup 4 get exch 5 get cairo_store_point
      /cairo_font where { pop cairo_selectfont } if } bind def
/Tm { 2 copy 8 2 roll 6 array astore /cairo_font_matrix exch def
      cairo_store_point /cairo_font where { pop cairo_selectfont } if } bind def
/g { setgray } bind def
/rg { setrgbcolor } bind def
/d1 { setcachedevice } bind def
/cairo_set_page_size {
  % Change paper size, but only if different from previous paper size otherwise
  % duplex fails. PLRM specifies a tolerance of 5 pts when matching paper size
  % so we use the same when checking if the size changes.
  /setpagedevice where {
    pop currentpagedevice
    /PageSize known {
      2 copy
      currentpagedevice /PageSize get aload pop
      exch 4 1 roll
      sub abs 5 gt
      3 1 roll
      sub abs 5 gt
      or
    } {
      true
    } ifelse
    {
      2 array astore
      2 dict begin
        /PageSize exch def
        /ImagingBBox null def
      currentdict end
      setpagedevice
    } {
      pop pop
    } ifelse
  } {
    pop
  } ifelse
} def
%%EndProlog
%%BeginSetup
%%EndSetup
%%Page: 1 1
%%BeginPageSetup
%%PageMedia: 423x367mm
%%PageBoundingBox: 0 0 1200 1039
1200 1039 cairo_set_page_size
%%EndPageSetup
q 0 0 1200 1039 rectclip q
0.984314 g
0 0 1200 1039 rectfill
0.788235 g
1.875 w
0 J
1 j
[] 0.0 d
4 M 0 1039 1200 -1039.23 re S
0 g
2.5 w
1 J
50 375.047 m 50 317.312 l 100 346.18 l S
0 288.445 m 50 317.312 l 50 259.578 l S
-50 375.047 m 0 403.914 l -50 432.781 l S
0 288.445 m -50 317.312 l -50 259.578 l S
50 375.047 m 0 403.914 l 50 432.781 l S
0 230.711 m -50 201.844 l -50 259.578 l S
50 144.105 m 50 201.844 l 100 172.973 l S
-50 144.105 m 0 115.238 l -50 86.371 l S
0 230.711 m 50 201.844 l 50 259.578 l S
50 144.105 m 0 115.238 l 50 86.371 l S
200 115.238 m 200 57.504 l 250 86.371 l S
150 28.637 m 200 57.504 l 200 -0.23 l S
100 115.238 m 150 144.105 l 100 172.973 l S
150 28.637 m 100 57.504 l 100 -0.23 l S
200 115.238 m 150 144.105 l 200 172.973 l S
100 115.238 m 100 57.504 l 50 86.371 l S
50 894.664 m 50 836.926 l 100 865.793 l S
0 808.059 m 50 836.926 l 50 779.191 l S
-50 894.664 m 0 923.531 l -50 952.398 l S
0 808.059 m -50 836.926 l -50 779.191 l S
50 894.664 m 0 923.531 l 50 952.398 l S
0 750.324 m -50 721.457 l -50 779.191 l S
50 663.723 m 50 721.457 l 100 692.59 l S
-50 663.723 m 0 634.855 l -50 605.988 l S
0 750.324 m 50 721.457 l 50 779.191 l S
50 663.723 m 0 634.855 l 50 605.988 l S
200 634.855 m 200 577.121 l 250 605.988 l S
150 548.254 m 200 577.121 l 200 519.383 l S
100 634.855 m 150 663.723 l 100 692.59 l S
150 548.254 m 100 577.121 l 100 519.383 l S
200 634.855 m 150 663.723 l 200 692.59 l S
100 634.855 m 100 577.121 l 50 605.988 l S
150 490.516 m 100 461.648 l 100 519.383 l S
100 403.914 m 100 461.648 l 50 432.781 l S
200 403.914 m 200 461.648 l 250 432.781 l S
100 403.914 m 150 375.047 l 100 346.18 l S
150 490.516 m 200 461.648 l 200 519.383 l S
200 403.914 m 150 375.047 l 200 346.18 l S
350 375.047 m 350 317.312 l 400 346.18 l S
300 288.445 m 350 317.312 l 350 259.578 l S
250 375.047 m 300 403.914 l 250 432.781 l S
300 288.445 m 250 317.312 l 250 259.578 l S
350 375.047 m 300 403.914 l 350 432.781 l S
250 375.047 m 250 317.312 l 200 346.18 l S
300 230.711 m 250 201.844 l 250 259.578 l S
250 144.105 m 250 201.844 l 200 172.973 l S
350 144.105 m 350 201.844 l 400 172.973 l S
250 144.105 m 300 115.238 l 250 86.371 l S
300 230.711 m 350 201.844 l 350 259.578 l S
350 144.105 m 300 115.238 l 350 86.371 l S
500 115.238 m 500 57.504 l 550 86.371 l S
450 28.637 m 500 57.504 l 500 -0.23 l S
400 115.238 m 450 144.105 l 400 172.973 l S
450 28.637 m 400 57.504 l 400 -0.23 l S
500 115.238 m 450 144.105 l 500 172.973 l S
400 115.238 m 400 57.504 l 350 86.371 l S
150 1010.133 m 100 981.266 l 100 1039 l S
100 923.531 m 100 981.266 l 50 952.398 l S
200 923.531 m 200 981.266 l 250 952.398 l S
100 923.531 m 150 894.664 l 100 865.793 l S
150 1010.133 m 200 981.266 l 200 1039 l S
200 923.531 m 150 894.664 l 200 865.793 l S
350 894.664 m 350 836.926 l 400 865.793 l S
300 808.059 m 350 836.926 l 350 779.191 l S
250 894.664 m 300 923.531 l 250 952.398 l S
300 808.059 m 250 836.926 l 250 779.191 l S
350 894.664 m 300 923.531 l 350 952.398 l S
250 894.664 m 250 836.926 l 200 865.793 l S
300 750.324 m 250 721.457 l 250 779.191 l S
250 663.723 m 250 721.457 l 200 692.59 l S
350 663.723 m 350 721.457 l 400 692.59 l S
250 663.723 m 300 634.855 l 250 605.988 l S
300 750.324 m 350 721.457 l 350 779.191 l S
350 663.723 m 300 634.855 l 350 605.988 l S
500 634.855 m 500 577.121 l 550 605.988 l S
450 548.254 m 500 577.121 l 500 519.383 l S
400 634.855 m 450 663.723 l 400 692.59 l S
450 548.254 m 400 577.121 l 400 519.383 l S
500 634.855 m 450 663.723 l 500 692.59 l S
400 634.855 m 400 577.121 l 350 605.988 l S
450 490.516 m 400 461.648 l 400 519.383 l S
400 403.914 m 400 461.648 l 350 432.781 l S
500 403.914 m 500 461.648 l 550 432.781 l S
400 403.914 m 450 375.047 l 400 346.18 l S
450 490.516 m 500 461.648 l 500 519.383 l S
500 403.914 m 450 375.047 l 500 346.18 l S
650 375.047 m 650 317.312 l 700 346.18 l S
600 288.445 m 650 317.312 l 650 259.578 l S
550 375.047 m 600 403.914 l 550 432.781 l S
600 288.445 m 550 317.312 l 550 259.578 l S
650 375.047 m 600 403.914 l 650 432.781 l S
550 375.047 m 550 317.312 l 500 346.18 l S
600 230.711 m 550 201.844 l 550 259.578 l S
550 144.105 m 550 201.844 l 500 172.973 l S
650 144.105 m 650 201.844 l 700 172.973 l S
550 144.105 m 600 115.238 l 550 86.371 l S
600 230.711 m 650 201.844 l 650 259.578 l S
650 144.105 m 600 115.238 l 650 86.371 l S
800 115.238 m 800 57.504 l 850 86.371 l S
750 28.637 m 800 57.504 l 800 -0.23 l S
700 115.238 m 750 144.105 l 700 172.973 l S
750 28.637 m 700 57.504 l 700 -0.23 l S
800 115.238 m 750 144.105 l 800 172.973 l S
700 115.238 m 700 57.504 l 650 86.371 l S
450 1010.133 m 400 981.266 l 400 1039 l S
400 923.531 m 400 981.266 l 350 952.398 l S
500 923.531 m 500 981.266 l 550 952.398 l S
400 923.531 m 450 894.664 l 400 865.793 l S
450 1010.133 m 500 981.266 l 500 1039 l S
500 923.531 m 450 894.664 l 500 865.793 l S
650 894.664 m 650 836.926 l 700 865.793 l S
600 808.059 m 650 836.926 l 650 779.191 l S
550 894.664 m 600 923.531 l 550 952.398 l S
600 808.059 m 550 836.926 l 550 779.191 l S
650 894.664 m 600 923.531 l 650 952.398 l S
550 894.664 m 550 836.926 l 500 865.793 l S
600 750.324 m 550 721.457 l 550 779.191 l S
550 663.723 m 550 721.457 l 500 692.59 l S
650 663.723 m 650 721.457 l 700 692.59 l S
550 663.723 m 600 634.855 l 550 605.988 l S
600 750.324 m 650 721.457 l 650 779.191 l S
650 663.723 m 600 634.855 l 650 605.988 l S
800 634.855 m 800 577.121 l 850 605.988 l S
750 548.254 m 800 577.121 l 800 519.383 l S
700 634.855 m 750 663.723 l 700 692.59 l S
750 548.254 m 700 577.121 l 700 519.383 l S
800 634.855 m 750 663.723 l 800 692.59 l S
700 634.855 m 700 577.121 l 650 605.988 l S
750 490.516 m 700 461.648 l 700 519.383 l S
700 403.914 m 700 461.648 l 650 432.781 l S
800 403.914 m 800 461.648 l 850 432.781 l S
700 403.914 m 750 375.047 l 700 346.18 l S
750 490.516 m 800 461.648 l 800 519.383 l S
800 403.914 m 750 375.047 l 800 346.18 l S
950 375.047 m 950 317.312 l 1000 346.18 l S
900 288.445 m 950 317.312 l 950 259.578 l S
850 375.047 m 900 403.914 l 850 432.781 l S
900 288.445 m 850 317.312 l 850 259.578 l S
950 375.047 m 900 403.914 l 950 432.781 l S
850 375.047 m 850 317.312 l 800 346.18 l S
900 230.711 m 850 201.844 l 850 259.578 l S
850 144.105 m 850 201.844 l 800 172.973 l S
950 144.105 m 950 201.844 l 1000 172.973 l S
850 144.105 m 900 115.238 l 850 86.371 l S
900 230.711 m 950 201.844 l 950 259.578 l S
950 144.105 m 900 115.238 l 950 86.371 l S
1100 115.238 m 1100 57.504 l 1150 86.371 l S
1050 28.637 m 1100 57.504 l 1100 -0.23 l S
1000 115.238 m 1050 144.105 l 1000 172.973 l S
1050 28.637 m 1000 57.504 l 1000 -0.23 l S
1100 115.238 m 1050 144.105 l 1100 172.973 l S
1000 115.238 m 1000 57.504 l 950 86.371 l S
750 1010.133 m 700 981.266 l 700 1039 l S
700 923.531 m 700 981.266 l 650 952.398 l S
800 923.531 m 800 981.266 l 850 952.398 l S
700 923.531 m 750 894.664 l 700 865.793 l S
750 1010.133 m 800 981.266 l 800 1039 l S
800 923.531 m 750 894.664 l 800 865.793 l S
950 894.664 m 950 836.926 l 1000 865.793 l S
900 808.059 m 950 836.926 l 950 779.191 l S
850 894.664 m 900 923.531 l 850 952.398 l S
900 808.059 m 850 836.926 l 850 779.191 l S
950 894.664 m 900 923.531 l 950 952.398 l S
850 894.664 m 850 836.926 l 800 865.793 l S
900 750.324 m 850 721.457 l 850 779.191 l S
850 663.723 m 850 721.457 l 800 692.59 l S
950 663.723 m 950 721.457 l 1000 692.59 l S
850 663.723 m 900 634.855 l 850 605.988 l S
900 750.324 m 950 721.457 l 950 779.191 l S
950 663.723 m 900 634.855 l 950 605.988 l S
1100 634.855 m 1100 577.121 l 1150 605.988 l S
1050 548.254 m 1100 577.121 l 1100 519.383 l S
1000 634.855 m 1050 663.723 l 1000 692.59 l S
1050 548.254 m 1000 577.121 l 1000 519.383 l S
1100 634.855 m 1050 663.723 l 1100 692.59 l S
1000 634.855 m 1000 577.121 l 950 605.988 l S
1050 490.516 m 1000 461.648 l 1000 519.383 l S
1000 403.914 m 1000 461.648 l 950 432.781 l S
1100 403.914 m 1100 461.648 l 1150 432.781 l S
1000 403.914 m 1050 375.047 l 1000 346.18 l S
1050 490.516 m 1100 461.648 l 1100 519.383 l S
1100 403.914 m 1050 375.047 l 1100 346.18 l S
1200 288.445 m 1250 317.312 l 1250 259.578 l S
1150 375.047 m 1200 403.914 l 1150 432.781 l S
1200 288.445 m 1150 317.312 l 1150 259.578 l S
1250 375.047 m 1200 403.914 l 1250 432.781 l S
1150 375.047 m 1150 317.312 l 1100 346.18 l S
1200 230.711 m 1150 201.844 l 1150 259.578 l S
1150 144.105 m 1150 201.844 l 1100 172.973 l S
1150 144.105 m 1200 115.238 l 1150 86.371 l S
1200 230.711 m 1250 201.844 l 1250 259.578 l S
1250 144.105 m 1200 115.238 l 1250 86.371 l S
1050 1010.133 m 1000 981.266 l 1000 1039 l S
1000 923.531 m 1000 981.266 l 950 952.398 l S
1100 923.531 m 1100 981.266 l 1150 952.398 l S
1000 923.531 m 1050 894.664 l 1000 865.793 l S
1050 1010.133 m 1100 981.266 l 1100 1039 l S
1100 923.531 m 1050 894.664 l 1100 865.793 l S
1200 808.059 m 1250 836.926 l 1250 779.191 l S
1150 894.664 m 1200 923.531 l 1150 952.398 l S
1200 808.059 m 1150 836.926 l 1150 779.191 l S
1250 894.664 m 1200 923.531 l 1250 952.398 l S
1150 894.664 m 1150 836.926 l 1100 865.793 l S
1200 750.324 m 1150 721.457 l 1150 779.191 l S
1150 663.723 m 1150 721.457 l 1100 692.59 l S
1150 663.723 m 1200 634.855 l 1150 605.988 l S
1200 750.324 m 1250 721.457 l 1250 779.191 l S
1250 663.723 m 1200 634.855 l 1250 605.988 l S
Q Q
showpage
%%Trailer
%%Trailer
cleartomark
countdictstack
exch sub { end } repeat
restore
%%EOF
