%!PS-Adobe-2.0 EPSF-2.0
%%BoundingBox: 0 0 1800 800
%%HiResBoundingBox: 0.000000 0.000000 1800.000000 800.000000
%%Creator: cairo 1.14.2 (http://cairographics.org)
%%CreationDate: Mon Sep  7 08:21:47 2015
%%DocumentData: Clean7Bit
%%LanguageLevel: 2
%%DocumentMedia: 635x282mm 1800 800 0 () ()
%%EndComments
% EPSF created by ps2eps 1.68
%%BeginProlog
save
countdictstack
mark
newpath
/showpage {} def
/setpagedevice {pop} def
%%EndProlog
%%Page 1 1
%%BeginProlog
/languagelevel where
{ pop languagelevel } { 1 } ifelse
2 lt { /Helvetica findfont 12 scalefont setfont 50 500 moveto
  (This print job requires a PostScript Language Level 2 printer.) show
  showpage quit } if
/q { gsave } bind def
/Q { grestore } bind def
/cm { 6 array astore concat } bind def
/w { setlinewidth } bind def
/J { setlinecap } bind def
/j { setlinejoin } bind def
/M { setmiterlimit } bind def
/d { setdash } bind def
/m { moveto } bind def
/l { lineto } bind def
/c { curveto } bind def
/h { closepath } bind def
/re { exch dup neg 3 1 roll 5 3 roll moveto 0 rlineto
      0 exch rlineto 0 rlineto closepath } bind def
/S { stroke } bind def
/f { fill } bind def
/f* { eofill } bind def
/n { newpath } bind def
/W { clip } bind def
/W* { eoclip } bind def
/BT { } bind def
/ET { } bind def
/pdfmark where { pop globaldict /?pdfmark /exec load put }
    { globaldict begin /?pdfmark /pop load def /pdfmark
    /cleartomark load def end } ifelse
/BDC { mark 3 1 roll /BDC pdfmark } bind def
/EMC { mark /EMC pdfmark } bind def
/cairo_store_point { /cairo_point_y exch def /cairo_point_x exch def } def
/Tj { show currentpoint cairo_store_point } bind def
/TJ {
  {
    dup
    type /stringtype eq
    { show } { -0.001 mul 0 cairo_font_matrix dtransform rmoveto } ifelse
  } forall
  currentpoint cairo_store_point
} bind def
/cairo_selectfont { cairo_font_matrix aload pop pop pop 0 0 6 array astore
    cairo_font exch selectfont cairo_point_x cairo_point_y moveto } bind def
/Tf { pop /cairo_font exch def /cairo_font_matrix where
      { pop cairo_selectfont } if } bind def
/Td { matrix translate cairo_font_matrix matrix concatmatrix dup
      /cairo_font_matrix exch def dup 4 get exch 5 get cairo_store_point
      /cairo_font where { pop cairo_selectfont } if } bind def
/Tm { 2 copy 8 2 roll 6 array astore /cairo_font_matrix exch def
      cairo_store_point /cairo_font where { pop cairo_selectfont } if } bind def
/g { setgray } bind def
/rg { setrgbcolor } bind def
/d1 { setcachedevice } bind def
/cairo_set_page_size {
  % Change paper size, but only if different from previous paper size otherwise
  % duplex fails. PLRM specifies a tolerance of 5 pts when matching paper size
  % so we use the same when checking if the size changes.
  /setpagedevice where {
    pop currentpagedevice
    /PageSize known {
      2 copy
      currentpagedevice /PageSize get aload pop
      exch 4 1 roll
      sub abs 5 gt
      3 1 roll
      sub abs 5 gt
      or
    } {
      true
    } ifelse
    {
      2 array astore
      2 dict begin
        /PageSize exch def
        /ImagingBBox null def
      currentdict end
      setpagedevice
    } {
      pop pop
    } ifelse
  } {
    pop
  } ifelse
} def
%%EndProlog
%%BeginSetup
%%EndSetup
%%Page: 1 1
%%BeginPageSetup
%%PageMedia: 635x282mm
%%PageBoundingBox: 0 0 1800 800
1800 800 cairo_set_page_size
%%EndPageSetup
q 0 0 1800 800 rectclip q
0.984314 g
0 0 1800 800 rectfill
0.788235 g
1.875 w
0 J
1 j
[] 0.0 d
4 M 0 800 1800 -800 re S
0 g
2.5 w
1 J
150 600 m 50 666.668 l 150 800 l S
300 800 m 200 733.332 l 300 600 l S
150 400 m 50 466.668 l 150 600 l S
300 600 m 200 533.332 l 300 400 l S
150 200 m 50 266.668 l 150 400 l S
300 400 m 200 333.332 l 300 200 l S
150 0 m 50 66.668 l 150 200 l S
300 200 m 200 133.332 l 300 0 l S
450 600 m 350 666.668 l 450 800 l S
600 800 m 500 733.332 l 600 600 l S
450 400 m 350 466.668 l 450 600 l S
600 600 m 500 533.332 l 600 400 l S
450 200 m 350 266.668 l 450 400 l S
600 400 m 500 333.332 l 600 200 l S
450 0 m 350 66.668 l 450 200 l S
600 200 m 500 133.332 l 600 0 l S
750 600 m 650 666.668 l 750 800 l S
900 800 m 800 733.332 l 900 600 l S
750 400 m 650 466.668 l 750 600 l S
900 600 m 800 533.332 l 900 400 l S
750 200 m 650 266.668 l 750 400 l S
900 400 m 800 333.332 l 900 200 l S
750 0 m 650 66.668 l 750 200 l S
900 200 m 800 133.332 l 900 0 l S
1050 600 m 950 666.668 l 1050 800 l S
1200 800 m 1100 733.332 l 1200 600 l S
1050 400 m 950 466.668 l 1050 600 l S
1200 600 m 1100 533.332 l 1200 400 l S
1050 200 m 950 266.668 l 1050 400 l S
1200 400 m 1100 333.332 l 1200 200 l S
1050 0 m 950 66.668 l 1050 200 l S
1200 200 m 1100 133.332 l 1200 0 l S
1350 600 m 1250 666.668 l 1350 800 l S
1500 800 m 1400 733.332 l 1500 600 l S
1350 400 m 1250 466.668 l 1350 600 l S
1500 600 m 1400 533.332 l 1500 400 l S
1350 200 m 1250 266.668 l 1350 400 l S
1500 400 m 1400 333.332 l 1500 200 l S
1350 0 m 1250 66.668 l 1350 200 l S
1500 200 m 1400 133.332 l 1500 0 l S
1650 600 m 1550 666.668 l 1650 800 l S
1800 800 m 1700 733.332 l 1800 600 l S
1650 400 m 1550 466.668 l 1650 600 l S
1800 600 m 1700 533.332 l 1800 400 l S
1650 200 m 1550 266.668 l 1650 400 l S
1800 400 m 1700 333.332 l 1800 200 l S
1650 0 m 1550 66.668 l 1650 200 l S
1800 200 m 1700 133.332 l 1800 0 l S
Q Q
showpage
%%Trailer
%%Trailer
cleartomark
countdictstack
exch sub { end } repeat
restore
%%EOF
