%!PS-Adobe-2.0 EPSF-2.0
%%BoundingBox: 0 0 1800 800
%%HiResBoundingBox: 0.000000 0.000000 1800.000000 800.000000
%%Creator: cairo 1.14.2 (http://cairographics.org)
%%CreationDate: Mon Sep  7 08:21:47 2015
%%DocumentData: Clean7Bit
%%LanguageLevel: 2
%%DocumentMedia: 635x282mm 1800 800 0 () ()
%%EndComments
% EPSF created by ps2eps 1.68
%%BeginProlog
save
countdictstack
mark
newpath
/showpage {} def
/setpagedevice {pop} def
%%EndProlog
%%Page 1 1
%%BeginProlog
/languagelevel where
{ pop languagelevel } { 1 } ifelse
2 lt { /Helvetica findfont 12 scalefont setfont 50 500 moveto
  (This print job requires a PostScript Language Level 2 printer.) show
  showpage quit } if
/q { gsave } bind def
/Q { grestore } bind def
/cm { 6 array astore concat } bind def
/w { setlinewidth } bind def
/J { setlinecap } bind def
/j { setlinejoin } bind def
/M { setmiterlimit } bind def
/d { setdash } bind def
/m { moveto } bind def
/l { lineto } bind def
/c { curveto } bind def
/h { closepath } bind def
/re { exch dup neg 3 1 roll 5 3 roll moveto 0 rlineto
      0 exch rlineto 0 rlineto closepath } bind def
/S { stroke } bind def
/f { fill } bind def
/f* { eofill } bind def
/n { newpath } bind def
/W { clip } bind def
/W* { eoclip } bind def
/BT { } bind def
/ET { } bind def
/pdfmark where { pop globaldict /?pdfmark /exec load put }
    { globaldict begin /?pdfmark /pop load def /pdfmark
    /cleartomark load def end } ifelse
/BDC { mark 3 1 roll /BDC pdfmark } bind def
/EMC { mark /EMC pdfmark } bind def
/cairo_store_point { /cairo_point_y exch def /cairo_point_x exch def } def
/Tj { show currentpoint cairo_store_point } bind def
/TJ {
  {
    dup
    type /stringtype eq
    { show } { -0.001 mul 0 cairo_font_matrix dtransform rmoveto } ifelse
  } forall
  currentpoint cairo_store_point
} bind def
/cairo_selectfont { cairo_font_matrix aload pop pop pop 0 0 6 array astore
    cairo_font exch selectfont cairo_point_x cairo_point_y moveto } bind def
/Tf { pop /cairo_font exch def /cairo_font_matrix where
      { pop cairo_selectfont } if } bind def
/Td { matrix translate cairo_font_matrix matrix concatmatrix dup
      /cairo_font_matrix exch def dup 4 get exch 5 get cairo_store_point
      /cairo_font where { pop cairo_selectfont } if } bind def
/Tm { 2 copy 8 2 roll 6 array astore /cairo_font_matrix exch def
      cairo_store_point /cairo_font where { pop cairo_selectfont } if } bind def
/g { setgray } bind def
/rg { setrgbcolor } bind def
/d1 { setcachedevice } bind def
/cairo_set_page_size {
  % Change paper size, but only if different from previous paper size otherwise
  % duplex fails. PLRM specifies a tolerance of 5 pts when matching paper size
  % so we use the same when checking if the size changes.
  /setpagedevice where {
    pop currentpagedevice
    /PageSize known {
      2 copy
      currentpagedevice /PageSize get aload pop
      exch 4 1 roll
      sub abs 5 gt
      3 1 roll
      sub abs 5 gt
      or
    } {
      true
    } ifelse
    {
      2 array astore
      2 dict begin
        /PageSize exch def
        /ImagingBBox null def
      currentdict end
      setpagedevice
    } {
      pop pop
    } ifelse
  } {
    pop
  } ifelse
} def
%%EndProlog
%%BeginSetup
%%EndSetup
%%Page: 1 1
%%BeginPageSetup
%%PageMedia: 635x282mm
%%PageBoundingBox: 0 0 1800 800
1800 800 cairo_set_page_size
%%EndPageSetup
q 0 0 1800 800 rectclip q
0.984314 g
0 0 1800 800 rectfill
0.788235 g
1.875 w
0 J
1 j
[] 0.0 d
4 M 0 800 1800 -800 re S
0.85098 g
116.668 633.332 m 116.668 610.32 98.012 591.668 75 591.668 c 51.988 591.668
 33.332 610.32 33.332 633.332 c 33.332 656.344 51.988 675 75 675 c 98.012
 675 116.668 656.344 116.668 633.332 c h
116.668 633.332 m f
0 g
2.5 w
0 j
116.668 633.332 m 116.668 610.32 98.012 591.668 75 591.668 c 51.988 591.668
 33.332 610.32 33.332 633.332 c 33.332 656.344 51.988 675 75 675 c 98.012
 675 116.668 656.344 116.668 633.332 c h
116.668 633.332 m S
0.85098 g
266.668 766.668 m 266.668 743.656 248.012 725 225 725 c 201.988 725 183.332
 743.656 183.332 766.668 c 183.332 789.68 201.988 808.332 225 808.332 c 
248.012 808.332 266.668 789.68 266.668 766.668 c h
266.668 766.668 m f
0 g
266.668 766.668 m 266.668 743.656 248.012 725 225 725 c 201.988 725 183.332
 743.656 183.332 766.668 c 183.332 789.68 201.988 808.332 225 808.332 c 
248.012 808.332 266.668 789.68 266.668 766.668 c h
266.668 766.668 m S
0.85098 g
116.668 433.332 m 116.668 410.32 98.012 391.668 75 391.668 c 51.988 391.668
 33.332 410.32 33.332 433.332 c 33.332 456.344 51.988 475 75 475 c 98.012
 475 116.668 456.344 116.668 433.332 c h
116.668 433.332 m f
0 g
116.668 433.332 m 116.668 410.32 98.012 391.668 75 391.668 c 51.988 391.668
 33.332 410.32 33.332 433.332 c 33.332 456.344 51.988 475 75 475 c 98.012
 475 116.668 456.344 116.668 433.332 c h
116.668 433.332 m S
0.85098 g
266.668 566.668 m 266.668 543.656 248.012 525 225 525 c 201.988 525 183.332
 543.656 183.332 566.668 c 183.332 589.68 201.988 608.332 225 608.332 c 
248.012 608.332 266.668 589.68 266.668 566.668 c h
266.668 566.668 m f
0 g
266.668 566.668 m 266.668 543.656 248.012 525 225 525 c 201.988 525 183.332
 543.656 183.332 566.668 c 183.332 589.68 201.988 608.332 225 608.332 c 
248.012 608.332 266.668 589.68 266.668 566.668 c h
266.668 566.668 m S
0.85098 g
116.668 233.332 m 116.668 210.32 98.012 191.668 75 191.668 c 51.988 191.668
 33.332 210.32 33.332 233.332 c 33.332 256.344 51.988 275 75 275 c 98.012
 275 116.668 256.344 116.668 233.332 c h
116.668 233.332 m f
0 g
116.668 233.332 m 116.668 210.32 98.012 191.668 75 191.668 c 51.988 191.668
 33.332 210.32 33.332 233.332 c 33.332 256.344 51.988 275 75 275 c 98.012
 275 116.668 256.344 116.668 233.332 c h
116.668 233.332 m S
0.85098 g
266.668 366.668 m 266.668 343.656 248.012 325 225 325 c 201.988 325 183.332
 343.656 183.332 366.668 c 183.332 389.68 201.988 408.332 225 408.332 c 
248.012 408.332 266.668 389.68 266.668 366.668 c h
266.668 366.668 m f
0 g
266.668 366.668 m 266.668 343.656 248.012 325 225 325 c 201.988 325 183.332
 343.656 183.332 366.668 c 183.332 389.68 201.988 408.332 225 408.332 c 
248.012 408.332 266.668 389.68 266.668 366.668 c h
266.668 366.668 m S
0.85098 g
116.668 33.332 m 116.668 10.32 98.012 -8.332 75 -8.332 c 51.988 -8.332 
33.332 10.32 33.332 33.332 c 33.332 56.344 51.988 75 75 75 c 98.012 75 116.668
 56.344 116.668 33.332 c h
116.668 33.332 m f
0 g
116.668 33.332 m 116.668 10.32 98.012 -8.332 75 -8.332 c 51.988 -8.332 
33.332 10.32 33.332 33.332 c 33.332 56.344 51.988 75 75 75 c 98.012 75 116.668
 56.344 116.668 33.332 c h
116.668 33.332 m S
0.85098 g
266.668 166.668 m 266.668 143.656 248.012 125 225 125 c 201.988 125 183.332
 143.656 183.332 166.668 c 183.332 189.68 201.988 208.332 225 208.332 c 
248.012 208.332 266.668 189.68 266.668 166.668 c h
266.668 166.668 m f
0 g
266.668 166.668 m 266.668 143.656 248.012 125 225 125 c 201.988 125 183.332
 143.656 183.332 166.668 c 183.332 189.68 201.988 208.332 225 208.332 c 
248.012 208.332 266.668 189.68 266.668 166.668 c h
266.668 166.668 m S
0.85098 g
416.668 633.332 m 416.668 610.32 398.012 591.668 375 591.668 c 351.988 
591.668 333.332 610.32 333.332 633.332 c 333.332 656.344 351.988 675 375
 675 c 398.012 675 416.668 656.344 416.668 633.332 c h
416.668 633.332 m f
0 g
416.668 633.332 m 416.668 610.32 398.012 591.668 375 591.668 c 351.988 
591.668 333.332 610.32 333.332 633.332 c 333.332 656.344 351.988 675 375
 675 c 398.012 675 416.668 656.344 416.668 633.332 c h
416.668 633.332 m S
0.85098 g
566.668 766.668 m 566.668 743.656 548.012 725 525 725 c 501.988 725 483.332
 743.656 483.332 766.668 c 483.332 789.68 501.988 808.332 525 808.332 c 
548.012 808.332 566.668 789.68 566.668 766.668 c h
566.668 766.668 m f
0 g
566.668 766.668 m 566.668 743.656 548.012 725 525 725 c 501.988 725 483.332
 743.656 483.332 766.668 c 483.332 789.68 501.988 808.332 525 808.332 c 
548.012 808.332 566.668 789.68 566.668 766.668 c h
566.668 766.668 m S
0.85098 g
416.668 433.332 m 416.668 410.32 398.012 391.668 375 391.668 c 351.988 
391.668 333.332 410.32 333.332 433.332 c 333.332 456.344 351.988 475 375
 475 c 398.012 475 416.668 456.344 416.668 433.332 c h
416.668 433.332 m f
0 g
416.668 433.332 m 416.668 410.32 398.012 391.668 375 391.668 c 351.988 
391.668 333.332 410.32 333.332 433.332 c 333.332 456.344 351.988 475 375
 475 c 398.012 475 416.668 456.344 416.668 433.332 c h
416.668 433.332 m S
0.85098 g
566.668 566.668 m 566.668 543.656 548.012 525 525 525 c 501.988 525 483.332
 543.656 483.332 566.668 c 483.332 589.68 501.988 608.332 525 608.332 c 
548.012 608.332 566.668 589.68 566.668 566.668 c h
566.668 566.668 m f
0 g
566.668 566.668 m 566.668 543.656 548.012 525 525 525 c 501.988 525 483.332
 543.656 483.332 566.668 c 483.332 589.68 501.988 608.332 525 608.332 c 
548.012 608.332 566.668 589.68 566.668 566.668 c h
566.668 566.668 m S
0.85098 g
416.668 233.332 m 416.668 210.32 398.012 191.668 375 191.668 c 351.988 
191.668 333.332 210.32 333.332 233.332 c 333.332 256.344 351.988 275 375
 275 c 398.012 275 416.668 256.344 416.668 233.332 c h
416.668 233.332 m f
0 g
416.668 233.332 m 416.668 210.32 398.012 191.668 375 191.668 c 351.988 
191.668 333.332 210.32 333.332 233.332 c 333.332 256.344 351.988 275 375
 275 c 398.012 275 416.668 256.344 416.668 233.332 c h
416.668 233.332 m S
0.85098 g
566.668 366.668 m 566.668 343.656 548.012 325 525 325 c 501.988 325 483.332
 343.656 483.332 366.668 c 483.332 389.68 501.988 408.332 525 408.332 c 
548.012 408.332 566.668 389.68 566.668 366.668 c h
566.668 366.668 m f
0 g
566.668 366.668 m 566.668 343.656 548.012 325 525 325 c 501.988 325 483.332
 343.656 483.332 366.668 c 483.332 389.68 501.988 408.332 525 408.332 c 
548.012 408.332 566.668 389.68 566.668 366.668 c h
566.668 366.668 m S
0.85098 g
416.668 33.332 m 416.668 10.32 398.012 -8.332 375 -8.332 c 351.988 -8.332
 333.332 10.32 333.332 33.332 c 333.332 56.344 351.988 75 375 75 c 398.012
 75 416.668 56.344 416.668 33.332 c h
416.668 33.332 m f
0 g
416.668 33.332 m 416.668 10.32 398.012 -8.332 375 -8.332 c 351.988 -8.332
 333.332 10.32 333.332 33.332 c 333.332 56.344 351.988 75 375 75 c 398.012
 75 416.668 56.344 416.668 33.332 c h
416.668 33.332 m S
0.85098 g
566.668 166.668 m 566.668 143.656 548.012 125 525 125 c 501.988 125 483.332
 143.656 483.332 166.668 c 483.332 189.68 501.988 208.332 525 208.332 c 
548.012 208.332 566.668 189.68 566.668 166.668 c h
566.668 166.668 m f
0 g
566.668 166.668 m 566.668 143.656 548.012 125 525 125 c 501.988 125 483.332
 143.656 483.332 166.668 c 483.332 189.68 501.988 208.332 525 208.332 c 
548.012 208.332 566.668 189.68 566.668 166.668 c h
566.668 166.668 m S
0.85098 g
716.668 633.332 m 716.668 610.32 698.012 591.668 675 591.668 c 651.988 
591.668 633.332 610.32 633.332 633.332 c 633.332 656.344 651.988 675 675
 675 c 698.012 675 716.668 656.344 716.668 633.332 c h
716.668 633.332 m f
0 g
716.668 633.332 m 716.668 610.32 698.012 591.668 675 591.668 c 651.988 
591.668 633.332 610.32 633.332 633.332 c 633.332 656.344 651.988 675 675
 675 c 698.012 675 716.668 656.344 716.668 633.332 c h
716.668 633.332 m S
0.85098 g
866.668 766.668 m 866.668 743.656 848.012 725 825 725 c 801.988 725 783.332
 743.656 783.332 766.668 c 783.332 789.68 801.988 808.332 825 808.332 c 
848.012 808.332 866.668 789.68 866.668 766.668 c h
866.668 766.668 m f
0 g
866.668 766.668 m 866.668 743.656 848.012 725 825 725 c 801.988 725 783.332
 743.656 783.332 766.668 c 783.332 789.68 801.988 808.332 825 808.332 c 
848.012 808.332 866.668 789.68 866.668 766.668 c h
866.668 766.668 m S
0.85098 g
716.668 433.332 m 716.668 410.32 698.012 391.668 675 391.668 c 651.988 
391.668 633.332 410.32 633.332 433.332 c 633.332 456.344 651.988 475 675
 475 c 698.012 475 716.668 456.344 716.668 433.332 c h
716.668 433.332 m f
0 g
716.668 433.332 m 716.668 410.32 698.012 391.668 675 391.668 c 651.988 
391.668 633.332 410.32 633.332 433.332 c 633.332 456.344 651.988 475 675
 475 c 698.012 475 716.668 456.344 716.668 433.332 c h
716.668 433.332 m S
0.85098 g
866.668 566.668 m 866.668 543.656 848.012 525 825 525 c 801.988 525 783.332
 543.656 783.332 566.668 c 783.332 589.68 801.988 608.332 825 608.332 c 
848.012 608.332 866.668 589.68 866.668 566.668 c h
866.668 566.668 m f
0 g
866.668 566.668 m 866.668 543.656 848.012 525 825 525 c 801.988 525 783.332
 543.656 783.332 566.668 c 783.332 589.68 801.988 608.332 825 608.332 c 
848.012 608.332 866.668 589.68 866.668 566.668 c h
866.668 566.668 m S
0.85098 g
716.668 233.332 m 716.668 210.32 698.012 191.668 675 191.668 c 651.988 
191.668 633.332 210.32 633.332 233.332 c 633.332 256.344 651.988 275 675
 275 c 698.012 275 716.668 256.344 716.668 233.332 c h
716.668 233.332 m f
0 g
716.668 233.332 m 716.668 210.32 698.012 191.668 675 191.668 c 651.988 
191.668 633.332 210.32 633.332 233.332 c 633.332 256.344 651.988 275 675
 275 c 698.012 275 716.668 256.344 716.668 233.332 c h
716.668 233.332 m S
0.85098 g
866.668 366.668 m 866.668 343.656 848.012 325 825 325 c 801.988 325 783.332
 343.656 783.332 366.668 c 783.332 389.68 801.988 408.332 825 408.332 c 
848.012 408.332 866.668 389.68 866.668 366.668 c h
866.668 366.668 m f
0 g
866.668 366.668 m 866.668 343.656 848.012 325 825 325 c 801.988 325 783.332
 343.656 783.332 366.668 c 783.332 389.68 801.988 408.332 825 408.332 c 
848.012 408.332 866.668 389.68 866.668 366.668 c h
866.668 366.668 m S
0.85098 g
716.668 33.332 m 716.668 10.32 698.012 -8.332 675 -8.332 c 651.988 -8.332
 633.332 10.32 633.332 33.332 c 633.332 56.344 651.988 75 675 75 c 698.012
 75 716.668 56.344 716.668 33.332 c h
716.668 33.332 m f
0 g
716.668 33.332 m 716.668 10.32 698.012 -8.332 675 -8.332 c 651.988 -8.332
 633.332 10.32 633.332 33.332 c 633.332 56.344 651.988 75 675 75 c 698.012
 75 716.668 56.344 716.668 33.332 c h
716.668 33.332 m S
0.85098 g
866.668 166.668 m 866.668 143.656 848.012 125 825 125 c 801.988 125 783.332
 143.656 783.332 166.668 c 783.332 189.68 801.988 208.332 825 208.332 c 
848.012 208.332 866.668 189.68 866.668 166.668 c h
866.668 166.668 m f
0 g
866.668 166.668 m 866.668 143.656 848.012 125 825 125 c 801.988 125 783.332
 143.656 783.332 166.668 c 783.332 189.68 801.988 208.332 825 208.332 c 
848.012 208.332 866.668 189.68 866.668 166.668 c h
866.668 166.668 m S
0.85098 g
1016.668 633.332 m 1016.668 610.32 998.012 591.668 975 591.668 c 951.988
 591.668 933.332 610.32 933.332 633.332 c 933.332 656.344 951.988 675 975
 675 c 998.012 675 1016.668 656.344 1016.668 633.332 c h
1016.668 633.332 m f
0 g
1016.668 633.332 m 1016.668 610.32 998.012 591.668 975 591.668 c 951.988
 591.668 933.332 610.32 933.332 633.332 c 933.332 656.344 951.988 675 975
 675 c 998.012 675 1016.668 656.344 1016.668 633.332 c h
1016.668 633.332 m S
0.85098 g
1166.668 766.668 m 1166.668 743.656 1148.012 725 1125 725 c 1101.988 725
 1083.332 743.656 1083.332 766.668 c 1083.332 789.68 1101.988 808.332 1125
 808.332 c 1148.012 808.332 1166.668 789.68 1166.668 766.668 c h
1166.668 766.668 m f
0 g
1166.668 766.668 m 1166.668 743.656 1148.012 725 1125 725 c 1101.988 725
 1083.332 743.656 1083.332 766.668 c 1083.332 789.68 1101.988 808.332 1125
 808.332 c 1148.012 808.332 1166.668 789.68 1166.668 766.668 c h
1166.668 766.668 m S
0.85098 g
1016.668 433.332 m 1016.668 410.32 998.012 391.668 975 391.668 c 951.988
 391.668 933.332 410.32 933.332 433.332 c 933.332 456.344 951.988 475 975
 475 c 998.012 475 1016.668 456.344 1016.668 433.332 c h
1016.668 433.332 m f
0 g
1016.668 433.332 m 1016.668 410.32 998.012 391.668 975 391.668 c 951.988
 391.668 933.332 410.32 933.332 433.332 c 933.332 456.344 951.988 475 975
 475 c 998.012 475 1016.668 456.344 1016.668 433.332 c h
1016.668 433.332 m S
0.85098 g
1166.668 566.668 m 1166.668 543.656 1148.012 525 1125 525 c 1101.988 525
 1083.332 543.656 1083.332 566.668 c 1083.332 589.68 1101.988 608.332 1125
 608.332 c 1148.012 608.332 1166.668 589.68 1166.668 566.668 c h
1166.668 566.668 m f
0 g
1166.668 566.668 m 1166.668 543.656 1148.012 525 1125 525 c 1101.988 525
 1083.332 543.656 1083.332 566.668 c 1083.332 589.68 1101.988 608.332 1125
 608.332 c 1148.012 608.332 1166.668 589.68 1166.668 566.668 c h
1166.668 566.668 m S
0.85098 g
1016.668 233.332 m 1016.668 210.32 998.012 191.668 975 191.668 c 951.988
 191.668 933.332 210.32 933.332 233.332 c 933.332 256.344 951.988 275 975
 275 c 998.012 275 1016.668 256.344 1016.668 233.332 c h
1016.668 233.332 m f
0 g
1016.668 233.332 m 1016.668 210.32 998.012 191.668 975 191.668 c 951.988
 191.668 933.332 210.32 933.332 233.332 c 933.332 256.344 951.988 275 975
 275 c 998.012 275 1016.668 256.344 1016.668 233.332 c h
1016.668 233.332 m S
0.85098 g
1166.668 366.668 m 1166.668 343.656 1148.012 325 1125 325 c 1101.988 325
 1083.332 343.656 1083.332 366.668 c 1083.332 389.68 1101.988 408.332 1125
 408.332 c 1148.012 408.332 1166.668 389.68 1166.668 366.668 c h
1166.668 366.668 m f
0 g
1166.668 366.668 m 1166.668 343.656 1148.012 325 1125 325 c 1101.988 325
 1083.332 343.656 1083.332 366.668 c 1083.332 389.68 1101.988 408.332 1125
 408.332 c 1148.012 408.332 1166.668 389.68 1166.668 366.668 c h
1166.668 366.668 m S
0.85098 g
1016.668 33.332 m 1016.668 10.32 998.012 -8.332 975 -8.332 c 951.988 -8.332
 933.332 10.32 933.332 33.332 c 933.332 56.344 951.988 75 975 75 c 998.012
 75 1016.668 56.344 1016.668 33.332 c h
1016.668 33.332 m f
0 g
1016.668 33.332 m 1016.668 10.32 998.012 -8.332 975 -8.332 c 951.988 -8.332
 933.332 10.32 933.332 33.332 c 933.332 56.344 951.988 75 975 75 c 998.012
 75 1016.668 56.344 1016.668 33.332 c h
1016.668 33.332 m S
0.85098 g
1166.668 166.668 m 1166.668 143.656 1148.012 125 1125 125 c 1101.988 125
 1083.332 143.656 1083.332 166.668 c 1083.332 189.68 1101.988 208.332 1125
 208.332 c 1148.012 208.332 1166.668 189.68 1166.668 166.668 c h
1166.668 166.668 m f
0 g
1166.668 166.668 m 1166.668 143.656 1148.012 125 1125 125 c 1101.988 125
 1083.332 143.656 1083.332 166.668 c 1083.332 189.68 1101.988 208.332 1125
 208.332 c 1148.012 208.332 1166.668 189.68 1166.668 166.668 c h
1166.668 166.668 m S
0.85098 g
1316.668 633.332 m 1316.668 610.32 1298.012 591.668 1275 591.668 c 1251.988
 591.668 1233.332 610.32 1233.332 633.332 c 1233.332 656.344 1251.988 675
 1275 675 c 1298.012 675 1316.668 656.344 1316.668 633.332 c h
1316.668 633.332 m f
0 g
1316.668 633.332 m 1316.668 610.32 1298.012 591.668 1275 591.668 c 1251.988
 591.668 1233.332 610.32 1233.332 633.332 c 1233.332 656.344 1251.988 675
 1275 675 c 1298.012 675 1316.668 656.344 1316.668 633.332 c h
1316.668 633.332 m S
0.85098 g
1466.668 766.668 m 1466.668 743.656 1448.012 725 1425 725 c 1401.988 725
 1383.332 743.656 1383.332 766.668 c 1383.332 789.68 1401.988 808.332 1425
 808.332 c 1448.012 808.332 1466.668 789.68 1466.668 766.668 c h
1466.668 766.668 m f
0 g
1466.668 766.668 m 1466.668 743.656 1448.012 725 1425 725 c 1401.988 725
 1383.332 743.656 1383.332 766.668 c 1383.332 789.68 1401.988 808.332 1425
 808.332 c 1448.012 808.332 1466.668 789.68 1466.668 766.668 c h
1466.668 766.668 m S
0.85098 g
1316.668 433.332 m 1316.668 410.32 1298.012 391.668 1275 391.668 c 1251.988
 391.668 1233.332 410.32 1233.332 433.332 c 1233.332 456.344 1251.988 475
 1275 475 c 1298.012 475 1316.668 456.344 1316.668 433.332 c h
1316.668 433.332 m f
0 g
1316.668 433.332 m 1316.668 410.32 1298.012 391.668 1275 391.668 c 1251.988
 391.668 1233.332 410.32 1233.332 433.332 c 1233.332 456.344 1251.988 475
 1275 475 c 1298.012 475 1316.668 456.344 1316.668 433.332 c h
1316.668 433.332 m S
0.85098 g
1466.668 566.668 m 1466.668 543.656 1448.012 525 1425 525 c 1401.988 525
 1383.332 543.656 1383.332 566.668 c 1383.332 589.68 1401.988 608.332 1425
 608.332 c 1448.012 608.332 1466.668 589.68 1466.668 566.668 c h
1466.668 566.668 m f
0 g
1466.668 566.668 m 1466.668 543.656 1448.012 525 1425 525 c 1401.988 525
 1383.332 543.656 1383.332 566.668 c 1383.332 589.68 1401.988 608.332 1425
 608.332 c 1448.012 608.332 1466.668 589.68 1466.668 566.668 c h
1466.668 566.668 m S
0.85098 g
1316.668 233.332 m 1316.668 210.32 1298.012 191.668 1275 191.668 c 1251.988
 191.668 1233.332 210.32 1233.332 233.332 c 1233.332 256.344 1251.988 275
 1275 275 c 1298.012 275 1316.668 256.344 1316.668 233.332 c h
1316.668 233.332 m f
0 g
1316.668 233.332 m 1316.668 210.32 1298.012 191.668 1275 191.668 c 1251.988
 191.668 1233.332 210.32 1233.332 233.332 c 1233.332 256.344 1251.988 275
 1275 275 c 1298.012 275 1316.668 256.344 1316.668 233.332 c h
1316.668 233.332 m S
0.85098 g
1466.668 366.668 m 1466.668 343.656 1448.012 325 1425 325 c 1401.988 325
 1383.332 343.656 1383.332 366.668 c 1383.332 389.68 1401.988 408.332 1425
 408.332 c 1448.012 408.332 1466.668 389.68 1466.668 366.668 c h
1466.668 366.668 m f
0 g
1466.668 366.668 m 1466.668 343.656 1448.012 325 1425 325 c 1401.988 325
 1383.332 343.656 1383.332 366.668 c 1383.332 389.68 1401.988 408.332 1425
 408.332 c 1448.012 408.332 1466.668 389.68 1466.668 366.668 c h
1466.668 366.668 m S
0.85098 g
1316.668 33.332 m 1316.668 10.32 1298.012 -8.332 1275 -8.332 c 1251.988
 -8.332 1233.332 10.32 1233.332 33.332 c 1233.332 56.344 1251.988 75 1275
 75 c 1298.012 75 1316.668 56.344 1316.668 33.332 c h
1316.668 33.332 m f
0 g
1316.668 33.332 m 1316.668 10.32 1298.012 -8.332 1275 -8.332 c 1251.988
 -8.332 1233.332 10.32 1233.332 33.332 c 1233.332 56.344 1251.988 75 1275
 75 c 1298.012 75 1316.668 56.344 1316.668 33.332 c h
1316.668 33.332 m S
0.85098 g
1466.668 166.668 m 1466.668 143.656 1448.012 125 1425 125 c 1401.988 125
 1383.332 143.656 1383.332 166.668 c 1383.332 189.68 1401.988 208.332 1425
 208.332 c 1448.012 208.332 1466.668 189.68 1466.668 166.668 c h
1466.668 166.668 m f
0 g
1466.668 166.668 m 1466.668 143.656 1448.012 125 1425 125 c 1401.988 125
 1383.332 143.656 1383.332 166.668 c 1383.332 189.68 1401.988 208.332 1425
 208.332 c 1448.012 208.332 1466.668 189.68 1466.668 166.668 c h
1466.668 166.668 m S
0.85098 g
1616.668 633.332 m 1616.668 610.32 1598.012 591.668 1575 591.668 c 1551.988
 591.668 1533.332 610.32 1533.332 633.332 c 1533.332 656.344 1551.988 675
 1575 675 c 1598.012 675 1616.668 656.344 1616.668 633.332 c h
1616.668 633.332 m f
0 g
1616.668 633.332 m 1616.668 610.32 1598.012 591.668 1575 591.668 c 1551.988
 591.668 1533.332 610.32 1533.332 633.332 c 1533.332 656.344 1551.988 675
 1575 675 c 1598.012 675 1616.668 656.344 1616.668 633.332 c h
1616.668 633.332 m S
0.85098 g
1766.668 766.668 m 1766.668 743.656 1748.012 725 1725 725 c 1701.988 725
 1683.332 743.656 1683.332 766.668 c 1683.332 789.68 1701.988 808.332 1725
 808.332 c 1748.012 808.332 1766.668 789.68 1766.668 766.668 c h
1766.668 766.668 m f
0 g
1766.668 766.668 m 1766.668 743.656 1748.012 725 1725 725 c 1701.988 725
 1683.332 743.656 1683.332 766.668 c 1683.332 789.68 1701.988 808.332 1725
 808.332 c 1748.012 808.332 1766.668 789.68 1766.668 766.668 c h
1766.668 766.668 m S
0.85098 g
1616.668 433.332 m 1616.668 410.32 1598.012 391.668 1575 391.668 c 1551.988
 391.668 1533.332 410.32 1533.332 433.332 c 1533.332 456.344 1551.988 475
 1575 475 c 1598.012 475 1616.668 456.344 1616.668 433.332 c h
1616.668 433.332 m f
0 g
1616.668 433.332 m 1616.668 410.32 1598.012 391.668 1575 391.668 c 1551.988
 391.668 1533.332 410.32 1533.332 433.332 c 1533.332 456.344 1551.988 475
 1575 475 c 1598.012 475 1616.668 456.344 1616.668 433.332 c h
1616.668 433.332 m S
0.85098 g
1766.668 566.668 m 1766.668 543.656 1748.012 525 1725 525 c 1701.988 525
 1683.332 543.656 1683.332 566.668 c 1683.332 589.68 1701.988 608.332 1725
 608.332 c 1748.012 608.332 1766.668 589.68 1766.668 566.668 c h
1766.668 566.668 m f
0 g
1766.668 566.668 m 1766.668 543.656 1748.012 525 1725 525 c 1701.988 525
 1683.332 543.656 1683.332 566.668 c 1683.332 589.68 1701.988 608.332 1725
 608.332 c 1748.012 608.332 1766.668 589.68 1766.668 566.668 c h
1766.668 566.668 m S
0.85098 g
1616.668 233.332 m 1616.668 210.32 1598.012 191.668 1575 191.668 c 1551.988
 191.668 1533.332 210.32 1533.332 233.332 c 1533.332 256.344 1551.988 275
 1575 275 c 1598.012 275 1616.668 256.344 1616.668 233.332 c h
1616.668 233.332 m f
0 g
1616.668 233.332 m 1616.668 210.32 1598.012 191.668 1575 191.668 c 1551.988
 191.668 1533.332 210.32 1533.332 233.332 c 1533.332 256.344 1551.988 275
 1575 275 c 1598.012 275 1616.668 256.344 1616.668 233.332 c h
1616.668 233.332 m S
0.85098 g
1766.668 366.668 m 1766.668 343.656 1748.012 325 1725 325 c 1701.988 325
 1683.332 343.656 1683.332 366.668 c 1683.332 389.68 1701.988 408.332 1725
 408.332 c 1748.012 408.332 1766.668 389.68 1766.668 366.668 c h
1766.668 366.668 m f
0 g
1766.668 366.668 m 1766.668 343.656 1748.012 325 1725 325 c 1701.988 325
 1683.332 343.656 1683.332 366.668 c 1683.332 389.68 1701.988 408.332 1725
 408.332 c 1748.012 408.332 1766.668 389.68 1766.668 366.668 c h
1766.668 366.668 m S
0.85098 g
1616.668 33.332 m 1616.668 10.32 1598.012 -8.332 1575 -8.332 c 1551.988
 -8.332 1533.332 10.32 1533.332 33.332 c 1533.332 56.344 1551.988 75 1575
 75 c 1598.012 75 1616.668 56.344 1616.668 33.332 c h
1616.668 33.332 m f
0 g
1616.668 33.332 m 1616.668 10.32 1598.012 -8.332 1575 -8.332 c 1551.988
 -8.332 1533.332 10.32 1533.332 33.332 c 1533.332 56.344 1551.988 75 1575
 75 c 1598.012 75 1616.668 56.344 1616.668 33.332 c h
1616.668 33.332 m S
0.85098 g
1766.668 166.668 m 1766.668 143.656 1748.012 125 1725 125 c 1701.988 125
 1683.332 143.656 1683.332 166.668 c 1683.332 189.68 1701.988 208.332 1725
 208.332 c 1748.012 208.332 1766.668 189.68 1766.668 166.668 c h
1766.668 166.668 m f
0 g
1766.668 166.668 m 1766.668 143.656 1748.012 125 1725 125 c 1701.988 125
 1683.332 143.656 1683.332 166.668 c 1683.332 189.68 1701.988 208.332 1725
 208.332 c 1748.012 208.332 1766.668 189.68 1766.668 166.668 c h
1766.668 166.668 m S
Q Q
showpage
%%Trailer
%%Trailer
cleartomark
countdictstack
exch sub { end } repeat
restore
%%EOF
