%!PS-Adobe-2.0 EPSF-2.0
%%BoundingBox: 0 0 2400 1200
%%HiResBoundingBox: 0.000000 0.000000 2400.000000 1200.000000
%%Creator: cairo 1.14.2 (http://cairographics.org)
%%CreationDate: Mon Sep  7 08:21:47 2015
%%DocumentData: Clean7Bit
%%LanguageLevel: 2
%%DocumentMedia: 847x423mm 2400 1200 0 () ()
%%EndComments
% EPSF created by ps2eps 1.68
%%BeginProlog
save
countdictstack
mark
newpath
/showpage {} def
/setpagedevice {pop} def
%%EndProlog
%%Page 1 1
%%BeginProlog
/languagelevel where
{ pop languagelevel } { 1 } ifelse
2 lt { /Helvetica findfont 12 scalefont setfont 50 500 moveto
  (This print job requires a PostScript Language Level 2 printer.) show
  showpage quit } if
/q { gsave } bind def
/Q { grestore } bind def
/cm { 6 array astore concat } bind def
/w { setlinewidth } bind def
/J { setlinecap } bind def
/j { setlinejoin } bind def
/M { setmiterlimit } bind def
/d { setdash } bind def
/m { moveto } bind def
/l { lineto } bind def
/c { curveto } bind def
/h { closepath } bind def
/re { exch dup neg 3 1 roll 5 3 roll moveto 0 rlineto
      0 exch rlineto 0 rlineto closepath } bind def
/S { stroke } bind def
/f { fill } bind def
/f* { eofill } bind def
/n { newpath } bind def
/W { clip } bind def
/W* { eoclip } bind def
/BT { } bind def
/ET { } bind def
/pdfmark where { pop globaldict /?pdfmark /exec load put }
    { globaldict begin /?pdfmark /pop load def /pdfmark
    /cleartomark load def end } ifelse
/BDC { mark 3 1 roll /BDC pdfmark } bind def
/EMC { mark /EMC pdfmark } bind def
/cairo_store_point { /cairo_point_y exch def /cairo_point_x exch def } def
/Tj { show currentpoint cairo_store_point } bind def
/TJ {
  {
    dup
    type /stringtype eq
    { show } { -0.001 mul 0 cairo_font_matrix dtransform rmoveto } ifelse
  } forall
  currentpoint cairo_store_point
} bind def
/cairo_selectfont { cairo_font_matrix aload pop pop pop 0 0 6 array astore
    cairo_font exch selectfont cairo_point_x cairo_point_y moveto } bind def
/Tf { pop /cairo_font exch def /cairo_font_matrix where
      { pop cairo_selectfont } if } bind def
/Td { matrix translate cairo_font_matrix matrix concatmatrix dup
      /cairo_font_matrix exch def dup 4 get exch 5 get cairo_store_point
      /cairo_font where { pop cairo_selectfont } if } bind def
/Tm { 2 copy 8 2 roll 6 array astore /cairo_font_matrix exch def
      cairo_store_point /cairo_font where { pop cairo_selectfont } if } bind def
/g { setgray } bind def
/rg { setrgbcolor } bind def
/d1 { setcachedevice } bind def
/cairo_set_page_size {
  % Change paper size, but only if different from previous paper size otherwise
  % duplex fails. PLRM specifies a tolerance of 5 pts when matching paper size
  % so we use the same when checking if the size changes.
  /setpagedevice where {
    pop currentpagedevice
    /PageSize known {
      2 copy
      currentpagedevice /PageSize get aload pop
      exch 4 1 roll
      sub abs 5 gt
      3 1 roll
      sub abs 5 gt
      or
    } {
      true
    } ifelse
    {
      2 array astore
      2 dict begin
        /PageSize exch def
        /ImagingBBox null def
      currentdict end
      setpagedevice
    } {
      pop pop
    } ifelse
  } {
    pop
  } ifelse
} def
%%EndProlog
%%BeginSetup
%%EndSetup
%%Page: 1 1
%%BeginPageSetup
%%PageMedia: 847x423mm
%%PageBoundingBox: 0 0 2400 1200
2400 1200 cairo_set_page_size
%%EndPageSetup
q 0 0 2400 1200 rectclip q
0.984314 g
0 0 2400 1200 rectfill
0.788235 g
1.875 w
0 J
1 j
[] 0.0 d
4 M 0 1200 2400 -1200 re S
0 g
2.5 w
1 J
133.332 1100 m 0 1100 133.332 1200 0 1200 c S
333.332 1150 m 200 1150 333.332 1050 200 1050 c S
66.668 950 m 200 950 66.668 1050 200 1050 c S
266.668 1000 m 400 1000 266.668 900 400 900 c S
133.332 800 m 0 800 133.332 900 0 900 c S
333.332 850 m 200 850 333.332 750 200 750 c S
66.668 650 m 200 650 66.668 750 200 750 c S
266.668 700 m 400 700 266.668 600 400 600 c S
133.332 500 m 0 500 133.332 600 0 600 c S
333.332 550 m 200 550 333.332 450 200 450 c S
66.668 350 m 200 350 66.668 450 200 450 c S
266.668 400 m 400 400 266.668 300 400 300 c S
133.332 200 m 0 200 133.332 300 0 300 c S
333.332 250 m 200 250 333.332 150 200 150 c S
66.668 50 m 200 50 66.668 150 200 150 c S
266.668 100 m 400 100 266.668 0 400 0 c S
533.332 1100 m 400 1100 533.332 1200 400 1200 c S
733.332 1150 m 600 1150 733.332 1050 600 1050 c S
466.668 950 m 600 950 466.668 1050 600 1050 c S
666.668 1000 m 800 1000 666.668 900 800 900 c S
533.332 800 m 400 800 533.332 900 400 900 c S
733.332 850 m 600 850 733.332 750 600 750 c S
466.668 650 m 600 650 466.668 750 600 750 c S
666.668 700 m 800 700 666.668 600 800 600 c S
533.332 500 m 400 500 533.332 600 400 600 c S
733.332 550 m 600 550 733.332 450 600 450 c S
466.668 350 m 600 350 466.668 450 600 450 c S
666.668 400 m 800 400 666.668 300 800 300 c S
533.332 200 m 400 200 533.332 300 400 300 c S
733.332 250 m 600 250 733.332 150 600 150 c S
466.668 50 m 600 50 466.668 150 600 150 c S
666.668 100 m 800 100 666.668 0 800 0 c S
933.332 1100 m 800 1100 933.332 1200 800 1200 c S
1133.332 1150 m 1000 1150 1133.332 1050 1000 1050 c S
866.668 950 m 1000 950 866.668 1050 1000 1050 c S
1066.668 1000 m 1200 1000 1066.668 900 1200 900 c S
933.332 800 m 800 800 933.332 900 800 900 c S
1133.332 850 m 1000 850 1133.332 750 1000 750 c S
866.668 650 m 1000 650 866.668 750 1000 750 c S
1066.668 700 m 1200 700 1066.668 600 1200 600 c S
933.332 500 m 800 500 933.332 600 800 600 c S
1133.332 550 m 1000 550 1133.332 450 1000 450 c S
866.668 350 m 1000 350 866.668 450 1000 450 c S
1066.668 400 m 1200 400 1066.668 300 1200 300 c S
933.332 200 m 800 200 933.332 300 800 300 c S
1133.332 250 m 1000 250 1133.332 150 1000 150 c S
866.668 50 m 1000 50 866.668 150 1000 150 c S
1066.668 100 m 1200 100 1066.668 0 1200 0 c S
1333.332 1100 m 1200 1100 1333.332 1200 1200 1200 c S
1533.332 1150 m 1400 1150 1533.332 1050 1400 1050 c S
1266.668 950 m 1400 950 1266.668 1050 1400 1050 c S
1466.668 1000 m 1600 1000 1466.668 900 1600 900 c S
1333.332 800 m 1200 800 1333.332 900 1200 900 c S
1533.332 850 m 1400 850 1533.332 750 1400 750 c S
1266.668 650 m 1400 650 1266.668 750 1400 750 c S
1466.668 700 m 1600 700 1466.668 600 1600 600 c S
1333.332 500 m 1200 500 1333.332 600 1200 600 c S
1533.332 550 m 1400 550 1533.332 450 1400 450 c S
1266.668 350 m 1400 350 1266.668 450 1400 450 c S
1466.668 400 m 1600 400 1466.668 300 1600 300 c S
1333.332 200 m 1200 200 1333.332 300 1200 300 c S
1533.332 250 m 1400 250 1533.332 150 1400 150 c S
1266.668 50 m 1400 50 1266.668 150 1400 150 c S
1466.668 100 m 1600 100 1466.668 0 1600 0 c S
1733.332 1100 m 1600 1100 1733.332 1200 1600 1200 c S
1933.332 1150 m 1800 1150 1933.332 1050 1800 1050 c S
1666.668 950 m 1800 950 1666.668 1050 1800 1050 c S
1866.668 1000 m 2000 1000 1866.668 900 2000 900 c S
1733.332 800 m 1600 800 1733.332 900 1600 900 c S
1933.332 850 m 1800 850 1933.332 750 1800 750 c S
1666.668 650 m 1800 650 1666.668 750 1800 750 c S
1866.668 700 m 2000 700 1866.668 600 2000 600 c S
1733.332 500 m 1600 500 1733.332 600 1600 600 c S
1933.332 550 m 1800 550 1933.332 450 1800 450 c S
1666.668 350 m 1800 350 1666.668 450 1800 450 c S
1866.668 400 m 2000 400 1866.668 300 2000 300 c S
1733.332 200 m 1600 200 1733.332 300 1600 300 c S
1933.332 250 m 1800 250 1933.332 150 1800 150 c S
1666.668 50 m 1800 50 1666.668 150 1800 150 c S
1866.668 100 m 2000 100 1866.668 0 2000 0 c S
2133.332 1100 m 2000 1100 2133.332 1200 2000 1200 c S
2333.332 1150 m 2200 1150 2333.332 1050 2200 1050 c S
2066.668 950 m 2200 950 2066.668 1050 2200 1050 c S
2266.668 1000 m 2400 1000 2266.668 900 2400 900 c S
2133.332 800 m 2000 800 2133.332 900 2000 900 c S
2333.332 850 m 2200 850 2333.332 750 2200 750 c S
2066.668 650 m 2200 650 2066.668 750 2200 750 c S
2266.668 700 m 2400 700 2266.668 600 2400 600 c S
2133.332 500 m 2000 500 2133.332 600 2000 600 c S
2333.332 550 m 2200 550 2333.332 450 2200 450 c S
2066.668 350 m 2200 350 2066.668 450 2200 450 c S
2266.668 400 m 2400 400 2266.668 300 2400 300 c S
2133.332 200 m 2000 200 2133.332 300 2000 300 c S
2333.332 250 m 2200 250 2333.332 150 2200 150 c S
2066.668 50 m 2200 50 2066.668 150 2200 150 c S
2266.668 100 m 2400 100 2266.668 0 2400 0 c S
Q Q
showpage
%%Trailer
%%Trailer
cleartomark
countdictstack
exch sub { end } repeat
restore
%%EOF
