%!PS-Adobe-2.0 EPSF-2.0
%%BoundingBox: 0 0 2400 1200
%%HiResBoundingBox: 0.000000 0.000000 2400.000000 1200.000000
%%Creator: cairo 1.14.2 (http://cairographics.org)
%%CreationDate: Mon Sep  7 08:21:48 2015
%%DocumentData: Clean7Bit
%%LanguageLevel: 2
%%DocumentMedia: 847x423mm 2400 1200 0 () ()
%%EndComments
% EPSF created by ps2eps 1.68
%%BeginProlog
save
countdictstack
mark
newpath
/showpage {} def
/setpagedevice {pop} def
%%EndProlog
%%Page 1 1
%%BeginProlog
/languagelevel where
{ pop languagelevel } { 1 } ifelse
2 lt { /Helvetica findfont 12 scalefont setfont 50 500 moveto
  (This print job requires a PostScript Language Level 2 printer.) show
  showpage quit } if
/q { gsave } bind def
/Q { grestore } bind def
/cm { 6 array astore concat } bind def
/w { setlinewidth } bind def
/J { setlinecap } bind def
/j { setlinejoin } bind def
/M { setmiterlimit } bind def
/d { setdash } bind def
/m { moveto } bind def
/l { lineto } bind def
/c { curveto } bind def
/h { closepath } bind def
/re { exch dup neg 3 1 roll 5 3 roll moveto 0 rlineto
      0 exch rlineto 0 rlineto closepath } bind def
/S { stroke } bind def
/f { fill } bind def
/f* { eofill } bind def
/n { newpath } bind def
/W { clip } bind def
/W* { eoclip } bind def
/BT { } bind def
/ET { } bind def
/pdfmark where { pop globaldict /?pdfmark /exec load put }
    { globaldict begin /?pdfmark /pop load def /pdfmark
    /cleartomark load def end } ifelse
/BDC { mark 3 1 roll /BDC pdfmark } bind def
/EMC { mark /EMC pdfmark } bind def
/cairo_store_point { /cairo_point_y exch def /cairo_point_x exch def } def
/Tj { show currentpoint cairo_store_point } bind def
/TJ {
  {
    dup
    type /stringtype eq
    { show } { -0.001 mul 0 cairo_font_matrix dtransform rmoveto } ifelse
  } forall
  currentpoint cairo_store_point
} bind def
/cairo_selectfont { cairo_font_matrix aload pop pop pop 0 0 6 array astore
    cairo_font exch selectfont cairo_point_x cairo_point_y moveto } bind def
/Tf { pop /cairo_font exch def /cairo_font_matrix where
      { pop cairo_selectfont } if } bind def
/Td { matrix translate cairo_font_matrix matrix concatmatrix dup
      /cairo_font_matrix exch def dup 4 get exch 5 get cairo_store_point
      /cairo_font where { pop cairo_selectfont } if } bind def
/Tm { 2 copy 8 2 roll 6 array astore /cairo_font_matrix exch def
      cairo_store_point /cairo_font where { pop cairo_selectfont } if } bind def
/g { setgray } bind def
/rg { setrgbcolor } bind def
/d1 { setcachedevice } bind def
/cairo_set_page_size {
  % Change paper size, but only if different from previous paper size otherwise
  % duplex fails. PLRM specifies a tolerance of 5 pts when matching paper size
  % so we use the same when checking if the size changes.
  /setpagedevice where {
    pop currentpagedevice
    /PageSize known {
      2 copy
      currentpagedevice /PageSize get aload pop
      exch 4 1 roll
      sub abs 5 gt
      3 1 roll
      sub abs 5 gt
      or
    } {
      true
    } ifelse
    {
      2 array astore
      2 dict begin
        /PageSize exch def
        /ImagingBBox null def
      currentdict end
      setpagedevice
    } {
      pop pop
    } ifelse
  } {
    pop
  } ifelse
} def
%%EndProlog
%%BeginSetup
%%EndSetup
%%Page: 1 1
%%BeginPageSetup
%%PageMedia: 847x423mm
%%PageBoundingBox: 0 0 2400 1200
2400 1200 cairo_set_page_size
%%EndPageSetup
q 0 0 2400 1200 rectclip q
0.984314 g
0 0 2400 1200 rectfill
0.788235 g
1.875 w
0 J
1 j
[] 0.0 d
4 M 0 1200 2400 -1200 re S
0.85098 g
66.668 1150 m 200 1200 l 200 1150 l 133.332 1100 l 133.332 1150 l h
66.668 1150 m f*
0 g
2.5 w
66.668 1150 m 200 1200 l 200 1150 l 133.332 1100 l 133.332 1150 l h
66.668 1150 m S
0.85098 g
333.332 1150 m 266.668 1150 l 266.668 1100 l 200 1150 l 200 1200 l h
333.332 1150 m f*
0 g
333.332 1150 m 266.668 1150 l 266.668 1100 l 200 1150 l 200 1200 l h
333.332 1150 m S
0.85098 g
66.668 950 m 133.332 950 l 133.332 1000 l 200 950 l 200 900 l h
66.668 950 m f*
0 g
66.668 950 m 133.332 950 l 133.332 1000 l 200 950 l 200 900 l h
66.668 950 m S
0.85098 g
333.332 950 m 200 900 l 200 950 l 266.668 1000 l 266.668 950 l h
333.332 950 m f*
0 g
333.332 950 m 200 900 l 200 950 l 266.668 1000 l 266.668 950 l h
333.332 950 m S
0.85098 g
66.668 850 m 200 900 l 200 850 l 133.332 800 l 133.332 850 l h
66.668 850 m f*
0 g
66.668 850 m 200 900 l 200 850 l 133.332 800 l 133.332 850 l h
66.668 850 m S
0.85098 g
333.332 850 m 266.668 850 l 266.668 800 l 200 850 l 200 900 l h
333.332 850 m f*
0 g
333.332 850 m 266.668 850 l 266.668 800 l 200 850 l 200 900 l h
333.332 850 m S
0.85098 g
66.668 650 m 133.332 650 l 133.332 700 l 200 650 l 200 600 l h
66.668 650 m f*
0 g
66.668 650 m 133.332 650 l 133.332 700 l 200 650 l 200 600 l h
66.668 650 m S
0.85098 g
333.332 650 m 200 600 l 200 650 l 266.668 700 l 266.668 650 l h
333.332 650 m f*
0 g
333.332 650 m 200 600 l 200 650 l 266.668 700 l 266.668 650 l h
333.332 650 m S
0.85098 g
66.668 550 m 200 600 l 200 550 l 133.332 500 l 133.332 550 l h
66.668 550 m f*
0 g
66.668 550 m 200 600 l 200 550 l 133.332 500 l 133.332 550 l h
66.668 550 m S
0.85098 g
333.332 550 m 266.668 550 l 266.668 500 l 200 550 l 200 600 l h
333.332 550 m f*
0 g
333.332 550 m 266.668 550 l 266.668 500 l 200 550 l 200 600 l h
333.332 550 m S
0.85098 g
66.668 350 m 133.332 350 l 133.332 400 l 200 350 l 200 300 l h
66.668 350 m f*
0 g
66.668 350 m 133.332 350 l 133.332 400 l 200 350 l 200 300 l h
66.668 350 m S
0.85098 g
333.332 350 m 200 300 l 200 350 l 266.668 400 l 266.668 350 l h
333.332 350 m f*
0 g
333.332 350 m 200 300 l 200 350 l 266.668 400 l 266.668 350 l h
333.332 350 m S
0.85098 g
66.668 250 m 200 300 l 200 250 l 133.332 200 l 133.332 250 l h
66.668 250 m f*
0 g
66.668 250 m 200 300 l 200 250 l 133.332 200 l 133.332 250 l h
66.668 250 m S
0.85098 g
333.332 250 m 266.668 250 l 266.668 200 l 200 250 l 200 300 l h
333.332 250 m f*
0 g
333.332 250 m 266.668 250 l 266.668 200 l 200 250 l 200 300 l h
333.332 250 m S
0.85098 g
66.668 50 m 133.332 50 l 133.332 100 l 200 50 l 200 0 l h
66.668 50 m f*
0 g
66.668 50 m 133.332 50 l 133.332 100 l 200 50 l 200 0 l h
66.668 50 m S
0.85098 g
333.332 50 m 200 0 l 200 50 l 266.668 100 l 266.668 50 l h
333.332 50 m f*
0 g
333.332 50 m 200 0 l 200 50 l 266.668 100 l 266.668 50 l h
333.332 50 m S
0.85098 g
466.668 1150 m 600 1200 l 600 1150 l 533.332 1100 l 533.332 1150 l h
466.668 1150 m f*
0 g
466.668 1150 m 600 1200 l 600 1150 l 533.332 1100 l 533.332 1150 l h
466.668 1150 m S
0.85098 g
733.332 1150 m 666.668 1150 l 666.668 1100 l 600 1150 l 600 1200 l h
733.332 1150 m f*
0 g
733.332 1150 m 666.668 1150 l 666.668 1100 l 600 1150 l 600 1200 l h
733.332 1150 m S
0.85098 g
466.668 950 m 533.332 950 l 533.332 1000 l 600 950 l 600 900 l h
466.668 950 m f*
0 g
466.668 950 m 533.332 950 l 533.332 1000 l 600 950 l 600 900 l h
466.668 950 m S
0.85098 g
733.332 950 m 600 900 l 600 950 l 666.668 1000 l 666.668 950 l h
733.332 950 m f*
0 g
733.332 950 m 600 900 l 600 950 l 666.668 1000 l 666.668 950 l h
733.332 950 m S
0.85098 g
466.668 850 m 600 900 l 600 850 l 533.332 800 l 533.332 850 l h
466.668 850 m f*
0 g
466.668 850 m 600 900 l 600 850 l 533.332 800 l 533.332 850 l h
466.668 850 m S
0.85098 g
733.332 850 m 666.668 850 l 666.668 800 l 600 850 l 600 900 l h
733.332 850 m f*
0 g
733.332 850 m 666.668 850 l 666.668 800 l 600 850 l 600 900 l h
733.332 850 m S
0.85098 g
466.668 650 m 533.332 650 l 533.332 700 l 600 650 l 600 600 l h
466.668 650 m f*
0 g
466.668 650 m 533.332 650 l 533.332 700 l 600 650 l 600 600 l h
466.668 650 m S
0.85098 g
733.332 650 m 600 600 l 600 650 l 666.668 700 l 666.668 650 l h
733.332 650 m f*
0 g
733.332 650 m 600 600 l 600 650 l 666.668 700 l 666.668 650 l h
733.332 650 m S
0.85098 g
466.668 550 m 600 600 l 600 550 l 533.332 500 l 533.332 550 l h
466.668 550 m f*
0 g
466.668 550 m 600 600 l 600 550 l 533.332 500 l 533.332 550 l h
466.668 550 m S
0.85098 g
733.332 550 m 666.668 550 l 666.668 500 l 600 550 l 600 600 l h
733.332 550 m f*
0 g
733.332 550 m 666.668 550 l 666.668 500 l 600 550 l 600 600 l h
733.332 550 m S
0.85098 g
466.668 350 m 533.332 350 l 533.332 400 l 600 350 l 600 300 l h
466.668 350 m f*
0 g
466.668 350 m 533.332 350 l 533.332 400 l 600 350 l 600 300 l h
466.668 350 m S
0.85098 g
733.332 350 m 600 300 l 600 350 l 666.668 400 l 666.668 350 l h
733.332 350 m f*
0 g
733.332 350 m 600 300 l 600 350 l 666.668 400 l 666.668 350 l h
733.332 350 m S
0.85098 g
466.668 250 m 600 300 l 600 250 l 533.332 200 l 533.332 250 l h
466.668 250 m f*
0 g
466.668 250 m 600 300 l 600 250 l 533.332 200 l 533.332 250 l h
466.668 250 m S
0.85098 g
733.332 250 m 666.668 250 l 666.668 200 l 600 250 l 600 300 l h
733.332 250 m f*
0 g
733.332 250 m 666.668 250 l 666.668 200 l 600 250 l 600 300 l h
733.332 250 m S
0.85098 g
466.668 50 m 533.332 50 l 533.332 100 l 600 50 l 600 0 l h
466.668 50 m f*
0 g
466.668 50 m 533.332 50 l 533.332 100 l 600 50 l 600 0 l h
466.668 50 m S
0.85098 g
733.332 50 m 600 0 l 600 50 l 666.668 100 l 666.668 50 l h
733.332 50 m f*
0 g
733.332 50 m 600 0 l 600 50 l 666.668 100 l 666.668 50 l h
733.332 50 m S
0.85098 g
866.668 1150 m 1000 1200 l 1000 1150 l 933.332 1100 l 933.332 1150 l h
866.668 1150 m f*
0 g
866.668 1150 m 1000 1200 l 1000 1150 l 933.332 1100 l 933.332 1150 l h
866.668 1150 m S
0.85098 g
1133.332 1150 m 1066.668 1150 l 1066.668 1100 l 1000 1150 l 1000 1200 l
 h
1133.332 1150 m f*
0 g
1133.332 1150 m 1066.668 1150 l 1066.668 1100 l 1000 1150 l 1000 1200 l
 h
1133.332 1150 m S
0.85098 g
866.668 950 m 933.332 950 l 933.332 1000 l 1000 950 l 1000 900 l h
866.668 950 m f*
0 g
866.668 950 m 933.332 950 l 933.332 1000 l 1000 950 l 1000 900 l h
866.668 950 m S
0.85098 g
1133.332 950 m 1000 900 l 1000 950 l 1066.668 1000 l 1066.668 950 l h
1133.332 950 m f*
0 g
1133.332 950 m 1000 900 l 1000 950 l 1066.668 1000 l 1066.668 950 l h
1133.332 950 m S
0.85098 g
866.668 850 m 1000 900 l 1000 850 l 933.332 800 l 933.332 850 l h
866.668 850 m f*
0 g
866.668 850 m 1000 900 l 1000 850 l 933.332 800 l 933.332 850 l h
866.668 850 m S
0.85098 g
1133.332 850 m 1066.668 850 l 1066.668 800 l 1000 850 l 1000 900 l h
1133.332 850 m f*
0 g
1133.332 850 m 1066.668 850 l 1066.668 800 l 1000 850 l 1000 900 l h
1133.332 850 m S
0.85098 g
866.668 650 m 933.332 650 l 933.332 700 l 1000 650 l 1000 600 l h
866.668 650 m f*
0 g
866.668 650 m 933.332 650 l 933.332 700 l 1000 650 l 1000 600 l h
866.668 650 m S
0.85098 g
1133.332 650 m 1000 600 l 1000 650 l 1066.668 700 l 1066.668 650 l h
1133.332 650 m f*
0 g
1133.332 650 m 1000 600 l 1000 650 l 1066.668 700 l 1066.668 650 l h
1133.332 650 m S
0.85098 g
866.668 550 m 1000 600 l 1000 550 l 933.332 500 l 933.332 550 l h
866.668 550 m f*
0 g
866.668 550 m 1000 600 l 1000 550 l 933.332 500 l 933.332 550 l h
866.668 550 m S
0.85098 g
1133.332 550 m 1066.668 550 l 1066.668 500 l 1000 550 l 1000 600 l h
1133.332 550 m f*
0 g
1133.332 550 m 1066.668 550 l 1066.668 500 l 1000 550 l 1000 600 l h
1133.332 550 m S
0.85098 g
866.668 350 m 933.332 350 l 933.332 400 l 1000 350 l 1000 300 l h
866.668 350 m f*
0 g
866.668 350 m 933.332 350 l 933.332 400 l 1000 350 l 1000 300 l h
866.668 350 m S
0.85098 g
1133.332 350 m 1000 300 l 1000 350 l 1066.668 400 l 1066.668 350 l h
1133.332 350 m f*
0 g
1133.332 350 m 1000 300 l 1000 350 l 1066.668 400 l 1066.668 350 l h
1133.332 350 m S
0.85098 g
866.668 250 m 1000 300 l 1000 250 l 933.332 200 l 933.332 250 l h
866.668 250 m f*
0 g
866.668 250 m 1000 300 l 1000 250 l 933.332 200 l 933.332 250 l h
866.668 250 m S
0.85098 g
1133.332 250 m 1066.668 250 l 1066.668 200 l 1000 250 l 1000 300 l h
1133.332 250 m f*
0 g
1133.332 250 m 1066.668 250 l 1066.668 200 l 1000 250 l 1000 300 l h
1133.332 250 m S
0.85098 g
866.668 50 m 933.332 50 l 933.332 100 l 1000 50 l 1000 0 l h
866.668 50 m f*
0 g
866.668 50 m 933.332 50 l 933.332 100 l 1000 50 l 1000 0 l h
866.668 50 m S
0.85098 g
1133.332 50 m 1000 0 l 1000 50 l 1066.668 100 l 1066.668 50 l h
1133.332 50 m f*
0 g
1133.332 50 m 1000 0 l 1000 50 l 1066.668 100 l 1066.668 50 l h
1133.332 50 m S
0.85098 g
1266.668 1150 m 1400 1200 l 1400 1150 l 1333.332 1100 l 1333.332 1150 l
 h
1266.668 1150 m f*
0 g
1266.668 1150 m 1400 1200 l 1400 1150 l 1333.332 1100 l 1333.332 1150 l
 h
1266.668 1150 m S
0.85098 g
1533.332 1150 m 1466.668 1150 l 1466.668 1100 l 1400 1150 l 1400 1200 l
 h
1533.332 1150 m f*
0 g
1533.332 1150 m 1466.668 1150 l 1466.668 1100 l 1400 1150 l 1400 1200 l
 h
1533.332 1150 m S
0.85098 g
1266.668 950 m 1333.332 950 l 1333.332 1000 l 1400 950 l 1400 900 l h
1266.668 950 m f*
0 g
1266.668 950 m 1333.332 950 l 1333.332 1000 l 1400 950 l 1400 900 l h
1266.668 950 m S
0.85098 g
1533.332 950 m 1400 900 l 1400 950 l 1466.668 1000 l 1466.668 950 l h
1533.332 950 m f*
0 g
1533.332 950 m 1400 900 l 1400 950 l 1466.668 1000 l 1466.668 950 l h
1533.332 950 m S
0.85098 g
1266.668 850 m 1400 900 l 1400 850 l 1333.332 800 l 1333.332 850 l h
1266.668 850 m f*
0 g
1266.668 850 m 1400 900 l 1400 850 l 1333.332 800 l 1333.332 850 l h
1266.668 850 m S
0.85098 g
1533.332 850 m 1466.668 850 l 1466.668 800 l 1400 850 l 1400 900 l h
1533.332 850 m f*
0 g
1533.332 850 m 1466.668 850 l 1466.668 800 l 1400 850 l 1400 900 l h
1533.332 850 m S
0.85098 g
1266.668 650 m 1333.332 650 l 1333.332 700 l 1400 650 l 1400 600 l h
1266.668 650 m f*
0 g
1266.668 650 m 1333.332 650 l 1333.332 700 l 1400 650 l 1400 600 l h
1266.668 650 m S
0.85098 g
1533.332 650 m 1400 600 l 1400 650 l 1466.668 700 l 1466.668 650 l h
1533.332 650 m f*
0 g
1533.332 650 m 1400 600 l 1400 650 l 1466.668 700 l 1466.668 650 l h
1533.332 650 m S
0.85098 g
1266.668 550 m 1400 600 l 1400 550 l 1333.332 500 l 1333.332 550 l h
1266.668 550 m f*
0 g
1266.668 550 m 1400 600 l 1400 550 l 1333.332 500 l 1333.332 550 l h
1266.668 550 m S
0.85098 g
1533.332 550 m 1466.668 550 l 1466.668 500 l 1400 550 l 1400 600 l h
1533.332 550 m f*
0 g
1533.332 550 m 1466.668 550 l 1466.668 500 l 1400 550 l 1400 600 l h
1533.332 550 m S
0.85098 g
1266.668 350 m 1333.332 350 l 1333.332 400 l 1400 350 l 1400 300 l h
1266.668 350 m f*
0 g
1266.668 350 m 1333.332 350 l 1333.332 400 l 1400 350 l 1400 300 l h
1266.668 350 m S
0.85098 g
1533.332 350 m 1400 300 l 1400 350 l 1466.668 400 l 1466.668 350 l h
1533.332 350 m f*
0 g
1533.332 350 m 1400 300 l 1400 350 l 1466.668 400 l 1466.668 350 l h
1533.332 350 m S
0.85098 g
1266.668 250 m 1400 300 l 1400 250 l 1333.332 200 l 1333.332 250 l h
1266.668 250 m f*
0 g
1266.668 250 m 1400 300 l 1400 250 l 1333.332 200 l 1333.332 250 l h
1266.668 250 m S
0.85098 g
1533.332 250 m 1466.668 250 l 1466.668 200 l 1400 250 l 1400 300 l h
1533.332 250 m f*
0 g
1533.332 250 m 1466.668 250 l 1466.668 200 l 1400 250 l 1400 300 l h
1533.332 250 m S
0.85098 g
1266.668 50 m 1333.332 50 l 1333.332 100 l 1400 50 l 1400 0 l h
1266.668 50 m f*
0 g
1266.668 50 m 1333.332 50 l 1333.332 100 l 1400 50 l 1400 0 l h
1266.668 50 m S
0.85098 g
1533.332 50 m 1400 0 l 1400 50 l 1466.668 100 l 1466.668 50 l h
1533.332 50 m f*
0 g
1533.332 50 m 1400 0 l 1400 50 l 1466.668 100 l 1466.668 50 l h
1533.332 50 m S
0.85098 g
1666.668 1150 m 1800 1200 l 1800 1150 l 1733.332 1100 l 1733.332 1150 l
 h
1666.668 1150 m f*
0 g
1666.668 1150 m 1800 1200 l 1800 1150 l 1733.332 1100 l 1733.332 1150 l
 h
1666.668 1150 m S
0.85098 g
1933.332 1150 m 1866.668 1150 l 1866.668 1100 l 1800 1150 l 1800 1200 l
 h
1933.332 1150 m f*
0 g
1933.332 1150 m 1866.668 1150 l 1866.668 1100 l 1800 1150 l 1800 1200 l
 h
1933.332 1150 m S
0.85098 g
1666.668 950 m 1733.332 950 l 1733.332 1000 l 1800 950 l 1800 900 l h
1666.668 950 m f*
0 g
1666.668 950 m 1733.332 950 l 1733.332 1000 l 1800 950 l 1800 900 l h
1666.668 950 m S
0.85098 g
1933.332 950 m 1800 900 l 1800 950 l 1866.668 1000 l 1866.668 950 l h
1933.332 950 m f*
0 g
1933.332 950 m 1800 900 l 1800 950 l 1866.668 1000 l 1866.668 950 l h
1933.332 950 m S
0.85098 g
1666.668 850 m 1800 900 l 1800 850 l 1733.332 800 l 1733.332 850 l h
1666.668 850 m f*
0 g
1666.668 850 m 1800 900 l 1800 850 l 1733.332 800 l 1733.332 850 l h
1666.668 850 m S
0.85098 g
1933.332 850 m 1866.668 850 l 1866.668 800 l 1800 850 l 1800 900 l h
1933.332 850 m f*
0 g
1933.332 850 m 1866.668 850 l 1866.668 800 l 1800 850 l 1800 900 l h
1933.332 850 m S
0.85098 g
1666.668 650 m 1733.332 650 l 1733.332 700 l 1800 650 l 1800 600 l h
1666.668 650 m f*
0 g
1666.668 650 m 1733.332 650 l 1733.332 700 l 1800 650 l 1800 600 l h
1666.668 650 m S
0.85098 g
1933.332 650 m 1800 600 l 1800 650 l 1866.668 700 l 1866.668 650 l h
1933.332 650 m f*
0 g
1933.332 650 m 1800 600 l 1800 650 l 1866.668 700 l 1866.668 650 l h
1933.332 650 m S
0.85098 g
1666.668 550 m 1800 600 l 1800 550 l 1733.332 500 l 1733.332 550 l h
1666.668 550 m f*
0 g
1666.668 550 m 1800 600 l 1800 550 l 1733.332 500 l 1733.332 550 l h
1666.668 550 m S
0.85098 g
1933.332 550 m 1866.668 550 l 1866.668 500 l 1800 550 l 1800 600 l h
1933.332 550 m f*
0 g
1933.332 550 m 1866.668 550 l 1866.668 500 l 1800 550 l 1800 600 l h
1933.332 550 m S
0.85098 g
1666.668 350 m 1733.332 350 l 1733.332 400 l 1800 350 l 1800 300 l h
1666.668 350 m f*
0 g
1666.668 350 m 1733.332 350 l 1733.332 400 l 1800 350 l 1800 300 l h
1666.668 350 m S
0.85098 g
1933.332 350 m 1800 300 l 1800 350 l 1866.668 400 l 1866.668 350 l h
1933.332 350 m f*
0 g
1933.332 350 m 1800 300 l 1800 350 l 1866.668 400 l 1866.668 350 l h
1933.332 350 m S
0.85098 g
1666.668 250 m 1800 300 l 1800 250 l 1733.332 200 l 1733.332 250 l h
1666.668 250 m f*
0 g
1666.668 250 m 1800 300 l 1800 250 l 1733.332 200 l 1733.332 250 l h
1666.668 250 m S
0.85098 g
1933.332 250 m 1866.668 250 l 1866.668 200 l 1800 250 l 1800 300 l h
1933.332 250 m f*
0 g
1933.332 250 m 1866.668 250 l 1866.668 200 l 1800 250 l 1800 300 l h
1933.332 250 m S
0.85098 g
1666.668 50 m 1733.332 50 l 1733.332 100 l 1800 50 l 1800 0 l h
1666.668 50 m f*
0 g
1666.668 50 m 1733.332 50 l 1733.332 100 l 1800 50 l 1800 0 l h
1666.668 50 m S
0.85098 g
1933.332 50 m 1800 0 l 1800 50 l 1866.668 100 l 1866.668 50 l h
1933.332 50 m f*
0 g
1933.332 50 m 1800 0 l 1800 50 l 1866.668 100 l 1866.668 50 l h
1933.332 50 m S
0.85098 g
2066.668 1150 m 2200 1200 l 2200 1150 l 2133.332 1100 l 2133.332 1150 l
 h
2066.668 1150 m f*
0 g
2066.668 1150 m 2200 1200 l 2200 1150 l 2133.332 1100 l 2133.332 1150 l
 h
2066.668 1150 m S
0.85098 g
2333.332 1150 m 2266.668 1150 l 2266.668 1100 l 2200 1150 l 2200 1200 l
 h
2333.332 1150 m f*
0 g
2333.332 1150 m 2266.668 1150 l 2266.668 1100 l 2200 1150 l 2200 1200 l
 h
2333.332 1150 m S
0.85098 g
2066.668 950 m 2133.332 950 l 2133.332 1000 l 2200 950 l 2200 900 l h
2066.668 950 m f*
0 g
2066.668 950 m 2133.332 950 l 2133.332 1000 l 2200 950 l 2200 900 l h
2066.668 950 m S
0.85098 g
2333.332 950 m 2200 900 l 2200 950 l 2266.668 1000 l 2266.668 950 l h
2333.332 950 m f*
0 g
2333.332 950 m 2200 900 l 2200 950 l 2266.668 1000 l 2266.668 950 l h
2333.332 950 m S
0.85098 g
2066.668 850 m 2200 900 l 2200 850 l 2133.332 800 l 2133.332 850 l h
2066.668 850 m f*
0 g
2066.668 850 m 2200 900 l 2200 850 l 2133.332 800 l 2133.332 850 l h
2066.668 850 m S
0.85098 g
2333.332 850 m 2266.668 850 l 2266.668 800 l 2200 850 l 2200 900 l h
2333.332 850 m f*
0 g
2333.332 850 m 2266.668 850 l 2266.668 800 l 2200 850 l 2200 900 l h
2333.332 850 m S
0.85098 g
2066.668 650 m 2133.332 650 l 2133.332 700 l 2200 650 l 2200 600 l h
2066.668 650 m f*
0 g
2066.668 650 m 2133.332 650 l 2133.332 700 l 2200 650 l 2200 600 l h
2066.668 650 m S
0.85098 g
2333.332 650 m 2200 600 l 2200 650 l 2266.668 700 l 2266.668 650 l h
2333.332 650 m f*
0 g
2333.332 650 m 2200 600 l 2200 650 l 2266.668 700 l 2266.668 650 l h
2333.332 650 m S
0.85098 g
2066.668 550 m 2200 600 l 2200 550 l 2133.332 500 l 2133.332 550 l h
2066.668 550 m f*
0 g
2066.668 550 m 2200 600 l 2200 550 l 2133.332 500 l 2133.332 550 l h
2066.668 550 m S
0.85098 g
2333.332 550 m 2266.668 550 l 2266.668 500 l 2200 550 l 2200 600 l h
2333.332 550 m f*
0 g
2333.332 550 m 2266.668 550 l 2266.668 500 l 2200 550 l 2200 600 l h
2333.332 550 m S
0.85098 g
2066.668 350 m 2133.332 350 l 2133.332 400 l 2200 350 l 2200 300 l h
2066.668 350 m f*
0 g
2066.668 350 m 2133.332 350 l 2133.332 400 l 2200 350 l 2200 300 l h
2066.668 350 m S
0.85098 g
2333.332 350 m 2200 300 l 2200 350 l 2266.668 400 l 2266.668 350 l h
2333.332 350 m f*
0 g
2333.332 350 m 2200 300 l 2200 350 l 2266.668 400 l 2266.668 350 l h
2333.332 350 m S
0.85098 g
2066.668 250 m 2200 300 l 2200 250 l 2133.332 200 l 2133.332 250 l h
2066.668 250 m f*
0 g
2066.668 250 m 2200 300 l 2200 250 l 2133.332 200 l 2133.332 250 l h
2066.668 250 m S
0.85098 g
2333.332 250 m 2266.668 250 l 2266.668 200 l 2200 250 l 2200 300 l h
2333.332 250 m f*
0 g
2333.332 250 m 2266.668 250 l 2266.668 200 l 2200 250 l 2200 300 l h
2333.332 250 m S
0.85098 g
2066.668 50 m 2133.332 50 l 2133.332 100 l 2200 50 l 2200 0 l h
2066.668 50 m f*
0 g
2066.668 50 m 2133.332 50 l 2133.332 100 l 2200 50 l 2200 0 l h
2066.668 50 m S
0.85098 g
2333.332 50 m 2200 0 l 2200 50 l 2266.668 100 l 2266.668 50 l h
2333.332 50 m f*
0 g
2333.332 50 m 2200 0 l 2200 50 l 2266.668 100 l 2266.668 50 l h
2333.332 50 m S
Q Q
showpage
%%Trailer
%%Trailer
cleartomark
countdictstack
exch sub { end } repeat
restore
%%EOF
