%!PS-Adobe-2.0 EPSF-2.0
%%BoundingBox: 0 0 900 866
%%HiResBoundingBox: 0.000000 0.000000 900.000000 866.000000
%%Creator: cairo 1.14.2 (http://cairographics.org)
%%CreationDate: Mon Sep  7 08:22:04 2015
%%DocumentData: Clean7Bit
%%LanguageLevel: 2
%%DocumentMedia: 318x306mm 900 866 0 () ()
%%EndComments
% EPSF created by ps2eps 1.68
%%BeginProlog
save
countdictstack
mark
newpath
/showpage {} def
/setpagedevice {pop} def
%%EndProlog
%%Page 1 1
%%BeginProlog
/languagelevel where
{ pop languagelevel } { 1 } ifelse
2 lt { /Helvetica findfont 12 scalefont setfont 50 500 moveto
  (This print job requires a PostScript Language Level 2 printer.) show
  showpage quit } if
/q { gsave } bind def
/Q { grestore } bind def
/cm { 6 array astore concat } bind def
/w { setlinewidth } bind def
/J { setlinecap } bind def
/j { setlinejoin } bind def
/M { setmiterlimit } bind def
/d { setdash } bind def
/m { moveto } bind def
/l { lineto } bind def
/c { curveto } bind def
/h { closepath } bind def
/re { exch dup neg 3 1 roll 5 3 roll moveto 0 rlineto
      0 exch rlineto 0 rlineto closepath } bind def
/S { stroke } bind def
/f { fill } bind def
/f* { eofill } bind def
/n { newpath } bind def
/W { clip } bind def
/W* { eoclip } bind def
/BT { } bind def
/ET { } bind def
/pdfmark where { pop globaldict /?pdfmark /exec load put }
    { globaldict begin /?pdfmark /pop load def /pdfmark
    /cleartomark load def end } ifelse
/BDC { mark 3 1 roll /BDC pdfmark } bind def
/EMC { mark /EMC pdfmark } bind def
/cairo_store_point { /cairo_point_y exch def /cairo_point_x exch def } def
/Tj { show currentpoint cairo_store_point } bind def
/TJ {
  {
    dup
    type /stringtype eq
    { show } { -0.001 mul 0 cairo_font_matrix dtransform rmoveto } ifelse
  } forall
  currentpoint cairo_store_point
} bind def
/cairo_selectfont { cairo_font_matrix aload pop pop pop 0 0 6 array astore
    cairo_font exch selectfont cairo_point_x cairo_point_y moveto } bind def
/Tf { pop /cairo_font exch def /cairo_font_matrix where
      { pop cairo_selectfont } if } bind def
/Td { matrix translate cairo_font_matrix matrix concatmatrix dup
      /cairo_font_matrix exch def dup 4 get exch 5 get cairo_store_point
      /cairo_font where { pop cairo_selectfont } if } bind def
/Tm { 2 copy 8 2 roll 6 array astore /cairo_font_matrix exch def
      cairo_store_point /cairo_font where { pop cairo_selectfont } if } bind def
/g { setgray } bind def
/rg { setrgbcolor } bind def
/d1 { setcachedevice } bind def
/cairo_set_page_size {
  % Change paper size, but only if different from previous paper size otherwise
  % duplex fails. PLRM specifies a tolerance of 5 pts when matching paper size
  % so we use the same when checking if the size changes.
  /setpagedevice where {
    pop currentpagedevice
    /PageSize known {
      2 copy
      currentpagedevice /PageSize get aload pop
      exch 4 1 roll
      sub abs 5 gt
      3 1 roll
      sub abs 5 gt
      or
    } {
      true
    } ifelse
    {
      2 array astore
      2 dict begin
        /PageSize exch def
        /ImagingBBox null def
      currentdict end
      setpagedevice
    } {
      pop pop
    } ifelse
  } {
    pop
  } ifelse
} def
%%EndProlog
%%BeginSetup
%%EndSetup
%%Page: 1 1
%%BeginPageSetup
%%PageMedia: 318x306mm
%%PageBoundingBox: 0 0 900 866
900 866 cairo_set_page_size
%%EndPageSetup
q 0 0 900 866 rectclip q
0.984314 g
0 0 900 866 rectfill
0.788235 g
1.875 w
0 J
1 j
[] 0.0 d
4 M 0 866 900 -866.027 re S
0 g
2.5 w
1 J
-100 692.793 m -33.332 808.266 l 33.332 808.266 l 66.668 866 l 0 750.531
 l S
-100 692.793 m 33.332 692.793 l 66.668 750.531 l 133.332 750.531 l 0 750.531
 l S
-200 519.59 m -66.668 519.59 l -33.332 577.324 l 33.332 577.324 l -100 
577.324 l S
100 692.793 m 166.668 808.266 l 233.332 808.266 l 266.668 866 l 200 750.531
 l S
100 692.793 m 233.332 692.793 l 266.668 750.531 l 333.332 750.531 l 200
 750.531 l S
0 519.59 m 66.668 635.059 l 133.332 635.059 l 166.668 692.793 l 100 577.324
 l S
0 519.59 m 133.332 519.59 l 166.668 577.324 l 233.332 577.324 l 100 577.324
 l S
-100 346.383 m -33.332 461.855 l 33.332 461.855 l 66.668 519.59 l 0 404.121
 l S
-100 346.383 m 33.332 346.383 l 66.668 404.121 l 133.332 404.121 l 0 404.121
 l S
-200 173.18 m -66.668 173.18 l -33.332 230.914 l 33.332 230.914 l -100 
230.914 l S
300 692.793 m 366.668 808.266 l 433.332 808.266 l 466.668 866 l 400 750.531
 l S
300 692.793 m 433.332 692.793 l 466.668 750.531 l 533.332 750.531 l 400
 750.531 l S
200 519.59 m 266.668 635.059 l 333.332 635.059 l 366.668 692.793 l 300 
577.324 l S
200 519.59 m 333.332 519.59 l 366.668 577.324 l 433.332 577.324 l 300 577.324
 l S
100 346.383 m 166.668 461.855 l 233.332 461.855 l 266.668 519.59 l 200 
404.121 l S
100 346.383 m 233.332 346.383 l 266.668 404.121 l 333.332 404.121 l 200
 404.121 l S
0 173.18 m 66.668 288.648 l 133.332 288.648 l 166.668 346.383 l 100 230.914
 l S
0 173.18 m 133.332 173.18 l 166.668 230.914 l 233.332 230.914 l 100 230.914
 l S
-100 -0.027 m -33.332 115.445 l 33.332 115.445 l 66.668 173.18 l 0 57.711
 l S
-100 -0.027 m 33.332 -0.027 l 66.668 57.711 l 133.332 57.711 l 0 57.711
 l S
500 692.793 m 566.668 808.266 l 633.332 808.266 l 666.668 866 l 600 750.531
 l S
500 692.793 m 633.332 692.793 l 666.668 750.531 l 733.332 750.531 l 600
 750.531 l S
400 519.59 m 466.668 635.059 l 533.332 635.059 l 566.668 692.793 l 500 
577.324 l S
400 519.59 m 533.332 519.59 l 566.668 577.324 l 633.332 577.324 l 500 577.324
 l S
300 346.383 m 366.668 461.855 l 433.332 461.855 l 466.668 519.59 l 400 
404.121 l S
300 346.383 m 433.332 346.383 l 466.668 404.121 l 533.332 404.121 l 400
 404.121 l S
200 173.18 m 266.668 288.648 l 333.332 288.648 l 366.668 346.383 l 300 
230.914 l S
200 173.18 m 333.332 173.18 l 366.668 230.914 l 433.332 230.914 l 300 230.914
 l S
100 -0.027 m 166.668 115.445 l 233.332 115.445 l 266.668 173.18 l 200 57.711
 l S
100 -0.027 m 233.332 -0.027 l 266.668 57.711 l 333.332 57.711 l 200 57.711
 l S
700 692.793 m 766.668 808.266 l 833.332 808.266 l 866.668 866 l 800 750.531
 l S
700 692.793 m 833.332 692.793 l 866.668 750.531 l 933.332 750.531 l 800
 750.531 l S
600 519.59 m 666.668 635.059 l 733.332 635.059 l 766.668 692.793 l 700 
577.324 l S
600 519.59 m 733.332 519.59 l 766.668 577.324 l 833.332 577.324 l 700 577.324
 l S
500 346.383 m 566.668 461.855 l 633.332 461.855 l 666.668 519.59 l 600 
404.121 l S
500 346.383 m 633.332 346.383 l 666.668 404.121 l 733.332 404.121 l 600
 404.121 l S
400 173.18 m 466.668 288.648 l 533.332 288.648 l 566.668 346.383 l 500 
230.914 l S
400 173.18 m 533.332 173.18 l 566.668 230.914 l 633.332 230.914 l 500 230.914
 l S
300 -0.027 m 366.668 115.445 l 433.332 115.445 l 466.668 173.18 l 400 57.711
 l S
300 -0.027 m 433.332 -0.027 l 466.668 57.711 l 533.332 57.711 l 400 57.711
 l S
900 692.793 m 966.668 808.266 l 1033.332 808.266 l 1066.668 866 l 1000 
750.531 l S
900 692.793 m 1033.332 692.793 l 1066.668 750.531 l 1133.332 750.531 l 
1000 750.531 l S
800 519.59 m 866.668 635.059 l 933.332 635.059 l 966.668 692.793 l 900 
577.324 l S
800 519.59 m 933.332 519.59 l 966.668 577.324 l 1033.332 577.324 l 900 
577.324 l S
700 346.383 m 766.668 461.855 l 833.332 461.855 l 866.668 519.59 l 800 
404.121 l S
700 346.383 m 833.332 346.383 l 866.668 404.121 l 933.332 404.121 l 800
 404.121 l S
600 173.18 m 666.668 288.648 l 733.332 288.648 l 766.668 346.383 l 700 
230.914 l S
600 173.18 m 733.332 173.18 l 766.668 230.914 l 833.332 230.914 l 700 230.914
 l S
500 -0.027 m 566.668 115.445 l 633.332 115.445 l 666.668 173.18 l 600 57.711
 l S
500 -0.027 m 633.332 -0.027 l 666.668 57.711 l 733.332 57.711 l 600 57.711
 l S
900 346.383 m 966.668 461.855 l 1033.332 461.855 l 1066.668 519.59 l 1000
 404.121 l S
900 346.383 m 1033.332 346.383 l 1066.668 404.121 l 1133.332 404.121 l 
1000 404.121 l S
800 173.18 m 866.668 288.648 l 933.332 288.648 l 966.668 346.383 l 900 
230.914 l S
800 173.18 m 933.332 173.18 l 966.668 230.914 l 1033.332 230.914 l 900 
230.914 l S
700 -0.027 m 766.668 115.445 l 833.332 115.445 l 866.668 173.18 l 800 57.711
 l S
700 -0.027 m 833.332 -0.027 l 866.668 57.711 l 933.332 57.711 l 800 57.711
 l S
Q Q
showpage
%%Trailer
%%Trailer
cleartomark
countdictstack
exch sub { end } repeat
restore
%%EOF
