%!PS-Adobe-2.0 EPSF-2.0
%%BoundingBox: 0 0 950 779
%%HiResBoundingBox: 0.000000 0.000000 950.000000 779.000000
%%Creator: cairo 1.14.2 (http://cairographics.org)
%%CreationDate: Mon Sep  7 08:22:04 2015
%%DocumentData: Clean7Bit
%%LanguageLevel: 2
%%DocumentMedia: 335x275mm 950 779 0 () ()
%%EndComments
% EPSF created by ps2eps 1.68
%%BeginProlog
save
countdictstack
mark
newpath
/showpage {} def
/setpagedevice {pop} def
%%EndProlog
%%Page 1 1
%%BeginProlog
/languagelevel where
{ pop languagelevel } { 1 } ifelse
2 lt { /Helvetica findfont 12 scalefont setfont 50 500 moveto
  (This print job requires a PostScript Language Level 2 printer.) show
  showpage quit } if
/q { gsave } bind def
/Q { grestore } bind def
/cm { 6 array astore concat } bind def
/w { setlinewidth } bind def
/J { setlinecap } bind def
/j { setlinejoin } bind def
/M { setmiterlimit } bind def
/d { setdash } bind def
/m { moveto } bind def
/l { lineto } bind def
/c { curveto } bind def
/h { closepath } bind def
/re { exch dup neg 3 1 roll 5 3 roll moveto 0 rlineto
      0 exch rlineto 0 rlineto closepath } bind def
/S { stroke } bind def
/f { fill } bind def
/f* { eofill } bind def
/n { newpath } bind def
/W { clip } bind def
/W* { eoclip } bind def
/BT { } bind def
/ET { } bind def
/pdfmark where { pop globaldict /?pdfmark /exec load put }
    { globaldict begin /?pdfmark /pop load def /pdfmark
    /cleartomark load def end } ifelse
/BDC { mark 3 1 roll /BDC pdfmark } bind def
/EMC { mark /EMC pdfmark } bind def
/cairo_store_point { /cairo_point_y exch def /cairo_point_x exch def } def
/Tj { show currentpoint cairo_store_point } bind def
/TJ {
  {
    dup
    type /stringtype eq
    { show } { -0.001 mul 0 cairo_font_matrix dtransform rmoveto } ifelse
  } forall
  currentpoint cairo_store_point
} bind def
/cairo_selectfont { cairo_font_matrix aload pop pop pop 0 0 6 array astore
    cairo_font exch selectfont cairo_point_x cairo_point_y moveto } bind def
/Tf { pop /cairo_font exch def /cairo_font_matrix where
      { pop cairo_selectfont } if } bind def
/Td { matrix translate cairo_font_matrix matrix concatmatrix dup
      /cairo_font_matrix exch def dup 4 get exch 5 get cairo_store_point
      /cairo_font where { pop cairo_selectfont } if } bind def
/Tm { 2 copy 8 2 roll 6 array astore /cairo_font_matrix exch def
      cairo_store_point /cairo_font where { pop cairo_selectfont } if } bind def
/g { setgray } bind def
/rg { setrgbcolor } bind def
/d1 { setcachedevice } bind def
/cairo_set_page_size {
  % Change paper size, but only if different from previous paper size otherwise
  % duplex fails. PLRM specifies a tolerance of 5 pts when matching paper size
  % so we use the same when checking if the size changes.
  /setpagedevice where {
    pop currentpagedevice
    /PageSize known {
      2 copy
      currentpagedevice /PageSize get aload pop
      exch 4 1 roll
      sub abs 5 gt
      3 1 roll
      sub abs 5 gt
      or
    } {
      true
    } ifelse
    {
      2 array astore
      2 dict begin
        /PageSize exch def
        /ImagingBBox null def
      currentdict end
      setpagedevice
    } {
      pop pop
    } ifelse
  } {
    pop
  } ifelse
} def
%%EndProlog
%%BeginSetup
%%EndSetup
%%Page: 1 1
%%BeginPageSetup
%%PageMedia: 335x275mm
%%PageBoundingBox: 0 0 950 779
950 779 cairo_set_page_size
%%EndPageSetup
q 0 0 950 779 rectclip q
0.984314 g
0 0 950 779 rectfill
0.788235 g
1.875 w
0 J
1 j
[] 0.0 d
4 M 0 779 950 -779.422 re S
0 g
2.5 w
1 J
-200 345.988 m -166.668 288.254 -91.668 273.82 25 302.688 c S
-150 259.383 m -116.668 201.648 -41.668 187.215 75 216.082 c S
-100 172.781 m -66.668 115.047 8.332 100.613 125 129.48 c S
-50 86.18 m -16.668 28.445 58.332 14.012 175 42.879 c S
-200 692.398 m -166.668 634.664 -91.668 620.23 25 649.098 c S
-150 605.793 m -116.668 548.059 -41.668 533.625 75 562.492 c S
-100 519.191 m -66.668 461.457 8.332 447.023 125 475.891 c S
-50 432.59 m -16.668 374.855 58.332 360.422 175 389.289 c S
0 345.988 m 33.332 288.254 108.332 273.82 225 302.688 c S
50 259.383 m 83.332 201.648 158.332 187.215 275 216.082 c S
100 172.781 m 133.332 115.047 208.332 100.613 325 129.48 c S
150 86.18 m 183.332 28.445 258.332 14.012 375 42.879 c S
-50 779 m -16.668 721.266 58.332 706.832 175 735.699 c S
0 692.398 m 33.332 634.664 108.332 620.23 225 649.098 c S
50 605.793 m 83.332 548.059 158.332 533.625 275 562.492 c S
100 519.191 m 133.332 461.457 208.332 447.023 325 475.891 c S
150 432.59 m 183.332 374.855 258.332 360.422 375 389.289 c S
200 345.988 m 233.332 288.254 308.332 273.82 425 302.688 c S
250 259.383 m 283.332 201.648 358.332 187.215 475 216.082 c S
300 172.781 m 333.332 115.047 408.332 100.613 525 129.48 c S
350 86.18 m 383.332 28.445 458.332 14.012 575 42.879 c S
150 779 m 183.332 721.266 258.332 706.832 375 735.699 c S
200 692.398 m 233.332 634.664 308.332 620.23 425 649.098 c S
250 605.793 m 283.332 548.059 358.332 533.625 475 562.492 c S
300 519.191 m 333.332 461.457 408.332 447.023 525 475.891 c S
350 432.59 m 383.332 374.855 458.332 360.422 575 389.289 c S
400 345.988 m 433.332 288.254 508.332 273.82 625 302.688 c S
450 259.383 m 483.332 201.648 558.332 187.215 675 216.082 c S
500 172.781 m 533.332 115.047 608.332 100.613 725 129.48 c S
550 86.18 m 583.332 28.445 658.332 14.012 775 42.879 c S
350 779 m 383.332 721.266 458.332 706.832 575 735.699 c S
400 692.398 m 433.332 634.664 508.332 620.23 625 649.098 c S
450 605.793 m 483.332 548.059 558.332 533.625 675 562.492 c S
500 519.191 m 533.332 461.457 608.332 447.023 725 475.891 c S
550 432.59 m 583.332 374.855 658.332 360.422 775 389.289 c S
600 345.988 m 633.332 288.254 708.332 273.82 825 302.688 c S
650 259.383 m 683.332 201.648 758.332 187.215 875 216.082 c S
700 172.781 m 733.332 115.047 808.332 100.613 925 129.48 c S
750 86.18 m 783.332 28.445 858.332 14.012 975 42.879 c S
550 779 m 583.332 721.266 658.332 706.832 775 735.699 c S
600 692.398 m 633.332 634.664 708.332 620.23 825 649.098 c S
650 605.793 m 683.332 548.059 758.332 533.625 875 562.492 c S
700 519.191 m 733.332 461.457 808.332 447.023 925 475.891 c S
750 432.59 m 783.332 374.855 858.332 360.422 975 389.289 c S
800 345.988 m 833.332 288.254 908.332 273.82 1025 302.688 c S
850 259.383 m 883.332 201.648 958.332 187.215 1075 216.082 c S
900 172.781 m 933.332 115.047 1008.332 100.613 1125 129.48 c S
950 86.18 m 983.332 28.445 1058.332 14.012 1175 42.879 c S
750 779 m 783.332 721.266 858.332 706.832 975 735.699 c S
800 692.398 m 833.332 634.664 908.332 620.23 1025 649.098 c S
850 605.793 m 883.332 548.059 958.332 533.625 1075 562.492 c S
900 519.191 m 933.332 461.457 1008.332 447.023 1125 475.891 c S
950 432.59 m 983.332 374.855 1058.332 360.422 1175 389.289 c S
Q Q
showpage
%%Trailer
%%Trailer
cleartomark
countdictstack
exch sub { end } repeat
restore
%%EOF
