%!PS-Adobe-2.0 EPSF-2.0
%%BoundingBox: 0 0 1350 1299
%%HiResBoundingBox: 0.000000 0.000000 1350.000000 1299.000000
%%Creator: cairo 1.14.2 (http://cairographics.org)
%%CreationDate: Mon Sep  7 08:22:04 2015
%%DocumentData: Clean7Bit
%%LanguageLevel: 2
%%DocumentMedia: 476x458mm 1350 1299 0 () ()
%%EndComments
% EPSF created by ps2eps 1.68
%%BeginProlog
save
countdictstack
mark
newpath
/showpage {} def
/setpagedevice {pop} def
%%EndProlog
%%Page 1 1
%%BeginProlog
/languagelevel where
{ pop languagelevel } { 1 } ifelse
2 lt { /Helvetica findfont 12 scalefont setfont 50 500 moveto
  (This print job requires a PostScript Language Level 2 printer.) show
  showpage quit } if
/q { gsave } bind def
/Q { grestore } bind def
/cm { 6 array astore concat } bind def
/w { setlinewidth } bind def
/J { setlinecap } bind def
/j { setlinejoin } bind def
/M { setmiterlimit } bind def
/d { setdash } bind def
/m { moveto } bind def
/l { lineto } bind def
/c { curveto } bind def
/h { closepath } bind def
/re { exch dup neg 3 1 roll 5 3 roll moveto 0 rlineto
      0 exch rlineto 0 rlineto closepath } bind def
/S { stroke } bind def
/f { fill } bind def
/f* { eofill } bind def
/n { newpath } bind def
/W { clip } bind def
/W* { eoclip } bind def
/BT { } bind def
/ET { } bind def
/pdfmark where { pop globaldict /?pdfmark /exec load put }
    { globaldict begin /?pdfmark /pop load def /pdfmark
    /cleartomark load def end } ifelse
/BDC { mark 3 1 roll /BDC pdfmark } bind def
/EMC { mark /EMC pdfmark } bind def
/cairo_store_point { /cairo_point_y exch def /cairo_point_x exch def } def
/Tj { show currentpoint cairo_store_point } bind def
/TJ {
  {
    dup
    type /stringtype eq
    { show } { -0.001 mul 0 cairo_font_matrix dtransform rmoveto } ifelse
  } forall
  currentpoint cairo_store_point
} bind def
/cairo_selectfont { cairo_font_matrix aload pop pop pop 0 0 6 array astore
    cairo_font exch selectfont cairo_point_x cairo_point_y moveto } bind def
/Tf { pop /cairo_font exch def /cairo_font_matrix where
      { pop cairo_selectfont } if } bind def
/Td { matrix translate cairo_font_matrix matrix concatmatrix dup
      /cairo_font_matrix exch def dup 4 get exch 5 get cairo_store_point
      /cairo_font where { pop cairo_selectfont } if } bind def
/Tm { 2 copy 8 2 roll 6 array astore /cairo_font_matrix exch def
      cairo_store_point /cairo_font where { pop cairo_selectfont } if } bind def
/g { setgray } bind def
/rg { setrgbcolor } bind def
/d1 { setcachedevice } bind def
/cairo_set_page_size {
  % Change paper size, but only if different from previous paper size otherwise
  % duplex fails. PLRM specifies a tolerance of 5 pts when matching paper size
  % so we use the same when checking if the size changes.
  /setpagedevice where {
    pop currentpagedevice
    /PageSize known {
      2 copy
      currentpagedevice /PageSize get aload pop
      exch 4 1 roll
      sub abs 5 gt
      3 1 roll
      sub abs 5 gt
      or
    } {
      true
    } ifelse
    {
      2 array astore
      2 dict begin
        /PageSize exch def
        /ImagingBBox null def
      currentdict end
      setpagedevice
    } {
      pop pop
    } ifelse
  } {
    pop
  } ifelse
} def
%%EndProlog
%%BeginSetup
%%EndSetup
%%Page: 1 1
%%BeginPageSetup
%%PageMedia: 476x458mm
%%PageBoundingBox: 0 0 1350 1299
1350 1299 cairo_set_page_size
%%EndPageSetup
q 0 0 1350 1299 rectclip q
0.984314 g
0 0 1350 1299 rectfill
0.788235 g
1.875 w
0 J
1 j
[] 0.0 d
4 M 0 1299 1350 -1299.039 re S
0 g
2.5 w
-75 562.879 m 0 606.18 l 0 519.578 l -150 606.18 l -75 649.48 l h
-75 562.879 m S
0 432.973 m -75 476.277 l 0 519.578 l 0 346.371 l -75 389.672 l h
0 432.973 m S
0.85098 g
75 303.07 m 150 346.371 l 150 259.77 l 0 346.371 l 75 389.672 l h
75 303.07 m f*
0 g
75 303.07 m 150 346.371 l 150 259.77 l 0 346.371 l 75 389.672 l h
75 303.07 m S
-75 303.07 m -75 216.469 l -150 259.77 l 0 346.371 l 0 259.77 l h
-75 303.07 m S
0.85098 g
150 173.168 m 75 216.469 l 150 259.77 l 150 86.562 l 75 129.867 l h
150 173.168 m f*
0 g
150 173.168 m 75 216.469 l 150 259.77 l 150 86.562 l 75 129.867 l h
150 173.168 m S
0.85098 g
225 43.262 m 300 86.562 l 300 -0.039 l 150 86.562 l 225 129.867 l h
225 43.262 m f*
0 g
225 43.262 m 300 86.562 l 300 -0.039 l 150 86.562 l 225 129.867 l h
225 43.262 m S
0.85098 g
75 43.262 m 75 -43.34 l 0 -0.039 l 150 86.562 l 150 -0.039 l h
75 43.262 m f*
0 g
75 43.262 m 75 -43.34 l 0 -0.039 l 150 86.562 l 150 -0.039 l h
75 43.262 m S
-75 1082.492 m 0 1125.793 l 0 1039.191 l -150 1125.793 l -75 1169.098 l
 h
-75 1082.492 m S
0 952.59 m -75 995.891 l 0 1039.191 l 0 865.988 l -75 909.289 l h
0 952.59 m S
0.85098 g
75 822.688 m 150 865.988 l 150 779.383 l 0 865.988 l 75 909.289 l h
75 822.688 m f*
0 g
75 822.688 m 150 865.988 l 150 779.383 l 0 865.988 l 75 909.289 l h
75 822.688 m S
-75 822.688 m -75 736.082 l -150 779.383 l 0 865.988 l 0 779.383 l h
-75 822.688 m S
0.85098 g
150 692.781 m 75 736.082 l 150 779.383 l 150 606.18 l 75 649.48 l h
150 692.781 m f*
0 g
150 692.781 m 75 736.082 l 150 779.383 l 150 606.18 l 75 649.48 l h
150 692.781 m S
0.85098 g
225 562.879 m 300 606.18 l 300 519.578 l 150 606.18 l 225 649.48 l h
225 562.879 m f*
0 g
225 562.879 m 300 606.18 l 300 519.578 l 150 606.18 l 225 649.48 l h
225 562.879 m S
0.85098 g
75 562.879 m 75 476.277 l 0 519.578 l 150 606.18 l 150 519.578 l h
75 562.879 m f*
0 g
75 562.879 m 75 476.277 l 0 519.578 l 150 606.18 l 150 519.578 l h
75 562.879 m S
0.85098 g
300 432.973 m 225 476.277 l 300 519.578 l 300 346.371 l 225 389.672 l h
300 432.973 m f*
0 g
300 432.973 m 225 476.277 l 300 519.578 l 300 346.371 l 225 389.672 l h
300 432.973 m S
0.85098 g
375 303.07 m 450 346.371 l 450 259.77 l 300 346.371 l 375 389.672 l h
375 303.07 m f*
0 g
375 303.07 m 450 346.371 l 450 259.77 l 300 346.371 l 375 389.672 l h
375 303.07 m S
0.85098 g
225 303.07 m 225 216.469 l 150 259.77 l 300 346.371 l 300 259.77 l h
225 303.07 m f*
0 g
225 303.07 m 225 216.469 l 150 259.77 l 300 346.371 l 300 259.77 l h
225 303.07 m S
0.85098 g
450 173.168 m 375 216.469 l 450 259.77 l 450 86.562 l 375 129.867 l h
450 173.168 m f*
0 g
450 173.168 m 375 216.469 l 450 259.77 l 450 86.562 l 375 129.867 l h
450 173.168 m S
0.85098 g
525 43.262 m 600 86.562 l 600 -0.039 l 450 86.562 l 525 129.867 l h
525 43.262 m f*
0 g
525 43.262 m 600 86.562 l 600 -0.039 l 450 86.562 l 525 129.867 l h
525 43.262 m S
0.85098 g
375 43.262 m 375 -43.34 l 300 -0.039 l 450 86.562 l 450 -0.039 l h
375 43.262 m f*
0 g
375 43.262 m 375 -43.34 l 300 -0.039 l 450 86.562 l 450 -0.039 l h
375 43.262 m S
0.85098 g
150 1212.398 m 75 1255.699 l 150 1299 l 150 1125.793 l 75 1169.098 l h
150 1212.398 m f*
0 g
150 1212.398 m 75 1255.699 l 150 1299 l 150 1125.793 l 75 1169.098 l h
150 1212.398 m S
0.85098 g
225 1082.492 m 300 1125.793 l 300 1039.191 l 150 1125.793 l 225 1169.098
 l h
225 1082.492 m f*
0 g
225 1082.492 m 300 1125.793 l 300 1039.191 l 150 1125.793 l 225 1169.098
 l h
225 1082.492 m S
0.85098 g
75 1082.492 m 75 995.891 l 0 1039.191 l 150 1125.793 l 150 1039.191 l h
75 1082.492 m f*
0 g
75 1082.492 m 75 995.891 l 0 1039.191 l 150 1125.793 l 150 1039.191 l h
75 1082.492 m S
0.85098 g
300 952.59 m 225 995.891 l 300 1039.191 l 300 865.988 l 225 909.289 l h
300 952.59 m f*
0 g
300 952.59 m 225 995.891 l 300 1039.191 l 300 865.988 l 225 909.289 l h
300 952.59 m S
0.85098 g
375 822.688 m 450 865.988 l 450 779.383 l 300 865.988 l 375 909.289 l h
375 822.688 m f*
0 g
375 822.688 m 450 865.988 l 450 779.383 l 300 865.988 l 375 909.289 l h
375 822.688 m S
0.85098 g
225 822.688 m 225 736.082 l 150 779.383 l 300 865.988 l 300 779.383 l h
225 822.688 m f*
0 g
225 822.688 m 225 736.082 l 150 779.383 l 300 865.988 l 300 779.383 l h
225 822.688 m S
0.85098 g
450 692.781 m 375 736.082 l 450 779.383 l 450 606.18 l 375 649.48 l h
450 692.781 m f*
0 g
450 692.781 m 375 736.082 l 450 779.383 l 450 606.18 l 375 649.48 l h
450 692.781 m S
0.85098 g
525 562.879 m 600 606.18 l 600 519.578 l 450 606.18 l 525 649.48 l h
525 562.879 m f*
0 g
525 562.879 m 600 606.18 l 600 519.578 l 450 606.18 l 525 649.48 l h
525 562.879 m S
0.85098 g
375 562.879 m 375 476.277 l 300 519.578 l 450 606.18 l 450 519.578 l h
375 562.879 m f*
0 g
375 562.879 m 375 476.277 l 300 519.578 l 450 606.18 l 450 519.578 l h
375 562.879 m S
0.85098 g
600 432.973 m 525 476.277 l 600 519.578 l 600 346.371 l 525 389.672 l h
600 432.973 m f*
0 g
600 432.973 m 525 476.277 l 600 519.578 l 600 346.371 l 525 389.672 l h
600 432.973 m S
0.85098 g
675 303.07 m 750 346.371 l 750 259.77 l 600 346.371 l 675 389.672 l h
675 303.07 m f*
0 g
675 303.07 m 750 346.371 l 750 259.77 l 600 346.371 l 675 389.672 l h
675 303.07 m S
0.85098 g
525 303.07 m 525 216.469 l 450 259.77 l 600 346.371 l 600 259.77 l h
525 303.07 m f*
0 g
525 303.07 m 525 216.469 l 450 259.77 l 600 346.371 l 600 259.77 l h
525 303.07 m S
0.85098 g
750 173.168 m 675 216.469 l 750 259.77 l 750 86.562 l 675 129.867 l h
750 173.168 m f*
0 g
750 173.168 m 675 216.469 l 750 259.77 l 750 86.562 l 675 129.867 l h
750 173.168 m S
0.85098 g
825 43.262 m 900 86.562 l 900 -0.039 l 750 86.562 l 825 129.867 l h
825 43.262 m f*
0 g
825 43.262 m 900 86.562 l 900 -0.039 l 750 86.562 l 825 129.867 l h
825 43.262 m S
0.85098 g
675 43.262 m 675 -43.34 l 600 -0.039 l 750 86.562 l 750 -0.039 l h
675 43.262 m f*
0 g
675 43.262 m 675 -43.34 l 600 -0.039 l 750 86.562 l 750 -0.039 l h
675 43.262 m S
0.85098 g
450 1212.398 m 375 1255.699 l 450 1299 l 450 1125.793 l 375 1169.098 l 
h
450 1212.398 m f*
0 g
450 1212.398 m 375 1255.699 l 450 1299 l 450 1125.793 l 375 1169.098 l 
h
450 1212.398 m S
0.85098 g
525 1082.492 m 600 1125.793 l 600 1039.191 l 450 1125.793 l 525 1169.098
 l h
525 1082.492 m f*
0 g
525 1082.492 m 600 1125.793 l 600 1039.191 l 450 1125.793 l 525 1169.098
 l h
525 1082.492 m S
0.85098 g
375 1082.492 m 375 995.891 l 300 1039.191 l 450 1125.793 l 450 1039.191
 l h
375 1082.492 m f*
0 g
375 1082.492 m 375 995.891 l 300 1039.191 l 450 1125.793 l 450 1039.191
 l h
375 1082.492 m S
0.85098 g
600 952.59 m 525 995.891 l 600 1039.191 l 600 865.988 l 525 909.289 l h
600 952.59 m f*
0 g
600 952.59 m 525 995.891 l 600 1039.191 l 600 865.988 l 525 909.289 l h
600 952.59 m S
0.85098 g
675 822.688 m 750 865.988 l 750 779.383 l 600 865.988 l 675 909.289 l h
675 822.688 m f*
0 g
675 822.688 m 750 865.988 l 750 779.383 l 600 865.988 l 675 909.289 l h
675 822.688 m S
0.85098 g
525 822.688 m 525 736.082 l 450 779.383 l 600 865.988 l 600 779.383 l h
525 822.688 m f*
0 g
525 822.688 m 525 736.082 l 450 779.383 l 600 865.988 l 600 779.383 l h
525 822.688 m S
0.85098 g
750 692.781 m 675 736.082 l 750 779.383 l 750 606.18 l 675 649.48 l h
750 692.781 m f*
0 g
750 692.781 m 675 736.082 l 750 779.383 l 750 606.18 l 675 649.48 l h
750 692.781 m S
0.85098 g
825 562.879 m 900 606.18 l 900 519.578 l 750 606.18 l 825 649.48 l h
825 562.879 m f*
0 g
825 562.879 m 900 606.18 l 900 519.578 l 750 606.18 l 825 649.48 l h
825 562.879 m S
0.85098 g
675 562.879 m 675 476.277 l 600 519.578 l 750 606.18 l 750 519.578 l h
675 562.879 m f*
0 g
675 562.879 m 675 476.277 l 600 519.578 l 750 606.18 l 750 519.578 l h
675 562.879 m S
0.85098 g
900 432.973 m 825 476.277 l 900 519.578 l 900 346.371 l 825 389.672 l h
900 432.973 m f*
0 g
900 432.973 m 825 476.277 l 900 519.578 l 900 346.371 l 825 389.672 l h
900 432.973 m S
0.85098 g
975 303.07 m 1050 346.371 l 1050 259.77 l 900 346.371 l 975 389.672 l h
975 303.07 m f*
0 g
975 303.07 m 1050 346.371 l 1050 259.77 l 900 346.371 l 975 389.672 l h
975 303.07 m S
0.85098 g
825 303.07 m 825 216.469 l 750 259.77 l 900 346.371 l 900 259.77 l h
825 303.07 m f*
0 g
825 303.07 m 825 216.469 l 750 259.77 l 900 346.371 l 900 259.77 l h
825 303.07 m S
0.85098 g
1050 173.168 m 975 216.469 l 1050 259.77 l 1050 86.562 l 975 129.867 l 
h
1050 173.168 m f*
0 g
1050 173.168 m 975 216.469 l 1050 259.77 l 1050 86.562 l 975 129.867 l 
h
1050 173.168 m S
0.85098 g
1125 43.262 m 1200 86.562 l 1200 -0.039 l 1050 86.562 l 1125 129.867 l 
h
1125 43.262 m f*
0 g
1125 43.262 m 1200 86.562 l 1200 -0.039 l 1050 86.562 l 1125 129.867 l 
h
1125 43.262 m S
0.85098 g
975 43.262 m 975 -43.34 l 900 -0.039 l 1050 86.562 l 1050 -0.039 l h
975 43.262 m f*
0 g
975 43.262 m 975 -43.34 l 900 -0.039 l 1050 86.562 l 1050 -0.039 l h
975 43.262 m S
0.85098 g
750 1212.398 m 675 1255.699 l 750 1299 l 750 1125.793 l 675 1169.098 l 
h
750 1212.398 m f*
0 g
750 1212.398 m 675 1255.699 l 750 1299 l 750 1125.793 l 675 1169.098 l 
h
750 1212.398 m S
0.85098 g
825 1082.492 m 900 1125.793 l 900 1039.191 l 750 1125.793 l 825 1169.098
 l h
825 1082.492 m f*
0 g
825 1082.492 m 900 1125.793 l 900 1039.191 l 750 1125.793 l 825 1169.098
 l h
825 1082.492 m S
0.85098 g
675 1082.492 m 675 995.891 l 600 1039.191 l 750 1125.793 l 750 1039.191
 l h
675 1082.492 m f*
0 g
675 1082.492 m 675 995.891 l 600 1039.191 l 750 1125.793 l 750 1039.191
 l h
675 1082.492 m S
0.85098 g
900 952.59 m 825 995.891 l 900 1039.191 l 900 865.988 l 825 909.289 l h
900 952.59 m f*
0 g
900 952.59 m 825 995.891 l 900 1039.191 l 900 865.988 l 825 909.289 l h
900 952.59 m S
0.85098 g
975 822.688 m 1050 865.988 l 1050 779.383 l 900 865.988 l 975 909.289 l
 h
975 822.688 m f*
0 g
975 822.688 m 1050 865.988 l 1050 779.383 l 900 865.988 l 975 909.289 l
 h
975 822.688 m S
0.85098 g
825 822.688 m 825 736.082 l 750 779.383 l 900 865.988 l 900 779.383 l h
825 822.688 m f*
0 g
825 822.688 m 825 736.082 l 750 779.383 l 900 865.988 l 900 779.383 l h
825 822.688 m S
0.85098 g
1050 692.781 m 975 736.082 l 1050 779.383 l 1050 606.18 l 975 649.48 l 
h
1050 692.781 m f*
0 g
1050 692.781 m 975 736.082 l 1050 779.383 l 1050 606.18 l 975 649.48 l 
h
1050 692.781 m S
0.85098 g
1125 562.879 m 1200 606.18 l 1200 519.578 l 1050 606.18 l 1125 649.48 l
 h
1125 562.879 m f*
0 g
1125 562.879 m 1200 606.18 l 1200 519.578 l 1050 606.18 l 1125 649.48 l
 h
1125 562.879 m S
0.85098 g
975 562.879 m 975 476.277 l 900 519.578 l 1050 606.18 l 1050 519.578 l 
h
975 562.879 m f*
0 g
975 562.879 m 975 476.277 l 900 519.578 l 1050 606.18 l 1050 519.578 l 
h
975 562.879 m S
0.85098 g
1200 432.973 m 1125 476.277 l 1200 519.578 l 1200 346.371 l 1125 389.672
 l h
1200 432.973 m f*
0 g
1200 432.973 m 1125 476.277 l 1200 519.578 l 1200 346.371 l 1125 389.672
 l h
1200 432.973 m S
0.85098 g
1275 303.07 m 1350 346.371 l 1350 259.77 l 1200 346.371 l 1275 389.672 
l h
1275 303.07 m f*
0 g
1275 303.07 m 1350 346.371 l 1350 259.77 l 1200 346.371 l 1275 389.672 
l h
1275 303.07 m S
0.85098 g
1125 303.07 m 1125 216.469 l 1050 259.77 l 1200 346.371 l 1200 259.77 l
 h
1125 303.07 m f*
0 g
1125 303.07 m 1125 216.469 l 1050 259.77 l 1200 346.371 l 1200 259.77 l
 h
1125 303.07 m S
0.85098 g
1350 173.168 m 1275 216.469 l 1350 259.77 l 1350 86.562 l 1275 129.867 
l h
1350 173.168 m f*
0 g
1350 173.168 m 1275 216.469 l 1350 259.77 l 1350 86.562 l 1275 129.867 
l h
1350 173.168 m S
1425 43.262 m 1500 86.562 l 1500 -0.039 l 1350 86.562 l 1425 129.867 l 
h
1425 43.262 m S
0.85098 g
1275 43.262 m 1275 -43.34 l 1200 -0.039 l 1350 86.562 l 1350 -0.039 l h
1275 43.262 m f*
0 g
1275 43.262 m 1275 -43.34 l 1200 -0.039 l 1350 86.562 l 1350 -0.039 l h
1275 43.262 m S
0.85098 g
1050 1212.398 m 975 1255.699 l 1050 1299 l 1050 1125.793 l 975 1169.098
 l h
1050 1212.398 m f*
0 g
1050 1212.398 m 975 1255.699 l 1050 1299 l 1050 1125.793 l 975 1169.098
 l h
1050 1212.398 m S
0.85098 g
1125 1082.492 m 1200 1125.793 l 1200 1039.191 l 1050 1125.793 l 1125 1169.098
 l h
1125 1082.492 m f*
0 g
1125 1082.492 m 1200 1125.793 l 1200 1039.191 l 1050 1125.793 l 1125 1169.098
 l h
1125 1082.492 m S
0.85098 g
975 1082.492 m 975 995.891 l 900 1039.191 l 1050 1125.793 l 1050 1039.191
 l h
975 1082.492 m f*
0 g
975 1082.492 m 975 995.891 l 900 1039.191 l 1050 1125.793 l 1050 1039.191
 l h
975 1082.492 m S
0.85098 g
1200 952.59 m 1125 995.891 l 1200 1039.191 l 1200 865.988 l 1125 909.289
 l h
1200 952.59 m f*
0 g
1200 952.59 m 1125 995.891 l 1200 1039.191 l 1200 865.988 l 1125 909.289
 l h
1200 952.59 m S
0.85098 g
1275 822.688 m 1350 865.988 l 1350 779.383 l 1200 865.988 l 1275 909.289
 l h
1275 822.688 m f*
0 g
1275 822.688 m 1350 865.988 l 1350 779.383 l 1200 865.988 l 1275 909.289
 l h
1275 822.688 m S
0.85098 g
1125 822.688 m 1125 736.082 l 1050 779.383 l 1200 865.988 l 1200 779.383
 l h
1125 822.688 m f*
0 g
1125 822.688 m 1125 736.082 l 1050 779.383 l 1200 865.988 l 1200 779.383
 l h
1125 822.688 m S
0.85098 g
1350 692.781 m 1275 736.082 l 1350 779.383 l 1350 606.18 l 1275 649.48 
l h
1350 692.781 m f*
0 g
1350 692.781 m 1275 736.082 l 1350 779.383 l 1350 606.18 l 1275 649.48 
l h
1350 692.781 m S
1425 562.879 m 1500 606.18 l 1500 519.578 l 1350 606.18 l 1425 649.48 l
 h
1425 562.879 m S
0.85098 g
1275 562.879 m 1275 476.277 l 1200 519.578 l 1350 606.18 l 1350 519.578
 l h
1275 562.879 m f*
0 g
1275 562.879 m 1275 476.277 l 1200 519.578 l 1350 606.18 l 1350 519.578
 l h
1275 562.879 m S
1425 303.07 m 1425 216.469 l 1350 259.77 l 1500 346.371 l 1500 259.77 l
 h
1425 303.07 m S
0.85098 g
1350 1212.398 m 1275 1255.699 l 1350 1299 l 1350 1125.793 l 1275 1169.098
 l h
1350 1212.398 m f*
0 g
1350 1212.398 m 1275 1255.699 l 1350 1299 l 1350 1125.793 l 1275 1169.098
 l h
1350 1212.398 m S
1425 1082.492 m 1500 1125.793 l 1500 1039.191 l 1350 1125.793 l 1425 1169.098
 l h
1425 1082.492 m S
0.85098 g
1275 1082.492 m 1275 995.891 l 1200 1039.191 l 1350 1125.793 l 1350 1039.191
 l h
1275 1082.492 m f*
0 g
1275 1082.492 m 1275 995.891 l 1200 1039.191 l 1350 1125.793 l 1350 1039.191
 l h
1275 1082.492 m S
1425 822.688 m 1425 736.082 l 1350 779.383 l 1500 865.988 l 1500 779.383
 l h
1425 822.688 m S
Q Q
showpage
%%Trailer
%%Trailer
cleartomark
countdictstack
exch sub { end } repeat
restore
%%EOF
