%!PS-Adobe-2.0 EPSF-2.0
%%BoundingBox: 0 0 1350 1299
%%HiResBoundingBox: 0.000000 0.000000 1350.000000 1299.000000
%%Creator: cairo 1.14.2 (http://cairographics.org)
%%CreationDate: Mon Sep  7 08:22:04 2015
%%DocumentData: Clean7Bit
%%LanguageLevel: 2
%%DocumentMedia: 476x458mm 1350 1299 0 () ()
%%EndComments
% EPSF created by ps2eps 1.68
%%BeginProlog
save
countdictstack
mark
newpath
/showpage {} def
/setpagedevice {pop} def
%%EndProlog
%%Page 1 1
%%BeginProlog
/languagelevel where
{ pop languagelevel } { 1 } ifelse
2 lt { /Helvetica findfont 12 scalefont setfont 50 500 moveto
  (This print job requires a PostScript Language Level 2 printer.) show
  showpage quit } if
/q { gsave } bind def
/Q { grestore } bind def
/cm { 6 array astore concat } bind def
/w { setlinewidth } bind def
/J { setlinecap } bind def
/j { setlinejoin } bind def
/M { setmiterlimit } bind def
/d { setdash } bind def
/m { moveto } bind def
/l { lineto } bind def
/c { curveto } bind def
/h { closepath } bind def
/re { exch dup neg 3 1 roll 5 3 roll moveto 0 rlineto
      0 exch rlineto 0 rlineto closepath } bind def
/S { stroke } bind def
/f { fill } bind def
/f* { eofill } bind def
/n { newpath } bind def
/W { clip } bind def
/W* { eoclip } bind def
/BT { } bind def
/ET { } bind def
/pdfmark where { pop globaldict /?pdfmark /exec load put }
    { globaldict begin /?pdfmark /pop load def /pdfmark
    /cleartomark load def end } ifelse
/BDC { mark 3 1 roll /BDC pdfmark } bind def
/EMC { mark /EMC pdfmark } bind def
/cairo_store_point { /cairo_point_y exch def /cairo_point_x exch def } def
/Tj { show currentpoint cairo_store_point } bind def
/TJ {
  {
    dup
    type /stringtype eq
    { show } { -0.001 mul 0 cairo_font_matrix dtransform rmoveto } ifelse
  } forall
  currentpoint cairo_store_point
} bind def
/cairo_selectfont { cairo_font_matrix aload pop pop pop 0 0 6 array astore
    cairo_font exch selectfont cairo_point_x cairo_point_y moveto } bind def
/Tf { pop /cairo_font exch def /cairo_font_matrix where
      { pop cairo_selectfont } if } bind def
/Td { matrix translate cairo_font_matrix matrix concatmatrix dup
      /cairo_font_matrix exch def dup 4 get exch 5 get cairo_store_point
      /cairo_font where { pop cairo_selectfont } if } bind def
/Tm { 2 copy 8 2 roll 6 array astore /cairo_font_matrix exch def
      cairo_store_point /cairo_font where { pop cairo_selectfont } if } bind def
/g { setgray } bind def
/rg { setrgbcolor } bind def
/d1 { setcachedevice } bind def
/cairo_set_page_size {
  % Change paper size, but only if different from previous paper size otherwise
  % duplex fails. PLRM specifies a tolerance of 5 pts when matching paper size
  % so we use the same when checking if the size changes.
  /setpagedevice where {
    pop currentpagedevice
    /PageSize known {
      2 copy
      currentpagedevice /PageSize get aload pop
      exch 4 1 roll
      sub abs 5 gt
      3 1 roll
      sub abs 5 gt
      or
    } {
      true
    } ifelse
    {
      2 array astore
      2 dict begin
        /PageSize exch def
        /ImagingBBox null def
      currentdict end
      setpagedevice
    } {
      pop pop
    } ifelse
  } {
    pop
  } ifelse
} def
%%EndProlog
%%BeginSetup
%%EndSetup
%%Page: 1 1
%%BeginPageSetup
%%PageMedia: 476x458mm
%%PageBoundingBox: 0 0 1350 1299
1350 1299 cairo_set_page_size
%%EndPageSetup
q 0 0 1350 1299 rectclip q
0.984314 g
0 0 1350 1299 rectfill
0.788235 g
1.875 w
0 J
1 j
[] 0.0 d
4 M 0 1299 1350 -1299.039 re S
0 g
2.5 w
1 J
0 432.973 m -75 389.672 0 346.371 -75 303.07 c S
75 303.07 m 75 389.672 0 346.371 0 432.973 c S
-75 303.07 m 0 259.77 0 346.371 75 303.07 c S
150 173.168 m 75 129.867 150 86.562 75 43.262 c S
225 43.262 m 225 129.867 150 86.562 150 173.168 c S
75 43.262 m 150 -0.039 150 86.562 225 43.262 c S
0 952.59 m -75 909.289 0 865.988 -75 822.688 c S
75 822.688 m 75 909.289 0 865.988 0 952.59 c S
-75 822.688 m 0 779.383 0 865.988 75 822.688 c S
150 692.781 m 75 649.48 150 606.18 75 562.879 c S
225 562.879 m 225 649.48 150 606.18 150 692.781 c S
75 562.879 m 150 519.578 150 606.18 225 562.879 c S
300 432.973 m 225 389.672 300 346.371 225 303.07 c S
375 303.07 m 375 389.672 300 346.371 300 432.973 c S
225 303.07 m 300 259.77 300 346.371 375 303.07 c S
450 173.168 m 375 129.867 450 86.562 375 43.262 c S
525 43.262 m 525 129.867 450 86.562 450 173.168 c S
375 43.262 m 450 -0.039 450 86.562 525 43.262 c S
150 1212.398 m 75 1169.098 150 1125.793 75 1082.492 c S
225 1082.492 m 225 1169.098 150 1125.793 150 1212.398 c S
75 1082.492 m 150 1039.191 150 1125.793 225 1082.492 c S
300 952.59 m 225 909.289 300 865.988 225 822.688 c S
375 822.688 m 375 909.289 300 865.988 300 952.59 c S
225 822.688 m 300 779.383 300 865.988 375 822.688 c S
450 692.781 m 375 649.48 450 606.18 375 562.879 c S
525 562.879 m 525 649.48 450 606.18 450 692.781 c S
375 562.879 m 450 519.578 450 606.18 525 562.879 c S
600 432.973 m 525 389.672 600 346.371 525 303.07 c S
675 303.07 m 675 389.672 600 346.371 600 432.973 c S
525 303.07 m 600 259.77 600 346.371 675 303.07 c S
750 173.168 m 675 129.867 750 86.562 675 43.262 c S
825 43.262 m 825 129.867 750 86.562 750 173.168 c S
675 43.262 m 750 -0.039 750 86.562 825 43.262 c S
450 1212.398 m 375 1169.098 450 1125.793 375 1082.492 c S
525 1082.492 m 525 1169.098 450 1125.793 450 1212.398 c S
375 1082.492 m 450 1039.191 450 1125.793 525 1082.492 c S
600 952.59 m 525 909.289 600 865.988 525 822.688 c S
675 822.688 m 675 909.289 600 865.988 600 952.59 c S
525 822.688 m 600 779.383 600 865.988 675 822.688 c S
750 692.781 m 675 649.48 750 606.18 675 562.879 c S
825 562.879 m 825 649.48 750 606.18 750 692.781 c S
675 562.879 m 750 519.578 750 606.18 825 562.879 c S
900 432.973 m 825 389.672 900 346.371 825 303.07 c S
975 303.07 m 975 389.672 900 346.371 900 432.973 c S
825 303.07 m 900 259.77 900 346.371 975 303.07 c S
1050 173.168 m 975 129.867 1050 86.562 975 43.262 c S
1125 43.262 m 1125 129.867 1050 86.562 1050 173.168 c S
975 43.262 m 1050 -0.039 1050 86.562 1125 43.262 c S
750 1212.398 m 675 1169.098 750 1125.793 675 1082.492 c S
825 1082.492 m 825 1169.098 750 1125.793 750 1212.398 c S
675 1082.492 m 750 1039.191 750 1125.793 825 1082.492 c S
900 952.59 m 825 909.289 900 865.988 825 822.688 c S
975 822.688 m 975 909.289 900 865.988 900 952.59 c S
825 822.688 m 900 779.383 900 865.988 975 822.688 c S
1050 692.781 m 975 649.48 1050 606.18 975 562.879 c S
1125 562.879 m 1125 649.48 1050 606.18 1050 692.781 c S
975 562.879 m 1050 519.578 1050 606.18 1125 562.879 c S
1200 432.973 m 1125 389.672 1200 346.371 1125 303.07 c S
1275 303.07 m 1275 389.672 1200 346.371 1200 432.973 c S
1125 303.07 m 1200 259.77 1200 346.371 1275 303.07 c S
1350 173.168 m 1275 129.867 1350 86.562 1275 43.262 c S
1425 43.262 m 1425 129.867 1350 86.562 1350 173.168 c S
1275 43.262 m 1350 -0.039 1350 86.562 1425 43.262 c S
1050 1212.398 m 975 1169.098 1050 1125.793 975 1082.492 c S
1125 1082.492 m 1125 1169.098 1050 1125.793 1050 1212.398 c S
975 1082.492 m 1050 1039.191 1050 1125.793 1125 1082.492 c S
1200 952.59 m 1125 909.289 1200 865.988 1125 822.688 c S
1275 822.688 m 1275 909.289 1200 865.988 1200 952.59 c S
1125 822.688 m 1200 779.383 1200 865.988 1275 822.688 c S
1350 692.781 m 1275 649.48 1350 606.18 1275 562.879 c S
1425 562.879 m 1425 649.48 1350 606.18 1350 692.781 c S
1275 562.879 m 1350 519.578 1350 606.18 1425 562.879 c S
1350 1212.398 m 1275 1169.098 1350 1125.793 1275 1082.492 c S
1425 1082.492 m 1425 1169.098 1350 1125.793 1350 1212.398 c S
1275 1082.492 m 1350 1039.191 1350 1125.793 1425 1082.492 c S
Q Q
showpage
%%Trailer
%%Trailer
cleartomark
countdictstack
exch sub { end } repeat
restore
%%EOF
