%!PS-Adobe-2.0 EPSF-2.0
%%BoundingBox: 0 0 1350 1299
%%HiResBoundingBox: 0.000000 0.000000 1350.000000 1299.000000
%%Creator: cairo 1.14.2 (http://cairographics.org)
%%CreationDate: Mon Sep  7 08:22:04 2015
%%DocumentData: Clean7Bit
%%LanguageLevel: 2
%%DocumentMedia: 476x458mm 1350 1299 0 () ()
%%EndComments
% EPSF created by ps2eps 1.68
%%BeginProlog
save
countdictstack
mark
newpath
/showpage {} def
/setpagedevice {pop} def
%%EndProlog
%%Page 1 1
%%BeginProlog
/languagelevel where
{ pop languagelevel } { 1 } ifelse
2 lt { /Helvetica findfont 12 scalefont setfont 50 500 moveto
  (This print job requires a PostScript Language Level 2 printer.) show
  showpage quit } if
/q { gsave } bind def
/Q { grestore } bind def
/cm { 6 array astore concat } bind def
/w { setlinewidth } bind def
/J { setlinecap } bind def
/j { setlinejoin } bind def
/M { setmiterlimit } bind def
/d { setdash } bind def
/m { moveto } bind def
/l { lineto } bind def
/c { curveto } bind def
/h { closepath } bind def
/re { exch dup neg 3 1 roll 5 3 roll moveto 0 rlineto
      0 exch rlineto 0 rlineto closepath } bind def
/S { stroke } bind def
/f { fill } bind def
/f* { eofill } bind def
/n { newpath } bind def
/W { clip } bind def
/W* { eoclip } bind def
/BT { } bind def
/ET { } bind def
/pdfmark where { pop globaldict /?pdfmark /exec load put }
    { globaldict begin /?pdfmark /pop load def /pdfmark
    /cleartomark load def end } ifelse
/BDC { mark 3 1 roll /BDC pdfmark } bind def
/EMC { mark /EMC pdfmark } bind def
/cairo_store_point { /cairo_point_y exch def /cairo_point_x exch def } def
/Tj { show currentpoint cairo_store_point } bind def
/TJ {
  {
    dup
    type /stringtype eq
    { show } { -0.001 mul 0 cairo_font_matrix dtransform rmoveto } ifelse
  } forall
  currentpoint cairo_store_point
} bind def
/cairo_selectfont { cairo_font_matrix aload pop pop pop 0 0 6 array astore
    cairo_font exch selectfont cairo_point_x cairo_point_y moveto } bind def
/Tf { pop /cairo_font exch def /cairo_font_matrix where
      { pop cairo_selectfont } if } bind def
/Td { matrix translate cairo_font_matrix matrix concatmatrix dup
      /cairo_font_matrix exch def dup 4 get exch 5 get cairo_store_point
      /cairo_font where { pop cairo_selectfont } if } bind def
/Tm { 2 copy 8 2 roll 6 array astore /cairo_font_matrix exch def
      cairo_store_point /cairo_font where { pop cairo_selectfont } if } bind def
/g { setgray } bind def
/rg { setrgbcolor } bind def
/d1 { setcachedevice } bind def
/cairo_set_page_size {
  % Change paper size, but only if different from previous paper size otherwise
  % duplex fails. PLRM specifies a tolerance of 5 pts when matching paper size
  % so we use the same when checking if the size changes.
  /setpagedevice where {
    pop currentpagedevice
    /PageSize known {
      2 copy
      currentpagedevice /PageSize get aload pop
      exch 4 1 roll
      sub abs 5 gt
      3 1 roll
      sub abs 5 gt
      or
    } {
      true
    } ifelse
    {
      2 array astore
      2 dict begin
        /PageSize exch def
        /ImagingBBox null def
      currentdict end
      setpagedevice
    } {
      pop pop
    } ifelse
  } {
    pop
  } ifelse
} def
%%EndProlog
%%BeginSetup
%%EndSetup
%%Page: 1 1
%%BeginPageSetup
%%PageMedia: 476x458mm
%%PageBoundingBox: 0 0 1350 1299
1350 1299 cairo_set_page_size
%%EndPageSetup
q 0 0 1350 1299 rectclip q
0.984314 g
0 0 1350 1299 rectfill
0.788235 g
1.875 w
0 J
1 j
[] 0.0 d
4 M 0 1299 1350 -1299.039 re S
0 g
2.5 w
1 J
0 346.371 m 0 519.578 -150 259.77 -50 432.973 c S
0 173.168 m 150 259.77 0 -0.039 100 173.168 c S
150 86.562 m 150 259.77 0 -0.039 100 173.168 c S
0 173.168 m 0 -0.039 -150 259.77 -50 86.562 c S
0 173.168 m -150 259.77 150 259.77 -50 259.77 c S
0 346.371 m -150 259.77 150 259.77 -50 259.77 c S
0 865.988 m 0 1039.191 -150 779.383 -50 952.59 c S
0 692.781 m 150 779.383 0 519.578 100 692.781 c S
150 606.18 m 150 779.383 0 519.578 100 692.781 c S
0 692.781 m 0 519.578 -150 779.383 -50 606.18 c S
0 692.781 m -150 779.383 150 779.383 -50 779.383 c S
0 865.988 m -150 779.383 150 779.383 -50 779.383 c S
150 432.973 m 300 519.578 150 259.77 250 432.973 c S
300 346.371 m 300 519.578 150 259.77 250 432.973 c S
150 432.973 m 150 259.77 0 519.578 100 346.371 c S
150 432.973 m 0 519.578 300 519.578 100 519.578 c S
0 346.371 m 150 259.77 0 519.578 100 346.371 c S
150 606.18 m 0 519.578 300 519.578 100 519.578 c S
300 173.168 m 450 259.77 300 -0.039 400 173.168 c S
450 86.562 m 450 259.77 300 -0.039 400 173.168 c S
300 173.168 m 300 -0.039 150 259.77 250 86.562 c S
300 173.168 m 150 259.77 450 259.77 250 259.77 c S
150 86.562 m 300 -0.039 150 259.77 250 86.562 c S
300 346.371 m 150 259.77 450 259.77 250 259.77 c S
0 1212.398 m 150 1299 0 1039.191 100 1212.398 c S
150 1125.793 m 150 1299 0 1039.191 100 1212.398 c S
0 1212.398 m 0 1039.191 -150 1299 -50 1125.793 c S
0 1212.398 m -150 1299 150 1299 -50 1299 c S
0 1385.602 m -150 1299 150 1299 -50 1299 c S
150 952.59 m 300 1039.191 150 779.383 250 952.59 c S
300 865.988 m 300 1039.191 150 779.383 250 952.59 c S
150 952.59 m 150 779.383 0 1039.191 100 865.988 c S
150 952.59 m 0 1039.191 300 1039.191 100 1039.191 c S
0 865.988 m 150 779.383 0 1039.191 100 865.988 c S
150 1125.793 m 0 1039.191 300 1039.191 100 1039.191 c S
300 692.781 m 450 779.383 300 519.578 400 692.781 c S
450 606.18 m 450 779.383 300 519.578 400 692.781 c S
300 692.781 m 300 519.578 150 779.383 250 606.18 c S
300 692.781 m 150 779.383 450 779.383 250 779.383 c S
150 606.18 m 300 519.578 150 779.383 250 606.18 c S
300 865.988 m 150 779.383 450 779.383 250 779.383 c S
450 432.973 m 600 519.578 450 259.77 550 432.973 c S
600 346.371 m 600 519.578 450 259.77 550 432.973 c S
450 432.973 m 450 259.77 300 519.578 400 346.371 c S
450 432.973 m 300 519.578 600 519.578 400 519.578 c S
300 346.371 m 450 259.77 300 519.578 400 346.371 c S
450 606.18 m 300 519.578 600 519.578 400 519.578 c S
600 173.168 m 750 259.77 600 -0.039 700 173.168 c S
750 86.562 m 750 259.77 600 -0.039 700 173.168 c S
600 173.168 m 600 -0.039 450 259.77 550 86.562 c S
600 173.168 m 450 259.77 750 259.77 550 259.77 c S
450 86.562 m 600 -0.039 450 259.77 550 86.562 c S
600 346.371 m 450 259.77 750 259.77 550 259.77 c S
300 1212.398 m 450 1299 300 1039.191 400 1212.398 c S
450 1125.793 m 450 1299 300 1039.191 400 1212.398 c S
300 1212.398 m 300 1039.191 150 1299 250 1125.793 c S
300 1212.398 m 150 1299 450 1299 250 1299 c S
150 1125.793 m 300 1039.191 150 1299 250 1125.793 c S
300 1385.602 m 150 1299 450 1299 250 1299 c S
450 952.59 m 600 1039.191 450 779.383 550 952.59 c S
600 865.988 m 600 1039.191 450 779.383 550 952.59 c S
450 952.59 m 450 779.383 300 1039.191 400 865.988 c S
450 952.59 m 300 1039.191 600 1039.191 400 1039.191 c S
300 865.988 m 450 779.383 300 1039.191 400 865.988 c S
450 1125.793 m 300 1039.191 600 1039.191 400 1039.191 c S
600 692.781 m 750 779.383 600 519.578 700 692.781 c S
750 606.18 m 750 779.383 600 519.578 700 692.781 c S
600 692.781 m 600 519.578 450 779.383 550 606.18 c S
600 692.781 m 450 779.383 750 779.383 550 779.383 c S
450 606.18 m 600 519.578 450 779.383 550 606.18 c S
600 865.988 m 450 779.383 750 779.383 550 779.383 c S
750 432.973 m 900 519.578 750 259.77 850 432.973 c S
900 346.371 m 900 519.578 750 259.77 850 432.973 c S
750 432.973 m 750 259.77 600 519.578 700 346.371 c S
750 432.973 m 600 519.578 900 519.578 700 519.578 c S
600 346.371 m 750 259.77 600 519.578 700 346.371 c S
750 606.18 m 600 519.578 900 519.578 700 519.578 c S
900 173.168 m 1050 259.77 900 -0.039 1000 173.168 c S
1050 86.562 m 1050 259.77 900 -0.039 1000 173.168 c S
900 173.168 m 900 -0.039 750 259.77 850 86.562 c S
900 173.168 m 750 259.77 1050 259.77 850 259.77 c S
750 86.562 m 900 -0.039 750 259.77 850 86.562 c S
900 346.371 m 750 259.77 1050 259.77 850 259.77 c S
600 1212.398 m 750 1299 600 1039.191 700 1212.398 c S
750 1125.793 m 750 1299 600 1039.191 700 1212.398 c S
600 1212.398 m 600 1039.191 450 1299 550 1125.793 c S
600 1212.398 m 450 1299 750 1299 550 1299 c S
450 1125.793 m 600 1039.191 450 1299 550 1125.793 c S
600 1385.602 m 450 1299 750 1299 550 1299 c S
750 952.59 m 900 1039.191 750 779.383 850 952.59 c S
900 865.988 m 900 1039.191 750 779.383 850 952.59 c S
750 952.59 m 750 779.383 600 1039.191 700 865.988 c S
750 952.59 m 600 1039.191 900 1039.191 700 1039.191 c S
600 865.988 m 750 779.383 600 1039.191 700 865.988 c S
750 1125.793 m 600 1039.191 900 1039.191 700 1039.191 c S
900 692.781 m 1050 779.383 900 519.578 1000 692.781 c S
1050 606.18 m 1050 779.383 900 519.578 1000 692.781 c S
900 692.781 m 900 519.578 750 779.383 850 606.18 c S
900 692.781 m 750 779.383 1050 779.383 850 779.383 c S
750 606.18 m 900 519.578 750 779.383 850 606.18 c S
900 865.988 m 750 779.383 1050 779.383 850 779.383 c S
1050 432.973 m 1200 519.578 1050 259.77 1150 432.973 c S
1200 346.371 m 1200 519.578 1050 259.77 1150 432.973 c S
1050 432.973 m 1050 259.77 900 519.578 1000 346.371 c S
1050 432.973 m 900 519.578 1200 519.578 1000 519.578 c S
900 346.371 m 1050 259.77 900 519.578 1000 346.371 c S
1050 606.18 m 900 519.578 1200 519.578 1000 519.578 c S
1200 173.168 m 1350 259.77 1200 -0.039 1300 173.168 c S
1350 86.562 m 1350 259.77 1200 -0.039 1300 173.168 c S
1200 173.168 m 1200 -0.039 1050 259.77 1150 86.562 c S
1200 173.168 m 1050 259.77 1350 259.77 1150 259.77 c S
1050 86.562 m 1200 -0.039 1050 259.77 1150 86.562 c S
1200 346.371 m 1050 259.77 1350 259.77 1150 259.77 c S
900 1212.398 m 1050 1299 900 1039.191 1000 1212.398 c S
1050 1125.793 m 1050 1299 900 1039.191 1000 1212.398 c S
900 1212.398 m 900 1039.191 750 1299 850 1125.793 c S
900 1212.398 m 750 1299 1050 1299 850 1299 c S
750 1125.793 m 900 1039.191 750 1299 850 1125.793 c S
900 1385.602 m 750 1299 1050 1299 850 1299 c S
1050 952.59 m 1200 1039.191 1050 779.383 1150 952.59 c S
1200 865.988 m 1200 1039.191 1050 779.383 1150 952.59 c S
1050 952.59 m 1050 779.383 900 1039.191 1000 865.988 c S
1050 952.59 m 900 1039.191 1200 1039.191 1000 1039.191 c S
900 865.988 m 1050 779.383 900 1039.191 1000 865.988 c S
1050 1125.793 m 900 1039.191 1200 1039.191 1000 1039.191 c S
1200 692.781 m 1350 779.383 1200 519.578 1300 692.781 c S
1350 606.18 m 1350 779.383 1200 519.578 1300 692.781 c S
1200 692.781 m 1200 519.578 1050 779.383 1150 606.18 c S
1200 692.781 m 1050 779.383 1350 779.383 1150 779.383 c S
1050 606.18 m 1200 519.578 1050 779.383 1150 606.18 c S
1200 865.988 m 1050 779.383 1350 779.383 1150 779.383 c S
1350 432.973 m 1500 519.578 1350 259.77 1450 432.973 c S
1350 432.973 m 1350 259.77 1200 519.578 1300 346.371 c S
1350 432.973 m 1200 519.578 1500 519.578 1300 519.578 c S
1200 346.371 m 1350 259.77 1200 519.578 1300 346.371 c S
1350 606.18 m 1200 519.578 1500 519.578 1300 519.578 c S
1350 86.562 m 1500 -0.039 1350 259.77 1450 86.562 c S
1200 1212.398 m 1350 1299 1200 1039.191 1300 1212.398 c S
1350 1125.793 m 1350 1299 1200 1039.191 1300 1212.398 c S
1200 1212.398 m 1200 1039.191 1050 1299 1150 1125.793 c S
1200 1212.398 m 1050 1299 1350 1299 1150 1299 c S
1050 1125.793 m 1200 1039.191 1050 1299 1150 1125.793 c S
1200 1385.602 m 1050 1299 1350 1299 1150 1299 c S
1350 952.59 m 1500 1039.191 1350 779.383 1450 952.59 c S
1350 952.59 m 1350 779.383 1200 1039.191 1300 865.988 c S
1350 952.59 m 1200 1039.191 1500 1039.191 1300 1039.191 c S
1200 865.988 m 1350 779.383 1200 1039.191 1300 865.988 c S
1350 1125.793 m 1200 1039.191 1500 1039.191 1300 1039.191 c S
1350 606.18 m 1500 519.578 1350 779.383 1450 606.18 c S
Q Q
showpage
%%Trailer
%%Trailer
cleartomark
countdictstack
exch sub { end } repeat
restore
%%EOF
