%!PS-Adobe-2.0 EPSF-2.0
%%BoundingBox: 0 0 2450 1750
%%HiResBoundingBox: 0.000000 0.000000 2450.000000 1750.000000
%%Creator: cairo 1.14.2 (http://cairographics.org)
%%CreationDate: Mon Sep  7 08:22:04 2015
%%DocumentData: Clean7Bit
%%LanguageLevel: 2
%%DocumentMedia: 864x617mm 2450 1750 0 () ()
%%EndComments
% EPSF created by ps2eps 1.68
%%BeginProlog
save
countdictstack
mark
newpath
/showpage {} def
/setpagedevice {pop} def
%%EndProlog
%%Page 1 1
%%BeginProlog
/languagelevel where
{ pop languagelevel } { 1 } ifelse
2 lt { /Helvetica findfont 12 scalefont setfont 50 500 moveto
  (This print job requires a PostScript Language Level 2 printer.) show
  showpage quit } if
/q { gsave } bind def
/Q { grestore } bind def
/cm { 6 array astore concat } bind def
/w { setlinewidth } bind def
/J { setlinecap } bind def
/j { setlinejoin } bind def
/M { setmiterlimit } bind def
/d { setdash } bind def
/m { moveto } bind def
/l { lineto } bind def
/c { curveto } bind def
/h { closepath } bind def
/re { exch dup neg 3 1 roll 5 3 roll moveto 0 rlineto
      0 exch rlineto 0 rlineto closepath } bind def
/S { stroke } bind def
/f { fill } bind def
/f* { eofill } bind def
/n { newpath } bind def
/W { clip } bind def
/W* { eoclip } bind def
/BT { } bind def
/ET { } bind def
/pdfmark where { pop globaldict /?pdfmark /exec load put }
    { globaldict begin /?pdfmark /pop load def /pdfmark
    /cleartomark load def end } ifelse
/BDC { mark 3 1 roll /BDC pdfmark } bind def
/EMC { mark /EMC pdfmark } bind def
/cairo_store_point { /cairo_point_y exch def /cairo_point_x exch def } def
/Tj { show currentpoint cairo_store_point } bind def
/TJ {
  {
    dup
    type /stringtype eq
    { show } { -0.001 mul 0 cairo_font_matrix dtransform rmoveto } ifelse
  } forall
  currentpoint cairo_store_point
} bind def
/cairo_selectfont { cairo_font_matrix aload pop pop pop 0 0 6 array astore
    cairo_font exch selectfont cairo_point_x cairo_point_y moveto } bind def
/Tf { pop /cairo_font exch def /cairo_font_matrix where
      { pop cairo_selectfont } if } bind def
/Td { matrix translate cairo_font_matrix matrix concatmatrix dup
      /cairo_font_matrix exch def dup 4 get exch 5 get cairo_store_point
      /cairo_font where { pop cairo_selectfont } if } bind def
/Tm { 2 copy 8 2 roll 6 array astore /cairo_font_matrix exch def
      cairo_store_point /cairo_font where { pop cairo_selectfont } if } bind def
/g { setgray } bind def
/rg { setrgbcolor } bind def
/d1 { setcachedevice } bind def
/cairo_set_page_size {
  % Change paper size, but only if different from previous paper size otherwise
  % duplex fails. PLRM specifies a tolerance of 5 pts when matching paper size
  % so we use the same when checking if the size changes.
  /setpagedevice where {
    pop currentpagedevice
    /PageSize known {
      2 copy
      currentpagedevice /PageSize get aload pop
      exch 4 1 roll
      sub abs 5 gt
      3 1 roll
      sub abs 5 gt
      or
    } {
      true
    } ifelse
    {
      2 array astore
      2 dict begin
        /PageSize exch def
        /ImagingBBox null def
      currentdict end
      setpagedevice
    } {
      pop pop
    } ifelse
  } {
    pop
  } ifelse
} def
%%EndProlog
%%BeginSetup
%%EndSetup
%%Page: 1 1
%%BeginPageSetup
%%PageMedia: 864x617mm
%%PageBoundingBox: 0 0 2450 1750
2450 1750 cairo_set_page_size
%%EndPageSetup
q 0 0 2450 1750 rectclip q
0.984314 g
0 0 2450 1750 rectfill
0.788235 g
1.875 w
0 J
1 j
[] 0.0 d
4 M 0 1750 2450 -1750 re S
0 g
2.5 w
1 J
175 1750 m 116.668 1750 0 1691.668 58.332 1691.668 c S
350 1575 m 350 1633.332 291.668 1750 291.668 1691.668 c S
175 1400 m 233.332 1400 350 1458.332 291.668 1458.332 c S
0 1575 m 0 1516.668 58.332 1400 58.332 1458.332 c S
175 1400 m 116.668 1400 0 1341.668 58.332 1341.668 c S
350 1225 m 350 1283.332 291.668 1400 291.668 1341.668 c S
175 1050 m 233.332 1050 350 1108.332 291.668 1108.332 c S
0 1225 m 0 1166.668 58.332 1050 58.332 1108.332 c S
175 1050 m 116.668 1050 0 991.668 58.332 991.668 c S
350 875 m 350 933.332 291.668 1050 291.668 991.668 c S
175 700 m 233.332 700 350 758.332 291.668 758.332 c S
0 875 m 0 816.668 58.332 700 58.332 758.332 c S
175 700 m 116.668 700 0 641.668 58.332 641.668 c S
350 525 m 350 583.332 291.668 700 291.668 641.668 c S
175 350 m 233.332 350 350 408.332 291.668 408.332 c S
0 525 m 0 466.668 58.332 350 58.332 408.332 c S
175 350 m 116.668 350 0 291.668 58.332 291.668 c S
350 175 m 350 233.332 291.668 350 291.668 291.668 c S
175 0 m 233.332 0 350 58.332 291.668 58.332 c S
0 175 m 0 116.668 58.332 0 58.332 58.332 c S
525 1750 m 466.668 1750 350 1691.668 408.332 1691.668 c S
700 1575 m 700 1633.332 641.668 1750 641.668 1691.668 c S
525 1400 m 583.332 1400 700 1458.332 641.668 1458.332 c S
350 1575 m 350 1516.668 408.332 1400 408.332 1458.332 c S
525 1400 m 466.668 1400 350 1341.668 408.332 1341.668 c S
700 1225 m 700 1283.332 641.668 1400 641.668 1341.668 c S
525 1050 m 583.332 1050 700 1108.332 641.668 1108.332 c S
350 1225 m 350 1166.668 408.332 1050 408.332 1108.332 c S
525 1050 m 466.668 1050 350 991.668 408.332 991.668 c S
700 875 m 700 933.332 641.668 1050 641.668 991.668 c S
525 700 m 583.332 700 700 758.332 641.668 758.332 c S
350 875 m 350 816.668 408.332 700 408.332 758.332 c S
525 700 m 466.668 700 350 641.668 408.332 641.668 c S
700 525 m 700 583.332 641.668 700 641.668 641.668 c S
525 350 m 583.332 350 700 408.332 641.668 408.332 c S
350 525 m 350 466.668 408.332 350 408.332 408.332 c S
525 350 m 466.668 350 350 291.668 408.332 291.668 c S
700 175 m 700 233.332 641.668 350 641.668 291.668 c S
525 0 m 583.332 0 700 58.332 641.668 58.332 c S
350 175 m 350 116.668 408.332 0 408.332 58.332 c S
875 1750 m 816.668 1750 700 1691.668 758.332 1691.668 c S
1050 1575 m 1050 1633.332 991.668 1750 991.668 1691.668 c S
875 1400 m 933.332 1400 1050 1458.332 991.668 1458.332 c S
700 1575 m 700 1516.668 758.332 1400 758.332 1458.332 c S
875 1400 m 816.668 1400 700 1341.668 758.332 1341.668 c S
1050 1225 m 1050 1283.332 991.668 1400 991.668 1341.668 c S
875 1050 m 933.332 1050 1050 1108.332 991.668 1108.332 c S
700 1225 m 700 1166.668 758.332 1050 758.332 1108.332 c S
875 1050 m 816.668 1050 700 991.668 758.332 991.668 c S
1050 875 m 1050 933.332 991.668 1050 991.668 991.668 c S
875 700 m 933.332 700 1050 758.332 991.668 758.332 c S
700 875 m 700 816.668 758.332 700 758.332 758.332 c S
875 700 m 816.668 700 700 641.668 758.332 641.668 c S
1050 525 m 1050 583.332 991.668 700 991.668 641.668 c S
875 350 m 933.332 350 1050 408.332 991.668 408.332 c S
700 525 m 700 466.668 758.332 350 758.332 408.332 c S
875 350 m 816.668 350 700 291.668 758.332 291.668 c S
1050 175 m 1050 233.332 991.668 350 991.668 291.668 c S
875 0 m 933.332 0 1050 58.332 991.668 58.332 c S
700 175 m 700 116.668 758.332 0 758.332 58.332 c S
1225 1750 m 1166.668 1750 1050 1691.668 1108.332 1691.668 c S
1400 1575 m 1400 1633.332 1341.668 1750 1341.668 1691.668 c S
1225 1400 m 1283.332 1400 1400 1458.332 1341.668 1458.332 c S
1050 1575 m 1050 1516.668 1108.332 1400 1108.332 1458.332 c S
1225 1400 m 1166.668 1400 1050 1341.668 1108.332 1341.668 c S
1400 1225 m 1400 1283.332 1341.668 1400 1341.668 1341.668 c S
1225 1050 m 1283.332 1050 1400 1108.332 1341.668 1108.332 c S
1050 1225 m 1050 1166.668 1108.332 1050 1108.332 1108.332 c S
1225 1050 m 1166.668 1050 1050 991.668 1108.332 991.668 c S
1400 875 m 1400 933.332 1341.668 1050 1341.668 991.668 c S
1225 700 m 1283.332 700 1400 758.332 1341.668 758.332 c S
1050 875 m 1050 816.668 1108.332 700 1108.332 758.332 c S
1225 700 m 1166.668 700 1050 641.668 1108.332 641.668 c S
1400 525 m 1400 583.332 1341.668 700 1341.668 641.668 c S
1225 350 m 1283.332 350 1400 408.332 1341.668 408.332 c S
1050 525 m 1050 466.668 1108.332 350 1108.332 408.332 c S
1225 350 m 1166.668 350 1050 291.668 1108.332 291.668 c S
1400 175 m 1400 233.332 1341.668 350 1341.668 291.668 c S
1225 0 m 1283.332 0 1400 58.332 1341.668 58.332 c S
1050 175 m 1050 116.668 1108.332 0 1108.332 58.332 c S
1575 1750 m 1516.668 1750 1400 1691.668 1458.332 1691.668 c S
1750 1575 m 1750 1633.332 1691.668 1750 1691.668 1691.668 c S
1575 1400 m 1633.332 1400 1750 1458.332 1691.668 1458.332 c S
1400 1575 m 1400 1516.668 1458.332 1400 1458.332 1458.332 c S
1575 1400 m 1516.668 1400 1400 1341.668 1458.332 1341.668 c S
1750 1225 m 1750 1283.332 1691.668 1400 1691.668 1341.668 c S
1575 1050 m 1633.332 1050 1750 1108.332 1691.668 1108.332 c S
1400 1225 m 1400 1166.668 1458.332 1050 1458.332 1108.332 c S
1575 1050 m 1516.668 1050 1400 991.668 1458.332 991.668 c S
1750 875 m 1750 933.332 1691.668 1050 1691.668 991.668 c S
1575 700 m 1633.332 700 1750 758.332 1691.668 758.332 c S
1400 875 m 1400 816.668 1458.332 700 1458.332 758.332 c S
1575 700 m 1516.668 700 1400 641.668 1458.332 641.668 c S
1750 525 m 1750 583.332 1691.668 700 1691.668 641.668 c S
1575 350 m 1633.332 350 1750 408.332 1691.668 408.332 c S
1400 525 m 1400 466.668 1458.332 350 1458.332 408.332 c S
1575 350 m 1516.668 350 1400 291.668 1458.332 291.668 c S
1750 175 m 1750 233.332 1691.668 350 1691.668 291.668 c S
1575 0 m 1633.332 0 1750 58.332 1691.668 58.332 c S
1400 175 m 1400 116.668 1458.332 0 1458.332 58.332 c S
1925 1750 m 1866.668 1750 1750 1691.668 1808.332 1691.668 c S
2100 1575 m 2100 1633.332 2041.668 1750 2041.668 1691.668 c S
1925 1400 m 1983.332 1400 2100 1458.332 2041.668 1458.332 c S
1750 1575 m 1750 1516.668 1808.332 1400 1808.332 1458.332 c S
1925 1400 m 1866.668 1400 1750 1341.668 1808.332 1341.668 c S
2100 1225 m 2100 1283.332 2041.668 1400 2041.668 1341.668 c S
1925 1050 m 1983.332 1050 2100 1108.332 2041.668 1108.332 c S
1750 1225 m 1750 1166.668 1808.332 1050 1808.332 1108.332 c S
1925 1050 m 1866.668 1050 1750 991.668 1808.332 991.668 c S
2100 875 m 2100 933.332 2041.668 1050 2041.668 991.668 c S
1925 700 m 1983.332 700 2100 758.332 2041.668 758.332 c S
1750 875 m 1750 816.668 1808.332 700 1808.332 758.332 c S
1925 700 m 1866.668 700 1750 641.668 1808.332 641.668 c S
2100 525 m 2100 583.332 2041.668 700 2041.668 641.668 c S
1925 350 m 1983.332 350 2100 408.332 2041.668 408.332 c S
1750 525 m 1750 466.668 1808.332 350 1808.332 408.332 c S
1925 350 m 1866.668 350 1750 291.668 1808.332 291.668 c S
2100 175 m 2100 233.332 2041.668 350 2041.668 291.668 c S
1925 0 m 1983.332 0 2100 58.332 2041.668 58.332 c S
1750 175 m 1750 116.668 1808.332 0 1808.332 58.332 c S
2275 1750 m 2216.668 1750 2100 1691.668 2158.332 1691.668 c S
2450 1575 m 2450 1633.332 2391.668 1750 2391.668 1691.668 c S
2275 1400 m 2333.332 1400 2450 1458.332 2391.668 1458.332 c S
2100 1575 m 2100 1516.668 2158.332 1400 2158.332 1458.332 c S
2275 1400 m 2216.668 1400 2100 1341.668 2158.332 1341.668 c S
2450 1225 m 2450 1283.332 2391.668 1400 2391.668 1341.668 c S
2275 1050 m 2333.332 1050 2450 1108.332 2391.668 1108.332 c S
2100 1225 m 2100 1166.668 2158.332 1050 2158.332 1108.332 c S
2275 1050 m 2216.668 1050 2100 991.668 2158.332 991.668 c S
2450 875 m 2450 933.332 2391.668 1050 2391.668 991.668 c S
2275 700 m 2333.332 700 2450 758.332 2391.668 758.332 c S
2100 875 m 2100 816.668 2158.332 700 2158.332 758.332 c S
2275 700 m 2216.668 700 2100 641.668 2158.332 641.668 c S
2450 525 m 2450 583.332 2391.668 700 2391.668 641.668 c S
2275 350 m 2333.332 350 2450 408.332 2391.668 408.332 c S
2100 525 m 2100 466.668 2158.332 350 2158.332 408.332 c S
2275 350 m 2216.668 350 2100 291.668 2158.332 291.668 c S
2450 175 m 2450 233.332 2391.668 350 2391.668 291.668 c S
2275 0 m 2333.332 0 2450 58.332 2391.668 58.332 c S
2100 175 m 2100 116.668 2158.332 0 2158.332 58.332 c S
Q Q
showpage
%%Trailer
%%Trailer
cleartomark
countdictstack
exch sub { end } repeat
restore
%%EOF
