%!PS-Adobe-2.0 EPSF-2.0
%%BoundingBox: 0 0 2450 1750
%%HiResBoundingBox: 0.000000 0.000000 2450.000000 1750.000000
%%Creator: cairo 1.14.2 (http://cairographics.org)
%%CreationDate: Mon Sep  7 08:22:04 2015
%%DocumentData: Clean7Bit
%%LanguageLevel: 2
%%DocumentMedia: 864x617mm 2450 1750 0 () ()
%%EndComments
% EPSF created by ps2eps 1.68
%%BeginProlog
save
countdictstack
mark
newpath
/showpage {} def
/setpagedevice {pop} def
%%EndProlog
%%Page 1 1
%%BeginProlog
/languagelevel where
{ pop languagelevel } { 1 } ifelse
2 lt { /Helvetica findfont 12 scalefont setfont 50 500 moveto
  (This print job requires a PostScript Language Level 2 printer.) show
  showpage quit } if
/q { gsave } bind def
/Q { grestore } bind def
/cm { 6 array astore concat } bind def
/w { setlinewidth } bind def
/J { setlinecap } bind def
/j { setlinejoin } bind def
/M { setmiterlimit } bind def
/d { setdash } bind def
/m { moveto } bind def
/l { lineto } bind def
/c { curveto } bind def
/h { closepath } bind def
/re { exch dup neg 3 1 roll 5 3 roll moveto 0 rlineto
      0 exch rlineto 0 rlineto closepath } bind def
/S { stroke } bind def
/f { fill } bind def
/f* { eofill } bind def
/n { newpath } bind def
/W { clip } bind def
/W* { eoclip } bind def
/BT { } bind def
/ET { } bind def
/pdfmark where { pop globaldict /?pdfmark /exec load put }
    { globaldict begin /?pdfmark /pop load def /pdfmark
    /cleartomark load def end } ifelse
/BDC { mark 3 1 roll /BDC pdfmark } bind def
/EMC { mark /EMC pdfmark } bind def
/cairo_store_point { /cairo_point_y exch def /cairo_point_x exch def } def
/Tj { show currentpoint cairo_store_point } bind def
/TJ {
  {
    dup
    type /stringtype eq
    { show } { -0.001 mul 0 cairo_font_matrix dtransform rmoveto } ifelse
  } forall
  currentpoint cairo_store_point
} bind def
/cairo_selectfont { cairo_font_matrix aload pop pop pop 0 0 6 array astore
    cairo_font exch selectfont cairo_point_x cairo_point_y moveto } bind def
/Tf { pop /cairo_font exch def /cairo_font_matrix where
      { pop cairo_selectfont } if } bind def
/Td { matrix translate cairo_font_matrix matrix concatmatrix dup
      /cairo_font_matrix exch def dup 4 get exch 5 get cairo_store_point
      /cairo_font where { pop cairo_selectfont } if } bind def
/Tm { 2 copy 8 2 roll 6 array astore /cairo_font_matrix exch def
      cairo_store_point /cairo_font where { pop cairo_selectfont } if } bind def
/g { setgray } bind def
/rg { setrgbcolor } bind def
/d1 { setcachedevice } bind def
/cairo_set_page_size {
  % Change paper size, but only if different from previous paper size otherwise
  % duplex fails. PLRM specifies a tolerance of 5 pts when matching paper size
  % so we use the same when checking if the size changes.
  /setpagedevice where {
    pop currentpagedevice
    /PageSize known {
      2 copy
      currentpagedevice /PageSize get aload pop
      exch 4 1 roll
      sub abs 5 gt
      3 1 roll
      sub abs 5 gt
      or
    } {
      true
    } ifelse
    {
      2 array astore
      2 dict begin
        /PageSize exch def
        /ImagingBBox null def
      currentdict end
      setpagedevice
    } {
      pop pop
    } ifelse
  } {
    pop
  } ifelse
} def
%%EndProlog
%%BeginSetup
%%EndSetup
%%Page: 1 1
%%BeginPageSetup
%%PageMedia: 864x617mm
%%PageBoundingBox: 0 0 2450 1750
2450 1750 cairo_set_page_size
%%EndPageSetup
q 0 0 2450 1750 rectclip q
0.984314 g
0 0 2450 1750 rectfill
0.788235 g
1.875 w
0 J
1 j
[] 0.0 d
4 M 0 1750 2450 -1750 re S
0 g
2.5 w
1 J
116.668 1750 m 58.332 1691.668 l 116.668 1633.332 l S
350 1633.332 m 291.668 1691.668 l 233.332 1633.332 l S
233.332 1400 m 291.668 1458.332 l 233.332 1516.668 l S
0 1516.668 m 58.332 1458.332 l 116.668 1516.668 l S
350 1516.668 m 291.668 1458.332 l 233.332 1516.668 l S
0 1633.332 m 58.332 1691.668 l 116.668 1633.332 l S
116.668 1400 m 58.332 1458.332 l 116.668 1516.668 l S
233.332 1750 m 291.668 1691.668 l 233.332 1633.332 l S
116.668 1400 m 58.332 1341.668 l 116.668 1283.332 l S
350 1283.332 m 291.668 1341.668 l 233.332 1283.332 l S
233.332 1050 m 291.668 1108.332 l 233.332 1166.668 l S
0 1166.668 m 58.332 1108.332 l 116.668 1166.668 l S
350 1166.668 m 291.668 1108.332 l 233.332 1166.668 l S
0 1283.332 m 58.332 1341.668 l 116.668 1283.332 l S
116.668 1050 m 58.332 1108.332 l 116.668 1166.668 l S
233.332 1400 m 291.668 1341.668 l 233.332 1283.332 l S
116.668 1050 m 58.332 991.668 l 116.668 933.332 l S
350 933.332 m 291.668 991.668 l 233.332 933.332 l S
233.332 700 m 291.668 758.332 l 233.332 816.668 l S
0 816.668 m 58.332 758.332 l 116.668 816.668 l S
350 816.668 m 291.668 758.332 l 233.332 816.668 l S
0 933.332 m 58.332 991.668 l 116.668 933.332 l S
116.668 700 m 58.332 758.332 l 116.668 816.668 l S
233.332 1050 m 291.668 991.668 l 233.332 933.332 l S
116.668 700 m 58.332 641.668 l 116.668 583.332 l S
350 583.332 m 291.668 641.668 l 233.332 583.332 l S
233.332 350 m 291.668 408.332 l 233.332 466.668 l S
0 466.668 m 58.332 408.332 l 116.668 466.668 l S
350 466.668 m 291.668 408.332 l 233.332 466.668 l S
0 583.332 m 58.332 641.668 l 116.668 583.332 l S
116.668 350 m 58.332 408.332 l 116.668 466.668 l S
233.332 700 m 291.668 641.668 l 233.332 583.332 l S
116.668 350 m 58.332 291.668 l 116.668 233.332 l S
350 233.332 m 291.668 291.668 l 233.332 233.332 l S
233.332 0 m 291.668 58.332 l 233.332 116.668 l S
0 116.668 m 58.332 58.332 l 116.668 116.668 l S
350 116.668 m 291.668 58.332 l 233.332 116.668 l S
0 233.332 m 58.332 291.668 l 116.668 233.332 l S
116.668 0 m 58.332 58.332 l 116.668 116.668 l S
233.332 350 m 291.668 291.668 l 233.332 233.332 l S
466.668 1750 m 408.332 1691.668 l 466.668 1633.332 l S
700 1633.332 m 641.668 1691.668 l 583.332 1633.332 l S
583.332 1400 m 641.668 1458.332 l 583.332 1516.668 l S
350 1516.668 m 408.332 1458.332 l 466.668 1516.668 l S
700 1516.668 m 641.668 1458.332 l 583.332 1516.668 l S
350 1633.332 m 408.332 1691.668 l 466.668 1633.332 l S
466.668 1400 m 408.332 1458.332 l 466.668 1516.668 l S
583.332 1750 m 641.668 1691.668 l 583.332 1633.332 l S
466.668 1400 m 408.332 1341.668 l 466.668 1283.332 l S
700 1283.332 m 641.668 1341.668 l 583.332 1283.332 l S
583.332 1050 m 641.668 1108.332 l 583.332 1166.668 l S
350 1166.668 m 408.332 1108.332 l 466.668 1166.668 l S
700 1166.668 m 641.668 1108.332 l 583.332 1166.668 l S
350 1283.332 m 408.332 1341.668 l 466.668 1283.332 l S
466.668 1050 m 408.332 1108.332 l 466.668 1166.668 l S
583.332 1400 m 641.668 1341.668 l 583.332 1283.332 l S
466.668 1050 m 408.332 991.668 l 466.668 933.332 l S
700 933.332 m 641.668 991.668 l 583.332 933.332 l S
583.332 700 m 641.668 758.332 l 583.332 816.668 l S
350 816.668 m 408.332 758.332 l 466.668 816.668 l S
700 816.668 m 641.668 758.332 l 583.332 816.668 l S
350 933.332 m 408.332 991.668 l 466.668 933.332 l S
466.668 700 m 408.332 758.332 l 466.668 816.668 l S
583.332 1050 m 641.668 991.668 l 583.332 933.332 l S
466.668 700 m 408.332 641.668 l 466.668 583.332 l S
700 583.332 m 641.668 641.668 l 583.332 583.332 l S
583.332 350 m 641.668 408.332 l 583.332 466.668 l S
350 466.668 m 408.332 408.332 l 466.668 466.668 l S
700 466.668 m 641.668 408.332 l 583.332 466.668 l S
350 583.332 m 408.332 641.668 l 466.668 583.332 l S
466.668 350 m 408.332 408.332 l 466.668 466.668 l S
583.332 700 m 641.668 641.668 l 583.332 583.332 l S
466.668 350 m 408.332 291.668 l 466.668 233.332 l S
700 233.332 m 641.668 291.668 l 583.332 233.332 l S
583.332 0 m 641.668 58.332 l 583.332 116.668 l S
350 116.668 m 408.332 58.332 l 466.668 116.668 l S
700 116.668 m 641.668 58.332 l 583.332 116.668 l S
350 233.332 m 408.332 291.668 l 466.668 233.332 l S
466.668 0 m 408.332 58.332 l 466.668 116.668 l S
583.332 350 m 641.668 291.668 l 583.332 233.332 l S
816.668 1750 m 758.332 1691.668 l 816.668 1633.332 l S
1050 1633.332 m 991.668 1691.668 l 933.332 1633.332 l S
933.332 1400 m 991.668 1458.332 l 933.332 1516.668 l S
700 1516.668 m 758.332 1458.332 l 816.668 1516.668 l S
1050 1516.668 m 991.668 1458.332 l 933.332 1516.668 l S
700 1633.332 m 758.332 1691.668 l 816.668 1633.332 l S
816.668 1400 m 758.332 1458.332 l 816.668 1516.668 l S
933.332 1750 m 991.668 1691.668 l 933.332 1633.332 l S
816.668 1400 m 758.332 1341.668 l 816.668 1283.332 l S
1050 1283.332 m 991.668 1341.668 l 933.332 1283.332 l S
933.332 1050 m 991.668 1108.332 l 933.332 1166.668 l S
700 1166.668 m 758.332 1108.332 l 816.668 1166.668 l S
1050 1166.668 m 991.668 1108.332 l 933.332 1166.668 l S
700 1283.332 m 758.332 1341.668 l 816.668 1283.332 l S
816.668 1050 m 758.332 1108.332 l 816.668 1166.668 l S
933.332 1400 m 991.668 1341.668 l 933.332 1283.332 l S
816.668 1050 m 758.332 991.668 l 816.668 933.332 l S
1050 933.332 m 991.668 991.668 l 933.332 933.332 l S
933.332 700 m 991.668 758.332 l 933.332 816.668 l S
700 816.668 m 758.332 758.332 l 816.668 816.668 l S
1050 816.668 m 991.668 758.332 l 933.332 816.668 l S
700 933.332 m 758.332 991.668 l 816.668 933.332 l S
816.668 700 m 758.332 758.332 l 816.668 816.668 l S
933.332 1050 m 991.668 991.668 l 933.332 933.332 l S
816.668 700 m 758.332 641.668 l 816.668 583.332 l S
1050 583.332 m 991.668 641.668 l 933.332 583.332 l S
933.332 350 m 991.668 408.332 l 933.332 466.668 l S
700 466.668 m 758.332 408.332 l 816.668 466.668 l S
1050 466.668 m 991.668 408.332 l 933.332 466.668 l S
700 583.332 m 758.332 641.668 l 816.668 583.332 l S
816.668 350 m 758.332 408.332 l 816.668 466.668 l S
933.332 700 m 991.668 641.668 l 933.332 583.332 l S
816.668 350 m 758.332 291.668 l 816.668 233.332 l S
1050 233.332 m 991.668 291.668 l 933.332 233.332 l S
933.332 0 m 991.668 58.332 l 933.332 116.668 l S
700 116.668 m 758.332 58.332 l 816.668 116.668 l S
1050 116.668 m 991.668 58.332 l 933.332 116.668 l S
700 233.332 m 758.332 291.668 l 816.668 233.332 l S
816.668 0 m 758.332 58.332 l 816.668 116.668 l S
933.332 350 m 991.668 291.668 l 933.332 233.332 l S
1166.668 1750 m 1108.332 1691.668 l 1166.668 1633.332 l S
1400 1633.332 m 1341.668 1691.668 l 1283.332 1633.332 l S
1283.332 1400 m 1341.668 1458.332 l 1283.332 1516.668 l S
1050 1516.668 m 1108.332 1458.332 l 1166.668 1516.668 l S
1400 1516.668 m 1341.668 1458.332 l 1283.332 1516.668 l S
1050 1633.332 m 1108.332 1691.668 l 1166.668 1633.332 l S
1166.668 1400 m 1108.332 1458.332 l 1166.668 1516.668 l S
1283.332 1750 m 1341.668 1691.668 l 1283.332 1633.332 l S
1166.668 1400 m 1108.332 1341.668 l 1166.668 1283.332 l S
1400 1283.332 m 1341.668 1341.668 l 1283.332 1283.332 l S
1283.332 1050 m 1341.668 1108.332 l 1283.332 1166.668 l S
1050 1166.668 m 1108.332 1108.332 l 1166.668 1166.668 l S
1400 1166.668 m 1341.668 1108.332 l 1283.332 1166.668 l S
1050 1283.332 m 1108.332 1341.668 l 1166.668 1283.332 l S
1166.668 1050 m 1108.332 1108.332 l 1166.668 1166.668 l S
1283.332 1400 m 1341.668 1341.668 l 1283.332 1283.332 l S
1166.668 1050 m 1108.332 991.668 l 1166.668 933.332 l S
1400 933.332 m 1341.668 991.668 l 1283.332 933.332 l S
1283.332 700 m 1341.668 758.332 l 1283.332 816.668 l S
1050 816.668 m 1108.332 758.332 l 1166.668 816.668 l S
1400 816.668 m 1341.668 758.332 l 1283.332 816.668 l S
1050 933.332 m 1108.332 991.668 l 1166.668 933.332 l S
1166.668 700 m 1108.332 758.332 l 1166.668 816.668 l S
1283.332 1050 m 1341.668 991.668 l 1283.332 933.332 l S
1166.668 700 m 1108.332 641.668 l 1166.668 583.332 l S
1400 583.332 m 1341.668 641.668 l 1283.332 583.332 l S
1283.332 350 m 1341.668 408.332 l 1283.332 466.668 l S
1050 466.668 m 1108.332 408.332 l 1166.668 466.668 l S
1400 466.668 m 1341.668 408.332 l 1283.332 466.668 l S
1050 583.332 m 1108.332 641.668 l 1166.668 583.332 l S
1166.668 350 m 1108.332 408.332 l 1166.668 466.668 l S
1283.332 700 m 1341.668 641.668 l 1283.332 583.332 l S
1166.668 350 m 1108.332 291.668 l 1166.668 233.332 l S
1400 233.332 m 1341.668 291.668 l 1283.332 233.332 l S
1283.332 0 m 1341.668 58.332 l 1283.332 116.668 l S
1050 116.668 m 1108.332 58.332 l 1166.668 116.668 l S
1400 116.668 m 1341.668 58.332 l 1283.332 116.668 l S
1050 233.332 m 1108.332 291.668 l 1166.668 233.332 l S
1166.668 0 m 1108.332 58.332 l 1166.668 116.668 l S
1283.332 350 m 1341.668 291.668 l 1283.332 233.332 l S
1516.668 1750 m 1458.332 1691.668 l 1516.668 1633.332 l S
1750 1633.332 m 1691.668 1691.668 l 1633.332 1633.332 l S
1633.332 1400 m 1691.668 1458.332 l 1633.332 1516.668 l S
1400 1516.668 m 1458.332 1458.332 l 1516.668 1516.668 l S
1750 1516.668 m 1691.668 1458.332 l 1633.332 1516.668 l S
1400 1633.332 m 1458.332 1691.668 l 1516.668 1633.332 l S
1516.668 1400 m 1458.332 1458.332 l 1516.668 1516.668 l S
1633.332 1750 m 1691.668 1691.668 l 1633.332 1633.332 l S
1516.668 1400 m 1458.332 1341.668 l 1516.668 1283.332 l S
1750 1283.332 m 1691.668 1341.668 l 1633.332 1283.332 l S
1633.332 1050 m 1691.668 1108.332 l 1633.332 1166.668 l S
1400 1166.668 m 1458.332 1108.332 l 1516.668 1166.668 l S
1750 1166.668 m 1691.668 1108.332 l 1633.332 1166.668 l S
1400 1283.332 m 1458.332 1341.668 l 1516.668 1283.332 l S
1516.668 1050 m 1458.332 1108.332 l 1516.668 1166.668 l S
1633.332 1400 m 1691.668 1341.668 l 1633.332 1283.332 l S
1516.668 1050 m 1458.332 991.668 l 1516.668 933.332 l S
1750 933.332 m 1691.668 991.668 l 1633.332 933.332 l S
1633.332 700 m 1691.668 758.332 l 1633.332 816.668 l S
1400 816.668 m 1458.332 758.332 l 1516.668 816.668 l S
1750 816.668 m 1691.668 758.332 l 1633.332 816.668 l S
1400 933.332 m 1458.332 991.668 l 1516.668 933.332 l S
1516.668 700 m 1458.332 758.332 l 1516.668 816.668 l S
1633.332 1050 m 1691.668 991.668 l 1633.332 933.332 l S
1516.668 700 m 1458.332 641.668 l 1516.668 583.332 l S
1750 583.332 m 1691.668 641.668 l 1633.332 583.332 l S
1633.332 350 m 1691.668 408.332 l 1633.332 466.668 l S
1400 466.668 m 1458.332 408.332 l 1516.668 466.668 l S
1750 466.668 m 1691.668 408.332 l 1633.332 466.668 l S
1400 583.332 m 1458.332 641.668 l 1516.668 583.332 l S
1516.668 350 m 1458.332 408.332 l 1516.668 466.668 l S
1633.332 700 m 1691.668 641.668 l 1633.332 583.332 l S
1516.668 350 m 1458.332 291.668 l 1516.668 233.332 l S
1750 233.332 m 1691.668 291.668 l 1633.332 233.332 l S
1633.332 0 m 1691.668 58.332 l 1633.332 116.668 l S
1400 116.668 m 1458.332 58.332 l 1516.668 116.668 l S
1750 116.668 m 1691.668 58.332 l 1633.332 116.668 l S
1400 233.332 m 1458.332 291.668 l 1516.668 233.332 l S
1516.668 0 m 1458.332 58.332 l 1516.668 116.668 l S
1633.332 350 m 1691.668 291.668 l 1633.332 233.332 l S
1866.668 1750 m 1808.332 1691.668 l 1866.668 1633.332 l S
2100 1633.332 m 2041.668 1691.668 l 1983.332 1633.332 l S
1983.332 1400 m 2041.668 1458.332 l 1983.332 1516.668 l S
1750 1516.668 m 1808.332 1458.332 l 1866.668 1516.668 l S
2100 1516.668 m 2041.668 1458.332 l 1983.332 1516.668 l S
1750 1633.332 m 1808.332 1691.668 l 1866.668 1633.332 l S
1866.668 1400 m 1808.332 1458.332 l 1866.668 1516.668 l S
1983.332 1750 m 2041.668 1691.668 l 1983.332 1633.332 l S
1866.668 1400 m 1808.332 1341.668 l 1866.668 1283.332 l S
2100 1283.332 m 2041.668 1341.668 l 1983.332 1283.332 l S
1983.332 1050 m 2041.668 1108.332 l 1983.332 1166.668 l S
1750 1166.668 m 1808.332 1108.332 l 1866.668 1166.668 l S
2100 1166.668 m 2041.668 1108.332 l 1983.332 1166.668 l S
1750 1283.332 m 1808.332 1341.668 l 1866.668 1283.332 l S
1866.668 1050 m 1808.332 1108.332 l 1866.668 1166.668 l S
1983.332 1400 m 2041.668 1341.668 l 1983.332 1283.332 l S
1866.668 1050 m 1808.332 991.668 l 1866.668 933.332 l S
2100 933.332 m 2041.668 991.668 l 1983.332 933.332 l S
1983.332 700 m 2041.668 758.332 l 1983.332 816.668 l S
1750 816.668 m 1808.332 758.332 l 1866.668 816.668 l S
2100 816.668 m 2041.668 758.332 l 1983.332 816.668 l S
1750 933.332 m 1808.332 991.668 l 1866.668 933.332 l S
1866.668 700 m 1808.332 758.332 l 1866.668 816.668 l S
1983.332 1050 m 2041.668 991.668 l 1983.332 933.332 l S
1866.668 700 m 1808.332 641.668 l 1866.668 583.332 l S
2100 583.332 m 2041.668 641.668 l 1983.332 583.332 l S
1983.332 350 m 2041.668 408.332 l 1983.332 466.668 l S
1750 466.668 m 1808.332 408.332 l 1866.668 466.668 l S
2100 466.668 m 2041.668 408.332 l 1983.332 466.668 l S
1750 583.332 m 1808.332 641.668 l 1866.668 583.332 l S
1866.668 350 m 1808.332 408.332 l 1866.668 466.668 l S
1983.332 700 m 2041.668 641.668 l 1983.332 583.332 l S
1866.668 350 m 1808.332 291.668 l 1866.668 233.332 l S
2100 233.332 m 2041.668 291.668 l 1983.332 233.332 l S
1983.332 0 m 2041.668 58.332 l 1983.332 116.668 l S
1750 116.668 m 1808.332 58.332 l 1866.668 116.668 l S
2100 116.668 m 2041.668 58.332 l 1983.332 116.668 l S
1750 233.332 m 1808.332 291.668 l 1866.668 233.332 l S
1866.668 0 m 1808.332 58.332 l 1866.668 116.668 l S
1983.332 350 m 2041.668 291.668 l 1983.332 233.332 l S
2216.668 1750 m 2158.332 1691.668 l 2216.668 1633.332 l S
2450 1633.332 m 2391.668 1691.668 l 2333.332 1633.332 l S
2333.332 1400 m 2391.668 1458.332 l 2333.332 1516.668 l S
2100 1516.668 m 2158.332 1458.332 l 2216.668 1516.668 l S
2450 1516.668 m 2391.668 1458.332 l 2333.332 1516.668 l S
2100 1633.332 m 2158.332 1691.668 l 2216.668 1633.332 l S
2216.668 1400 m 2158.332 1458.332 l 2216.668 1516.668 l S
2333.332 1750 m 2391.668 1691.668 l 2333.332 1633.332 l S
2216.668 1400 m 2158.332 1341.668 l 2216.668 1283.332 l S
2450 1283.332 m 2391.668 1341.668 l 2333.332 1283.332 l S
2333.332 1050 m 2391.668 1108.332 l 2333.332 1166.668 l S
2100 1166.668 m 2158.332 1108.332 l 2216.668 1166.668 l S
2450 1166.668 m 2391.668 1108.332 l 2333.332 1166.668 l S
2100 1283.332 m 2158.332 1341.668 l 2216.668 1283.332 l S
2216.668 1050 m 2158.332 1108.332 l 2216.668 1166.668 l S
2333.332 1400 m 2391.668 1341.668 l 2333.332 1283.332 l S
2216.668 1050 m 2158.332 991.668 l 2216.668 933.332 l S
2450 933.332 m 2391.668 991.668 l 2333.332 933.332 l S
2333.332 700 m 2391.668 758.332 l 2333.332 816.668 l S
2100 816.668 m 2158.332 758.332 l 2216.668 816.668 l S
2450 816.668 m 2391.668 758.332 l 2333.332 816.668 l S
2100 933.332 m 2158.332 991.668 l 2216.668 933.332 l S
2216.668 700 m 2158.332 758.332 l 2216.668 816.668 l S
2333.332 1050 m 2391.668 991.668 l 2333.332 933.332 l S
2216.668 700 m 2158.332 641.668 l 2216.668 583.332 l S
2450 583.332 m 2391.668 641.668 l 2333.332 583.332 l S
2333.332 350 m 2391.668 408.332 l 2333.332 466.668 l S
2100 466.668 m 2158.332 408.332 l 2216.668 466.668 l S
2450 466.668 m 2391.668 408.332 l 2333.332 466.668 l S
2100 583.332 m 2158.332 641.668 l 2216.668 583.332 l S
2216.668 350 m 2158.332 408.332 l 2216.668 466.668 l S
2333.332 700 m 2391.668 641.668 l 2333.332 583.332 l S
2216.668 350 m 2158.332 291.668 l 2216.668 233.332 l S
2450 233.332 m 2391.668 291.668 l 2333.332 233.332 l S
2333.332 0 m 2391.668 58.332 l 2333.332 116.668 l S
2100 116.668 m 2158.332 58.332 l 2216.668 116.668 l S
2450 116.668 m 2391.668 58.332 l 2333.332 116.668 l S
2100 233.332 m 2158.332 291.668 l 2216.668 233.332 l S
2216.668 0 m 2158.332 58.332 l 2216.668 116.668 l S
2333.332 350 m 2391.668 291.668 l 2333.332 233.332 l S
Q Q
showpage
%%Trailer
%%Trailer
cleartomark
countdictstack
exch sub { end } repeat
restore
%%EOF
