%!PS-Adobe-2.0 EPSF-2.0
%%BoundingBox: 0 0 1350 1299
%%HiResBoundingBox: 0.000000 0.000000 1350.000000 1299.000000
%%Creator: cairo 1.14.2 (http://cairographics.org)
%%CreationDate: Mon Sep  7 08:22:05 2015
%%DocumentData: Clean7Bit
%%LanguageLevel: 2
%%DocumentMedia: 476x458mm 1350 1299 0 () ()
%%EndComments
% EPSF created by ps2eps 1.68
%%BeginProlog
save
countdictstack
mark
newpath
/showpage {} def
/setpagedevice {pop} def
%%EndProlog
%%Page 1 1
%%BeginProlog
/languagelevel where
{ pop languagelevel } { 1 } ifelse
2 lt { /Helvetica findfont 12 scalefont setfont 50 500 moveto
  (This print job requires a PostScript Language Level 2 printer.) show
  showpage quit } if
/q { gsave } bind def
/Q { grestore } bind def
/cm { 6 array astore concat } bind def
/w { setlinewidth } bind def
/J { setlinecap } bind def
/j { setlinejoin } bind def
/M { setmiterlimit } bind def
/d { setdash } bind def
/m { moveto } bind def
/l { lineto } bind def
/c { curveto } bind def
/h { closepath } bind def
/re { exch dup neg 3 1 roll 5 3 roll moveto 0 rlineto
      0 exch rlineto 0 rlineto closepath } bind def
/S { stroke } bind def
/f { fill } bind def
/f* { eofill } bind def
/n { newpath } bind def
/W { clip } bind def
/W* { eoclip } bind def
/BT { } bind def
/ET { } bind def
/pdfmark where { pop globaldict /?pdfmark /exec load put }
    { globaldict begin /?pdfmark /pop load def /pdfmark
    /cleartomark load def end } ifelse
/BDC { mark 3 1 roll /BDC pdfmark } bind def
/EMC { mark /EMC pdfmark } bind def
/cairo_store_point { /cairo_point_y exch def /cairo_point_x exch def } def
/Tj { show currentpoint cairo_store_point } bind def
/TJ {
  {
    dup
    type /stringtype eq
    { show } { -0.001 mul 0 cairo_font_matrix dtransform rmoveto } ifelse
  } forall
  currentpoint cairo_store_point
} bind def
/cairo_selectfont { cairo_font_matrix aload pop pop pop 0 0 6 array astore
    cairo_font exch selectfont cairo_point_x cairo_point_y moveto } bind def
/Tf { pop /cairo_font exch def /cairo_font_matrix where
      { pop cairo_selectfont } if } bind def
/Td { matrix translate cairo_font_matrix matrix concatmatrix dup
      /cairo_font_matrix exch def dup 4 get exch 5 get cairo_store_point
      /cairo_font where { pop cairo_selectfont } if } bind def
/Tm { 2 copy 8 2 roll 6 array astore /cairo_font_matrix exch def
      cairo_store_point /cairo_font where { pop cairo_selectfont } if } bind def
/g { setgray } bind def
/rg { setrgbcolor } bind def
/d1 { setcachedevice } bind def
/cairo_set_page_size {
  % Change paper size, but only if different from previous paper size otherwise
  % duplex fails. PLRM specifies a tolerance of 5 pts when matching paper size
  % so we use the same when checking if the size changes.
  /setpagedevice where {
    pop currentpagedevice
    /PageSize known {
      2 copy
      currentpagedevice /PageSize get aload pop
      exch 4 1 roll
      sub abs 5 gt
      3 1 roll
      sub abs 5 gt
      or
    } {
      true
    } ifelse
    {
      2 array astore
      2 dict begin
        /PageSize exch def
        /ImagingBBox null def
      currentdict end
      setpagedevice
    } {
      pop pop
    } ifelse
  } {
    pop
  } ifelse
} def
%%EndProlog
%%BeginSetup
%%EndSetup
%%Page: 1 1
%%BeginPageSetup
%%PageMedia: 476x458mm
%%PageBoundingBox: 0 0 1350 1299
1350 1299 cairo_set_page_size
%%EndPageSetup
q 0 0 1350 1299 rectclip q
0.984314 g
0 0 1350 1299 rectfill
0.788235 g
1.875 w
0 J
1 j
[] 0.0 d
4 M 0 1299 1350 -1299.039 re S
0.85098 g
125 303.07 m 100 288.637 l 75 331.938 l h
125 303.07 m f*
0 g
2.5 w
125 303.07 m 100 288.637 l 75 331.938 l h
125 303.07 m S
0.85098 g
100 259.77 m 50 288.637 l 100 288.637 l h
100 259.77 m f*
0 g
100 259.77 m 50 288.637 l 100 288.637 l h
100 259.77 m S
-25 476.277 m 0 461.844 l -25 418.539 l h
-25 476.277 m S
0.85098 g
25 476.277 m 25 418.539 l 0 461.844 l h
25 476.277 m f*
0 g
25 476.277 m 25 418.539 l 0 461.844 l h
25 476.277 m S
0.85098 g
125 216.469 m 75 187.602 l 100 230.902 l h
125 216.469 m f*
0 g
125 216.469 m 75 187.602 l 100 230.902 l h
125 216.469 m S
-25 43.262 m -25 101 l 0 57.695 l h
-25 43.262 m S
0.85098 g
100 259.77 m 100 230.902 l 50 230.902 l h
100 259.77 m f*
0 g
100 259.77 m 100 230.902 l 50 230.902 l h
100 259.77 m S
0.85098 g
25 43.262 m 0 57.695 l 25 101 l h
25 43.262 m f*
0 g
25 43.262 m 0 57.695 l 25 101 l h
25 43.262 m S
0.85098 g
275 43.262 m 250 28.828 l 225 72.129 l h
275 43.262 m f*
0 g
275 43.262 m 250 28.828 l 225 72.129 l h
275 43.262 m S
0.85098 g
250 -0.039 m 200 28.828 l 250 28.828 l h
250 -0.039 m f*
0 g
250 -0.039 m 200 28.828 l 250 28.828 l h
250 -0.039 m S
0.85098 g
125 216.469 m 150 202.035 l 125 158.734 l h
125 216.469 m f*
0 g
125 216.469 m 150 202.035 l 125 158.734 l h
125 216.469 m S
0.85098 g
50 -0.039 m 50 28.828 l 100 28.828 l h
50 -0.039 m f*
0 g
50 -0.039 m 50 28.828 l 100 28.828 l h
50 -0.039 m S
0.85098 g
175 216.469 m 175 158.734 l 150 202.035 l h
175 216.469 m f*
0 g
175 216.469 m 175 158.734 l 150 202.035 l h
175 216.469 m S
0.85098 g
25 43.262 m 75 72.129 l 50 28.828 l h
25 43.262 m f*
0 g
25 43.262 m 75 72.129 l 50 28.828 l h
25 43.262 m S
0.85098 g
125 822.688 m 100 808.254 l 75 851.555 l h
125 822.688 m f*
0 g
125 822.688 m 100 808.254 l 75 851.555 l h
125 822.688 m S
0.85098 g
100 779.383 m 50 808.254 l 100 808.254 l h
100 779.383 m f*
0 g
100 779.383 m 50 808.254 l 100 808.254 l h
100 779.383 m S
-25 995.891 m 0 981.457 l -25 938.156 l h
-25 995.891 m S
0.85098 g
25 995.891 m 25 938.156 l 0 981.457 l h
25 995.891 m f*
0 g
25 995.891 m 25 938.156 l 0 981.457 l h
25 995.891 m S
0.85098 g
125 736.082 m 75 707.215 l 100 750.516 l h
125 736.082 m f*
0 g
125 736.082 m 75 707.215 l 100 750.516 l h
125 736.082 m S
-25 562.879 m -25 620.613 l 0 577.312 l h
-25 562.879 m S
0.85098 g
100 779.383 m 100 750.516 l 50 750.516 l h
100 779.383 m f*
0 g
100 779.383 m 100 750.516 l 50 750.516 l h
100 779.383 m S
0.85098 g
25 562.879 m 0 577.312 l 25 620.613 l h
25 562.879 m f*
0 g
25 562.879 m 0 577.312 l 25 620.613 l h
25 562.879 m S
0.85098 g
275 562.879 m 250 548.445 l 225 591.746 l h
275 562.879 m f*
0 g
275 562.879 m 250 548.445 l 225 591.746 l h
275 562.879 m S
0.85098 g
250 519.578 m 200 548.445 l 250 548.445 l h
250 519.578 m f*
0 g
250 519.578 m 200 548.445 l 250 548.445 l h
250 519.578 m S
0.85098 g
125 736.082 m 150 721.648 l 125 678.348 l h
125 736.082 m f*
0 g
125 736.082 m 150 721.648 l 125 678.348 l h
125 736.082 m S
0.85098 g
50 519.578 m 50 548.445 l 100 548.445 l h
50 519.578 m f*
0 g
50 519.578 m 50 548.445 l 100 548.445 l h
50 519.578 m S
0.85098 g
175 736.082 m 175 678.348 l 150 721.648 l h
175 736.082 m f*
0 g
175 736.082 m 175 678.348 l 150 721.648 l h
175 736.082 m S
0.85098 g
25 562.879 m 75 591.746 l 50 548.445 l h
25 562.879 m f*
0 g
25 562.879 m 75 591.746 l 50 548.445 l h
25 562.879 m S
0.85098 g
50 519.578 m 100 490.711 l 50 490.711 l h
50 519.578 m f*
0 g
50 519.578 m 100 490.711 l 50 490.711 l h
50 519.578 m S
0.85098 g
25 476.277 m 50 490.711 l 75 447.41 l h
25 476.277 m f*
0 g
25 476.277 m 50 490.711 l 75 447.41 l h
25 476.277 m S
0.85098 g
275 476.277 m 225 447.41 l 250 490.711 l h
275 476.277 m f*
0 g
275 476.277 m 225 447.41 l 250 490.711 l h
275 476.277 m S
0.85098 g
125 303.07 m 125 360.805 l 150 317.504 l h
125 303.07 m f*
0 g
125 303.07 m 125 360.805 l 150 317.504 l h
125 303.07 m S
0.85098 g
250 519.578 m 250 490.711 l 200 490.711 l h
250 519.578 m f*
0 g
250 519.578 m 250 490.711 l 200 490.711 l h
250 519.578 m S
0.85098 g
175 303.07 m 150 317.504 l 175 360.805 l h
175 303.07 m f*
0 g
175 303.07 m 150 317.504 l 175 360.805 l h
175 303.07 m S
0.85098 g
425 303.07 m 400 288.637 l 375 331.938 l h
425 303.07 m f*
0 g
425 303.07 m 400 288.637 l 375 331.938 l h
425 303.07 m S
0.85098 g
400 259.77 m 350 288.637 l 400 288.637 l h
400 259.77 m f*
0 g
400 259.77 m 350 288.637 l 400 288.637 l h
400 259.77 m S
0.85098 g
275 476.277 m 300 461.844 l 275 418.539 l h
275 476.277 m f*
0 g
275 476.277 m 300 461.844 l 275 418.539 l h
275 476.277 m S
0.85098 g
200 259.77 m 200 288.637 l 250 288.637 l h
200 259.77 m f*
0 g
200 259.77 m 200 288.637 l 250 288.637 l h
200 259.77 m S
0.85098 g
325 476.277 m 325 418.539 l 300 461.844 l h
325 476.277 m f*
0 g
325 476.277 m 325 418.539 l 300 461.844 l h
325 476.277 m S
0.85098 g
175 303.07 m 225 331.938 l 200 288.637 l h
175 303.07 m f*
0 g
175 303.07 m 225 331.938 l 200 288.637 l h
175 303.07 m S
0.85098 g
200 259.77 m 250 230.902 l 200 230.902 l h
200 259.77 m f*
0 g
200 259.77 m 250 230.902 l 200 230.902 l h
200 259.77 m S
0.85098 g
175 216.469 m 200 230.902 l 225 187.602 l h
175 216.469 m f*
0 g
175 216.469 m 200 230.902 l 225 187.602 l h
175 216.469 m S
0.85098 g
425 216.469 m 375 187.602 l 400 230.902 l h
425 216.469 m f*
0 g
425 216.469 m 375 187.602 l 400 230.902 l h
425 216.469 m S
0.85098 g
275 43.262 m 275 101 l 300 57.695 l h
275 43.262 m f*
0 g
275 43.262 m 275 101 l 300 57.695 l h
275 43.262 m S
0.85098 g
400 259.77 m 400 230.902 l 350 230.902 l h
400 259.77 m f*
0 g
400 259.77 m 400 230.902 l 350 230.902 l h
400 259.77 m S
0.85098 g
325 43.262 m 300 57.695 l 325 101 l h
325 43.262 m f*
0 g
325 43.262 m 300 57.695 l 325 101 l h
325 43.262 m S
0.85098 g
575 43.262 m 550 28.828 l 525 72.129 l h
575 43.262 m f*
0 g
575 43.262 m 550 28.828 l 525 72.129 l h
575 43.262 m S
0.85098 g
550 -0.039 m 500 28.828 l 550 28.828 l h
550 -0.039 m f*
0 g
550 -0.039 m 500 28.828 l 550 28.828 l h
550 -0.039 m S
0.85098 g
425 216.469 m 450 202.035 l 425 158.734 l h
425 216.469 m f*
0 g
425 216.469 m 450 202.035 l 425 158.734 l h
425 216.469 m S
0.85098 g
350 -0.039 m 350 28.828 l 400 28.828 l h
350 -0.039 m f*
0 g
350 -0.039 m 350 28.828 l 400 28.828 l h
350 -0.039 m S
0.85098 g
475 216.469 m 475 158.734 l 450 202.035 l h
475 216.469 m f*
0 g
475 216.469 m 475 158.734 l 450 202.035 l h
475 216.469 m S
0.85098 g
325 43.262 m 375 72.129 l 350 28.828 l h
325 43.262 m f*
0 g
325 43.262 m 375 72.129 l 350 28.828 l h
325 43.262 m S
0.85098 g
125 1255.699 m 75 1226.832 l 100 1270.133 l h
125 1255.699 m f*
0 g
125 1255.699 m 75 1226.832 l 100 1270.133 l h
125 1255.699 m S
-25 1082.492 m -25 1140.23 l 0 1096.926 l h
-25 1082.492 m S
0.85098 g
100 1299 m 100 1270.133 l 50 1270.133 l h
100 1299 m f*
0 g
100 1299 m 100 1270.133 l 50 1270.133 l h
100 1299 m S
0.85098 g
25 1082.492 m 0 1096.926 l 25 1140.23 l h
25 1082.492 m f*
0 g
25 1082.492 m 0 1096.926 l 25 1140.23 l h
25 1082.492 m S
0.85098 g
275 1082.492 m 250 1068.059 l 225 1111.359 l h
275 1082.492 m f*
0 g
275 1082.492 m 250 1068.059 l 225 1111.359 l h
275 1082.492 m S
0.85098 g
250 1039.191 m 200 1068.059 l 250 1068.059 l h
250 1039.191 m f*
0 g
250 1039.191 m 200 1068.059 l 250 1068.059 l h
250 1039.191 m S
0.85098 g
125 1255.699 m 150 1241.266 l 125 1197.965 l h
125 1255.699 m f*
0 g
125 1255.699 m 150 1241.266 l 125 1197.965 l h
125 1255.699 m S
0.85098 g
50 1039.191 m 50 1068.059 l 100 1068.059 l h
50 1039.191 m f*
0 g
50 1039.191 m 50 1068.059 l 100 1068.059 l h
50 1039.191 m S
0.85098 g
175 1255.699 m 175 1197.965 l 150 1241.266 l h
175 1255.699 m f*
0 g
175 1255.699 m 175 1197.965 l 150 1241.266 l h
175 1255.699 m S
0.85098 g
25 1082.492 m 75 1111.359 l 50 1068.059 l h
25 1082.492 m f*
0 g
25 1082.492 m 75 1111.359 l 50 1068.059 l h
25 1082.492 m S
0.85098 g
50 1039.191 m 100 1010.324 l 50 1010.324 l h
50 1039.191 m f*
0 g
50 1039.191 m 100 1010.324 l 50 1010.324 l h
50 1039.191 m S
0.85098 g
25 995.891 m 50 1010.324 l 75 967.023 l h
25 995.891 m f*
0 g
25 995.891 m 50 1010.324 l 75 967.023 l h
25 995.891 m S
0.85098 g
275 995.891 m 225 967.023 l 250 1010.324 l h
275 995.891 m f*
0 g
275 995.891 m 225 967.023 l 250 1010.324 l h
275 995.891 m S
0.85098 g
125 822.688 m 125 880.422 l 150 837.121 l h
125 822.688 m f*
0 g
125 822.688 m 125 880.422 l 150 837.121 l h
125 822.688 m S
0.85098 g
250 1039.191 m 250 1010.324 l 200 1010.324 l h
250 1039.191 m f*
0 g
250 1039.191 m 250 1010.324 l 200 1010.324 l h
250 1039.191 m S
0.85098 g
175 822.688 m 150 837.121 l 175 880.422 l h
175 822.688 m f*
0 g
175 822.688 m 150 837.121 l 175 880.422 l h
175 822.688 m S
0.85098 g
425 822.688 m 400 808.254 l 375 851.555 l h
425 822.688 m f*
0 g
425 822.688 m 400 808.254 l 375 851.555 l h
425 822.688 m S
0.85098 g
400 779.383 m 350 808.254 l 400 808.254 l h
400 779.383 m f*
0 g
400 779.383 m 350 808.254 l 400 808.254 l h
400 779.383 m S
0.85098 g
275 995.891 m 300 981.457 l 275 938.156 l h
275 995.891 m f*
0 g
275 995.891 m 300 981.457 l 275 938.156 l h
275 995.891 m S
0.85098 g
200 779.383 m 200 808.254 l 250 808.254 l h
200 779.383 m f*
0 g
200 779.383 m 200 808.254 l 250 808.254 l h
200 779.383 m S
0.85098 g
325 995.891 m 325 938.156 l 300 981.457 l h
325 995.891 m f*
0 g
325 995.891 m 325 938.156 l 300 981.457 l h
325 995.891 m S
0.85098 g
175 822.688 m 225 851.555 l 200 808.254 l h
175 822.688 m f*
0 g
175 822.688 m 225 851.555 l 200 808.254 l h
175 822.688 m S
0.85098 g
200 779.383 m 250 750.516 l 200 750.516 l h
200 779.383 m f*
0 g
200 779.383 m 250 750.516 l 200 750.516 l h
200 779.383 m S
0.85098 g
175 736.082 m 200 750.516 l 225 707.215 l h
175 736.082 m f*
0 g
175 736.082 m 200 750.516 l 225 707.215 l h
175 736.082 m S
0.85098 g
425 736.082 m 375 707.215 l 400 750.516 l h
425 736.082 m f*
0 g
425 736.082 m 375 707.215 l 400 750.516 l h
425 736.082 m S
0.85098 g
275 562.879 m 275 620.613 l 300 577.312 l h
275 562.879 m f*
0 g
275 562.879 m 275 620.613 l 300 577.312 l h
275 562.879 m S
0.85098 g
400 779.383 m 400 750.516 l 350 750.516 l h
400 779.383 m f*
0 g
400 779.383 m 400 750.516 l 350 750.516 l h
400 779.383 m S
0.85098 g
325 562.879 m 300 577.312 l 325 620.613 l h
325 562.879 m f*
0 g
325 562.879 m 300 577.312 l 325 620.613 l h
325 562.879 m S
0.85098 g
575 562.879 m 550 548.445 l 525 591.746 l h
575 562.879 m f*
0 g
575 562.879 m 550 548.445 l 525 591.746 l h
575 562.879 m S
0.85098 g
550 519.578 m 500 548.445 l 550 548.445 l h
550 519.578 m f*
0 g
550 519.578 m 500 548.445 l 550 548.445 l h
550 519.578 m S
0.85098 g
425 736.082 m 450 721.648 l 425 678.348 l h
425 736.082 m f*
0 g
425 736.082 m 450 721.648 l 425 678.348 l h
425 736.082 m S
0.85098 g
350 519.578 m 350 548.445 l 400 548.445 l h
350 519.578 m f*
0 g
350 519.578 m 350 548.445 l 400 548.445 l h
350 519.578 m S
0.85098 g
475 736.082 m 475 678.348 l 450 721.648 l h
475 736.082 m f*
0 g
475 736.082 m 475 678.348 l 450 721.648 l h
475 736.082 m S
0.85098 g
325 562.879 m 375 591.746 l 350 548.445 l h
325 562.879 m f*
0 g
325 562.879 m 375 591.746 l 350 548.445 l h
325 562.879 m S
0.85098 g
350 519.578 m 400 490.711 l 350 490.711 l h
350 519.578 m f*
0 g
350 519.578 m 400 490.711 l 350 490.711 l h
350 519.578 m S
0.85098 g
325 476.277 m 350 490.711 l 375 447.41 l h
325 476.277 m f*
0 g
325 476.277 m 350 490.711 l 375 447.41 l h
325 476.277 m S
0.85098 g
575 476.277 m 525 447.41 l 550 490.711 l h
575 476.277 m f*
0 g
575 476.277 m 525 447.41 l 550 490.711 l h
575 476.277 m S
0.85098 g
425 303.07 m 425 360.805 l 450 317.504 l h
425 303.07 m f*
0 g
425 303.07 m 425 360.805 l 450 317.504 l h
425 303.07 m S
0.85098 g
550 519.578 m 550 490.711 l 500 490.711 l h
550 519.578 m f*
0 g
550 519.578 m 550 490.711 l 500 490.711 l h
550 519.578 m S
0.85098 g
475 303.07 m 450 317.504 l 475 360.805 l h
475 303.07 m f*
0 g
475 303.07 m 450 317.504 l 475 360.805 l h
475 303.07 m S
0.85098 g
725 303.07 m 700 288.637 l 675 331.938 l h
725 303.07 m f*
0 g
725 303.07 m 700 288.637 l 675 331.938 l h
725 303.07 m S
0.85098 g
700 259.77 m 650 288.637 l 700 288.637 l h
700 259.77 m f*
0 g
700 259.77 m 650 288.637 l 700 288.637 l h
700 259.77 m S
0.85098 g
575 476.277 m 600 461.844 l 575 418.539 l h
575 476.277 m f*
0 g
575 476.277 m 600 461.844 l 575 418.539 l h
575 476.277 m S
0.85098 g
500 259.77 m 500 288.637 l 550 288.637 l h
500 259.77 m f*
0 g
500 259.77 m 500 288.637 l 550 288.637 l h
500 259.77 m S
0.85098 g
625 476.277 m 625 418.539 l 600 461.844 l h
625 476.277 m f*
0 g
625 476.277 m 625 418.539 l 600 461.844 l h
625 476.277 m S
0.85098 g
475 303.07 m 525 331.938 l 500 288.637 l h
475 303.07 m f*
0 g
475 303.07 m 525 331.938 l 500 288.637 l h
475 303.07 m S
0.85098 g
500 259.77 m 550 230.902 l 500 230.902 l h
500 259.77 m f*
0 g
500 259.77 m 550 230.902 l 500 230.902 l h
500 259.77 m S
0.85098 g
475 216.469 m 500 230.902 l 525 187.602 l h
475 216.469 m f*
0 g
475 216.469 m 500 230.902 l 525 187.602 l h
475 216.469 m S
0.85098 g
725 216.469 m 675 187.602 l 700 230.902 l h
725 216.469 m f*
0 g
725 216.469 m 675 187.602 l 700 230.902 l h
725 216.469 m S
0.85098 g
575 43.262 m 575 101 l 600 57.695 l h
575 43.262 m f*
0 g
575 43.262 m 575 101 l 600 57.695 l h
575 43.262 m S
0.85098 g
700 259.77 m 700 230.902 l 650 230.902 l h
700 259.77 m f*
0 g
700 259.77 m 700 230.902 l 650 230.902 l h
700 259.77 m S
0.85098 g
625 43.262 m 600 57.695 l 625 101 l h
625 43.262 m f*
0 g
625 43.262 m 600 57.695 l 625 101 l h
625 43.262 m S
0.85098 g
875 43.262 m 850 28.828 l 825 72.129 l h
875 43.262 m f*
0 g
875 43.262 m 850 28.828 l 825 72.129 l h
875 43.262 m S
0.85098 g
850 -0.039 m 800 28.828 l 850 28.828 l h
850 -0.039 m f*
0 g
850 -0.039 m 800 28.828 l 850 28.828 l h
850 -0.039 m S
0.85098 g
725 216.469 m 750 202.035 l 725 158.734 l h
725 216.469 m f*
0 g
725 216.469 m 750 202.035 l 725 158.734 l h
725 216.469 m S
0.85098 g
650 -0.039 m 650 28.828 l 700 28.828 l h
650 -0.039 m f*
0 g
650 -0.039 m 650 28.828 l 700 28.828 l h
650 -0.039 m S
0.85098 g
775 216.469 m 775 158.734 l 750 202.035 l h
775 216.469 m f*
0 g
775 216.469 m 775 158.734 l 750 202.035 l h
775 216.469 m S
0.85098 g
625 43.262 m 675 72.129 l 650 28.828 l h
625 43.262 m f*
0 g
625 43.262 m 675 72.129 l 650 28.828 l h
625 43.262 m S
0.85098 g
200 1299 m 250 1270.133 l 200 1270.133 l h
200 1299 m f*
0 g
200 1299 m 250 1270.133 l 200 1270.133 l h
200 1299 m S
0.85098 g
175 1255.699 m 200 1270.133 l 225 1226.832 l h
175 1255.699 m f*
0 g
175 1255.699 m 200 1270.133 l 225 1226.832 l h
175 1255.699 m S
0.85098 g
425 1255.699 m 375 1226.832 l 400 1270.133 l h
425 1255.699 m f*
0 g
425 1255.699 m 375 1226.832 l 400 1270.133 l h
425 1255.699 m S
0.85098 g
275 1082.492 m 275 1140.23 l 300 1096.926 l h
275 1082.492 m f*
0 g
275 1082.492 m 275 1140.23 l 300 1096.926 l h
275 1082.492 m S
0.85098 g
400 1299 m 400 1270.133 l 350 1270.133 l h
400 1299 m f*
0 g
400 1299 m 400 1270.133 l 350 1270.133 l h
400 1299 m S
0.85098 g
325 1082.492 m 300 1096.926 l 325 1140.23 l h
325 1082.492 m f*
0 g
325 1082.492 m 300 1096.926 l 325 1140.23 l h
325 1082.492 m S
0.85098 g
575 1082.492 m 550 1068.059 l 525 1111.359 l h
575 1082.492 m f*
0 g
575 1082.492 m 550 1068.059 l 525 1111.359 l h
575 1082.492 m S
0.85098 g
550 1039.191 m 500 1068.059 l 550 1068.059 l h
550 1039.191 m f*
0 g
550 1039.191 m 500 1068.059 l 550 1068.059 l h
550 1039.191 m S
0.85098 g
425 1255.699 m 450 1241.266 l 425 1197.965 l h
425 1255.699 m f*
0 g
425 1255.699 m 450 1241.266 l 425 1197.965 l h
425 1255.699 m S
0.85098 g
350 1039.191 m 350 1068.059 l 400 1068.059 l h
350 1039.191 m f*
0 g
350 1039.191 m 350 1068.059 l 400 1068.059 l h
350 1039.191 m S
0.85098 g
475 1255.699 m 475 1197.965 l 450 1241.266 l h
475 1255.699 m f*
0 g
475 1255.699 m 475 1197.965 l 450 1241.266 l h
475 1255.699 m S
0.85098 g
325 1082.492 m 375 1111.359 l 350 1068.059 l h
325 1082.492 m f*
0 g
325 1082.492 m 375 1111.359 l 350 1068.059 l h
325 1082.492 m S
0.85098 g
350 1039.191 m 400 1010.324 l 350 1010.324 l h
350 1039.191 m f*
0 g
350 1039.191 m 400 1010.324 l 350 1010.324 l h
350 1039.191 m S
0.85098 g
325 995.891 m 350 1010.324 l 375 967.023 l h
325 995.891 m f*
0 g
325 995.891 m 350 1010.324 l 375 967.023 l h
325 995.891 m S
0.85098 g
575 995.891 m 525 967.023 l 550 1010.324 l h
575 995.891 m f*
0 g
575 995.891 m 525 967.023 l 550 1010.324 l h
575 995.891 m S
0.85098 g
425 822.688 m 425 880.422 l 450 837.121 l h
425 822.688 m f*
0 g
425 822.688 m 425 880.422 l 450 837.121 l h
425 822.688 m S
0.85098 g
550 1039.191 m 550 1010.324 l 500 1010.324 l h
550 1039.191 m f*
0 g
550 1039.191 m 550 1010.324 l 500 1010.324 l h
550 1039.191 m S
0.85098 g
475 822.688 m 450 837.121 l 475 880.422 l h
475 822.688 m f*
0 g
475 822.688 m 450 837.121 l 475 880.422 l h
475 822.688 m S
0.85098 g
725 822.688 m 700 808.254 l 675 851.555 l h
725 822.688 m f*
0 g
725 822.688 m 700 808.254 l 675 851.555 l h
725 822.688 m S
0.85098 g
700 779.383 m 650 808.254 l 700 808.254 l h
700 779.383 m f*
0 g
700 779.383 m 650 808.254 l 700 808.254 l h
700 779.383 m S
0.85098 g
575 995.891 m 600 981.457 l 575 938.156 l h
575 995.891 m f*
0 g
575 995.891 m 600 981.457 l 575 938.156 l h
575 995.891 m S
0.85098 g
500 779.383 m 500 808.254 l 550 808.254 l h
500 779.383 m f*
0 g
500 779.383 m 500 808.254 l 550 808.254 l h
500 779.383 m S
0.85098 g
625 995.891 m 625 938.156 l 600 981.457 l h
625 995.891 m f*
0 g
625 995.891 m 625 938.156 l 600 981.457 l h
625 995.891 m S
0.85098 g
475 822.688 m 525 851.555 l 500 808.254 l h
475 822.688 m f*
0 g
475 822.688 m 525 851.555 l 500 808.254 l h
475 822.688 m S
0.85098 g
500 779.383 m 550 750.516 l 500 750.516 l h
500 779.383 m f*
0 g
500 779.383 m 550 750.516 l 500 750.516 l h
500 779.383 m S
0.85098 g
475 736.082 m 500 750.516 l 525 707.215 l h
475 736.082 m f*
0 g
475 736.082 m 500 750.516 l 525 707.215 l h
475 736.082 m S
0.85098 g
725 736.082 m 675 707.215 l 700 750.516 l h
725 736.082 m f*
0 g
725 736.082 m 675 707.215 l 700 750.516 l h
725 736.082 m S
0.85098 g
575 562.879 m 575 620.613 l 600 577.312 l h
575 562.879 m f*
0 g
575 562.879 m 575 620.613 l 600 577.312 l h
575 562.879 m S
0.85098 g
700 779.383 m 700 750.516 l 650 750.516 l h
700 779.383 m f*
0 g
700 779.383 m 700 750.516 l 650 750.516 l h
700 779.383 m S
0.85098 g
625 562.879 m 600 577.312 l 625 620.613 l h
625 562.879 m f*
0 g
625 562.879 m 600 577.312 l 625 620.613 l h
625 562.879 m S
0.85098 g
875 562.879 m 850 548.445 l 825 591.746 l h
875 562.879 m f*
0 g
875 562.879 m 850 548.445 l 825 591.746 l h
875 562.879 m S
0.85098 g
850 519.578 m 800 548.445 l 850 548.445 l h
850 519.578 m f*
0 g
850 519.578 m 800 548.445 l 850 548.445 l h
850 519.578 m S
0.85098 g
725 736.082 m 750 721.648 l 725 678.348 l h
725 736.082 m f*
0 g
725 736.082 m 750 721.648 l 725 678.348 l h
725 736.082 m S
0.85098 g
650 519.578 m 650 548.445 l 700 548.445 l h
650 519.578 m f*
0 g
650 519.578 m 650 548.445 l 700 548.445 l h
650 519.578 m S
0.85098 g
775 736.082 m 775 678.348 l 750 721.648 l h
775 736.082 m f*
0 g
775 736.082 m 775 678.348 l 750 721.648 l h
775 736.082 m S
0.85098 g
625 562.879 m 675 591.746 l 650 548.445 l h
625 562.879 m f*
0 g
625 562.879 m 675 591.746 l 650 548.445 l h
625 562.879 m S
0.85098 g
650 519.578 m 700 490.711 l 650 490.711 l h
650 519.578 m f*
0 g
650 519.578 m 700 490.711 l 650 490.711 l h
650 519.578 m S
0.85098 g
625 476.277 m 650 490.711 l 675 447.41 l h
625 476.277 m f*
0 g
625 476.277 m 650 490.711 l 675 447.41 l h
625 476.277 m S
0.85098 g
875 476.277 m 825 447.41 l 850 490.711 l h
875 476.277 m f*
0 g
875 476.277 m 825 447.41 l 850 490.711 l h
875 476.277 m S
0.85098 g
725 303.07 m 725 360.805 l 750 317.504 l h
725 303.07 m f*
0 g
725 303.07 m 725 360.805 l 750 317.504 l h
725 303.07 m S
0.85098 g
850 519.578 m 850 490.711 l 800 490.711 l h
850 519.578 m f*
0 g
850 519.578 m 850 490.711 l 800 490.711 l h
850 519.578 m S
0.85098 g
775 303.07 m 750 317.504 l 775 360.805 l h
775 303.07 m f*
0 g
775 303.07 m 750 317.504 l 775 360.805 l h
775 303.07 m S
0.85098 g
1025 303.07 m 1000 288.637 l 975 331.938 l h
1025 303.07 m f*
0 g
1025 303.07 m 1000 288.637 l 975 331.938 l h
1025 303.07 m S
0.85098 g
1000 259.77 m 950 288.637 l 1000 288.637 l h
1000 259.77 m f*
0 g
1000 259.77 m 950 288.637 l 1000 288.637 l h
1000 259.77 m S
0.85098 g
875 476.277 m 900 461.844 l 875 418.539 l h
875 476.277 m f*
0 g
875 476.277 m 900 461.844 l 875 418.539 l h
875 476.277 m S
0.85098 g
800 259.77 m 800 288.637 l 850 288.637 l h
800 259.77 m f*
0 g
800 259.77 m 800 288.637 l 850 288.637 l h
800 259.77 m S
0.85098 g
925 476.277 m 925 418.539 l 900 461.844 l h
925 476.277 m f*
0 g
925 476.277 m 925 418.539 l 900 461.844 l h
925 476.277 m S
0.85098 g
775 303.07 m 825 331.938 l 800 288.637 l h
775 303.07 m f*
0 g
775 303.07 m 825 331.938 l 800 288.637 l h
775 303.07 m S
0.85098 g
800 259.77 m 850 230.902 l 800 230.902 l h
800 259.77 m f*
0 g
800 259.77 m 850 230.902 l 800 230.902 l h
800 259.77 m S
0.85098 g
775 216.469 m 800 230.902 l 825 187.602 l h
775 216.469 m f*
0 g
775 216.469 m 800 230.902 l 825 187.602 l h
775 216.469 m S
0.85098 g
1025 216.469 m 975 187.602 l 1000 230.902 l h
1025 216.469 m f*
0 g
1025 216.469 m 975 187.602 l 1000 230.902 l h
1025 216.469 m S
0.85098 g
875 43.262 m 875 101 l 900 57.695 l h
875 43.262 m f*
0 g
875 43.262 m 875 101 l 900 57.695 l h
875 43.262 m S
0.85098 g
1000 259.77 m 1000 230.902 l 950 230.902 l h
1000 259.77 m f*
0 g
1000 259.77 m 1000 230.902 l 950 230.902 l h
1000 259.77 m S
0.85098 g
925 43.262 m 900 57.695 l 925 101 l h
925 43.262 m f*
0 g
925 43.262 m 900 57.695 l 925 101 l h
925 43.262 m S
0.85098 g
1175 43.262 m 1150 28.828 l 1125 72.129 l h
1175 43.262 m f*
0 g
1175 43.262 m 1150 28.828 l 1125 72.129 l h
1175 43.262 m S
0.85098 g
1150 -0.039 m 1100 28.828 l 1150 28.828 l h
1150 -0.039 m f*
0 g
1150 -0.039 m 1100 28.828 l 1150 28.828 l h
1150 -0.039 m S
0.85098 g
1025 216.469 m 1050 202.035 l 1025 158.734 l h
1025 216.469 m f*
0 g
1025 216.469 m 1050 202.035 l 1025 158.734 l h
1025 216.469 m S
0.85098 g
950 -0.039 m 950 28.828 l 1000 28.828 l h
950 -0.039 m f*
0 g
950 -0.039 m 950 28.828 l 1000 28.828 l h
950 -0.039 m S
0.85098 g
1075 216.469 m 1075 158.734 l 1050 202.035 l h
1075 216.469 m f*
0 g
1075 216.469 m 1075 158.734 l 1050 202.035 l h
1075 216.469 m S
0.85098 g
925 43.262 m 975 72.129 l 950 28.828 l h
925 43.262 m f*
0 g
925 43.262 m 975 72.129 l 950 28.828 l h
925 43.262 m S
0.85098 g
500 1299 m 550 1270.133 l 500 1270.133 l h
500 1299 m f*
0 g
500 1299 m 550 1270.133 l 500 1270.133 l h
500 1299 m S
0.85098 g
475 1255.699 m 500 1270.133 l 525 1226.832 l h
475 1255.699 m f*
0 g
475 1255.699 m 500 1270.133 l 525 1226.832 l h
475 1255.699 m S
0.85098 g
725 1255.699 m 675 1226.832 l 700 1270.133 l h
725 1255.699 m f*
0 g
725 1255.699 m 675 1226.832 l 700 1270.133 l h
725 1255.699 m S
0.85098 g
575 1082.492 m 575 1140.23 l 600 1096.926 l h
575 1082.492 m f*
0 g
575 1082.492 m 575 1140.23 l 600 1096.926 l h
575 1082.492 m S
0.85098 g
700 1299 m 700 1270.133 l 650 1270.133 l h
700 1299 m f*
0 g
700 1299 m 700 1270.133 l 650 1270.133 l h
700 1299 m S
0.85098 g
625 1082.492 m 600 1096.926 l 625 1140.23 l h
625 1082.492 m f*
0 g
625 1082.492 m 600 1096.926 l 625 1140.23 l h
625 1082.492 m S
0.85098 g
875 1082.492 m 850 1068.059 l 825 1111.359 l h
875 1082.492 m f*
0 g
875 1082.492 m 850 1068.059 l 825 1111.359 l h
875 1082.492 m S
0.85098 g
850 1039.191 m 800 1068.059 l 850 1068.059 l h
850 1039.191 m f*
0 g
850 1039.191 m 800 1068.059 l 850 1068.059 l h
850 1039.191 m S
0.85098 g
725 1255.699 m 750 1241.266 l 725 1197.965 l h
725 1255.699 m f*
0 g
725 1255.699 m 750 1241.266 l 725 1197.965 l h
725 1255.699 m S
0.85098 g
650 1039.191 m 650 1068.059 l 700 1068.059 l h
650 1039.191 m f*
0 g
650 1039.191 m 650 1068.059 l 700 1068.059 l h
650 1039.191 m S
0.85098 g
775 1255.699 m 775 1197.965 l 750 1241.266 l h
775 1255.699 m f*
0 g
775 1255.699 m 775 1197.965 l 750 1241.266 l h
775 1255.699 m S
0.85098 g
625 1082.492 m 675 1111.359 l 650 1068.059 l h
625 1082.492 m f*
0 g
625 1082.492 m 675 1111.359 l 650 1068.059 l h
625 1082.492 m S
0.85098 g
650 1039.191 m 700 1010.324 l 650 1010.324 l h
650 1039.191 m f*
0 g
650 1039.191 m 700 1010.324 l 650 1010.324 l h
650 1039.191 m S
0.85098 g
625 995.891 m 650 1010.324 l 675 967.023 l h
625 995.891 m f*
0 g
625 995.891 m 650 1010.324 l 675 967.023 l h
625 995.891 m S
0.85098 g
875 995.891 m 825 967.023 l 850 1010.324 l h
875 995.891 m f*
0 g
875 995.891 m 825 967.023 l 850 1010.324 l h
875 995.891 m S
0.85098 g
725 822.688 m 725 880.422 l 750 837.121 l h
725 822.688 m f*
0 g
725 822.688 m 725 880.422 l 750 837.121 l h
725 822.688 m S
0.85098 g
850 1039.191 m 850 1010.324 l 800 1010.324 l h
850 1039.191 m f*
0 g
850 1039.191 m 850 1010.324 l 800 1010.324 l h
850 1039.191 m S
0.85098 g
775 822.688 m 750 837.121 l 775 880.422 l h
775 822.688 m f*
0 g
775 822.688 m 750 837.121 l 775 880.422 l h
775 822.688 m S
0.85098 g
1025 822.688 m 1000 808.254 l 975 851.555 l h
1025 822.688 m f*
0 g
1025 822.688 m 1000 808.254 l 975 851.555 l h
1025 822.688 m S
0.85098 g
1000 779.383 m 950 808.254 l 1000 808.254 l h
1000 779.383 m f*
0 g
1000 779.383 m 950 808.254 l 1000 808.254 l h
1000 779.383 m S
0.85098 g
875 995.891 m 900 981.457 l 875 938.156 l h
875 995.891 m f*
0 g
875 995.891 m 900 981.457 l 875 938.156 l h
875 995.891 m S
0.85098 g
800 779.383 m 800 808.254 l 850 808.254 l h
800 779.383 m f*
0 g
800 779.383 m 800 808.254 l 850 808.254 l h
800 779.383 m S
0.85098 g
925 995.891 m 925 938.156 l 900 981.457 l h
925 995.891 m f*
0 g
925 995.891 m 925 938.156 l 900 981.457 l h
925 995.891 m S
0.85098 g
775 822.688 m 825 851.555 l 800 808.254 l h
775 822.688 m f*
0 g
775 822.688 m 825 851.555 l 800 808.254 l h
775 822.688 m S
0.85098 g
800 779.383 m 850 750.516 l 800 750.516 l h
800 779.383 m f*
0 g
800 779.383 m 850 750.516 l 800 750.516 l h
800 779.383 m S
0.85098 g
775 736.082 m 800 750.516 l 825 707.215 l h
775 736.082 m f*
0 g
775 736.082 m 800 750.516 l 825 707.215 l h
775 736.082 m S
0.85098 g
1025 736.082 m 975 707.215 l 1000 750.516 l h
1025 736.082 m f*
0 g
1025 736.082 m 975 707.215 l 1000 750.516 l h
1025 736.082 m S
0.85098 g
875 562.879 m 875 620.613 l 900 577.312 l h
875 562.879 m f*
0 g
875 562.879 m 875 620.613 l 900 577.312 l h
875 562.879 m S
0.85098 g
1000 779.383 m 1000 750.516 l 950 750.516 l h
1000 779.383 m f*
0 g
1000 779.383 m 1000 750.516 l 950 750.516 l h
1000 779.383 m S
0.85098 g
925 562.879 m 900 577.312 l 925 620.613 l h
925 562.879 m f*
0 g
925 562.879 m 900 577.312 l 925 620.613 l h
925 562.879 m S
0.85098 g
1175 562.879 m 1150 548.445 l 1125 591.746 l h
1175 562.879 m f*
0 g
1175 562.879 m 1150 548.445 l 1125 591.746 l h
1175 562.879 m S
0.85098 g
1150 519.578 m 1100 548.445 l 1150 548.445 l h
1150 519.578 m f*
0 g
1150 519.578 m 1100 548.445 l 1150 548.445 l h
1150 519.578 m S
0.85098 g
1025 736.082 m 1050 721.648 l 1025 678.348 l h
1025 736.082 m f*
0 g
1025 736.082 m 1050 721.648 l 1025 678.348 l h
1025 736.082 m S
0.85098 g
950 519.578 m 950 548.445 l 1000 548.445 l h
950 519.578 m f*
0 g
950 519.578 m 950 548.445 l 1000 548.445 l h
950 519.578 m S
0.85098 g
1075 736.082 m 1075 678.348 l 1050 721.648 l h
1075 736.082 m f*
0 g
1075 736.082 m 1075 678.348 l 1050 721.648 l h
1075 736.082 m S
0.85098 g
925 562.879 m 975 591.746 l 950 548.445 l h
925 562.879 m f*
0 g
925 562.879 m 975 591.746 l 950 548.445 l h
925 562.879 m S
0.85098 g
950 519.578 m 1000 490.711 l 950 490.711 l h
950 519.578 m f*
0 g
950 519.578 m 1000 490.711 l 950 490.711 l h
950 519.578 m S
0.85098 g
925 476.277 m 950 490.711 l 975 447.41 l h
925 476.277 m f*
0 g
925 476.277 m 950 490.711 l 975 447.41 l h
925 476.277 m S
0.85098 g
1175 476.277 m 1125 447.41 l 1150 490.711 l h
1175 476.277 m f*
0 g
1175 476.277 m 1125 447.41 l 1150 490.711 l h
1175 476.277 m S
0.85098 g
1025 303.07 m 1025 360.805 l 1050 317.504 l h
1025 303.07 m f*
0 g
1025 303.07 m 1025 360.805 l 1050 317.504 l h
1025 303.07 m S
0.85098 g
1150 519.578 m 1150 490.711 l 1100 490.711 l h
1150 519.578 m f*
0 g
1150 519.578 m 1150 490.711 l 1100 490.711 l h
1150 519.578 m S
0.85098 g
1075 303.07 m 1050 317.504 l 1075 360.805 l h
1075 303.07 m f*
0 g
1075 303.07 m 1050 317.504 l 1075 360.805 l h
1075 303.07 m S
0.85098 g
1325 303.07 m 1300 288.637 l 1275 331.938 l h
1325 303.07 m f*
0 g
1325 303.07 m 1300 288.637 l 1275 331.938 l h
1325 303.07 m S
0.85098 g
1300 259.77 m 1250 288.637 l 1300 288.637 l h
1300 259.77 m f*
0 g
1300 259.77 m 1250 288.637 l 1300 288.637 l h
1300 259.77 m S
0.85098 g
1175 476.277 m 1200 461.844 l 1175 418.539 l h
1175 476.277 m f*
0 g
1175 476.277 m 1200 461.844 l 1175 418.539 l h
1175 476.277 m S
0.85098 g
1100 259.77 m 1100 288.637 l 1150 288.637 l h
1100 259.77 m f*
0 g
1100 259.77 m 1100 288.637 l 1150 288.637 l h
1100 259.77 m S
0.85098 g
1225 476.277 m 1225 418.539 l 1200 461.844 l h
1225 476.277 m f*
0 g
1225 476.277 m 1225 418.539 l 1200 461.844 l h
1225 476.277 m S
0.85098 g
1075 303.07 m 1125 331.938 l 1100 288.637 l h
1075 303.07 m f*
0 g
1075 303.07 m 1125 331.938 l 1100 288.637 l h
1075 303.07 m S
0.85098 g
1100 259.77 m 1150 230.902 l 1100 230.902 l h
1100 259.77 m f*
0 g
1100 259.77 m 1150 230.902 l 1100 230.902 l h
1100 259.77 m S
0.85098 g
1075 216.469 m 1100 230.902 l 1125 187.602 l h
1075 216.469 m f*
0 g
1075 216.469 m 1100 230.902 l 1125 187.602 l h
1075 216.469 m S
0.85098 g
1325 216.469 m 1275 187.602 l 1300 230.902 l h
1325 216.469 m f*
0 g
1325 216.469 m 1275 187.602 l 1300 230.902 l h
1325 216.469 m S
0.85098 g
1175 43.262 m 1175 101 l 1200 57.695 l h
1175 43.262 m f*
0 g
1175 43.262 m 1175 101 l 1200 57.695 l h
1175 43.262 m S
0.85098 g
1300 259.77 m 1300 230.902 l 1250 230.902 l h
1300 259.77 m f*
0 g
1300 259.77 m 1300 230.902 l 1250 230.902 l h
1300 259.77 m S
0.85098 g
1225 43.262 m 1200 57.695 l 1225 101 l h
1225 43.262 m f*
0 g
1225 43.262 m 1200 57.695 l 1225 101 l h
1225 43.262 m S
0.85098 g
1325 216.469 m 1350 202.035 l 1325 158.734 l h
1325 216.469 m f*
0 g
1325 216.469 m 1350 202.035 l 1325 158.734 l h
1325 216.469 m S
0.85098 g
1250 -0.039 m 1250 28.828 l 1300 28.828 l h
1250 -0.039 m f*
0 g
1250 -0.039 m 1250 28.828 l 1300 28.828 l h
1250 -0.039 m S
1375 216.469 m 1375 158.734 l 1350 202.035 l h
1375 216.469 m S
0.85098 g
1225 43.262 m 1275 72.129 l 1250 28.828 l h
1225 43.262 m f*
0 g
1225 43.262 m 1275 72.129 l 1250 28.828 l h
1225 43.262 m S
0.85098 g
800 1299 m 850 1270.133 l 800 1270.133 l h
800 1299 m f*
0 g
800 1299 m 850 1270.133 l 800 1270.133 l h
800 1299 m S
0.85098 g
775 1255.699 m 800 1270.133 l 825 1226.832 l h
775 1255.699 m f*
0 g
775 1255.699 m 800 1270.133 l 825 1226.832 l h
775 1255.699 m S
0.85098 g
1025 1255.699 m 975 1226.832 l 1000 1270.133 l h
1025 1255.699 m f*
0 g
1025 1255.699 m 975 1226.832 l 1000 1270.133 l h
1025 1255.699 m S
0.85098 g
875 1082.492 m 875 1140.23 l 900 1096.926 l h
875 1082.492 m f*
0 g
875 1082.492 m 875 1140.23 l 900 1096.926 l h
875 1082.492 m S
0.85098 g
1000 1299 m 1000 1270.133 l 950 1270.133 l h
1000 1299 m f*
0 g
1000 1299 m 1000 1270.133 l 950 1270.133 l h
1000 1299 m S
0.85098 g
925 1082.492 m 900 1096.926 l 925 1140.23 l h
925 1082.492 m f*
0 g
925 1082.492 m 900 1096.926 l 925 1140.23 l h
925 1082.492 m S
0.85098 g
1175 1082.492 m 1150 1068.059 l 1125 1111.359 l h
1175 1082.492 m f*
0 g
1175 1082.492 m 1150 1068.059 l 1125 1111.359 l h
1175 1082.492 m S
0.85098 g
1150 1039.191 m 1100 1068.059 l 1150 1068.059 l h
1150 1039.191 m f*
0 g
1150 1039.191 m 1100 1068.059 l 1150 1068.059 l h
1150 1039.191 m S
0.85098 g
1025 1255.699 m 1050 1241.266 l 1025 1197.965 l h
1025 1255.699 m f*
0 g
1025 1255.699 m 1050 1241.266 l 1025 1197.965 l h
1025 1255.699 m S
0.85098 g
950 1039.191 m 950 1068.059 l 1000 1068.059 l h
950 1039.191 m f*
0 g
950 1039.191 m 950 1068.059 l 1000 1068.059 l h
950 1039.191 m S
0.85098 g
1075 1255.699 m 1075 1197.965 l 1050 1241.266 l h
1075 1255.699 m f*
0 g
1075 1255.699 m 1075 1197.965 l 1050 1241.266 l h
1075 1255.699 m S
0.85098 g
925 1082.492 m 975 1111.359 l 950 1068.059 l h
925 1082.492 m f*
0 g
925 1082.492 m 975 1111.359 l 950 1068.059 l h
925 1082.492 m S
0.85098 g
950 1039.191 m 1000 1010.324 l 950 1010.324 l h
950 1039.191 m f*
0 g
950 1039.191 m 1000 1010.324 l 950 1010.324 l h
950 1039.191 m S
0.85098 g
925 995.891 m 950 1010.324 l 975 967.023 l h
925 995.891 m f*
0 g
925 995.891 m 950 1010.324 l 975 967.023 l h
925 995.891 m S
0.85098 g
1175 995.891 m 1125 967.023 l 1150 1010.324 l h
1175 995.891 m f*
0 g
1175 995.891 m 1125 967.023 l 1150 1010.324 l h
1175 995.891 m S
0.85098 g
1025 822.688 m 1025 880.422 l 1050 837.121 l h
1025 822.688 m f*
0 g
1025 822.688 m 1025 880.422 l 1050 837.121 l h
1025 822.688 m S
0.85098 g
1150 1039.191 m 1150 1010.324 l 1100 1010.324 l h
1150 1039.191 m f*
0 g
1150 1039.191 m 1150 1010.324 l 1100 1010.324 l h
1150 1039.191 m S
0.85098 g
1075 822.688 m 1050 837.121 l 1075 880.422 l h
1075 822.688 m f*
0 g
1075 822.688 m 1050 837.121 l 1075 880.422 l h
1075 822.688 m S
0.85098 g
1325 822.688 m 1300 808.254 l 1275 851.555 l h
1325 822.688 m f*
0 g
1325 822.688 m 1300 808.254 l 1275 851.555 l h
1325 822.688 m S
0.85098 g
1300 779.383 m 1250 808.254 l 1300 808.254 l h
1300 779.383 m f*
0 g
1300 779.383 m 1250 808.254 l 1300 808.254 l h
1300 779.383 m S
0.85098 g
1175 995.891 m 1200 981.457 l 1175 938.156 l h
1175 995.891 m f*
0 g
1175 995.891 m 1200 981.457 l 1175 938.156 l h
1175 995.891 m S
0.85098 g
1100 779.383 m 1100 808.254 l 1150 808.254 l h
1100 779.383 m f*
0 g
1100 779.383 m 1100 808.254 l 1150 808.254 l h
1100 779.383 m S
0.85098 g
1225 995.891 m 1225 938.156 l 1200 981.457 l h
1225 995.891 m f*
0 g
1225 995.891 m 1225 938.156 l 1200 981.457 l h
1225 995.891 m S
0.85098 g
1075 822.688 m 1125 851.555 l 1100 808.254 l h
1075 822.688 m f*
0 g
1075 822.688 m 1125 851.555 l 1100 808.254 l h
1075 822.688 m S
0.85098 g
1100 779.383 m 1150 750.516 l 1100 750.516 l h
1100 779.383 m f*
0 g
1100 779.383 m 1150 750.516 l 1100 750.516 l h
1100 779.383 m S
0.85098 g
1075 736.082 m 1100 750.516 l 1125 707.215 l h
1075 736.082 m f*
0 g
1075 736.082 m 1100 750.516 l 1125 707.215 l h
1075 736.082 m S
0.85098 g
1325 736.082 m 1275 707.215 l 1300 750.516 l h
1325 736.082 m f*
0 g
1325 736.082 m 1275 707.215 l 1300 750.516 l h
1325 736.082 m S
0.85098 g
1175 562.879 m 1175 620.613 l 1200 577.312 l h
1175 562.879 m f*
0 g
1175 562.879 m 1175 620.613 l 1200 577.312 l h
1175 562.879 m S
0.85098 g
1300 779.383 m 1300 750.516 l 1250 750.516 l h
1300 779.383 m f*
0 g
1300 779.383 m 1300 750.516 l 1250 750.516 l h
1300 779.383 m S
0.85098 g
1225 562.879 m 1200 577.312 l 1225 620.613 l h
1225 562.879 m f*
0 g
1225 562.879 m 1200 577.312 l 1225 620.613 l h
1225 562.879 m S
0.85098 g
1325 736.082 m 1350 721.648 l 1325 678.348 l h
1325 736.082 m f*
0 g
1325 736.082 m 1350 721.648 l 1325 678.348 l h
1325 736.082 m S
0.85098 g
1250 519.578 m 1250 548.445 l 1300 548.445 l h
1250 519.578 m f*
0 g
1250 519.578 m 1250 548.445 l 1300 548.445 l h
1250 519.578 m S
1375 736.082 m 1375 678.348 l 1350 721.648 l h
1375 736.082 m S
0.85098 g
1225 562.879 m 1275 591.746 l 1250 548.445 l h
1225 562.879 m f*
0 g
1225 562.879 m 1275 591.746 l 1250 548.445 l h
1225 562.879 m S
0.85098 g
1250 519.578 m 1300 490.711 l 1250 490.711 l h
1250 519.578 m f*
0 g
1250 519.578 m 1300 490.711 l 1250 490.711 l h
1250 519.578 m S
0.85098 g
1225 476.277 m 1250 490.711 l 1275 447.41 l h
1225 476.277 m f*
0 g
1225 476.277 m 1250 490.711 l 1275 447.41 l h
1225 476.277 m S
0.85098 g
1325 303.07 m 1325 360.805 l 1350 317.504 l h
1325 303.07 m f*
0 g
1325 303.07 m 1325 360.805 l 1350 317.504 l h
1325 303.07 m S
1375 303.07 m 1350 317.504 l 1375 360.805 l h
1375 303.07 m S
0.85098 g
1100 1299 m 1150 1270.133 l 1100 1270.133 l h
1100 1299 m f*
0 g
1100 1299 m 1150 1270.133 l 1100 1270.133 l h
1100 1299 m S
0.85098 g
1075 1255.699 m 1100 1270.133 l 1125 1226.832 l h
1075 1255.699 m f*
0 g
1075 1255.699 m 1100 1270.133 l 1125 1226.832 l h
1075 1255.699 m S
0.85098 g
1325 1255.699 m 1275 1226.832 l 1300 1270.133 l h
1325 1255.699 m f*
0 g
1325 1255.699 m 1275 1226.832 l 1300 1270.133 l h
1325 1255.699 m S
0.85098 g
1175 1082.492 m 1175 1140.23 l 1200 1096.926 l h
1175 1082.492 m f*
0 g
1175 1082.492 m 1175 1140.23 l 1200 1096.926 l h
1175 1082.492 m S
0.85098 g
1300 1299 m 1300 1270.133 l 1250 1270.133 l h
1300 1299 m f*
0 g
1300 1299 m 1300 1270.133 l 1250 1270.133 l h
1300 1299 m S
0.85098 g
1225 1082.492 m 1200 1096.926 l 1225 1140.23 l h
1225 1082.492 m f*
0 g
1225 1082.492 m 1200 1096.926 l 1225 1140.23 l h
1225 1082.492 m S
0.85098 g
1325 1255.699 m 1350 1241.266 l 1325 1197.965 l h
1325 1255.699 m f*
0 g
1325 1255.699 m 1350 1241.266 l 1325 1197.965 l h
1325 1255.699 m S
0.85098 g
1250 1039.191 m 1250 1068.059 l 1300 1068.059 l h
1250 1039.191 m f*
0 g
1250 1039.191 m 1250 1068.059 l 1300 1068.059 l h
1250 1039.191 m S
1375 1255.699 m 1375 1197.965 l 1350 1241.266 l h
1375 1255.699 m S
0.85098 g
1225 1082.492 m 1275 1111.359 l 1250 1068.059 l h
1225 1082.492 m f*
0 g
1225 1082.492 m 1275 1111.359 l 1250 1068.059 l h
1225 1082.492 m S
0.85098 g
1250 1039.191 m 1300 1010.324 l 1250 1010.324 l h
1250 1039.191 m f*
0 g
1250 1039.191 m 1300 1010.324 l 1250 1010.324 l h
1250 1039.191 m S
0.85098 g
1225 995.891 m 1250 1010.324 l 1275 967.023 l h
1225 995.891 m f*
0 g
1225 995.891 m 1250 1010.324 l 1275 967.023 l h
1225 995.891 m S
0.85098 g
1325 822.688 m 1325 880.422 l 1350 837.121 l h
1325 822.688 m f*
0 g
1325 822.688 m 1325 880.422 l 1350 837.121 l h
1325 822.688 m S
1375 822.688 m 1350 837.121 l 1375 880.422 l h
1375 822.688 m S
Q Q
showpage
%%Trailer
%%Trailer
cleartomark
countdictstack
exch sub { end } repeat
restore
%%EOF
