%!PS-Adobe-2.0 EPSF-2.0
%%BoundingBox: 0 0 1350 1299
%%HiResBoundingBox: 0.000000 0.000000 1350.000000 1299.000000
%%Creator: cairo 1.14.2 (http://cairographics.org)
%%CreationDate: Mon Sep  7 08:22:05 2015
%%DocumentData: Clean7Bit
%%LanguageLevel: 2
%%DocumentMedia: 476x458mm 1350 1299 0 () ()
%%EndComments
% EPSF created by ps2eps 1.68
%%BeginProlog
save
countdictstack
mark
newpath
/showpage {} def
/setpagedevice {pop} def
%%EndProlog
%%Page 1 1
%%BeginProlog
/languagelevel where
{ pop languagelevel } { 1 } ifelse
2 lt { /Helvetica findfont 12 scalefont setfont 50 500 moveto
  (This print job requires a PostScript Language Level 2 printer.) show
  showpage quit } if
/q { gsave } bind def
/Q { grestore } bind def
/cm { 6 array astore concat } bind def
/w { setlinewidth } bind def
/J { setlinecap } bind def
/j { setlinejoin } bind def
/M { setmiterlimit } bind def
/d { setdash } bind def
/m { moveto } bind def
/l { lineto } bind def
/c { curveto } bind def
/h { closepath } bind def
/re { exch dup neg 3 1 roll 5 3 roll moveto 0 rlineto
      0 exch rlineto 0 rlineto closepath } bind def
/S { stroke } bind def
/f { fill } bind def
/f* { eofill } bind def
/n { newpath } bind def
/W { clip } bind def
/W* { eoclip } bind def
/BT { } bind def
/ET { } bind def
/pdfmark where { pop globaldict /?pdfmark /exec load put }
    { globaldict begin /?pdfmark /pop load def /pdfmark
    /cleartomark load def end } ifelse
/BDC { mark 3 1 roll /BDC pdfmark } bind def
/EMC { mark /EMC pdfmark } bind def
/cairo_store_point { /cairo_point_y exch def /cairo_point_x exch def } def
/Tj { show currentpoint cairo_store_point } bind def
/TJ {
  {
    dup
    type /stringtype eq
    { show } { -0.001 mul 0 cairo_font_matrix dtransform rmoveto } ifelse
  } forall
  currentpoint cairo_store_point
} bind def
/cairo_selectfont { cairo_font_matrix aload pop pop pop 0 0 6 array astore
    cairo_font exch selectfont cairo_point_x cairo_point_y moveto } bind def
/Tf { pop /cairo_font exch def /cairo_font_matrix where
      { pop cairo_selectfont } if } bind def
/Td { matrix translate cairo_font_matrix matrix concatmatrix dup
      /cairo_font_matrix exch def dup 4 get exch 5 get cairo_store_point
      /cairo_font where { pop cairo_selectfont } if } bind def
/Tm { 2 copy 8 2 roll 6 array astore /cairo_font_matrix exch def
      cairo_store_point /cairo_font where { pop cairo_selectfont } if } bind def
/g { setgray } bind def
/rg { setrgbcolor } bind def
/d1 { setcachedevice } bind def
/cairo_set_page_size {
  % Change paper size, but only if different from previous paper size otherwise
  % duplex fails. PLRM specifies a tolerance of 5 pts when matching paper size
  % so we use the same when checking if the size changes.
  /setpagedevice where {
    pop currentpagedevice
    /PageSize known {
      2 copy
      currentpagedevice /PageSize get aload pop
      exch 4 1 roll
      sub abs 5 gt
      3 1 roll
      sub abs 5 gt
      or
    } {
      true
    } ifelse
    {
      2 array astore
      2 dict begin
        /PageSize exch def
        /ImagingBBox null def
      currentdict end
      setpagedevice
    } {
      pop pop
    } ifelse
  } {
    pop
  } ifelse
} def
%%EndProlog
%%BeginSetup
%%EndSetup
%%Page: 1 1
%%BeginPageSetup
%%PageMedia: 476x458mm
%%PageBoundingBox: 0 0 1350 1299
1350 1299 cairo_set_page_size
%%EndPageSetup
q 0 0 1350 1299 rectclip q
0.984314 g
0 0 1350 1299 rectfill
0.788235 g
1.875 w
0 J
1 j
[] 0.0 d
4 M 0 1299 1350 -1299.039 re S
0 g
2.5 w
1 J
50 317.504 m 100 346.371 l 25 360.805 l S
50 317.504 m 50 259.77 l 0 317.504 l S
0 404.105 m -50 432.973 l -25 360.805 l S
-50 317.504 m -50 259.77 l 0 317.504 l S
0 404.105 m 50 432.973 l 25 360.805 l S
-50 202.035 m -50 259.77 l 0 202.035 l S
50 202.035 m 100 173.168 l 25 158.734 l S
0 115.434 m -50 86.562 l -25 158.734 l S
50 202.035 m 50 259.77 l 0 202.035 l S
0 115.434 m 50 86.562 l 25 158.734 l S
200 57.695 m 250 86.562 l 175 101 l S
200 57.695 m 200 -0.039 l 150 57.695 l S
150 144.301 m 100 173.168 l 125 101 l S
100 57.695 m 100 -0.039 l 150 57.695 l S
150 144.301 m 200 173.168 l 175 101 l S
100 57.695 m 50 86.562 l 125 101 l S
50 837.121 m 100 865.988 l 25 880.422 l S
50 837.121 m 50 779.383 l 0 837.121 l S
0 923.723 m -50 952.59 l -25 880.422 l S
-50 837.121 m -50 779.383 l 0 837.121 l S
0 923.723 m 50 952.59 l 25 880.422 l S
-50 721.648 m -50 779.383 l 0 721.648 l S
50 721.648 m 100 692.781 l 25 678.348 l S
0 635.047 m -50 606.18 l -25 678.348 l S
50 721.648 m 50 779.383 l 0 721.648 l S
0 635.047 m 50 606.18 l 25 678.348 l S
200 577.312 m 250 606.18 l 175 620.613 l S
200 577.312 m 200 519.578 l 150 577.312 l S
150 663.914 m 100 692.781 l 125 620.613 l S
100 577.312 m 100 519.578 l 150 577.312 l S
150 663.914 m 200 692.781 l 175 620.613 l S
100 577.312 m 50 606.18 l 125 620.613 l S
100 461.844 m 100 519.578 l 150 461.844 l S
100 461.844 m 50 432.973 l 125 418.539 l S
200 461.844 m 250 432.973 l 175 418.539 l S
150 375.238 m 100 346.371 l 125 418.539 l S
200 461.844 m 200 519.578 l 150 461.844 l S
150 375.238 m 200 346.371 l 175 418.539 l S
350 317.504 m 400 346.371 l 325 360.805 l S
350 317.504 m 350 259.77 l 300 317.504 l S
300 404.105 m 250 432.973 l 275 360.805 l S
250 317.504 m 250 259.77 l 300 317.504 l S
300 404.105 m 350 432.973 l 325 360.805 l S
250 317.504 m 200 346.371 l 275 360.805 l S
250 202.035 m 250 259.77 l 300 202.035 l S
250 202.035 m 200 173.168 l 275 158.734 l S
350 202.035 m 400 173.168 l 325 158.734 l S
300 115.434 m 250 86.562 l 275 158.734 l S
350 202.035 m 350 259.77 l 300 202.035 l S
300 115.434 m 350 86.562 l 325 158.734 l S
500 57.695 m 550 86.562 l 475 101 l S
500 57.695 m 500 -0.039 l 450 57.695 l S
450 144.301 m 400 173.168 l 425 101 l S
400 57.695 m 400 -0.039 l 450 57.695 l S
450 144.301 m 500 173.168 l 475 101 l S
400 57.695 m 350 86.562 l 425 101 l S
-50 1241.266 m -50 1299 l 0 1241.266 l S
50 1241.266 m 100 1212.398 l 25 1197.965 l S
0 1154.664 m -50 1125.793 l -25 1197.965 l S
50 1241.266 m 50 1299 l 0 1241.266 l S
0 1154.664 m 50 1125.793 l 25 1197.965 l S
200 1096.926 m 250 1125.793 l 175 1140.23 l S
200 1096.926 m 200 1039.191 l 150 1096.926 l S
150 1183.531 m 100 1212.398 l 125 1140.23 l S
100 1096.926 m 100 1039.191 l 150 1096.926 l S
150 1183.531 m 200 1212.398 l 175 1140.23 l S
100 1096.926 m 50 1125.793 l 125 1140.23 l S
100 981.457 m 100 1039.191 l 150 981.457 l S
100 981.457 m 50 952.59 l 125 938.156 l S
200 981.457 m 250 952.59 l 175 938.156 l S
150 894.855 m 100 865.988 l 125 938.156 l S
200 981.457 m 200 1039.191 l 150 981.457 l S
150 894.855 m 200 865.988 l 175 938.156 l S
350 837.121 m 400 865.988 l 325 880.422 l S
350 837.121 m 350 779.383 l 300 837.121 l S
300 923.723 m 250 952.59 l 275 880.422 l S
250 837.121 m 250 779.383 l 300 837.121 l S
300 923.723 m 350 952.59 l 325 880.422 l S
250 837.121 m 200 865.988 l 275 880.422 l S
250 721.648 m 250 779.383 l 300 721.648 l S
250 721.648 m 200 692.781 l 275 678.348 l S
350 721.648 m 400 692.781 l 325 678.348 l S
300 635.047 m 250 606.18 l 275 678.348 l S
350 721.648 m 350 779.383 l 300 721.648 l S
300 635.047 m 350 606.18 l 325 678.348 l S
500 577.312 m 550 606.18 l 475 620.613 l S
500 577.312 m 500 519.578 l 450 577.312 l S
450 663.914 m 400 692.781 l 425 620.613 l S
400 577.312 m 400 519.578 l 450 577.312 l S
450 663.914 m 500 692.781 l 475 620.613 l S
400 577.312 m 350 606.18 l 425 620.613 l S
400 461.844 m 400 519.578 l 450 461.844 l S
400 461.844 m 350 432.973 l 425 418.539 l S
500 461.844 m 550 432.973 l 475 418.539 l S
450 375.238 m 400 346.371 l 425 418.539 l S
500 461.844 m 500 519.578 l 450 461.844 l S
450 375.238 m 500 346.371 l 475 418.539 l S
650 317.504 m 700 346.371 l 625 360.805 l S
650 317.504 m 650 259.77 l 600 317.504 l S
600 404.105 m 550 432.973 l 575 360.805 l S
550 317.504 m 550 259.77 l 600 317.504 l S
600 404.105 m 650 432.973 l 625 360.805 l S
550 317.504 m 500 346.371 l 575 360.805 l S
550 202.035 m 550 259.77 l 600 202.035 l S
550 202.035 m 500 173.168 l 575 158.734 l S
650 202.035 m 700 173.168 l 625 158.734 l S
600 115.434 m 550 86.562 l 575 158.734 l S
650 202.035 m 650 259.77 l 600 202.035 l S
600 115.434 m 650 86.562 l 625 158.734 l S
800 57.695 m 850 86.562 l 775 101 l S
800 57.695 m 800 -0.039 l 750 57.695 l S
750 144.301 m 700 173.168 l 725 101 l S
700 57.695 m 700 -0.039 l 750 57.695 l S
750 144.301 m 800 173.168 l 775 101 l S
700 57.695 m 650 86.562 l 725 101 l S
250 1241.266 m 250 1299 l 300 1241.266 l S
250 1241.266 m 200 1212.398 l 275 1197.965 l S
350 1241.266 m 400 1212.398 l 325 1197.965 l S
300 1154.664 m 250 1125.793 l 275 1197.965 l S
350 1241.266 m 350 1299 l 300 1241.266 l S
300 1154.664 m 350 1125.793 l 325 1197.965 l S
500 1096.926 m 550 1125.793 l 475 1140.23 l S
500 1096.926 m 500 1039.191 l 450 1096.926 l S
450 1183.531 m 400 1212.398 l 425 1140.23 l S
400 1096.926 m 400 1039.191 l 450 1096.926 l S
450 1183.531 m 500 1212.398 l 475 1140.23 l S
400 1096.926 m 350 1125.793 l 425 1140.23 l S
400 981.457 m 400 1039.191 l 450 981.457 l S
400 981.457 m 350 952.59 l 425 938.156 l S
500 981.457 m 550 952.59 l 475 938.156 l S
450 894.855 m 400 865.988 l 425 938.156 l S
500 981.457 m 500 1039.191 l 450 981.457 l S
450 894.855 m 500 865.988 l 475 938.156 l S
650 837.121 m 700 865.988 l 625 880.422 l S
650 837.121 m 650 779.383 l 600 837.121 l S
600 923.723 m 550 952.59 l 575 880.422 l S
550 837.121 m 550 779.383 l 600 837.121 l S
600 923.723 m 650 952.59 l 625 880.422 l S
550 837.121 m 500 865.988 l 575 880.422 l S
550 721.648 m 550 779.383 l 600 721.648 l S
550 721.648 m 500 692.781 l 575 678.348 l S
650 721.648 m 700 692.781 l 625 678.348 l S
600 635.047 m 550 606.18 l 575 678.348 l S
650 721.648 m 650 779.383 l 600 721.648 l S
600 635.047 m 650 606.18 l 625 678.348 l S
800 577.312 m 850 606.18 l 775 620.613 l S
800 577.312 m 800 519.578 l 750 577.312 l S
750 663.914 m 700 692.781 l 725 620.613 l S
700 577.312 m 700 519.578 l 750 577.312 l S
750 663.914 m 800 692.781 l 775 620.613 l S
700 577.312 m 650 606.18 l 725 620.613 l S
700 461.844 m 700 519.578 l 750 461.844 l S
700 461.844 m 650 432.973 l 725 418.539 l S
800 461.844 m 850 432.973 l 775 418.539 l S
750 375.238 m 700 346.371 l 725 418.539 l S
800 461.844 m 800 519.578 l 750 461.844 l S
750 375.238 m 800 346.371 l 775 418.539 l S
950 317.504 m 1000 346.371 l 925 360.805 l S
950 317.504 m 950 259.77 l 900 317.504 l S
900 404.105 m 850 432.973 l 875 360.805 l S
850 317.504 m 850 259.77 l 900 317.504 l S
900 404.105 m 950 432.973 l 925 360.805 l S
850 317.504 m 800 346.371 l 875 360.805 l S
850 202.035 m 850 259.77 l 900 202.035 l S
850 202.035 m 800 173.168 l 875 158.734 l S
950 202.035 m 1000 173.168 l 925 158.734 l S
900 115.434 m 850 86.562 l 875 158.734 l S
950 202.035 m 950 259.77 l 900 202.035 l S
900 115.434 m 950 86.562 l 925 158.734 l S
1100 57.695 m 1150 86.562 l 1075 101 l S
1100 57.695 m 1100 -0.039 l 1050 57.695 l S
1050 144.301 m 1000 173.168 l 1025 101 l S
1000 57.695 m 1000 -0.039 l 1050 57.695 l S
1050 144.301 m 1100 173.168 l 1075 101 l S
1000 57.695 m 950 86.562 l 1025 101 l S
550 1241.266 m 550 1299 l 600 1241.266 l S
550 1241.266 m 500 1212.398 l 575 1197.965 l S
650 1241.266 m 700 1212.398 l 625 1197.965 l S
600 1154.664 m 550 1125.793 l 575 1197.965 l S
650 1241.266 m 650 1299 l 600 1241.266 l S
600 1154.664 m 650 1125.793 l 625 1197.965 l S
800 1096.926 m 850 1125.793 l 775 1140.23 l S
800 1096.926 m 800 1039.191 l 750 1096.926 l S
750 1183.531 m 700 1212.398 l 725 1140.23 l S
700 1096.926 m 700 1039.191 l 750 1096.926 l S
750 1183.531 m 800 1212.398 l 775 1140.23 l S
700 1096.926 m 650 1125.793 l 725 1140.23 l S
700 981.457 m 700 1039.191 l 750 981.457 l S
700 981.457 m 650 952.59 l 725 938.156 l S
800 981.457 m 850 952.59 l 775 938.156 l S
750 894.855 m 700 865.988 l 725 938.156 l S
800 981.457 m 800 1039.191 l 750 981.457 l S
750 894.855 m 800 865.988 l 775 938.156 l S
950 837.121 m 1000 865.988 l 925 880.422 l S
950 837.121 m 950 779.383 l 900 837.121 l S
900 923.723 m 850 952.59 l 875 880.422 l S
850 837.121 m 850 779.383 l 900 837.121 l S
900 923.723 m 950 952.59 l 925 880.422 l S
850 837.121 m 800 865.988 l 875 880.422 l S
850 721.648 m 850 779.383 l 900 721.648 l S
850 721.648 m 800 692.781 l 875 678.348 l S
950 721.648 m 1000 692.781 l 925 678.348 l S
900 635.047 m 850 606.18 l 875 678.348 l S
950 721.648 m 950 779.383 l 900 721.648 l S
900 635.047 m 950 606.18 l 925 678.348 l S
1100 577.312 m 1150 606.18 l 1075 620.613 l S
1100 577.312 m 1100 519.578 l 1050 577.312 l S
1050 663.914 m 1000 692.781 l 1025 620.613 l S
1000 577.312 m 1000 519.578 l 1050 577.312 l S
1050 663.914 m 1100 692.781 l 1075 620.613 l S
1000 577.312 m 950 606.18 l 1025 620.613 l S
1000 461.844 m 1000 519.578 l 1050 461.844 l S
1000 461.844 m 950 432.973 l 1025 418.539 l S
1100 461.844 m 1150 432.973 l 1075 418.539 l S
1050 375.238 m 1000 346.371 l 1025 418.539 l S
1100 461.844 m 1100 519.578 l 1050 461.844 l S
1050 375.238 m 1100 346.371 l 1075 418.539 l S
1250 317.504 m 1300 346.371 l 1225 360.805 l S
1250 317.504 m 1250 259.77 l 1200 317.504 l S
1200 404.105 m 1150 432.973 l 1175 360.805 l S
1150 317.504 m 1150 259.77 l 1200 317.504 l S
1200 404.105 m 1250 432.973 l 1225 360.805 l S
1150 317.504 m 1100 346.371 l 1175 360.805 l S
1150 202.035 m 1150 259.77 l 1200 202.035 l S
1150 202.035 m 1100 173.168 l 1175 158.734 l S
1250 202.035 m 1300 173.168 l 1225 158.734 l S
1200 115.434 m 1150 86.562 l 1175 158.734 l S
1250 202.035 m 1250 259.77 l 1200 202.035 l S
1200 115.434 m 1250 86.562 l 1225 158.734 l S
1400 57.695 m 1400 -0.039 l 1350 57.695 l S
1350 144.301 m 1300 173.168 l 1325 101 l S
1300 57.695 m 1300 -0.039 l 1350 57.695 l S
1350 144.301 m 1400 173.168 l 1375 101 l S
1300 57.695 m 1250 86.562 l 1325 101 l S
850 1241.266 m 850 1299 l 900 1241.266 l S
850 1241.266 m 800 1212.398 l 875 1197.965 l S
950 1241.266 m 1000 1212.398 l 925 1197.965 l S
900 1154.664 m 850 1125.793 l 875 1197.965 l S
950 1241.266 m 950 1299 l 900 1241.266 l S
900 1154.664 m 950 1125.793 l 925 1197.965 l S
1100 1096.926 m 1150 1125.793 l 1075 1140.23 l S
1100 1096.926 m 1100 1039.191 l 1050 1096.926 l S
1050 1183.531 m 1000 1212.398 l 1025 1140.23 l S
1000 1096.926 m 1000 1039.191 l 1050 1096.926 l S
1050 1183.531 m 1100 1212.398 l 1075 1140.23 l S
1000 1096.926 m 950 1125.793 l 1025 1140.23 l S
1000 981.457 m 1000 1039.191 l 1050 981.457 l S
1000 981.457 m 950 952.59 l 1025 938.156 l S
1100 981.457 m 1150 952.59 l 1075 938.156 l S
1050 894.855 m 1000 865.988 l 1025 938.156 l S
1100 981.457 m 1100 1039.191 l 1050 981.457 l S
1050 894.855 m 1100 865.988 l 1075 938.156 l S
1250 837.121 m 1300 865.988 l 1225 880.422 l S
1250 837.121 m 1250 779.383 l 1200 837.121 l S
1200 923.723 m 1150 952.59 l 1175 880.422 l S
1150 837.121 m 1150 779.383 l 1200 837.121 l S
1200 923.723 m 1250 952.59 l 1225 880.422 l S
1150 837.121 m 1100 865.988 l 1175 880.422 l S
1150 721.648 m 1150 779.383 l 1200 721.648 l S
1150 721.648 m 1100 692.781 l 1175 678.348 l S
1250 721.648 m 1300 692.781 l 1225 678.348 l S
1200 635.047 m 1150 606.18 l 1175 678.348 l S
1250 721.648 m 1250 779.383 l 1200 721.648 l S
1200 635.047 m 1250 606.18 l 1225 678.348 l S
1400 577.312 m 1400 519.578 l 1350 577.312 l S
1350 663.914 m 1300 692.781 l 1325 620.613 l S
1300 577.312 m 1300 519.578 l 1350 577.312 l S
1350 663.914 m 1400 692.781 l 1375 620.613 l S
1300 577.312 m 1250 606.18 l 1325 620.613 l S
1300 461.844 m 1300 519.578 l 1350 461.844 l S
1300 461.844 m 1250 432.973 l 1325 418.539 l S
1350 375.238 m 1300 346.371 l 1325 418.539 l S
1400 461.844 m 1400 519.578 l 1350 461.844 l S
1350 375.238 m 1400 346.371 l 1375 418.539 l S
1150 1241.266 m 1150 1299 l 1200 1241.266 l S
1150 1241.266 m 1100 1212.398 l 1175 1197.965 l S
1250 1241.266 m 1300 1212.398 l 1225 1197.965 l S
1200 1154.664 m 1150 1125.793 l 1175 1197.965 l S
1250 1241.266 m 1250 1299 l 1200 1241.266 l S
1200 1154.664 m 1250 1125.793 l 1225 1197.965 l S
1400 1096.926 m 1400 1039.191 l 1350 1096.926 l S
1350 1183.531 m 1300 1212.398 l 1325 1140.23 l S
1300 1096.926 m 1300 1039.191 l 1350 1096.926 l S
1350 1183.531 m 1400 1212.398 l 1375 1140.23 l S
1300 1096.926 m 1250 1125.793 l 1325 1140.23 l S
1300 981.457 m 1300 1039.191 l 1350 981.457 l S
1300 981.457 m 1250 952.59 l 1325 938.156 l S
1350 894.855 m 1300 865.988 l 1325 938.156 l S
1400 981.457 m 1400 1039.191 l 1350 981.457 l S
1350 894.855 m 1400 865.988 l 1375 938.156 l S
Q Q
showpage
%%Trailer
%%Trailer
cleartomark
countdictstack
exch sub { end } repeat
restore
%%EOF
