%!PS-Adobe-2.0 EPSF-2.0
%%BoundingBox: 0 0 1350 1299
%%HiResBoundingBox: 0.000000 0.000000 1350.000000 1299.000000
%%Creator: cairo 1.14.2 (http://cairographics.org)
%%CreationDate: Mon Sep  7 08:22:05 2015
%%DocumentData: Clean7Bit
%%LanguageLevel: 2
%%DocumentMedia: 476x458mm 1350 1299 0 () ()
%%EndComments
% EPSF created by ps2eps 1.68
%%BeginProlog
save
countdictstack
mark
newpath
/showpage {} def
/setpagedevice {pop} def
%%EndProlog
%%Page 1 1
%%BeginProlog
/languagelevel where
{ pop languagelevel } { 1 } ifelse
2 lt { /Helvetica findfont 12 scalefont setfont 50 500 moveto
  (This print job requires a PostScript Language Level 2 printer.) show
  showpage quit } if
/q { gsave } bind def
/Q { grestore } bind def
/cm { 6 array astore concat } bind def
/w { setlinewidth } bind def
/J { setlinecap } bind def
/j { setlinejoin } bind def
/M { setmiterlimit } bind def
/d { setdash } bind def
/m { moveto } bind def
/l { lineto } bind def
/c { curveto } bind def
/h { closepath } bind def
/re { exch dup neg 3 1 roll 5 3 roll moveto 0 rlineto
      0 exch rlineto 0 rlineto closepath } bind def
/S { stroke } bind def
/f { fill } bind def
/f* { eofill } bind def
/n { newpath } bind def
/W { clip } bind def
/W* { eoclip } bind def
/BT { } bind def
/ET { } bind def
/pdfmark where { pop globaldict /?pdfmark /exec load put }
    { globaldict begin /?pdfmark /pop load def /pdfmark
    /cleartomark load def end } ifelse
/BDC { mark 3 1 roll /BDC pdfmark } bind def
/EMC { mark /EMC pdfmark } bind def
/cairo_store_point { /cairo_point_y exch def /cairo_point_x exch def } def
/Tj { show currentpoint cairo_store_point } bind def
/TJ {
  {
    dup
    type /stringtype eq
    { show } { -0.001 mul 0 cairo_font_matrix dtransform rmoveto } ifelse
  } forall
  currentpoint cairo_store_point
} bind def
/cairo_selectfont { cairo_font_matrix aload pop pop pop 0 0 6 array astore
    cairo_font exch selectfont cairo_point_x cairo_point_y moveto } bind def
/Tf { pop /cairo_font exch def /cairo_font_matrix where
      { pop cairo_selectfont } if } bind def
/Td { matrix translate cairo_font_matrix matrix concatmatrix dup
      /cairo_font_matrix exch def dup 4 get exch 5 get cairo_store_point
      /cairo_font where { pop cairo_selectfont } if } bind def
/Tm { 2 copy 8 2 roll 6 array astore /cairo_font_matrix exch def
      cairo_store_point /cairo_font where { pop cairo_selectfont } if } bind def
/g { setgray } bind def
/rg { setrgbcolor } bind def
/d1 { setcachedevice } bind def
/cairo_set_page_size {
  % Change paper size, but only if different from previous paper size otherwise
  % duplex fails. PLRM specifies a tolerance of 5 pts when matching paper size
  % so we use the same when checking if the size changes.
  /setpagedevice where {
    pop currentpagedevice
    /PageSize known {
      2 copy
      currentpagedevice /PageSize get aload pop
      exch 4 1 roll
      sub abs 5 gt
      3 1 roll
      sub abs 5 gt
      or
    } {
      true
    } ifelse
    {
      2 array astore
      2 dict begin
        /PageSize exch def
        /ImagingBBox null def
      currentdict end
      setpagedevice
    } {
      pop pop
    } ifelse
  } {
    pop
  } ifelse
} def
%%EndProlog
%%BeginSetup
%%EndSetup
%%Page: 1 1
%%BeginPageSetup
%%PageMedia: 476x458mm
%%PageBoundingBox: 0 0 1350 1299
1350 1299 cairo_set_page_size
%%EndPageSetup
q 0 0 1350 1299 rectclip q
0.984314 g
0 0 1350 1299 rectfill
0.788235 g
1.875 w
0 J
1 j
[] 0.0 d
4 M 0 1299 1350 -1299.039 re S
0 g
2.5 w
1 J
50 317.504 m 100 288.637 75 331.938 125 303.07 c S
50 317.504 m 100 288.637 50 288.637 100 259.77 c S
0 404.105 m 0 461.844 -25 418.539 -25 476.277 c S
0 404.105 m 0 461.844 25 418.539 25 476.277 c S
50 202.035 m 100 230.902 75 187.602 125 216.469 c S
0 115.434 m 0 57.695 -25 101 -25 43.262 c S
50 202.035 m 100 230.902 50 230.902 100 259.77 c S
0 115.434 m 0 57.695 25 101 25 43.262 c S
200 57.695 m 250 28.828 225 72.129 275 43.262 c S
200 57.695 m 250 28.828 200 28.828 250 -0.039 c S
150 144.301 m 150 202.035 125 158.734 125 216.469 c S
100 57.695 m 50 28.828 100 28.828 50 -0.039 c S
150 144.301 m 150 202.035 175 158.734 175 216.469 c S
100 57.695 m 50 28.828 75 72.129 25 43.262 c S
50 837.121 m 100 808.254 75 851.555 125 822.688 c S
50 837.121 m 100 808.254 50 808.254 100 779.383 c S
0 923.723 m 0 981.457 -25 938.156 -25 995.891 c S
0 923.723 m 0 981.457 25 938.156 25 995.891 c S
50 721.648 m 100 750.516 75 707.215 125 736.082 c S
0 635.047 m 0 577.312 -25 620.613 -25 562.879 c S
50 721.648 m 100 750.516 50 750.516 100 779.383 c S
0 635.047 m 0 577.312 25 620.613 25 562.879 c S
200 577.312 m 250 548.445 225 591.746 275 562.879 c S
200 577.312 m 250 548.445 200 548.445 250 519.578 c S
150 663.914 m 150 721.648 125 678.348 125 736.082 c S
100 577.312 m 50 548.445 100 548.445 50 519.578 c S
150 663.914 m 150 721.648 175 678.348 175 736.082 c S
100 577.312 m 50 548.445 75 591.746 25 562.879 c S
100 461.844 m 50 490.711 100 490.711 50 519.578 c S
100 461.844 m 50 490.711 75 447.41 25 476.277 c S
200 461.844 m 250 490.711 225 447.41 275 476.277 c S
150 375.238 m 150 317.504 125 360.805 125 303.07 c S
200 461.844 m 250 490.711 200 490.711 250 519.578 c S
150 375.238 m 150 317.504 175 360.805 175 303.07 c S
350 317.504 m 400 288.637 375 331.938 425 303.07 c S
350 317.504 m 400 288.637 350 288.637 400 259.77 c S
300 404.105 m 300 461.844 275 418.539 275 476.277 c S
250 317.504 m 200 288.637 250 288.637 200 259.77 c S
300 404.105 m 300 461.844 325 418.539 325 476.277 c S
250 317.504 m 200 288.637 225 331.938 175 303.07 c S
250 202.035 m 200 230.902 250 230.902 200 259.77 c S
250 202.035 m 200 230.902 225 187.602 175 216.469 c S
350 202.035 m 400 230.902 375 187.602 425 216.469 c S
300 115.434 m 300 57.695 275 101 275 43.262 c S
350 202.035 m 400 230.902 350 230.902 400 259.77 c S
300 115.434 m 300 57.695 325 101 325 43.262 c S
500 57.695 m 550 28.828 525 72.129 575 43.262 c S
500 57.695 m 550 28.828 500 28.828 550 -0.039 c S
450 144.301 m 450 202.035 425 158.734 425 216.469 c S
400 57.695 m 350 28.828 400 28.828 350 -0.039 c S
450 144.301 m 450 202.035 475 158.734 475 216.469 c S
400 57.695 m 350 28.828 375 72.129 325 43.262 c S
50 1241.266 m 100 1270.133 75 1226.832 125 1255.699 c S
0 1154.664 m 0 1096.926 -25 1140.23 -25 1082.492 c S
50 1241.266 m 100 1270.133 50 1270.133 100 1299 c S
0 1154.664 m 0 1096.926 25 1140.23 25 1082.492 c S
200 1096.926 m 250 1068.059 225 1111.359 275 1082.492 c S
200 1096.926 m 250 1068.059 200 1068.059 250 1039.191 c S
150 1183.531 m 150 1241.266 125 1197.965 125 1255.699 c S
100 1096.926 m 50 1068.059 100 1068.059 50 1039.191 c S
150 1183.531 m 150 1241.266 175 1197.965 175 1255.699 c S
100 1096.926 m 50 1068.059 75 1111.359 25 1082.492 c S
100 981.457 m 50 1010.324 100 1010.324 50 1039.191 c S
100 981.457 m 50 1010.324 75 967.023 25 995.891 c S
200 981.457 m 250 1010.324 225 967.023 275 995.891 c S
150 894.855 m 150 837.121 125 880.422 125 822.688 c S
200 981.457 m 250 1010.324 200 1010.324 250 1039.191 c S
150 894.855 m 150 837.121 175 880.422 175 822.688 c S
350 837.121 m 400 808.254 375 851.555 425 822.688 c S
350 837.121 m 400 808.254 350 808.254 400 779.383 c S
300 923.723 m 300 981.457 275 938.156 275 995.891 c S
250 837.121 m 200 808.254 250 808.254 200 779.383 c S
300 923.723 m 300 981.457 325 938.156 325 995.891 c S
250 837.121 m 200 808.254 225 851.555 175 822.688 c S
250 721.648 m 200 750.516 250 750.516 200 779.383 c S
250 721.648 m 200 750.516 225 707.215 175 736.082 c S
350 721.648 m 400 750.516 375 707.215 425 736.082 c S
300 635.047 m 300 577.312 275 620.613 275 562.879 c S
350 721.648 m 400 750.516 350 750.516 400 779.383 c S
300 635.047 m 300 577.312 325 620.613 325 562.879 c S
500 577.312 m 550 548.445 525 591.746 575 562.879 c S
500 577.312 m 550 548.445 500 548.445 550 519.578 c S
450 663.914 m 450 721.648 425 678.348 425 736.082 c S
400 577.312 m 350 548.445 400 548.445 350 519.578 c S
450 663.914 m 450 721.648 475 678.348 475 736.082 c S
400 577.312 m 350 548.445 375 591.746 325 562.879 c S
400 461.844 m 350 490.711 400 490.711 350 519.578 c S
400 461.844 m 350 490.711 375 447.41 325 476.277 c S
500 461.844 m 550 490.711 525 447.41 575 476.277 c S
450 375.238 m 450 317.504 425 360.805 425 303.07 c S
500 461.844 m 550 490.711 500 490.711 550 519.578 c S
450 375.238 m 450 317.504 475 360.805 475 303.07 c S
650 317.504 m 700 288.637 675 331.938 725 303.07 c S
650 317.504 m 700 288.637 650 288.637 700 259.77 c S
600 404.105 m 600 461.844 575 418.539 575 476.277 c S
550 317.504 m 500 288.637 550 288.637 500 259.77 c S
600 404.105 m 600 461.844 625 418.539 625 476.277 c S
550 317.504 m 500 288.637 525 331.938 475 303.07 c S
550 202.035 m 500 230.902 550 230.902 500 259.77 c S
550 202.035 m 500 230.902 525 187.602 475 216.469 c S
650 202.035 m 700 230.902 675 187.602 725 216.469 c S
600 115.434 m 600 57.695 575 101 575 43.262 c S
650 202.035 m 700 230.902 650 230.902 700 259.77 c S
600 115.434 m 600 57.695 625 101 625 43.262 c S
800 57.695 m 850 28.828 825 72.129 875 43.262 c S
800 57.695 m 850 28.828 800 28.828 850 -0.039 c S
750 144.301 m 750 202.035 725 158.734 725 216.469 c S
700 57.695 m 650 28.828 700 28.828 650 -0.039 c S
750 144.301 m 750 202.035 775 158.734 775 216.469 c S
700 57.695 m 650 28.828 675 72.129 625 43.262 c S
250 1241.266 m 200 1270.133 250 1270.133 200 1299 c S
250 1241.266 m 200 1270.133 225 1226.832 175 1255.699 c S
350 1241.266 m 400 1270.133 375 1226.832 425 1255.699 c S
300 1154.664 m 300 1096.926 275 1140.23 275 1082.492 c S
350 1241.266 m 400 1270.133 350 1270.133 400 1299 c S
300 1154.664 m 300 1096.926 325 1140.23 325 1082.492 c S
500 1096.926 m 550 1068.059 525 1111.359 575 1082.492 c S
500 1096.926 m 550 1068.059 500 1068.059 550 1039.191 c S
450 1183.531 m 450 1241.266 425 1197.965 425 1255.699 c S
400 1096.926 m 350 1068.059 400 1068.059 350 1039.191 c S
450 1183.531 m 450 1241.266 475 1197.965 475 1255.699 c S
400 1096.926 m 350 1068.059 375 1111.359 325 1082.492 c S
400 981.457 m 350 1010.324 400 1010.324 350 1039.191 c S
400 981.457 m 350 1010.324 375 967.023 325 995.891 c S
500 981.457 m 550 1010.324 525 967.023 575 995.891 c S
450 894.855 m 450 837.121 425 880.422 425 822.688 c S
500 981.457 m 550 1010.324 500 1010.324 550 1039.191 c S
450 894.855 m 450 837.121 475 880.422 475 822.688 c S
650 837.121 m 700 808.254 675 851.555 725 822.688 c S
650 837.121 m 700 808.254 650 808.254 700 779.383 c S
600 923.723 m 600 981.457 575 938.156 575 995.891 c S
550 837.121 m 500 808.254 550 808.254 500 779.383 c S
600 923.723 m 600 981.457 625 938.156 625 995.891 c S
550 837.121 m 500 808.254 525 851.555 475 822.688 c S
550 721.648 m 500 750.516 550 750.516 500 779.383 c S
550 721.648 m 500 750.516 525 707.215 475 736.082 c S
650 721.648 m 700 750.516 675 707.215 725 736.082 c S
600 635.047 m 600 577.312 575 620.613 575 562.879 c S
650 721.648 m 700 750.516 650 750.516 700 779.383 c S
600 635.047 m 600 577.312 625 620.613 625 562.879 c S
800 577.312 m 850 548.445 825 591.746 875 562.879 c S
800 577.312 m 850 548.445 800 548.445 850 519.578 c S
750 663.914 m 750 721.648 725 678.348 725 736.082 c S
700 577.312 m 650 548.445 700 548.445 650 519.578 c S
750 663.914 m 750 721.648 775 678.348 775 736.082 c S
700 577.312 m 650 548.445 675 591.746 625 562.879 c S
700 461.844 m 650 490.711 700 490.711 650 519.578 c S
700 461.844 m 650 490.711 675 447.41 625 476.277 c S
800 461.844 m 850 490.711 825 447.41 875 476.277 c S
750 375.238 m 750 317.504 725 360.805 725 303.07 c S
800 461.844 m 850 490.711 800 490.711 850 519.578 c S
750 375.238 m 750 317.504 775 360.805 775 303.07 c S
950 317.504 m 1000 288.637 975 331.938 1025 303.07 c S
950 317.504 m 1000 288.637 950 288.637 1000 259.77 c S
900 404.105 m 900 461.844 875 418.539 875 476.277 c S
850 317.504 m 800 288.637 850 288.637 800 259.77 c S
900 404.105 m 900 461.844 925 418.539 925 476.277 c S
850 317.504 m 800 288.637 825 331.938 775 303.07 c S
850 202.035 m 800 230.902 850 230.902 800 259.77 c S
850 202.035 m 800 230.902 825 187.602 775 216.469 c S
950 202.035 m 1000 230.902 975 187.602 1025 216.469 c S
900 115.434 m 900 57.695 875 101 875 43.262 c S
950 202.035 m 1000 230.902 950 230.902 1000 259.77 c S
900 115.434 m 900 57.695 925 101 925 43.262 c S
1100 57.695 m 1150 28.828 1125 72.129 1175 43.262 c S
1100 57.695 m 1150 28.828 1100 28.828 1150 -0.039 c S
1050 144.301 m 1050 202.035 1025 158.734 1025 216.469 c S
1000 57.695 m 950 28.828 1000 28.828 950 -0.039 c S
1050 144.301 m 1050 202.035 1075 158.734 1075 216.469 c S
1000 57.695 m 950 28.828 975 72.129 925 43.262 c S
550 1241.266 m 500 1270.133 550 1270.133 500 1299 c S
550 1241.266 m 500 1270.133 525 1226.832 475 1255.699 c S
650 1241.266 m 700 1270.133 675 1226.832 725 1255.699 c S
600 1154.664 m 600 1096.926 575 1140.23 575 1082.492 c S
650 1241.266 m 700 1270.133 650 1270.133 700 1299 c S
600 1154.664 m 600 1096.926 625 1140.23 625 1082.492 c S
800 1096.926 m 850 1068.059 825 1111.359 875 1082.492 c S
800 1096.926 m 850 1068.059 800 1068.059 850 1039.191 c S
750 1183.531 m 750 1241.266 725 1197.965 725 1255.699 c S
700 1096.926 m 650 1068.059 700 1068.059 650 1039.191 c S
750 1183.531 m 750 1241.266 775 1197.965 775 1255.699 c S
700 1096.926 m 650 1068.059 675 1111.359 625 1082.492 c S
700 981.457 m 650 1010.324 700 1010.324 650 1039.191 c S
700 981.457 m 650 1010.324 675 967.023 625 995.891 c S
800 981.457 m 850 1010.324 825 967.023 875 995.891 c S
750 894.855 m 750 837.121 725 880.422 725 822.688 c S
800 981.457 m 850 1010.324 800 1010.324 850 1039.191 c S
750 894.855 m 750 837.121 775 880.422 775 822.688 c S
950 837.121 m 1000 808.254 975 851.555 1025 822.688 c S
950 837.121 m 1000 808.254 950 808.254 1000 779.383 c S
900 923.723 m 900 981.457 875 938.156 875 995.891 c S
850 837.121 m 800 808.254 850 808.254 800 779.383 c S
900 923.723 m 900 981.457 925 938.156 925 995.891 c S
850 837.121 m 800 808.254 825 851.555 775 822.688 c S
850 721.648 m 800 750.516 850 750.516 800 779.383 c S
850 721.648 m 800 750.516 825 707.215 775 736.082 c S
950 721.648 m 1000 750.516 975 707.215 1025 736.082 c S
900 635.047 m 900 577.312 875 620.613 875 562.879 c S
950 721.648 m 1000 750.516 950 750.516 1000 779.383 c S
900 635.047 m 900 577.312 925 620.613 925 562.879 c S
1100 577.312 m 1150 548.445 1125 591.746 1175 562.879 c S
1100 577.312 m 1150 548.445 1100 548.445 1150 519.578 c S
1050 663.914 m 1050 721.648 1025 678.348 1025 736.082 c S
1000 577.312 m 950 548.445 1000 548.445 950 519.578 c S
1050 663.914 m 1050 721.648 1075 678.348 1075 736.082 c S
1000 577.312 m 950 548.445 975 591.746 925 562.879 c S
1000 461.844 m 950 490.711 1000 490.711 950 519.578 c S
1000 461.844 m 950 490.711 975 447.41 925 476.277 c S
1100 461.844 m 1150 490.711 1125 447.41 1175 476.277 c S
1050 375.238 m 1050 317.504 1025 360.805 1025 303.07 c S
1100 461.844 m 1150 490.711 1100 490.711 1150 519.578 c S
1050 375.238 m 1050 317.504 1075 360.805 1075 303.07 c S
1250 317.504 m 1300 288.637 1275 331.938 1325 303.07 c S
1250 317.504 m 1300 288.637 1250 288.637 1300 259.77 c S
1200 404.105 m 1200 461.844 1175 418.539 1175 476.277 c S
1150 317.504 m 1100 288.637 1150 288.637 1100 259.77 c S
1200 404.105 m 1200 461.844 1225 418.539 1225 476.277 c S
1150 317.504 m 1100 288.637 1125 331.938 1075 303.07 c S
1150 202.035 m 1100 230.902 1150 230.902 1100 259.77 c S
1150 202.035 m 1100 230.902 1125 187.602 1075 216.469 c S
1250 202.035 m 1300 230.902 1275 187.602 1325 216.469 c S
1200 115.434 m 1200 57.695 1175 101 1175 43.262 c S
1250 202.035 m 1300 230.902 1250 230.902 1300 259.77 c S
1200 115.434 m 1200 57.695 1225 101 1225 43.262 c S
1350 144.301 m 1350 202.035 1325 158.734 1325 216.469 c S
1300 57.695 m 1250 28.828 1300 28.828 1250 -0.039 c S
1350 144.301 m 1350 202.035 1375 158.734 1375 216.469 c S
1300 57.695 m 1250 28.828 1275 72.129 1225 43.262 c S
850 1241.266 m 800 1270.133 850 1270.133 800 1299 c S
850 1241.266 m 800 1270.133 825 1226.832 775 1255.699 c S
950 1241.266 m 1000 1270.133 975 1226.832 1025 1255.699 c S
900 1154.664 m 900 1096.926 875 1140.23 875 1082.492 c S
950 1241.266 m 1000 1270.133 950 1270.133 1000 1299 c S
900 1154.664 m 900 1096.926 925 1140.23 925 1082.492 c S
1100 1096.926 m 1150 1068.059 1125 1111.359 1175 1082.492 c S
1100 1096.926 m 1150 1068.059 1100 1068.059 1150 1039.191 c S
1050 1183.531 m 1050 1241.266 1025 1197.965 1025 1255.699 c S
1000 1096.926 m 950 1068.059 1000 1068.059 950 1039.191 c S
1050 1183.531 m 1050 1241.266 1075 1197.965 1075 1255.699 c S
1000 1096.926 m 950 1068.059 975 1111.359 925 1082.492 c S
1000 981.457 m 950 1010.324 1000 1010.324 950 1039.191 c S
1000 981.457 m 950 1010.324 975 967.023 925 995.891 c S
1100 981.457 m 1150 1010.324 1125 967.023 1175 995.891 c S
1050 894.855 m 1050 837.121 1025 880.422 1025 822.688 c S
1100 981.457 m 1150 1010.324 1100 1010.324 1150 1039.191 c S
1050 894.855 m 1050 837.121 1075 880.422 1075 822.688 c S
1250 837.121 m 1300 808.254 1275 851.555 1325 822.688 c S
1250 837.121 m 1300 808.254 1250 808.254 1300 779.383 c S
1200 923.723 m 1200 981.457 1175 938.156 1175 995.891 c S
1150 837.121 m 1100 808.254 1150 808.254 1100 779.383 c S
1200 923.723 m 1200 981.457 1225 938.156 1225 995.891 c S
1150 837.121 m 1100 808.254 1125 851.555 1075 822.688 c S
1150 721.648 m 1100 750.516 1150 750.516 1100 779.383 c S
1150 721.648 m 1100 750.516 1125 707.215 1075 736.082 c S
1250 721.648 m 1300 750.516 1275 707.215 1325 736.082 c S
1200 635.047 m 1200 577.312 1175 620.613 1175 562.879 c S
1250 721.648 m 1300 750.516 1250 750.516 1300 779.383 c S
1200 635.047 m 1200 577.312 1225 620.613 1225 562.879 c S
1350 663.914 m 1350 721.648 1325 678.348 1325 736.082 c S
1300 577.312 m 1250 548.445 1300 548.445 1250 519.578 c S
1350 663.914 m 1350 721.648 1375 678.348 1375 736.082 c S
1300 577.312 m 1250 548.445 1275 591.746 1225 562.879 c S
1300 461.844 m 1250 490.711 1300 490.711 1250 519.578 c S
1300 461.844 m 1250 490.711 1275 447.41 1225 476.277 c S
1350 375.238 m 1350 317.504 1325 360.805 1325 303.07 c S
1350 375.238 m 1350 317.504 1375 360.805 1375 303.07 c S
1150 1241.266 m 1100 1270.133 1150 1270.133 1100 1299 c S
1150 1241.266 m 1100 1270.133 1125 1226.832 1075 1255.699 c S
1250 1241.266 m 1300 1270.133 1275 1226.832 1325 1255.699 c S
1200 1154.664 m 1200 1096.926 1175 1140.23 1175 1082.492 c S
1250 1241.266 m 1300 1270.133 1250 1270.133 1300 1299 c S
1200 1154.664 m 1200 1096.926 1225 1140.23 1225 1082.492 c S
1350 1183.531 m 1350 1241.266 1325 1197.965 1325 1255.699 c S
1300 1096.926 m 1250 1068.059 1300 1068.059 1250 1039.191 c S
1350 1183.531 m 1350 1241.266 1375 1197.965 1375 1255.699 c S
1300 1096.926 m 1250 1068.059 1275 1111.359 1225 1082.492 c S
1300 981.457 m 1250 1010.324 1300 1010.324 1250 1039.191 c S
1300 981.457 m 1250 1010.324 1275 967.023 1225 995.891 c S
1350 894.855 m 1350 837.121 1325 880.422 1325 822.688 c S
1350 894.855 m 1350 837.121 1375 880.422 1375 822.688 c S
Q Q
showpage
%%Trailer
%%Trailer
cleartomark
countdictstack
exch sub { end } repeat
restore
%%EOF
