%!PS-Adobe-2.0 EPSF-2.0
%%BoundingBox: 0 0 1350 1299
%%HiResBoundingBox: 0.000000 0.000000 1350.000000 1299.000000
%%Creator: cairo 1.14.2 (http://cairographics.org)
%%CreationDate: Mon Sep  7 08:22:05 2015
%%DocumentData: Clean7Bit
%%LanguageLevel: 2
%%DocumentMedia: 476x458mm 1350 1299 0 () ()
%%EndComments
% EPSF created by ps2eps 1.68
%%BeginProlog
save
countdictstack
mark
newpath
/showpage {} def
/setpagedevice {pop} def
%%EndProlog
%%Page 1 1
%%BeginProlog
/languagelevel where
{ pop languagelevel } { 1 } ifelse
2 lt { /Helvetica findfont 12 scalefont setfont 50 500 moveto
  (This print job requires a PostScript Language Level 2 printer.) show
  showpage quit } if
/q { gsave } bind def
/Q { grestore } bind def
/cm { 6 array astore concat } bind def
/w { setlinewidth } bind def
/J { setlinecap } bind def
/j { setlinejoin } bind def
/M { setmiterlimit } bind def
/d { setdash } bind def
/m { moveto } bind def
/l { lineto } bind def
/c { curveto } bind def
/h { closepath } bind def
/re { exch dup neg 3 1 roll 5 3 roll moveto 0 rlineto
      0 exch rlineto 0 rlineto closepath } bind def
/S { stroke } bind def
/f { fill } bind def
/f* { eofill } bind def
/n { newpath } bind def
/W { clip } bind def
/W* { eoclip } bind def
/BT { } bind def
/ET { } bind def
/pdfmark where { pop globaldict /?pdfmark /exec load put }
    { globaldict begin /?pdfmark /pop load def /pdfmark
    /cleartomark load def end } ifelse
/BDC { mark 3 1 roll /BDC pdfmark } bind def
/EMC { mark /EMC pdfmark } bind def
/cairo_store_point { /cairo_point_y exch def /cairo_point_x exch def } def
/Tj { show currentpoint cairo_store_point } bind def
/TJ {
  {
    dup
    type /stringtype eq
    { show } { -0.001 mul 0 cairo_font_matrix dtransform rmoveto } ifelse
  } forall
  currentpoint cairo_store_point
} bind def
/cairo_selectfont { cairo_font_matrix aload pop pop pop 0 0 6 array astore
    cairo_font exch selectfont cairo_point_x cairo_point_y moveto } bind def
/Tf { pop /cairo_font exch def /cairo_font_matrix where
      { pop cairo_selectfont } if } bind def
/Td { matrix translate cairo_font_matrix matrix concatmatrix dup
      /cairo_font_matrix exch def dup 4 get exch 5 get cairo_store_point
      /cairo_font where { pop cairo_selectfont } if } bind def
/Tm { 2 copy 8 2 roll 6 array astore /cairo_font_matrix exch def
      cairo_store_point /cairo_font where { pop cairo_selectfont } if } bind def
/g { setgray } bind def
/rg { setrgbcolor } bind def
/d1 { setcachedevice } bind def
/cairo_set_page_size {
  % Change paper size, but only if different from previous paper size otherwise
  % duplex fails. PLRM specifies a tolerance of 5 pts when matching paper size
  % so we use the same when checking if the size changes.
  /setpagedevice where {
    pop currentpagedevice
    /PageSize known {
      2 copy
      currentpagedevice /PageSize get aload pop
      exch 4 1 roll
      sub abs 5 gt
      3 1 roll
      sub abs 5 gt
      or
    } {
      true
    } ifelse
    {
      2 array astore
      2 dict begin
        /PageSize exch def
        /ImagingBBox null def
      currentdict end
      setpagedevice
    } {
      pop pop
    } ifelse
  } {
    pop
  } ifelse
} def
%%EndProlog
%%BeginSetup
%%EndSetup
%%Page: 1 1
%%BeginPageSetup
%%PageMedia: 476x458mm
%%PageBoundingBox: 0 0 1350 1299
1350 1299 cairo_set_page_size
%%EndPageSetup
q 0 0 1350 1299 rectclip q
0.984314 g
0 0 1350 1299 rectfill
0.788235 g
1.875 w
0 J
1 j
[] 0.0 d
4 M 0 1299 1350 -1299.039 re S
0 g
2.5 w
1 J
0 519.578 m -100 577.312 l -50 548.445 l -75 591.746 l S
0 519.578 m -100 577.312 l -50 548.445 l -100 548.445 l S
0 519.578 m -100 461.844 l -50 490.711 l -75 447.41 l S
0 519.578 m -100 461.844 l -50 490.711 l -100 490.711 l S
150 259.77 m 50 317.504 l 100 288.637 l 75 331.938 l S
150 259.77 m 50 317.504 l 100 288.637 l 50 288.637 l S
0 519.578 m 0 404.105 l 0 461.844 l -25 418.539 l S
0 519.578 m 0 404.105 l 0 461.844 l 25 418.539 l S
150 259.77 m 50 202.035 l 100 230.902 l 75 187.602 l S
0 -0.039 m 0 115.434 l 0 57.695 l -25 101 l S
150 259.77 m 50 202.035 l 100 230.902 l 50 230.902 l S
0 -0.039 m 0 115.434 l 0 57.695 l 25 101 l S
300 -0.039 m 200 57.695 l 250 28.828 l 225 72.129 l S
300 -0.039 m 200 57.695 l 250 28.828 l 200 28.828 l S
150 259.77 m 150 144.301 l 150 202.035 l 125 158.734 l S
0 -0.039 m 100 57.695 l 50 28.828 l 100 28.828 l S
150 259.77 m 150 144.301 l 150 202.035 l 175 158.734 l S
0 -0.039 m 100 57.695 l 50 28.828 l 75 72.129 l S
0 1039.191 m -100 1096.926 l -50 1068.059 l -75 1111.359 l S
0 1039.191 m -100 1096.926 l -50 1068.059 l -100 1068.059 l S
0 1039.191 m -100 981.457 l -50 1010.324 l -75 967.023 l S
0 1039.191 m -100 981.457 l -50 1010.324 l -100 1010.324 l S
150 779.383 m 50 837.121 l 100 808.254 l 75 851.555 l S
150 779.383 m 50 837.121 l 100 808.254 l 50 808.254 l S
0 1039.191 m 0 923.723 l 0 981.457 l -25 938.156 l S
0 1039.191 m 0 923.723 l 0 981.457 l 25 938.156 l S
150 779.383 m 50 721.648 l 100 750.516 l 75 707.215 l S
0 519.578 m 0 635.047 l 0 577.312 l -25 620.613 l S
150 779.383 m 50 721.648 l 100 750.516 l 50 750.516 l S
0 519.578 m 0 635.047 l 0 577.312 l 25 620.613 l S
300 519.578 m 200 577.312 l 250 548.445 l 225 591.746 l S
300 519.578 m 200 577.312 l 250 548.445 l 200 548.445 l S
150 779.383 m 150 663.914 l 150 721.648 l 125 678.348 l S
0 519.578 m 100 577.312 l 50 548.445 l 100 548.445 l S
150 779.383 m 150 663.914 l 150 721.648 l 175 678.348 l S
0 519.578 m 100 577.312 l 50 548.445 l 75 591.746 l S
0 519.578 m 100 461.844 l 50 490.711 l 100 490.711 l S
0 519.578 m 100 461.844 l 50 490.711 l 75 447.41 l S
300 519.578 m 200 461.844 l 250 490.711 l 225 447.41 l S
150 259.77 m 150 375.238 l 150 317.504 l 125 360.805 l S
300 519.578 m 200 461.844 l 250 490.711 l 200 490.711 l S
150 259.77 m 150 375.238 l 150 317.504 l 175 360.805 l S
450 259.77 m 350 317.504 l 400 288.637 l 375 331.938 l S
450 259.77 m 350 317.504 l 400 288.637 l 350 288.637 l S
300 519.578 m 300 404.105 l 300 461.844 l 275 418.539 l S
150 259.77 m 250 317.504 l 200 288.637 l 250 288.637 l S
300 519.578 m 300 404.105 l 300 461.844 l 325 418.539 l S
150 259.77 m 250 317.504 l 200 288.637 l 225 331.938 l S
150 259.77 m 250 202.035 l 200 230.902 l 250 230.902 l S
150 259.77 m 250 202.035 l 200 230.902 l 225 187.602 l S
450 259.77 m 350 202.035 l 400 230.902 l 375 187.602 l S
300 -0.039 m 300 115.434 l 300 57.695 l 275 101 l S
450 259.77 m 350 202.035 l 400 230.902 l 350 230.902 l S
300 -0.039 m 300 115.434 l 300 57.695 l 325 101 l S
600 -0.039 m 500 57.695 l 550 28.828 l 525 72.129 l S
600 -0.039 m 500 57.695 l 550 28.828 l 500 28.828 l S
450 259.77 m 450 144.301 l 450 202.035 l 425 158.734 l S
300 -0.039 m 400 57.695 l 350 28.828 l 400 28.828 l S
450 259.77 m 450 144.301 l 450 202.035 l 475 158.734 l S
300 -0.039 m 400 57.695 l 350 28.828 l 375 72.129 l S
150 1299 m 50 1241.266 l 100 1270.133 l 75 1226.832 l S
0 1039.191 m 0 1154.664 l 0 1096.926 l -25 1140.23 l S
150 1299 m 50 1241.266 l 100 1270.133 l 50 1270.133 l S
0 1039.191 m 0 1154.664 l 0 1096.926 l 25 1140.23 l S
300 1039.191 m 200 1096.926 l 250 1068.059 l 225 1111.359 l S
300 1039.191 m 200 1096.926 l 250 1068.059 l 200 1068.059 l S
150 1299 m 150 1183.531 l 150 1241.266 l 125 1197.965 l S
0 1039.191 m 100 1096.926 l 50 1068.059 l 100 1068.059 l S
150 1299 m 150 1183.531 l 150 1241.266 l 175 1197.965 l S
0 1039.191 m 100 1096.926 l 50 1068.059 l 75 1111.359 l S
0 1039.191 m 100 981.457 l 50 1010.324 l 100 1010.324 l S
0 1039.191 m 100 981.457 l 50 1010.324 l 75 967.023 l S
300 1039.191 m 200 981.457 l 250 1010.324 l 225 967.023 l S
150 779.383 m 150 894.855 l 150 837.121 l 125 880.422 l S
300 1039.191 m 200 981.457 l 250 1010.324 l 200 1010.324 l S
150 779.383 m 150 894.855 l 150 837.121 l 175 880.422 l S
450 779.383 m 350 837.121 l 400 808.254 l 375 851.555 l S
450 779.383 m 350 837.121 l 400 808.254 l 350 808.254 l S
300 1039.191 m 300 923.723 l 300 981.457 l 275 938.156 l S
150 779.383 m 250 837.121 l 200 808.254 l 250 808.254 l S
300 1039.191 m 300 923.723 l 300 981.457 l 325 938.156 l S
150 779.383 m 250 837.121 l 200 808.254 l 225 851.555 l S
150 779.383 m 250 721.648 l 200 750.516 l 250 750.516 l S
150 779.383 m 250 721.648 l 200 750.516 l 225 707.215 l S
450 779.383 m 350 721.648 l 400 750.516 l 375 707.215 l S
300 519.578 m 300 635.047 l 300 577.312 l 275 620.613 l S
450 779.383 m 350 721.648 l 400 750.516 l 350 750.516 l S
300 519.578 m 300 635.047 l 300 577.312 l 325 620.613 l S
600 519.578 m 500 577.312 l 550 548.445 l 525 591.746 l S
600 519.578 m 500 577.312 l 550 548.445 l 500 548.445 l S
450 779.383 m 450 663.914 l 450 721.648 l 425 678.348 l S
300 519.578 m 400 577.312 l 350 548.445 l 400 548.445 l S
450 779.383 m 450 663.914 l 450 721.648 l 475 678.348 l S
300 519.578 m 400 577.312 l 350 548.445 l 375 591.746 l S
300 519.578 m 400 461.844 l 350 490.711 l 400 490.711 l S
300 519.578 m 400 461.844 l 350 490.711 l 375 447.41 l S
600 519.578 m 500 461.844 l 550 490.711 l 525 447.41 l S
450 259.77 m 450 375.238 l 450 317.504 l 425 360.805 l S
600 519.578 m 500 461.844 l 550 490.711 l 500 490.711 l S
450 259.77 m 450 375.238 l 450 317.504 l 475 360.805 l S
750 259.77 m 650 317.504 l 700 288.637 l 675 331.938 l S
750 259.77 m 650 317.504 l 700 288.637 l 650 288.637 l S
600 519.578 m 600 404.105 l 600 461.844 l 575 418.539 l S
450 259.77 m 550 317.504 l 500 288.637 l 550 288.637 l S
600 519.578 m 600 404.105 l 600 461.844 l 625 418.539 l S
450 259.77 m 550 317.504 l 500 288.637 l 525 331.938 l S
450 259.77 m 550 202.035 l 500 230.902 l 550 230.902 l S
450 259.77 m 550 202.035 l 500 230.902 l 525 187.602 l S
750 259.77 m 650 202.035 l 700 230.902 l 675 187.602 l S
600 -0.039 m 600 115.434 l 600 57.695 l 575 101 l S
750 259.77 m 650 202.035 l 700 230.902 l 650 230.902 l S
600 -0.039 m 600 115.434 l 600 57.695 l 625 101 l S
900 -0.039 m 800 57.695 l 850 28.828 l 825 72.129 l S
900 -0.039 m 800 57.695 l 850 28.828 l 800 28.828 l S
750 259.77 m 750 144.301 l 750 202.035 l 725 158.734 l S
600 -0.039 m 700 57.695 l 650 28.828 l 700 28.828 l S
750 259.77 m 750 144.301 l 750 202.035 l 775 158.734 l S
600 -0.039 m 700 57.695 l 650 28.828 l 675 72.129 l S
150 1299 m 250 1241.266 l 200 1270.133 l 250 1270.133 l S
150 1299 m 250 1241.266 l 200 1270.133 l 225 1226.832 l S
450 1299 m 350 1241.266 l 400 1270.133 l 375 1226.832 l S
300 1039.191 m 300 1154.664 l 300 1096.926 l 275 1140.23 l S
450 1299 m 350 1241.266 l 400 1270.133 l 350 1270.133 l S
300 1039.191 m 300 1154.664 l 300 1096.926 l 325 1140.23 l S
600 1039.191 m 500 1096.926 l 550 1068.059 l 525 1111.359 l S
600 1039.191 m 500 1096.926 l 550 1068.059 l 500 1068.059 l S
450 1299 m 450 1183.531 l 450 1241.266 l 425 1197.965 l S
300 1039.191 m 400 1096.926 l 350 1068.059 l 400 1068.059 l S
450 1299 m 450 1183.531 l 450 1241.266 l 475 1197.965 l S
300 1039.191 m 400 1096.926 l 350 1068.059 l 375 1111.359 l S
300 1039.191 m 400 981.457 l 350 1010.324 l 400 1010.324 l S
300 1039.191 m 400 981.457 l 350 1010.324 l 375 967.023 l S
600 1039.191 m 500 981.457 l 550 1010.324 l 525 967.023 l S
450 779.383 m 450 894.855 l 450 837.121 l 425 880.422 l S
600 1039.191 m 500 981.457 l 550 1010.324 l 500 1010.324 l S
450 779.383 m 450 894.855 l 450 837.121 l 475 880.422 l S
750 779.383 m 650 837.121 l 700 808.254 l 675 851.555 l S
750 779.383 m 650 837.121 l 700 808.254 l 650 808.254 l S
600 1039.191 m 600 923.723 l 600 981.457 l 575 938.156 l S
450 779.383 m 550 837.121 l 500 808.254 l 550 808.254 l S
600 1039.191 m 600 923.723 l 600 981.457 l 625 938.156 l S
450 779.383 m 550 837.121 l 500 808.254 l 525 851.555 l S
450 779.383 m 550 721.648 l 500 750.516 l 550 750.516 l S
450 779.383 m 550 721.648 l 500 750.516 l 525 707.215 l S
750 779.383 m 650 721.648 l 700 750.516 l 675 707.215 l S
600 519.578 m 600 635.047 l 600 577.312 l 575 620.613 l S
750 779.383 m 650 721.648 l 700 750.516 l 650 750.516 l S
600 519.578 m 600 635.047 l 600 577.312 l 625 620.613 l S
900 519.578 m 800 577.312 l 850 548.445 l 825 591.746 l S
900 519.578 m 800 577.312 l 850 548.445 l 800 548.445 l S
750 779.383 m 750 663.914 l 750 721.648 l 725 678.348 l S
600 519.578 m 700 577.312 l 650 548.445 l 700 548.445 l S
750 779.383 m 750 663.914 l 750 721.648 l 775 678.348 l S
600 519.578 m 700 577.312 l 650 548.445 l 675 591.746 l S
600 519.578 m 700 461.844 l 650 490.711 l 700 490.711 l S
600 519.578 m 700 461.844 l 650 490.711 l 675 447.41 l S
900 519.578 m 800 461.844 l 850 490.711 l 825 447.41 l S
750 259.77 m 750 375.238 l 750 317.504 l 725 360.805 l S
900 519.578 m 800 461.844 l 850 490.711 l 800 490.711 l S
750 259.77 m 750 375.238 l 750 317.504 l 775 360.805 l S
1050 259.77 m 950 317.504 l 1000 288.637 l 975 331.938 l S
1050 259.77 m 950 317.504 l 1000 288.637 l 950 288.637 l S
900 519.578 m 900 404.105 l 900 461.844 l 875 418.539 l S
750 259.77 m 850 317.504 l 800 288.637 l 850 288.637 l S
900 519.578 m 900 404.105 l 900 461.844 l 925 418.539 l S
750 259.77 m 850 317.504 l 800 288.637 l 825 331.938 l S
750 259.77 m 850 202.035 l 800 230.902 l 850 230.902 l S
750 259.77 m 850 202.035 l 800 230.902 l 825 187.602 l S
1050 259.77 m 950 202.035 l 1000 230.902 l 975 187.602 l S
900 -0.039 m 900 115.434 l 900 57.695 l 875 101 l S
1050 259.77 m 950 202.035 l 1000 230.902 l 950 230.902 l S
900 -0.039 m 900 115.434 l 900 57.695 l 925 101 l S
1200 -0.039 m 1100 57.695 l 1150 28.828 l 1125 72.129 l S
1200 -0.039 m 1100 57.695 l 1150 28.828 l 1100 28.828 l S
1050 259.77 m 1050 144.301 l 1050 202.035 l 1025 158.734 l S
900 -0.039 m 1000 57.695 l 950 28.828 l 1000 28.828 l S
1050 259.77 m 1050 144.301 l 1050 202.035 l 1075 158.734 l S
900 -0.039 m 1000 57.695 l 950 28.828 l 975 72.129 l S
450 1299 m 550 1241.266 l 500 1270.133 l 550 1270.133 l S
450 1299 m 550 1241.266 l 500 1270.133 l 525 1226.832 l S
750 1299 m 650 1241.266 l 700 1270.133 l 675 1226.832 l S
600 1039.191 m 600 1154.664 l 600 1096.926 l 575 1140.23 l S
750 1299 m 650 1241.266 l 700 1270.133 l 650 1270.133 l S
600 1039.191 m 600 1154.664 l 600 1096.926 l 625 1140.23 l S
900 1039.191 m 800 1096.926 l 850 1068.059 l 825 1111.359 l S
900 1039.191 m 800 1096.926 l 850 1068.059 l 800 1068.059 l S
750 1299 m 750 1183.531 l 750 1241.266 l 725 1197.965 l S
600 1039.191 m 700 1096.926 l 650 1068.059 l 700 1068.059 l S
750 1299 m 750 1183.531 l 750 1241.266 l 775 1197.965 l S
600 1039.191 m 700 1096.926 l 650 1068.059 l 675 1111.359 l S
600 1039.191 m 700 981.457 l 650 1010.324 l 700 1010.324 l S
600 1039.191 m 700 981.457 l 650 1010.324 l 675 967.023 l S
900 1039.191 m 800 981.457 l 850 1010.324 l 825 967.023 l S
750 779.383 m 750 894.855 l 750 837.121 l 725 880.422 l S
900 1039.191 m 800 981.457 l 850 1010.324 l 800 1010.324 l S
750 779.383 m 750 894.855 l 750 837.121 l 775 880.422 l S
1050 779.383 m 950 837.121 l 1000 808.254 l 975 851.555 l S
1050 779.383 m 950 837.121 l 1000 808.254 l 950 808.254 l S
900 1039.191 m 900 923.723 l 900 981.457 l 875 938.156 l S
750 779.383 m 850 837.121 l 800 808.254 l 850 808.254 l S
900 1039.191 m 900 923.723 l 900 981.457 l 925 938.156 l S
750 779.383 m 850 837.121 l 800 808.254 l 825 851.555 l S
750 779.383 m 850 721.648 l 800 750.516 l 850 750.516 l S
750 779.383 m 850 721.648 l 800 750.516 l 825 707.215 l S
1050 779.383 m 950 721.648 l 1000 750.516 l 975 707.215 l S
900 519.578 m 900 635.047 l 900 577.312 l 875 620.613 l S
1050 779.383 m 950 721.648 l 1000 750.516 l 950 750.516 l S
900 519.578 m 900 635.047 l 900 577.312 l 925 620.613 l S
1200 519.578 m 1100 577.312 l 1150 548.445 l 1125 591.746 l S
1200 519.578 m 1100 577.312 l 1150 548.445 l 1100 548.445 l S
1050 779.383 m 1050 663.914 l 1050 721.648 l 1025 678.348 l S
900 519.578 m 1000 577.312 l 950 548.445 l 1000 548.445 l S
1050 779.383 m 1050 663.914 l 1050 721.648 l 1075 678.348 l S
900 519.578 m 1000 577.312 l 950 548.445 l 975 591.746 l S
900 519.578 m 1000 461.844 l 950 490.711 l 1000 490.711 l S
900 519.578 m 1000 461.844 l 950 490.711 l 975 447.41 l S
1200 519.578 m 1100 461.844 l 1150 490.711 l 1125 447.41 l S
1050 259.77 m 1050 375.238 l 1050 317.504 l 1025 360.805 l S
1200 519.578 m 1100 461.844 l 1150 490.711 l 1100 490.711 l S
1050 259.77 m 1050 375.238 l 1050 317.504 l 1075 360.805 l S
1350 259.77 m 1250 317.504 l 1300 288.637 l 1275 331.938 l S
1350 259.77 m 1250 317.504 l 1300 288.637 l 1250 288.637 l S
1200 519.578 m 1200 404.105 l 1200 461.844 l 1175 418.539 l S
1050 259.77 m 1150 317.504 l 1100 288.637 l 1150 288.637 l S
1200 519.578 m 1200 404.105 l 1200 461.844 l 1225 418.539 l S
1050 259.77 m 1150 317.504 l 1100 288.637 l 1125 331.938 l S
1050 259.77 m 1150 202.035 l 1100 230.902 l 1150 230.902 l S
1050 259.77 m 1150 202.035 l 1100 230.902 l 1125 187.602 l S
1350 259.77 m 1250 202.035 l 1300 230.902 l 1275 187.602 l S
1200 -0.039 m 1200 115.434 l 1200 57.695 l 1175 101 l S
1350 259.77 m 1250 202.035 l 1300 230.902 l 1250 230.902 l S
1200 -0.039 m 1200 115.434 l 1200 57.695 l 1225 101 l S
1350 259.77 m 1350 144.301 l 1350 202.035 l 1325 158.734 l S
1200 -0.039 m 1300 57.695 l 1250 28.828 l 1300 28.828 l S
1350 259.77 m 1350 144.301 l 1350 202.035 l 1375 158.734 l S
1200 -0.039 m 1300 57.695 l 1250 28.828 l 1275 72.129 l S
750 1299 m 850 1241.266 l 800 1270.133 l 850 1270.133 l S
750 1299 m 850 1241.266 l 800 1270.133 l 825 1226.832 l S
1050 1299 m 950 1241.266 l 1000 1270.133 l 975 1226.832 l S
900 1039.191 m 900 1154.664 l 900 1096.926 l 875 1140.23 l S
1050 1299 m 950 1241.266 l 1000 1270.133 l 950 1270.133 l S
900 1039.191 m 900 1154.664 l 900 1096.926 l 925 1140.23 l S
1200 1039.191 m 1100 1096.926 l 1150 1068.059 l 1125 1111.359 l S
1200 1039.191 m 1100 1096.926 l 1150 1068.059 l 1100 1068.059 l S
1050 1299 m 1050 1183.531 l 1050 1241.266 l 1025 1197.965 l S
900 1039.191 m 1000 1096.926 l 950 1068.059 l 1000 1068.059 l S
1050 1299 m 1050 1183.531 l 1050 1241.266 l 1075 1197.965 l S
900 1039.191 m 1000 1096.926 l 950 1068.059 l 975 1111.359 l S
900 1039.191 m 1000 981.457 l 950 1010.324 l 1000 1010.324 l S
900 1039.191 m 1000 981.457 l 950 1010.324 l 975 967.023 l S
1200 1039.191 m 1100 981.457 l 1150 1010.324 l 1125 967.023 l S
1050 779.383 m 1050 894.855 l 1050 837.121 l 1025 880.422 l S
1200 1039.191 m 1100 981.457 l 1150 1010.324 l 1100 1010.324 l S
1050 779.383 m 1050 894.855 l 1050 837.121 l 1075 880.422 l S
1350 779.383 m 1250 837.121 l 1300 808.254 l 1275 851.555 l S
1350 779.383 m 1250 837.121 l 1300 808.254 l 1250 808.254 l S
1200 1039.191 m 1200 923.723 l 1200 981.457 l 1175 938.156 l S
1050 779.383 m 1150 837.121 l 1100 808.254 l 1150 808.254 l S
1200 1039.191 m 1200 923.723 l 1200 981.457 l 1225 938.156 l S
1050 779.383 m 1150 837.121 l 1100 808.254 l 1125 851.555 l S
1050 779.383 m 1150 721.648 l 1100 750.516 l 1150 750.516 l S
1050 779.383 m 1150 721.648 l 1100 750.516 l 1125 707.215 l S
1350 779.383 m 1250 721.648 l 1300 750.516 l 1275 707.215 l S
1200 519.578 m 1200 635.047 l 1200 577.312 l 1175 620.613 l S
1350 779.383 m 1250 721.648 l 1300 750.516 l 1250 750.516 l S
1200 519.578 m 1200 635.047 l 1200 577.312 l 1225 620.613 l S
1350 779.383 m 1350 663.914 l 1350 721.648 l 1325 678.348 l S
1200 519.578 m 1300 577.312 l 1250 548.445 l 1300 548.445 l S
1350 779.383 m 1350 663.914 l 1350 721.648 l 1375 678.348 l S
1200 519.578 m 1300 577.312 l 1250 548.445 l 1275 591.746 l S
1200 519.578 m 1300 461.844 l 1250 490.711 l 1300 490.711 l S
1200 519.578 m 1300 461.844 l 1250 490.711 l 1275 447.41 l S
1350 259.77 m 1350 375.238 l 1350 317.504 l 1325 360.805 l S
1350 259.77 m 1350 375.238 l 1350 317.504 l 1375 360.805 l S
1350 259.77 m 1450 317.504 l 1400 288.637 l 1450 288.637 l S
1350 259.77 m 1450 317.504 l 1400 288.637 l 1425 331.938 l S
1350 259.77 m 1450 202.035 l 1400 230.902 l 1450 230.902 l S
1350 259.77 m 1450 202.035 l 1400 230.902 l 1425 187.602 l S
1050 1299 m 1150 1241.266 l 1100 1270.133 l 1150 1270.133 l S
1050 1299 m 1150 1241.266 l 1100 1270.133 l 1125 1226.832 l S
1350 1299 m 1250 1241.266 l 1300 1270.133 l 1275 1226.832 l S
1200 1039.191 m 1200 1154.664 l 1200 1096.926 l 1175 1140.23 l S
1350 1299 m 1250 1241.266 l 1300 1270.133 l 1250 1270.133 l S
1200 1039.191 m 1200 1154.664 l 1200 1096.926 l 1225 1140.23 l S
1350 1299 m 1350 1183.531 l 1350 1241.266 l 1325 1197.965 l S
1200 1039.191 m 1300 1096.926 l 1250 1068.059 l 1300 1068.059 l S
1350 1299 m 1350 1183.531 l 1350 1241.266 l 1375 1197.965 l S
1200 1039.191 m 1300 1096.926 l 1250 1068.059 l 1275 1111.359 l S
1200 1039.191 m 1300 981.457 l 1250 1010.324 l 1300 1010.324 l S
1200 1039.191 m 1300 981.457 l 1250 1010.324 l 1275 967.023 l S
1350 779.383 m 1350 894.855 l 1350 837.121 l 1325 880.422 l S
1350 779.383 m 1350 894.855 l 1350 837.121 l 1375 880.422 l S
1350 779.383 m 1450 837.121 l 1400 808.254 l 1450 808.254 l S
1350 779.383 m 1450 837.121 l 1400 808.254 l 1425 851.555 l S
1350 779.383 m 1450 721.648 l 1400 750.516 l 1450 750.516 l S
1350 779.383 m 1450 721.648 l 1400 750.516 l 1425 707.215 l S
Q Q
showpage
%%Trailer
%%Trailer
cleartomark
countdictstack
exch sub { end } repeat
restore
%%EOF
