%!PS-Adobe-2.0 EPSF-2.0
%%BoundingBox: 0 0 1350 1299
%%HiResBoundingBox: 0.000000 0.000000 1350.000000 1299.000000
%%Creator: cairo 1.14.2 (http://cairographics.org)
%%CreationDate: Mon Sep  7 08:22:05 2015
%%DocumentData: Clean7Bit
%%LanguageLevel: 2
%%DocumentMedia: 476x458mm 1350 1299 0 () ()
%%EndComments
% EPSF created by ps2eps 1.68
%%BeginProlog
save
countdictstack
mark
newpath
/showpage {} def
/setpagedevice {pop} def
%%EndProlog
%%Page 1 1
%%BeginProlog
/languagelevel where
{ pop languagelevel } { 1 } ifelse
2 lt { /Helvetica findfont 12 scalefont setfont 50 500 moveto
  (This print job requires a PostScript Language Level 2 printer.) show
  showpage quit } if
/q { gsave } bind def
/Q { grestore } bind def
/cm { 6 array astore concat } bind def
/w { setlinewidth } bind def
/J { setlinecap } bind def
/j { setlinejoin } bind def
/M { setmiterlimit } bind def
/d { setdash } bind def
/m { moveto } bind def
/l { lineto } bind def
/c { curveto } bind def
/h { closepath } bind def
/re { exch dup neg 3 1 roll 5 3 roll moveto 0 rlineto
      0 exch rlineto 0 rlineto closepath } bind def
/S { stroke } bind def
/f { fill } bind def
/f* { eofill } bind def
/n { newpath } bind def
/W { clip } bind def
/W* { eoclip } bind def
/BT { } bind def
/ET { } bind def
/pdfmark where { pop globaldict /?pdfmark /exec load put }
    { globaldict begin /?pdfmark /pop load def /pdfmark
    /cleartomark load def end } ifelse
/BDC { mark 3 1 roll /BDC pdfmark } bind def
/EMC { mark /EMC pdfmark } bind def
/cairo_store_point { /cairo_point_y exch def /cairo_point_x exch def } def
/Tj { show currentpoint cairo_store_point } bind def
/TJ {
  {
    dup
    type /stringtype eq
    { show } { -0.001 mul 0 cairo_font_matrix dtransform rmoveto } ifelse
  } forall
  currentpoint cairo_store_point
} bind def
/cairo_selectfont { cairo_font_matrix aload pop pop pop 0 0 6 array astore
    cairo_font exch selectfont cairo_point_x cairo_point_y moveto } bind def
/Tf { pop /cairo_font exch def /cairo_font_matrix where
      { pop cairo_selectfont } if } bind def
/Td { matrix translate cairo_font_matrix matrix concatmatrix dup
      /cairo_font_matrix exch def dup 4 get exch 5 get cairo_store_point
      /cairo_font where { pop cairo_selectfont } if } bind def
/Tm { 2 copy 8 2 roll 6 array astore /cairo_font_matrix exch def
      cairo_store_point /cairo_font where { pop cairo_selectfont } if } bind def
/g { setgray } bind def
/rg { setrgbcolor } bind def
/d1 { setcachedevice } bind def
/cairo_set_page_size {
  % Change paper size, but only if different from previous paper size otherwise
  % duplex fails. PLRM specifies a tolerance of 5 pts when matching paper size
  % so we use the same when checking if the size changes.
  /setpagedevice where {
    pop currentpagedevice
    /PageSize known {
      2 copy
      currentpagedevice /PageSize get aload pop
      exch 4 1 roll
      sub abs 5 gt
      3 1 roll
      sub abs 5 gt
      or
    } {
      true
    } ifelse
    {
      2 array astore
      2 dict begin
        /PageSize exch def
        /ImagingBBox null def
      currentdict end
      setpagedevice
    } {
      pop pop
    } ifelse
  } {
    pop
  } ifelse
} def
%%EndProlog
%%BeginSetup
%%EndSetup
%%Page: 1 1
%%BeginPageSetup
%%PageMedia: 476x458mm
%%PageBoundingBox: 0 0 1350 1299
1350 1299 cairo_set_page_size
%%EndPageSetup
q 0 0 1350 1299 rectclip q
0.984314 g
0 0 1350 1299 rectfill
0.788235 g
1.875 w
0 J
1 j
[] 0.0 d
4 M 0 1299 1350 -1299.039 re S
0 g
2.5 w
1 J
0 519.578 m -100 577.312 l -25 562.879 l S
0 519.578 m -100 577.312 l -50 519.578 l S
0 519.578 m -100 461.844 l -25 476.277 l S
0 519.578 m -100 461.844 l -50 519.578 l S
150 259.77 m 50 317.504 l 125 303.07 l S
150 259.77 m 50 317.504 l 100 259.77 l S
0 519.578 m 0 404.105 l -25 476.277 l S
0 519.578 m 0 404.105 l 25 476.277 l S
150 259.77 m 50 202.035 l 125 216.469 l S
0 -0.039 m 0 115.434 l -25 43.262 l S
150 259.77 m 50 202.035 l 100 259.77 l S
0 -0.039 m 0 115.434 l 25 43.262 l S
300 -0.039 m 200 57.695 l 275 43.262 l S
300 -0.039 m 200 57.695 l 250 -0.039 l S
150 259.77 m 150 144.301 l 125 216.469 l S
0 -0.039 m 100 57.695 l 50 -0.039 l S
150 259.77 m 150 144.301 l 175 216.469 l S
0 -0.039 m 100 57.695 l 25 43.262 l S
0 1039.191 m -100 1096.926 l -25 1082.492 l S
0 1039.191 m -100 1096.926 l -50 1039.191 l S
0 1039.191 m -100 981.457 l -25 995.891 l S
0 1039.191 m -100 981.457 l -50 1039.191 l S
150 779.383 m 50 837.121 l 125 822.688 l S
150 779.383 m 50 837.121 l 100 779.383 l S
0 1039.191 m 0 923.723 l -25 995.891 l S
0 1039.191 m 0 923.723 l 25 995.891 l S
150 779.383 m 50 721.648 l 125 736.082 l S
0 519.578 m 0 635.047 l -25 562.879 l S
150 779.383 m 50 721.648 l 100 779.383 l S
0 519.578 m 0 635.047 l 25 562.879 l S
300 519.578 m 200 577.312 l 275 562.879 l S
300 519.578 m 200 577.312 l 250 519.578 l S
150 779.383 m 150 663.914 l 125 736.082 l S
0 519.578 m 100 577.312 l 50 519.578 l S
150 779.383 m 150 663.914 l 175 736.082 l S
0 519.578 m 100 577.312 l 25 562.879 l S
0 519.578 m 100 461.844 l 50 519.578 l S
0 519.578 m 100 461.844 l 25 476.277 l S
300 519.578 m 200 461.844 l 275 476.277 l S
150 259.77 m 150 375.238 l 125 303.07 l S
300 519.578 m 200 461.844 l 250 519.578 l S
150 259.77 m 150 375.238 l 175 303.07 l S
450 259.77 m 350 317.504 l 425 303.07 l S
450 259.77 m 350 317.504 l 400 259.77 l S
300 519.578 m 300 404.105 l 275 476.277 l S
150 259.77 m 250 317.504 l 200 259.77 l S
300 519.578 m 300 404.105 l 325 476.277 l S
150 259.77 m 250 317.504 l 175 303.07 l S
150 259.77 m 250 202.035 l 200 259.77 l S
150 259.77 m 250 202.035 l 175 216.469 l S
450 259.77 m 350 202.035 l 425 216.469 l S
300 -0.039 m 300 115.434 l 275 43.262 l S
450 259.77 m 350 202.035 l 400 259.77 l S
300 -0.039 m 300 115.434 l 325 43.262 l S
600 -0.039 m 500 57.695 l 575 43.262 l S
600 -0.039 m 500 57.695 l 550 -0.039 l S
450 259.77 m 450 144.301 l 425 216.469 l S
300 -0.039 m 400 57.695 l 350 -0.039 l S
450 259.77 m 450 144.301 l 475 216.469 l S
300 -0.039 m 400 57.695 l 325 43.262 l S
150 1299 m 50 1241.266 l 125 1255.699 l S
0 1039.191 m 0 1154.664 l -25 1082.492 l S
150 1299 m 50 1241.266 l 100 1299 l S
0 1039.191 m 0 1154.664 l 25 1082.492 l S
300 1039.191 m 200 1096.926 l 275 1082.492 l S
300 1039.191 m 200 1096.926 l 250 1039.191 l S
150 1299 m 150 1183.531 l 125 1255.699 l S
0 1039.191 m 100 1096.926 l 50 1039.191 l S
150 1299 m 150 1183.531 l 175 1255.699 l S
0 1039.191 m 100 1096.926 l 25 1082.492 l S
0 1039.191 m 100 981.457 l 50 1039.191 l S
0 1039.191 m 100 981.457 l 25 995.891 l S
300 1039.191 m 200 981.457 l 275 995.891 l S
150 779.383 m 150 894.855 l 125 822.688 l S
300 1039.191 m 200 981.457 l 250 1039.191 l S
150 779.383 m 150 894.855 l 175 822.688 l S
450 779.383 m 350 837.121 l 425 822.688 l S
450 779.383 m 350 837.121 l 400 779.383 l S
300 1039.191 m 300 923.723 l 275 995.891 l S
150 779.383 m 250 837.121 l 200 779.383 l S
300 1039.191 m 300 923.723 l 325 995.891 l S
150 779.383 m 250 837.121 l 175 822.688 l S
150 779.383 m 250 721.648 l 200 779.383 l S
150 779.383 m 250 721.648 l 175 736.082 l S
450 779.383 m 350 721.648 l 425 736.082 l S
300 519.578 m 300 635.047 l 275 562.879 l S
450 779.383 m 350 721.648 l 400 779.383 l S
300 519.578 m 300 635.047 l 325 562.879 l S
600 519.578 m 500 577.312 l 575 562.879 l S
600 519.578 m 500 577.312 l 550 519.578 l S
450 779.383 m 450 663.914 l 425 736.082 l S
300 519.578 m 400 577.312 l 350 519.578 l S
450 779.383 m 450 663.914 l 475 736.082 l S
300 519.578 m 400 577.312 l 325 562.879 l S
300 519.578 m 400 461.844 l 350 519.578 l S
300 519.578 m 400 461.844 l 325 476.277 l S
600 519.578 m 500 461.844 l 575 476.277 l S
450 259.77 m 450 375.238 l 425 303.07 l S
600 519.578 m 500 461.844 l 550 519.578 l S
450 259.77 m 450 375.238 l 475 303.07 l S
750 259.77 m 650 317.504 l 725 303.07 l S
750 259.77 m 650 317.504 l 700 259.77 l S
600 519.578 m 600 404.105 l 575 476.277 l S
450 259.77 m 550 317.504 l 500 259.77 l S
600 519.578 m 600 404.105 l 625 476.277 l S
450 259.77 m 550 317.504 l 475 303.07 l S
450 259.77 m 550 202.035 l 500 259.77 l S
450 259.77 m 550 202.035 l 475 216.469 l S
750 259.77 m 650 202.035 l 725 216.469 l S
600 -0.039 m 600 115.434 l 575 43.262 l S
750 259.77 m 650 202.035 l 700 259.77 l S
600 -0.039 m 600 115.434 l 625 43.262 l S
900 -0.039 m 800 57.695 l 875 43.262 l S
900 -0.039 m 800 57.695 l 850 -0.039 l S
750 259.77 m 750 144.301 l 725 216.469 l S
600 -0.039 m 700 57.695 l 650 -0.039 l S
750 259.77 m 750 144.301 l 775 216.469 l S
600 -0.039 m 700 57.695 l 625 43.262 l S
150 1299 m 250 1241.266 l 200 1299 l S
150 1299 m 250 1241.266 l 175 1255.699 l S
450 1299 m 350 1241.266 l 425 1255.699 l S
300 1039.191 m 300 1154.664 l 275 1082.492 l S
450 1299 m 350 1241.266 l 400 1299 l S
300 1039.191 m 300 1154.664 l 325 1082.492 l S
600 1039.191 m 500 1096.926 l 575 1082.492 l S
600 1039.191 m 500 1096.926 l 550 1039.191 l S
450 1299 m 450 1183.531 l 425 1255.699 l S
300 1039.191 m 400 1096.926 l 350 1039.191 l S
450 1299 m 450 1183.531 l 475 1255.699 l S
300 1039.191 m 400 1096.926 l 325 1082.492 l S
300 1039.191 m 400 981.457 l 350 1039.191 l S
300 1039.191 m 400 981.457 l 325 995.891 l S
600 1039.191 m 500 981.457 l 575 995.891 l S
450 779.383 m 450 894.855 l 425 822.688 l S
600 1039.191 m 500 981.457 l 550 1039.191 l S
450 779.383 m 450 894.855 l 475 822.688 l S
750 779.383 m 650 837.121 l 725 822.688 l S
750 779.383 m 650 837.121 l 700 779.383 l S
600 1039.191 m 600 923.723 l 575 995.891 l S
450 779.383 m 550 837.121 l 500 779.383 l S
600 1039.191 m 600 923.723 l 625 995.891 l S
450 779.383 m 550 837.121 l 475 822.688 l S
450 779.383 m 550 721.648 l 500 779.383 l S
450 779.383 m 550 721.648 l 475 736.082 l S
750 779.383 m 650 721.648 l 725 736.082 l S
600 519.578 m 600 635.047 l 575 562.879 l S
750 779.383 m 650 721.648 l 700 779.383 l S
600 519.578 m 600 635.047 l 625 562.879 l S
900 519.578 m 800 577.312 l 875 562.879 l S
900 519.578 m 800 577.312 l 850 519.578 l S
750 779.383 m 750 663.914 l 725 736.082 l S
600 519.578 m 700 577.312 l 650 519.578 l S
750 779.383 m 750 663.914 l 775 736.082 l S
600 519.578 m 700 577.312 l 625 562.879 l S
600 519.578 m 700 461.844 l 650 519.578 l S
600 519.578 m 700 461.844 l 625 476.277 l S
900 519.578 m 800 461.844 l 875 476.277 l S
750 259.77 m 750 375.238 l 725 303.07 l S
900 519.578 m 800 461.844 l 850 519.578 l S
750 259.77 m 750 375.238 l 775 303.07 l S
1050 259.77 m 950 317.504 l 1025 303.07 l S
1050 259.77 m 950 317.504 l 1000 259.77 l S
900 519.578 m 900 404.105 l 875 476.277 l S
750 259.77 m 850 317.504 l 800 259.77 l S
900 519.578 m 900 404.105 l 925 476.277 l S
750 259.77 m 850 317.504 l 775 303.07 l S
750 259.77 m 850 202.035 l 800 259.77 l S
750 259.77 m 850 202.035 l 775 216.469 l S
1050 259.77 m 950 202.035 l 1025 216.469 l S
900 -0.039 m 900 115.434 l 875 43.262 l S
1050 259.77 m 950 202.035 l 1000 259.77 l S
900 -0.039 m 900 115.434 l 925 43.262 l S
1200 -0.039 m 1100 57.695 l 1175 43.262 l S
1200 -0.039 m 1100 57.695 l 1150 -0.039 l S
1050 259.77 m 1050 144.301 l 1025 216.469 l S
900 -0.039 m 1000 57.695 l 950 -0.039 l S
1050 259.77 m 1050 144.301 l 1075 216.469 l S
900 -0.039 m 1000 57.695 l 925 43.262 l S
450 1299 m 550 1241.266 l 500 1299 l S
450 1299 m 550 1241.266 l 475 1255.699 l S
750 1299 m 650 1241.266 l 725 1255.699 l S
600 1039.191 m 600 1154.664 l 575 1082.492 l S
750 1299 m 650 1241.266 l 700 1299 l S
600 1039.191 m 600 1154.664 l 625 1082.492 l S
900 1039.191 m 800 1096.926 l 875 1082.492 l S
900 1039.191 m 800 1096.926 l 850 1039.191 l S
750 1299 m 750 1183.531 l 725 1255.699 l S
600 1039.191 m 700 1096.926 l 650 1039.191 l S
750 1299 m 750 1183.531 l 775 1255.699 l S
600 1039.191 m 700 1096.926 l 625 1082.492 l S
600 1039.191 m 700 981.457 l 650 1039.191 l S
600 1039.191 m 700 981.457 l 625 995.891 l S
900 1039.191 m 800 981.457 l 875 995.891 l S
750 779.383 m 750 894.855 l 725 822.688 l S
900 1039.191 m 800 981.457 l 850 1039.191 l S
750 779.383 m 750 894.855 l 775 822.688 l S
1050 779.383 m 950 837.121 l 1025 822.688 l S
1050 779.383 m 950 837.121 l 1000 779.383 l S
900 1039.191 m 900 923.723 l 875 995.891 l S
750 779.383 m 850 837.121 l 800 779.383 l S
900 1039.191 m 900 923.723 l 925 995.891 l S
750 779.383 m 850 837.121 l 775 822.688 l S
750 779.383 m 850 721.648 l 800 779.383 l S
750 779.383 m 850 721.648 l 775 736.082 l S
1050 779.383 m 950 721.648 l 1025 736.082 l S
900 519.578 m 900 635.047 l 875 562.879 l S
1050 779.383 m 950 721.648 l 1000 779.383 l S
900 519.578 m 900 635.047 l 925 562.879 l S
1200 519.578 m 1100 577.312 l 1175 562.879 l S
1200 519.578 m 1100 577.312 l 1150 519.578 l S
1050 779.383 m 1050 663.914 l 1025 736.082 l S
900 519.578 m 1000 577.312 l 950 519.578 l S
1050 779.383 m 1050 663.914 l 1075 736.082 l S
900 519.578 m 1000 577.312 l 925 562.879 l S
900 519.578 m 1000 461.844 l 950 519.578 l S
900 519.578 m 1000 461.844 l 925 476.277 l S
1200 519.578 m 1100 461.844 l 1175 476.277 l S
1050 259.77 m 1050 375.238 l 1025 303.07 l S
1200 519.578 m 1100 461.844 l 1150 519.578 l S
1050 259.77 m 1050 375.238 l 1075 303.07 l S
1350 259.77 m 1250 317.504 l 1325 303.07 l S
1350 259.77 m 1250 317.504 l 1300 259.77 l S
1200 519.578 m 1200 404.105 l 1175 476.277 l S
1050 259.77 m 1150 317.504 l 1100 259.77 l S
1200 519.578 m 1200 404.105 l 1225 476.277 l S
1050 259.77 m 1150 317.504 l 1075 303.07 l S
1050 259.77 m 1150 202.035 l 1100 259.77 l S
1050 259.77 m 1150 202.035 l 1075 216.469 l S
1350 259.77 m 1250 202.035 l 1325 216.469 l S
1200 -0.039 m 1200 115.434 l 1175 43.262 l S
1350 259.77 m 1250 202.035 l 1300 259.77 l S
1200 -0.039 m 1200 115.434 l 1225 43.262 l S
1350 259.77 m 1350 144.301 l 1325 216.469 l S
1200 -0.039 m 1300 57.695 l 1250 -0.039 l S
1350 259.77 m 1350 144.301 l 1375 216.469 l S
1200 -0.039 m 1300 57.695 l 1225 43.262 l S
750 1299 m 850 1241.266 l 800 1299 l S
750 1299 m 850 1241.266 l 775 1255.699 l S
1050 1299 m 950 1241.266 l 1025 1255.699 l S
900 1039.191 m 900 1154.664 l 875 1082.492 l S
1050 1299 m 950 1241.266 l 1000 1299 l S
900 1039.191 m 900 1154.664 l 925 1082.492 l S
1200 1039.191 m 1100 1096.926 l 1175 1082.492 l S
1200 1039.191 m 1100 1096.926 l 1150 1039.191 l S
1050 1299 m 1050 1183.531 l 1025 1255.699 l S
900 1039.191 m 1000 1096.926 l 950 1039.191 l S
1050 1299 m 1050 1183.531 l 1075 1255.699 l S
900 1039.191 m 1000 1096.926 l 925 1082.492 l S
900 1039.191 m 1000 981.457 l 950 1039.191 l S
900 1039.191 m 1000 981.457 l 925 995.891 l S
1200 1039.191 m 1100 981.457 l 1175 995.891 l S
1050 779.383 m 1050 894.855 l 1025 822.688 l S
1200 1039.191 m 1100 981.457 l 1150 1039.191 l S
1050 779.383 m 1050 894.855 l 1075 822.688 l S
1350 779.383 m 1250 837.121 l 1325 822.688 l S
1350 779.383 m 1250 837.121 l 1300 779.383 l S
1200 1039.191 m 1200 923.723 l 1175 995.891 l S
1050 779.383 m 1150 837.121 l 1100 779.383 l S
1200 1039.191 m 1200 923.723 l 1225 995.891 l S
1050 779.383 m 1150 837.121 l 1075 822.688 l S
1050 779.383 m 1150 721.648 l 1100 779.383 l S
1050 779.383 m 1150 721.648 l 1075 736.082 l S
1350 779.383 m 1250 721.648 l 1325 736.082 l S
1200 519.578 m 1200 635.047 l 1175 562.879 l S
1350 779.383 m 1250 721.648 l 1300 779.383 l S
1200 519.578 m 1200 635.047 l 1225 562.879 l S
1350 779.383 m 1350 663.914 l 1325 736.082 l S
1200 519.578 m 1300 577.312 l 1250 519.578 l S
1350 779.383 m 1350 663.914 l 1375 736.082 l S
1200 519.578 m 1300 577.312 l 1225 562.879 l S
1200 519.578 m 1300 461.844 l 1250 519.578 l S
1200 519.578 m 1300 461.844 l 1225 476.277 l S
1350 259.77 m 1350 375.238 l 1325 303.07 l S
1350 259.77 m 1350 375.238 l 1375 303.07 l S
1350 259.77 m 1450 317.504 l 1400 259.77 l S
1350 259.77 m 1450 317.504 l 1375 303.07 l S
1350 259.77 m 1450 202.035 l 1400 259.77 l S
1350 259.77 m 1450 202.035 l 1375 216.469 l S
1050 1299 m 1150 1241.266 l 1100 1299 l S
1050 1299 m 1150 1241.266 l 1075 1255.699 l S
1350 1299 m 1250 1241.266 l 1325 1255.699 l S
1200 1039.191 m 1200 1154.664 l 1175 1082.492 l S
1350 1299 m 1250 1241.266 l 1300 1299 l S
1200 1039.191 m 1200 1154.664 l 1225 1082.492 l S
1350 1299 m 1350 1183.531 l 1325 1255.699 l S
1200 1039.191 m 1300 1096.926 l 1250 1039.191 l S
1350 1299 m 1350 1183.531 l 1375 1255.699 l S
1200 1039.191 m 1300 1096.926 l 1225 1082.492 l S
1200 1039.191 m 1300 981.457 l 1250 1039.191 l S
1200 1039.191 m 1300 981.457 l 1225 995.891 l S
1350 779.383 m 1350 894.855 l 1325 822.688 l S
1350 779.383 m 1350 894.855 l 1375 822.688 l S
1350 779.383 m 1450 837.121 l 1400 779.383 l S
1350 779.383 m 1450 837.121 l 1375 822.688 l S
1350 779.383 m 1450 721.648 l 1400 779.383 l S
1350 779.383 m 1450 721.648 l 1375 736.082 l S
Q Q
showpage
%%Trailer
%%Trailer
cleartomark
countdictstack
exch sub { end } repeat
restore
%%EOF
