%!PS-Adobe-2.0 EPSF-2.0
%%BoundingBox: 0 0 2800 1500
%%HiResBoundingBox: 0.000000 0.000000 2800.000000 1500.000000
%%Creator: cairo 1.14.2 (http://cairographics.org)
%%CreationDate: Mon Sep  7 08:22:06 2015
%%DocumentData: Clean7Bit
%%LanguageLevel: 2
%%DocumentMedia: 988x529mm 2800 1500 0 () ()
%%EndComments
% EPSF created by ps2eps 1.68
%%BeginProlog
save
countdictstack
mark
newpath
/showpage {} def
/setpagedevice {pop} def
%%EndProlog
%%Page 1 1
%%BeginProlog
/languagelevel where
{ pop languagelevel } { 1 } ifelse
2 lt { /Helvetica findfont 12 scalefont setfont 50 500 moveto
  (This print job requires a PostScript Language Level 2 printer.) show
  showpage quit } if
/q { gsave } bind def
/Q { grestore } bind def
/cm { 6 array astore concat } bind def
/w { setlinewidth } bind def
/J { setlinecap } bind def
/j { setlinejoin } bind def
/M { setmiterlimit } bind def
/d { setdash } bind def
/m { moveto } bind def
/l { lineto } bind def
/c { curveto } bind def
/h { closepath } bind def
/re { exch dup neg 3 1 roll 5 3 roll moveto 0 rlineto
      0 exch rlineto 0 rlineto closepath } bind def
/S { stroke } bind def
/f { fill } bind def
/f* { eofill } bind def
/n { newpath } bind def
/W { clip } bind def
/W* { eoclip } bind def
/BT { } bind def
/ET { } bind def
/pdfmark where { pop globaldict /?pdfmark /exec load put }
    { globaldict begin /?pdfmark /pop load def /pdfmark
    /cleartomark load def end } ifelse
/BDC { mark 3 1 roll /BDC pdfmark } bind def
/EMC { mark /EMC pdfmark } bind def
/cairo_store_point { /cairo_point_y exch def /cairo_point_x exch def } def
/Tj { show currentpoint cairo_store_point } bind def
/TJ {
  {
    dup
    type /stringtype eq
    { show } { -0.001 mul 0 cairo_font_matrix dtransform rmoveto } ifelse
  } forall
  currentpoint cairo_store_point
} bind def
/cairo_selectfont { cairo_font_matrix aload pop pop pop 0 0 6 array astore
    cairo_font exch selectfont cairo_point_x cairo_point_y moveto } bind def
/Tf { pop /cairo_font exch def /cairo_font_matrix where
      { pop cairo_selectfont } if } bind def
/Td { matrix translate cairo_font_matrix matrix concatmatrix dup
      /cairo_font_matrix exch def dup 4 get exch 5 get cairo_store_point
      /cairo_font where { pop cairo_selectfont } if } bind def
/Tm { 2 copy 8 2 roll 6 array astore /cairo_font_matrix exch def
      cairo_store_point /cairo_font where { pop cairo_selectfont } if } bind def
/g { setgray } bind def
/rg { setrgbcolor } bind def
/d1 { setcachedevice } bind def
/cairo_set_page_size {
  % Change paper size, but only if different from previous paper size otherwise
  % duplex fails. PLRM specifies a tolerance of 5 pts when matching paper size
  % so we use the same when checking if the size changes.
  /setpagedevice where {
    pop currentpagedevice
    /PageSize known {
      2 copy
      currentpagedevice /PageSize get aload pop
      exch 4 1 roll
      sub abs 5 gt
      3 1 roll
      sub abs 5 gt
      or
    } {
      true
    } ifelse
    {
      2 array astore
      2 dict begin
        /PageSize exch def
        /ImagingBBox null def
      currentdict end
      setpagedevice
    } {
      pop pop
    } ifelse
  } {
    pop
  } ifelse
} def
%%EndProlog
%%BeginSetup
%%EndSetup
%%Page: 1 1
%%BeginPageSetup
%%PageMedia: 988x529mm
%%PageBoundingBox: 0 0 2800 1500
2800 1500 cairo_set_page_size
%%EndPageSetup
q 0 0 2800 1500 rectclip q
0.984314 g
0 0 2800 1500 rectfill
0.788235 g
1.875 w
0 J
1 j
[] 0.0 d
4 M 0 1500 2800 -1500 re S
0 g
2.5 w
1 J
0 1350 m 100 1500 100 1425 200 1350 c S
200 1500 m 300 1350 300 1425 400 1500 c S
200 1200 m 100 1350 100 1275 0 1200 c S
400 1350 m 300 1200 300 1275 200 1350 c S
0 1050 m 100 1200 100 1125 200 1050 c S
200 1200 m 300 1050 300 1125 400 1200 c S
200 900 m 100 1050 100 975 0 900 c S
400 1050 m 300 900 300 975 200 1050 c S
0 750 m 100 900 100 825 200 750 c S
200 900 m 300 750 300 825 400 900 c S
200 600 m 100 750 100 675 0 600 c S
400 750 m 300 600 300 675 200 750 c S
0 450 m 100 600 100 525 200 450 c S
200 600 m 300 450 300 525 400 600 c S
200 300 m 100 450 100 375 0 300 c S
400 450 m 300 300 300 375 200 450 c S
0 150 m 100 300 100 225 200 150 c S
200 300 m 300 150 300 225 400 300 c S
200 0 m 100 150 100 75 0 0 c S
400 150 m 300 0 300 75 200 150 c S
400 1350 m 500 1500 500 1425 600 1350 c S
600 1500 m 700 1350 700 1425 800 1500 c S
600 1200 m 500 1350 500 1275 400 1200 c S
800 1350 m 700 1200 700 1275 600 1350 c S
400 1050 m 500 1200 500 1125 600 1050 c S
600 1200 m 700 1050 700 1125 800 1200 c S
600 900 m 500 1050 500 975 400 900 c S
800 1050 m 700 900 700 975 600 1050 c S
400 750 m 500 900 500 825 600 750 c S
600 900 m 700 750 700 825 800 900 c S
600 600 m 500 750 500 675 400 600 c S
800 750 m 700 600 700 675 600 750 c S
400 450 m 500 600 500 525 600 450 c S
600 600 m 700 450 700 525 800 600 c S
600 300 m 500 450 500 375 400 300 c S
800 450 m 700 300 700 375 600 450 c S
400 150 m 500 300 500 225 600 150 c S
600 300 m 700 150 700 225 800 300 c S
600 0 m 500 150 500 75 400 0 c S
800 150 m 700 0 700 75 600 150 c S
800 1350 m 900 1500 900 1425 1000 1350 c S
1000 1500 m 1100 1350 1100 1425 1200 1500 c S
1000 1200 m 900 1350 900 1275 800 1200 c S
1200 1350 m 1100 1200 1100 1275 1000 1350 c S
800 1050 m 900 1200 900 1125 1000 1050 c S
1000 1200 m 1100 1050 1100 1125 1200 1200 c S
1000 900 m 900 1050 900 975 800 900 c S
1200 1050 m 1100 900 1100 975 1000 1050 c S
800 750 m 900 900 900 825 1000 750 c S
1000 900 m 1100 750 1100 825 1200 900 c S
1000 600 m 900 750 900 675 800 600 c S
1200 750 m 1100 600 1100 675 1000 750 c S
800 450 m 900 600 900 525 1000 450 c S
1000 600 m 1100 450 1100 525 1200 600 c S
1000 300 m 900 450 900 375 800 300 c S
1200 450 m 1100 300 1100 375 1000 450 c S
800 150 m 900 300 900 225 1000 150 c S
1000 300 m 1100 150 1100 225 1200 300 c S
1000 0 m 900 150 900 75 800 0 c S
1200 150 m 1100 0 1100 75 1000 150 c S
1200 1350 m 1300 1500 1300 1425 1400 1350 c S
1400 1500 m 1500 1350 1500 1425 1600 1500 c S
1400 1200 m 1300 1350 1300 1275 1200 1200 c S
1600 1350 m 1500 1200 1500 1275 1400 1350 c S
1200 1050 m 1300 1200 1300 1125 1400 1050 c S
1400 1200 m 1500 1050 1500 1125 1600 1200 c S
1400 900 m 1300 1050 1300 975 1200 900 c S
1600 1050 m 1500 900 1500 975 1400 1050 c S
1200 750 m 1300 900 1300 825 1400 750 c S
1400 900 m 1500 750 1500 825 1600 900 c S
1400 600 m 1300 750 1300 675 1200 600 c S
1600 750 m 1500 600 1500 675 1400 750 c S
1200 450 m 1300 600 1300 525 1400 450 c S
1400 600 m 1500 450 1500 525 1600 600 c S
1400 300 m 1300 450 1300 375 1200 300 c S
1600 450 m 1500 300 1500 375 1400 450 c S
1200 150 m 1300 300 1300 225 1400 150 c S
1400 300 m 1500 150 1500 225 1600 300 c S
1400 0 m 1300 150 1300 75 1200 0 c S
1600 150 m 1500 0 1500 75 1400 150 c S
1600 1350 m 1700 1500 1700 1425 1800 1350 c S
1800 1500 m 1900 1350 1900 1425 2000 1500 c S
1800 1200 m 1700 1350 1700 1275 1600 1200 c S
2000 1350 m 1900 1200 1900 1275 1800 1350 c S
1600 1050 m 1700 1200 1700 1125 1800 1050 c S
1800 1200 m 1900 1050 1900 1125 2000 1200 c S
1800 900 m 1700 1050 1700 975 1600 900 c S
2000 1050 m 1900 900 1900 975 1800 1050 c S
1600 750 m 1700 900 1700 825 1800 750 c S
1800 900 m 1900 750 1900 825 2000 900 c S
1800 600 m 1700 750 1700 675 1600 600 c S
2000 750 m 1900 600 1900 675 1800 750 c S
1600 450 m 1700 600 1700 525 1800 450 c S
1800 600 m 1900 450 1900 525 2000 600 c S
1800 300 m 1700 450 1700 375 1600 300 c S
2000 450 m 1900 300 1900 375 1800 450 c S
1600 150 m 1700 300 1700 225 1800 150 c S
1800 300 m 1900 150 1900 225 2000 300 c S
1800 0 m 1700 150 1700 75 1600 0 c S
2000 150 m 1900 0 1900 75 1800 150 c S
2000 1350 m 2100 1500 2100 1425 2200 1350 c S
2200 1500 m 2300 1350 2300 1425 2400 1500 c S
2200 1200 m 2100 1350 2100 1275 2000 1200 c S
2400 1350 m 2300 1200 2300 1275 2200 1350 c S
2000 1050 m 2100 1200 2100 1125 2200 1050 c S
2200 1200 m 2300 1050 2300 1125 2400 1200 c S
2200 900 m 2100 1050 2100 975 2000 900 c S
2400 1050 m 2300 900 2300 975 2200 1050 c S
2000 750 m 2100 900 2100 825 2200 750 c S
2200 900 m 2300 750 2300 825 2400 900 c S
2200 600 m 2100 750 2100 675 2000 600 c S
2400 750 m 2300 600 2300 675 2200 750 c S
2000 450 m 2100 600 2100 525 2200 450 c S
2200 600 m 2300 450 2300 525 2400 600 c S
2200 300 m 2100 450 2100 375 2000 300 c S
2400 450 m 2300 300 2300 375 2200 450 c S
2000 150 m 2100 300 2100 225 2200 150 c S
2200 300 m 2300 150 2300 225 2400 300 c S
2200 0 m 2100 150 2100 75 2000 0 c S
2400 150 m 2300 0 2300 75 2200 150 c S
2400 1350 m 2500 1500 2500 1425 2600 1350 c S
2600 1500 m 2700 1350 2700 1425 2800 1500 c S
2600 1200 m 2500 1350 2500 1275 2400 1200 c S
2800 1350 m 2700 1200 2700 1275 2600 1350 c S
2400 1050 m 2500 1200 2500 1125 2600 1050 c S
2600 1200 m 2700 1050 2700 1125 2800 1200 c S
2600 900 m 2500 1050 2500 975 2400 900 c S
2800 1050 m 2700 900 2700 975 2600 1050 c S
2400 750 m 2500 900 2500 825 2600 750 c S
2600 900 m 2700 750 2700 825 2800 900 c S
2600 600 m 2500 750 2500 675 2400 600 c S
2800 750 m 2700 600 2700 675 2600 750 c S
2400 450 m 2500 600 2500 525 2600 450 c S
2600 600 m 2700 450 2700 525 2800 600 c S
2600 300 m 2500 450 2500 375 2400 300 c S
2800 450 m 2700 300 2700 375 2600 450 c S
2400 150 m 2500 300 2500 225 2600 150 c S
2600 300 m 2700 150 2700 225 2800 300 c S
2600 0 m 2500 150 2500 75 2400 0 c S
2800 150 m 2700 0 2700 75 2600 150 c S
Q Q
showpage
%%Trailer
%%Trailer
cleartomark
countdictstack
exch sub { end } repeat
restore
%%EOF
