<svg xmlns="http://www.w3.org/2000/svg" baseProfile="full" width="2800" height="1500" viewBox="-100.0 -75.0 2800.0 1500.0">
    <title>
        Pattern design from http://ornamentist.org
    </title>
    <desc>
        This file is licensed under a Creative Commons CC BY 4.0 license: http://creativecommons.org/licenses/by/4.0/
    </desc>
    <defs>
        <style>
<![CDATA[
        
polyline {
  fill:            none;
  stroke:          black;
  stroke-linecap:  round;
  stroke-linejoin: round;
  stroke-width:    2.0pt;
}


polyline.closed {
  fill:      #d9d9d9;
  fill-rule: evenodd;
}


polygon {
  fill:            #d9d9d9;
  fill-rule:       evenodd;
  stroke:          black;
  stroke-linejoin: round;
  stroke-width:    2.0pt;
}


circle {
  fill:         #d9d9d9;
  stroke:       black;
  stroke-width: 2.0pt;
}


ellipse {
  fill:         #d9d9d9;
  stroke:       black;
  stroke-width: 2.0pt;
}


path {
  fill:            none;
  stroke:          black;
  stroke-linecap:  round;
  stroke-linejoin: round;
  stroke-width:    2.0pt;
}


path.closed {
  fill:      #d9d9d9;
  fill-rule: evenodd;
}


polygon.background,
path.background
{
  fill:   #fbfbfb;
  stroke: #c9c9c9;
  stroke-width: 1.5pt;
}

        ]]>
        </style>
    </defs>
    <clipPath id="design">
        <path d="M-100-75h2800v1500H-100z"/>
    </clipPath>
    <g clip-path="url(#design)" color-rendering="optimizeQuality" shape-rendering="geometricPrecision" id="graphics">
        <path class="background closed" d="M2700-75v1500H-100V-75z"/>
        <path d="M0-75c100 0-100 0-100 150M200 75c100 0-100 0-100-150M0 75c-100 0 100 0 100 150M200 225c-100 0 100 0 100-150M0 225c100 0-100 0-100 150M200 375c100 0-100 0-100-150M0 375c-100 0 100 0 100 150M200 525c-100 0 100 0 100-150M0 525c100 0-100 0-100 150M200 675c100 0-100 0-100-150M0 675c-100 0 100 0 100 150M200 825c-100 0 100 0 100-150M0 825c100 0-100 0-100 150M200 975c100 0-100 0-100-150M0 975c-100 0 100 0 100 150M200 1125c-100 0 100 0 100-150M0 1125c100 0-100 0-100 150M200 1275c100 0-100 0-100-150M0 1275c-100 0 100 0 100 150M200 1425c-100 0 100 0 100-150M400-75c100 0-100 0-100 150M600 75c100 0-100 0-100-150M400 75c-100 0 100 0 100 150M600 225c-100 0 100 0 100-150M400 225c100 0-100 0-100 150M600 375c100 0-100 0-100-150M400 375c-100 0 100 0 100 150M600 525c-100 0 100 0 100-150M400 525c100 0-100 0-100 150M600 675c100 0-100 0-100-150M400 675c-100 0 100 0 100 150M600 825c-100 0 100 0 100-150M400 825c100 0-100 0-100 150M600 975c100 0-100 0-100-150M400 975c-100 0 100 0 100 150M600 1125c-100 0 100 0 100-150M400 1125c100 0-100 0-100 150M600 1275c100 0-100 0-100-150M400 1275c-100 0 100 0 100 150M600 1425c-100 0 100 0 100-150M800-75c100 0-100 0-100 150M1000 75c100 0-100 0-100-150M800 75c-100 0 100 0 100 150M1000 225c-100 0 100 0 100-150M800 225c100 0-100 0-100 150M1000 375c100 0-100 0-100-150M800 375c-100 0 100 0 100 150M1000 525c-100 0 100 0 100-150M800 525c100 0-100 0-100 150M1000 675c100 0-100 0-100-150M800 675c-100 0 100 0 100 150M1000 825c-100 0 100 0 100-150M800 825c100 0-100 0-100 150M1000 975c100 0-100 0-100-150M800 975c-100 0 100 0 100 150M1000 1125c-100 0 100 0 100-150M800 1125c100 0-100 0-100 150M1000 1275c100 0-100 0-100-150M800 1275c-100 0 100 0 100 150M1000 1425c-100 0 100 0 100-150M1200-75c100 0-100 0-100 150M1400 75c100 0-100 0-100-150M1200 75c-100 0 100 0 100 150M1400 225c-100 0 100 0 100-150M1200 225c100 0-100 0-100 150M1400 375c100 0-100 0-100-150M1200 375c-100 0 100 0 100 150M1400 525c-100 0 100 0 100-150M1200 525c100 0-100 0-100 150M1400 675c100 0-100 0-100-150M1200 675c-100 0 100 0 100 150M1400 825c-100 0 100 0 100-150M1200 825c100 0-100 0-100 150M1400 975c100 0-100 0-100-150M1200 975c-100 0 100 0 100 150M1400 1125c-100 0 100 0 100-150M1200 1125c100 0-100 0-100 150M1400 1275c100 0-100 0-100-150M1200 1275c-100 0 100 0 100 150M1400 1425c-100 0 100 0 100-150M1600-75c100 0-100 0-100 150M1800 75c100 0-100 0-100-150M1600 75c-100 0 100 0 100 150M1800 225c-100 0 100 0 100-150M1600 225c100 0-100 0-100 150M1800 375c100 0-100 0-100-150M1600 375c-100 0 100 0 100 150M1800 525c-100 0 100 0 100-150M1600 525c100 0-100 0-100 150M1800 675c100 0-100 0-100-150M1600 675c-100 0 100 0 100 150M1800 825c-100 0 100 0 100-150M1600 825c100 0-100 0-100 150M1800 975c100 0-100 0-100-150M1600 975c-100 0 100 0 100 150M1800 1125c-100 0 100 0 100-150M1600 1125c100 0-100 0-100 150M1800 1275c100 0-100 0-100-150M1600 1275c-100 0 100 0 100 150M1800 1425c-100 0 100 0 100-150M2000-75c100 0-100 0-100 150M2200 75c100 0-100 0-100-150M2000 75c-100 0 100 0 100 150M2200 225c-100 0 100 0 100-150M2000 225c100 0-100 0-100 150M2200 375c100 0-100 0-100-150M2000 375c-100 0 100 0 100 150M2200 525c-100 0 100 0 100-150M2000 525c100 0-100 0-100 150M2200 675c100 0-100 0-100-150M2000 675c-100 0 100 0 100 150M2200 825c-100 0 100 0 100-150M2000 825c100 0-100 0-100 150M2200 975c100 0-100 0-100-150M2000 975c-100 0 100 0 100 150M2200 1125c-100 0 100 0 100-150M2000 1125c100 0-100 0-100 150M2200 1275c100 0-100 0-100-150M2000 1275c-100 0 100 0 100 150M2200 1425c-100 0 100 0 100-150M2400-75c100 0-100 0-100 150M2600 75c100 0-100 0-100-150M2400 75c-100 0 100 0 100 150M2600 225c-100 0 100 0 100-150M2400 225c100 0-100 0-100 150M2600 375c100 0-100 0-100-150M2400 375c-100 0 100 0 100 150M2600 525c-100 0 100 0 100-150M2400 525c100 0-100 0-100 150M2600 675c100 0-100 0-100-150M2400 675c-100 0 100 0 100 150M2600 825c-100 0 100 0 100-150M2400 825c100 0-100 0-100 150M2600 975c100 0-100 0-100-150M2400 975c-100 0 100 0 100 150M2600 1125c-100 0 100 0 100-150M2400 1125c100 0-100 0-100 150M2600 1275c100 0-100 0-100-150M2400 1275c-100 0 100 0 100 150M2600 1425c-100 0 100 0 100-150" class="bezier-3-1 open"/>
    </g>
</svg>
