<svg xmlns="http://www.w3.org/2000/svg" baseProfile="full" width="2100" height="1400" viewBox="-175.0 -175.0 2100.0 1400.0">
    <title>
        Pattern design from http://ornamentist.org
    </title>
    <desc>
        This file is licensed under a Creative Commons CC BY 4.0 license: http://creativecommons.org/licenses/by/4.0/
    </desc>
    <defs>
        <style>
<![CDATA[
        
polyline {
  fill:            none;
  stroke:          black;
  stroke-linecap:  round;
  stroke-linejoin: round;
  stroke-width:    2.0pt;
}


polyline.closed {
  fill:      #d9d9d9;
  fill-rule: evenodd;
}


polygon {
  fill:            #d9d9d9;
  fill-rule:       evenodd;
  stroke:          black;
  stroke-linejoin: round;
  stroke-width:    2.0pt;
}


circle {
  fill:         #d9d9d9;
  stroke:       black;
  stroke-width: 2.0pt;
}


ellipse {
  fill:         #d9d9d9;
  stroke:       black;
  stroke-width: 2.0pt;
}


path {
  fill:            none;
  stroke:          black;
  stroke-linecap:  round;
  stroke-linejoin: round;
  stroke-width:    2.0pt;
}


path.closed {
  fill:      #d9d9d9;
  fill-rule: evenodd;
}


polygon.background,
path.background
{
  fill:   #fbfbfb;
  stroke: #c9c9c9;
  stroke-width: 1.5pt;
}

        ]]>
        </style>
    </defs>
    <clipPath id="design">
        <path d="M-175-175h2100v1400H-175z"/>
    </clipPath>
    <g clip-path="url(#design)" color-rendering="optimizeQuality" shape-rendering="geometricPrecision" id="graphics">
        <path class="background closed" d="M1925-175v1400H-175V-175z"/>
        <path d="M-175 0c87.5-87.5 0-87.5 0-175M0-175c87.5 87.5 87.5 0 175 0M175 0c-87.5 87.5 0 87.5 0 175M0 175c-87.5-87.5-87.5 0-175 0M-175 0C-87.5-87.5-87.5 0 0 0M0 175C-87.5 87.5 0 87.5 0 0M0-175C87.5-87.5 0-87.5 0 0M175 0C87.5 87.5 87.5 0 0 0M-175 350c87.5-87.5 0-87.5 0-175M0 175c87.5 87.5 87.5 0 175 0M175 350c-87.5 87.5 0 87.5 0 175M0 525c-87.5-87.5-87.5 0-175 0M-175 350c87.5-87.5 87.5 0 175 0M0 525c-87.5-87.5 0-87.5 0-175M0 175c87.5 87.5 0 87.5 0 175M175 350c-87.5 87.5-87.5 0-175 0M-175 700c87.5-87.5 0-87.5 0-175M0 525c87.5 87.5 87.5 0 175 0M175 700c-87.5 87.5 0 87.5 0 175M0 875c-87.5-87.5-87.5 0-175 0M-175 700c87.5-87.5 87.5 0 175 0M0 875c-87.5-87.5 0-87.5 0-175M0 525c87.5 87.5 0 87.5 0 175M175 700c-87.5 87.5-87.5 0-175 0M-175 1050c87.5-87.5 0-87.5 0-175M0 875c87.5 87.5 87.5 0 175 0M175 1050c-87.5 87.5 0 87.5 0 175M0 1225c-87.5-87.5-87.5 0-175 0M-175 1050c87.5-87.5 87.5 0 175 0M0 1225c-87.5-87.5 0-87.5 0-175M0 875c87.5 87.5 0 87.5 0 175M175 1050c-87.5 87.5-87.5 0-175 0M175 0c87.5-87.5 0-87.5 0-175M350-175c87.5 87.5 87.5 0 175 0M525 0c-87.5 87.5 0 87.5 0 175M350 175c-87.5-87.5-87.5 0-175 0M175 0c87.5-87.5 87.5 0 175 0M350 175c-87.5-87.5 0-87.5 0-175M350-175c87.5 87.5 0 87.5 0 175M525 0c-87.5 87.5-87.5 0-175 0M175 350c87.5-87.5 0-87.5 0-175M350 175c87.5 87.5 87.5 0 175 0M525 350c-87.5 87.5 0 87.5 0 175M350 525c-87.5-87.5-87.5 0-175 0M175 350c87.5-87.5 87.5 0 175 0M350 525c-87.5-87.5 0-87.5 0-175M350 175c87.5 87.5 0 87.5 0 175M525 350c-87.5 87.5-87.5 0-175 0M175 700c87.5-87.5 0-87.5 0-175M350 525c87.5 87.5 87.5 0 175 0M525 700c-87.5 87.5 0 87.5 0 175M350 875c-87.5-87.5-87.5 0-175 0M175 700c87.5-87.5 87.5 0 175 0M350 875c-87.5-87.5 0-87.5 0-175M350 525c87.5 87.5 0 87.5 0 175M525 700c-87.5 87.5-87.5 0-175 0M175 1050c87.5-87.5 0-87.5 0-175M350 875c87.5 87.5 87.5 0 175 0M525 1050c-87.5 87.5 0 87.5 0 175M350 1225c-87.5-87.5-87.5 0-175 0M175 1050c87.5-87.5 87.5 0 175 0M350 1225c-87.5-87.5 0-87.5 0-175M350 875c87.5 87.5 0 87.5 0 175M525 1050c-87.5 87.5-87.5 0-175 0M525 0c87.5-87.5 0-87.5 0-175M700-175c87.5 87.5 87.5 0 175 0M875 0c-87.5 87.5 0 87.5 0 175M700 175c-87.5-87.5-87.5 0-175 0M525 0c87.5-87.5 87.5 0 175 0M700 175c-87.5-87.5 0-87.5 0-175M700-175c87.5 87.5 0 87.5 0 175M875 0c-87.5 87.5-87.5 0-175 0M525 350c87.5-87.5 0-87.5 0-175M700 175c87.5 87.5 87.5 0 175 0M875 350c-87.5 87.5 0 87.5 0 175M700 525c-87.5-87.5-87.5 0-175 0M525 350c87.5-87.5 87.5 0 175 0M700 525c-87.5-87.5 0-87.5 0-175M700 175c87.5 87.5 0 87.5 0 175M875 350c-87.5 87.5-87.5 0-175 0M525 700c87.5-87.5 0-87.5 0-175M700 525c87.5 87.5 87.5 0 175 0M875 700c-87.5 87.5 0 87.5 0 175M700 875c-87.5-87.5-87.5 0-175 0M525 700c87.5-87.5 87.5 0 175 0M700 875c-87.5-87.5 0-87.5 0-175M700 525c87.5 87.5 0 87.5 0 175M875 700c-87.5 87.5-87.5 0-175 0M525 1050c87.5-87.5 0-87.5 0-175M700 875c87.5 87.5 87.5 0 175 0M875 1050c-87.5 87.5 0 87.5 0 175M700 1225c-87.5-87.5-87.5 0-175 0M525 1050c87.5-87.5 87.5 0 175 0M700 1225c-87.5-87.5 0-87.5 0-175M700 875c87.5 87.5 0 87.5 0 175M875 1050c-87.5 87.5-87.5 0-175 0M875 0c87.5-87.5 0-87.5 0-175M1050-175c87.5 87.5 87.5 0 175 0M1225 0c-87.5 87.5 0 87.5 0 175M1050 175c-87.5-87.5-87.5 0-175 0M875 0c87.5-87.5 87.5 0 175 0M1050 175c-87.5-87.5 0-87.5 0-175M1050-175c87.5 87.5 0 87.5 0 175M1225 0c-87.5 87.5-87.5 0-175 0M875 350c87.5-87.5 0-87.5 0-175M1050 175c87.5 87.5 87.5 0 175 0M1225 350c-87.5 87.5 0 87.5 0 175M1050 525c-87.5-87.5-87.5 0-175 0M875 350c87.5-87.5 87.5 0 175 0M1050 525c-87.5-87.5 0-87.5 0-175M1050 175c87.5 87.5 0 87.5 0 175M1225 350c-87.5 87.5-87.5 0-175 0M875 700c87.5-87.5 0-87.5 0-175M1050 525c87.5 87.5 87.5 0 175 0M1225 700c-87.5 87.5 0 87.5 0 175M1050 875c-87.5-87.5-87.5 0-175 0M875 700c87.5-87.5 87.5 0 175 0M1050 875c-87.5-87.5 0-87.5 0-175M1050 525c87.5 87.5 0 87.5 0 175M1225 700c-87.5 87.5-87.5 0-175 0M875 1050c87.5-87.5 0-87.5 0-175M1050 875c87.5 87.5 87.5 0 175 0M1225 1050c-87.5 87.5 0 87.5 0 175M1050 1225c-87.5-87.5-87.5 0-175 0M875 1050c87.5-87.5 87.5 0 175 0M1050 1225c-87.5-87.5 0-87.5 0-175M1050 875c87.5 87.5 0 87.5 0 175M1225 1050c-87.5 87.5-87.5 0-175 0M1225 0c87.5-87.5 0-87.5 0-175M1400-175c87.5 87.5 87.5 0 175 0M1575 0c-87.5 87.5 0 87.5 0 175M1400 175c-87.5-87.5-87.5 0-175 0M1225 0c87.5-87.5 87.5 0 175 0M1400 175c-87.5-87.5 0-87.5 0-175M1400-175c87.5 87.5 0 87.5 0 175M1575 0c-87.5 87.5-87.5 0-175 0M1225 350c87.5-87.5 0-87.5 0-175M1400 175c87.5 87.5 87.5 0 175 0M1575 350c-87.5 87.5 0 87.5 0 175M1400 525c-87.5-87.5-87.5 0-175 0M1225 350c87.5-87.5 87.5 0 175 0M1400 525c-87.5-87.5 0-87.5 0-175M1400 175c87.5 87.5 0 87.5 0 175M1575 350c-87.5 87.5-87.5 0-175 0M1225 700c87.5-87.5 0-87.5 0-175M1400 525c87.5 87.5 87.5 0 175 0M1575 700c-87.5 87.5 0 87.5 0 175M1400 875c-87.5-87.5-87.5 0-175 0M1225 700c87.5-87.5 87.5 0 175 0M1400 875c-87.5-87.5 0-87.5 0-175M1400 525c87.5 87.5 0 87.5 0 175M1575 700c-87.5 87.5-87.5 0-175 0M1225 1050c87.5-87.5 0-87.5 0-175M1400 875c87.5 87.5 87.5 0 175 0M1575 1050c-87.5 87.5 0 87.5 0 175M1400 1225c-87.5-87.5-87.5 0-175 0M1225 1050c87.5-87.5 87.5 0 175 0M1400 1225c-87.5-87.5 0-87.5 0-175M1400 875c87.5 87.5 0 87.5 0 175M1575 1050c-87.5 87.5-87.5 0-175 0M1575 0c87.5-87.5 0-87.5 0-175M1750-175c87.5 87.5 87.5 0 175 0M1925 0c-87.5 87.5 0 87.5 0 175M1750 175c-87.5-87.5-87.5 0-175 0M1575 0c87.5-87.5 87.5 0 175 0M1750 175c-87.5-87.5 0-87.5 0-175M1750-175c87.5 87.5 0 87.5 0 175M1925 0c-87.5 87.5-87.5 0-175 0M1575 350c87.5-87.5 0-87.5 0-175M1750 175c87.5 87.5 87.5 0 175 0M1925 350c-87.5 87.5 0 87.5 0 175M1750 525c-87.5-87.5-87.5 0-175 0M1575 350c87.5-87.5 87.5 0 175 0M1750 525c-87.5-87.5 0-87.5 0-175M1750 175c87.5 87.5 0 87.5 0 175M1925 350c-87.5 87.5-87.5 0-175 0M1575 700c87.5-87.5 0-87.5 0-175M1750 525c87.5 87.5 87.5 0 175 0M1925 700c-87.5 87.5 0 87.5 0 175M1750 875c-87.5-87.5-87.5 0-175 0M1575 700c87.5-87.5 87.5 0 175 0M1750 875c-87.5-87.5 0-87.5 0-175M1750 525c87.5 87.5 0 87.5 0 175M1925 700c-87.5 87.5-87.5 0-175 0M1575 1050c87.5-87.5 0-87.5 0-175M1750 875c87.5 87.5 87.5 0 175 0M1925 1050c-87.5 87.5 0 87.5 0 175M1750 1225c-87.5-87.5-87.5 0-175 0M1575 1050c87.5-87.5 87.5 0 175 0M1750 1225c-87.5-87.5 0-87.5 0-175M1750 875c87.5 87.5 0 87.5 0 175M1925 1050c-87.5 87.5-87.5 0-175 0" class="bezier-3-1 open"/>
    </g>
</svg>
