<svg xmlns="http://www.w3.org/2000/svg" baseProfile="full" width="2100" height="1400" viewBox="-175.0 -175.0 2100.0 1400.0">
    <title>
        Pattern design from http://ornamentist.org
    </title>
    <desc>
        This file is licensed under a Creative Commons CC BY 4.0 license: http://creativecommons.org/licenses/by/4.0/
    </desc>
    <defs>
        <style>
<![CDATA[
        
polyline {
  fill:            none;
  stroke:          black;
  stroke-linecap:  round;
  stroke-linejoin: round;
  stroke-width:    2.0pt;
}


polyline.closed {
  fill:      #d9d9d9;
  fill-rule: evenodd;
}


polygon {
  fill:            #d9d9d9;
  fill-rule:       evenodd;
  stroke:          black;
  stroke-linejoin: round;
  stroke-width:    2.0pt;
}


circle {
  fill:         #d9d9d9;
  stroke:       black;
  stroke-width: 2.0pt;
}


ellipse {
  fill:         #d9d9d9;
  stroke:       black;
  stroke-width: 2.0pt;
}


path {
  fill:            none;
  stroke:          black;
  stroke-linecap:  round;
  stroke-linejoin: round;
  stroke-width:    2.0pt;
}


path.closed {
  fill:      #d9d9d9;
  fill-rule: evenodd;
}


polygon.background,
path.background
{
  fill:   #fbfbfb;
  stroke: #c9c9c9;
  stroke-width: 1.5pt;
}

        ]]>
        </style>
    </defs>
    <clipPath id="design">
        <path d="M-175-175h2100v1400H-175z"/>
    </clipPath>
    <g clip-path="url(#design)" color-rendering="optimizeQuality" shape-rendering="geometricPrecision" id="graphics">
        <path class="background closed" d="M1925-175v1400H-175V-175z"/>
        <path d="M0-175q-87.5 87.5-87.5 0M175 0q-87.5-87.5 0-87.5M0 175q87.5-87.5 87.5 0M-175 0q87.5 87.5 0 87.5M0-175q-87.5 87.5 0 87.5M-175 0q87.5 87.5 87.5 0M175 0Q87.5-87.5 87.5 0" class="bezier-2-1 open"/>
        <path d="M-175-87.5c0 87.5 87.5 0 0-87.5M87.5-175c-87.5 0 0 87.5 87.5 0M175 87.5c0-87.5-87.5 0 0 87.5M-87.5 175c87.5 0 0-87.5-87.5 0M-87.5 0C-175 0-87.5-87.5 0 0M0 87.5C0 175-87.5 87.5 0 0M0-87.5C0-175 87.5-87.5 0 0M87.5 0C175 0 87.5 87.5 0 0" class="bezier-3-1 open"/>
        <path d="M0 175q-87.5 87.5-87.5 0M175 350q-87.5-87.5 0-87.5M0 525q87.5-87.5 87.5 0M-175 350q87.5 87.5 0 87.5M0 175q-87.5 87.5 0 87.5M-175 350q87.5 87.5 87.5 0M175 350q-87.5-87.5-87.5 0" class="bezier-2-1 open"/>
        <path d="M-175 262.5c0 87.5 87.5 0 0-87.5M87.5 175c-87.5 0 0 87.5 87.5 0M175 437.5c0-87.5-87.5 0 0 87.5M-87.5 525c87.5 0 0-87.5-87.5 0M-87.5 350c-87.5 0 0-87.5 87.5 0M0 437.5c0 87.5-87.5 0 0-87.5M0 262.5c0-87.5 87.5 0 0 87.5M87.5 350c87.5 0 0 87.5-87.5 0" class="bezier-3-1 open"/>
        <path d="M0 525q-87.5 87.5-87.5 0M175 700q-87.5-87.5 0-87.5M0 875q87.5-87.5 87.5 0M-175 700q87.5 87.5 0 87.5M0 525q-87.5 87.5 0 87.5M-175 700q87.5 87.5 87.5 0M175 700q-87.5-87.5-87.5 0" class="bezier-2-1 open"/>
        <path d="M-175 612.5c0 87.5 87.5 0 0-87.5M87.5 525c-87.5 0 0 87.5 87.5 0M175 787.5c0-87.5-87.5 0 0 87.5M-87.5 875c87.5 0 0-87.5-87.5 0M-87.5 700c-87.5 0 0-87.5 87.5 0M0 787.5c0 87.5-87.5 0 0-87.5M0 612.5c0-87.5 87.5 0 0 87.5M87.5 700c87.5 0 0 87.5-87.5 0" class="bezier-3-1 open"/>
        <path d="M0 875q-87.5 87.5-87.5 0M175 1050q-87.5-87.5 0-87.5M0 1225q87.5-87.5 87.5 0M-175 1050q87.5 87.5 0 87.5M0 875q-87.5 87.5 0 87.5M-175 1050q87.5 87.5 87.5 0M175 1050q-87.5-87.5-87.5 0" class="bezier-2-1 open"/>
        <path d="M-175 962.5c0 87.5 87.5 0 0-87.5M87.5 875c-87.5 0 0 87.5 87.5 0M175 1137.5c0-87.5-87.5 0 0 87.5M-87.5 1225c87.5 0 0-87.5-87.5 0M-87.5 1050c-87.5 0 0-87.5 87.5 0M0 1137.5c0 87.5-87.5 0 0-87.5M0 962.5c0-87.5 87.5 0 0 87.5M87.5 1050c87.5 0 0 87.5-87.5 0" class="bezier-3-1 open"/>
        <path d="M350-175q-87.5 87.5-87.5 0M525 0q-87.5-87.5 0-87.5M350 175q87.5-87.5 87.5 0M175 0q87.5 87.5 0 87.5M350-175q-87.5 87.5 0 87.5M175 0q87.5 87.5 87.5 0M525 0q-87.5-87.5-87.5 0M350 175q87.5-87.5 0-87.5" class="bezier-2-1 open"/>
        <path d="M175-87.5c0 87.5 87.5 0 0-87.5M437.5-175c-87.5 0 0 87.5 87.5 0M525 87.5c0-87.5-87.5 0 0 87.5M262.5 175c87.5 0 0-87.5-87.5 0M262.5 0c-87.5 0 0-87.5 87.5 0M350 87.5c0 87.5-87.5 0 0-87.5M350-87.5c0-87.5 87.5 0 0 87.5M437.5 0c87.5 0 0 87.5-87.5 0" class="bezier-3-1 open"/>
        <path d="M350 175q-87.5 87.5-87.5 0M525 350q-87.5-87.5 0-87.5M350 525q87.5-87.5 87.5 0M175 350q87.5 87.5 0 87.5M350 175q-87.5 87.5 0 87.5M175 350q87.5 87.5 87.5 0M525 350q-87.5-87.5-87.5 0M350 525q87.5-87.5 0-87.5" class="bezier-2-1 open"/>
        <path d="M175 262.5c0 87.5 87.5 0 0-87.5M437.5 175c-87.5 0 0 87.5 87.5 0M525 437.5c0-87.5-87.5 0 0 87.5M262.5 525c87.5 0 0-87.5-87.5 0M262.5 350c-87.5 0 0-87.5 87.5 0M350 437.5c0 87.5-87.5 0 0-87.5M350 262.5c0-87.5 87.5 0 0 87.5M437.5 350c87.5 0 0 87.5-87.5 0" class="bezier-3-1 open"/>
        <path d="M350 525q-87.5 87.5-87.5 0M525 700q-87.5-87.5 0-87.5M350 875q87.5-87.5 87.5 0M175 700q87.5 87.5 0 87.5M350 525q-87.5 87.5 0 87.5M175 700q87.5 87.5 87.5 0M525 700q-87.5-87.5-87.5 0M350 875q87.5-87.5 0-87.5" class="bezier-2-1 open"/>
        <path d="M175 612.5c0 87.5 87.5 0 0-87.5M437.5 525c-87.5 0 0 87.5 87.5 0M525 787.5c0-87.5-87.5 0 0 87.5M262.5 875c87.5 0 0-87.5-87.5 0M262.5 700c-87.5 0 0-87.5 87.5 0M350 787.5c0 87.5-87.5 0 0-87.5M350 612.5c0-87.5 87.5 0 0 87.5M437.5 700c87.5 0 0 87.5-87.5 0" class="bezier-3-1 open"/>
        <path d="M350 875q-87.5 87.5-87.5 0M525 1050q-87.5-87.5 0-87.5M350 1225q87.5-87.5 87.5 0M175 1050q87.5 87.5 0 87.5M350 875q-87.5 87.5 0 87.5M175 1050q87.5 87.5 87.5 0M525 1050q-87.5-87.5-87.5 0M350 1225q87.5-87.5 0-87.5" class="bezier-2-1 open"/>
        <path d="M175 962.5c0 87.5 87.5 0 0-87.5M437.5 875c-87.5 0 0 87.5 87.5 0M525 1137.5c0-87.5-87.5 0 0 87.5M262.5 1225c87.5 0 0-87.5-87.5 0M262.5 1050c-87.5 0 0-87.5 87.5 0M350 1137.5c0 87.5-87.5 0 0-87.5M350 962.5c0-87.5 87.5 0 0 87.5M437.5 1050c87.5 0 0 87.5-87.5 0" class="bezier-3-1 open"/>
        <path d="M700-175q-87.5 87.5-87.5 0M875 0q-87.5-87.5 0-87.5M700 175q87.5-87.5 87.5 0M525 0q87.5 87.5 0 87.5M700-175q-87.5 87.5 0 87.5M525 0q87.5 87.5 87.5 0M875 0q-87.5-87.5-87.5 0M700 175q87.5-87.5 0-87.5" class="bezier-2-1 open"/>
        <path d="M525-87.5c0 87.5 87.5 0 0-87.5M787.5-175c-87.5 0 0 87.5 87.5 0M875 87.5c0-87.5-87.5 0 0 87.5M612.5 175c87.5 0 0-87.5-87.5 0M612.5 0c-87.5 0 0-87.5 87.5 0M700 87.5c0 87.5-87.5 0 0-87.5M700-87.5c0-87.5 87.5 0 0 87.5M787.5 0c87.5 0 0 87.5-87.5 0" class="bezier-3-1 open"/>
        <path d="M700 175q-87.5 87.5-87.5 0M875 350q-87.5-87.5 0-87.5M700 525q87.5-87.5 87.5 0M525 350q87.5 87.5 0 87.5M700 175q-87.5 87.5 0 87.5M525 350q87.5 87.5 87.5 0M875 350q-87.5-87.5-87.5 0M700 525q87.5-87.5 0-87.5" class="bezier-2-1 open"/>
        <path d="M525 262.5c0 87.5 87.5 0 0-87.5M787.5 175c-87.5 0 0 87.5 87.5 0M875 437.5c0-87.5-87.5 0 0 87.5M612.5 525c87.5 0 0-87.5-87.5 0M612.5 350c-87.5 0 0-87.5 87.5 0M700 437.5c0 87.5-87.5 0 0-87.5M700 262.5c0-87.5 87.5 0 0 87.5M787.5 350c87.5 0 0 87.5-87.5 0" class="bezier-3-1 open"/>
        <path d="M700 525q-87.5 87.5-87.5 0M875 700q-87.5-87.5 0-87.5M700 875q87.5-87.5 87.5 0M525 700q87.5 87.5 0 87.5M700 525q-87.5 87.5 0 87.5M525 700q87.5 87.5 87.5 0M875 700q-87.5-87.5-87.5 0M700 875q87.5-87.5 0-87.5" class="bezier-2-1 open"/>
        <path d="M525 612.5c0 87.5 87.5 0 0-87.5M787.5 525c-87.5 0 0 87.5 87.5 0M875 787.5c0-87.5-87.5 0 0 87.5M612.5 875c87.5 0 0-87.5-87.5 0M612.5 700c-87.5 0 0-87.5 87.5 0M700 787.5c0 87.5-87.5 0 0-87.5M700 612.5c0-87.5 87.5 0 0 87.5M787.5 700c87.5 0 0 87.5-87.5 0" class="bezier-3-1 open"/>
        <path d="M700 875q-87.5 87.5-87.5 0M875 1050q-87.5-87.5 0-87.5M700 1225q87.5-87.5 87.5 0M525 1050q87.5 87.5 0 87.5M700 875q-87.5 87.5 0 87.5M525 1050q87.5 87.5 87.5 0M875 1050q-87.5-87.5-87.5 0M700 1225q87.5-87.5 0-87.5" class="bezier-2-1 open"/>
        <path d="M525 962.5c0 87.5 87.5 0 0-87.5M787.5 875c-87.5 0 0 87.5 87.5 0M875 1137.5c0-87.5-87.5 0 0 87.5M612.5 1225c87.5 0 0-87.5-87.5 0M612.5 1050c-87.5 0 0-87.5 87.5 0M700 1137.5c0 87.5-87.5 0 0-87.5M700 962.5c0-87.5 87.5 0 0 87.5M787.5 1050c87.5 0 0 87.5-87.5 0" class="bezier-3-1 open"/>
        <path d="M1050-175q-87.5 87.5-87.5 0M1225 0q-87.5-87.5 0-87.5M1050 175q87.5-87.5 87.5 0M875 0q87.5 87.5 0 87.5M1050-175q-87.5 87.5 0 87.5M875 0q87.5 87.5 87.5 0M1225 0q-87.5-87.5-87.5 0M1050 175q87.5-87.5 0-87.5" class="bezier-2-1 open"/>
        <path d="M875-87.5c0 87.5 87.5 0 0-87.5M1137.5-175c-87.5 0 0 87.5 87.5 0M1225 87.5c0-87.5-87.5 0 0 87.5M962.5 175c87.5 0 0-87.5-87.5 0M962.5 0c-87.5 0 0-87.5 87.5 0M1050 87.5c0 87.5-87.5 0 0-87.5M1050-87.5c0-87.5 87.5 0 0 87.5M1137.5 0c87.5 0 0 87.5-87.5 0" class="bezier-3-1 open"/>
        <path d="M1050 175q-87.5 87.5-87.5 0M1225 350q-87.5-87.5 0-87.5M1050 525q87.5-87.5 87.5 0M875 350q87.5 87.5 0 87.5M1050 175q-87.5 87.5 0 87.5M875 350q87.5 87.5 87.5 0M1225 350q-87.5-87.5-87.5 0M1050 525q87.5-87.5 0-87.5" class="bezier-2-1 open"/>
        <path d="M875 262.5c0 87.5 87.5 0 0-87.5M1137.5 175c-87.5 0 0 87.5 87.5 0M1225 437.5c0-87.5-87.5 0 0 87.5M962.5 525c87.5 0 0-87.5-87.5 0M962.5 350c-87.5 0 0-87.5 87.5 0M1050 437.5c0 87.5-87.5 0 0-87.5M1050 262.5c0-87.5 87.5 0 0 87.5M1137.5 350c87.5 0 0 87.5-87.5 0" class="bezier-3-1 open"/>
        <path d="M1050 525q-87.5 87.5-87.5 0M1225 700q-87.5-87.5 0-87.5M1050 875q87.5-87.5 87.5 0M875 700q87.5 87.5 0 87.5M1050 525q-87.5 87.5 0 87.5M875 700q87.5 87.5 87.5 0M1225 700q-87.5-87.5-87.5 0M1050 875q87.5-87.5 0-87.5" class="bezier-2-1 open"/>
        <path d="M875 612.5c0 87.5 87.5 0 0-87.5M1137.5 525c-87.5 0 0 87.5 87.5 0M1225 787.5c0-87.5-87.5 0 0 87.5M962.5 875c87.5 0 0-87.5-87.5 0M962.5 700c-87.5 0 0-87.5 87.5 0M1050 787.5c0 87.5-87.5 0 0-87.5M1050 612.5c0-87.5 87.5 0 0 87.5M1137.5 700c87.5 0 0 87.5-87.5 0" class="bezier-3-1 open"/>
        <path d="M1050 875q-87.5 87.5-87.5 0M1225 1050q-87.5-87.5 0-87.5M1050 1225q87.5-87.5 87.5 0M875 1050q87.5 87.5 0 87.5M1050 875q-87.5 87.5 0 87.5M875 1050q87.5 87.5 87.5 0M1225 1050q-87.5-87.5-87.5 0M1050 1225q87.5-87.5 0-87.5" class="bezier-2-1 open"/>
        <path d="M875 962.5c0 87.5 87.5 0 0-87.5M1137.5 875c-87.5 0 0 87.5 87.5 0M1225 1137.5c0-87.5-87.5 0 0 87.5M962.5 1225c87.5 0 0-87.5-87.5 0M962.5 1050c-87.5 0 0-87.5 87.5 0M1050 1137.5c0 87.5-87.5 0 0-87.5M1050 962.5c0-87.5 87.5 0 0 87.5M1137.5 1050c87.5 0 0 87.5-87.5 0" class="bezier-3-1 open"/>
        <path d="M1400-175q-87.5 87.5-87.5 0M1575 0q-87.5-87.5 0-87.5M1400 175q87.5-87.5 87.5 0M1225 0q87.5 87.5 0 87.5M1400-175q-87.5 87.5 0 87.5M1225 0q87.5 87.5 87.5 0M1575 0q-87.5-87.5-87.5 0M1400 175q87.5-87.5 0-87.5" class="bezier-2-1 open"/>
        <path d="M1225-87.5c0 87.5 87.5 0 0-87.5M1487.5-175c-87.5 0 0 87.5 87.5 0M1575 87.5c0-87.5-87.5 0 0 87.5M1312.5 175c87.5 0 0-87.5-87.5 0M1312.5 0c-87.5 0 0-87.5 87.5 0M1400 87.5c0 87.5-87.5 0 0-87.5M1400-87.5c0-87.5 87.5 0 0 87.5M1487.5 0c87.5 0 0 87.5-87.5 0" class="bezier-3-1 open"/>
        <path d="M1400 175q-87.5 87.5-87.5 0M1575 350q-87.5-87.5 0-87.5M1400 525q87.5-87.5 87.5 0M1225 350q87.5 87.5 0 87.5M1400 175q-87.5 87.5 0 87.5M1225 350q87.5 87.5 87.5 0M1575 350q-87.5-87.5-87.5 0M1400 525q87.5-87.5 0-87.5" class="bezier-2-1 open"/>
        <path d="M1225 262.5c0 87.5 87.5 0 0-87.5M1487.5 175c-87.5 0 0 87.5 87.5 0M1575 437.5c0-87.5-87.5 0 0 87.5M1312.5 525c87.5 0 0-87.5-87.5 0M1312.5 350c-87.5 0 0-87.5 87.5 0M1400 437.5c0 87.5-87.5 0 0-87.5M1400 262.5c0-87.5 87.5 0 0 87.5M1487.5 350c87.5 0 0 87.5-87.5 0" class="bezier-3-1 open"/>
        <path d="M1400 525q-87.5 87.5-87.5 0M1575 700q-87.5-87.5 0-87.5M1400 875q87.5-87.5 87.5 0M1225 700q87.5 87.5 0 87.5M1400 525q-87.5 87.5 0 87.5M1225 700q87.5 87.5 87.5 0M1575 700q-87.5-87.5-87.5 0M1400 875q87.5-87.5 0-87.5" class="bezier-2-1 open"/>
        <path d="M1225 612.5c0 87.5 87.5 0 0-87.5M1487.5 525c-87.5 0 0 87.5 87.5 0M1575 787.5c0-87.5-87.5 0 0 87.5M1312.5 875c87.5 0 0-87.5-87.5 0M1312.5 700c-87.5 0 0-87.5 87.5 0M1400 787.5c0 87.5-87.5 0 0-87.5M1400 612.5c0-87.5 87.5 0 0 87.5M1487.5 700c87.5 0 0 87.5-87.5 0" class="bezier-3-1 open"/>
        <path d="M1400 875q-87.5 87.5-87.5 0M1575 1050q-87.5-87.5 0-87.5M1400 1225q87.5-87.5 87.5 0M1225 1050q87.5 87.5 0 87.5M1400 875q-87.5 87.5 0 87.5M1225 1050q87.5 87.5 87.5 0M1575 1050q-87.5-87.5-87.5 0M1400 1225q87.5-87.5 0-87.5" class="bezier-2-1 open"/>
        <path d="M1225 962.5c0 87.5 87.5 0 0-87.5M1487.5 875c-87.5 0 0 87.5 87.5 0M1575 1137.5c0-87.5-87.5 0 0 87.5M1312.5 1225c87.5 0 0-87.5-87.5 0M1312.5 1050c-87.5 0 0-87.5 87.5 0M1400 1137.5c0 87.5-87.5 0 0-87.5M1400 962.5c0-87.5 87.5 0 0 87.5M1487.5 1050c87.5 0 0 87.5-87.5 0" class="bezier-3-1 open"/>
        <path d="M1750-175q-87.5 87.5-87.5 0M1925 0q-87.5-87.5 0-87.5M1750 175q87.5-87.5 87.5 0M1575 0q87.5 87.5 0 87.5M1750-175q-87.5 87.5 0 87.5M1575 0q87.5 87.5 87.5 0M1925 0q-87.5-87.5-87.5 0M1750 175q87.5-87.5 0-87.5" class="bezier-2-1 open"/>
        <path d="M1575-87.5c0 87.5 87.5 0 0-87.5M1837.5-175c-87.5 0 0 87.5 87.5 0M1925 87.5c0-87.5-87.5 0 0 87.5M1662.5 175c87.5 0 0-87.5-87.5 0M1662.5 0c-87.5 0 0-87.5 87.5 0M1750 87.5c0 87.5-87.5 0 0-87.5M1750-87.5c0-87.5 87.5 0 0 87.5M1837.5 0c87.5 0 0 87.5-87.5 0" class="bezier-3-1 open"/>
        <path d="M1750 175q-87.5 87.5-87.5 0M1925 350q-87.5-87.5 0-87.5M1750 525q87.5-87.5 87.5 0M1575 350q87.5 87.5 0 87.5M1750 175q-87.5 87.5 0 87.5M1575 350q87.5 87.5 87.5 0M1925 350q-87.5-87.5-87.5 0M1750 525q87.5-87.5 0-87.5" class="bezier-2-1 open"/>
        <path d="M1575 262.5c0 87.5 87.5 0 0-87.5M1837.5 175c-87.5 0 0 87.5 87.5 0M1925 437.5c0-87.5-87.5 0 0 87.5M1662.5 525c87.5 0 0-87.5-87.5 0M1662.5 350c-87.5 0 0-87.5 87.5 0M1750 437.5c0 87.5-87.5 0 0-87.5M1750 262.5c0-87.5 87.5 0 0 87.5M1837.5 350c87.5 0 0 87.5-87.5 0" class="bezier-3-1 open"/>
        <path d="M1750 525q-87.5 87.5-87.5 0M1925 700q-87.5-87.5 0-87.5M1750 875q87.5-87.5 87.5 0M1575 700q87.5 87.5 0 87.5M1750 525q-87.5 87.5 0 87.5M1575 700q87.5 87.5 87.5 0M1925 700q-87.5-87.5-87.5 0M1750 875q87.5-87.5 0-87.5" class="bezier-2-1 open"/>
        <path d="M1575 612.5c0 87.5 87.5 0 0-87.5M1837.5 525c-87.5 0 0 87.5 87.5 0M1925 787.5c0-87.5-87.5 0 0 87.5M1662.5 875c87.5 0 0-87.5-87.5 0M1662.5 700c-87.5 0 0-87.5 87.5 0M1750 787.5c0 87.5-87.5 0 0-87.5M1750 612.5c0-87.5 87.5 0 0 87.5M1837.5 700c87.5 0 0 87.5-87.5 0" class="bezier-3-1 open"/>
        <path d="M1750 875q-87.5 87.5-87.5 0M1925 1050q-87.5-87.5 0-87.5M1750 1225q87.5-87.5 87.5 0M1575 1050q87.5 87.5 0 87.5M1750 875q-87.5 87.5 0 87.5M1575 1050q87.5 87.5 87.5 0M1925 1050q-87.5-87.5-87.5 0M1750 1225q87.5-87.5 0-87.5" class="bezier-2-1 open"/>
        <path d="M1575 962.5c0 87.5 87.5 0 0-87.5M1837.5 875c-87.5 0 0 87.5 87.5 0M1925 1137.5c0-87.5-87.5 0 0 87.5M1662.5 1225c87.5 0 0-87.5-87.5 0M1662.5 1050c-87.5 0 0-87.5 87.5 0M1750 1137.5c0 87.5-87.5 0 0-87.5M1750 962.5c0-87.5 87.5 0 0 87.5M1837.5 1050c87.5 0 0 87.5-87.5 0" class="bezier-3-1 open"/>
    </g>
</svg>
