%!PS-Adobe-2.0 EPSF-2.0
%%BoundingBox: 0 0 2100 1400
%%HiResBoundingBox: 0.000000 0.000000 2100.000000 1400.000000
%%Creator: cairo 1.14.2 (http://cairographics.org)
%%CreationDate: Mon Sep  7 08:21:51 2015
%%DocumentData: Clean7Bit
%%LanguageLevel: 2
%%DocumentMedia: 741x494mm 2100 1400 0 () ()
%%EndComments
% EPSF created by ps2eps 1.68
%%BeginProlog
save
countdictstack
mark
newpath
/showpage {} def
/setpagedevice {pop} def
%%EndProlog
%%Page 1 1
%%BeginProlog
/languagelevel where
{ pop languagelevel } { 1 } ifelse
2 lt { /Helvetica findfont 12 scalefont setfont 50 500 moveto
  (This print job requires a PostScript Language Level 2 printer.) show
  showpage quit } if
/q { gsave } bind def
/Q { grestore } bind def
/cm { 6 array astore concat } bind def
/w { setlinewidth } bind def
/J { setlinecap } bind def
/j { setlinejoin } bind def
/M { setmiterlimit } bind def
/d { setdash } bind def
/m { moveto } bind def
/l { lineto } bind def
/c { curveto } bind def
/h { closepath } bind def
/re { exch dup neg 3 1 roll 5 3 roll moveto 0 rlineto
      0 exch rlineto 0 rlineto closepath } bind def
/S { stroke } bind def
/f { fill } bind def
/f* { eofill } bind def
/n { newpath } bind def
/W { clip } bind def
/W* { eoclip } bind def
/BT { } bind def
/ET { } bind def
/pdfmark where { pop globaldict /?pdfmark /exec load put }
    { globaldict begin /?pdfmark /pop load def /pdfmark
    /cleartomark load def end } ifelse
/BDC { mark 3 1 roll /BDC pdfmark } bind def
/EMC { mark /EMC pdfmark } bind def
/cairo_store_point { /cairo_point_y exch def /cairo_point_x exch def } def
/Tj { show currentpoint cairo_store_point } bind def
/TJ {
  {
    dup
    type /stringtype eq
    { show } { -0.001 mul 0 cairo_font_matrix dtransform rmoveto } ifelse
  } forall
  currentpoint cairo_store_point
} bind def
/cairo_selectfont { cairo_font_matrix aload pop pop pop 0 0 6 array astore
    cairo_font exch selectfont cairo_point_x cairo_point_y moveto } bind def
/Tf { pop /cairo_font exch def /cairo_font_matrix where
      { pop cairo_selectfont } if } bind def
/Td { matrix translate cairo_font_matrix matrix concatmatrix dup
      /cairo_font_matrix exch def dup 4 get exch 5 get cairo_store_point
      /cairo_font where { pop cairo_selectfont } if } bind def
/Tm { 2 copy 8 2 roll 6 array astore /cairo_font_matrix exch def
      cairo_store_point /cairo_font where { pop cairo_selectfont } if } bind def
/g { setgray } bind def
/rg { setrgbcolor } bind def
/d1 { setcachedevice } bind def
/cairo_set_page_size {
  % Change paper size, but only if different from previous paper size otherwise
  % duplex fails. PLRM specifies a tolerance of 5 pts when matching paper size
  % so we use the same when checking if the size changes.
  /setpagedevice where {
    pop currentpagedevice
    /PageSize known {
      2 copy
      currentpagedevice /PageSize get aload pop
      exch 4 1 roll
      sub abs 5 gt
      3 1 roll
      sub abs 5 gt
      or
    } {
      true
    } ifelse
    {
      2 array astore
      2 dict begin
        /PageSize exch def
        /ImagingBBox null def
      currentdict end
      setpagedevice
    } {
      pop pop
    } ifelse
  } {
    pop
  } ifelse
} def
%%EndProlog
%%BeginSetup
%%EndSetup
%%Page: 1 1
%%BeginPageSetup
%%PageMedia: 741x494mm
%%PageBoundingBox: 0 0 2100 1400
2100 1400 cairo_set_page_size
%%EndPageSetup
q 0 0 2100 1400 rectclip q
0.984314 g
0 0 2100 1400 rectfill
0.788235 g
1.875 w
0 J
1 j
[] 0.0 d
4 M 0 1400 2100 -1400 re S
0 g
2.5 w
1 J
175 1400 m 58.332 1341.668 29.168 1341.668 87.5 1400 c S
350 1225 m 291.668 1341.668 291.668 1370.832 350 1312.5 c S
175 1050 m 291.668 1108.332 320.832 1108.332 262.5 1050 c S
0 1225 m 58.332 1108.332 58.332 1079.168 0 1137.5 c S
175 1400 m 116.668 1283.332 116.668 1254.168 175 1312.5 c S
0 1225 m 116.668 1166.668 145.832 1166.668 87.5 1225 c S
350 1225 m 233.332 1283.332 204.168 1283.332 262.5 1225 c S
175 1050 m 233.332 1166.668 233.332 1195.832 175 1137.5 c S
0 1225 m 87.5 1312.5 0 1400 87.5 1400 c S
175 1400 m 262.5 1312.5 350 1400 350 1312.5 c S
350 1225 m 262.5 1137.5 350 1050 262.5 1050 c S
175 1050 m 87.5 1137.5 0 1050 0 1137.5 c S
0 1225 m 87.5 1312.5 175 1225 175 1312.5 c S
175 1050 m 87.5 1137.5 175 1225 87.5 1225 c S
175 1400 m 262.5 1312.5 175 1225 262.5 1225 c S
350 1225 m 262.5 1137.5 175 1225 175 1137.5 c S
175 1050 m 58.332 991.668 29.168 991.668 87.5 1050 c S
350 875 m 291.668 991.668 291.668 1020.832 350 962.5 c S
175 700 m 291.668 758.332 320.832 758.332 262.5 700 c S
0 875 m 58.332 758.332 58.332 729.168 0 787.5 c S
175 1050 m 116.668 933.332 116.668 904.168 175 962.5 c S
0 875 m 116.668 816.668 145.832 816.668 87.5 875 c S
350 875 m 233.332 933.332 204.168 933.332 262.5 875 c S
175 700 m 233.332 816.668 233.332 845.832 175 787.5 c S
0 875 m 87.5 962.5 0 1050 87.5 1050 c S
175 1050 m 262.5 962.5 350 1050 350 962.5 c S
350 875 m 262.5 787.5 350 700 262.5 700 c S
175 700 m 87.5 787.5 0 700 0 787.5 c S
0 875 m 87.5 962.5 175 875 175 962.5 c S
175 700 m 87.5 787.5 175 875 87.5 875 c S
175 1050 m 262.5 962.5 175 875 262.5 875 c S
350 875 m 262.5 787.5 175 875 175 787.5 c S
175 700 m 58.332 641.668 29.168 641.668 87.5 700 c S
350 525 m 291.668 641.668 291.668 670.832 350 612.5 c S
175 350 m 291.668 408.332 320.832 408.332 262.5 350 c S
0 525 m 58.332 408.332 58.332 379.168 0 437.5 c S
175 700 m 116.668 583.332 116.668 554.168 175 612.5 c S
0 525 m 116.668 466.668 145.832 466.668 87.5 525 c S
350 525 m 233.332 583.332 204.168 583.332 262.5 525 c S
175 350 m 233.332 466.668 233.332 495.832 175 437.5 c S
0 525 m 87.5 612.5 0 700 87.5 700 c S
175 700 m 262.5 612.5 350 700 350 612.5 c S
350 525 m 262.5 437.5 350 350 262.5 350 c S
175 350 m 87.5 437.5 0 350 0 437.5 c S
0 525 m 87.5 612.5 175 525 175 612.5 c S
175 350 m 87.5 437.5 175 525 87.5 525 c S
175 700 m 262.5 612.5 175 525 262.5 525 c S
350 525 m 262.5 437.5 175 525 175 437.5 c S
175 350 m 58.332 291.668 29.168 291.668 87.5 350 c S
350 175 m 291.668 291.668 291.668 320.832 350 262.5 c S
175 0 m 291.668 58.332 320.832 58.332 262.5 0 c S
0 175 m 58.332 58.332 58.332 29.168 0 87.5 c S
175 350 m 116.668 233.332 116.668 204.168 175 262.5 c S
0 175 m 116.668 116.668 145.832 116.668 87.5 175 c S
350 175 m 233.332 233.332 204.168 233.332 262.5 175 c S
175 0 m 233.332 116.668 233.332 145.832 175 87.5 c S
0 175 m 87.5 262.5 0 350 87.5 350 c S
175 350 m 262.5 262.5 350 350 350 262.5 c S
350 175 m 262.5 87.5 350 0 262.5 0 c S
175 0 m 87.5 87.5 0 0 0 87.5 c S
0 175 m 87.5 262.5 175 175 175 262.5 c S
175 0 m 87.5 87.5 175 175 87.5 175 c S
175 350 m 262.5 262.5 175 175 262.5 175 c S
350 175 m 262.5 87.5 175 175 175 87.5 c S
525 1400 m 408.332 1341.668 379.168 1341.668 437.5 1400 c S
700 1225 m 641.668 1341.668 641.668 1370.832 700 1312.5 c S
525 1050 m 641.668 1108.332 670.832 1108.332 612.5 1050 c S
350 1225 m 408.332 1108.332 408.332 1079.168 350 1137.5 c S
525 1400 m 466.668 1283.332 466.668 1254.168 525 1312.5 c S
350 1225 m 466.668 1166.668 495.832 1166.668 437.5 1225 c S
700 1225 m 583.332 1283.332 554.168 1283.332 612.5 1225 c S
525 1050 m 583.332 1166.668 583.332 1195.832 525 1137.5 c S
350 1225 m 437.5 1312.5 350 1400 437.5 1400 c S
525 1400 m 612.5 1312.5 700 1400 700 1312.5 c S
700 1225 m 612.5 1137.5 700 1050 612.5 1050 c S
525 1050 m 437.5 1137.5 350 1050 350 1137.5 c S
350 1225 m 437.5 1312.5 525 1225 525 1312.5 c S
525 1050 m 437.5 1137.5 525 1225 437.5 1225 c S
525 1400 m 612.5 1312.5 525 1225 612.5 1225 c S
700 1225 m 612.5 1137.5 525 1225 525 1137.5 c S
525 1050 m 408.332 991.668 379.168 991.668 437.5 1050 c S
700 875 m 641.668 991.668 641.668 1020.832 700 962.5 c S
525 700 m 641.668 758.332 670.832 758.332 612.5 700 c S
350 875 m 408.332 758.332 408.332 729.168 350 787.5 c S
525 1050 m 466.668 933.332 466.668 904.168 525 962.5 c S
350 875 m 466.668 816.668 495.832 816.668 437.5 875 c S
700 875 m 583.332 933.332 554.168 933.332 612.5 875 c S
525 700 m 583.332 816.668 583.332 845.832 525 787.5 c S
350 875 m 437.5 962.5 350 1050 437.5 1050 c S
525 1050 m 612.5 962.5 700 1050 700 962.5 c S
700 875 m 612.5 787.5 700 700 612.5 700 c S
525 700 m 437.5 787.5 350 700 350 787.5 c S
350 875 m 437.5 962.5 525 875 525 962.5 c S
525 700 m 437.5 787.5 525 875 437.5 875 c S
525 1050 m 612.5 962.5 525 875 612.5 875 c S
700 875 m 612.5 787.5 525 875 525 787.5 c S
525 700 m 408.332 641.668 379.168 641.668 437.5 700 c S
700 525 m 641.668 641.668 641.668 670.832 700 612.5 c S
525 350 m 641.668 408.332 670.832 408.332 612.5 350 c S
350 525 m 408.332 408.332 408.332 379.168 350 437.5 c S
525 700 m 466.668 583.332 466.668 554.168 525 612.5 c S
350 525 m 466.668 466.668 495.832 466.668 437.5 525 c S
700 525 m 583.332 583.332 554.168 583.332 612.5 525 c S
525 350 m 583.332 466.668 583.332 495.832 525 437.5 c S
350 525 m 437.5 612.5 350 700 437.5 700 c S
525 700 m 612.5 612.5 700 700 700 612.5 c S
700 525 m 612.5 437.5 700 350 612.5 350 c S
525 350 m 437.5 437.5 350 350 350 437.5 c S
350 525 m 437.5 612.5 525 525 525 612.5 c S
525 350 m 437.5 437.5 525 525 437.5 525 c S
525 700 m 612.5 612.5 525 525 612.5 525 c S
700 525 m 612.5 437.5 525 525 525 437.5 c S
525 350 m 408.332 291.668 379.168 291.668 437.5 350 c S
700 175 m 641.668 291.668 641.668 320.832 700 262.5 c S
525 0 m 641.668 58.332 670.832 58.332 612.5 0 c S
350 175 m 408.332 58.332 408.332 29.168 350 87.5 c S
525 350 m 466.668 233.332 466.668 204.168 525 262.5 c S
350 175 m 466.668 116.668 495.832 116.668 437.5 175 c S
700 175 m 583.332 233.332 554.168 233.332 612.5 175 c S
525 0 m 583.332 116.668 583.332 145.832 525 87.5 c S
350 175 m 437.5 262.5 350 350 437.5 350 c S
525 350 m 612.5 262.5 700 350 700 262.5 c S
700 175 m 612.5 87.5 700 0 612.5 0 c S
525 0 m 437.5 87.5 350 0 350 87.5 c S
350 175 m 437.5 262.5 525 175 525 262.5 c S
525 0 m 437.5 87.5 525 175 437.5 175 c S
525 350 m 612.5 262.5 525 175 612.5 175 c S
700 175 m 612.5 87.5 525 175 525 87.5 c S
875 1400 m 758.332 1341.668 729.168 1341.668 787.5 1400 c S
1050 1225 m 991.668 1341.668 991.668 1370.832 1050 1312.5 c S
875 1050 m 991.668 1108.332 1020.832 1108.332 962.5 1050 c S
700 1225 m 758.332 1108.332 758.332 1079.168 700 1137.5 c S
875 1400 m 816.668 1283.332 816.668 1254.168 875 1312.5 c S
700 1225 m 816.668 1166.668 845.832 1166.668 787.5 1225 c S
1050 1225 m 933.332 1283.332 904.168 1283.332 962.5 1225 c S
875 1050 m 933.332 1166.668 933.332 1195.832 875 1137.5 c S
700 1225 m 787.5 1312.5 700 1400 787.5 1400 c S
875 1400 m 962.5 1312.5 1050 1400 1050 1312.5 c S
1050 1225 m 962.5 1137.5 1050 1050 962.5 1050 c S
875 1050 m 787.5 1137.5 700 1050 700 1137.5 c S
700 1225 m 787.5 1312.5 875 1225 875 1312.5 c S
875 1050 m 787.5 1137.5 875 1225 787.5 1225 c S
875 1400 m 962.5 1312.5 875 1225 962.5 1225 c S
1050 1225 m 962.5 1137.5 875 1225 875 1137.5 c S
875 1050 m 758.332 991.668 729.168 991.668 787.5 1050 c S
1050 875 m 991.668 991.668 991.668 1020.832 1050 962.5 c S
875 700 m 991.668 758.332 1020.832 758.332 962.5 700 c S
700 875 m 758.332 758.332 758.332 729.168 700 787.5 c S
875 1050 m 816.668 933.332 816.668 904.168 875 962.5 c S
700 875 m 816.668 816.668 845.832 816.668 787.5 875 c S
1050 875 m 933.332 933.332 904.168 933.332 962.5 875 c S
875 700 m 933.332 816.668 933.332 845.832 875 787.5 c S
700 875 m 787.5 962.5 700 1050 787.5 1050 c S
875 1050 m 962.5 962.5 1050 1050 1050 962.5 c S
1050 875 m 962.5 787.5 1050 700 962.5 700 c S
875 700 m 787.5 787.5 700 700 700 787.5 c S
700 875 m 787.5 962.5 875 875 875 962.5 c S
875 700 m 787.5 787.5 875 875 787.5 875 c S
875 1050 m 962.5 962.5 875 875 962.5 875 c S
1050 875 m 962.5 787.5 875 875 875 787.5 c S
875 700 m 758.332 641.668 729.168 641.668 787.5 700 c S
1050 525 m 991.668 641.668 991.668 670.832 1050 612.5 c S
875 350 m 991.668 408.332 1020.832 408.332 962.5 350 c S
700 525 m 758.332 408.332 758.332 379.168 700 437.5 c S
875 700 m 816.668 583.332 816.668 554.168 875 612.5 c S
700 525 m 816.668 466.668 845.832 466.668 787.5 525 c S
1050 525 m 933.332 583.332 904.168 583.332 962.5 525 c S
875 350 m 933.332 466.668 933.332 495.832 875 437.5 c S
700 525 m 787.5 612.5 700 700 787.5 700 c S
875 700 m 962.5 612.5 1050 700 1050 612.5 c S
1050 525 m 962.5 437.5 1050 350 962.5 350 c S
875 350 m 787.5 437.5 700 350 700 437.5 c S
700 525 m 787.5 612.5 875 525 875 612.5 c S
875 350 m 787.5 437.5 875 525 787.5 525 c S
875 700 m 962.5 612.5 875 525 962.5 525 c S
1050 525 m 962.5 437.5 875 525 875 437.5 c S
875 350 m 758.332 291.668 729.168 291.668 787.5 350 c S
1050 175 m 991.668 291.668 991.668 320.832 1050 262.5 c S
875 0 m 991.668 58.332 1020.832 58.332 962.5 0 c S
700 175 m 758.332 58.332 758.332 29.168 700 87.5 c S
875 350 m 816.668 233.332 816.668 204.168 875 262.5 c S
700 175 m 816.668 116.668 845.832 116.668 787.5 175 c S
1050 175 m 933.332 233.332 904.168 233.332 962.5 175 c S
875 0 m 933.332 116.668 933.332 145.832 875 87.5 c S
700 175 m 787.5 262.5 700 350 787.5 350 c S
875 350 m 962.5 262.5 1050 350 1050 262.5 c S
1050 175 m 962.5 87.5 1050 0 962.5 0 c S
875 0 m 787.5 87.5 700 0 700 87.5 c S
700 175 m 787.5 262.5 875 175 875 262.5 c S
875 0 m 787.5 87.5 875 175 787.5 175 c S
875 350 m 962.5 262.5 875 175 962.5 175 c S
1050 175 m 962.5 87.5 875 175 875 87.5 c S
1225 1400 m 1108.332 1341.668 1079.168 1341.668 1137.5 1400 c S
1400 1225 m 1341.668 1341.668 1341.668 1370.832 1400 1312.5 c S
1225 1050 m 1341.668 1108.332 1370.832 1108.332 1312.5 1050 c S
1050 1225 m 1108.332 1108.332 1108.332 1079.168 1050 1137.5 c S
1225 1400 m 1166.668 1283.332 1166.668 1254.168 1225 1312.5 c S
1050 1225 m 1166.668 1166.668 1195.832 1166.668 1137.5 1225 c S
1400 1225 m 1283.332 1283.332 1254.168 1283.332 1312.5 1225 c S
1225 1050 m 1283.332 1166.668 1283.332 1195.832 1225 1137.5 c S
1050 1225 m 1137.5 1312.5 1050 1400 1137.5 1400 c S
1225 1400 m 1312.5 1312.5 1400 1400 1400 1312.5 c S
1400 1225 m 1312.5 1137.5 1400 1050 1312.5 1050 c S
1225 1050 m 1137.5 1137.5 1050 1050 1050 1137.5 c S
1050 1225 m 1137.5 1312.5 1225 1225 1225 1312.5 c S
1225 1050 m 1137.5 1137.5 1225 1225 1137.5 1225 c S
1225 1400 m 1312.5 1312.5 1225 1225 1312.5 1225 c S
1400 1225 m 1312.5 1137.5 1225 1225 1225 1137.5 c S
1225 1050 m 1108.332 991.668 1079.168 991.668 1137.5 1050 c S
1400 875 m 1341.668 991.668 1341.668 1020.832 1400 962.5 c S
1225 700 m 1341.668 758.332 1370.832 758.332 1312.5 700 c S
1050 875 m 1108.332 758.332 1108.332 729.168 1050 787.5 c S
1225 1050 m 1166.668 933.332 1166.668 904.168 1225 962.5 c S
1050 875 m 1166.668 816.668 1195.832 816.668 1137.5 875 c S
1400 875 m 1283.332 933.332 1254.168 933.332 1312.5 875 c S
1225 700 m 1283.332 816.668 1283.332 845.832 1225 787.5 c S
1050 875 m 1137.5 962.5 1050 1050 1137.5 1050 c S
1225 1050 m 1312.5 962.5 1400 1050 1400 962.5 c S
1400 875 m 1312.5 787.5 1400 700 1312.5 700 c S
1225 700 m 1137.5 787.5 1050 700 1050 787.5 c S
1050 875 m 1137.5 962.5 1225 875 1225 962.5 c S
1225 700 m 1137.5 787.5 1225 875 1137.5 875 c S
1225 1050 m 1312.5 962.5 1225 875 1312.5 875 c S
1400 875 m 1312.5 787.5 1225 875 1225 787.5 c S
1225 700 m 1108.332 641.668 1079.168 641.668 1137.5 700 c S
1400 525 m 1341.668 641.668 1341.668 670.832 1400 612.5 c S
1225 350 m 1341.668 408.332 1370.832 408.332 1312.5 350 c S
1050 525 m 1108.332 408.332 1108.332 379.168 1050 437.5 c S
1225 700 m 1166.668 583.332 1166.668 554.168 1225 612.5 c S
1050 525 m 1166.668 466.668 1195.832 466.668 1137.5 525 c S
1400 525 m 1283.332 583.332 1254.168 583.332 1312.5 525 c S
1225 350 m 1283.332 466.668 1283.332 495.832 1225 437.5 c S
1050 525 m 1137.5 612.5 1050 700 1137.5 700 c S
1225 700 m 1312.5 612.5 1400 700 1400 612.5 c S
1400 525 m 1312.5 437.5 1400 350 1312.5 350 c S
1225 350 m 1137.5 437.5 1050 350 1050 437.5 c S
1050 525 m 1137.5 612.5 1225 525 1225 612.5 c S
1225 350 m 1137.5 437.5 1225 525 1137.5 525 c S
1225 700 m 1312.5 612.5 1225 525 1312.5 525 c S
1400 525 m 1312.5 437.5 1225 525 1225 437.5 c S
1225 350 m 1108.332 291.668 1079.168 291.668 1137.5 350 c S
1400 175 m 1341.668 291.668 1341.668 320.832 1400 262.5 c S
1225 0 m 1341.668 58.332 1370.832 58.332 1312.5 0 c S
1050 175 m 1108.332 58.332 1108.332 29.168 1050 87.5 c S
1225 350 m 1166.668 233.332 1166.668 204.168 1225 262.5 c S
1050 175 m 1166.668 116.668 1195.832 116.668 1137.5 175 c S
1400 175 m 1283.332 233.332 1254.168 233.332 1312.5 175 c S
1225 0 m 1283.332 116.668 1283.332 145.832 1225 87.5 c S
1050 175 m 1137.5 262.5 1050 350 1137.5 350 c S
1225 350 m 1312.5 262.5 1400 350 1400 262.5 c S
1400 175 m 1312.5 87.5 1400 0 1312.5 0 c S
1225 0 m 1137.5 87.5 1050 0 1050 87.5 c S
1050 175 m 1137.5 262.5 1225 175 1225 262.5 c S
1225 0 m 1137.5 87.5 1225 175 1137.5 175 c S
1225 350 m 1312.5 262.5 1225 175 1312.5 175 c S
1400 175 m 1312.5 87.5 1225 175 1225 87.5 c S
1575 1400 m 1458.332 1341.668 1429.168 1341.668 1487.5 1400 c S
1750 1225 m 1691.668 1341.668 1691.668 1370.832 1750 1312.5 c S
1575 1050 m 1691.668 1108.332 1720.832 1108.332 1662.5 1050 c S
1400 1225 m 1458.332 1108.332 1458.332 1079.168 1400 1137.5 c S
1575 1400 m 1516.668 1283.332 1516.668 1254.168 1575 1312.5 c S
1400 1225 m 1516.668 1166.668 1545.832 1166.668 1487.5 1225 c S
1750 1225 m 1633.332 1283.332 1604.168 1283.332 1662.5 1225 c S
1575 1050 m 1633.332 1166.668 1633.332 1195.832 1575 1137.5 c S
1400 1225 m 1487.5 1312.5 1400 1400 1487.5 1400 c S
1575 1400 m 1662.5 1312.5 1750 1400 1750 1312.5 c S
1750 1225 m 1662.5 1137.5 1750 1050 1662.5 1050 c S
1575 1050 m 1487.5 1137.5 1400 1050 1400 1137.5 c S
1400 1225 m 1487.5 1312.5 1575 1225 1575 1312.5 c S
1575 1050 m 1487.5 1137.5 1575 1225 1487.5 1225 c S
1575 1400 m 1662.5 1312.5 1575 1225 1662.5 1225 c S
1750 1225 m 1662.5 1137.5 1575 1225 1575 1137.5 c S
1575 1050 m 1458.332 991.668 1429.168 991.668 1487.5 1050 c S
1750 875 m 1691.668 991.668 1691.668 1020.832 1750 962.5 c S
1575 700 m 1691.668 758.332 1720.832 758.332 1662.5 700 c S
1400 875 m 1458.332 758.332 1458.332 729.168 1400 787.5 c S
1575 1050 m 1516.668 933.332 1516.668 904.168 1575 962.5 c S
1400 875 m 1516.668 816.668 1545.832 816.668 1487.5 875 c S
1750 875 m 1633.332 933.332 1604.168 933.332 1662.5 875 c S
1575 700 m 1633.332 816.668 1633.332 845.832 1575 787.5 c S
1400 875 m 1487.5 962.5 1400 1050 1487.5 1050 c S
1575 1050 m 1662.5 962.5 1750 1050 1750 962.5 c S
1750 875 m 1662.5 787.5 1750 700 1662.5 700 c S
1575 700 m 1487.5 787.5 1400 700 1400 787.5 c S
1400 875 m 1487.5 962.5 1575 875 1575 962.5 c S
1575 700 m 1487.5 787.5 1575 875 1487.5 875 c S
1575 1050 m 1662.5 962.5 1575 875 1662.5 875 c S
1750 875 m 1662.5 787.5 1575 875 1575 787.5 c S
1575 700 m 1458.332 641.668 1429.168 641.668 1487.5 700 c S
1750 525 m 1691.668 641.668 1691.668 670.832 1750 612.5 c S
1575 350 m 1691.668 408.332 1720.832 408.332 1662.5 350 c S
1400 525 m 1458.332 408.332 1458.332 379.168 1400 437.5 c S
1575 700 m 1516.668 583.332 1516.668 554.168 1575 612.5 c S
1400 525 m 1516.668 466.668 1545.832 466.668 1487.5 525 c S
1750 525 m 1633.332 583.332 1604.168 583.332 1662.5 525 c S
1575 350 m 1633.332 466.668 1633.332 495.832 1575 437.5 c S
1400 525 m 1487.5 612.5 1400 700 1487.5 700 c S
1575 700 m 1662.5 612.5 1750 700 1750 612.5 c S
1750 525 m 1662.5 437.5 1750 350 1662.5 350 c S
1575 350 m 1487.5 437.5 1400 350 1400 437.5 c S
1400 525 m 1487.5 612.5 1575 525 1575 612.5 c S
1575 350 m 1487.5 437.5 1575 525 1487.5 525 c S
1575 700 m 1662.5 612.5 1575 525 1662.5 525 c S
1750 525 m 1662.5 437.5 1575 525 1575 437.5 c S
1575 350 m 1458.332 291.668 1429.168 291.668 1487.5 350 c S
1750 175 m 1691.668 291.668 1691.668 320.832 1750 262.5 c S
1575 0 m 1691.668 58.332 1720.832 58.332 1662.5 0 c S
1400 175 m 1458.332 58.332 1458.332 29.168 1400 87.5 c S
1575 350 m 1516.668 233.332 1516.668 204.168 1575 262.5 c S
1400 175 m 1516.668 116.668 1545.832 116.668 1487.5 175 c S
1750 175 m 1633.332 233.332 1604.168 233.332 1662.5 175 c S
1575 0 m 1633.332 116.668 1633.332 145.832 1575 87.5 c S
1400 175 m 1487.5 262.5 1400 350 1487.5 350 c S
1575 350 m 1662.5 262.5 1750 350 1750 262.5 c S
1750 175 m 1662.5 87.5 1750 0 1662.5 0 c S
1575 0 m 1487.5 87.5 1400 0 1400 87.5 c S
1400 175 m 1487.5 262.5 1575 175 1575 262.5 c S
1575 0 m 1487.5 87.5 1575 175 1487.5 175 c S
1575 350 m 1662.5 262.5 1575 175 1662.5 175 c S
1750 175 m 1662.5 87.5 1575 175 1575 87.5 c S
1925 1400 m 1808.332 1341.668 1779.168 1341.668 1837.5 1400 c S
2100 1225 m 2041.668 1341.668 2041.668 1370.832 2100 1312.5 c S
1925 1050 m 2041.668 1108.332 2070.832 1108.332 2012.5 1050 c S
1750 1225 m 1808.332 1108.332 1808.332 1079.168 1750 1137.5 c S
1925 1400 m 1866.668 1283.332 1866.668 1254.168 1925 1312.5 c S
1750 1225 m 1866.668 1166.668 1895.832 1166.668 1837.5 1225 c S
2100 1225 m 1983.332 1283.332 1954.168 1283.332 2012.5 1225 c S
1925 1050 m 1983.332 1166.668 1983.332 1195.832 1925 1137.5 c S
1750 1225 m 1837.5 1312.5 1750 1400 1837.5 1400 c S
1925 1400 m 2012.5 1312.5 2100 1400 2100 1312.5 c S
2100 1225 m 2012.5 1137.5 2100 1050 2012.5 1050 c S
1925 1050 m 1837.5 1137.5 1750 1050 1750 1137.5 c S
1750 1225 m 1837.5 1312.5 1925 1225 1925 1312.5 c S
1925 1050 m 1837.5 1137.5 1925 1225 1837.5 1225 c S
1925 1400 m 2012.5 1312.5 1925 1225 2012.5 1225 c S
2100 1225 m 2012.5 1137.5 1925 1225 1925 1137.5 c S
1925 1050 m 1808.332 991.668 1779.168 991.668 1837.5 1050 c S
2100 875 m 2041.668 991.668 2041.668 1020.832 2100 962.5 c S
1925 700 m 2041.668 758.332 2070.832 758.332 2012.5 700 c S
1750 875 m 1808.332 758.332 1808.332 729.168 1750 787.5 c S
1925 1050 m 1866.668 933.332 1866.668 904.168 1925 962.5 c S
1750 875 m 1866.668 816.668 1895.832 816.668 1837.5 875 c S
2100 875 m 1983.332 933.332 1954.168 933.332 2012.5 875 c S
1925 700 m 1983.332 816.668 1983.332 845.832 1925 787.5 c S
1750 875 m 1837.5 962.5 1750 1050 1837.5 1050 c S
1925 1050 m 2012.5 962.5 2100 1050 2100 962.5 c S
2100 875 m 2012.5 787.5 2100 700 2012.5 700 c S
1925 700 m 1837.5 787.5 1750 700 1750 787.5 c S
1750 875 m 1837.5 962.5 1925 875 1925 962.5 c S
1925 700 m 1837.5 787.5 1925 875 1837.5 875 c S
1925 1050 m 2012.5 962.5 1925 875 2012.5 875 c S
2100 875 m 2012.5 787.5 1925 875 1925 787.5 c S
1925 700 m 1808.332 641.668 1779.168 641.668 1837.5 700 c S
2100 525 m 2041.668 641.668 2041.668 670.832 2100 612.5 c S
1925 350 m 2041.668 408.332 2070.832 408.332 2012.5 350 c S
1750 525 m 1808.332 408.332 1808.332 379.168 1750 437.5 c S
1925 700 m 1866.668 583.332 1866.668 554.168 1925 612.5 c S
1750 525 m 1866.668 466.668 1895.832 466.668 1837.5 525 c S
2100 525 m 1983.332 583.332 1954.168 583.332 2012.5 525 c S
1925 350 m 1983.332 466.668 1983.332 495.832 1925 437.5 c S
1750 525 m 1837.5 612.5 1750 700 1837.5 700 c S
1925 700 m 2012.5 612.5 2100 700 2100 612.5 c S
2100 525 m 2012.5 437.5 2100 350 2012.5 350 c S
1925 350 m 1837.5 437.5 1750 350 1750 437.5 c S
1750 525 m 1837.5 612.5 1925 525 1925 612.5 c S
1925 350 m 1837.5 437.5 1925 525 1837.5 525 c S
1925 700 m 2012.5 612.5 1925 525 2012.5 525 c S
2100 525 m 2012.5 437.5 1925 525 1925 437.5 c S
1925 350 m 1808.332 291.668 1779.168 291.668 1837.5 350 c S
2100 175 m 2041.668 291.668 2041.668 320.832 2100 262.5 c S
1925 0 m 2041.668 58.332 2070.832 58.332 2012.5 0 c S
1750 175 m 1808.332 58.332 1808.332 29.168 1750 87.5 c S
1925 350 m 1866.668 233.332 1866.668 204.168 1925 262.5 c S
1750 175 m 1866.668 116.668 1895.832 116.668 1837.5 175 c S
2100 175 m 1983.332 233.332 1954.168 233.332 2012.5 175 c S
1925 0 m 1983.332 116.668 1983.332 145.832 1925 87.5 c S
1750 175 m 1837.5 262.5 1750 350 1837.5 350 c S
1925 350 m 2012.5 262.5 2100 350 2100 262.5 c S
2100 175 m 2012.5 87.5 2100 0 2012.5 0 c S
1925 0 m 1837.5 87.5 1750 0 1750 87.5 c S
1750 175 m 1837.5 262.5 1925 175 1925 262.5 c S
1925 0 m 1837.5 87.5 1925 175 1837.5 175 c S
1925 350 m 2012.5 262.5 1925 175 2012.5 175 c S
2100 175 m 2012.5 87.5 1925 175 1925 87.5 c S
Q Q
showpage
%%Trailer
%%Trailer
cleartomark
countdictstack
exch sub { end } repeat
restore
%%EOF
