%!PS-Adobe-2.0 EPSF-2.0
%%BoundingBox: 0 0 2100 1400
%%HiResBoundingBox: 0.000000 0.000000 2100.000000 1400.000000
%%Creator: cairo 1.14.2 (http://cairographics.org)
%%CreationDate: Mon Sep  7 08:21:51 2015
%%DocumentData: Clean7Bit
%%LanguageLevel: 2
%%DocumentMedia: 741x494mm 2100 1400 0 () ()
%%EndComments
% EPSF created by ps2eps 1.68
%%BeginProlog
save
countdictstack
mark
newpath
/showpage {} def
/setpagedevice {pop} def
%%EndProlog
%%Page 1 1
%%BeginProlog
/languagelevel where
{ pop languagelevel } { 1 } ifelse
2 lt { /Helvetica findfont 12 scalefont setfont 50 500 moveto
  (This print job requires a PostScript Language Level 2 printer.) show
  showpage quit } if
/q { gsave } bind def
/Q { grestore } bind def
/cm { 6 array astore concat } bind def
/w { setlinewidth } bind def
/J { setlinecap } bind def
/j { setlinejoin } bind def
/M { setmiterlimit } bind def
/d { setdash } bind def
/m { moveto } bind def
/l { lineto } bind def
/c { curveto } bind def
/h { closepath } bind def
/re { exch dup neg 3 1 roll 5 3 roll moveto 0 rlineto
      0 exch rlineto 0 rlineto closepath } bind def
/S { stroke } bind def
/f { fill } bind def
/f* { eofill } bind def
/n { newpath } bind def
/W { clip } bind def
/W* { eoclip } bind def
/BT { } bind def
/ET { } bind def
/pdfmark where { pop globaldict /?pdfmark /exec load put }
    { globaldict begin /?pdfmark /pop load def /pdfmark
    /cleartomark load def end } ifelse
/BDC { mark 3 1 roll /BDC pdfmark } bind def
/EMC { mark /EMC pdfmark } bind def
/cairo_store_point { /cairo_point_y exch def /cairo_point_x exch def } def
/Tj { show currentpoint cairo_store_point } bind def
/TJ {
  {
    dup
    type /stringtype eq
    { show } { -0.001 mul 0 cairo_font_matrix dtransform rmoveto } ifelse
  } forall
  currentpoint cairo_store_point
} bind def
/cairo_selectfont { cairo_font_matrix aload pop pop pop 0 0 6 array astore
    cairo_font exch selectfont cairo_point_x cairo_point_y moveto } bind def
/Tf { pop /cairo_font exch def /cairo_font_matrix where
      { pop cairo_selectfont } if } bind def
/Td { matrix translate cairo_font_matrix matrix concatmatrix dup
      /cairo_font_matrix exch def dup 4 get exch 5 get cairo_store_point
      /cairo_font where { pop cairo_selectfont } if } bind def
/Tm { 2 copy 8 2 roll 6 array astore /cairo_font_matrix exch def
      cairo_store_point /cairo_font where { pop cairo_selectfont } if } bind def
/g { setgray } bind def
/rg { setrgbcolor } bind def
/d1 { setcachedevice } bind def
/cairo_set_page_size {
  % Change paper size, but only if different from previous paper size otherwise
  % duplex fails. PLRM specifies a tolerance of 5 pts when matching paper size
  % so we use the same when checking if the size changes.
  /setpagedevice where {
    pop currentpagedevice
    /PageSize known {
      2 copy
      currentpagedevice /PageSize get aload pop
      exch 4 1 roll
      sub abs 5 gt
      3 1 roll
      sub abs 5 gt
      or
    } {
      true
    } ifelse
    {
      2 array astore
      2 dict begin
        /PageSize exch def
        /ImagingBBox null def
      currentdict end
      setpagedevice
    } {
      pop pop
    } ifelse
  } {
    pop
  } ifelse
} def
%%EndProlog
%%BeginSetup
%%EndSetup
%%Page: 1 1
%%BeginPageSetup
%%PageMedia: 741x494mm
%%PageBoundingBox: 0 0 2100 1400
2100 1400 cairo_set_page_size
%%EndPageSetup
q 0 0 2100 1400 rectclip q
0.984314 g
0 0 2100 1400 rectfill
0.788235 g
1.875 w
0 J
1 j
[] 0.0 d
4 M 0 1400 2100 -1400 re S
0 g
2.5 w
1 J
175 1400 m 58.332 1283.332 0 1254.168 0 1312.5 c S
350 1225 m 233.332 1341.668 204.168 1400 262.5 1400 c S
175 1050 m 291.668 1166.668 350 1195.832 350 1137.5 c S
0 1225 m 116.668 1108.332 145.832 1050 87.5 1050 c S
175 1400 m 58.332 1283.332 29.168 1225 87.5 1225 c S
0 1225 m 116.668 1108.332 175 1079.168 175 1137.5 c S
350 1225 m 233.332 1341.668 175 1370.832 175 1312.5 c S
175 1050 m 291.668 1166.668 320.832 1225 262.5 1225 c S
175 1400 m 116.668 1341.668 58.332 1312.5 0 1312.5 c S
350 1225 m 291.668 1283.332 262.5 1341.668 262.5 1400 c S
175 1050 m 233.332 1108.332 291.668 1137.5 350 1137.5 c S
0 1225 m 58.332 1166.668 87.5 1108.332 87.5 1050 c S
175 1400 m 116.668 1341.668 87.5 1283.332 87.5 1225 c S
0 1225 m 58.332 1166.668 116.668 1137.5 175 1137.5 c S
350 1225 m 291.668 1283.332 233.332 1312.5 175 1312.5 c S
175 1050 m 233.332 1108.332 262.5 1166.668 262.5 1225 c S
175 1050 m 58.332 933.332 0 904.168 0 962.5 c S
350 875 m 233.332 991.668 204.168 1050 262.5 1050 c S
175 700 m 291.668 816.668 350 845.832 350 787.5 c S
0 875 m 116.668 758.332 145.832 700 87.5 700 c S
175 1050 m 58.332 933.332 29.168 875 87.5 875 c S
0 875 m 116.668 758.332 175 729.168 175 787.5 c S
350 875 m 233.332 991.668 175 1020.832 175 962.5 c S
175 700 m 291.668 816.668 320.832 875 262.5 875 c S
175 1050 m 116.668 991.668 58.332 962.5 0 962.5 c S
350 875 m 291.668 933.332 262.5 991.668 262.5 1050 c S
175 700 m 233.332 758.332 291.668 787.5 350 787.5 c S
0 875 m 58.332 816.668 87.5 758.332 87.5 700 c S
175 1050 m 116.668 991.668 87.5 933.332 87.5 875 c S
0 875 m 58.332 816.668 116.668 787.5 175 787.5 c S
350 875 m 291.668 933.332 233.332 962.5 175 962.5 c S
175 700 m 233.332 758.332 262.5 816.668 262.5 875 c S
175 700 m 58.332 583.332 0 554.168 0 612.5 c S
350 525 m 233.332 641.668 204.168 700 262.5 700 c S
175 350 m 291.668 466.668 350 495.832 350 437.5 c S
0 525 m 116.668 408.332 145.832 350 87.5 350 c S
175 700 m 58.332 583.332 29.168 525 87.5 525 c S
0 525 m 116.668 408.332 175 379.168 175 437.5 c S
350 525 m 233.332 641.668 175 670.832 175 612.5 c S
175 350 m 291.668 466.668 320.832 525 262.5 525 c S
175 700 m 116.668 641.668 58.332 612.5 0 612.5 c S
350 525 m 291.668 583.332 262.5 641.668 262.5 700 c S
175 350 m 233.332 408.332 291.668 437.5 350 437.5 c S
0 525 m 58.332 466.668 87.5 408.332 87.5 350 c S
175 700 m 116.668 641.668 87.5 583.332 87.5 525 c S
0 525 m 58.332 466.668 116.668 437.5 175 437.5 c S
350 525 m 291.668 583.332 233.332 612.5 175 612.5 c S
175 350 m 233.332 408.332 262.5 466.668 262.5 525 c S
175 350 m 58.332 233.332 0 204.168 0 262.5 c S
350 175 m 233.332 291.668 204.168 350 262.5 350 c S
175 0 m 291.668 116.668 350 145.832 350 87.5 c S
0 175 m 116.668 58.332 145.832 0 87.5 0 c S
175 350 m 58.332 233.332 29.168 175 87.5 175 c S
0 175 m 116.668 58.332 175 29.168 175 87.5 c S
350 175 m 233.332 291.668 175 320.832 175 262.5 c S
175 0 m 291.668 116.668 320.832 175 262.5 175 c S
175 350 m 116.668 291.668 58.332 262.5 0 262.5 c S
350 175 m 291.668 233.332 262.5 291.668 262.5 350 c S
175 0 m 233.332 58.332 291.668 87.5 350 87.5 c S
0 175 m 58.332 116.668 87.5 58.332 87.5 0 c S
175 350 m 116.668 291.668 87.5 233.332 87.5 175 c S
0 175 m 58.332 116.668 116.668 87.5 175 87.5 c S
350 175 m 291.668 233.332 233.332 262.5 175 262.5 c S
175 0 m 233.332 58.332 262.5 116.668 262.5 175 c S
525 1400 m 408.332 1283.332 350 1254.168 350 1312.5 c S
700 1225 m 583.332 1341.668 554.168 1400 612.5 1400 c S
525 1050 m 641.668 1166.668 700 1195.832 700 1137.5 c S
350 1225 m 466.668 1108.332 495.832 1050 437.5 1050 c S
525 1400 m 408.332 1283.332 379.168 1225 437.5 1225 c S
350 1225 m 466.668 1108.332 525 1079.168 525 1137.5 c S
700 1225 m 583.332 1341.668 525 1370.832 525 1312.5 c S
525 1050 m 641.668 1166.668 670.832 1225 612.5 1225 c S
525 1400 m 466.668 1341.668 408.332 1312.5 350 1312.5 c S
700 1225 m 641.668 1283.332 612.5 1341.668 612.5 1400 c S
525 1050 m 583.332 1108.332 641.668 1137.5 700 1137.5 c S
350 1225 m 408.332 1166.668 437.5 1108.332 437.5 1050 c S
525 1400 m 466.668 1341.668 437.5 1283.332 437.5 1225 c S
350 1225 m 408.332 1166.668 466.668 1137.5 525 1137.5 c S
700 1225 m 641.668 1283.332 583.332 1312.5 525 1312.5 c S
525 1050 m 583.332 1108.332 612.5 1166.668 612.5 1225 c S
525 1050 m 408.332 933.332 350 904.168 350 962.5 c S
700 875 m 583.332 991.668 554.168 1050 612.5 1050 c S
525 700 m 641.668 816.668 700 845.832 700 787.5 c S
350 875 m 466.668 758.332 495.832 700 437.5 700 c S
525 1050 m 408.332 933.332 379.168 875 437.5 875 c S
350 875 m 466.668 758.332 525 729.168 525 787.5 c S
700 875 m 583.332 991.668 525 1020.832 525 962.5 c S
525 700 m 641.668 816.668 670.832 875 612.5 875 c S
525 1050 m 466.668 991.668 408.332 962.5 350 962.5 c S
700 875 m 641.668 933.332 612.5 991.668 612.5 1050 c S
525 700 m 583.332 758.332 641.668 787.5 700 787.5 c S
350 875 m 408.332 816.668 437.5 758.332 437.5 700 c S
525 1050 m 466.668 991.668 437.5 933.332 437.5 875 c S
350 875 m 408.332 816.668 466.668 787.5 525 787.5 c S
700 875 m 641.668 933.332 583.332 962.5 525 962.5 c S
525 700 m 583.332 758.332 612.5 816.668 612.5 875 c S
525 700 m 408.332 583.332 350 554.168 350 612.5 c S
700 525 m 583.332 641.668 554.168 700 612.5 700 c S
525 350 m 641.668 466.668 700 495.832 700 437.5 c S
350 525 m 466.668 408.332 495.832 350 437.5 350 c S
525 700 m 408.332 583.332 379.168 525 437.5 525 c S
350 525 m 466.668 408.332 525 379.168 525 437.5 c S
700 525 m 583.332 641.668 525 670.832 525 612.5 c S
525 350 m 641.668 466.668 670.832 525 612.5 525 c S
525 700 m 466.668 641.668 408.332 612.5 350 612.5 c S
700 525 m 641.668 583.332 612.5 641.668 612.5 700 c S
525 350 m 583.332 408.332 641.668 437.5 700 437.5 c S
350 525 m 408.332 466.668 437.5 408.332 437.5 350 c S
525 700 m 466.668 641.668 437.5 583.332 437.5 525 c S
350 525 m 408.332 466.668 466.668 437.5 525 437.5 c S
700 525 m 641.668 583.332 583.332 612.5 525 612.5 c S
525 350 m 583.332 408.332 612.5 466.668 612.5 525 c S
525 350 m 408.332 233.332 350 204.168 350 262.5 c S
700 175 m 583.332 291.668 554.168 350 612.5 350 c S
525 0 m 641.668 116.668 700 145.832 700 87.5 c S
350 175 m 466.668 58.332 495.832 0 437.5 0 c S
525 350 m 408.332 233.332 379.168 175 437.5 175 c S
350 175 m 466.668 58.332 525 29.168 525 87.5 c S
700 175 m 583.332 291.668 525 320.832 525 262.5 c S
525 0 m 641.668 116.668 670.832 175 612.5 175 c S
525 350 m 466.668 291.668 408.332 262.5 350 262.5 c S
700 175 m 641.668 233.332 612.5 291.668 612.5 350 c S
525 0 m 583.332 58.332 641.668 87.5 700 87.5 c S
350 175 m 408.332 116.668 437.5 58.332 437.5 0 c S
525 350 m 466.668 291.668 437.5 233.332 437.5 175 c S
350 175 m 408.332 116.668 466.668 87.5 525 87.5 c S
700 175 m 641.668 233.332 583.332 262.5 525 262.5 c S
525 0 m 583.332 58.332 612.5 116.668 612.5 175 c S
875 1400 m 758.332 1283.332 700 1254.168 700 1312.5 c S
1050 1225 m 933.332 1341.668 904.168 1400 962.5 1400 c S
875 1050 m 991.668 1166.668 1050 1195.832 1050 1137.5 c S
700 1225 m 816.668 1108.332 845.832 1050 787.5 1050 c S
875 1400 m 758.332 1283.332 729.168 1225 787.5 1225 c S
700 1225 m 816.668 1108.332 875 1079.168 875 1137.5 c S
1050 1225 m 933.332 1341.668 875 1370.832 875 1312.5 c S
875 1050 m 991.668 1166.668 1020.832 1225 962.5 1225 c S
875 1400 m 816.668 1341.668 758.332 1312.5 700 1312.5 c S
1050 1225 m 991.668 1283.332 962.5 1341.668 962.5 1400 c S
875 1050 m 933.332 1108.332 991.668 1137.5 1050 1137.5 c S
700 1225 m 758.332 1166.668 787.5 1108.332 787.5 1050 c S
875 1400 m 816.668 1341.668 787.5 1283.332 787.5 1225 c S
700 1225 m 758.332 1166.668 816.668 1137.5 875 1137.5 c S
1050 1225 m 991.668 1283.332 933.332 1312.5 875 1312.5 c S
875 1050 m 933.332 1108.332 962.5 1166.668 962.5 1225 c S
875 1050 m 758.332 933.332 700 904.168 700 962.5 c S
1050 875 m 933.332 991.668 904.168 1050 962.5 1050 c S
875 700 m 991.668 816.668 1050 845.832 1050 787.5 c S
700 875 m 816.668 758.332 845.832 700 787.5 700 c S
875 1050 m 758.332 933.332 729.168 875 787.5 875 c S
700 875 m 816.668 758.332 875 729.168 875 787.5 c S
1050 875 m 933.332 991.668 875 1020.832 875 962.5 c S
875 700 m 991.668 816.668 1020.832 875 962.5 875 c S
875 1050 m 816.668 991.668 758.332 962.5 700 962.5 c S
1050 875 m 991.668 933.332 962.5 991.668 962.5 1050 c S
875 700 m 933.332 758.332 991.668 787.5 1050 787.5 c S
700 875 m 758.332 816.668 787.5 758.332 787.5 700 c S
875 1050 m 816.668 991.668 787.5 933.332 787.5 875 c S
700 875 m 758.332 816.668 816.668 787.5 875 787.5 c S
1050 875 m 991.668 933.332 933.332 962.5 875 962.5 c S
875 700 m 933.332 758.332 962.5 816.668 962.5 875 c S
875 700 m 758.332 583.332 700 554.168 700 612.5 c S
1050 525 m 933.332 641.668 904.168 700 962.5 700 c S
875 350 m 991.668 466.668 1050 495.832 1050 437.5 c S
700 525 m 816.668 408.332 845.832 350 787.5 350 c S
875 700 m 758.332 583.332 729.168 525 787.5 525 c S
700 525 m 816.668 408.332 875 379.168 875 437.5 c S
1050 525 m 933.332 641.668 875 670.832 875 612.5 c S
875 350 m 991.668 466.668 1020.832 525 962.5 525 c S
875 700 m 816.668 641.668 758.332 612.5 700 612.5 c S
1050 525 m 991.668 583.332 962.5 641.668 962.5 700 c S
875 350 m 933.332 408.332 991.668 437.5 1050 437.5 c S
700 525 m 758.332 466.668 787.5 408.332 787.5 350 c S
875 700 m 816.668 641.668 787.5 583.332 787.5 525 c S
700 525 m 758.332 466.668 816.668 437.5 875 437.5 c S
1050 525 m 991.668 583.332 933.332 612.5 875 612.5 c S
875 350 m 933.332 408.332 962.5 466.668 962.5 525 c S
875 350 m 758.332 233.332 700 204.168 700 262.5 c S
1050 175 m 933.332 291.668 904.168 350 962.5 350 c S
875 0 m 991.668 116.668 1050 145.832 1050 87.5 c S
700 175 m 816.668 58.332 845.832 0 787.5 0 c S
875 350 m 758.332 233.332 729.168 175 787.5 175 c S
700 175 m 816.668 58.332 875 29.168 875 87.5 c S
1050 175 m 933.332 291.668 875 320.832 875 262.5 c S
875 0 m 991.668 116.668 1020.832 175 962.5 175 c S
875 350 m 816.668 291.668 758.332 262.5 700 262.5 c S
1050 175 m 991.668 233.332 962.5 291.668 962.5 350 c S
875 0 m 933.332 58.332 991.668 87.5 1050 87.5 c S
700 175 m 758.332 116.668 787.5 58.332 787.5 0 c S
875 350 m 816.668 291.668 787.5 233.332 787.5 175 c S
700 175 m 758.332 116.668 816.668 87.5 875 87.5 c S
1050 175 m 991.668 233.332 933.332 262.5 875 262.5 c S
875 0 m 933.332 58.332 962.5 116.668 962.5 175 c S
1225 1400 m 1108.332 1283.332 1050 1254.168 1050 1312.5 c S
1400 1225 m 1283.332 1341.668 1254.168 1400 1312.5 1400 c S
1225 1050 m 1341.668 1166.668 1400 1195.832 1400 1137.5 c S
1050 1225 m 1166.668 1108.332 1195.832 1050 1137.5 1050 c S
1225 1400 m 1108.332 1283.332 1079.168 1225 1137.5 1225 c S
1050 1225 m 1166.668 1108.332 1225 1079.168 1225 1137.5 c S
1400 1225 m 1283.332 1341.668 1225 1370.832 1225 1312.5 c S
1225 1050 m 1341.668 1166.668 1370.832 1225 1312.5 1225 c S
1225 1400 m 1166.668 1341.668 1108.332 1312.5 1050 1312.5 c S
1400 1225 m 1341.668 1283.332 1312.5 1341.668 1312.5 1400 c S
1225 1050 m 1283.332 1108.332 1341.668 1137.5 1400 1137.5 c S
1050 1225 m 1108.332 1166.668 1137.5 1108.332 1137.5 1050 c S
1225 1400 m 1166.668 1341.668 1137.5 1283.332 1137.5 1225 c S
1050 1225 m 1108.332 1166.668 1166.668 1137.5 1225 1137.5 c S
1400 1225 m 1341.668 1283.332 1283.332 1312.5 1225 1312.5 c S
1225 1050 m 1283.332 1108.332 1312.5 1166.668 1312.5 1225 c S
1225 1050 m 1108.332 933.332 1050 904.168 1050 962.5 c S
1400 875 m 1283.332 991.668 1254.168 1050 1312.5 1050 c S
1225 700 m 1341.668 816.668 1400 845.832 1400 787.5 c S
1050 875 m 1166.668 758.332 1195.832 700 1137.5 700 c S
1225 1050 m 1108.332 933.332 1079.168 875 1137.5 875 c S
1050 875 m 1166.668 758.332 1225 729.168 1225 787.5 c S
1400 875 m 1283.332 991.668 1225 1020.832 1225 962.5 c S
1225 700 m 1341.668 816.668 1370.832 875 1312.5 875 c S
1225 1050 m 1166.668 991.668 1108.332 962.5 1050 962.5 c S
1400 875 m 1341.668 933.332 1312.5 991.668 1312.5 1050 c S
1225 700 m 1283.332 758.332 1341.668 787.5 1400 787.5 c S
1050 875 m 1108.332 816.668 1137.5 758.332 1137.5 700 c S
1225 1050 m 1166.668 991.668 1137.5 933.332 1137.5 875 c S
1050 875 m 1108.332 816.668 1166.668 787.5 1225 787.5 c S
1400 875 m 1341.668 933.332 1283.332 962.5 1225 962.5 c S
1225 700 m 1283.332 758.332 1312.5 816.668 1312.5 875 c S
1225 700 m 1108.332 583.332 1050 554.168 1050 612.5 c S
1400 525 m 1283.332 641.668 1254.168 700 1312.5 700 c S
1225 350 m 1341.668 466.668 1400 495.832 1400 437.5 c S
1050 525 m 1166.668 408.332 1195.832 350 1137.5 350 c S
1225 700 m 1108.332 583.332 1079.168 525 1137.5 525 c S
1050 525 m 1166.668 408.332 1225 379.168 1225 437.5 c S
1400 525 m 1283.332 641.668 1225 670.832 1225 612.5 c S
1225 350 m 1341.668 466.668 1370.832 525 1312.5 525 c S
1225 700 m 1166.668 641.668 1108.332 612.5 1050 612.5 c S
1400 525 m 1341.668 583.332 1312.5 641.668 1312.5 700 c S
1225 350 m 1283.332 408.332 1341.668 437.5 1400 437.5 c S
1050 525 m 1108.332 466.668 1137.5 408.332 1137.5 350 c S
1225 700 m 1166.668 641.668 1137.5 583.332 1137.5 525 c S
1050 525 m 1108.332 466.668 1166.668 437.5 1225 437.5 c S
1400 525 m 1341.668 583.332 1283.332 612.5 1225 612.5 c S
1225 350 m 1283.332 408.332 1312.5 466.668 1312.5 525 c S
1225 350 m 1108.332 233.332 1050 204.168 1050 262.5 c S
1400 175 m 1283.332 291.668 1254.168 350 1312.5 350 c S
1225 0 m 1341.668 116.668 1400 145.832 1400 87.5 c S
1050 175 m 1166.668 58.332 1195.832 0 1137.5 0 c S
1225 350 m 1108.332 233.332 1079.168 175 1137.5 175 c S
1050 175 m 1166.668 58.332 1225 29.168 1225 87.5 c S
1400 175 m 1283.332 291.668 1225 320.832 1225 262.5 c S
1225 0 m 1341.668 116.668 1370.832 175 1312.5 175 c S
1225 350 m 1166.668 291.668 1108.332 262.5 1050 262.5 c S
1400 175 m 1341.668 233.332 1312.5 291.668 1312.5 350 c S
1225 0 m 1283.332 58.332 1341.668 87.5 1400 87.5 c S
1050 175 m 1108.332 116.668 1137.5 58.332 1137.5 0 c S
1225 350 m 1166.668 291.668 1137.5 233.332 1137.5 175 c S
1050 175 m 1108.332 116.668 1166.668 87.5 1225 87.5 c S
1400 175 m 1341.668 233.332 1283.332 262.5 1225 262.5 c S
1225 0 m 1283.332 58.332 1312.5 116.668 1312.5 175 c S
1575 1400 m 1458.332 1283.332 1400 1254.168 1400 1312.5 c S
1750 1225 m 1633.332 1341.668 1604.168 1400 1662.5 1400 c S
1575 1050 m 1691.668 1166.668 1750 1195.832 1750 1137.5 c S
1400 1225 m 1516.668 1108.332 1545.832 1050 1487.5 1050 c S
1575 1400 m 1458.332 1283.332 1429.168 1225 1487.5 1225 c S
1400 1225 m 1516.668 1108.332 1575 1079.168 1575 1137.5 c S
1750 1225 m 1633.332 1341.668 1575 1370.832 1575 1312.5 c S
1575 1050 m 1691.668 1166.668 1720.832 1225 1662.5 1225 c S
1575 1400 m 1516.668 1341.668 1458.332 1312.5 1400 1312.5 c S
1750 1225 m 1691.668 1283.332 1662.5 1341.668 1662.5 1400 c S
1575 1050 m 1633.332 1108.332 1691.668 1137.5 1750 1137.5 c S
1400 1225 m 1458.332 1166.668 1487.5 1108.332 1487.5 1050 c S
1575 1400 m 1516.668 1341.668 1487.5 1283.332 1487.5 1225 c S
1400 1225 m 1458.332 1166.668 1516.668 1137.5 1575 1137.5 c S
1750 1225 m 1691.668 1283.332 1633.332 1312.5 1575 1312.5 c S
1575 1050 m 1633.332 1108.332 1662.5 1166.668 1662.5 1225 c S
1575 1050 m 1458.332 933.332 1400 904.168 1400 962.5 c S
1750 875 m 1633.332 991.668 1604.168 1050 1662.5 1050 c S
1575 700 m 1691.668 816.668 1750 845.832 1750 787.5 c S
1400 875 m 1516.668 758.332 1545.832 700 1487.5 700 c S
1575 1050 m 1458.332 933.332 1429.168 875 1487.5 875 c S
1400 875 m 1516.668 758.332 1575 729.168 1575 787.5 c S
1750 875 m 1633.332 991.668 1575 1020.832 1575 962.5 c S
1575 700 m 1691.668 816.668 1720.832 875 1662.5 875 c S
1575 1050 m 1516.668 991.668 1458.332 962.5 1400 962.5 c S
1750 875 m 1691.668 933.332 1662.5 991.668 1662.5 1050 c S
1575 700 m 1633.332 758.332 1691.668 787.5 1750 787.5 c S
1400 875 m 1458.332 816.668 1487.5 758.332 1487.5 700 c S
1575 1050 m 1516.668 991.668 1487.5 933.332 1487.5 875 c S
1400 875 m 1458.332 816.668 1516.668 787.5 1575 787.5 c S
1750 875 m 1691.668 933.332 1633.332 962.5 1575 962.5 c S
1575 700 m 1633.332 758.332 1662.5 816.668 1662.5 875 c S
1575 700 m 1458.332 583.332 1400 554.168 1400 612.5 c S
1750 525 m 1633.332 641.668 1604.168 700 1662.5 700 c S
1575 350 m 1691.668 466.668 1750 495.832 1750 437.5 c S
1400 525 m 1516.668 408.332 1545.832 350 1487.5 350 c S
1575 700 m 1458.332 583.332 1429.168 525 1487.5 525 c S
1400 525 m 1516.668 408.332 1575 379.168 1575 437.5 c S
1750 525 m 1633.332 641.668 1575 670.832 1575 612.5 c S
1575 350 m 1691.668 466.668 1720.832 525 1662.5 525 c S
1575 700 m 1516.668 641.668 1458.332 612.5 1400 612.5 c S
1750 525 m 1691.668 583.332 1662.5 641.668 1662.5 700 c S
1575 350 m 1633.332 408.332 1691.668 437.5 1750 437.5 c S
1400 525 m 1458.332 466.668 1487.5 408.332 1487.5 350 c S
1575 700 m 1516.668 641.668 1487.5 583.332 1487.5 525 c S
1400 525 m 1458.332 466.668 1516.668 437.5 1575 437.5 c S
1750 525 m 1691.668 583.332 1633.332 612.5 1575 612.5 c S
1575 350 m 1633.332 408.332 1662.5 466.668 1662.5 525 c S
1575 350 m 1458.332 233.332 1400 204.168 1400 262.5 c S
1750 175 m 1633.332 291.668 1604.168 350 1662.5 350 c S
1575 0 m 1691.668 116.668 1750 145.832 1750 87.5 c S
1400 175 m 1516.668 58.332 1545.832 0 1487.5 0 c S
1575 350 m 1458.332 233.332 1429.168 175 1487.5 175 c S
1400 175 m 1516.668 58.332 1575 29.168 1575 87.5 c S
1750 175 m 1633.332 291.668 1575 320.832 1575 262.5 c S
1575 0 m 1691.668 116.668 1720.832 175 1662.5 175 c S
1575 350 m 1516.668 291.668 1458.332 262.5 1400 262.5 c S
1750 175 m 1691.668 233.332 1662.5 291.668 1662.5 350 c S
1575 0 m 1633.332 58.332 1691.668 87.5 1750 87.5 c S
1400 175 m 1458.332 116.668 1487.5 58.332 1487.5 0 c S
1575 350 m 1516.668 291.668 1487.5 233.332 1487.5 175 c S
1400 175 m 1458.332 116.668 1516.668 87.5 1575 87.5 c S
1750 175 m 1691.668 233.332 1633.332 262.5 1575 262.5 c S
1575 0 m 1633.332 58.332 1662.5 116.668 1662.5 175 c S
1925 1400 m 1808.332 1283.332 1750 1254.168 1750 1312.5 c S
2100 1225 m 1983.332 1341.668 1954.168 1400 2012.5 1400 c S
1925 1050 m 2041.668 1166.668 2100 1195.832 2100 1137.5 c S
1750 1225 m 1866.668 1108.332 1895.832 1050 1837.5 1050 c S
1925 1400 m 1808.332 1283.332 1779.168 1225 1837.5 1225 c S
1750 1225 m 1866.668 1108.332 1925 1079.168 1925 1137.5 c S
2100 1225 m 1983.332 1341.668 1925 1370.832 1925 1312.5 c S
1925 1050 m 2041.668 1166.668 2070.832 1225 2012.5 1225 c S
1925 1400 m 1866.668 1341.668 1808.332 1312.5 1750 1312.5 c S
2100 1225 m 2041.668 1283.332 2012.5 1341.668 2012.5 1400 c S
1925 1050 m 1983.332 1108.332 2041.668 1137.5 2100 1137.5 c S
1750 1225 m 1808.332 1166.668 1837.5 1108.332 1837.5 1050 c S
1925 1400 m 1866.668 1341.668 1837.5 1283.332 1837.5 1225 c S
1750 1225 m 1808.332 1166.668 1866.668 1137.5 1925 1137.5 c S
2100 1225 m 2041.668 1283.332 1983.332 1312.5 1925 1312.5 c S
1925 1050 m 1983.332 1108.332 2012.5 1166.668 2012.5 1225 c S
1925 1050 m 1808.332 933.332 1750 904.168 1750 962.5 c S
2100 875 m 1983.332 991.668 1954.168 1050 2012.5 1050 c S
1925 700 m 2041.668 816.668 2100 845.832 2100 787.5 c S
1750 875 m 1866.668 758.332 1895.832 700 1837.5 700 c S
1925 1050 m 1808.332 933.332 1779.168 875 1837.5 875 c S
1750 875 m 1866.668 758.332 1925 729.168 1925 787.5 c S
2100 875 m 1983.332 991.668 1925 1020.832 1925 962.5 c S
1925 700 m 2041.668 816.668 2070.832 875 2012.5 875 c S
1925 1050 m 1866.668 991.668 1808.332 962.5 1750 962.5 c S
2100 875 m 2041.668 933.332 2012.5 991.668 2012.5 1050 c S
1925 700 m 1983.332 758.332 2041.668 787.5 2100 787.5 c S
1750 875 m 1808.332 816.668 1837.5 758.332 1837.5 700 c S
1925 1050 m 1866.668 991.668 1837.5 933.332 1837.5 875 c S
1750 875 m 1808.332 816.668 1866.668 787.5 1925 787.5 c S
2100 875 m 2041.668 933.332 1983.332 962.5 1925 962.5 c S
1925 700 m 1983.332 758.332 2012.5 816.668 2012.5 875 c S
1925 700 m 1808.332 583.332 1750 554.168 1750 612.5 c S
2100 525 m 1983.332 641.668 1954.168 700 2012.5 700 c S
1925 350 m 2041.668 466.668 2100 495.832 2100 437.5 c S
1750 525 m 1866.668 408.332 1895.832 350 1837.5 350 c S
1925 700 m 1808.332 583.332 1779.168 525 1837.5 525 c S
1750 525 m 1866.668 408.332 1925 379.168 1925 437.5 c S
2100 525 m 1983.332 641.668 1925 670.832 1925 612.5 c S
1925 350 m 2041.668 466.668 2070.832 525 2012.5 525 c S
1925 700 m 1866.668 641.668 1808.332 612.5 1750 612.5 c S
2100 525 m 2041.668 583.332 2012.5 641.668 2012.5 700 c S
1925 350 m 1983.332 408.332 2041.668 437.5 2100 437.5 c S
1750 525 m 1808.332 466.668 1837.5 408.332 1837.5 350 c S
1925 700 m 1866.668 641.668 1837.5 583.332 1837.5 525 c S
1750 525 m 1808.332 466.668 1866.668 437.5 1925 437.5 c S
2100 525 m 2041.668 583.332 1983.332 612.5 1925 612.5 c S
1925 350 m 1983.332 408.332 2012.5 466.668 2012.5 525 c S
1925 350 m 1808.332 233.332 1750 204.168 1750 262.5 c S
2100 175 m 1983.332 291.668 1954.168 350 2012.5 350 c S
1925 0 m 2041.668 116.668 2100 145.832 2100 87.5 c S
1750 175 m 1866.668 58.332 1895.832 0 1837.5 0 c S
1925 350 m 1808.332 233.332 1779.168 175 1837.5 175 c S
1750 175 m 1866.668 58.332 1925 29.168 1925 87.5 c S
2100 175 m 1983.332 291.668 1925 320.832 1925 262.5 c S
1925 0 m 2041.668 116.668 2070.832 175 2012.5 175 c S
1925 350 m 1866.668 291.668 1808.332 262.5 1750 262.5 c S
2100 175 m 2041.668 233.332 2012.5 291.668 2012.5 350 c S
1925 0 m 1983.332 58.332 2041.668 87.5 2100 87.5 c S
1750 175 m 1808.332 116.668 1837.5 58.332 1837.5 0 c S
1925 350 m 1866.668 291.668 1837.5 233.332 1837.5 175 c S
1750 175 m 1808.332 116.668 1866.668 87.5 1925 87.5 c S
2100 175 m 2041.668 233.332 1983.332 262.5 1925 262.5 c S
1925 0 m 1983.332 58.332 2012.5 116.668 2012.5 175 c S
Q Q
showpage
%%Trailer
%%Trailer
cleartomark
countdictstack
exch sub { end } repeat
restore
%%EOF
