%!PS-Adobe-2.0 EPSF-2.0
%%BoundingBox: 0 0 2100 1400
%%HiResBoundingBox: 0.000000 0.000000 2100.000000 1400.000000
%%Creator: cairo 1.14.2 (http://cairographics.org)
%%CreationDate: Mon Sep  7 08:21:51 2015
%%DocumentData: Clean7Bit
%%LanguageLevel: 2
%%DocumentMedia: 741x494mm 2100 1400 0 () ()
%%EndComments
% EPSF created by ps2eps 1.68
%%BeginProlog
save
countdictstack
mark
newpath
/showpage {} def
/setpagedevice {pop} def
%%EndProlog
%%Page 1 1
%%BeginProlog
/languagelevel where
{ pop languagelevel } { 1 } ifelse
2 lt { /Helvetica findfont 12 scalefont setfont 50 500 moveto
  (This print job requires a PostScript Language Level 2 printer.) show
  showpage quit } if
/q { gsave } bind def
/Q { grestore } bind def
/cm { 6 array astore concat } bind def
/w { setlinewidth } bind def
/J { setlinecap } bind def
/j { setlinejoin } bind def
/M { setmiterlimit } bind def
/d { setdash } bind def
/m { moveto } bind def
/l { lineto } bind def
/c { curveto } bind def
/h { closepath } bind def
/re { exch dup neg 3 1 roll 5 3 roll moveto 0 rlineto
      0 exch rlineto 0 rlineto closepath } bind def
/S { stroke } bind def
/f { fill } bind def
/f* { eofill } bind def
/n { newpath } bind def
/W { clip } bind def
/W* { eoclip } bind def
/BT { } bind def
/ET { } bind def
/pdfmark where { pop globaldict /?pdfmark /exec load put }
    { globaldict begin /?pdfmark /pop load def /pdfmark
    /cleartomark load def end } ifelse
/BDC { mark 3 1 roll /BDC pdfmark } bind def
/EMC { mark /EMC pdfmark } bind def
/cairo_store_point { /cairo_point_y exch def /cairo_point_x exch def } def
/Tj { show currentpoint cairo_store_point } bind def
/TJ {
  {
    dup
    type /stringtype eq
    { show } { -0.001 mul 0 cairo_font_matrix dtransform rmoveto } ifelse
  } forall
  currentpoint cairo_store_point
} bind def
/cairo_selectfont { cairo_font_matrix aload pop pop pop 0 0 6 array astore
    cairo_font exch selectfont cairo_point_x cairo_point_y moveto } bind def
/Tf { pop /cairo_font exch def /cairo_font_matrix where
      { pop cairo_selectfont } if } bind def
/Td { matrix translate cairo_font_matrix matrix concatmatrix dup
      /cairo_font_matrix exch def dup 4 get exch 5 get cairo_store_point
      /cairo_font where { pop cairo_selectfont } if } bind def
/Tm { 2 copy 8 2 roll 6 array astore /cairo_font_matrix exch def
      cairo_store_point /cairo_font where { pop cairo_selectfont } if } bind def
/g { setgray } bind def
/rg { setrgbcolor } bind def
/d1 { setcachedevice } bind def
/cairo_set_page_size {
  % Change paper size, but only if different from previous paper size otherwise
  % duplex fails. PLRM specifies a tolerance of 5 pts when matching paper size
  % so we use the same when checking if the size changes.
  /setpagedevice where {
    pop currentpagedevice
    /PageSize known {
      2 copy
      currentpagedevice /PageSize get aload pop
      exch 4 1 roll
      sub abs 5 gt
      3 1 roll
      sub abs 5 gt
      or
    } {
      true
    } ifelse
    {
      2 array astore
      2 dict begin
        /PageSize exch def
        /ImagingBBox null def
      currentdict end
      setpagedevice
    } {
      pop pop
    } ifelse
  } {
    pop
  } ifelse
} def
%%EndProlog
%%BeginSetup
%%EndSetup
%%Page: 1 1
%%BeginPageSetup
%%PageMedia: 741x494mm
%%PageBoundingBox: 0 0 2100 1400
2100 1400 cairo_set_page_size
%%EndPageSetup
q 0 0 2100 1400 rectclip q
0.984314 g
0 0 2100 1400 rectfill
0.788235 g
1.875 w
0 J
1 j
[] 0.0 d
4 M 0 1400 2100 -1400 re S
0 g
2.5 w
1 J
0 1283.332 m 38.891 1283.332 38.891 1263.891 0 1225 c S
233.332 1400 m 233.332 1361.109 213.891 1361.109 175 1400 c S
350 1166.668 m 311.109 1166.668 311.109 1186.109 350 1225 c S
116.668 1050 m 116.668 1088.891 136.109 1088.891 175 1050 c S
58.332 1225 m 58.332 1263.891 38.891 1263.891 0 1225 c S
175 1108.332 m 136.109 1108.332 136.109 1088.891 175 1050 c S
175 1341.668 m 213.891 1341.668 213.891 1361.109 175 1400 c S
291.668 1225 m 291.668 1186.109 311.109 1186.109 350 1225 c S
58.332 1283.332 m 136.109 1361.109 155.555 1400 116.668 1400 c S
233.332 1341.668 m 311.109 1263.891 350 1244.445 350 1283.332 c S
291.668 1166.668 m 213.891 1088.891 194.445 1050 233.332 1050 c S
116.668 1108.332 m 38.891 1186.109 0 1205.555 0 1166.668 c S
58.332 1283.332 m 136.109 1361.109 175 1380.555 175 1341.668 c S
116.668 1108.332 m 38.891 1186.109 19.445 1225 58.332 1225 c S
233.332 1341.668 m 311.109 1263.891 330.555 1225 291.668 1225 c S
291.668 1166.668 m 213.891 1088.891 175 1069.445 175 1108.332 c S
0 933.332 m 38.891 933.332 38.891 913.891 0 875 c S
233.332 1050 m 233.332 1011.109 213.891 1011.109 175 1050 c S
350 816.668 m 311.109 816.668 311.109 836.109 350 875 c S
116.668 700 m 116.668 738.891 136.109 738.891 175 700 c S
58.332 875 m 58.332 913.891 38.891 913.891 0 875 c S
175 758.332 m 136.109 758.332 136.109 738.891 175 700 c S
175 991.668 m 213.891 991.668 213.891 1011.109 175 1050 c S
291.668 875 m 291.668 836.109 311.109 836.109 350 875 c S
58.332 933.332 m 136.109 1011.109 155.555 1050 116.668 1050 c S
233.332 991.668 m 311.109 913.891 350 894.445 350 933.332 c S
291.668 816.668 m 213.891 738.891 194.445 700 233.332 700 c S
116.668 758.332 m 38.891 836.109 0 855.555 0 816.668 c S
58.332 933.332 m 136.109 1011.109 175 1030.555 175 991.668 c S
116.668 758.332 m 38.891 836.109 19.445 875 58.332 875 c S
233.332 991.668 m 311.109 913.891 330.555 875 291.668 875 c S
291.668 816.668 m 213.891 738.891 175 719.445 175 758.332 c S
0 583.332 m 38.891 583.332 38.891 563.891 0 525 c S
233.332 700 m 233.332 661.109 213.891 661.109 175 700 c S
350 466.668 m 311.109 466.668 311.109 486.109 350 525 c S
116.668 350 m 116.668 388.891 136.109 388.891 175 350 c S
58.332 525 m 58.332 563.891 38.891 563.891 0 525 c S
175 408.332 m 136.109 408.332 136.109 388.891 175 350 c S
175 641.668 m 213.891 641.668 213.891 661.109 175 700 c S
291.668 525 m 291.668 486.109 311.109 486.109 350 525 c S
58.332 583.332 m 136.109 661.109 155.555 700 116.668 700 c S
233.332 641.668 m 311.109 563.891 350 544.445 350 583.332 c S
291.668 466.668 m 213.891 388.891 194.445 350 233.332 350 c S
116.668 408.332 m 38.891 486.109 0 505.555 0 466.668 c S
58.332 583.332 m 136.109 661.109 175 680.555 175 641.668 c S
116.668 408.332 m 38.891 486.109 19.445 525 58.332 525 c S
233.332 641.668 m 311.109 563.891 330.555 525 291.668 525 c S
291.668 466.668 m 213.891 388.891 175 369.445 175 408.332 c S
0 233.332 m 38.891 233.332 38.891 213.891 0 175 c S
233.332 350 m 233.332 311.109 213.891 311.109 175 350 c S
350 116.668 m 311.109 116.668 311.109 136.109 350 175 c S
116.668 0 m 116.668 38.891 136.109 38.891 175 0 c S
58.332 175 m 58.332 213.891 38.891 213.891 0 175 c S
175 58.332 m 136.109 58.332 136.109 38.891 175 0 c S
175 291.668 m 213.891 291.668 213.891 311.109 175 350 c S
291.668 175 m 291.668 136.109 311.109 136.109 350 175 c S
58.332 233.332 m 136.109 311.109 155.555 350 116.668 350 c S
233.332 291.668 m 311.109 213.891 350 194.445 350 233.332 c S
291.668 116.668 m 213.891 38.891 194.445 0 233.332 0 c S
116.668 58.332 m 38.891 136.109 0 155.555 0 116.668 c S
58.332 233.332 m 136.109 311.109 175 330.555 175 291.668 c S
116.668 58.332 m 38.891 136.109 19.445 175 58.332 175 c S
233.332 291.668 m 311.109 213.891 330.555 175 291.668 175 c S
291.668 116.668 m 213.891 38.891 175 19.445 175 58.332 c S
350 1283.332 m 388.891 1283.332 388.891 1263.891 350 1225 c S
583.332 1400 m 583.332 1361.109 563.891 1361.109 525 1400 c S
700 1166.668 m 661.109 1166.668 661.109 1186.109 700 1225 c S
466.668 1050 m 466.668 1088.891 486.109 1088.891 525 1050 c S
408.332 1225 m 408.332 1263.891 388.891 1263.891 350 1225 c S
525 1108.332 m 486.109 1108.332 486.109 1088.891 525 1050 c S
525 1341.668 m 563.891 1341.668 563.891 1361.109 525 1400 c S
641.668 1225 m 641.668 1186.109 661.109 1186.109 700 1225 c S
408.332 1283.332 m 486.109 1361.109 505.555 1400 466.668 1400 c S
583.332 1341.668 m 661.109 1263.891 700 1244.445 700 1283.332 c S
641.668 1166.668 m 563.891 1088.891 544.445 1050 583.332 1050 c S
466.668 1108.332 m 388.891 1186.109 350 1205.555 350 1166.668 c S
408.332 1283.332 m 486.109 1361.109 525 1380.555 525 1341.668 c S
466.668 1108.332 m 388.891 1186.109 369.445 1225 408.332 1225 c S
583.332 1341.668 m 661.109 1263.891 680.555 1225 641.668 1225 c S
641.668 1166.668 m 563.891 1088.891 525 1069.445 525 1108.332 c S
350 933.332 m 388.891 933.332 388.891 913.891 350 875 c S
583.332 1050 m 583.332 1011.109 563.891 1011.109 525 1050 c S
700 816.668 m 661.109 816.668 661.109 836.109 700 875 c S
466.668 700 m 466.668 738.891 486.109 738.891 525 700 c S
408.332 875 m 408.332 913.891 388.891 913.891 350 875 c S
525 758.332 m 486.109 758.332 486.109 738.891 525 700 c S
525 991.668 m 563.891 991.668 563.891 1011.109 525 1050 c S
641.668 875 m 641.668 836.109 661.109 836.109 700 875 c S
408.332 933.332 m 486.109 1011.109 505.555 1050 466.668 1050 c S
583.332 991.668 m 661.109 913.891 700 894.445 700 933.332 c S
641.668 816.668 m 563.891 738.891 544.445 700 583.332 700 c S
466.668 758.332 m 388.891 836.109 350 855.555 350 816.668 c S
408.332 933.332 m 486.109 1011.109 525 1030.555 525 991.668 c S
466.668 758.332 m 388.891 836.109 369.445 875 408.332 875 c S
583.332 991.668 m 661.109 913.891 680.555 875 641.668 875 c S
641.668 816.668 m 563.891 738.891 525 719.445 525 758.332 c S
350 583.332 m 388.891 583.332 388.891 563.891 350 525 c S
583.332 700 m 583.332 661.109 563.891 661.109 525 700 c S
700 466.668 m 661.109 466.668 661.109 486.109 700 525 c S
466.668 350 m 466.668 388.891 486.109 388.891 525 350 c S
408.332 525 m 408.332 563.891 388.891 563.891 350 525 c S
525 408.332 m 486.109 408.332 486.109 388.891 525 350 c S
525 641.668 m 563.891 641.668 563.891 661.109 525 700 c S
641.668 525 m 641.668 486.109 661.109 486.109 700 525 c S
408.332 583.332 m 486.109 661.109 505.555 700 466.668 700 c S
583.332 641.668 m 661.109 563.891 700 544.445 700 583.332 c S
641.668 466.668 m 563.891 388.891 544.445 350 583.332 350 c S
466.668 408.332 m 388.891 486.109 350 505.555 350 466.668 c S
408.332 583.332 m 486.109 661.109 525 680.555 525 641.668 c S
466.668 408.332 m 388.891 486.109 369.445 525 408.332 525 c S
583.332 641.668 m 661.109 563.891 680.555 525 641.668 525 c S
641.668 466.668 m 563.891 388.891 525 369.445 525 408.332 c S
350 233.332 m 388.891 233.332 388.891 213.891 350 175 c S
583.332 350 m 583.332 311.109 563.891 311.109 525 350 c S
700 116.668 m 661.109 116.668 661.109 136.109 700 175 c S
466.668 0 m 466.668 38.891 486.109 38.891 525 0 c S
408.332 175 m 408.332 213.891 388.891 213.891 350 175 c S
525 58.332 m 486.109 58.332 486.109 38.891 525 0 c S
525 291.668 m 563.891 291.668 563.891 311.109 525 350 c S
641.668 175 m 641.668 136.109 661.109 136.109 700 175 c S
408.332 233.332 m 486.109 311.109 505.555 350 466.668 350 c S
583.332 291.668 m 661.109 213.891 700 194.445 700 233.332 c S
641.668 116.668 m 563.891 38.891 544.445 0 583.332 0 c S
466.668 58.332 m 388.891 136.109 350 155.555 350 116.668 c S
408.332 233.332 m 486.109 311.109 525 330.555 525 291.668 c S
466.668 58.332 m 388.891 136.109 369.445 175 408.332 175 c S
583.332 291.668 m 661.109 213.891 680.555 175 641.668 175 c S
641.668 116.668 m 563.891 38.891 525 19.445 525 58.332 c S
700 1283.332 m 738.891 1283.332 738.891 1263.891 700 1225 c S
933.332 1400 m 933.332 1361.109 913.891 1361.109 875 1400 c S
1050 1166.668 m 1011.109 1166.668 1011.109 1186.109 1050 1225 c S
816.668 1050 m 816.668 1088.891 836.109 1088.891 875 1050 c S
758.332 1225 m 758.332 1263.891 738.891 1263.891 700 1225 c S
875 1108.332 m 836.109 1108.332 836.109 1088.891 875 1050 c S
875 1341.668 m 913.891 1341.668 913.891 1361.109 875 1400 c S
991.668 1225 m 991.668 1186.109 1011.109 1186.109 1050 1225 c S
758.332 1283.332 m 836.109 1361.109 855.555 1400 816.668 1400 c S
933.332 1341.668 m 1011.109 1263.891 1050 1244.445 1050 1283.332 c S
991.668 1166.668 m 913.891 1088.891 894.445 1050 933.332 1050 c S
816.668 1108.332 m 738.891 1186.109 700 1205.555 700 1166.668 c S
758.332 1283.332 m 836.109 1361.109 875 1380.555 875 1341.668 c S
816.668 1108.332 m 738.891 1186.109 719.445 1225 758.332 1225 c S
933.332 1341.668 m 1011.109 1263.891 1030.555 1225 991.668 1225 c S
991.668 1166.668 m 913.891 1088.891 875 1069.445 875 1108.332 c S
700 933.332 m 738.891 933.332 738.891 913.891 700 875 c S
933.332 1050 m 933.332 1011.109 913.891 1011.109 875 1050 c S
1050 816.668 m 1011.109 816.668 1011.109 836.109 1050 875 c S
816.668 700 m 816.668 738.891 836.109 738.891 875 700 c S
758.332 875 m 758.332 913.891 738.891 913.891 700 875 c S
875 758.332 m 836.109 758.332 836.109 738.891 875 700 c S
875 991.668 m 913.891 991.668 913.891 1011.109 875 1050 c S
991.668 875 m 991.668 836.109 1011.109 836.109 1050 875 c S
758.332 933.332 m 836.109 1011.109 855.555 1050 816.668 1050 c S
933.332 991.668 m 1011.109 913.891 1050 894.445 1050 933.332 c S
991.668 816.668 m 913.891 738.891 894.445 700 933.332 700 c S
816.668 758.332 m 738.891 836.109 700 855.555 700 816.668 c S
758.332 933.332 m 836.109 1011.109 875 1030.555 875 991.668 c S
816.668 758.332 m 738.891 836.109 719.445 875 758.332 875 c S
933.332 991.668 m 1011.109 913.891 1030.555 875 991.668 875 c S
991.668 816.668 m 913.891 738.891 875 719.445 875 758.332 c S
700 583.332 m 738.891 583.332 738.891 563.891 700 525 c S
933.332 700 m 933.332 661.109 913.891 661.109 875 700 c S
1050 466.668 m 1011.109 466.668 1011.109 486.109 1050 525 c S
816.668 350 m 816.668 388.891 836.109 388.891 875 350 c S
758.332 525 m 758.332 563.891 738.891 563.891 700 525 c S
875 408.332 m 836.109 408.332 836.109 388.891 875 350 c S
875 641.668 m 913.891 641.668 913.891 661.109 875 700 c S
991.668 525 m 991.668 486.109 1011.109 486.109 1050 525 c S
758.332 583.332 m 836.109 661.109 855.555 700 816.668 700 c S
933.332 641.668 m 1011.109 563.891 1050 544.445 1050 583.332 c S
991.668 466.668 m 913.891 388.891 894.445 350 933.332 350 c S
816.668 408.332 m 738.891 486.109 700 505.555 700 466.668 c S
758.332 583.332 m 836.109 661.109 875 680.555 875 641.668 c S
816.668 408.332 m 738.891 486.109 719.445 525 758.332 525 c S
933.332 641.668 m 1011.109 563.891 1030.555 525 991.668 525 c S
991.668 466.668 m 913.891 388.891 875 369.445 875 408.332 c S
700 233.332 m 738.891 233.332 738.891 213.891 700 175 c S
933.332 350 m 933.332 311.109 913.891 311.109 875 350 c S
1050 116.668 m 1011.109 116.668 1011.109 136.109 1050 175 c S
816.668 0 m 816.668 38.891 836.109 38.891 875 0 c S
758.332 175 m 758.332 213.891 738.891 213.891 700 175 c S
875 58.332 m 836.109 58.332 836.109 38.891 875 0 c S
875 291.668 m 913.891 291.668 913.891 311.109 875 350 c S
991.668 175 m 991.668 136.109 1011.109 136.109 1050 175 c S
758.332 233.332 m 836.109 311.109 855.555 350 816.668 350 c S
933.332 291.668 m 1011.109 213.891 1050 194.445 1050 233.332 c S
991.668 116.668 m 913.891 38.891 894.445 0 933.332 0 c S
816.668 58.332 m 738.891 136.109 700 155.555 700 116.668 c S
758.332 233.332 m 836.109 311.109 875 330.555 875 291.668 c S
816.668 58.332 m 738.891 136.109 719.445 175 758.332 175 c S
933.332 291.668 m 1011.109 213.891 1030.555 175 991.668 175 c S
991.668 116.668 m 913.891 38.891 875 19.445 875 58.332 c S
1050 1283.332 m 1088.891 1283.332 1088.891 1263.891 1050 1225 c S
1283.332 1400 m 1283.332 1361.109 1263.891 1361.109 1225 1400 c S
1400 1166.668 m 1361.109 1166.668 1361.109 1186.109 1400 1225 c S
1166.668 1050 m 1166.668 1088.891 1186.109 1088.891 1225 1050 c S
1108.332 1225 m 1108.332 1263.891 1088.891 1263.891 1050 1225 c S
1225 1108.332 m 1186.109 1108.332 1186.109 1088.891 1225 1050 c S
1225 1341.668 m 1263.891 1341.668 1263.891 1361.109 1225 1400 c S
1341.668 1225 m 1341.668 1186.109 1361.109 1186.109 1400 1225 c S
1108.332 1283.332 m 1186.109 1361.109 1205.555 1400 1166.668 1400 c S
1283.332 1341.668 m 1361.109 1263.891 1400 1244.445 1400 1283.332 c S
1341.668 1166.668 m 1263.891 1088.891 1244.445 1050 1283.332 1050 c S
1166.668 1108.332 m 1088.891 1186.109 1050 1205.555 1050 1166.668 c S
1108.332 1283.332 m 1186.109 1361.109 1225 1380.555 1225 1341.668 c S
1166.668 1108.332 m 1088.891 1186.109 1069.445 1225 1108.332 1225 c S
1283.332 1341.668 m 1361.109 1263.891 1380.555 1225 1341.668 1225 c S
1341.668 1166.668 m 1263.891 1088.891 1225 1069.445 1225 1108.332 c S
1050 933.332 m 1088.891 933.332 1088.891 913.891 1050 875 c S
1283.332 1050 m 1283.332 1011.109 1263.891 1011.109 1225 1050 c S
1400 816.668 m 1361.109 816.668 1361.109 836.109 1400 875 c S
1166.668 700 m 1166.668 738.891 1186.109 738.891 1225 700 c S
1108.332 875 m 1108.332 913.891 1088.891 913.891 1050 875 c S
1225 758.332 m 1186.109 758.332 1186.109 738.891 1225 700 c S
1225 991.668 m 1263.891 991.668 1263.891 1011.109 1225 1050 c S
1341.668 875 m 1341.668 836.109 1361.109 836.109 1400 875 c S
1108.332 933.332 m 1186.109 1011.109 1205.555 1050 1166.668 1050 c S
1283.332 991.668 m 1361.109 913.891 1400 894.445 1400 933.332 c S
1341.668 816.668 m 1263.891 738.891 1244.445 700 1283.332 700 c S
1166.668 758.332 m 1088.891 836.109 1050 855.555 1050 816.668 c S
1108.332 933.332 m 1186.109 1011.109 1225 1030.555 1225 991.668 c S
1166.668 758.332 m 1088.891 836.109 1069.445 875 1108.332 875 c S
1283.332 991.668 m 1361.109 913.891 1380.555 875 1341.668 875 c S
1341.668 816.668 m 1263.891 738.891 1225 719.445 1225 758.332 c S
1050 583.332 m 1088.891 583.332 1088.891 563.891 1050 525 c S
1283.332 700 m 1283.332 661.109 1263.891 661.109 1225 700 c S
1400 466.668 m 1361.109 466.668 1361.109 486.109 1400 525 c S
1166.668 350 m 1166.668 388.891 1186.109 388.891 1225 350 c S
1108.332 525 m 1108.332 563.891 1088.891 563.891 1050 525 c S
1225 408.332 m 1186.109 408.332 1186.109 388.891 1225 350 c S
1225 641.668 m 1263.891 641.668 1263.891 661.109 1225 700 c S
1341.668 525 m 1341.668 486.109 1361.109 486.109 1400 525 c S
1108.332 583.332 m 1186.109 661.109 1205.555 700 1166.668 700 c S
1283.332 641.668 m 1361.109 563.891 1400 544.445 1400 583.332 c S
1341.668 466.668 m 1263.891 388.891 1244.445 350 1283.332 350 c S
1166.668 408.332 m 1088.891 486.109 1050 505.555 1050 466.668 c S
1108.332 583.332 m 1186.109 661.109 1225 680.555 1225 641.668 c S
1166.668 408.332 m 1088.891 486.109 1069.445 525 1108.332 525 c S
1283.332 641.668 m 1361.109 563.891 1380.555 525 1341.668 525 c S
1341.668 466.668 m 1263.891 388.891 1225 369.445 1225 408.332 c S
1050 233.332 m 1088.891 233.332 1088.891 213.891 1050 175 c S
1283.332 350 m 1283.332 311.109 1263.891 311.109 1225 350 c S
1400 116.668 m 1361.109 116.668 1361.109 136.109 1400 175 c S
1166.668 0 m 1166.668 38.891 1186.109 38.891 1225 0 c S
1108.332 175 m 1108.332 213.891 1088.891 213.891 1050 175 c S
1225 58.332 m 1186.109 58.332 1186.109 38.891 1225 0 c S
1225 291.668 m 1263.891 291.668 1263.891 311.109 1225 350 c S
1341.668 175 m 1341.668 136.109 1361.109 136.109 1400 175 c S
1108.332 233.332 m 1186.109 311.109 1205.555 350 1166.668 350 c S
1283.332 291.668 m 1361.109 213.891 1400 194.445 1400 233.332 c S
1341.668 116.668 m 1263.891 38.891 1244.445 0 1283.332 0 c S
1166.668 58.332 m 1088.891 136.109 1050 155.555 1050 116.668 c S
1108.332 233.332 m 1186.109 311.109 1225 330.555 1225 291.668 c S
1166.668 58.332 m 1088.891 136.109 1069.445 175 1108.332 175 c S
1283.332 291.668 m 1361.109 213.891 1380.555 175 1341.668 175 c S
1341.668 116.668 m 1263.891 38.891 1225 19.445 1225 58.332 c S
1400 1283.332 m 1438.891 1283.332 1438.891 1263.891 1400 1225 c S
1633.332 1400 m 1633.332 1361.109 1613.891 1361.109 1575 1400 c S
1750 1166.668 m 1711.109 1166.668 1711.109 1186.109 1750 1225 c S
1516.668 1050 m 1516.668 1088.891 1536.109 1088.891 1575 1050 c S
1458.332 1225 m 1458.332 1263.891 1438.891 1263.891 1400 1225 c S
1575 1108.332 m 1536.109 1108.332 1536.109 1088.891 1575 1050 c S
1575 1341.668 m 1613.891 1341.668 1613.891 1361.109 1575 1400 c S
1691.668 1225 m 1691.668 1186.109 1711.109 1186.109 1750 1225 c S
1458.332 1283.332 m 1536.109 1361.109 1555.555 1400 1516.668 1400 c S
1633.332 1341.668 m 1711.109 1263.891 1750 1244.445 1750 1283.332 c S
1691.668 1166.668 m 1613.891 1088.891 1594.445 1050 1633.332 1050 c S
1516.668 1108.332 m 1438.891 1186.109 1400 1205.555 1400 1166.668 c S
1458.332 1283.332 m 1536.109 1361.109 1575 1380.555 1575 1341.668 c S
1516.668 1108.332 m 1438.891 1186.109 1419.445 1225 1458.332 1225 c S
1633.332 1341.668 m 1711.109 1263.891 1730.555 1225 1691.668 1225 c S
1691.668 1166.668 m 1613.891 1088.891 1575 1069.445 1575 1108.332 c S
1400 933.332 m 1438.891 933.332 1438.891 913.891 1400 875 c S
1633.332 1050 m 1633.332 1011.109 1613.891 1011.109 1575 1050 c S
1750 816.668 m 1711.109 816.668 1711.109 836.109 1750 875 c S
1516.668 700 m 1516.668 738.891 1536.109 738.891 1575 700 c S
1458.332 875 m 1458.332 913.891 1438.891 913.891 1400 875 c S
1575 758.332 m 1536.109 758.332 1536.109 738.891 1575 700 c S
1575 991.668 m 1613.891 991.668 1613.891 1011.109 1575 1050 c S
1691.668 875 m 1691.668 836.109 1711.109 836.109 1750 875 c S
1458.332 933.332 m 1536.109 1011.109 1555.555 1050 1516.668 1050 c S
1633.332 991.668 m 1711.109 913.891 1750 894.445 1750 933.332 c S
1691.668 816.668 m 1613.891 738.891 1594.445 700 1633.332 700 c S
1516.668 758.332 m 1438.891 836.109 1400 855.555 1400 816.668 c S
1458.332 933.332 m 1536.109 1011.109 1575 1030.555 1575 991.668 c S
1516.668 758.332 m 1438.891 836.109 1419.445 875 1458.332 875 c S
1633.332 991.668 m 1711.109 913.891 1730.555 875 1691.668 875 c S
1691.668 816.668 m 1613.891 738.891 1575 719.445 1575 758.332 c S
1400 583.332 m 1438.891 583.332 1438.891 563.891 1400 525 c S
1633.332 700 m 1633.332 661.109 1613.891 661.109 1575 700 c S
1750 466.668 m 1711.109 466.668 1711.109 486.109 1750 525 c S
1516.668 350 m 1516.668 388.891 1536.109 388.891 1575 350 c S
1458.332 525 m 1458.332 563.891 1438.891 563.891 1400 525 c S
1575 408.332 m 1536.109 408.332 1536.109 388.891 1575 350 c S
1575 641.668 m 1613.891 641.668 1613.891 661.109 1575 700 c S
1691.668 525 m 1691.668 486.109 1711.109 486.109 1750 525 c S
1458.332 583.332 m 1536.109 661.109 1555.555 700 1516.668 700 c S
1633.332 641.668 m 1711.109 563.891 1750 544.445 1750 583.332 c S
1691.668 466.668 m 1613.891 388.891 1594.445 350 1633.332 350 c S
1516.668 408.332 m 1438.891 486.109 1400 505.555 1400 466.668 c S
1458.332 583.332 m 1536.109 661.109 1575 680.555 1575 641.668 c S
1516.668 408.332 m 1438.891 486.109 1419.445 525 1458.332 525 c S
1633.332 641.668 m 1711.109 563.891 1730.555 525 1691.668 525 c S
1691.668 466.668 m 1613.891 388.891 1575 369.445 1575 408.332 c S
1400 233.332 m 1438.891 233.332 1438.891 213.891 1400 175 c S
1633.332 350 m 1633.332 311.109 1613.891 311.109 1575 350 c S
1750 116.668 m 1711.109 116.668 1711.109 136.109 1750 175 c S
1516.668 0 m 1516.668 38.891 1536.109 38.891 1575 0 c S
1458.332 175 m 1458.332 213.891 1438.891 213.891 1400 175 c S
1575 58.332 m 1536.109 58.332 1536.109 38.891 1575 0 c S
1575 291.668 m 1613.891 291.668 1613.891 311.109 1575 350 c S
1691.668 175 m 1691.668 136.109 1711.109 136.109 1750 175 c S
1458.332 233.332 m 1536.109 311.109 1555.555 350 1516.668 350 c S
1633.332 291.668 m 1711.109 213.891 1750 194.445 1750 233.332 c S
1691.668 116.668 m 1613.891 38.891 1594.445 0 1633.332 0 c S
1516.668 58.332 m 1438.891 136.109 1400 155.555 1400 116.668 c S
1458.332 233.332 m 1536.109 311.109 1575 330.555 1575 291.668 c S
1516.668 58.332 m 1438.891 136.109 1419.445 175 1458.332 175 c S
1633.332 291.668 m 1711.109 213.891 1730.555 175 1691.668 175 c S
1691.668 116.668 m 1613.891 38.891 1575 19.445 1575 58.332 c S
1750 1283.332 m 1788.891 1283.332 1788.891 1263.891 1750 1225 c S
1983.332 1400 m 1983.332 1361.109 1963.891 1361.109 1925 1400 c S
2100 1166.668 m 2061.109 1166.668 2061.109 1186.109 2100 1225 c S
1866.668 1050 m 1866.668 1088.891 1886.109 1088.891 1925 1050 c S
1808.332 1225 m 1808.332 1263.891 1788.891 1263.891 1750 1225 c S
1925 1108.332 m 1886.109 1108.332 1886.109 1088.891 1925 1050 c S
1925 1341.668 m 1963.891 1341.668 1963.891 1361.109 1925 1400 c S
2041.668 1225 m 2041.668 1186.109 2061.109 1186.109 2100 1225 c S
1808.332 1283.332 m 1886.109 1361.109 1905.555 1400 1866.668 1400 c S
1983.332 1341.668 m 2061.109 1263.891 2100 1244.445 2100 1283.332 c S
2041.668 1166.668 m 1963.891 1088.891 1944.445 1050 1983.332 1050 c S
1866.668 1108.332 m 1788.891 1186.109 1750 1205.555 1750 1166.668 c S
1808.332 1283.332 m 1886.109 1361.109 1925 1380.555 1925 1341.668 c S
1866.668 1108.332 m 1788.891 1186.109 1769.445 1225 1808.332 1225 c S
1983.332 1341.668 m 2061.109 1263.891 2080.555 1225 2041.668 1225 c S
2041.668 1166.668 m 1963.891 1088.891 1925 1069.445 1925 1108.332 c S
1750 933.332 m 1788.891 933.332 1788.891 913.891 1750 875 c S
1983.332 1050 m 1983.332 1011.109 1963.891 1011.109 1925 1050 c S
2100 816.668 m 2061.109 816.668 2061.109 836.109 2100 875 c S
1866.668 700 m 1866.668 738.891 1886.109 738.891 1925 700 c S
1808.332 875 m 1808.332 913.891 1788.891 913.891 1750 875 c S
1925 758.332 m 1886.109 758.332 1886.109 738.891 1925 700 c S
1925 991.668 m 1963.891 991.668 1963.891 1011.109 1925 1050 c S
2041.668 875 m 2041.668 836.109 2061.109 836.109 2100 875 c S
1808.332 933.332 m 1886.109 1011.109 1905.555 1050 1866.668 1050 c S
1983.332 991.668 m 2061.109 913.891 2100 894.445 2100 933.332 c S
2041.668 816.668 m 1963.891 738.891 1944.445 700 1983.332 700 c S
1866.668 758.332 m 1788.891 836.109 1750 855.555 1750 816.668 c S
1808.332 933.332 m 1886.109 1011.109 1925 1030.555 1925 991.668 c S
1866.668 758.332 m 1788.891 836.109 1769.445 875 1808.332 875 c S
1983.332 991.668 m 2061.109 913.891 2080.555 875 2041.668 875 c S
2041.668 816.668 m 1963.891 738.891 1925 719.445 1925 758.332 c S
1750 583.332 m 1788.891 583.332 1788.891 563.891 1750 525 c S
1983.332 700 m 1983.332 661.109 1963.891 661.109 1925 700 c S
2100 466.668 m 2061.109 466.668 2061.109 486.109 2100 525 c S
1866.668 350 m 1866.668 388.891 1886.109 388.891 1925 350 c S
1808.332 525 m 1808.332 563.891 1788.891 563.891 1750 525 c S
1925 408.332 m 1886.109 408.332 1886.109 388.891 1925 350 c S
1925 641.668 m 1963.891 641.668 1963.891 661.109 1925 700 c S
2041.668 525 m 2041.668 486.109 2061.109 486.109 2100 525 c S
1808.332 583.332 m 1886.109 661.109 1905.555 700 1866.668 700 c S
1983.332 641.668 m 2061.109 563.891 2100 544.445 2100 583.332 c S
2041.668 466.668 m 1963.891 388.891 1944.445 350 1983.332 350 c S
1866.668 408.332 m 1788.891 486.109 1750 505.555 1750 466.668 c S
1808.332 583.332 m 1886.109 661.109 1925 680.555 1925 641.668 c S
1866.668 408.332 m 1788.891 486.109 1769.445 525 1808.332 525 c S
1983.332 641.668 m 2061.109 563.891 2080.555 525 2041.668 525 c S
2041.668 466.668 m 1963.891 388.891 1925 369.445 1925 408.332 c S
1750 233.332 m 1788.891 233.332 1788.891 213.891 1750 175 c S
1983.332 350 m 1983.332 311.109 1963.891 311.109 1925 350 c S
2100 116.668 m 2061.109 116.668 2061.109 136.109 2100 175 c S
1866.668 0 m 1866.668 38.891 1886.109 38.891 1925 0 c S
1808.332 175 m 1808.332 213.891 1788.891 213.891 1750 175 c S
1925 58.332 m 1886.109 58.332 1886.109 38.891 1925 0 c S
1925 291.668 m 1963.891 291.668 1963.891 311.109 1925 350 c S
2041.668 175 m 2041.668 136.109 2061.109 136.109 2100 175 c S
1808.332 233.332 m 1886.109 311.109 1905.555 350 1866.668 350 c S
1983.332 291.668 m 2061.109 213.891 2100 194.445 2100 233.332 c S
2041.668 116.668 m 1963.891 38.891 1944.445 0 1983.332 0 c S
1866.668 58.332 m 1788.891 136.109 1750 155.555 1750 116.668 c S
1808.332 233.332 m 1886.109 311.109 1925 330.555 1925 291.668 c S
1866.668 58.332 m 1788.891 136.109 1769.445 175 1808.332 175 c S
1983.332 291.668 m 2061.109 213.891 2080.555 175 2041.668 175 c S
2041.668 116.668 m 1963.891 38.891 1925 19.445 1925 58.332 c S
Q Q
showpage
%%Trailer
%%Trailer
cleartomark
countdictstack
exch sub { end } repeat
restore
%%EOF
