<svg xmlns="http://www.w3.org/2000/svg" baseProfile="full" width="2100" height="1400" viewBox="-175.0 -175.0 2100.0 1400.0">
    <title>
        Pattern design from http://ornamentist.org
    </title>
    <desc>
        This file is licensed under a Creative Commons CC BY 4.0 license: http://creativecommons.org/licenses/by/4.0/
    </desc>
    <defs>
        <style>
<![CDATA[
        
polyline {
  fill:            none;
  stroke:          black;
  stroke-linecap:  round;
  stroke-linejoin: round;
  stroke-width:    2.0pt;
}


polyline.closed {
  fill:      #d9d9d9;
  fill-rule: evenodd;
}


polygon {
  fill:            #d9d9d9;
  fill-rule:       evenodd;
  stroke:          black;
  stroke-linejoin: round;
  stroke-width:    2.0pt;
}


circle {
  fill:         #d9d9d9;
  stroke:       black;
  stroke-width: 2.0pt;
}


ellipse {
  fill:         #d9d9d9;
  stroke:       black;
  stroke-width: 2.0pt;
}


path {
  fill:            none;
  stroke:          black;
  stroke-linecap:  round;
  stroke-linejoin: round;
  stroke-width:    2.0pt;
}


path.closed {
  fill:      #d9d9d9;
  fill-rule: evenodd;
}


polygon.background,
path.background
{
  fill:   #fbfbfb;
  stroke: #c9c9c9;
  stroke-width: 1.5pt;
}

        ]]>
        </style>
    </defs>
    <clipPath id="design">
        <path d="M-175-175h2100v1400H-175z"/>
    </clipPath>
    <g clip-path="url(#design)" color-rendering="optimizeQuality" shape-rendering="geometricPrecision" id="graphics">
        <path class="background closed" d="M1925-175v1400H-175V-175z"/>
        <path d="M-175-58.333q58.333 0 0 58.333M58.333-175q0 58.333-58.333 0M175 58.333q-58.333 0 0-58.333M-58.333 175q0-58.333 58.333 0M-116.667 0q0-58.333-58.333 0M0 116.667q-58.333 0 0 58.333M0-116.667q58.333 0 0-58.333M116.667 0q0 58.333 58.333 0" class="bezier-2-1 open"/>
        <path d="M-116.667-58.333Q0-175-58.333-175M58.333-116.667Q175 0 175-58.333M116.667 58.333Q0 175 58.333 175M-58.333 116.667Q-175 0-175 58.333M-116.667-58.333Q0-175 0-116.667M-58.333 116.667Q-175 0-116.667 0M58.333-116.667Q175 0 116.667 0M116.667 58.333Q0 175 0 116.667" class="bezier-2-2 open"/>
        <path d="M-175 291.667q58.333 0 0 58.333M58.333 175q0 58.333-58.333 0M175 408.333q-58.333 0 0-58.333M-58.333 525q0-58.333 58.333 0M-116.667 350q0-58.333-58.333 0M0 466.667q-58.333 0 0 58.333M0 233.333q58.333 0 0-58.333M116.667 350q0 58.333 58.333 0" class="bezier-2-1 open"/>
        <path d="M-116.667 291.667Q0 175-58.333 175M58.333 233.333Q175 350 175 291.667M116.667 408.333Q0 525 58.333 525M-58.333 466.667Q-175 350-175 408.333M-116.667 291.667Q0 175 0 233.333M-58.333 466.667Q-175 350-116.667 350M58.333 233.333Q175 350 116.667 350M116.667 408.333Q0 525 0 466.667" class="bezier-2-2 open"/>
        <path d="M-175 641.667q58.333 0 0 58.333M58.333 525q0 58.333-58.333 0M175 758.333q-58.333 0 0-58.333M-58.333 875q0-58.333 58.333 0M-116.667 700q0-58.333-58.333 0M0 816.667q-58.333 0 0 58.333M0 583.333q58.333 0 0-58.333M116.667 700q0 58.333 58.333 0" class="bezier-2-1 open"/>
        <path d="M-116.667 641.667Q0 525-58.333 525M58.333 583.333Q175 700 175 641.667M116.667 758.333Q0 875 58.333 875M-58.333 816.667Q-175 700-175 758.333M-116.667 641.667Q0 525 0 583.333M-58.333 816.667Q-175 700-116.667 700M58.333 583.333Q175 700 116.667 700M116.667 758.333Q0 875 0 816.667" class="bezier-2-2 open"/>
        <path d="M-175 991.667q58.333 0 0 58.333M58.333 875q0 58.333-58.333 0M175 1108.333q-58.333 0 0-58.333M-58.333 1225q0-58.333 58.333 0M-116.667 1050q0-58.333-58.333 0M0 1166.667q-58.333 0 0 58.333M0 933.333q58.333 0 0-58.333M116.667 1050q0 58.333 58.333 0" class="bezier-2-1 open"/>
        <path d="M-116.667 991.667Q0 875-58.333 875M58.333 933.333Q175 1050 175 991.667M116.667 1108.333Q0 1225 58.333 1225M-58.333 1166.667Q-175 1050-175 1108.333M-116.667 991.667Q0 875 0 933.333M-58.333 1166.667Q-175 1050-116.667 1050M58.333 933.333Q175 1050 116.667 1050M116.667 1108.333Q0 1225 0 1166.667" class="bezier-2-2 open"/>
        <path d="M175-58.333q58.333 0 0 58.333M408.333-175q0 58.333-58.333 0M525 58.333q-58.333 0 0-58.333M291.667 175q0-58.333 58.333 0M233.333 0q0-58.333-58.333 0M350 116.667q-58.333 0 0 58.333M350-116.667q58.333 0 0-58.333M466.667 0q0 58.333 58.333 0" class="bezier-2-1 open"/>
        <path d="M233.333-58.333Q350-175 291.667-175M408.333-116.667Q525 0 525-58.333M466.667 58.333Q350 175 408.333 175M291.667 116.667Q175 0 175 58.333M233.333-58.333Q350-175 350-116.667M291.667 116.667Q175 0 233.333 0M408.333-116.667Q525 0 466.667 0M466.667 58.333Q350 175 350 116.667" class="bezier-2-2 open"/>
        <path d="M175 291.667q58.333 0 0 58.333M408.333 175q0 58.333-58.333 0M525 408.333q-58.333 0 0-58.333M291.667 525q0-58.333 58.333 0M233.333 350q0-58.333-58.333 0M350 466.667q-58.333 0 0 58.333M350 233.333q58.333 0 0-58.333M466.667 350q0 58.333 58.333 0" class="bezier-2-1 open"/>
        <path d="M233.333 291.667Q350 175 291.667 175M408.333 233.333Q525 350 525 291.667M466.667 408.333Q350 525 408.333 525M291.667 466.667Q175 350 175 408.333M233.333 291.667Q350 175 350 233.333M291.667 466.667Q175 350 233.333 350M408.333 233.333Q525 350 466.667 350M466.667 408.333Q350 525 350 466.667" class="bezier-2-2 open"/>
        <path d="M175 641.667q58.333 0 0 58.333M408.333 525q0 58.333-58.333 0M525 758.333q-58.333 0 0-58.333M291.667 875q0-58.333 58.333 0M233.333 700q0-58.333-58.333 0M350 816.667q-58.333 0 0 58.333M350 583.333q58.333 0 0-58.333M466.667 700q0 58.333 58.333 0" class="bezier-2-1 open"/>
        <path d="M233.333 641.667Q350 525 291.667 525M408.333 583.333Q525 700 525 641.667M466.667 758.333Q350 875 408.333 875M291.667 816.667Q175 700 175 758.333M233.333 641.667Q350 525 350 583.333M291.667 816.667Q175 700 233.333 700M408.333 583.333Q525 700 466.667 700M466.667 758.333Q350 875 350 816.667" class="bezier-2-2 open"/>
        <path d="M175 991.667q58.333 0 0 58.333M408.333 875q0 58.333-58.333 0M525 1108.333q-58.333 0 0-58.333M291.667 1225q0-58.333 58.333 0M233.333 1050q0-58.333-58.333 0M350 1166.667q-58.333 0 0 58.333M350 933.333q58.333 0 0-58.333M466.667 1050q0 58.333 58.333 0" class="bezier-2-1 open"/>
        <path d="M233.333 991.667Q350 875 291.667 875M408.333 933.333Q525 1050 525 991.667M466.667 1108.333Q350 1225 408.333 1225M291.667 1166.667Q175 1050 175 1108.333M233.333 991.667Q350 875 350 933.333M291.667 1166.667Q175 1050 233.333 1050M408.333 933.333Q525 1050 466.667 1050M466.667 1108.333Q350 1225 350 1166.667" class="bezier-2-2 open"/>
        <path d="M525-58.333q58.333 0 0 58.333M758.333-175q0 58.333-58.333 0M875 58.333q-58.333 0 0-58.333M641.667 175q0-58.333 58.333 0M583.333 0q0-58.333-58.333 0M700 116.667q-58.333 0 0 58.333M700-116.667q58.333 0 0-58.333M816.667 0q0 58.333 58.333 0" class="bezier-2-1 open"/>
        <path d="M583.333-58.333Q700-175 641.667-175M758.333-116.667Q875 0 875-58.333M816.667 58.333Q700 175 758.333 175M641.667 116.667Q525 0 525 58.333M583.333-58.333Q700-175 700-116.667M641.667 116.667Q525 0 583.333 0M758.333-116.667Q875 0 816.667 0M816.667 58.333Q700 175 700 116.667" class="bezier-2-2 open"/>
        <path d="M525 291.667q58.333 0 0 58.333M758.333 175q0 58.333-58.333 0M875 408.333q-58.333 0 0-58.333M641.667 525q0-58.333 58.333 0M583.333 350q0-58.333-58.333 0M700 466.667q-58.333 0 0 58.333M700 233.333q58.333 0 0-58.333M816.667 350q0 58.333 58.333 0" class="bezier-2-1 open"/>
        <path d="M583.333 291.667Q700 175 641.667 175M758.333 233.333Q875 350 875 291.667M816.667 408.333Q700 525 758.333 525M641.667 466.667Q525 350 525 408.333M583.333 291.667Q700 175 700 233.333M641.667 466.667Q525 350 583.333 350M758.333 233.333Q875 350 816.667 350M816.667 408.333Q700 525 700 466.667" class="bezier-2-2 open"/>
        <path d="M525 641.667q58.333 0 0 58.333M758.333 525q0 58.333-58.333 0M875 758.333q-58.333 0 0-58.333M641.667 875q0-58.333 58.333 0M583.333 700q0-58.333-58.333 0M700 816.667q-58.333 0 0 58.333M700 583.333q58.333 0 0-58.333M816.667 700q0 58.333 58.333 0" class="bezier-2-1 open"/>
        <path d="M583.333 641.667Q700 525 641.667 525M758.333 583.333Q875 700 875 641.667M816.667 758.333Q700 875 758.333 875M641.667 816.667Q525 700 525 758.333M583.333 641.667Q700 525 700 583.333M641.667 816.667Q525 700 583.333 700M758.333 583.333Q875 700 816.667 700M816.667 758.333Q700 875 700 816.667" class="bezier-2-2 open"/>
        <path d="M525 991.667q58.333 0 0 58.333M758.333 875q0 58.333-58.333 0M875 1108.333q-58.333 0 0-58.333M641.667 1225q0-58.333 58.333 0M583.333 1050q0-58.333-58.333 0M700 1166.667q-58.333 0 0 58.333M700 933.333q58.333 0 0-58.333M816.667 1050q0 58.333 58.333 0" class="bezier-2-1 open"/>
        <path d="M583.333 991.667Q700 875 641.667 875M758.333 933.333Q875 1050 875 991.667M816.667 1108.333Q700 1225 758.333 1225M641.667 1166.667Q525 1050 525 1108.333M583.333 991.667Q700 875 700 933.333M641.667 1166.667Q525 1050 583.333 1050M758.333 933.333Q875 1050 816.667 1050M816.667 1108.333Q700 1225 700 1166.667" class="bezier-2-2 open"/>
        <path d="M875-58.333q58.333 0 0 58.333M1108.333-175q0 58.333-58.333 0M1225 58.333q-58.333 0 0-58.333M991.667 175q0-58.333 58.333 0M933.333 0q0-58.333-58.333 0M1050 116.667q-58.333 0 0 58.333M1050-116.667q58.333 0 0-58.333M1166.667 0q0 58.333 58.333 0" class="bezier-2-1 open"/>
        <path d="M933.333-58.333Q1050-175 991.667-175M1108.333-116.667Q1225 0 1225-58.333M1166.667 58.333Q1050 175 1108.333 175M991.667 116.667Q875 0 875 58.333M933.333-58.333Q1050-175 1050-116.667M991.667 116.667Q875 0 933.333 0M1108.333-116.667Q1225 0 1166.667 0M1166.667 58.333Q1050 175 1050 116.667" class="bezier-2-2 open"/>
        <path d="M875 291.667q58.333 0 0 58.333M1108.333 175q0 58.333-58.333 0M1225 408.333q-58.333 0 0-58.333M991.667 525q0-58.333 58.333 0M933.333 350q0-58.333-58.333 0M1050 466.667q-58.333 0 0 58.333M1050 233.333q58.333 0 0-58.333M1166.667 350q0 58.333 58.333 0" class="bezier-2-1 open"/>
        <path d="M933.333 291.667Q1050 175 991.667 175M1108.333 233.333Q1225 350 1225 291.667M1166.667 408.333Q1050 525 1108.333 525M991.667 466.667Q875 350 875 408.333M933.333 291.667Q1050 175 1050 233.333M991.667 466.667Q875 350 933.333 350M1108.333 233.333Q1225 350 1166.667 350M1166.667 408.333Q1050 525 1050 466.667" class="bezier-2-2 open"/>
        <path d="M875 641.667q58.333 0 0 58.333M1108.333 525q0 58.333-58.333 0M1225 758.333q-58.333 0 0-58.333M991.667 875q0-58.333 58.333 0M933.333 700q0-58.333-58.333 0M1050 816.667q-58.333 0 0 58.333M1050 583.333q58.333 0 0-58.333M1166.667 700q0 58.333 58.333 0" class="bezier-2-1 open"/>
        <path d="M933.333 641.667Q1050 525 991.667 525M1108.333 583.333Q1225 700 1225 641.667M1166.667 758.333Q1050 875 1108.333 875M991.667 816.667Q875 700 875 758.333M933.333 641.667Q1050 525 1050 583.333M991.667 816.667Q875 700 933.333 700M1108.333 583.333Q1225 700 1166.667 700M1166.667 758.333Q1050 875 1050 816.667" class="bezier-2-2 open"/>
        <path d="M875 991.667q58.333 0 0 58.333M1108.333 875q0 58.333-58.333 0M1225 1108.333q-58.333 0 0-58.333M991.667 1225q0-58.333 58.333 0M933.333 1050q0-58.333-58.333 0M1050 1166.667q-58.333 0 0 58.333M1050 933.333q58.333 0 0-58.333M1166.667 1050q0 58.333 58.333 0" class="bezier-2-1 open"/>
        <path d="M933.333 991.667Q1050 875 991.667 875M1108.333 933.333Q1225 1050 1225 991.667M1166.667 1108.333Q1050 1225 1108.333 1225M991.667 1166.667Q875 1050 875 1108.333M933.333 991.667Q1050 875 1050 933.333M991.667 1166.667Q875 1050 933.333 1050M1108.333 933.333Q1225 1050 1166.667 1050M1166.667 1108.333Q1050 1225 1050 1166.667" class="bezier-2-2 open"/>
        <path d="M1225-58.333q58.333 0 0 58.333M1458.333-175q0 58.333-58.333 0M1575 58.333q-58.333 0 0-58.333M1341.667 175q0-58.333 58.333 0M1283.333 0q0-58.333-58.333 0M1400 116.667q-58.333 0 0 58.333M1400-116.667q58.333 0 0-58.333M1516.667 0q0 58.333 58.333 0" class="bezier-2-1 open"/>
        <path d="M1283.333-58.333Q1400-175 1341.667-175M1458.333-116.667Q1575 0 1575-58.333M1516.667 58.333Q1400 175 1458.333 175M1341.667 116.667Q1225 0 1225 58.333M1283.333-58.333Q1400-175 1400-116.667M1341.667 116.667Q1225 0 1283.333 0M1458.333-116.667Q1575 0 1516.667 0M1516.667 58.333Q1400 175 1400 116.667" class="bezier-2-2 open"/>
        <path d="M1225 291.667q58.333 0 0 58.333M1458.333 175q0 58.333-58.333 0M1575 408.333q-58.333 0 0-58.333M1341.667 525q0-58.333 58.333 0M1283.333 350q0-58.333-58.333 0M1400 466.667q-58.333 0 0 58.333M1400 233.333q58.333 0 0-58.333M1516.667 350q0 58.333 58.333 0" class="bezier-2-1 open"/>
        <path d="M1283.333 291.667Q1400 175 1341.667 175M1458.333 233.333Q1575 350 1575 291.667M1516.667 408.333Q1400 525 1458.333 525M1341.667 466.667Q1225 350 1225 408.333M1283.333 291.667Q1400 175 1400 233.333M1341.667 466.667Q1225 350 1283.333 350M1458.333 233.333Q1575 350 1516.667 350M1516.667 408.333Q1400 525 1400 466.667" class="bezier-2-2 open"/>
        <path d="M1225 641.667q58.333 0 0 58.333M1458.333 525q0 58.333-58.333 0M1575 758.333q-58.333 0 0-58.333M1341.667 875q0-58.333 58.333 0M1283.333 700q0-58.333-58.333 0M1400 816.667q-58.333 0 0 58.333M1400 583.333q58.333 0 0-58.333M1516.667 700q0 58.333 58.333 0" class="bezier-2-1 open"/>
        <path d="M1283.333 641.667Q1400 525 1341.667 525M1458.333 583.333Q1575 700 1575 641.667M1516.667 758.333Q1400 875 1458.333 875M1341.667 816.667Q1225 700 1225 758.333M1283.333 641.667Q1400 525 1400 583.333M1341.667 816.667Q1225 700 1283.333 700M1458.333 583.333Q1575 700 1516.667 700M1516.667 758.333Q1400 875 1400 816.667" class="bezier-2-2 open"/>
        <path d="M1225 991.667q58.333 0 0 58.333M1458.333 875q0 58.333-58.333 0M1575 1108.333q-58.333 0 0-58.333M1341.667 1225q0-58.333 58.333 0M1283.333 1050q0-58.333-58.333 0M1400 1166.667q-58.333 0 0 58.333M1400 933.333q58.333 0 0-58.333M1516.667 1050q0 58.333 58.333 0" class="bezier-2-1 open"/>
        <path d="M1283.333 991.667Q1400 875 1341.667 875M1458.333 933.333Q1575 1050 1575 991.667M1516.667 1108.333Q1400 1225 1458.333 1225M1341.667 1166.667Q1225 1050 1225 1108.333M1283.333 991.667Q1400 875 1400 933.333M1341.667 1166.667Q1225 1050 1283.333 1050M1458.333 933.333Q1575 1050 1516.667 1050M1516.667 1108.333Q1400 1225 1400 1166.667" class="bezier-2-2 open"/>
        <path d="M1575-58.333q58.333 0 0 58.333M1808.333-175q0 58.333-58.333 0M1925 58.333q-58.333 0 0-58.333M1691.667 175q0-58.333 58.333 0M1633.333 0q0-58.333-58.333 0M1750 116.667q-58.333 0 0 58.333M1750-116.667q58.333 0 0-58.333M1866.667 0q0 58.333 58.333 0" class="bezier-2-1 open"/>
        <path d="M1633.333-58.333Q1750-175 1691.667-175M1808.333-116.667Q1925 0 1925-58.333M1866.667 58.333Q1750 175 1808.333 175M1691.667 116.667Q1575 0 1575 58.333M1633.333-58.333Q1750-175 1750-116.667M1691.667 116.667Q1575 0 1633.333 0M1808.333-116.667Q1925 0 1866.667 0M1866.667 58.333Q1750 175 1750 116.667" class="bezier-2-2 open"/>
        <path d="M1575 291.667q58.333 0 0 58.333M1808.333 175q0 58.333-58.333 0M1925 408.333q-58.333 0 0-58.333M1691.667 525q0-58.333 58.333 0M1633.333 350q0-58.333-58.333 0M1750 466.667q-58.333 0 0 58.333M1750 233.333q58.333 0 0-58.333M1866.667 350q0 58.333 58.333 0" class="bezier-2-1 open"/>
        <path d="M1633.333 291.667Q1750 175 1691.667 175M1808.333 233.333Q1925 350 1925 291.667M1866.667 408.333Q1750 525 1808.333 525M1691.667 466.667Q1575 350 1575 408.333M1633.333 291.667Q1750 175 1750 233.333M1691.667 466.667Q1575 350 1633.333 350M1808.333 233.333Q1925 350 1866.667 350M1866.667 408.333Q1750 525 1750 466.667" class="bezier-2-2 open"/>
        <path d="M1575 641.667q58.333 0 0 58.333M1808.333 525q0 58.333-58.333 0M1925 758.333q-58.333 0 0-58.333M1691.667 875q0-58.333 58.333 0M1633.333 700q0-58.333-58.333 0M1750 816.667q-58.333 0 0 58.333M1750 583.333q58.333 0 0-58.333M1866.667 700q0 58.333 58.333 0" class="bezier-2-1 open"/>
        <path d="M1633.333 641.667Q1750 525 1691.667 525M1808.333 583.333Q1925 700 1925 641.667M1866.667 758.333Q1750 875 1808.333 875M1691.667 816.667Q1575 700 1575 758.333M1633.333 641.667Q1750 525 1750 583.333M1691.667 816.667Q1575 700 1633.333 700M1808.333 583.333Q1925 700 1866.667 700M1866.667 758.333Q1750 875 1750 816.667" class="bezier-2-2 open"/>
        <path d="M1575 991.667q58.333 0 0 58.333M1808.333 875q0 58.333-58.333 0M1925 1108.333q-58.333 0 0-58.333M1691.667 1225q0-58.333 58.333 0M1633.333 1050q0-58.333-58.333 0M1750 1166.667q-58.333 0 0 58.333M1750 933.333q58.333 0 0-58.333M1866.667 1050q0 58.333 58.333 0" class="bezier-2-1 open"/>
        <path d="M1633.333 991.667Q1750 875 1691.667 875M1808.333 933.333Q1925 1050 1925 991.667M1866.667 1108.333Q1750 1225 1808.333 1225M1691.667 1166.667Q1575 1050 1575 1108.333M1633.333 991.667Q1750 875 1750 933.333M1691.667 1166.667Q1575 1050 1633.333 1050M1808.333 933.333Q1925 1050 1866.667 1050M1866.667 1108.333Q1750 1225 1750 1166.667" class="bezier-2-2 open"/>
    </g>
</svg>
