%!PS-Adobe-2.0 EPSF-2.0
%%BoundingBox: 0 0 2100 1400
%%HiResBoundingBox: 0.000000 0.000000 2100.000000 1400.000000
%%Creator: cairo 1.14.2 (http://cairographics.org)
%%CreationDate: Mon Sep  7 08:21:52 2015
%%DocumentData: Clean7Bit
%%LanguageLevel: 2
%%DocumentMedia: 741x494mm 2100 1400 0 () ()
%%EndComments
% EPSF created by ps2eps 1.68
%%BeginProlog
save
countdictstack
mark
newpath
/showpage {} def
/setpagedevice {pop} def
%%EndProlog
%%Page 1 1
%%BeginProlog
/languagelevel where
{ pop languagelevel } { 1 } ifelse
2 lt { /Helvetica findfont 12 scalefont setfont 50 500 moveto
  (This print job requires a PostScript Language Level 2 printer.) show
  showpage quit } if
/q { gsave } bind def
/Q { grestore } bind def
/cm { 6 array astore concat } bind def
/w { setlinewidth } bind def
/J { setlinecap } bind def
/j { setlinejoin } bind def
/M { setmiterlimit } bind def
/d { setdash } bind def
/m { moveto } bind def
/l { lineto } bind def
/c { curveto } bind def
/h { closepath } bind def
/re { exch dup neg 3 1 roll 5 3 roll moveto 0 rlineto
      0 exch rlineto 0 rlineto closepath } bind def
/S { stroke } bind def
/f { fill } bind def
/f* { eofill } bind def
/n { newpath } bind def
/W { clip } bind def
/W* { eoclip } bind def
/BT { } bind def
/ET { } bind def
/pdfmark where { pop globaldict /?pdfmark /exec load put }
    { globaldict begin /?pdfmark /pop load def /pdfmark
    /cleartomark load def end } ifelse
/BDC { mark 3 1 roll /BDC pdfmark } bind def
/EMC { mark /EMC pdfmark } bind def
/cairo_store_point { /cairo_point_y exch def /cairo_point_x exch def } def
/Tj { show currentpoint cairo_store_point } bind def
/TJ {
  {
    dup
    type /stringtype eq
    { show } { -0.001 mul 0 cairo_font_matrix dtransform rmoveto } ifelse
  } forall
  currentpoint cairo_store_point
} bind def
/cairo_selectfont { cairo_font_matrix aload pop pop pop 0 0 6 array astore
    cairo_font exch selectfont cairo_point_x cairo_point_y moveto } bind def
/Tf { pop /cairo_font exch def /cairo_font_matrix where
      { pop cairo_selectfont } if } bind def
/Td { matrix translate cairo_font_matrix matrix concatmatrix dup
      /cairo_font_matrix exch def dup 4 get exch 5 get cairo_store_point
      /cairo_font where { pop cairo_selectfont } if } bind def
/Tm { 2 copy 8 2 roll 6 array astore /cairo_font_matrix exch def
      cairo_store_point /cairo_font where { pop cairo_selectfont } if } bind def
/g { setgray } bind def
/rg { setrgbcolor } bind def
/d1 { setcachedevice } bind def
/cairo_set_page_size {
  % Change paper size, but only if different from previous paper size otherwise
  % duplex fails. PLRM specifies a tolerance of 5 pts when matching paper size
  % so we use the same when checking if the size changes.
  /setpagedevice where {
    pop currentpagedevice
    /PageSize known {
      2 copy
      currentpagedevice /PageSize get aload pop
      exch 4 1 roll
      sub abs 5 gt
      3 1 roll
      sub abs 5 gt
      or
    } {
      true
    } ifelse
    {
      2 array astore
      2 dict begin
        /PageSize exch def
        /ImagingBBox null def
      currentdict end
      setpagedevice
    } {
      pop pop
    } ifelse
  } {
    pop
  } ifelse
} def
%%EndProlog
%%BeginSetup
%%EndSetup
%%Page: 1 1
%%BeginPageSetup
%%PageMedia: 741x494mm
%%PageBoundingBox: 0 0 2100 1400
2100 1400 cairo_set_page_size
%%EndPageSetup
q 0 0 2100 1400 rectclip q
0.984314 g
0 0 2100 1400 rectfill
0.788235 g
1.875 w
0 J
1 j
[] 0.0 d
4 M 0 1400 2100 -1400 re S
0 g
2.5 w
1 J
116.668 1341.668 m 155.555 1380.555 136.109 1400 58.332 1400 c S
291.668 1283.332 m 330.555 1244.445 350 1263.891 350 1341.668 c S
233.332 1108.332 m 194.445 1069.445 213.891 1050 291.668 1050 c S
58.332 1166.668 m 19.445 1205.555 0 1186.109 0 1108.332 c S
116.668 1341.668 m 155.555 1380.555 175 1361.109 175 1283.332 c S
58.332 1166.668 m 19.445 1205.555 38.891 1225 116.668 1225 c S
291.668 1283.332 m 330.555 1244.445 311.109 1225 233.332 1225 c S
233.332 1108.332 m 194.445 1069.445 175 1088.891 175 1166.668 c S
116.668 1341.668 m 58.332 1341.668 175 1400 0 1341.668 c S
291.668 1283.332 m 291.668 1341.668 350 1225 291.668 1400 c S
233.332 1108.332 m 291.668 1108.332 175 1050 350 1108.332 c S
58.332 1166.668 m 58.332 1108.332 0 1225 58.332 1050 c S
116.668 1341.668 m 116.668 1283.332 175 1400 116.668 1225 c S
58.332 1166.668 m 116.668 1166.668 0 1225 175 1166.668 c S
291.668 1283.332 m 233.332 1283.332 350 1225 175 1283.332 c S
233.332 1108.332 m 233.332 1166.668 175 1050 233.332 1225 c S
116.668 991.668 m 155.555 1030.555 136.109 1050 58.332 1050 c S
291.668 933.332 m 330.555 894.445 350 913.891 350 991.668 c S
233.332 758.332 m 194.445 719.445 213.891 700 291.668 700 c S
58.332 816.668 m 19.445 855.555 0 836.109 0 758.332 c S
116.668 991.668 m 155.555 1030.555 175 1011.109 175 933.332 c S
58.332 816.668 m 19.445 855.555 38.891 875 116.668 875 c S
291.668 933.332 m 330.555 894.445 311.109 875 233.332 875 c S
233.332 758.332 m 194.445 719.445 175 738.891 175 816.668 c S
116.668 991.668 m 58.332 991.668 175 1050 0 991.668 c S
291.668 933.332 m 291.668 991.668 350 875 291.668 1050 c S
233.332 758.332 m 291.668 758.332 175 700 350 758.332 c S
58.332 816.668 m 58.332 758.332 0 875 58.332 700 c S
116.668 991.668 m 116.668 933.332 175 1050 116.668 875 c S
58.332 816.668 m 116.668 816.668 0 875 175 816.668 c S
291.668 933.332 m 233.332 933.332 350 875 175 933.332 c S
233.332 758.332 m 233.332 816.668 175 700 233.332 875 c S
116.668 641.668 m 155.555 680.555 136.109 700 58.332 700 c S
291.668 583.332 m 330.555 544.445 350 563.891 350 641.668 c S
233.332 408.332 m 194.445 369.445 213.891 350 291.668 350 c S
58.332 466.668 m 19.445 505.555 0 486.109 0 408.332 c S
116.668 641.668 m 155.555 680.555 175 661.109 175 583.332 c S
58.332 466.668 m 19.445 505.555 38.891 525 116.668 525 c S
291.668 583.332 m 330.555 544.445 311.109 525 233.332 525 c S
233.332 408.332 m 194.445 369.445 175 388.891 175 466.668 c S
116.668 641.668 m 58.332 641.668 175 700 0 641.668 c S
291.668 583.332 m 291.668 641.668 350 525 291.668 700 c S
233.332 408.332 m 291.668 408.332 175 350 350 408.332 c S
58.332 466.668 m 58.332 408.332 0 525 58.332 350 c S
116.668 641.668 m 116.668 583.332 175 700 116.668 525 c S
58.332 466.668 m 116.668 466.668 0 525 175 466.668 c S
291.668 583.332 m 233.332 583.332 350 525 175 583.332 c S
233.332 408.332 m 233.332 466.668 175 350 233.332 525 c S
116.668 291.668 m 155.555 330.555 136.109 350 58.332 350 c S
291.668 233.332 m 330.555 194.445 350 213.891 350 291.668 c S
233.332 58.332 m 194.445 19.445 213.891 0 291.668 0 c S
58.332 116.668 m 19.445 155.555 0 136.109 0 58.332 c S
116.668 291.668 m 155.555 330.555 175 311.109 175 233.332 c S
58.332 116.668 m 19.445 155.555 38.891 175 116.668 175 c S
291.668 233.332 m 330.555 194.445 311.109 175 233.332 175 c S
233.332 58.332 m 194.445 19.445 175 38.891 175 116.668 c S
116.668 291.668 m 58.332 291.668 175 350 0 291.668 c S
291.668 233.332 m 291.668 291.668 350 175 291.668 350 c S
233.332 58.332 m 291.668 58.332 175 0 350 58.332 c S
58.332 116.668 m 58.332 58.332 0 175 58.332 0 c S
116.668 291.668 m 116.668 233.332 175 350 116.668 175 c S
58.332 116.668 m 116.668 116.668 0 175 175 116.668 c S
291.668 233.332 m 233.332 233.332 350 175 175 233.332 c S
233.332 58.332 m 233.332 116.668 175 0 233.332 175 c S
466.668 1341.668 m 505.555 1380.555 486.109 1400 408.332 1400 c S
641.668 1283.332 m 680.555 1244.445 700 1263.891 700 1341.668 c S
583.332 1108.332 m 544.445 1069.445 563.891 1050 641.668 1050 c S
408.332 1166.668 m 369.445 1205.555 350 1186.109 350 1108.332 c S
466.668 1341.668 m 505.555 1380.555 525 1361.109 525 1283.332 c S
408.332 1166.668 m 369.445 1205.555 388.891 1225 466.668 1225 c S
641.668 1283.332 m 680.555 1244.445 661.109 1225 583.332 1225 c S
583.332 1108.332 m 544.445 1069.445 525 1088.891 525 1166.668 c S
466.668 1341.668 m 408.332 1341.668 525 1400 350 1341.668 c S
641.668 1283.332 m 641.668 1341.668 700 1225 641.668 1400 c S
583.332 1108.332 m 641.668 1108.332 525 1050 700 1108.332 c S
408.332 1166.668 m 408.332 1108.332 350 1225 408.332 1050 c S
466.668 1341.668 m 466.668 1283.332 525 1400 466.668 1225 c S
408.332 1166.668 m 466.668 1166.668 350 1225 525 1166.668 c S
641.668 1283.332 m 583.332 1283.332 700 1225 525 1283.332 c S
583.332 1108.332 m 583.332 1166.668 525 1050 583.332 1225 c S
466.668 991.668 m 505.555 1030.555 486.109 1050 408.332 1050 c S
641.668 933.332 m 680.555 894.445 700 913.891 700 991.668 c S
583.332 758.332 m 544.445 719.445 563.891 700 641.668 700 c S
408.332 816.668 m 369.445 855.555 350 836.109 350 758.332 c S
466.668 991.668 m 505.555 1030.555 525 1011.109 525 933.332 c S
408.332 816.668 m 369.445 855.555 388.891 875 466.668 875 c S
641.668 933.332 m 680.555 894.445 661.109 875 583.332 875 c S
583.332 758.332 m 544.445 719.445 525 738.891 525 816.668 c S
466.668 991.668 m 408.332 991.668 525 1050 350 991.668 c S
641.668 933.332 m 641.668 991.668 700 875 641.668 1050 c S
583.332 758.332 m 641.668 758.332 525 700 700 758.332 c S
408.332 816.668 m 408.332 758.332 350 875 408.332 700 c S
466.668 991.668 m 466.668 933.332 525 1050 466.668 875 c S
408.332 816.668 m 466.668 816.668 350 875 525 816.668 c S
641.668 933.332 m 583.332 933.332 700 875 525 933.332 c S
583.332 758.332 m 583.332 816.668 525 700 583.332 875 c S
466.668 641.668 m 505.555 680.555 486.109 700 408.332 700 c S
641.668 583.332 m 680.555 544.445 700 563.891 700 641.668 c S
583.332 408.332 m 544.445 369.445 563.891 350 641.668 350 c S
408.332 466.668 m 369.445 505.555 350 486.109 350 408.332 c S
466.668 641.668 m 505.555 680.555 525 661.109 525 583.332 c S
408.332 466.668 m 369.445 505.555 388.891 525 466.668 525 c S
641.668 583.332 m 680.555 544.445 661.109 525 583.332 525 c S
583.332 408.332 m 544.445 369.445 525 388.891 525 466.668 c S
466.668 641.668 m 408.332 641.668 525 700 350 641.668 c S
641.668 583.332 m 641.668 641.668 700 525 641.668 700 c S
583.332 408.332 m 641.668 408.332 525 350 700 408.332 c S
408.332 466.668 m 408.332 408.332 350 525 408.332 350 c S
466.668 641.668 m 466.668 583.332 525 700 466.668 525 c S
408.332 466.668 m 466.668 466.668 350 525 525 466.668 c S
641.668 583.332 m 583.332 583.332 700 525 525 583.332 c S
583.332 408.332 m 583.332 466.668 525 350 583.332 525 c S
466.668 291.668 m 505.555 330.555 486.109 350 408.332 350 c S
641.668 233.332 m 680.555 194.445 700 213.891 700 291.668 c S
583.332 58.332 m 544.445 19.445 563.891 0 641.668 0 c S
408.332 116.668 m 369.445 155.555 350 136.109 350 58.332 c S
466.668 291.668 m 505.555 330.555 525 311.109 525 233.332 c S
408.332 116.668 m 369.445 155.555 388.891 175 466.668 175 c S
641.668 233.332 m 680.555 194.445 661.109 175 583.332 175 c S
583.332 58.332 m 544.445 19.445 525 38.891 525 116.668 c S
466.668 291.668 m 408.332 291.668 525 350 350 291.668 c S
641.668 233.332 m 641.668 291.668 700 175 641.668 350 c S
583.332 58.332 m 641.668 58.332 525 0 700 58.332 c S
408.332 116.668 m 408.332 58.332 350 175 408.332 0 c S
466.668 291.668 m 466.668 233.332 525 350 466.668 175 c S
408.332 116.668 m 466.668 116.668 350 175 525 116.668 c S
641.668 233.332 m 583.332 233.332 700 175 525 233.332 c S
583.332 58.332 m 583.332 116.668 525 0 583.332 175 c S
816.668 1341.668 m 855.555 1380.555 836.109 1400 758.332 1400 c S
991.668 1283.332 m 1030.555 1244.445 1050 1263.891 1050 1341.668 c S
933.332 1108.332 m 894.445 1069.445 913.891 1050 991.668 1050 c S
758.332 1166.668 m 719.445 1205.555 700 1186.109 700 1108.332 c S
816.668 1341.668 m 855.555 1380.555 875 1361.109 875 1283.332 c S
758.332 1166.668 m 719.445 1205.555 738.891 1225 816.668 1225 c S
991.668 1283.332 m 1030.555 1244.445 1011.109 1225 933.332 1225 c S
933.332 1108.332 m 894.445 1069.445 875 1088.891 875 1166.668 c S
816.668 1341.668 m 758.332 1341.668 875 1400 700 1341.668 c S
991.668 1283.332 m 991.668 1341.668 1050 1225 991.668 1400 c S
933.332 1108.332 m 991.668 1108.332 875 1050 1050 1108.332 c S
758.332 1166.668 m 758.332 1108.332 700 1225 758.332 1050 c S
816.668 1341.668 m 816.668 1283.332 875 1400 816.668 1225 c S
758.332 1166.668 m 816.668 1166.668 700 1225 875 1166.668 c S
991.668 1283.332 m 933.332 1283.332 1050 1225 875 1283.332 c S
933.332 1108.332 m 933.332 1166.668 875 1050 933.332 1225 c S
816.668 991.668 m 855.555 1030.555 836.109 1050 758.332 1050 c S
991.668 933.332 m 1030.555 894.445 1050 913.891 1050 991.668 c S
933.332 758.332 m 894.445 719.445 913.891 700 991.668 700 c S
758.332 816.668 m 719.445 855.555 700 836.109 700 758.332 c S
816.668 991.668 m 855.555 1030.555 875 1011.109 875 933.332 c S
758.332 816.668 m 719.445 855.555 738.891 875 816.668 875 c S
991.668 933.332 m 1030.555 894.445 1011.109 875 933.332 875 c S
933.332 758.332 m 894.445 719.445 875 738.891 875 816.668 c S
816.668 991.668 m 758.332 991.668 875 1050 700 991.668 c S
991.668 933.332 m 991.668 991.668 1050 875 991.668 1050 c S
933.332 758.332 m 991.668 758.332 875 700 1050 758.332 c S
758.332 816.668 m 758.332 758.332 700 875 758.332 700 c S
816.668 991.668 m 816.668 933.332 875 1050 816.668 875 c S
758.332 816.668 m 816.668 816.668 700 875 875 816.668 c S
991.668 933.332 m 933.332 933.332 1050 875 875 933.332 c S
933.332 758.332 m 933.332 816.668 875 700 933.332 875 c S
816.668 641.668 m 855.555 680.555 836.109 700 758.332 700 c S
991.668 583.332 m 1030.555 544.445 1050 563.891 1050 641.668 c S
933.332 408.332 m 894.445 369.445 913.891 350 991.668 350 c S
758.332 466.668 m 719.445 505.555 700 486.109 700 408.332 c S
816.668 641.668 m 855.555 680.555 875 661.109 875 583.332 c S
758.332 466.668 m 719.445 505.555 738.891 525 816.668 525 c S
991.668 583.332 m 1030.555 544.445 1011.109 525 933.332 525 c S
933.332 408.332 m 894.445 369.445 875 388.891 875 466.668 c S
816.668 641.668 m 758.332 641.668 875 700 700 641.668 c S
991.668 583.332 m 991.668 641.668 1050 525 991.668 700 c S
933.332 408.332 m 991.668 408.332 875 350 1050 408.332 c S
758.332 466.668 m 758.332 408.332 700 525 758.332 350 c S
816.668 641.668 m 816.668 583.332 875 700 816.668 525 c S
758.332 466.668 m 816.668 466.668 700 525 875 466.668 c S
991.668 583.332 m 933.332 583.332 1050 525 875 583.332 c S
933.332 408.332 m 933.332 466.668 875 350 933.332 525 c S
816.668 291.668 m 855.555 330.555 836.109 350 758.332 350 c S
991.668 233.332 m 1030.555 194.445 1050 213.891 1050 291.668 c S
933.332 58.332 m 894.445 19.445 913.891 0 991.668 0 c S
758.332 116.668 m 719.445 155.555 700 136.109 700 58.332 c S
816.668 291.668 m 855.555 330.555 875 311.109 875 233.332 c S
758.332 116.668 m 719.445 155.555 738.891 175 816.668 175 c S
991.668 233.332 m 1030.555 194.445 1011.109 175 933.332 175 c S
933.332 58.332 m 894.445 19.445 875 38.891 875 116.668 c S
816.668 291.668 m 758.332 291.668 875 350 700 291.668 c S
991.668 233.332 m 991.668 291.668 1050 175 991.668 350 c S
933.332 58.332 m 991.668 58.332 875 0 1050 58.332 c S
758.332 116.668 m 758.332 58.332 700 175 758.332 0 c S
816.668 291.668 m 816.668 233.332 875 350 816.668 175 c S
758.332 116.668 m 816.668 116.668 700 175 875 116.668 c S
991.668 233.332 m 933.332 233.332 1050 175 875 233.332 c S
933.332 58.332 m 933.332 116.668 875 0 933.332 175 c S
1166.668 1341.668 m 1205.555 1380.555 1186.109 1400 1108.332 1400 c S
1341.668 1283.332 m 1380.555 1244.445 1400 1263.891 1400 1341.668 c S
1283.332 1108.332 m 1244.445 1069.445 1263.891 1050 1341.668 1050 c S
1108.332 1166.668 m 1069.445 1205.555 1050 1186.109 1050 1108.332 c S
1166.668 1341.668 m 1205.555 1380.555 1225 1361.109 1225 1283.332 c S
1108.332 1166.668 m 1069.445 1205.555 1088.891 1225 1166.668 1225 c S
1341.668 1283.332 m 1380.555 1244.445 1361.109 1225 1283.332 1225 c S
1283.332 1108.332 m 1244.445 1069.445 1225 1088.891 1225 1166.668 c S
1166.668 1341.668 m 1108.332 1341.668 1225 1400 1050 1341.668 c S
1341.668 1283.332 m 1341.668 1341.668 1400 1225 1341.668 1400 c S
1283.332 1108.332 m 1341.668 1108.332 1225 1050 1400 1108.332 c S
1108.332 1166.668 m 1108.332 1108.332 1050 1225 1108.332 1050 c S
1166.668 1341.668 m 1166.668 1283.332 1225 1400 1166.668 1225 c S
1108.332 1166.668 m 1166.668 1166.668 1050 1225 1225 1166.668 c S
1341.668 1283.332 m 1283.332 1283.332 1400 1225 1225 1283.332 c S
1283.332 1108.332 m 1283.332 1166.668 1225 1050 1283.332 1225 c S
1166.668 991.668 m 1205.555 1030.555 1186.109 1050 1108.332 1050 c S
1341.668 933.332 m 1380.555 894.445 1400 913.891 1400 991.668 c S
1283.332 758.332 m 1244.445 719.445 1263.891 700 1341.668 700 c S
1108.332 816.668 m 1069.445 855.555 1050 836.109 1050 758.332 c S
1166.668 991.668 m 1205.555 1030.555 1225 1011.109 1225 933.332 c S
1108.332 816.668 m 1069.445 855.555 1088.891 875 1166.668 875 c S
1341.668 933.332 m 1380.555 894.445 1361.109 875 1283.332 875 c S
1283.332 758.332 m 1244.445 719.445 1225 738.891 1225 816.668 c S
1166.668 991.668 m 1108.332 991.668 1225 1050 1050 991.668 c S
1341.668 933.332 m 1341.668 991.668 1400 875 1341.668 1050 c S
1283.332 758.332 m 1341.668 758.332 1225 700 1400 758.332 c S
1108.332 816.668 m 1108.332 758.332 1050 875 1108.332 700 c S
1166.668 991.668 m 1166.668 933.332 1225 1050 1166.668 875 c S
1108.332 816.668 m 1166.668 816.668 1050 875 1225 816.668 c S
1341.668 933.332 m 1283.332 933.332 1400 875 1225 933.332 c S
1283.332 758.332 m 1283.332 816.668 1225 700 1283.332 875 c S
1166.668 641.668 m 1205.555 680.555 1186.109 700 1108.332 700 c S
1341.668 583.332 m 1380.555 544.445 1400 563.891 1400 641.668 c S
1283.332 408.332 m 1244.445 369.445 1263.891 350 1341.668 350 c S
1108.332 466.668 m 1069.445 505.555 1050 486.109 1050 408.332 c S
1166.668 641.668 m 1205.555 680.555 1225 661.109 1225 583.332 c S
1108.332 466.668 m 1069.445 505.555 1088.891 525 1166.668 525 c S
1341.668 583.332 m 1380.555 544.445 1361.109 525 1283.332 525 c S
1283.332 408.332 m 1244.445 369.445 1225 388.891 1225 466.668 c S
1166.668 641.668 m 1108.332 641.668 1225 700 1050 641.668 c S
1341.668 583.332 m 1341.668 641.668 1400 525 1341.668 700 c S
1283.332 408.332 m 1341.668 408.332 1225 350 1400 408.332 c S
1108.332 466.668 m 1108.332 408.332 1050 525 1108.332 350 c S
1166.668 641.668 m 1166.668 583.332 1225 700 1166.668 525 c S
1108.332 466.668 m 1166.668 466.668 1050 525 1225 466.668 c S
1341.668 583.332 m 1283.332 583.332 1400 525 1225 583.332 c S
1283.332 408.332 m 1283.332 466.668 1225 350 1283.332 525 c S
1166.668 291.668 m 1205.555 330.555 1186.109 350 1108.332 350 c S
1341.668 233.332 m 1380.555 194.445 1400 213.891 1400 291.668 c S
1283.332 58.332 m 1244.445 19.445 1263.891 0 1341.668 0 c S
1108.332 116.668 m 1069.445 155.555 1050 136.109 1050 58.332 c S
1166.668 291.668 m 1205.555 330.555 1225 311.109 1225 233.332 c S
1108.332 116.668 m 1069.445 155.555 1088.891 175 1166.668 175 c S
1341.668 233.332 m 1380.555 194.445 1361.109 175 1283.332 175 c S
1283.332 58.332 m 1244.445 19.445 1225 38.891 1225 116.668 c S
1166.668 291.668 m 1108.332 291.668 1225 350 1050 291.668 c S
1341.668 233.332 m 1341.668 291.668 1400 175 1341.668 350 c S
1283.332 58.332 m 1341.668 58.332 1225 0 1400 58.332 c S
1108.332 116.668 m 1108.332 58.332 1050 175 1108.332 0 c S
1166.668 291.668 m 1166.668 233.332 1225 350 1166.668 175 c S
1108.332 116.668 m 1166.668 116.668 1050 175 1225 116.668 c S
1341.668 233.332 m 1283.332 233.332 1400 175 1225 233.332 c S
1283.332 58.332 m 1283.332 116.668 1225 0 1283.332 175 c S
1516.668 1341.668 m 1555.555 1380.555 1536.109 1400 1458.332 1400 c S
1691.668 1283.332 m 1730.555 1244.445 1750 1263.891 1750 1341.668 c S
1633.332 1108.332 m 1594.445 1069.445 1613.891 1050 1691.668 1050 c S
1458.332 1166.668 m 1419.445 1205.555 1400 1186.109 1400 1108.332 c S
1516.668 1341.668 m 1555.555 1380.555 1575 1361.109 1575 1283.332 c S
1458.332 1166.668 m 1419.445 1205.555 1438.891 1225 1516.668 1225 c S
1691.668 1283.332 m 1730.555 1244.445 1711.109 1225 1633.332 1225 c S
1633.332 1108.332 m 1594.445 1069.445 1575 1088.891 1575 1166.668 c S
1516.668 1341.668 m 1458.332 1341.668 1575 1400 1400 1341.668 c S
1691.668 1283.332 m 1691.668 1341.668 1750 1225 1691.668 1400 c S
1633.332 1108.332 m 1691.668 1108.332 1575 1050 1750 1108.332 c S
1458.332 1166.668 m 1458.332 1108.332 1400 1225 1458.332 1050 c S
1516.668 1341.668 m 1516.668 1283.332 1575 1400 1516.668 1225 c S
1458.332 1166.668 m 1516.668 1166.668 1400 1225 1575 1166.668 c S
1691.668 1283.332 m 1633.332 1283.332 1750 1225 1575 1283.332 c S
1633.332 1108.332 m 1633.332 1166.668 1575 1050 1633.332 1225 c S
1516.668 991.668 m 1555.555 1030.555 1536.109 1050 1458.332 1050 c S
1691.668 933.332 m 1730.555 894.445 1750 913.891 1750 991.668 c S
1633.332 758.332 m 1594.445 719.445 1613.891 700 1691.668 700 c S
1458.332 816.668 m 1419.445 855.555 1400 836.109 1400 758.332 c S
1516.668 991.668 m 1555.555 1030.555 1575 1011.109 1575 933.332 c S
1458.332 816.668 m 1419.445 855.555 1438.891 875 1516.668 875 c S
1691.668 933.332 m 1730.555 894.445 1711.109 875 1633.332 875 c S
1633.332 758.332 m 1594.445 719.445 1575 738.891 1575 816.668 c S
1516.668 991.668 m 1458.332 991.668 1575 1050 1400 991.668 c S
1691.668 933.332 m 1691.668 991.668 1750 875 1691.668 1050 c S
1633.332 758.332 m 1691.668 758.332 1575 700 1750 758.332 c S
1458.332 816.668 m 1458.332 758.332 1400 875 1458.332 700 c S
1516.668 991.668 m 1516.668 933.332 1575 1050 1516.668 875 c S
1458.332 816.668 m 1516.668 816.668 1400 875 1575 816.668 c S
1691.668 933.332 m 1633.332 933.332 1750 875 1575 933.332 c S
1633.332 758.332 m 1633.332 816.668 1575 700 1633.332 875 c S
1516.668 641.668 m 1555.555 680.555 1536.109 700 1458.332 700 c S
1691.668 583.332 m 1730.555 544.445 1750 563.891 1750 641.668 c S
1633.332 408.332 m 1594.445 369.445 1613.891 350 1691.668 350 c S
1458.332 466.668 m 1419.445 505.555 1400 486.109 1400 408.332 c S
1516.668 641.668 m 1555.555 680.555 1575 661.109 1575 583.332 c S
1458.332 466.668 m 1419.445 505.555 1438.891 525 1516.668 525 c S
1691.668 583.332 m 1730.555 544.445 1711.109 525 1633.332 525 c S
1633.332 408.332 m 1594.445 369.445 1575 388.891 1575 466.668 c S
1516.668 641.668 m 1458.332 641.668 1575 700 1400 641.668 c S
1691.668 583.332 m 1691.668 641.668 1750 525 1691.668 700 c S
1633.332 408.332 m 1691.668 408.332 1575 350 1750 408.332 c S
1458.332 466.668 m 1458.332 408.332 1400 525 1458.332 350 c S
1516.668 641.668 m 1516.668 583.332 1575 700 1516.668 525 c S
1458.332 466.668 m 1516.668 466.668 1400 525 1575 466.668 c S
1691.668 583.332 m 1633.332 583.332 1750 525 1575 583.332 c S
1633.332 408.332 m 1633.332 466.668 1575 350 1633.332 525 c S
1516.668 291.668 m 1555.555 330.555 1536.109 350 1458.332 350 c S
1691.668 233.332 m 1730.555 194.445 1750 213.891 1750 291.668 c S
1633.332 58.332 m 1594.445 19.445 1613.891 0 1691.668 0 c S
1458.332 116.668 m 1419.445 155.555 1400 136.109 1400 58.332 c S
1516.668 291.668 m 1555.555 330.555 1575 311.109 1575 233.332 c S
1458.332 116.668 m 1419.445 155.555 1438.891 175 1516.668 175 c S
1691.668 233.332 m 1730.555 194.445 1711.109 175 1633.332 175 c S
1633.332 58.332 m 1594.445 19.445 1575 38.891 1575 116.668 c S
1516.668 291.668 m 1458.332 291.668 1575 350 1400 291.668 c S
1691.668 233.332 m 1691.668 291.668 1750 175 1691.668 350 c S
1633.332 58.332 m 1691.668 58.332 1575 0 1750 58.332 c S
1458.332 116.668 m 1458.332 58.332 1400 175 1458.332 0 c S
1516.668 291.668 m 1516.668 233.332 1575 350 1516.668 175 c S
1458.332 116.668 m 1516.668 116.668 1400 175 1575 116.668 c S
1691.668 233.332 m 1633.332 233.332 1750 175 1575 233.332 c S
1633.332 58.332 m 1633.332 116.668 1575 0 1633.332 175 c S
1866.668 1341.668 m 1905.555 1380.555 1886.109 1400 1808.332 1400 c S
2041.668 1283.332 m 2080.555 1244.445 2100 1263.891 2100 1341.668 c S
1983.332 1108.332 m 1944.445 1069.445 1963.891 1050 2041.668 1050 c S
1808.332 1166.668 m 1769.445 1205.555 1750 1186.109 1750 1108.332 c S
1866.668 1341.668 m 1905.555 1380.555 1925 1361.109 1925 1283.332 c S
1808.332 1166.668 m 1769.445 1205.555 1788.891 1225 1866.668 1225 c S
2041.668 1283.332 m 2080.555 1244.445 2061.109 1225 1983.332 1225 c S
1983.332 1108.332 m 1944.445 1069.445 1925 1088.891 1925 1166.668 c S
1866.668 1341.668 m 1808.332 1341.668 1925 1400 1750 1341.668 c S
2041.668 1283.332 m 2041.668 1341.668 2100 1225 2041.668 1400 c S
1983.332 1108.332 m 2041.668 1108.332 1925 1050 2100 1108.332 c S
1808.332 1166.668 m 1808.332 1108.332 1750 1225 1808.332 1050 c S
1866.668 1341.668 m 1866.668 1283.332 1925 1400 1866.668 1225 c S
1808.332 1166.668 m 1866.668 1166.668 1750 1225 1925 1166.668 c S
2041.668 1283.332 m 1983.332 1283.332 2100 1225 1925 1283.332 c S
1983.332 1108.332 m 1983.332 1166.668 1925 1050 1983.332 1225 c S
1866.668 991.668 m 1905.555 1030.555 1886.109 1050 1808.332 1050 c S
2041.668 933.332 m 2080.555 894.445 2100 913.891 2100 991.668 c S
1983.332 758.332 m 1944.445 719.445 1963.891 700 2041.668 700 c S
1808.332 816.668 m 1769.445 855.555 1750 836.109 1750 758.332 c S
1866.668 991.668 m 1905.555 1030.555 1925 1011.109 1925 933.332 c S
1808.332 816.668 m 1769.445 855.555 1788.891 875 1866.668 875 c S
2041.668 933.332 m 2080.555 894.445 2061.109 875 1983.332 875 c S
1983.332 758.332 m 1944.445 719.445 1925 738.891 1925 816.668 c S
1866.668 991.668 m 1808.332 991.668 1925 1050 1750 991.668 c S
2041.668 933.332 m 2041.668 991.668 2100 875 2041.668 1050 c S
1983.332 758.332 m 2041.668 758.332 1925 700 2100 758.332 c S
1808.332 816.668 m 1808.332 758.332 1750 875 1808.332 700 c S
1866.668 991.668 m 1866.668 933.332 1925 1050 1866.668 875 c S
1808.332 816.668 m 1866.668 816.668 1750 875 1925 816.668 c S
2041.668 933.332 m 1983.332 933.332 2100 875 1925 933.332 c S
1983.332 758.332 m 1983.332 816.668 1925 700 1983.332 875 c S
1866.668 641.668 m 1905.555 680.555 1886.109 700 1808.332 700 c S
2041.668 583.332 m 2080.555 544.445 2100 563.891 2100 641.668 c S
1983.332 408.332 m 1944.445 369.445 1963.891 350 2041.668 350 c S
1808.332 466.668 m 1769.445 505.555 1750 486.109 1750 408.332 c S
1866.668 641.668 m 1905.555 680.555 1925 661.109 1925 583.332 c S
1808.332 466.668 m 1769.445 505.555 1788.891 525 1866.668 525 c S
2041.668 583.332 m 2080.555 544.445 2061.109 525 1983.332 525 c S
1983.332 408.332 m 1944.445 369.445 1925 388.891 1925 466.668 c S
1866.668 641.668 m 1808.332 641.668 1925 700 1750 641.668 c S
2041.668 583.332 m 2041.668 641.668 2100 525 2041.668 700 c S
1983.332 408.332 m 2041.668 408.332 1925 350 2100 408.332 c S
1808.332 466.668 m 1808.332 408.332 1750 525 1808.332 350 c S
1866.668 641.668 m 1866.668 583.332 1925 700 1866.668 525 c S
1808.332 466.668 m 1866.668 466.668 1750 525 1925 466.668 c S
2041.668 583.332 m 1983.332 583.332 2100 525 1925 583.332 c S
1983.332 408.332 m 1983.332 466.668 1925 350 1983.332 525 c S
1866.668 291.668 m 1905.555 330.555 1886.109 350 1808.332 350 c S
2041.668 233.332 m 2080.555 194.445 2100 213.891 2100 291.668 c S
1983.332 58.332 m 1944.445 19.445 1963.891 0 2041.668 0 c S
1808.332 116.668 m 1769.445 155.555 1750 136.109 1750 58.332 c S
1866.668 291.668 m 1905.555 330.555 1925 311.109 1925 233.332 c S
1808.332 116.668 m 1769.445 155.555 1788.891 175 1866.668 175 c S
2041.668 233.332 m 2080.555 194.445 2061.109 175 1983.332 175 c S
1983.332 58.332 m 1944.445 19.445 1925 38.891 1925 116.668 c S
1866.668 291.668 m 1808.332 291.668 1925 350 1750 291.668 c S
2041.668 233.332 m 2041.668 291.668 2100 175 2041.668 350 c S
1983.332 58.332 m 2041.668 58.332 1925 0 2100 58.332 c S
1808.332 116.668 m 1808.332 58.332 1750 175 1808.332 0 c S
1866.668 291.668 m 1866.668 233.332 1925 350 1866.668 175 c S
1808.332 116.668 m 1866.668 116.668 1750 175 1925 116.668 c S
2041.668 233.332 m 1983.332 233.332 2100 175 1925 233.332 c S
1983.332 58.332 m 1983.332 116.668 1925 0 1983.332 175 c S
Q Q
showpage
%%Trailer
%%Trailer
cleartomark
countdictstack
exch sub { end } repeat
restore
%%EOF
