%!PS-Adobe-2.0 EPSF-2.0
%%BoundingBox: 0 0 2100 1400
%%HiResBoundingBox: 0.000000 0.000000 2100.000000 1400.000000
%%Creator: cairo 1.14.2 (http://cairographics.org)
%%CreationDate: Mon Sep  7 08:21:52 2015
%%DocumentData: Clean7Bit
%%LanguageLevel: 2
%%DocumentMedia: 741x494mm 2100 1400 0 () ()
%%EndComments
% EPSF created by ps2eps 1.68
%%BeginProlog
save
countdictstack
mark
newpath
/showpage {} def
/setpagedevice {pop} def
%%EndProlog
%%Page 1 1
%%BeginProlog
/languagelevel where
{ pop languagelevel } { 1 } ifelse
2 lt { /Helvetica findfont 12 scalefont setfont 50 500 moveto
  (This print job requires a PostScript Language Level 2 printer.) show
  showpage quit } if
/q { gsave } bind def
/Q { grestore } bind def
/cm { 6 array astore concat } bind def
/w { setlinewidth } bind def
/J { setlinecap } bind def
/j { setlinejoin } bind def
/M { setmiterlimit } bind def
/d { setdash } bind def
/m { moveto } bind def
/l { lineto } bind def
/c { curveto } bind def
/h { closepath } bind def
/re { exch dup neg 3 1 roll 5 3 roll moveto 0 rlineto
      0 exch rlineto 0 rlineto closepath } bind def
/S { stroke } bind def
/f { fill } bind def
/f* { eofill } bind def
/n { newpath } bind def
/W { clip } bind def
/W* { eoclip } bind def
/BT { } bind def
/ET { } bind def
/pdfmark where { pop globaldict /?pdfmark /exec load put }
    { globaldict begin /?pdfmark /pop load def /pdfmark
    /cleartomark load def end } ifelse
/BDC { mark 3 1 roll /BDC pdfmark } bind def
/EMC { mark /EMC pdfmark } bind def
/cairo_store_point { /cairo_point_y exch def /cairo_point_x exch def } def
/Tj { show currentpoint cairo_store_point } bind def
/TJ {
  {
    dup
    type /stringtype eq
    { show } { -0.001 mul 0 cairo_font_matrix dtransform rmoveto } ifelse
  } forall
  currentpoint cairo_store_point
} bind def
/cairo_selectfont { cairo_font_matrix aload pop pop pop 0 0 6 array astore
    cairo_font exch selectfont cairo_point_x cairo_point_y moveto } bind def
/Tf { pop /cairo_font exch def /cairo_font_matrix where
      { pop cairo_selectfont } if } bind def
/Td { matrix translate cairo_font_matrix matrix concatmatrix dup
      /cairo_font_matrix exch def dup 4 get exch 5 get cairo_store_point
      /cairo_font where { pop cairo_selectfont } if } bind def
/Tm { 2 copy 8 2 roll 6 array astore /cairo_font_matrix exch def
      cairo_store_point /cairo_font where { pop cairo_selectfont } if } bind def
/g { setgray } bind def
/rg { setrgbcolor } bind def
/d1 { setcachedevice } bind def
/cairo_set_page_size {
  % Change paper size, but only if different from previous paper size otherwise
  % duplex fails. PLRM specifies a tolerance of 5 pts when matching paper size
  % so we use the same when checking if the size changes.
  /setpagedevice where {
    pop currentpagedevice
    /PageSize known {
      2 copy
      currentpagedevice /PageSize get aload pop
      exch 4 1 roll
      sub abs 5 gt
      3 1 roll
      sub abs 5 gt
      or
    } {
      true
    } ifelse
    {
      2 array astore
      2 dict begin
        /PageSize exch def
        /ImagingBBox null def
      currentdict end
      setpagedevice
    } {
      pop pop
    } ifelse
  } {
    pop
  } ifelse
} def
%%EndProlog
%%BeginSetup
%%EndSetup
%%Page: 1 1
%%BeginPageSetup
%%PageMedia: 741x494mm
%%PageBoundingBox: 0 0 2100 1400
2100 1400 cairo_set_page_size
%%EndPageSetup
q 0 0 2100 1400 rectclip q
0.984314 g
0 0 2100 1400 rectfill
0.788235 g
1.875 w
0 J
1 j
[] 0.0 d
4 M 0 1400 2100 -1400 re S
0 g
2.5 w
1 J
116.668 1341.668 m 77.777 1380.555 38.891 1380.555 0 1341.668 c S
291.668 1283.332 m 330.555 1322.223 330.555 1361.109 291.668 1400 c S
233.332 1108.332 m 272.223 1069.445 311.109 1069.445 350 1108.332 c S
58.332 1166.668 m 19.445 1127.777 19.445 1088.891 58.332 1050 c S
116.668 1341.668 m 155.555 1302.777 155.555 1263.891 116.668 1225 c S
58.332 1166.668 m 97.223 1205.555 136.109 1205.555 175 1166.668 c S
291.668 1283.332 m 252.777 1244.445 213.891 1244.445 175 1283.332 c S
233.332 1108.332 m 194.445 1147.223 194.445 1186.109 233.332 1225 c S
0 1283.332 m 38.891 1322.223 38.891 1302.777 0 1225 c S
233.332 1400 m 272.223 1361.109 252.777 1361.109 175 1400 c S
350 1166.668 m 311.109 1127.777 311.109 1147.223 350 1225 c S
116.668 1050 m 77.777 1088.891 97.223 1088.891 175 1050 c S
58.332 1225 m 97.223 1263.891 77.777 1263.891 0 1225 c S
175 1108.332 m 136.109 1147.223 136.109 1127.777 175 1050 c S
175 1341.668 m 213.891 1302.777 213.891 1322.223 175 1400 c S
291.668 1225 m 252.777 1186.109 272.223 1186.109 350 1225 c S
116.668 991.668 m 77.777 1030.555 38.891 1030.555 0 991.668 c S
291.668 933.332 m 330.555 972.223 330.555 1011.109 291.668 1050 c S
233.332 758.332 m 272.223 719.445 311.109 719.445 350 758.332 c S
58.332 816.668 m 19.445 777.777 19.445 738.891 58.332 700 c S
116.668 991.668 m 155.555 952.777 155.555 913.891 116.668 875 c S
58.332 816.668 m 97.223 855.555 136.109 855.555 175 816.668 c S
291.668 933.332 m 252.777 894.445 213.891 894.445 175 933.332 c S
233.332 758.332 m 194.445 797.223 194.445 836.109 233.332 875 c S
0 933.332 m 38.891 972.223 38.891 952.777 0 875 c S
233.332 1050 m 272.223 1011.109 252.777 1011.109 175 1050 c S
350 816.668 m 311.109 777.777 311.109 797.223 350 875 c S
116.668 700 m 77.777 738.891 97.223 738.891 175 700 c S
58.332 875 m 97.223 913.891 77.777 913.891 0 875 c S
175 758.332 m 136.109 797.223 136.109 777.777 175 700 c S
175 991.668 m 213.891 952.777 213.891 972.223 175 1050 c S
291.668 875 m 252.777 836.109 272.223 836.109 350 875 c S
116.668 641.668 m 77.777 680.555 38.891 680.555 0 641.668 c S
291.668 583.332 m 330.555 622.223 330.555 661.109 291.668 700 c S
233.332 408.332 m 272.223 369.445 311.109 369.445 350 408.332 c S
58.332 466.668 m 19.445 427.777 19.445 388.891 58.332 350 c S
116.668 641.668 m 155.555 602.777 155.555 563.891 116.668 525 c S
58.332 466.668 m 97.223 505.555 136.109 505.555 175 466.668 c S
291.668 583.332 m 252.777 544.445 213.891 544.445 175 583.332 c S
233.332 408.332 m 194.445 447.223 194.445 486.109 233.332 525 c S
0 583.332 m 38.891 622.223 38.891 602.777 0 525 c S
233.332 700 m 272.223 661.109 252.777 661.109 175 700 c S
350 466.668 m 311.109 427.777 311.109 447.223 350 525 c S
116.668 350 m 77.777 388.891 97.223 388.891 175 350 c S
58.332 525 m 97.223 563.891 77.777 563.891 0 525 c S
175 408.332 m 136.109 447.223 136.109 427.777 175 350 c S
175 641.668 m 213.891 602.777 213.891 622.223 175 700 c S
291.668 525 m 252.777 486.109 272.223 486.109 350 525 c S
116.668 291.668 m 77.777 330.555 38.891 330.555 0 291.668 c S
291.668 233.332 m 330.555 272.223 330.555 311.109 291.668 350 c S
233.332 58.332 m 272.223 19.445 311.109 19.445 350 58.332 c S
58.332 116.668 m 19.445 77.777 19.445 38.891 58.332 0 c S
116.668 291.668 m 155.555 252.777 155.555 213.891 116.668 175 c S
58.332 116.668 m 97.223 155.555 136.109 155.555 175 116.668 c S
291.668 233.332 m 252.777 194.445 213.891 194.445 175 233.332 c S
233.332 58.332 m 194.445 97.223 194.445 136.109 233.332 175 c S
0 233.332 m 38.891 272.223 38.891 252.777 0 175 c S
233.332 350 m 272.223 311.109 252.777 311.109 175 350 c S
350 116.668 m 311.109 77.777 311.109 97.223 350 175 c S
116.668 0 m 77.777 38.891 97.223 38.891 175 0 c S
58.332 175 m 97.223 213.891 77.777 213.891 0 175 c S
175 58.332 m 136.109 97.223 136.109 77.777 175 0 c S
175 291.668 m 213.891 252.777 213.891 272.223 175 350 c S
291.668 175 m 252.777 136.109 272.223 136.109 350 175 c S
466.668 1341.668 m 427.777 1380.555 388.891 1380.555 350 1341.668 c S
641.668 1283.332 m 680.555 1322.223 680.555 1361.109 641.668 1400 c S
583.332 1108.332 m 622.223 1069.445 661.109 1069.445 700 1108.332 c S
408.332 1166.668 m 369.445 1127.777 369.445 1088.891 408.332 1050 c S
466.668 1341.668 m 505.555 1302.777 505.555 1263.891 466.668 1225 c S
408.332 1166.668 m 447.223 1205.555 486.109 1205.555 525 1166.668 c S
641.668 1283.332 m 602.777 1244.445 563.891 1244.445 525 1283.332 c S
583.332 1108.332 m 544.445 1147.223 544.445 1186.109 583.332 1225 c S
350 1283.332 m 388.891 1322.223 388.891 1302.777 350 1225 c S
583.332 1400 m 622.223 1361.109 602.777 1361.109 525 1400 c S
700 1166.668 m 661.109 1127.777 661.109 1147.223 700 1225 c S
466.668 1050 m 427.777 1088.891 447.223 1088.891 525 1050 c S
408.332 1225 m 447.223 1263.891 427.777 1263.891 350 1225 c S
525 1108.332 m 486.109 1147.223 486.109 1127.777 525 1050 c S
525 1341.668 m 563.891 1302.777 563.891 1322.223 525 1400 c S
641.668 1225 m 602.777 1186.109 622.223 1186.109 700 1225 c S
466.668 991.668 m 427.777 1030.555 388.891 1030.555 350 991.668 c S
641.668 933.332 m 680.555 972.223 680.555 1011.109 641.668 1050 c S
583.332 758.332 m 622.223 719.445 661.109 719.445 700 758.332 c S
408.332 816.668 m 369.445 777.777 369.445 738.891 408.332 700 c S
466.668 991.668 m 505.555 952.777 505.555 913.891 466.668 875 c S
408.332 816.668 m 447.223 855.555 486.109 855.555 525 816.668 c S
641.668 933.332 m 602.777 894.445 563.891 894.445 525 933.332 c S
583.332 758.332 m 544.445 797.223 544.445 836.109 583.332 875 c S
350 933.332 m 388.891 972.223 388.891 952.777 350 875 c S
583.332 1050 m 622.223 1011.109 602.777 1011.109 525 1050 c S
700 816.668 m 661.109 777.777 661.109 797.223 700 875 c S
466.668 700 m 427.777 738.891 447.223 738.891 525 700 c S
408.332 875 m 447.223 913.891 427.777 913.891 350 875 c S
525 758.332 m 486.109 797.223 486.109 777.777 525 700 c S
525 991.668 m 563.891 952.777 563.891 972.223 525 1050 c S
641.668 875 m 602.777 836.109 622.223 836.109 700 875 c S
466.668 641.668 m 427.777 680.555 388.891 680.555 350 641.668 c S
641.668 583.332 m 680.555 622.223 680.555 661.109 641.668 700 c S
583.332 408.332 m 622.223 369.445 661.109 369.445 700 408.332 c S
408.332 466.668 m 369.445 427.777 369.445 388.891 408.332 350 c S
466.668 641.668 m 505.555 602.777 505.555 563.891 466.668 525 c S
408.332 466.668 m 447.223 505.555 486.109 505.555 525 466.668 c S
641.668 583.332 m 602.777 544.445 563.891 544.445 525 583.332 c S
583.332 408.332 m 544.445 447.223 544.445 486.109 583.332 525 c S
350 583.332 m 388.891 622.223 388.891 602.777 350 525 c S
583.332 700 m 622.223 661.109 602.777 661.109 525 700 c S
700 466.668 m 661.109 427.777 661.109 447.223 700 525 c S
466.668 350 m 427.777 388.891 447.223 388.891 525 350 c S
408.332 525 m 447.223 563.891 427.777 563.891 350 525 c S
525 408.332 m 486.109 447.223 486.109 427.777 525 350 c S
525 641.668 m 563.891 602.777 563.891 622.223 525 700 c S
641.668 525 m 602.777 486.109 622.223 486.109 700 525 c S
466.668 291.668 m 427.777 330.555 388.891 330.555 350 291.668 c S
641.668 233.332 m 680.555 272.223 680.555 311.109 641.668 350 c S
583.332 58.332 m 622.223 19.445 661.109 19.445 700 58.332 c S
408.332 116.668 m 369.445 77.777 369.445 38.891 408.332 0 c S
466.668 291.668 m 505.555 252.777 505.555 213.891 466.668 175 c S
408.332 116.668 m 447.223 155.555 486.109 155.555 525 116.668 c S
641.668 233.332 m 602.777 194.445 563.891 194.445 525 233.332 c S
583.332 58.332 m 544.445 97.223 544.445 136.109 583.332 175 c S
350 233.332 m 388.891 272.223 388.891 252.777 350 175 c S
583.332 350 m 622.223 311.109 602.777 311.109 525 350 c S
700 116.668 m 661.109 77.777 661.109 97.223 700 175 c S
466.668 0 m 427.777 38.891 447.223 38.891 525 0 c S
408.332 175 m 447.223 213.891 427.777 213.891 350 175 c S
525 58.332 m 486.109 97.223 486.109 77.777 525 0 c S
525 291.668 m 563.891 252.777 563.891 272.223 525 350 c S
641.668 175 m 602.777 136.109 622.223 136.109 700 175 c S
816.668 1341.668 m 777.777 1380.555 738.891 1380.555 700 1341.668 c S
991.668 1283.332 m 1030.555 1322.223 1030.555 1361.109 991.668 1400 c S
933.332 1108.332 m 972.223 1069.445 1011.109 1069.445 1050 1108.332 c S
758.332 1166.668 m 719.445 1127.777 719.445 1088.891 758.332 1050 c S
816.668 1341.668 m 855.555 1302.777 855.555 1263.891 816.668 1225 c S
758.332 1166.668 m 797.223 1205.555 836.109 1205.555 875 1166.668 c S
991.668 1283.332 m 952.777 1244.445 913.891 1244.445 875 1283.332 c S
933.332 1108.332 m 894.445 1147.223 894.445 1186.109 933.332 1225 c S
700 1283.332 m 738.891 1322.223 738.891 1302.777 700 1225 c S
933.332 1400 m 972.223 1361.109 952.777 1361.109 875 1400 c S
1050 1166.668 m 1011.109 1127.777 1011.109 1147.223 1050 1225 c S
816.668 1050 m 777.777 1088.891 797.223 1088.891 875 1050 c S
758.332 1225 m 797.223 1263.891 777.777 1263.891 700 1225 c S
875 1108.332 m 836.109 1147.223 836.109 1127.777 875 1050 c S
875 1341.668 m 913.891 1302.777 913.891 1322.223 875 1400 c S
991.668 1225 m 952.777 1186.109 972.223 1186.109 1050 1225 c S
816.668 991.668 m 777.777 1030.555 738.891 1030.555 700 991.668 c S
991.668 933.332 m 1030.555 972.223 1030.555 1011.109 991.668 1050 c S
933.332 758.332 m 972.223 719.445 1011.109 719.445 1050 758.332 c S
758.332 816.668 m 719.445 777.777 719.445 738.891 758.332 700 c S
816.668 991.668 m 855.555 952.777 855.555 913.891 816.668 875 c S
758.332 816.668 m 797.223 855.555 836.109 855.555 875 816.668 c S
991.668 933.332 m 952.777 894.445 913.891 894.445 875 933.332 c S
933.332 758.332 m 894.445 797.223 894.445 836.109 933.332 875 c S
700 933.332 m 738.891 972.223 738.891 952.777 700 875 c S
933.332 1050 m 972.223 1011.109 952.777 1011.109 875 1050 c S
1050 816.668 m 1011.109 777.777 1011.109 797.223 1050 875 c S
816.668 700 m 777.777 738.891 797.223 738.891 875 700 c S
758.332 875 m 797.223 913.891 777.777 913.891 700 875 c S
875 758.332 m 836.109 797.223 836.109 777.777 875 700 c S
875 991.668 m 913.891 952.777 913.891 972.223 875 1050 c S
991.668 875 m 952.777 836.109 972.223 836.109 1050 875 c S
816.668 641.668 m 777.777 680.555 738.891 680.555 700 641.668 c S
991.668 583.332 m 1030.555 622.223 1030.555 661.109 991.668 700 c S
933.332 408.332 m 972.223 369.445 1011.109 369.445 1050 408.332 c S
758.332 466.668 m 719.445 427.777 719.445 388.891 758.332 350 c S
816.668 641.668 m 855.555 602.777 855.555 563.891 816.668 525 c S
758.332 466.668 m 797.223 505.555 836.109 505.555 875 466.668 c S
991.668 583.332 m 952.777 544.445 913.891 544.445 875 583.332 c S
933.332 408.332 m 894.445 447.223 894.445 486.109 933.332 525 c S
700 583.332 m 738.891 622.223 738.891 602.777 700 525 c S
933.332 700 m 972.223 661.109 952.777 661.109 875 700 c S
1050 466.668 m 1011.109 427.777 1011.109 447.223 1050 525 c S
816.668 350 m 777.777 388.891 797.223 388.891 875 350 c S
758.332 525 m 797.223 563.891 777.777 563.891 700 525 c S
875 408.332 m 836.109 447.223 836.109 427.777 875 350 c S
875 641.668 m 913.891 602.777 913.891 622.223 875 700 c S
991.668 525 m 952.777 486.109 972.223 486.109 1050 525 c S
816.668 291.668 m 777.777 330.555 738.891 330.555 700 291.668 c S
991.668 233.332 m 1030.555 272.223 1030.555 311.109 991.668 350 c S
933.332 58.332 m 972.223 19.445 1011.109 19.445 1050 58.332 c S
758.332 116.668 m 719.445 77.777 719.445 38.891 758.332 0 c S
816.668 291.668 m 855.555 252.777 855.555 213.891 816.668 175 c S
758.332 116.668 m 797.223 155.555 836.109 155.555 875 116.668 c S
991.668 233.332 m 952.777 194.445 913.891 194.445 875 233.332 c S
933.332 58.332 m 894.445 97.223 894.445 136.109 933.332 175 c S
700 233.332 m 738.891 272.223 738.891 252.777 700 175 c S
933.332 350 m 972.223 311.109 952.777 311.109 875 350 c S
1050 116.668 m 1011.109 77.777 1011.109 97.223 1050 175 c S
816.668 0 m 777.777 38.891 797.223 38.891 875 0 c S
758.332 175 m 797.223 213.891 777.777 213.891 700 175 c S
875 58.332 m 836.109 97.223 836.109 77.777 875 0 c S
875 291.668 m 913.891 252.777 913.891 272.223 875 350 c S
991.668 175 m 952.777 136.109 972.223 136.109 1050 175 c S
1166.668 1341.668 m 1127.777 1380.555 1088.891 1380.555 1050 1341.668 c
 S
1341.668 1283.332 m 1380.555 1322.223 1380.555 1361.109 1341.668 1400 c
 S
1283.332 1108.332 m 1322.223 1069.445 1361.109 1069.445 1400 1108.332 c
 S
1108.332 1166.668 m 1069.445 1127.777 1069.445 1088.891 1108.332 1050 c
 S
1166.668 1341.668 m 1205.555 1302.777 1205.555 1263.891 1166.668 1225 c
 S
1108.332 1166.668 m 1147.223 1205.555 1186.109 1205.555 1225 1166.668 c
 S
1341.668 1283.332 m 1302.777 1244.445 1263.891 1244.445 1225 1283.332 c
 S
1283.332 1108.332 m 1244.445 1147.223 1244.445 1186.109 1283.332 1225 c
 S
1050 1283.332 m 1088.891 1322.223 1088.891 1302.777 1050 1225 c S
1283.332 1400 m 1322.223 1361.109 1302.777 1361.109 1225 1400 c S
1400 1166.668 m 1361.109 1127.777 1361.109 1147.223 1400 1225 c S
1166.668 1050 m 1127.777 1088.891 1147.223 1088.891 1225 1050 c S
1108.332 1225 m 1147.223 1263.891 1127.777 1263.891 1050 1225 c S
1225 1108.332 m 1186.109 1147.223 1186.109 1127.777 1225 1050 c S
1225 1341.668 m 1263.891 1302.777 1263.891 1322.223 1225 1400 c S
1341.668 1225 m 1302.777 1186.109 1322.223 1186.109 1400 1225 c S
1166.668 991.668 m 1127.777 1030.555 1088.891 1030.555 1050 991.668 c S
1341.668 933.332 m 1380.555 972.223 1380.555 1011.109 1341.668 1050 c S
1283.332 758.332 m 1322.223 719.445 1361.109 719.445 1400 758.332 c S
1108.332 816.668 m 1069.445 777.777 1069.445 738.891 1108.332 700 c S
1166.668 991.668 m 1205.555 952.777 1205.555 913.891 1166.668 875 c S
1108.332 816.668 m 1147.223 855.555 1186.109 855.555 1225 816.668 c S
1341.668 933.332 m 1302.777 894.445 1263.891 894.445 1225 933.332 c S
1283.332 758.332 m 1244.445 797.223 1244.445 836.109 1283.332 875 c S
1050 933.332 m 1088.891 972.223 1088.891 952.777 1050 875 c S
1283.332 1050 m 1322.223 1011.109 1302.777 1011.109 1225 1050 c S
1400 816.668 m 1361.109 777.777 1361.109 797.223 1400 875 c S
1166.668 700 m 1127.777 738.891 1147.223 738.891 1225 700 c S
1108.332 875 m 1147.223 913.891 1127.777 913.891 1050 875 c S
1225 758.332 m 1186.109 797.223 1186.109 777.777 1225 700 c S
1225 991.668 m 1263.891 952.777 1263.891 972.223 1225 1050 c S
1341.668 875 m 1302.777 836.109 1322.223 836.109 1400 875 c S
1166.668 641.668 m 1127.777 680.555 1088.891 680.555 1050 641.668 c S
1341.668 583.332 m 1380.555 622.223 1380.555 661.109 1341.668 700 c S
1283.332 408.332 m 1322.223 369.445 1361.109 369.445 1400 408.332 c S
1108.332 466.668 m 1069.445 427.777 1069.445 388.891 1108.332 350 c S
1166.668 641.668 m 1205.555 602.777 1205.555 563.891 1166.668 525 c S
1108.332 466.668 m 1147.223 505.555 1186.109 505.555 1225 466.668 c S
1341.668 583.332 m 1302.777 544.445 1263.891 544.445 1225 583.332 c S
1283.332 408.332 m 1244.445 447.223 1244.445 486.109 1283.332 525 c S
1050 583.332 m 1088.891 622.223 1088.891 602.777 1050 525 c S
1283.332 700 m 1322.223 661.109 1302.777 661.109 1225 700 c S
1400 466.668 m 1361.109 427.777 1361.109 447.223 1400 525 c S
1166.668 350 m 1127.777 388.891 1147.223 388.891 1225 350 c S
1108.332 525 m 1147.223 563.891 1127.777 563.891 1050 525 c S
1225 408.332 m 1186.109 447.223 1186.109 427.777 1225 350 c S
1225 641.668 m 1263.891 602.777 1263.891 622.223 1225 700 c S
1341.668 525 m 1302.777 486.109 1322.223 486.109 1400 525 c S
1166.668 291.668 m 1127.777 330.555 1088.891 330.555 1050 291.668 c S
1341.668 233.332 m 1380.555 272.223 1380.555 311.109 1341.668 350 c S
1283.332 58.332 m 1322.223 19.445 1361.109 19.445 1400 58.332 c S
1108.332 116.668 m 1069.445 77.777 1069.445 38.891 1108.332 0 c S
1166.668 291.668 m 1205.555 252.777 1205.555 213.891 1166.668 175 c S
1108.332 116.668 m 1147.223 155.555 1186.109 155.555 1225 116.668 c S
1341.668 233.332 m 1302.777 194.445 1263.891 194.445 1225 233.332 c S
1283.332 58.332 m 1244.445 97.223 1244.445 136.109 1283.332 175 c S
1050 233.332 m 1088.891 272.223 1088.891 252.777 1050 175 c S
1283.332 350 m 1322.223 311.109 1302.777 311.109 1225 350 c S
1400 116.668 m 1361.109 77.777 1361.109 97.223 1400 175 c S
1166.668 0 m 1127.777 38.891 1147.223 38.891 1225 0 c S
1108.332 175 m 1147.223 213.891 1127.777 213.891 1050 175 c S
1225 58.332 m 1186.109 97.223 1186.109 77.777 1225 0 c S
1225 291.668 m 1263.891 252.777 1263.891 272.223 1225 350 c S
1341.668 175 m 1302.777 136.109 1322.223 136.109 1400 175 c S
1516.668 1341.668 m 1477.777 1380.555 1438.891 1380.555 1400 1341.668 c
 S
1691.668 1283.332 m 1730.555 1322.223 1730.555 1361.109 1691.668 1400 c
 S
1633.332 1108.332 m 1672.223 1069.445 1711.109 1069.445 1750 1108.332 c
 S
1458.332 1166.668 m 1419.445 1127.777 1419.445 1088.891 1458.332 1050 c
 S
1516.668 1341.668 m 1555.555 1302.777 1555.555 1263.891 1516.668 1225 c
 S
1458.332 1166.668 m 1497.223 1205.555 1536.109 1205.555 1575 1166.668 c
 S
1691.668 1283.332 m 1652.777 1244.445 1613.891 1244.445 1575 1283.332 c
 S
1633.332 1108.332 m 1594.445 1147.223 1594.445 1186.109 1633.332 1225 c
 S
1400 1283.332 m 1438.891 1322.223 1438.891 1302.777 1400 1225 c S
1633.332 1400 m 1672.223 1361.109 1652.777 1361.109 1575 1400 c S
1750 1166.668 m 1711.109 1127.777 1711.109 1147.223 1750 1225 c S
1516.668 1050 m 1477.777 1088.891 1497.223 1088.891 1575 1050 c S
1458.332 1225 m 1497.223 1263.891 1477.777 1263.891 1400 1225 c S
1575 1108.332 m 1536.109 1147.223 1536.109 1127.777 1575 1050 c S
1575 1341.668 m 1613.891 1302.777 1613.891 1322.223 1575 1400 c S
1691.668 1225 m 1652.777 1186.109 1672.223 1186.109 1750 1225 c S
1516.668 991.668 m 1477.777 1030.555 1438.891 1030.555 1400 991.668 c S
1691.668 933.332 m 1730.555 972.223 1730.555 1011.109 1691.668 1050 c S
1633.332 758.332 m 1672.223 719.445 1711.109 719.445 1750 758.332 c S
1458.332 816.668 m 1419.445 777.777 1419.445 738.891 1458.332 700 c S
1516.668 991.668 m 1555.555 952.777 1555.555 913.891 1516.668 875 c S
1458.332 816.668 m 1497.223 855.555 1536.109 855.555 1575 816.668 c S
1691.668 933.332 m 1652.777 894.445 1613.891 894.445 1575 933.332 c S
1633.332 758.332 m 1594.445 797.223 1594.445 836.109 1633.332 875 c S
1400 933.332 m 1438.891 972.223 1438.891 952.777 1400 875 c S
1633.332 1050 m 1672.223 1011.109 1652.777 1011.109 1575 1050 c S
1750 816.668 m 1711.109 777.777 1711.109 797.223 1750 875 c S
1516.668 700 m 1477.777 738.891 1497.223 738.891 1575 700 c S
1458.332 875 m 1497.223 913.891 1477.777 913.891 1400 875 c S
1575 758.332 m 1536.109 797.223 1536.109 777.777 1575 700 c S
1575 991.668 m 1613.891 952.777 1613.891 972.223 1575 1050 c S
1691.668 875 m 1652.777 836.109 1672.223 836.109 1750 875 c S
1516.668 641.668 m 1477.777 680.555 1438.891 680.555 1400 641.668 c S
1691.668 583.332 m 1730.555 622.223 1730.555 661.109 1691.668 700 c S
1633.332 408.332 m 1672.223 369.445 1711.109 369.445 1750 408.332 c S
1458.332 466.668 m 1419.445 427.777 1419.445 388.891 1458.332 350 c S
1516.668 641.668 m 1555.555 602.777 1555.555 563.891 1516.668 525 c S
1458.332 466.668 m 1497.223 505.555 1536.109 505.555 1575 466.668 c S
1691.668 583.332 m 1652.777 544.445 1613.891 544.445 1575 583.332 c S
1633.332 408.332 m 1594.445 447.223 1594.445 486.109 1633.332 525 c S
1400 583.332 m 1438.891 622.223 1438.891 602.777 1400 525 c S
1633.332 700 m 1672.223 661.109 1652.777 661.109 1575 700 c S
1750 466.668 m 1711.109 427.777 1711.109 447.223 1750 525 c S
1516.668 350 m 1477.777 388.891 1497.223 388.891 1575 350 c S
1458.332 525 m 1497.223 563.891 1477.777 563.891 1400 525 c S
1575 408.332 m 1536.109 447.223 1536.109 427.777 1575 350 c S
1575 641.668 m 1613.891 602.777 1613.891 622.223 1575 700 c S
1691.668 525 m 1652.777 486.109 1672.223 486.109 1750 525 c S
1516.668 291.668 m 1477.777 330.555 1438.891 330.555 1400 291.668 c S
1691.668 233.332 m 1730.555 272.223 1730.555 311.109 1691.668 350 c S
1633.332 58.332 m 1672.223 19.445 1711.109 19.445 1750 58.332 c S
1458.332 116.668 m 1419.445 77.777 1419.445 38.891 1458.332 0 c S
1516.668 291.668 m 1555.555 252.777 1555.555 213.891 1516.668 175 c S
1458.332 116.668 m 1497.223 155.555 1536.109 155.555 1575 116.668 c S
1691.668 233.332 m 1652.777 194.445 1613.891 194.445 1575 233.332 c S
1633.332 58.332 m 1594.445 97.223 1594.445 136.109 1633.332 175 c S
1400 233.332 m 1438.891 272.223 1438.891 252.777 1400 175 c S
1633.332 350 m 1672.223 311.109 1652.777 311.109 1575 350 c S
1750 116.668 m 1711.109 77.777 1711.109 97.223 1750 175 c S
1516.668 0 m 1477.777 38.891 1497.223 38.891 1575 0 c S
1458.332 175 m 1497.223 213.891 1477.777 213.891 1400 175 c S
1575 58.332 m 1536.109 97.223 1536.109 77.777 1575 0 c S
1575 291.668 m 1613.891 252.777 1613.891 272.223 1575 350 c S
1691.668 175 m 1652.777 136.109 1672.223 136.109 1750 175 c S
1866.668 1341.668 m 1827.777 1380.555 1788.891 1380.555 1750 1341.668 c
 S
2041.668 1283.332 m 2080.555 1322.223 2080.555 1361.109 2041.668 1400 c
 S
1983.332 1108.332 m 2022.223 1069.445 2061.109 1069.445 2100 1108.332 c
 S
1808.332 1166.668 m 1769.445 1127.777 1769.445 1088.891 1808.332 1050 c
 S
1866.668 1341.668 m 1905.555 1302.777 1905.555 1263.891 1866.668 1225 c
 S
1808.332 1166.668 m 1847.223 1205.555 1886.109 1205.555 1925 1166.668 c
 S
2041.668 1283.332 m 2002.777 1244.445 1963.891 1244.445 1925 1283.332 c
 S
1983.332 1108.332 m 1944.445 1147.223 1944.445 1186.109 1983.332 1225 c
 S
1750 1283.332 m 1788.891 1322.223 1788.891 1302.777 1750 1225 c S
1983.332 1400 m 2022.223 1361.109 2002.777 1361.109 1925 1400 c S
2100 1166.668 m 2061.109 1127.777 2061.109 1147.223 2100 1225 c S
1866.668 1050 m 1827.777 1088.891 1847.223 1088.891 1925 1050 c S
1808.332 1225 m 1847.223 1263.891 1827.777 1263.891 1750 1225 c S
1925 1108.332 m 1886.109 1147.223 1886.109 1127.777 1925 1050 c S
1925 1341.668 m 1963.891 1302.777 1963.891 1322.223 1925 1400 c S
2041.668 1225 m 2002.777 1186.109 2022.223 1186.109 2100 1225 c S
1866.668 991.668 m 1827.777 1030.555 1788.891 1030.555 1750 991.668 c S
2041.668 933.332 m 2080.555 972.223 2080.555 1011.109 2041.668 1050 c S
1983.332 758.332 m 2022.223 719.445 2061.109 719.445 2100 758.332 c S
1808.332 816.668 m 1769.445 777.777 1769.445 738.891 1808.332 700 c S
1866.668 991.668 m 1905.555 952.777 1905.555 913.891 1866.668 875 c S
1808.332 816.668 m 1847.223 855.555 1886.109 855.555 1925 816.668 c S
2041.668 933.332 m 2002.777 894.445 1963.891 894.445 1925 933.332 c S
1983.332 758.332 m 1944.445 797.223 1944.445 836.109 1983.332 875 c S
1750 933.332 m 1788.891 972.223 1788.891 952.777 1750 875 c S
1983.332 1050 m 2022.223 1011.109 2002.777 1011.109 1925 1050 c S
2100 816.668 m 2061.109 777.777 2061.109 797.223 2100 875 c S
1866.668 700 m 1827.777 738.891 1847.223 738.891 1925 700 c S
1808.332 875 m 1847.223 913.891 1827.777 913.891 1750 875 c S
1925 758.332 m 1886.109 797.223 1886.109 777.777 1925 700 c S
1925 991.668 m 1963.891 952.777 1963.891 972.223 1925 1050 c S
2041.668 875 m 2002.777 836.109 2022.223 836.109 2100 875 c S
1866.668 641.668 m 1827.777 680.555 1788.891 680.555 1750 641.668 c S
2041.668 583.332 m 2080.555 622.223 2080.555 661.109 2041.668 700 c S
1983.332 408.332 m 2022.223 369.445 2061.109 369.445 2100 408.332 c S
1808.332 466.668 m 1769.445 427.777 1769.445 388.891 1808.332 350 c S
1866.668 641.668 m 1905.555 602.777 1905.555 563.891 1866.668 525 c S
1808.332 466.668 m 1847.223 505.555 1886.109 505.555 1925 466.668 c S
2041.668 583.332 m 2002.777 544.445 1963.891 544.445 1925 583.332 c S
1983.332 408.332 m 1944.445 447.223 1944.445 486.109 1983.332 525 c S
1750 583.332 m 1788.891 622.223 1788.891 602.777 1750 525 c S
1983.332 700 m 2022.223 661.109 2002.777 661.109 1925 700 c S
2100 466.668 m 2061.109 427.777 2061.109 447.223 2100 525 c S
1866.668 350 m 1827.777 388.891 1847.223 388.891 1925 350 c S
1808.332 525 m 1847.223 563.891 1827.777 563.891 1750 525 c S
1925 408.332 m 1886.109 447.223 1886.109 427.777 1925 350 c S
1925 641.668 m 1963.891 602.777 1963.891 622.223 1925 700 c S
2041.668 525 m 2002.777 486.109 2022.223 486.109 2100 525 c S
1866.668 291.668 m 1827.777 330.555 1788.891 330.555 1750 291.668 c S
2041.668 233.332 m 2080.555 272.223 2080.555 311.109 2041.668 350 c S
1983.332 58.332 m 2022.223 19.445 2061.109 19.445 2100 58.332 c S
1808.332 116.668 m 1769.445 77.777 1769.445 38.891 1808.332 0 c S
1866.668 291.668 m 1905.555 252.777 1905.555 213.891 1866.668 175 c S
1808.332 116.668 m 1847.223 155.555 1886.109 155.555 1925 116.668 c S
2041.668 233.332 m 2002.777 194.445 1963.891 194.445 1925 233.332 c S
1983.332 58.332 m 1944.445 97.223 1944.445 136.109 1983.332 175 c S
1750 233.332 m 1788.891 272.223 1788.891 252.777 1750 175 c S
1983.332 350 m 2022.223 311.109 2002.777 311.109 1925 350 c S
2100 116.668 m 2061.109 77.777 2061.109 97.223 2100 175 c S
1866.668 0 m 1827.777 38.891 1847.223 38.891 1925 0 c S
1808.332 175 m 1847.223 213.891 1827.777 213.891 1750 175 c S
1925 58.332 m 1886.109 97.223 1886.109 77.777 1925 0 c S
1925 291.668 m 1963.891 252.777 1963.891 272.223 1925 350 c S
2041.668 175 m 2002.777 136.109 2022.223 136.109 2100 175 c S
Q Q
showpage
%%Trailer
%%Trailer
cleartomark
countdictstack
exch sub { end } repeat
restore
%%EOF
