%!PS-Adobe-2.0 EPSF-2.0
%%BoundingBox: 0 0 2100 1400
%%HiResBoundingBox: 0.000000 0.000000 2100.000000 1400.000000
%%Creator: cairo 1.14.2 (http://cairographics.org)
%%CreationDate: Mon Sep  7 08:21:52 2015
%%DocumentData: Clean7Bit
%%LanguageLevel: 2
%%DocumentMedia: 741x494mm 2100 1400 0 () ()
%%EndComments
% EPSF created by ps2eps 1.68
%%BeginProlog
save
countdictstack
mark
newpath
/showpage {} def
/setpagedevice {pop} def
%%EndProlog
%%Page 1 1
%%BeginProlog
/languagelevel where
{ pop languagelevel } { 1 } ifelse
2 lt { /Helvetica findfont 12 scalefont setfont 50 500 moveto
  (This print job requires a PostScript Language Level 2 printer.) show
  showpage quit } if
/q { gsave } bind def
/Q { grestore } bind def
/cm { 6 array astore concat } bind def
/w { setlinewidth } bind def
/J { setlinecap } bind def
/j { setlinejoin } bind def
/M { setmiterlimit } bind def
/d { setdash } bind def
/m { moveto } bind def
/l { lineto } bind def
/c { curveto } bind def
/h { closepath } bind def
/re { exch dup neg 3 1 roll 5 3 roll moveto 0 rlineto
      0 exch rlineto 0 rlineto closepath } bind def
/S { stroke } bind def
/f { fill } bind def
/f* { eofill } bind def
/n { newpath } bind def
/W { clip } bind def
/W* { eoclip } bind def
/BT { } bind def
/ET { } bind def
/pdfmark where { pop globaldict /?pdfmark /exec load put }
    { globaldict begin /?pdfmark /pop load def /pdfmark
    /cleartomark load def end } ifelse
/BDC { mark 3 1 roll /BDC pdfmark } bind def
/EMC { mark /EMC pdfmark } bind def
/cairo_store_point { /cairo_point_y exch def /cairo_point_x exch def } def
/Tj { show currentpoint cairo_store_point } bind def
/TJ {
  {
    dup
    type /stringtype eq
    { show } { -0.001 mul 0 cairo_font_matrix dtransform rmoveto } ifelse
  } forall
  currentpoint cairo_store_point
} bind def
/cairo_selectfont { cairo_font_matrix aload pop pop pop 0 0 6 array astore
    cairo_font exch selectfont cairo_point_x cairo_point_y moveto } bind def
/Tf { pop /cairo_font exch def /cairo_font_matrix where
      { pop cairo_selectfont } if } bind def
/Td { matrix translate cairo_font_matrix matrix concatmatrix dup
      /cairo_font_matrix exch def dup 4 get exch 5 get cairo_store_point
      /cairo_font where { pop cairo_selectfont } if } bind def
/Tm { 2 copy 8 2 roll 6 array astore /cairo_font_matrix exch def
      cairo_store_point /cairo_font where { pop cairo_selectfont } if } bind def
/g { setgray } bind def
/rg { setrgbcolor } bind def
/d1 { setcachedevice } bind def
/cairo_set_page_size {
  % Change paper size, but only if different from previous paper size otherwise
  % duplex fails. PLRM specifies a tolerance of 5 pts when matching paper size
  % so we use the same when checking if the size changes.
  /setpagedevice where {
    pop currentpagedevice
    /PageSize known {
      2 copy
      currentpagedevice /PageSize get aload pop
      exch 4 1 roll
      sub abs 5 gt
      3 1 roll
      sub abs 5 gt
      or
    } {
      true
    } ifelse
    {
      2 array astore
      2 dict begin
        /PageSize exch def
        /ImagingBBox null def
      currentdict end
      setpagedevice
    } {
      pop pop
    } ifelse
  } {
    pop
  } ifelse
} def
%%EndProlog
%%BeginSetup
%%EndSetup
%%Page: 1 1
%%BeginPageSetup
%%PageMedia: 741x494mm
%%PageBoundingBox: 0 0 2100 1400
2100 1400 cairo_set_page_size
%%EndPageSetup
q 0 0 2100 1400 rectclip q
0.984314 g
0 0 2100 1400 rectfill
0.788235 g
1.875 w
0 J
1 j
[] 0.0 d
4 M 0 1400 2100 -1400 re S
0 g
2.5 w
1 J
116.668 1341.668 m 0 1283.332 l S
291.668 1283.332 m 233.332 1400 l S
233.332 1108.332 m 350 1166.668 l S
58.332 1166.668 m 116.668 1050 l S
116.668 1341.668 m 58.332 1225 l S
58.332 1166.668 m 175 1108.332 l S
291.668 1283.332 m 175 1341.668 l S
233.332 1108.332 m 291.668 1225 l S
175 1400 m 58.332 1361.109 38.891 1361.109 116.668 1400 c S
350 1225 m 311.109 1341.668 311.109 1361.109 350 1283.332 c S
175 1050 m 291.668 1088.891 311.109 1088.891 233.332 1050 c S
0 1225 m 38.891 1108.332 38.891 1088.891 0 1166.668 c S
175 1400 m 136.109 1283.332 136.109 1263.891 175 1341.668 c S
0 1225 m 116.668 1186.109 136.109 1186.109 58.332 1225 c S
350 1225 m 233.332 1263.891 213.891 1263.891 291.668 1225 c S
175 1050 m 213.891 1166.668 213.891 1186.109 175 1108.332 c S
116.668 991.668 m 0 933.332 l S
291.668 933.332 m 233.332 1050 l S
233.332 758.332 m 350 816.668 l S
58.332 816.668 m 116.668 700 l S
116.668 991.668 m 58.332 875 l S
58.332 816.668 m 175 758.332 l S
291.668 933.332 m 175 991.668 l S
233.332 758.332 m 291.668 875 l S
175 1050 m 58.332 1011.109 38.891 1011.109 116.668 1050 c S
350 875 m 311.109 991.668 311.109 1011.109 350 933.332 c S
175 700 m 291.668 738.891 311.109 738.891 233.332 700 c S
0 875 m 38.891 758.332 38.891 738.891 0 816.668 c S
175 1050 m 136.109 933.332 136.109 913.891 175 991.668 c S
0 875 m 116.668 836.109 136.109 836.109 58.332 875 c S
350 875 m 233.332 913.891 213.891 913.891 291.668 875 c S
175 700 m 213.891 816.668 213.891 836.109 175 758.332 c S
116.668 641.668 m 0 583.332 l S
291.668 583.332 m 233.332 700 l S
233.332 408.332 m 350 466.668 l S
58.332 466.668 m 116.668 350 l S
116.668 641.668 m 58.332 525 l S
58.332 466.668 m 175 408.332 l S
291.668 583.332 m 175 641.668 l S
233.332 408.332 m 291.668 525 l S
175 700 m 58.332 661.109 38.891 661.109 116.668 700 c S
350 525 m 311.109 641.668 311.109 661.109 350 583.332 c S
175 350 m 291.668 388.891 311.109 388.891 233.332 350 c S
0 525 m 38.891 408.332 38.891 388.891 0 466.668 c S
175 700 m 136.109 583.332 136.109 563.891 175 641.668 c S
0 525 m 116.668 486.109 136.109 486.109 58.332 525 c S
350 525 m 233.332 563.891 213.891 563.891 291.668 525 c S
175 350 m 213.891 466.668 213.891 486.109 175 408.332 c S
116.668 291.668 m 0 233.332 l S
291.668 233.332 m 233.332 350 l S
233.332 58.332 m 350 116.668 l S
58.332 116.668 m 116.668 0 l S
116.668 291.668 m 58.332 175 l S
58.332 116.668 m 175 58.332 l S
291.668 233.332 m 175 291.668 l S
233.332 58.332 m 291.668 175 l S
175 350 m 58.332 311.109 38.891 311.109 116.668 350 c S
350 175 m 311.109 291.668 311.109 311.109 350 233.332 c S
175 0 m 291.668 38.891 311.109 38.891 233.332 0 c S
0 175 m 38.891 58.332 38.891 38.891 0 116.668 c S
175 350 m 136.109 233.332 136.109 213.891 175 291.668 c S
0 175 m 116.668 136.109 136.109 136.109 58.332 175 c S
350 175 m 233.332 213.891 213.891 213.891 291.668 175 c S
175 0 m 213.891 116.668 213.891 136.109 175 58.332 c S
466.668 1341.668 m 350 1283.332 l S
641.668 1283.332 m 583.332 1400 l S
583.332 1108.332 m 700 1166.668 l S
408.332 1166.668 m 466.668 1050 l S
466.668 1341.668 m 408.332 1225 l S
408.332 1166.668 m 525 1108.332 l S
641.668 1283.332 m 525 1341.668 l S
583.332 1108.332 m 641.668 1225 l S
525 1400 m 408.332 1361.109 388.891 1361.109 466.668 1400 c S
700 1225 m 661.109 1341.668 661.109 1361.109 700 1283.332 c S
525 1050 m 641.668 1088.891 661.109 1088.891 583.332 1050 c S
350 1225 m 388.891 1108.332 388.891 1088.891 350 1166.668 c S
525 1400 m 486.109 1283.332 486.109 1263.891 525 1341.668 c S
350 1225 m 466.668 1186.109 486.109 1186.109 408.332 1225 c S
700 1225 m 583.332 1263.891 563.891 1263.891 641.668 1225 c S
525 1050 m 563.891 1166.668 563.891 1186.109 525 1108.332 c S
466.668 991.668 m 350 933.332 l S
641.668 933.332 m 583.332 1050 l S
583.332 758.332 m 700 816.668 l S
408.332 816.668 m 466.668 700 l S
466.668 991.668 m 408.332 875 l S
408.332 816.668 m 525 758.332 l S
641.668 933.332 m 525 991.668 l S
583.332 758.332 m 641.668 875 l S
525 1050 m 408.332 1011.109 388.891 1011.109 466.668 1050 c S
700 875 m 661.109 991.668 661.109 1011.109 700 933.332 c S
525 700 m 641.668 738.891 661.109 738.891 583.332 700 c S
350 875 m 388.891 758.332 388.891 738.891 350 816.668 c S
525 1050 m 486.109 933.332 486.109 913.891 525 991.668 c S
350 875 m 466.668 836.109 486.109 836.109 408.332 875 c S
700 875 m 583.332 913.891 563.891 913.891 641.668 875 c S
525 700 m 563.891 816.668 563.891 836.109 525 758.332 c S
466.668 641.668 m 350 583.332 l S
641.668 583.332 m 583.332 700 l S
583.332 408.332 m 700 466.668 l S
408.332 466.668 m 466.668 350 l S
466.668 641.668 m 408.332 525 l S
408.332 466.668 m 525 408.332 l S
641.668 583.332 m 525 641.668 l S
583.332 408.332 m 641.668 525 l S
525 700 m 408.332 661.109 388.891 661.109 466.668 700 c S
700 525 m 661.109 641.668 661.109 661.109 700 583.332 c S
525 350 m 641.668 388.891 661.109 388.891 583.332 350 c S
350 525 m 388.891 408.332 388.891 388.891 350 466.668 c S
525 700 m 486.109 583.332 486.109 563.891 525 641.668 c S
350 525 m 466.668 486.109 486.109 486.109 408.332 525 c S
700 525 m 583.332 563.891 563.891 563.891 641.668 525 c S
525 350 m 563.891 466.668 563.891 486.109 525 408.332 c S
466.668 291.668 m 350 233.332 l S
641.668 233.332 m 583.332 350 l S
583.332 58.332 m 700 116.668 l S
408.332 116.668 m 466.668 0 l S
466.668 291.668 m 408.332 175 l S
408.332 116.668 m 525 58.332 l S
641.668 233.332 m 525 291.668 l S
583.332 58.332 m 641.668 175 l S
525 350 m 408.332 311.109 388.891 311.109 466.668 350 c S
700 175 m 661.109 291.668 661.109 311.109 700 233.332 c S
525 0 m 641.668 38.891 661.109 38.891 583.332 0 c S
350 175 m 388.891 58.332 388.891 38.891 350 116.668 c S
525 350 m 486.109 233.332 486.109 213.891 525 291.668 c S
350 175 m 466.668 136.109 486.109 136.109 408.332 175 c S
700 175 m 583.332 213.891 563.891 213.891 641.668 175 c S
525 0 m 563.891 116.668 563.891 136.109 525 58.332 c S
816.668 1341.668 m 700 1283.332 l S
991.668 1283.332 m 933.332 1400 l S
933.332 1108.332 m 1050 1166.668 l S
758.332 1166.668 m 816.668 1050 l S
816.668 1341.668 m 758.332 1225 l S
758.332 1166.668 m 875 1108.332 l S
991.668 1283.332 m 875 1341.668 l S
933.332 1108.332 m 991.668 1225 l S
875 1400 m 758.332 1361.109 738.891 1361.109 816.668 1400 c S
1050 1225 m 1011.109 1341.668 1011.109 1361.109 1050 1283.332 c S
875 1050 m 991.668 1088.891 1011.109 1088.891 933.332 1050 c S
700 1225 m 738.891 1108.332 738.891 1088.891 700 1166.668 c S
875 1400 m 836.109 1283.332 836.109 1263.891 875 1341.668 c S
700 1225 m 816.668 1186.109 836.109 1186.109 758.332 1225 c S
1050 1225 m 933.332 1263.891 913.891 1263.891 991.668 1225 c S
875 1050 m 913.891 1166.668 913.891 1186.109 875 1108.332 c S
816.668 991.668 m 700 933.332 l S
991.668 933.332 m 933.332 1050 l S
933.332 758.332 m 1050 816.668 l S
758.332 816.668 m 816.668 700 l S
816.668 991.668 m 758.332 875 l S
758.332 816.668 m 875 758.332 l S
991.668 933.332 m 875 991.668 l S
933.332 758.332 m 991.668 875 l S
875 1050 m 758.332 1011.109 738.891 1011.109 816.668 1050 c S
1050 875 m 1011.109 991.668 1011.109 1011.109 1050 933.332 c S
875 700 m 991.668 738.891 1011.109 738.891 933.332 700 c S
700 875 m 738.891 758.332 738.891 738.891 700 816.668 c S
875 1050 m 836.109 933.332 836.109 913.891 875 991.668 c S
700 875 m 816.668 836.109 836.109 836.109 758.332 875 c S
1050 875 m 933.332 913.891 913.891 913.891 991.668 875 c S
875 700 m 913.891 816.668 913.891 836.109 875 758.332 c S
816.668 641.668 m 700 583.332 l S
991.668 583.332 m 933.332 700 l S
933.332 408.332 m 1050 466.668 l S
758.332 466.668 m 816.668 350 l S
816.668 641.668 m 758.332 525 l S
758.332 466.668 m 875 408.332 l S
991.668 583.332 m 875 641.668 l S
933.332 408.332 m 991.668 525 l S
875 700 m 758.332 661.109 738.891 661.109 816.668 700 c S
1050 525 m 1011.109 641.668 1011.109 661.109 1050 583.332 c S
875 350 m 991.668 388.891 1011.109 388.891 933.332 350 c S
700 525 m 738.891 408.332 738.891 388.891 700 466.668 c S
875 700 m 836.109 583.332 836.109 563.891 875 641.668 c S
700 525 m 816.668 486.109 836.109 486.109 758.332 525 c S
1050 525 m 933.332 563.891 913.891 563.891 991.668 525 c S
875 350 m 913.891 466.668 913.891 486.109 875 408.332 c S
816.668 291.668 m 700 233.332 l S
991.668 233.332 m 933.332 350 l S
933.332 58.332 m 1050 116.668 l S
758.332 116.668 m 816.668 0 l S
816.668 291.668 m 758.332 175 l S
758.332 116.668 m 875 58.332 l S
991.668 233.332 m 875 291.668 l S
933.332 58.332 m 991.668 175 l S
875 350 m 758.332 311.109 738.891 311.109 816.668 350 c S
1050 175 m 1011.109 291.668 1011.109 311.109 1050 233.332 c S
875 0 m 991.668 38.891 1011.109 38.891 933.332 0 c S
700 175 m 738.891 58.332 738.891 38.891 700 116.668 c S
875 350 m 836.109 233.332 836.109 213.891 875 291.668 c S
700 175 m 816.668 136.109 836.109 136.109 758.332 175 c S
1050 175 m 933.332 213.891 913.891 213.891 991.668 175 c S
875 0 m 913.891 116.668 913.891 136.109 875 58.332 c S
1166.668 1341.668 m 1050 1283.332 l S
1341.668 1283.332 m 1283.332 1400 l S
1283.332 1108.332 m 1400 1166.668 l S
1108.332 1166.668 m 1166.668 1050 l S
1166.668 1341.668 m 1108.332 1225 l S
1108.332 1166.668 m 1225 1108.332 l S
1341.668 1283.332 m 1225 1341.668 l S
1283.332 1108.332 m 1341.668 1225 l S
1225 1400 m 1108.332 1361.109 1088.891 1361.109 1166.668 1400 c S
1400 1225 m 1361.109 1341.668 1361.109 1361.109 1400 1283.332 c S
1225 1050 m 1341.668 1088.891 1361.109 1088.891 1283.332 1050 c S
1050 1225 m 1088.891 1108.332 1088.891 1088.891 1050 1166.668 c S
1225 1400 m 1186.109 1283.332 1186.109 1263.891 1225 1341.668 c S
1050 1225 m 1166.668 1186.109 1186.109 1186.109 1108.332 1225 c S
1400 1225 m 1283.332 1263.891 1263.891 1263.891 1341.668 1225 c S
1225 1050 m 1263.891 1166.668 1263.891 1186.109 1225 1108.332 c S
1166.668 991.668 m 1050 933.332 l S
1341.668 933.332 m 1283.332 1050 l S
1283.332 758.332 m 1400 816.668 l S
1108.332 816.668 m 1166.668 700 l S
1166.668 991.668 m 1108.332 875 l S
1108.332 816.668 m 1225 758.332 l S
1341.668 933.332 m 1225 991.668 l S
1283.332 758.332 m 1341.668 875 l S
1225 1050 m 1108.332 1011.109 1088.891 1011.109 1166.668 1050 c S
1400 875 m 1361.109 991.668 1361.109 1011.109 1400 933.332 c S
1225 700 m 1341.668 738.891 1361.109 738.891 1283.332 700 c S
1050 875 m 1088.891 758.332 1088.891 738.891 1050 816.668 c S
1225 1050 m 1186.109 933.332 1186.109 913.891 1225 991.668 c S
1050 875 m 1166.668 836.109 1186.109 836.109 1108.332 875 c S
1400 875 m 1283.332 913.891 1263.891 913.891 1341.668 875 c S
1225 700 m 1263.891 816.668 1263.891 836.109 1225 758.332 c S
1166.668 641.668 m 1050 583.332 l S
1341.668 583.332 m 1283.332 700 l S
1283.332 408.332 m 1400 466.668 l S
1108.332 466.668 m 1166.668 350 l S
1166.668 641.668 m 1108.332 525 l S
1108.332 466.668 m 1225 408.332 l S
1341.668 583.332 m 1225 641.668 l S
1283.332 408.332 m 1341.668 525 l S
1225 700 m 1108.332 661.109 1088.891 661.109 1166.668 700 c S
1400 525 m 1361.109 641.668 1361.109 661.109 1400 583.332 c S
1225 350 m 1341.668 388.891 1361.109 388.891 1283.332 350 c S
1050 525 m 1088.891 408.332 1088.891 388.891 1050 466.668 c S
1225 700 m 1186.109 583.332 1186.109 563.891 1225 641.668 c S
1050 525 m 1166.668 486.109 1186.109 486.109 1108.332 525 c S
1400 525 m 1283.332 563.891 1263.891 563.891 1341.668 525 c S
1225 350 m 1263.891 466.668 1263.891 486.109 1225 408.332 c S
1166.668 291.668 m 1050 233.332 l S
1341.668 233.332 m 1283.332 350 l S
1283.332 58.332 m 1400 116.668 l S
1108.332 116.668 m 1166.668 0 l S
1166.668 291.668 m 1108.332 175 l S
1108.332 116.668 m 1225 58.332 l S
1341.668 233.332 m 1225 291.668 l S
1283.332 58.332 m 1341.668 175 l S
1225 350 m 1108.332 311.109 1088.891 311.109 1166.668 350 c S
1400 175 m 1361.109 291.668 1361.109 311.109 1400 233.332 c S
1225 0 m 1341.668 38.891 1361.109 38.891 1283.332 0 c S
1050 175 m 1088.891 58.332 1088.891 38.891 1050 116.668 c S
1225 350 m 1186.109 233.332 1186.109 213.891 1225 291.668 c S
1050 175 m 1166.668 136.109 1186.109 136.109 1108.332 175 c S
1400 175 m 1283.332 213.891 1263.891 213.891 1341.668 175 c S
1225 0 m 1263.891 116.668 1263.891 136.109 1225 58.332 c S
1516.668 1341.668 m 1400 1283.332 l S
1691.668 1283.332 m 1633.332 1400 l S
1633.332 1108.332 m 1750 1166.668 l S
1458.332 1166.668 m 1516.668 1050 l S
1516.668 1341.668 m 1458.332 1225 l S
1458.332 1166.668 m 1575 1108.332 l S
1691.668 1283.332 m 1575 1341.668 l S
1633.332 1108.332 m 1691.668 1225 l S
1575 1400 m 1458.332 1361.109 1438.891 1361.109 1516.668 1400 c S
1750 1225 m 1711.109 1341.668 1711.109 1361.109 1750 1283.332 c S
1575 1050 m 1691.668 1088.891 1711.109 1088.891 1633.332 1050 c S
1400 1225 m 1438.891 1108.332 1438.891 1088.891 1400 1166.668 c S
1575 1400 m 1536.109 1283.332 1536.109 1263.891 1575 1341.668 c S
1400 1225 m 1516.668 1186.109 1536.109 1186.109 1458.332 1225 c S
1750 1225 m 1633.332 1263.891 1613.891 1263.891 1691.668 1225 c S
1575 1050 m 1613.891 1166.668 1613.891 1186.109 1575 1108.332 c S
1516.668 991.668 m 1400 933.332 l S
1691.668 933.332 m 1633.332 1050 l S
1633.332 758.332 m 1750 816.668 l S
1458.332 816.668 m 1516.668 700 l S
1516.668 991.668 m 1458.332 875 l S
1458.332 816.668 m 1575 758.332 l S
1691.668 933.332 m 1575 991.668 l S
1633.332 758.332 m 1691.668 875 l S
1575 1050 m 1458.332 1011.109 1438.891 1011.109 1516.668 1050 c S
1750 875 m 1711.109 991.668 1711.109 1011.109 1750 933.332 c S
1575 700 m 1691.668 738.891 1711.109 738.891 1633.332 700 c S
1400 875 m 1438.891 758.332 1438.891 738.891 1400 816.668 c S
1575 1050 m 1536.109 933.332 1536.109 913.891 1575 991.668 c S
1400 875 m 1516.668 836.109 1536.109 836.109 1458.332 875 c S
1750 875 m 1633.332 913.891 1613.891 913.891 1691.668 875 c S
1575 700 m 1613.891 816.668 1613.891 836.109 1575 758.332 c S
1516.668 641.668 m 1400 583.332 l S
1691.668 583.332 m 1633.332 700 l S
1633.332 408.332 m 1750 466.668 l S
1458.332 466.668 m 1516.668 350 l S
1516.668 641.668 m 1458.332 525 l S
1458.332 466.668 m 1575 408.332 l S
1691.668 583.332 m 1575 641.668 l S
1633.332 408.332 m 1691.668 525 l S
1575 700 m 1458.332 661.109 1438.891 661.109 1516.668 700 c S
1750 525 m 1711.109 641.668 1711.109 661.109 1750 583.332 c S
1575 350 m 1691.668 388.891 1711.109 388.891 1633.332 350 c S
1400 525 m 1438.891 408.332 1438.891 388.891 1400 466.668 c S
1575 700 m 1536.109 583.332 1536.109 563.891 1575 641.668 c S
1400 525 m 1516.668 486.109 1536.109 486.109 1458.332 525 c S
1750 525 m 1633.332 563.891 1613.891 563.891 1691.668 525 c S
1575 350 m 1613.891 466.668 1613.891 486.109 1575 408.332 c S
1516.668 291.668 m 1400 233.332 l S
1691.668 233.332 m 1633.332 350 l S
1633.332 58.332 m 1750 116.668 l S
1458.332 116.668 m 1516.668 0 l S
1516.668 291.668 m 1458.332 175 l S
1458.332 116.668 m 1575 58.332 l S
1691.668 233.332 m 1575 291.668 l S
1633.332 58.332 m 1691.668 175 l S
1575 350 m 1458.332 311.109 1438.891 311.109 1516.668 350 c S
1750 175 m 1711.109 291.668 1711.109 311.109 1750 233.332 c S
1575 0 m 1691.668 38.891 1711.109 38.891 1633.332 0 c S
1400 175 m 1438.891 58.332 1438.891 38.891 1400 116.668 c S
1575 350 m 1536.109 233.332 1536.109 213.891 1575 291.668 c S
1400 175 m 1516.668 136.109 1536.109 136.109 1458.332 175 c S
1750 175 m 1633.332 213.891 1613.891 213.891 1691.668 175 c S
1575 0 m 1613.891 116.668 1613.891 136.109 1575 58.332 c S
1866.668 1341.668 m 1750 1283.332 l S
2041.668 1283.332 m 1983.332 1400 l S
1983.332 1108.332 m 2100 1166.668 l S
1808.332 1166.668 m 1866.668 1050 l S
1866.668 1341.668 m 1808.332 1225 l S
1808.332 1166.668 m 1925 1108.332 l S
2041.668 1283.332 m 1925 1341.668 l S
1983.332 1108.332 m 2041.668 1225 l S
1925 1400 m 1808.332 1361.109 1788.891 1361.109 1866.668 1400 c S
2100 1225 m 2061.109 1341.668 2061.109 1361.109 2100 1283.332 c S
1925 1050 m 2041.668 1088.891 2061.109 1088.891 1983.332 1050 c S
1750 1225 m 1788.891 1108.332 1788.891 1088.891 1750 1166.668 c S
1925 1400 m 1886.109 1283.332 1886.109 1263.891 1925 1341.668 c S
1750 1225 m 1866.668 1186.109 1886.109 1186.109 1808.332 1225 c S
2100 1225 m 1983.332 1263.891 1963.891 1263.891 2041.668 1225 c S
1925 1050 m 1963.891 1166.668 1963.891 1186.109 1925 1108.332 c S
1866.668 991.668 m 1750 933.332 l S
2041.668 933.332 m 1983.332 1050 l S
1983.332 758.332 m 2100 816.668 l S
1808.332 816.668 m 1866.668 700 l S
1866.668 991.668 m 1808.332 875 l S
1808.332 816.668 m 1925 758.332 l S
2041.668 933.332 m 1925 991.668 l S
1983.332 758.332 m 2041.668 875 l S
1925 1050 m 1808.332 1011.109 1788.891 1011.109 1866.668 1050 c S
2100 875 m 2061.109 991.668 2061.109 1011.109 2100 933.332 c S
1925 700 m 2041.668 738.891 2061.109 738.891 1983.332 700 c S
1750 875 m 1788.891 758.332 1788.891 738.891 1750 816.668 c S
1925 1050 m 1886.109 933.332 1886.109 913.891 1925 991.668 c S
1750 875 m 1866.668 836.109 1886.109 836.109 1808.332 875 c S
2100 875 m 1983.332 913.891 1963.891 913.891 2041.668 875 c S
1925 700 m 1963.891 816.668 1963.891 836.109 1925 758.332 c S
1866.668 641.668 m 1750 583.332 l S
2041.668 583.332 m 1983.332 700 l S
1983.332 408.332 m 2100 466.668 l S
1808.332 466.668 m 1866.668 350 l S
1866.668 641.668 m 1808.332 525 l S
1808.332 466.668 m 1925 408.332 l S
2041.668 583.332 m 1925 641.668 l S
1983.332 408.332 m 2041.668 525 l S
1925 700 m 1808.332 661.109 1788.891 661.109 1866.668 700 c S
2100 525 m 2061.109 641.668 2061.109 661.109 2100 583.332 c S
1925 350 m 2041.668 388.891 2061.109 388.891 1983.332 350 c S
1750 525 m 1788.891 408.332 1788.891 388.891 1750 466.668 c S
1925 700 m 1886.109 583.332 1886.109 563.891 1925 641.668 c S
1750 525 m 1866.668 486.109 1886.109 486.109 1808.332 525 c S
2100 525 m 1983.332 563.891 1963.891 563.891 2041.668 525 c S
1925 350 m 1963.891 466.668 1963.891 486.109 1925 408.332 c S
1866.668 291.668 m 1750 233.332 l S
2041.668 233.332 m 1983.332 350 l S
1983.332 58.332 m 2100 116.668 l S
1808.332 116.668 m 1866.668 0 l S
1866.668 291.668 m 1808.332 175 l S
1808.332 116.668 m 1925 58.332 l S
2041.668 233.332 m 1925 291.668 l S
1983.332 58.332 m 2041.668 175 l S
1925 350 m 1808.332 311.109 1788.891 311.109 1866.668 350 c S
2100 175 m 2061.109 291.668 2061.109 311.109 2100 233.332 c S
1925 0 m 2041.668 38.891 2061.109 38.891 1983.332 0 c S
1750 175 m 1788.891 58.332 1788.891 38.891 1750 116.668 c S
1925 350 m 1886.109 233.332 1886.109 213.891 1925 291.668 c S
1750 175 m 1866.668 136.109 1886.109 136.109 1808.332 175 c S
2100 175 m 1983.332 213.891 1963.891 213.891 2041.668 175 c S
1925 0 m 1963.891 116.668 1963.891 136.109 1925 58.332 c S
Q Q
showpage
%%Trailer
%%Trailer
cleartomark
countdictstack
exch sub { end } repeat
restore
%%EOF
