%!PS-Adobe-2.0 EPSF-2.0
%%BoundingBox: 0 0 2100 1400
%%HiResBoundingBox: 0.000000 0.000000 2100.000000 1400.000000
%%Creator: cairo 1.14.2 (http://cairographics.org)
%%CreationDate: Mon Sep  7 08:21:52 2015
%%DocumentData: Clean7Bit
%%LanguageLevel: 2
%%DocumentMedia: 741x494mm 2100 1400 0 () ()
%%EndComments
% EPSF created by ps2eps 1.68
%%BeginProlog
save
countdictstack
mark
newpath
/showpage {} def
/setpagedevice {pop} def
%%EndProlog
%%Page 1 1
%%BeginProlog
/languagelevel where
{ pop languagelevel } { 1 } ifelse
2 lt { /Helvetica findfont 12 scalefont setfont 50 500 moveto
  (This print job requires a PostScript Language Level 2 printer.) show
  showpage quit } if
/q { gsave } bind def
/Q { grestore } bind def
/cm { 6 array astore concat } bind def
/w { setlinewidth } bind def
/J { setlinecap } bind def
/j { setlinejoin } bind def
/M { setmiterlimit } bind def
/d { setdash } bind def
/m { moveto } bind def
/l { lineto } bind def
/c { curveto } bind def
/h { closepath } bind def
/re { exch dup neg 3 1 roll 5 3 roll moveto 0 rlineto
      0 exch rlineto 0 rlineto closepath } bind def
/S { stroke } bind def
/f { fill } bind def
/f* { eofill } bind def
/n { newpath } bind def
/W { clip } bind def
/W* { eoclip } bind def
/BT { } bind def
/ET { } bind def
/pdfmark where { pop globaldict /?pdfmark /exec load put }
    { globaldict begin /?pdfmark /pop load def /pdfmark
    /cleartomark load def end } ifelse
/BDC { mark 3 1 roll /BDC pdfmark } bind def
/EMC { mark /EMC pdfmark } bind def
/cairo_store_point { /cairo_point_y exch def /cairo_point_x exch def } def
/Tj { show currentpoint cairo_store_point } bind def
/TJ {
  {
    dup
    type /stringtype eq
    { show } { -0.001 mul 0 cairo_font_matrix dtransform rmoveto } ifelse
  } forall
  currentpoint cairo_store_point
} bind def
/cairo_selectfont { cairo_font_matrix aload pop pop pop 0 0 6 array astore
    cairo_font exch selectfont cairo_point_x cairo_point_y moveto } bind def
/Tf { pop /cairo_font exch def /cairo_font_matrix where
      { pop cairo_selectfont } if } bind def
/Td { matrix translate cairo_font_matrix matrix concatmatrix dup
      /cairo_font_matrix exch def dup 4 get exch 5 get cairo_store_point
      /cairo_font where { pop cairo_selectfont } if } bind def
/Tm { 2 copy 8 2 roll 6 array astore /cairo_font_matrix exch def
      cairo_store_point /cairo_font where { pop cairo_selectfont } if } bind def
/g { setgray } bind def
/rg { setrgbcolor } bind def
/d1 { setcachedevice } bind def
/cairo_set_page_size {
  % Change paper size, but only if different from previous paper size otherwise
  % duplex fails. PLRM specifies a tolerance of 5 pts when matching paper size
  % so we use the same when checking if the size changes.
  /setpagedevice where {
    pop currentpagedevice
    /PageSize known {
      2 copy
      currentpagedevice /PageSize get aload pop
      exch 4 1 roll
      sub abs 5 gt
      3 1 roll
      sub abs 5 gt
      or
    } {
      true
    } ifelse
    {
      2 array astore
      2 dict begin
        /PageSize exch def
        /ImagingBBox null def
      currentdict end
      setpagedevice
    } {
      pop pop
    } ifelse
  } {
    pop
  } ifelse
} def
%%EndProlog
%%BeginSetup
%%EndSetup
%%Page: 1 1
%%BeginPageSetup
%%PageMedia: 741x494mm
%%PageBoundingBox: 0 0 2100 1400
2100 1400 cairo_set_page_size
%%EndPageSetup
q 0 0 2100 1400 rectclip q
0.984314 g
0 0 2100 1400 rectfill
0.788235 g
1.875 w
0 J
1 j
[] 0.0 d
4 M 0 1400 2100 -1400 re S
0 g
2.5 w
1 J
58.332 1400 m 0 1341.668 l S
350 1341.668 m 291.668 1400 l S
291.668 1050 m 350 1108.332 l S
0 1108.332 m 58.332 1050 l S
175 1283.332 m 116.668 1225 l S
116.668 1225 m 175 1166.668 l S
233.332 1225 m 175 1283.332 l S
175 1166.668 m 233.332 1225 l S
116.668 1341.668 m 0 1283.332 58.332 1283.332 0 1341.668 c S
291.668 1283.332 m 233.332 1400 233.332 1341.668 291.668 1400 c S
233.332 1108.332 m 350 1166.668 291.668 1166.668 350 1108.332 c S
58.332 1166.668 m 116.668 1050 116.668 1108.332 58.332 1050 c S
116.668 1341.668 m 58.332 1225 58.332 1283.332 116.668 1225 c S
58.332 1166.668 m 175 1108.332 116.668 1108.332 175 1166.668 c S
291.668 1283.332 m 175 1341.668 233.332 1341.668 175 1283.332 c S
233.332 1108.332 m 291.668 1225 291.668 1166.668 233.332 1225 c S
58.332 1050 m 0 991.668 l S
350 991.668 m 291.668 1050 l S
291.668 700 m 350 758.332 l S
0 758.332 m 58.332 700 l S
175 933.332 m 116.668 875 l S
116.668 875 m 175 816.668 l S
233.332 875 m 175 933.332 l S
175 816.668 m 233.332 875 l S
116.668 991.668 m 0 933.332 58.332 933.332 0 991.668 c S
291.668 933.332 m 233.332 1050 233.332 991.668 291.668 1050 c S
233.332 758.332 m 350 816.668 291.668 816.668 350 758.332 c S
58.332 816.668 m 116.668 700 116.668 758.332 58.332 700 c S
116.668 991.668 m 58.332 875 58.332 933.332 116.668 875 c S
58.332 816.668 m 175 758.332 116.668 758.332 175 816.668 c S
291.668 933.332 m 175 991.668 233.332 991.668 175 933.332 c S
233.332 758.332 m 291.668 875 291.668 816.668 233.332 875 c S
58.332 700 m 0 641.668 l S
350 641.668 m 291.668 700 l S
291.668 350 m 350 408.332 l S
0 408.332 m 58.332 350 l S
175 583.332 m 116.668 525 l S
116.668 525 m 175 466.668 l S
233.332 525 m 175 583.332 l S
175 466.668 m 233.332 525 l S
116.668 641.668 m 0 583.332 58.332 583.332 0 641.668 c S
291.668 583.332 m 233.332 700 233.332 641.668 291.668 700 c S
233.332 408.332 m 350 466.668 291.668 466.668 350 408.332 c S
58.332 466.668 m 116.668 350 116.668 408.332 58.332 350 c S
116.668 641.668 m 58.332 525 58.332 583.332 116.668 525 c S
58.332 466.668 m 175 408.332 116.668 408.332 175 466.668 c S
291.668 583.332 m 175 641.668 233.332 641.668 175 583.332 c S
233.332 408.332 m 291.668 525 291.668 466.668 233.332 525 c S
58.332 350 m 0 291.668 l S
350 291.668 m 291.668 350 l S
291.668 0 m 350 58.332 l S
0 58.332 m 58.332 0 l S
175 233.332 m 116.668 175 l S
116.668 175 m 175 116.668 l S
233.332 175 m 175 233.332 l S
175 116.668 m 233.332 175 l S
116.668 291.668 m 0 233.332 58.332 233.332 0 291.668 c S
291.668 233.332 m 233.332 350 233.332 291.668 291.668 350 c S
233.332 58.332 m 350 116.668 291.668 116.668 350 58.332 c S
58.332 116.668 m 116.668 0 116.668 58.332 58.332 0 c S
116.668 291.668 m 58.332 175 58.332 233.332 116.668 175 c S
58.332 116.668 m 175 58.332 116.668 58.332 175 116.668 c S
291.668 233.332 m 175 291.668 233.332 291.668 175 233.332 c S
233.332 58.332 m 291.668 175 291.668 116.668 233.332 175 c S
408.332 1400 m 350 1341.668 l S
700 1341.668 m 641.668 1400 l S
641.668 1050 m 700 1108.332 l S
350 1108.332 m 408.332 1050 l S
525 1283.332 m 466.668 1225 l S
466.668 1225 m 525 1166.668 l S
583.332 1225 m 525 1283.332 l S
525 1166.668 m 583.332 1225 l S
466.668 1341.668 m 350 1283.332 408.332 1283.332 350 1341.668 c S
641.668 1283.332 m 583.332 1400 583.332 1341.668 641.668 1400 c S
583.332 1108.332 m 700 1166.668 641.668 1166.668 700 1108.332 c S
408.332 1166.668 m 466.668 1050 466.668 1108.332 408.332 1050 c S
466.668 1341.668 m 408.332 1225 408.332 1283.332 466.668 1225 c S
408.332 1166.668 m 525 1108.332 466.668 1108.332 525 1166.668 c S
641.668 1283.332 m 525 1341.668 583.332 1341.668 525 1283.332 c S
583.332 1108.332 m 641.668 1225 641.668 1166.668 583.332 1225 c S
408.332 1050 m 350 991.668 l S
700 991.668 m 641.668 1050 l S
641.668 700 m 700 758.332 l S
350 758.332 m 408.332 700 l S
525 933.332 m 466.668 875 l S
466.668 875 m 525 816.668 l S
583.332 875 m 525 933.332 l S
525 816.668 m 583.332 875 l S
466.668 991.668 m 350 933.332 408.332 933.332 350 991.668 c S
641.668 933.332 m 583.332 1050 583.332 991.668 641.668 1050 c S
583.332 758.332 m 700 816.668 641.668 816.668 700 758.332 c S
408.332 816.668 m 466.668 700 466.668 758.332 408.332 700 c S
466.668 991.668 m 408.332 875 408.332 933.332 466.668 875 c S
408.332 816.668 m 525 758.332 466.668 758.332 525 816.668 c S
641.668 933.332 m 525 991.668 583.332 991.668 525 933.332 c S
583.332 758.332 m 641.668 875 641.668 816.668 583.332 875 c S
408.332 700 m 350 641.668 l S
700 641.668 m 641.668 700 l S
641.668 350 m 700 408.332 l S
350 408.332 m 408.332 350 l S
525 583.332 m 466.668 525 l S
466.668 525 m 525 466.668 l S
583.332 525 m 525 583.332 l S
525 466.668 m 583.332 525 l S
466.668 641.668 m 350 583.332 408.332 583.332 350 641.668 c S
641.668 583.332 m 583.332 700 583.332 641.668 641.668 700 c S
583.332 408.332 m 700 466.668 641.668 466.668 700 408.332 c S
408.332 466.668 m 466.668 350 466.668 408.332 408.332 350 c S
466.668 641.668 m 408.332 525 408.332 583.332 466.668 525 c S
408.332 466.668 m 525 408.332 466.668 408.332 525 466.668 c S
641.668 583.332 m 525 641.668 583.332 641.668 525 583.332 c S
583.332 408.332 m 641.668 525 641.668 466.668 583.332 525 c S
408.332 350 m 350 291.668 l S
700 291.668 m 641.668 350 l S
641.668 0 m 700 58.332 l S
350 58.332 m 408.332 0 l S
525 233.332 m 466.668 175 l S
466.668 175 m 525 116.668 l S
583.332 175 m 525 233.332 l S
525 116.668 m 583.332 175 l S
466.668 291.668 m 350 233.332 408.332 233.332 350 291.668 c S
641.668 233.332 m 583.332 350 583.332 291.668 641.668 350 c S
583.332 58.332 m 700 116.668 641.668 116.668 700 58.332 c S
408.332 116.668 m 466.668 0 466.668 58.332 408.332 0 c S
466.668 291.668 m 408.332 175 408.332 233.332 466.668 175 c S
408.332 116.668 m 525 58.332 466.668 58.332 525 116.668 c S
641.668 233.332 m 525 291.668 583.332 291.668 525 233.332 c S
583.332 58.332 m 641.668 175 641.668 116.668 583.332 175 c S
758.332 1400 m 700 1341.668 l S
1050 1341.668 m 991.668 1400 l S
991.668 1050 m 1050 1108.332 l S
700 1108.332 m 758.332 1050 l S
875 1283.332 m 816.668 1225 l S
816.668 1225 m 875 1166.668 l S
933.332 1225 m 875 1283.332 l S
875 1166.668 m 933.332 1225 l S
816.668 1341.668 m 700 1283.332 758.332 1283.332 700 1341.668 c S
991.668 1283.332 m 933.332 1400 933.332 1341.668 991.668 1400 c S
933.332 1108.332 m 1050 1166.668 991.668 1166.668 1050 1108.332 c S
758.332 1166.668 m 816.668 1050 816.668 1108.332 758.332 1050 c S
816.668 1341.668 m 758.332 1225 758.332 1283.332 816.668 1225 c S
758.332 1166.668 m 875 1108.332 816.668 1108.332 875 1166.668 c S
991.668 1283.332 m 875 1341.668 933.332 1341.668 875 1283.332 c S
933.332 1108.332 m 991.668 1225 991.668 1166.668 933.332 1225 c S
758.332 1050 m 700 991.668 l S
1050 991.668 m 991.668 1050 l S
991.668 700 m 1050 758.332 l S
700 758.332 m 758.332 700 l S
875 933.332 m 816.668 875 l S
816.668 875 m 875 816.668 l S
933.332 875 m 875 933.332 l S
875 816.668 m 933.332 875 l S
816.668 991.668 m 700 933.332 758.332 933.332 700 991.668 c S
991.668 933.332 m 933.332 1050 933.332 991.668 991.668 1050 c S
933.332 758.332 m 1050 816.668 991.668 816.668 1050 758.332 c S
758.332 816.668 m 816.668 700 816.668 758.332 758.332 700 c S
816.668 991.668 m 758.332 875 758.332 933.332 816.668 875 c S
758.332 816.668 m 875 758.332 816.668 758.332 875 816.668 c S
991.668 933.332 m 875 991.668 933.332 991.668 875 933.332 c S
933.332 758.332 m 991.668 875 991.668 816.668 933.332 875 c S
758.332 700 m 700 641.668 l S
1050 641.668 m 991.668 700 l S
991.668 350 m 1050 408.332 l S
700 408.332 m 758.332 350 l S
875 583.332 m 816.668 525 l S
816.668 525 m 875 466.668 l S
933.332 525 m 875 583.332 l S
875 466.668 m 933.332 525 l S
816.668 641.668 m 700 583.332 758.332 583.332 700 641.668 c S
991.668 583.332 m 933.332 700 933.332 641.668 991.668 700 c S
933.332 408.332 m 1050 466.668 991.668 466.668 1050 408.332 c S
758.332 466.668 m 816.668 350 816.668 408.332 758.332 350 c S
816.668 641.668 m 758.332 525 758.332 583.332 816.668 525 c S
758.332 466.668 m 875 408.332 816.668 408.332 875 466.668 c S
991.668 583.332 m 875 641.668 933.332 641.668 875 583.332 c S
933.332 408.332 m 991.668 525 991.668 466.668 933.332 525 c S
758.332 350 m 700 291.668 l S
1050 291.668 m 991.668 350 l S
991.668 0 m 1050 58.332 l S
700 58.332 m 758.332 0 l S
875 233.332 m 816.668 175 l S
816.668 175 m 875 116.668 l S
933.332 175 m 875 233.332 l S
875 116.668 m 933.332 175 l S
816.668 291.668 m 700 233.332 758.332 233.332 700 291.668 c S
991.668 233.332 m 933.332 350 933.332 291.668 991.668 350 c S
933.332 58.332 m 1050 116.668 991.668 116.668 1050 58.332 c S
758.332 116.668 m 816.668 0 816.668 58.332 758.332 0 c S
816.668 291.668 m 758.332 175 758.332 233.332 816.668 175 c S
758.332 116.668 m 875 58.332 816.668 58.332 875 116.668 c S
991.668 233.332 m 875 291.668 933.332 291.668 875 233.332 c S
933.332 58.332 m 991.668 175 991.668 116.668 933.332 175 c S
1108.332 1400 m 1050 1341.668 l S
1400 1341.668 m 1341.668 1400 l S
1341.668 1050 m 1400 1108.332 l S
1050 1108.332 m 1108.332 1050 l S
1225 1283.332 m 1166.668 1225 l S
1166.668 1225 m 1225 1166.668 l S
1283.332 1225 m 1225 1283.332 l S
1225 1166.668 m 1283.332 1225 l S
1166.668 1341.668 m 1050 1283.332 1108.332 1283.332 1050 1341.668 c S
1341.668 1283.332 m 1283.332 1400 1283.332 1341.668 1341.668 1400 c S
1283.332 1108.332 m 1400 1166.668 1341.668 1166.668 1400 1108.332 c S
1108.332 1166.668 m 1166.668 1050 1166.668 1108.332 1108.332 1050 c S
1166.668 1341.668 m 1108.332 1225 1108.332 1283.332 1166.668 1225 c S
1108.332 1166.668 m 1225 1108.332 1166.668 1108.332 1225 1166.668 c S
1341.668 1283.332 m 1225 1341.668 1283.332 1341.668 1225 1283.332 c S
1283.332 1108.332 m 1341.668 1225 1341.668 1166.668 1283.332 1225 c S
1108.332 1050 m 1050 991.668 l S
1400 991.668 m 1341.668 1050 l S
1341.668 700 m 1400 758.332 l S
1050 758.332 m 1108.332 700 l S
1225 933.332 m 1166.668 875 l S
1166.668 875 m 1225 816.668 l S
1283.332 875 m 1225 933.332 l S
1225 816.668 m 1283.332 875 l S
1166.668 991.668 m 1050 933.332 1108.332 933.332 1050 991.668 c S
1341.668 933.332 m 1283.332 1050 1283.332 991.668 1341.668 1050 c S
1283.332 758.332 m 1400 816.668 1341.668 816.668 1400 758.332 c S
1108.332 816.668 m 1166.668 700 1166.668 758.332 1108.332 700 c S
1166.668 991.668 m 1108.332 875 1108.332 933.332 1166.668 875 c S
1108.332 816.668 m 1225 758.332 1166.668 758.332 1225 816.668 c S
1341.668 933.332 m 1225 991.668 1283.332 991.668 1225 933.332 c S
1283.332 758.332 m 1341.668 875 1341.668 816.668 1283.332 875 c S
1108.332 700 m 1050 641.668 l S
1400 641.668 m 1341.668 700 l S
1341.668 350 m 1400 408.332 l S
1050 408.332 m 1108.332 350 l S
1225 583.332 m 1166.668 525 l S
1166.668 525 m 1225 466.668 l S
1283.332 525 m 1225 583.332 l S
1225 466.668 m 1283.332 525 l S
1166.668 641.668 m 1050 583.332 1108.332 583.332 1050 641.668 c S
1341.668 583.332 m 1283.332 700 1283.332 641.668 1341.668 700 c S
1283.332 408.332 m 1400 466.668 1341.668 466.668 1400 408.332 c S
1108.332 466.668 m 1166.668 350 1166.668 408.332 1108.332 350 c S
1166.668 641.668 m 1108.332 525 1108.332 583.332 1166.668 525 c S
1108.332 466.668 m 1225 408.332 1166.668 408.332 1225 466.668 c S
1341.668 583.332 m 1225 641.668 1283.332 641.668 1225 583.332 c S
1283.332 408.332 m 1341.668 525 1341.668 466.668 1283.332 525 c S
1108.332 350 m 1050 291.668 l S
1400 291.668 m 1341.668 350 l S
1341.668 0 m 1400 58.332 l S
1050 58.332 m 1108.332 0 l S
1225 233.332 m 1166.668 175 l S
1166.668 175 m 1225 116.668 l S
1283.332 175 m 1225 233.332 l S
1225 116.668 m 1283.332 175 l S
1166.668 291.668 m 1050 233.332 1108.332 233.332 1050 291.668 c S
1341.668 233.332 m 1283.332 350 1283.332 291.668 1341.668 350 c S
1283.332 58.332 m 1400 116.668 1341.668 116.668 1400 58.332 c S
1108.332 116.668 m 1166.668 0 1166.668 58.332 1108.332 0 c S
1166.668 291.668 m 1108.332 175 1108.332 233.332 1166.668 175 c S
1108.332 116.668 m 1225 58.332 1166.668 58.332 1225 116.668 c S
1341.668 233.332 m 1225 291.668 1283.332 291.668 1225 233.332 c S
1283.332 58.332 m 1341.668 175 1341.668 116.668 1283.332 175 c S
1458.332 1400 m 1400 1341.668 l S
1750 1341.668 m 1691.668 1400 l S
1691.668 1050 m 1750 1108.332 l S
1400 1108.332 m 1458.332 1050 l S
1575 1283.332 m 1516.668 1225 l S
1516.668 1225 m 1575 1166.668 l S
1633.332 1225 m 1575 1283.332 l S
1575 1166.668 m 1633.332 1225 l S
1516.668 1341.668 m 1400 1283.332 1458.332 1283.332 1400 1341.668 c S
1691.668 1283.332 m 1633.332 1400 1633.332 1341.668 1691.668 1400 c S
1633.332 1108.332 m 1750 1166.668 1691.668 1166.668 1750 1108.332 c S
1458.332 1166.668 m 1516.668 1050 1516.668 1108.332 1458.332 1050 c S
1516.668 1341.668 m 1458.332 1225 1458.332 1283.332 1516.668 1225 c S
1458.332 1166.668 m 1575 1108.332 1516.668 1108.332 1575 1166.668 c S
1691.668 1283.332 m 1575 1341.668 1633.332 1341.668 1575 1283.332 c S
1633.332 1108.332 m 1691.668 1225 1691.668 1166.668 1633.332 1225 c S
1458.332 1050 m 1400 991.668 l S
1750 991.668 m 1691.668 1050 l S
1691.668 700 m 1750 758.332 l S
1400 758.332 m 1458.332 700 l S
1575 933.332 m 1516.668 875 l S
1516.668 875 m 1575 816.668 l S
1633.332 875 m 1575 933.332 l S
1575 816.668 m 1633.332 875 l S
1516.668 991.668 m 1400 933.332 1458.332 933.332 1400 991.668 c S
1691.668 933.332 m 1633.332 1050 1633.332 991.668 1691.668 1050 c S
1633.332 758.332 m 1750 816.668 1691.668 816.668 1750 758.332 c S
1458.332 816.668 m 1516.668 700 1516.668 758.332 1458.332 700 c S
1516.668 991.668 m 1458.332 875 1458.332 933.332 1516.668 875 c S
1458.332 816.668 m 1575 758.332 1516.668 758.332 1575 816.668 c S
1691.668 933.332 m 1575 991.668 1633.332 991.668 1575 933.332 c S
1633.332 758.332 m 1691.668 875 1691.668 816.668 1633.332 875 c S
1458.332 700 m 1400 641.668 l S
1750 641.668 m 1691.668 700 l S
1691.668 350 m 1750 408.332 l S
1400 408.332 m 1458.332 350 l S
1575 583.332 m 1516.668 525 l S
1516.668 525 m 1575 466.668 l S
1633.332 525 m 1575 583.332 l S
1575 466.668 m 1633.332 525 l S
1516.668 641.668 m 1400 583.332 1458.332 583.332 1400 641.668 c S
1691.668 583.332 m 1633.332 700 1633.332 641.668 1691.668 700 c S
1633.332 408.332 m 1750 466.668 1691.668 466.668 1750 408.332 c S
1458.332 466.668 m 1516.668 350 1516.668 408.332 1458.332 350 c S
1516.668 641.668 m 1458.332 525 1458.332 583.332 1516.668 525 c S
1458.332 466.668 m 1575 408.332 1516.668 408.332 1575 466.668 c S
1691.668 583.332 m 1575 641.668 1633.332 641.668 1575 583.332 c S
1633.332 408.332 m 1691.668 525 1691.668 466.668 1633.332 525 c S
1458.332 350 m 1400 291.668 l S
1750 291.668 m 1691.668 350 l S
1691.668 0 m 1750 58.332 l S
1400 58.332 m 1458.332 0 l S
1575 233.332 m 1516.668 175 l S
1516.668 175 m 1575 116.668 l S
1633.332 175 m 1575 233.332 l S
1575 116.668 m 1633.332 175 l S
1516.668 291.668 m 1400 233.332 1458.332 233.332 1400 291.668 c S
1691.668 233.332 m 1633.332 350 1633.332 291.668 1691.668 350 c S
1633.332 58.332 m 1750 116.668 1691.668 116.668 1750 58.332 c S
1458.332 116.668 m 1516.668 0 1516.668 58.332 1458.332 0 c S
1516.668 291.668 m 1458.332 175 1458.332 233.332 1516.668 175 c S
1458.332 116.668 m 1575 58.332 1516.668 58.332 1575 116.668 c S
1691.668 233.332 m 1575 291.668 1633.332 291.668 1575 233.332 c S
1633.332 58.332 m 1691.668 175 1691.668 116.668 1633.332 175 c S
1808.332 1400 m 1750 1341.668 l S
2100 1341.668 m 2041.668 1400 l S
2041.668 1050 m 2100 1108.332 l S
1750 1108.332 m 1808.332 1050 l S
1925 1283.332 m 1866.668 1225 l S
1866.668 1225 m 1925 1166.668 l S
1983.332 1225 m 1925 1283.332 l S
1925 1166.668 m 1983.332 1225 l S
1866.668 1341.668 m 1750 1283.332 1808.332 1283.332 1750 1341.668 c S
2041.668 1283.332 m 1983.332 1400 1983.332 1341.668 2041.668 1400 c S
1983.332 1108.332 m 2100 1166.668 2041.668 1166.668 2100 1108.332 c S
1808.332 1166.668 m 1866.668 1050 1866.668 1108.332 1808.332 1050 c S
1866.668 1341.668 m 1808.332 1225 1808.332 1283.332 1866.668 1225 c S
1808.332 1166.668 m 1925 1108.332 1866.668 1108.332 1925 1166.668 c S
2041.668 1283.332 m 1925 1341.668 1983.332 1341.668 1925 1283.332 c S
1983.332 1108.332 m 2041.668 1225 2041.668 1166.668 1983.332 1225 c S
1808.332 1050 m 1750 991.668 l S
2100 991.668 m 2041.668 1050 l S
2041.668 700 m 2100 758.332 l S
1750 758.332 m 1808.332 700 l S
1925 933.332 m 1866.668 875 l S
1866.668 875 m 1925 816.668 l S
1983.332 875 m 1925 933.332 l S
1925 816.668 m 1983.332 875 l S
1866.668 991.668 m 1750 933.332 1808.332 933.332 1750 991.668 c S
2041.668 933.332 m 1983.332 1050 1983.332 991.668 2041.668 1050 c S
1983.332 758.332 m 2100 816.668 2041.668 816.668 2100 758.332 c S
1808.332 816.668 m 1866.668 700 1866.668 758.332 1808.332 700 c S
1866.668 991.668 m 1808.332 875 1808.332 933.332 1866.668 875 c S
1808.332 816.668 m 1925 758.332 1866.668 758.332 1925 816.668 c S
2041.668 933.332 m 1925 991.668 1983.332 991.668 1925 933.332 c S
1983.332 758.332 m 2041.668 875 2041.668 816.668 1983.332 875 c S
1808.332 700 m 1750 641.668 l S
2100 641.668 m 2041.668 700 l S
2041.668 350 m 2100 408.332 l S
1750 408.332 m 1808.332 350 l S
1925 583.332 m 1866.668 525 l S
1866.668 525 m 1925 466.668 l S
1983.332 525 m 1925 583.332 l S
1925 466.668 m 1983.332 525 l S
1866.668 641.668 m 1750 583.332 1808.332 583.332 1750 641.668 c S
2041.668 583.332 m 1983.332 700 1983.332 641.668 2041.668 700 c S
1983.332 408.332 m 2100 466.668 2041.668 466.668 2100 408.332 c S
1808.332 466.668 m 1866.668 350 1866.668 408.332 1808.332 350 c S
1866.668 641.668 m 1808.332 525 1808.332 583.332 1866.668 525 c S
1808.332 466.668 m 1925 408.332 1866.668 408.332 1925 466.668 c S
2041.668 583.332 m 1925 641.668 1983.332 641.668 1925 583.332 c S
1983.332 408.332 m 2041.668 525 2041.668 466.668 1983.332 525 c S
1808.332 350 m 1750 291.668 l S
2100 291.668 m 2041.668 350 l S
2041.668 0 m 2100 58.332 l S
1750 58.332 m 1808.332 0 l S
1925 233.332 m 1866.668 175 l S
1866.668 175 m 1925 116.668 l S
1983.332 175 m 1925 233.332 l S
1925 116.668 m 1983.332 175 l S
1866.668 291.668 m 1750 233.332 1808.332 233.332 1750 291.668 c S
2041.668 233.332 m 1983.332 350 1983.332 291.668 2041.668 350 c S
1983.332 58.332 m 2100 116.668 2041.668 116.668 2100 58.332 c S
1808.332 116.668 m 1866.668 0 1866.668 58.332 1808.332 0 c S
1866.668 291.668 m 1808.332 175 1808.332 233.332 1866.668 175 c S
1808.332 116.668 m 1925 58.332 1866.668 58.332 1925 116.668 c S
2041.668 233.332 m 1925 291.668 1983.332 291.668 1925 233.332 c S
1983.332 58.332 m 2041.668 175 2041.668 116.668 1983.332 175 c S
Q Q
showpage
%%Trailer
%%Trailer
cleartomark
countdictstack
exch sub { end } repeat
restore
%%EOF
