%!PS-Adobe-2.0 EPSF-2.0
%%BoundingBox: 0 0 2100 1400
%%HiResBoundingBox: 0.000000 0.000000 2100.000000 1400.000000
%%Creator: cairo 1.14.2 (http://cairographics.org)
%%CreationDate: Mon Sep  7 08:21:53 2015
%%DocumentData: Clean7Bit
%%LanguageLevel: 2
%%DocumentMedia: 741x494mm 2100 1400 0 () ()
%%EndComments
% EPSF created by ps2eps 1.68
%%BeginProlog
save
countdictstack
mark
newpath
/showpage {} def
/setpagedevice {pop} def
%%EndProlog
%%Page 1 1
%%BeginProlog
/languagelevel where
{ pop languagelevel } { 1 } ifelse
2 lt { /Helvetica findfont 12 scalefont setfont 50 500 moveto
  (This print job requires a PostScript Language Level 2 printer.) show
  showpage quit } if
/q { gsave } bind def
/Q { grestore } bind def
/cm { 6 array astore concat } bind def
/w { setlinewidth } bind def
/J { setlinecap } bind def
/j { setlinejoin } bind def
/M { setmiterlimit } bind def
/d { setdash } bind def
/m { moveto } bind def
/l { lineto } bind def
/c { curveto } bind def
/h { closepath } bind def
/re { exch dup neg 3 1 roll 5 3 roll moveto 0 rlineto
      0 exch rlineto 0 rlineto closepath } bind def
/S { stroke } bind def
/f { fill } bind def
/f* { eofill } bind def
/n { newpath } bind def
/W { clip } bind def
/W* { eoclip } bind def
/BT { } bind def
/ET { } bind def
/pdfmark where { pop globaldict /?pdfmark /exec load put }
    { globaldict begin /?pdfmark /pop load def /pdfmark
    /cleartomark load def end } ifelse
/BDC { mark 3 1 roll /BDC pdfmark } bind def
/EMC { mark /EMC pdfmark } bind def
/cairo_store_point { /cairo_point_y exch def /cairo_point_x exch def } def
/Tj { show currentpoint cairo_store_point } bind def
/TJ {
  {
    dup
    type /stringtype eq
    { show } { -0.001 mul 0 cairo_font_matrix dtransform rmoveto } ifelse
  } forall
  currentpoint cairo_store_point
} bind def
/cairo_selectfont { cairo_font_matrix aload pop pop pop 0 0 6 array astore
    cairo_font exch selectfont cairo_point_x cairo_point_y moveto } bind def
/Tf { pop /cairo_font exch def /cairo_font_matrix where
      { pop cairo_selectfont } if } bind def
/Td { matrix translate cairo_font_matrix matrix concatmatrix dup
      /cairo_font_matrix exch def dup 4 get exch 5 get cairo_store_point
      /cairo_font where { pop cairo_selectfont } if } bind def
/Tm { 2 copy 8 2 roll 6 array astore /cairo_font_matrix exch def
      cairo_store_point /cairo_font where { pop cairo_selectfont } if } bind def
/g { setgray } bind def
/rg { setrgbcolor } bind def
/d1 { setcachedevice } bind def
/cairo_set_page_size {
  % Change paper size, but only if different from previous paper size otherwise
  % duplex fails. PLRM specifies a tolerance of 5 pts when matching paper size
  % so we use the same when checking if the size changes.
  /setpagedevice where {
    pop currentpagedevice
    /PageSize known {
      2 copy
      currentpagedevice /PageSize get aload pop
      exch 4 1 roll
      sub abs 5 gt
      3 1 roll
      sub abs 5 gt
      or
    } {
      true
    } ifelse
    {
      2 array astore
      2 dict begin
        /PageSize exch def
        /ImagingBBox null def
      currentdict end
      setpagedevice
    } {
      pop pop
    } ifelse
  } {
    pop
  } ifelse
} def
%%EndProlog
%%BeginSetup
%%EndSetup
%%Page: 1 1
%%BeginPageSetup
%%PageMedia: 741x494mm
%%PageBoundingBox: 0 0 2100 1400
2100 1400 cairo_set_page_size
%%EndPageSetup
q 0 0 2100 1400 rectclip q
0.984314 g
0 0 2100 1400 rectfill
0.788235 g
1.875 w
0 J
1 j
[] 0.0 d
4 M 0 1400 2100 -1400 re S
0 g
2.5 w
1 J
116.668 1341.668 m 38.891 1302.777 19.445 1283.332 58.332 1283.332 c S
291.668 1283.332 m 252.777 1361.109 233.332 1380.555 233.332 1341.668 c
 S
233.332 1108.332 m 311.109 1147.223 330.555 1166.668 291.668 1166.668 c
 S
58.332 1166.668 m 97.223 1088.891 116.668 1069.445 116.668 1108.332 c S
116.668 1341.668 m 77.777 1263.891 58.332 1244.445 58.332 1283.332 c S
58.332 1166.668 m 136.109 1127.777 155.555 1108.332 116.668 1108.332 c S
291.668 1283.332 m 213.891 1322.223 194.445 1341.668 233.332 1341.668 c
 S
233.332 1108.332 m 272.223 1186.109 291.668 1205.555 291.668 1166.668 c
 S
0 1283.332 m 58.332 1400 0 1341.668 175 1400 c S
233.332 1400 m 350 1341.668 291.668 1400 350 1225 c S
350 1166.668 m 291.668 1050 350 1108.332 175 1050 c S
116.668 1050 m 0 1108.332 58.332 1050 0 1225 c S
58.332 1225 m 175 1283.332 116.668 1225 175 1400 c S
175 1108.332 m 116.668 1225 175 1166.668 0 1225 c S
175 1341.668 m 233.332 1225 175 1283.332 350 1225 c S
291.668 1225 m 175 1166.668 233.332 1225 175 1050 c S
116.668 991.668 m 38.891 952.777 19.445 933.332 58.332 933.332 c S
291.668 933.332 m 252.777 1011.109 233.332 1030.555 233.332 991.668 c S
233.332 758.332 m 311.109 797.223 330.555 816.668 291.668 816.668 c S
58.332 816.668 m 97.223 738.891 116.668 719.445 116.668 758.332 c S
116.668 991.668 m 77.777 913.891 58.332 894.445 58.332 933.332 c S
58.332 816.668 m 136.109 777.777 155.555 758.332 116.668 758.332 c S
291.668 933.332 m 213.891 972.223 194.445 991.668 233.332 991.668 c S
233.332 758.332 m 272.223 836.109 291.668 855.555 291.668 816.668 c S
0 933.332 m 58.332 1050 0 991.668 175 1050 c S
233.332 1050 m 350 991.668 291.668 1050 350 875 c S
350 816.668 m 291.668 700 350 758.332 175 700 c S
116.668 700 m 0 758.332 58.332 700 0 875 c S
58.332 875 m 175 933.332 116.668 875 175 1050 c S
175 758.332 m 116.668 875 175 816.668 0 875 c S
175 991.668 m 233.332 875 175 933.332 350 875 c S
291.668 875 m 175 816.668 233.332 875 175 700 c S
116.668 641.668 m 38.891 602.777 19.445 583.332 58.332 583.332 c S
291.668 583.332 m 252.777 661.109 233.332 680.555 233.332 641.668 c S
233.332 408.332 m 311.109 447.223 330.555 466.668 291.668 466.668 c S
58.332 466.668 m 97.223 388.891 116.668 369.445 116.668 408.332 c S
116.668 641.668 m 77.777 563.891 58.332 544.445 58.332 583.332 c S
58.332 466.668 m 136.109 427.777 155.555 408.332 116.668 408.332 c S
291.668 583.332 m 213.891 622.223 194.445 641.668 233.332 641.668 c S
233.332 408.332 m 272.223 486.109 291.668 505.555 291.668 466.668 c S
0 583.332 m 58.332 700 0 641.668 175 700 c S
233.332 700 m 350 641.668 291.668 700 350 525 c S
350 466.668 m 291.668 350 350 408.332 175 350 c S
116.668 350 m 0 408.332 58.332 350 0 525 c S
58.332 525 m 175 583.332 116.668 525 175 700 c S
175 408.332 m 116.668 525 175 466.668 0 525 c S
175 641.668 m 233.332 525 175 583.332 350 525 c S
291.668 525 m 175 466.668 233.332 525 175 350 c S
116.668 291.668 m 38.891 252.777 19.445 233.332 58.332 233.332 c S
291.668 233.332 m 252.777 311.109 233.332 330.555 233.332 291.668 c S
233.332 58.332 m 311.109 97.223 330.555 116.668 291.668 116.668 c S
58.332 116.668 m 97.223 38.891 116.668 19.445 116.668 58.332 c S
116.668 291.668 m 77.777 213.891 58.332 194.445 58.332 233.332 c S
58.332 116.668 m 136.109 77.777 155.555 58.332 116.668 58.332 c S
291.668 233.332 m 213.891 272.223 194.445 291.668 233.332 291.668 c S
233.332 58.332 m 272.223 136.109 291.668 155.555 291.668 116.668 c S
0 233.332 m 58.332 350 0 291.668 175 350 c S
233.332 350 m 350 291.668 291.668 350 350 175 c S
350 116.668 m 291.668 0 350 58.332 175 0 c S
116.668 0 m 0 58.332 58.332 0 0 175 c S
58.332 175 m 175 233.332 116.668 175 175 350 c S
175 58.332 m 116.668 175 175 116.668 0 175 c S
175 291.668 m 233.332 175 175 233.332 350 175 c S
291.668 175 m 175 116.668 233.332 175 175 0 c S
466.668 1341.668 m 388.891 1302.777 369.445 1283.332 408.332 1283.332 c
 S
641.668 1283.332 m 602.777 1361.109 583.332 1380.555 583.332 1341.668 c
 S
583.332 1108.332 m 661.109 1147.223 680.555 1166.668 641.668 1166.668 c
 S
408.332 1166.668 m 447.223 1088.891 466.668 1069.445 466.668 1108.332 c
 S
466.668 1341.668 m 427.777 1263.891 408.332 1244.445 408.332 1283.332 c
 S
408.332 1166.668 m 486.109 1127.777 505.555 1108.332 466.668 1108.332 c
 S
641.668 1283.332 m 563.891 1322.223 544.445 1341.668 583.332 1341.668 c
 S
583.332 1108.332 m 622.223 1186.109 641.668 1205.555 641.668 1166.668 c
 S
350 1283.332 m 408.332 1400 350 1341.668 525 1400 c S
583.332 1400 m 700 1341.668 641.668 1400 700 1225 c S
700 1166.668 m 641.668 1050 700 1108.332 525 1050 c S
466.668 1050 m 350 1108.332 408.332 1050 350 1225 c S
408.332 1225 m 525 1283.332 466.668 1225 525 1400 c S
525 1108.332 m 466.668 1225 525 1166.668 350 1225 c S
525 1341.668 m 583.332 1225 525 1283.332 700 1225 c S
641.668 1225 m 525 1166.668 583.332 1225 525 1050 c S
466.668 991.668 m 388.891 952.777 369.445 933.332 408.332 933.332 c S
641.668 933.332 m 602.777 1011.109 583.332 1030.555 583.332 991.668 c S
583.332 758.332 m 661.109 797.223 680.555 816.668 641.668 816.668 c S
408.332 816.668 m 447.223 738.891 466.668 719.445 466.668 758.332 c S
466.668 991.668 m 427.777 913.891 408.332 894.445 408.332 933.332 c S
408.332 816.668 m 486.109 777.777 505.555 758.332 466.668 758.332 c S
641.668 933.332 m 563.891 972.223 544.445 991.668 583.332 991.668 c S
583.332 758.332 m 622.223 836.109 641.668 855.555 641.668 816.668 c S
350 933.332 m 408.332 1050 350 991.668 525 1050 c S
583.332 1050 m 700 991.668 641.668 1050 700 875 c S
700 816.668 m 641.668 700 700 758.332 525 700 c S
466.668 700 m 350 758.332 408.332 700 350 875 c S
408.332 875 m 525 933.332 466.668 875 525 1050 c S
525 758.332 m 466.668 875 525 816.668 350 875 c S
525 991.668 m 583.332 875 525 933.332 700 875 c S
641.668 875 m 525 816.668 583.332 875 525 700 c S
466.668 641.668 m 388.891 602.777 369.445 583.332 408.332 583.332 c S
641.668 583.332 m 602.777 661.109 583.332 680.555 583.332 641.668 c S
583.332 408.332 m 661.109 447.223 680.555 466.668 641.668 466.668 c S
408.332 466.668 m 447.223 388.891 466.668 369.445 466.668 408.332 c S
466.668 641.668 m 427.777 563.891 408.332 544.445 408.332 583.332 c S
408.332 466.668 m 486.109 427.777 505.555 408.332 466.668 408.332 c S
641.668 583.332 m 563.891 622.223 544.445 641.668 583.332 641.668 c S
583.332 408.332 m 622.223 486.109 641.668 505.555 641.668 466.668 c S
350 583.332 m 408.332 700 350 641.668 525 700 c S
583.332 700 m 700 641.668 641.668 700 700 525 c S
700 466.668 m 641.668 350 700 408.332 525 350 c S
466.668 350 m 350 408.332 408.332 350 350 525 c S
408.332 525 m 525 583.332 466.668 525 525 700 c S
525 408.332 m 466.668 525 525 466.668 350 525 c S
525 641.668 m 583.332 525 525 583.332 700 525 c S
641.668 525 m 525 466.668 583.332 525 525 350 c S
466.668 291.668 m 388.891 252.777 369.445 233.332 408.332 233.332 c S
641.668 233.332 m 602.777 311.109 583.332 330.555 583.332 291.668 c S
583.332 58.332 m 661.109 97.223 680.555 116.668 641.668 116.668 c S
408.332 116.668 m 447.223 38.891 466.668 19.445 466.668 58.332 c S
466.668 291.668 m 427.777 213.891 408.332 194.445 408.332 233.332 c S
408.332 116.668 m 486.109 77.777 505.555 58.332 466.668 58.332 c S
641.668 233.332 m 563.891 272.223 544.445 291.668 583.332 291.668 c S
583.332 58.332 m 622.223 136.109 641.668 155.555 641.668 116.668 c S
350 233.332 m 408.332 350 350 291.668 525 350 c S
583.332 350 m 700 291.668 641.668 350 700 175 c S
700 116.668 m 641.668 0 700 58.332 525 0 c S
466.668 0 m 350 58.332 408.332 0 350 175 c S
408.332 175 m 525 233.332 466.668 175 525 350 c S
525 58.332 m 466.668 175 525 116.668 350 175 c S
525 291.668 m 583.332 175 525 233.332 700 175 c S
641.668 175 m 525 116.668 583.332 175 525 0 c S
816.668 1341.668 m 738.891 1302.777 719.445 1283.332 758.332 1283.332 c
 S
991.668 1283.332 m 952.777 1361.109 933.332 1380.555 933.332 1341.668 c
 S
933.332 1108.332 m 1011.109 1147.223 1030.555 1166.668 991.668 1166.668
 c S
758.332 1166.668 m 797.223 1088.891 816.668 1069.445 816.668 1108.332 c
 S
816.668 1341.668 m 777.777 1263.891 758.332 1244.445 758.332 1283.332 c
 S
758.332 1166.668 m 836.109 1127.777 855.555 1108.332 816.668 1108.332 c
 S
991.668 1283.332 m 913.891 1322.223 894.445 1341.668 933.332 1341.668 c
 S
933.332 1108.332 m 972.223 1186.109 991.668 1205.555 991.668 1166.668 c
 S
700 1283.332 m 758.332 1400 700 1341.668 875 1400 c S
933.332 1400 m 1050 1341.668 991.668 1400 1050 1225 c S
1050 1166.668 m 991.668 1050 1050 1108.332 875 1050 c S
816.668 1050 m 700 1108.332 758.332 1050 700 1225 c S
758.332 1225 m 875 1283.332 816.668 1225 875 1400 c S
875 1108.332 m 816.668 1225 875 1166.668 700 1225 c S
875 1341.668 m 933.332 1225 875 1283.332 1050 1225 c S
991.668 1225 m 875 1166.668 933.332 1225 875 1050 c S
816.668 991.668 m 738.891 952.777 719.445 933.332 758.332 933.332 c S
991.668 933.332 m 952.777 1011.109 933.332 1030.555 933.332 991.668 c S
933.332 758.332 m 1011.109 797.223 1030.555 816.668 991.668 816.668 c S
758.332 816.668 m 797.223 738.891 816.668 719.445 816.668 758.332 c S
816.668 991.668 m 777.777 913.891 758.332 894.445 758.332 933.332 c S
758.332 816.668 m 836.109 777.777 855.555 758.332 816.668 758.332 c S
991.668 933.332 m 913.891 972.223 894.445 991.668 933.332 991.668 c S
933.332 758.332 m 972.223 836.109 991.668 855.555 991.668 816.668 c S
700 933.332 m 758.332 1050 700 991.668 875 1050 c S
933.332 1050 m 1050 991.668 991.668 1050 1050 875 c S
1050 816.668 m 991.668 700 1050 758.332 875 700 c S
816.668 700 m 700 758.332 758.332 700 700 875 c S
758.332 875 m 875 933.332 816.668 875 875 1050 c S
875 758.332 m 816.668 875 875 816.668 700 875 c S
875 991.668 m 933.332 875 875 933.332 1050 875 c S
991.668 875 m 875 816.668 933.332 875 875 700 c S
816.668 641.668 m 738.891 602.777 719.445 583.332 758.332 583.332 c S
991.668 583.332 m 952.777 661.109 933.332 680.555 933.332 641.668 c S
933.332 408.332 m 1011.109 447.223 1030.555 466.668 991.668 466.668 c S
758.332 466.668 m 797.223 388.891 816.668 369.445 816.668 408.332 c S
816.668 641.668 m 777.777 563.891 758.332 544.445 758.332 583.332 c S
758.332 466.668 m 836.109 427.777 855.555 408.332 816.668 408.332 c S
991.668 583.332 m 913.891 622.223 894.445 641.668 933.332 641.668 c S
933.332 408.332 m 972.223 486.109 991.668 505.555 991.668 466.668 c S
700 583.332 m 758.332 700 700 641.668 875 700 c S
933.332 700 m 1050 641.668 991.668 700 1050 525 c S
1050 466.668 m 991.668 350 1050 408.332 875 350 c S
816.668 350 m 700 408.332 758.332 350 700 525 c S
758.332 525 m 875 583.332 816.668 525 875 700 c S
875 408.332 m 816.668 525 875 466.668 700 525 c S
875 641.668 m 933.332 525 875 583.332 1050 525 c S
991.668 525 m 875 466.668 933.332 525 875 350 c S
816.668 291.668 m 738.891 252.777 719.445 233.332 758.332 233.332 c S
991.668 233.332 m 952.777 311.109 933.332 330.555 933.332 291.668 c S
933.332 58.332 m 1011.109 97.223 1030.555 116.668 991.668 116.668 c S
758.332 116.668 m 797.223 38.891 816.668 19.445 816.668 58.332 c S
816.668 291.668 m 777.777 213.891 758.332 194.445 758.332 233.332 c S
758.332 116.668 m 836.109 77.777 855.555 58.332 816.668 58.332 c S
991.668 233.332 m 913.891 272.223 894.445 291.668 933.332 291.668 c S
933.332 58.332 m 972.223 136.109 991.668 155.555 991.668 116.668 c S
700 233.332 m 758.332 350 700 291.668 875 350 c S
933.332 350 m 1050 291.668 991.668 350 1050 175 c S
1050 116.668 m 991.668 0 1050 58.332 875 0 c S
816.668 0 m 700 58.332 758.332 0 700 175 c S
758.332 175 m 875 233.332 816.668 175 875 350 c S
875 58.332 m 816.668 175 875 116.668 700 175 c S
875 291.668 m 933.332 175 875 233.332 1050 175 c S
991.668 175 m 875 116.668 933.332 175 875 0 c S
1166.668 1341.668 m 1088.891 1302.777 1069.445 1283.332 1108.332 1283.332
 c S
1341.668 1283.332 m 1302.777 1361.109 1283.332 1380.555 1283.332 1341.668
 c S
1283.332 1108.332 m 1361.109 1147.223 1380.555 1166.668 1341.668 1166.668
 c S
1108.332 1166.668 m 1147.223 1088.891 1166.668 1069.445 1166.668 1108.332
 c S
1166.668 1341.668 m 1127.777 1263.891 1108.332 1244.445 1108.332 1283.332
 c S
1108.332 1166.668 m 1186.109 1127.777 1205.555 1108.332 1166.668 1108.332
 c S
1341.668 1283.332 m 1263.891 1322.223 1244.445 1341.668 1283.332 1341.668
 c S
1283.332 1108.332 m 1322.223 1186.109 1341.668 1205.555 1341.668 1166.668
 c S
1050 1283.332 m 1108.332 1400 1050 1341.668 1225 1400 c S
1283.332 1400 m 1400 1341.668 1341.668 1400 1400 1225 c S
1400 1166.668 m 1341.668 1050 1400 1108.332 1225 1050 c S
1166.668 1050 m 1050 1108.332 1108.332 1050 1050 1225 c S
1108.332 1225 m 1225 1283.332 1166.668 1225 1225 1400 c S
1225 1108.332 m 1166.668 1225 1225 1166.668 1050 1225 c S
1225 1341.668 m 1283.332 1225 1225 1283.332 1400 1225 c S
1341.668 1225 m 1225 1166.668 1283.332 1225 1225 1050 c S
1166.668 991.668 m 1088.891 952.777 1069.445 933.332 1108.332 933.332 c
 S
1341.668 933.332 m 1302.777 1011.109 1283.332 1030.555 1283.332 991.668
 c S
1283.332 758.332 m 1361.109 797.223 1380.555 816.668 1341.668 816.668 c
 S
1108.332 816.668 m 1147.223 738.891 1166.668 719.445 1166.668 758.332 c
 S
1166.668 991.668 m 1127.777 913.891 1108.332 894.445 1108.332 933.332 c
 S
1108.332 816.668 m 1186.109 777.777 1205.555 758.332 1166.668 758.332 c
 S
1341.668 933.332 m 1263.891 972.223 1244.445 991.668 1283.332 991.668 c
 S
1283.332 758.332 m 1322.223 836.109 1341.668 855.555 1341.668 816.668 c
 S
1050 933.332 m 1108.332 1050 1050 991.668 1225 1050 c S
1283.332 1050 m 1400 991.668 1341.668 1050 1400 875 c S
1400 816.668 m 1341.668 700 1400 758.332 1225 700 c S
1166.668 700 m 1050 758.332 1108.332 700 1050 875 c S
1108.332 875 m 1225 933.332 1166.668 875 1225 1050 c S
1225 758.332 m 1166.668 875 1225 816.668 1050 875 c S
1225 991.668 m 1283.332 875 1225 933.332 1400 875 c S
1341.668 875 m 1225 816.668 1283.332 875 1225 700 c S
1166.668 641.668 m 1088.891 602.777 1069.445 583.332 1108.332 583.332 c
 S
1341.668 583.332 m 1302.777 661.109 1283.332 680.555 1283.332 641.668 c
 S
1283.332 408.332 m 1361.109 447.223 1380.555 466.668 1341.668 466.668 c
 S
1108.332 466.668 m 1147.223 388.891 1166.668 369.445 1166.668 408.332 c
 S
1166.668 641.668 m 1127.777 563.891 1108.332 544.445 1108.332 583.332 c
 S
1108.332 466.668 m 1186.109 427.777 1205.555 408.332 1166.668 408.332 c
 S
1341.668 583.332 m 1263.891 622.223 1244.445 641.668 1283.332 641.668 c
 S
1283.332 408.332 m 1322.223 486.109 1341.668 505.555 1341.668 466.668 c
 S
1050 583.332 m 1108.332 700 1050 641.668 1225 700 c S
1283.332 700 m 1400 641.668 1341.668 700 1400 525 c S
1400 466.668 m 1341.668 350 1400 408.332 1225 350 c S
1166.668 350 m 1050 408.332 1108.332 350 1050 525 c S
1108.332 525 m 1225 583.332 1166.668 525 1225 700 c S
1225 408.332 m 1166.668 525 1225 466.668 1050 525 c S
1225 641.668 m 1283.332 525 1225 583.332 1400 525 c S
1341.668 525 m 1225 466.668 1283.332 525 1225 350 c S
1166.668 291.668 m 1088.891 252.777 1069.445 233.332 1108.332 233.332 c
 S
1341.668 233.332 m 1302.777 311.109 1283.332 330.555 1283.332 291.668 c
 S
1283.332 58.332 m 1361.109 97.223 1380.555 116.668 1341.668 116.668 c S
1108.332 116.668 m 1147.223 38.891 1166.668 19.445 1166.668 58.332 c S
1166.668 291.668 m 1127.777 213.891 1108.332 194.445 1108.332 233.332 c
 S
1108.332 116.668 m 1186.109 77.777 1205.555 58.332 1166.668 58.332 c S
1341.668 233.332 m 1263.891 272.223 1244.445 291.668 1283.332 291.668 c
 S
1283.332 58.332 m 1322.223 136.109 1341.668 155.555 1341.668 116.668 c S
1050 233.332 m 1108.332 350 1050 291.668 1225 350 c S
1283.332 350 m 1400 291.668 1341.668 350 1400 175 c S
1400 116.668 m 1341.668 0 1400 58.332 1225 0 c S
1166.668 0 m 1050 58.332 1108.332 0 1050 175 c S
1108.332 175 m 1225 233.332 1166.668 175 1225 350 c S
1225 58.332 m 1166.668 175 1225 116.668 1050 175 c S
1225 291.668 m 1283.332 175 1225 233.332 1400 175 c S
1341.668 175 m 1225 116.668 1283.332 175 1225 0 c S
1516.668 1341.668 m 1438.891 1302.777 1419.445 1283.332 1458.332 1283.332
 c S
1691.668 1283.332 m 1652.777 1361.109 1633.332 1380.555 1633.332 1341.668
 c S
1633.332 1108.332 m 1711.109 1147.223 1730.555 1166.668 1691.668 1166.668
 c S
1458.332 1166.668 m 1497.223 1088.891 1516.668 1069.445 1516.668 1108.332
 c S
1516.668 1341.668 m 1477.777 1263.891 1458.332 1244.445 1458.332 1283.332
 c S
1458.332 1166.668 m 1536.109 1127.777 1555.555 1108.332 1516.668 1108.332
 c S
1691.668 1283.332 m 1613.891 1322.223 1594.445 1341.668 1633.332 1341.668
 c S
1633.332 1108.332 m 1672.223 1186.109 1691.668 1205.555 1691.668 1166.668
 c S
1400 1283.332 m 1458.332 1400 1400 1341.668 1575 1400 c S
1633.332 1400 m 1750 1341.668 1691.668 1400 1750 1225 c S
1750 1166.668 m 1691.668 1050 1750 1108.332 1575 1050 c S
1516.668 1050 m 1400 1108.332 1458.332 1050 1400 1225 c S
1458.332 1225 m 1575 1283.332 1516.668 1225 1575 1400 c S
1575 1108.332 m 1516.668 1225 1575 1166.668 1400 1225 c S
1575 1341.668 m 1633.332 1225 1575 1283.332 1750 1225 c S
1691.668 1225 m 1575 1166.668 1633.332 1225 1575 1050 c S
1516.668 991.668 m 1438.891 952.777 1419.445 933.332 1458.332 933.332 c
 S
1691.668 933.332 m 1652.777 1011.109 1633.332 1030.555 1633.332 991.668
 c S
1633.332 758.332 m 1711.109 797.223 1730.555 816.668 1691.668 816.668 c
 S
1458.332 816.668 m 1497.223 738.891 1516.668 719.445 1516.668 758.332 c
 S
1516.668 991.668 m 1477.777 913.891 1458.332 894.445 1458.332 933.332 c
 S
1458.332 816.668 m 1536.109 777.777 1555.555 758.332 1516.668 758.332 c
 S
1691.668 933.332 m 1613.891 972.223 1594.445 991.668 1633.332 991.668 c
 S
1633.332 758.332 m 1672.223 836.109 1691.668 855.555 1691.668 816.668 c
 S
1400 933.332 m 1458.332 1050 1400 991.668 1575 1050 c S
1633.332 1050 m 1750 991.668 1691.668 1050 1750 875 c S
1750 816.668 m 1691.668 700 1750 758.332 1575 700 c S
1516.668 700 m 1400 758.332 1458.332 700 1400 875 c S
1458.332 875 m 1575 933.332 1516.668 875 1575 1050 c S
1575 758.332 m 1516.668 875 1575 816.668 1400 875 c S
1575 991.668 m 1633.332 875 1575 933.332 1750 875 c S
1691.668 875 m 1575 816.668 1633.332 875 1575 700 c S
1516.668 641.668 m 1438.891 602.777 1419.445 583.332 1458.332 583.332 c
 S
1691.668 583.332 m 1652.777 661.109 1633.332 680.555 1633.332 641.668 c
 S
1633.332 408.332 m 1711.109 447.223 1730.555 466.668 1691.668 466.668 c
 S
1458.332 466.668 m 1497.223 388.891 1516.668 369.445 1516.668 408.332 c
 S
1516.668 641.668 m 1477.777 563.891 1458.332 544.445 1458.332 583.332 c
 S
1458.332 466.668 m 1536.109 427.777 1555.555 408.332 1516.668 408.332 c
 S
1691.668 583.332 m 1613.891 622.223 1594.445 641.668 1633.332 641.668 c
 S
1633.332 408.332 m 1672.223 486.109 1691.668 505.555 1691.668 466.668 c
 S
1400 583.332 m 1458.332 700 1400 641.668 1575 700 c S
1633.332 700 m 1750 641.668 1691.668 700 1750 525 c S
1750 466.668 m 1691.668 350 1750 408.332 1575 350 c S
1516.668 350 m 1400 408.332 1458.332 350 1400 525 c S
1458.332 525 m 1575 583.332 1516.668 525 1575 700 c S
1575 408.332 m 1516.668 525 1575 466.668 1400 525 c S
1575 641.668 m 1633.332 525 1575 583.332 1750 525 c S
1691.668 525 m 1575 466.668 1633.332 525 1575 350 c S
1516.668 291.668 m 1438.891 252.777 1419.445 233.332 1458.332 233.332 c
 S
1691.668 233.332 m 1652.777 311.109 1633.332 330.555 1633.332 291.668 c
 S
1633.332 58.332 m 1711.109 97.223 1730.555 116.668 1691.668 116.668 c S
1458.332 116.668 m 1497.223 38.891 1516.668 19.445 1516.668 58.332 c S
1516.668 291.668 m 1477.777 213.891 1458.332 194.445 1458.332 233.332 c
 S
1458.332 116.668 m 1536.109 77.777 1555.555 58.332 1516.668 58.332 c S
1691.668 233.332 m 1613.891 272.223 1594.445 291.668 1633.332 291.668 c
 S
1633.332 58.332 m 1672.223 136.109 1691.668 155.555 1691.668 116.668 c S
1400 233.332 m 1458.332 350 1400 291.668 1575 350 c S
1633.332 350 m 1750 291.668 1691.668 350 1750 175 c S
1750 116.668 m 1691.668 0 1750 58.332 1575 0 c S
1516.668 0 m 1400 58.332 1458.332 0 1400 175 c S
1458.332 175 m 1575 233.332 1516.668 175 1575 350 c S
1575 58.332 m 1516.668 175 1575 116.668 1400 175 c S
1575 291.668 m 1633.332 175 1575 233.332 1750 175 c S
1691.668 175 m 1575 116.668 1633.332 175 1575 0 c S
1866.668 1341.668 m 1788.891 1302.777 1769.445 1283.332 1808.332 1283.332
 c S
2041.668 1283.332 m 2002.777 1361.109 1983.332 1380.555 1983.332 1341.668
 c S
1983.332 1108.332 m 2061.109 1147.223 2080.555 1166.668 2041.668 1166.668
 c S
1808.332 1166.668 m 1847.223 1088.891 1866.668 1069.445 1866.668 1108.332
 c S
1866.668 1341.668 m 1827.777 1263.891 1808.332 1244.445 1808.332 1283.332
 c S
1808.332 1166.668 m 1886.109 1127.777 1905.555 1108.332 1866.668 1108.332
 c S
2041.668 1283.332 m 1963.891 1322.223 1944.445 1341.668 1983.332 1341.668
 c S
1983.332 1108.332 m 2022.223 1186.109 2041.668 1205.555 2041.668 1166.668
 c S
1750 1283.332 m 1808.332 1400 1750 1341.668 1925 1400 c S
1983.332 1400 m 2100 1341.668 2041.668 1400 2100 1225 c S
2100 1166.668 m 2041.668 1050 2100 1108.332 1925 1050 c S
1866.668 1050 m 1750 1108.332 1808.332 1050 1750 1225 c S
1808.332 1225 m 1925 1283.332 1866.668 1225 1925 1400 c S
1925 1108.332 m 1866.668 1225 1925 1166.668 1750 1225 c S
1925 1341.668 m 1983.332 1225 1925 1283.332 2100 1225 c S
2041.668 1225 m 1925 1166.668 1983.332 1225 1925 1050 c S
1866.668 991.668 m 1788.891 952.777 1769.445 933.332 1808.332 933.332 c
 S
2041.668 933.332 m 2002.777 1011.109 1983.332 1030.555 1983.332 991.668
 c S
1983.332 758.332 m 2061.109 797.223 2080.555 816.668 2041.668 816.668 c
 S
1808.332 816.668 m 1847.223 738.891 1866.668 719.445 1866.668 758.332 c
 S
1866.668 991.668 m 1827.777 913.891 1808.332 894.445 1808.332 933.332 c
 S
1808.332 816.668 m 1886.109 777.777 1905.555 758.332 1866.668 758.332 c
 S
2041.668 933.332 m 1963.891 972.223 1944.445 991.668 1983.332 991.668 c
 S
1983.332 758.332 m 2022.223 836.109 2041.668 855.555 2041.668 816.668 c
 S
1750 933.332 m 1808.332 1050 1750 991.668 1925 1050 c S
1983.332 1050 m 2100 991.668 2041.668 1050 2100 875 c S
2100 816.668 m 2041.668 700 2100 758.332 1925 700 c S
1866.668 700 m 1750 758.332 1808.332 700 1750 875 c S
1808.332 875 m 1925 933.332 1866.668 875 1925 1050 c S
1925 758.332 m 1866.668 875 1925 816.668 1750 875 c S
1925 991.668 m 1983.332 875 1925 933.332 2100 875 c S
2041.668 875 m 1925 816.668 1983.332 875 1925 700 c S
1866.668 641.668 m 1788.891 602.777 1769.445 583.332 1808.332 583.332 c
 S
2041.668 583.332 m 2002.777 661.109 1983.332 680.555 1983.332 641.668 c
 S
1983.332 408.332 m 2061.109 447.223 2080.555 466.668 2041.668 466.668 c
 S
1808.332 466.668 m 1847.223 388.891 1866.668 369.445 1866.668 408.332 c
 S
1866.668 641.668 m 1827.777 563.891 1808.332 544.445 1808.332 583.332 c
 S
1808.332 466.668 m 1886.109 427.777 1905.555 408.332 1866.668 408.332 c
 S
2041.668 583.332 m 1963.891 622.223 1944.445 641.668 1983.332 641.668 c
 S
1983.332 408.332 m 2022.223 486.109 2041.668 505.555 2041.668 466.668 c
 S
1750 583.332 m 1808.332 700 1750 641.668 1925 700 c S
1983.332 700 m 2100 641.668 2041.668 700 2100 525 c S
2100 466.668 m 2041.668 350 2100 408.332 1925 350 c S
1866.668 350 m 1750 408.332 1808.332 350 1750 525 c S
1808.332 525 m 1925 583.332 1866.668 525 1925 700 c S
1925 408.332 m 1866.668 525 1925 466.668 1750 525 c S
1925 641.668 m 1983.332 525 1925 583.332 2100 525 c S
2041.668 525 m 1925 466.668 1983.332 525 1925 350 c S
1866.668 291.668 m 1788.891 252.777 1769.445 233.332 1808.332 233.332 c
 S
2041.668 233.332 m 2002.777 311.109 1983.332 330.555 1983.332 291.668 c
 S
1983.332 58.332 m 2061.109 97.223 2080.555 116.668 2041.668 116.668 c S
1808.332 116.668 m 1847.223 38.891 1866.668 19.445 1866.668 58.332 c S
1866.668 291.668 m 1827.777 213.891 1808.332 194.445 1808.332 233.332 c
 S
1808.332 116.668 m 1886.109 77.777 1905.555 58.332 1866.668 58.332 c S
2041.668 233.332 m 1963.891 272.223 1944.445 291.668 1983.332 291.668 c
 S
1983.332 58.332 m 2022.223 136.109 2041.668 155.555 2041.668 116.668 c S
1750 233.332 m 1808.332 350 1750 291.668 1925 350 c S
1983.332 350 m 2100 291.668 2041.668 350 2100 175 c S
2100 116.668 m 2041.668 0 2100 58.332 1925 0 c S
1866.668 0 m 1750 58.332 1808.332 0 1750 175 c S
1808.332 175 m 1925 233.332 1866.668 175 1925 350 c S
1925 58.332 m 1866.668 175 1925 116.668 1750 175 c S
1925 291.668 m 1983.332 175 1925 233.332 2100 175 c S
2041.668 175 m 1925 116.668 1983.332 175 1925 0 c S
Q Q
showpage
%%Trailer
%%Trailer
cleartomark
countdictstack
exch sub { end } repeat
restore
%%EOF
