%!PS-Adobe-2.0 EPSF-2.0
%%BoundingBox: 0 0 2100 1400
%%HiResBoundingBox: 0.000000 0.000000 2100.000000 1400.000000
%%Creator: cairo 1.14.2 (http://cairographics.org)
%%CreationDate: Mon Sep  7 08:21:53 2015
%%DocumentData: Clean7Bit
%%LanguageLevel: 2
%%DocumentMedia: 741x494mm 2100 1400 0 () ()
%%EndComments
% EPSF created by ps2eps 1.68
%%BeginProlog
save
countdictstack
mark
newpath
/showpage {} def
/setpagedevice {pop} def
%%EndProlog
%%Page 1 1
%%BeginProlog
/languagelevel where
{ pop languagelevel } { 1 } ifelse
2 lt { /Helvetica findfont 12 scalefont setfont 50 500 moveto
  (This print job requires a PostScript Language Level 2 printer.) show
  showpage quit } if
/q { gsave } bind def
/Q { grestore } bind def
/cm { 6 array astore concat } bind def
/w { setlinewidth } bind def
/J { setlinecap } bind def
/j { setlinejoin } bind def
/M { setmiterlimit } bind def
/d { setdash } bind def
/m { moveto } bind def
/l { lineto } bind def
/c { curveto } bind def
/h { closepath } bind def
/re { exch dup neg 3 1 roll 5 3 roll moveto 0 rlineto
      0 exch rlineto 0 rlineto closepath } bind def
/S { stroke } bind def
/f { fill } bind def
/f* { eofill } bind def
/n { newpath } bind def
/W { clip } bind def
/W* { eoclip } bind def
/BT { } bind def
/ET { } bind def
/pdfmark where { pop globaldict /?pdfmark /exec load put }
    { globaldict begin /?pdfmark /pop load def /pdfmark
    /cleartomark load def end } ifelse
/BDC { mark 3 1 roll /BDC pdfmark } bind def
/EMC { mark /EMC pdfmark } bind def
/cairo_store_point { /cairo_point_y exch def /cairo_point_x exch def } def
/Tj { show currentpoint cairo_store_point } bind def
/TJ {
  {
    dup
    type /stringtype eq
    { show } { -0.001 mul 0 cairo_font_matrix dtransform rmoveto } ifelse
  } forall
  currentpoint cairo_store_point
} bind def
/cairo_selectfont { cairo_font_matrix aload pop pop pop 0 0 6 array astore
    cairo_font exch selectfont cairo_point_x cairo_point_y moveto } bind def
/Tf { pop /cairo_font exch def /cairo_font_matrix where
      { pop cairo_selectfont } if } bind def
/Td { matrix translate cairo_font_matrix matrix concatmatrix dup
      /cairo_font_matrix exch def dup 4 get exch 5 get cairo_store_point
      /cairo_font where { pop cairo_selectfont } if } bind def
/Tm { 2 copy 8 2 roll 6 array astore /cairo_font_matrix exch def
      cairo_store_point /cairo_font where { pop cairo_selectfont } if } bind def
/g { setgray } bind def
/rg { setrgbcolor } bind def
/d1 { setcachedevice } bind def
/cairo_set_page_size {
  % Change paper size, but only if different from previous paper size otherwise
  % duplex fails. PLRM specifies a tolerance of 5 pts when matching paper size
  % so we use the same when checking if the size changes.
  /setpagedevice where {
    pop currentpagedevice
    /PageSize known {
      2 copy
      currentpagedevice /PageSize get aload pop
      exch 4 1 roll
      sub abs 5 gt
      3 1 roll
      sub abs 5 gt
      or
    } {
      true
    } ifelse
    {
      2 array astore
      2 dict begin
        /PageSize exch def
        /ImagingBBox null def
      currentdict end
      setpagedevice
    } {
      pop pop
    } ifelse
  } {
    pop
  } ifelse
} def
%%EndProlog
%%BeginSetup
%%EndSetup
%%Page: 1 1
%%BeginPageSetup
%%PageMedia: 741x494mm
%%PageBoundingBox: 0 0 2100 1400
2100 1400 cairo_set_page_size
%%EndPageSetup
q 0 0 2100 1400 rectclip q
0.984314 g
0 0 2100 1400 rectfill
0.788235 g
1.875 w
0 J
1 j
[] 0.0 d
4 M 0 1400 2100 -1400 re S
0 g
2.5 w
1 J
116.668 1341.668 m 116.668 1380.555 136.109 1400 175 1400 c S
291.668 1283.332 m 330.555 1283.332 350 1263.891 350 1225 c S
233.332 1108.332 m 233.332 1069.445 213.891 1050 175 1050 c S
58.332 1166.668 m 19.445 1166.668 0 1186.109 0 1225 c S
116.668 1341.668 m 155.555 1341.668 175 1361.109 175 1400 c S
58.332 1166.668 m 58.332 1205.555 38.891 1225 0 1225 c S
291.668 1283.332 m 291.668 1244.445 311.109 1225 350 1225 c S
233.332 1108.332 m 194.445 1108.332 175 1088.891 175 1050 c S
116.668 1400 m 38.891 1400 19.445 1361.109 58.332 1283.332 c S
350 1283.332 m 350 1361.109 311.109 1380.555 233.332 1341.668 c S
233.332 1050 m 311.109 1050 330.555 1088.891 291.668 1166.668 c S
0 1166.668 m 0 1088.891 38.891 1069.445 116.668 1108.332 c S
175 1341.668 m 175 1263.891 136.109 1244.445 58.332 1283.332 c S
58.332 1225 m 136.109 1225 155.555 1186.109 116.668 1108.332 c S
291.668 1225 m 213.891 1225 194.445 1263.891 233.332 1341.668 c S
175 1108.332 m 175 1186.109 213.891 1205.555 291.668 1166.668 c S
116.668 991.668 m 116.668 1030.555 136.109 1050 175 1050 c S
291.668 933.332 m 330.555 933.332 350 913.891 350 875 c S
233.332 758.332 m 233.332 719.445 213.891 700 175 700 c S
58.332 816.668 m 19.445 816.668 0 836.109 0 875 c S
116.668 991.668 m 155.555 991.668 175 1011.109 175 1050 c S
58.332 816.668 m 58.332 855.555 38.891 875 0 875 c S
291.668 933.332 m 291.668 894.445 311.109 875 350 875 c S
233.332 758.332 m 194.445 758.332 175 738.891 175 700 c S
116.668 1050 m 38.891 1050 19.445 1011.109 58.332 933.332 c S
350 933.332 m 350 1011.109 311.109 1030.555 233.332 991.668 c S
233.332 700 m 311.109 700 330.555 738.891 291.668 816.668 c S
0 816.668 m 0 738.891 38.891 719.445 116.668 758.332 c S
175 991.668 m 175 913.891 136.109 894.445 58.332 933.332 c S
58.332 875 m 136.109 875 155.555 836.109 116.668 758.332 c S
291.668 875 m 213.891 875 194.445 913.891 233.332 991.668 c S
175 758.332 m 175 836.109 213.891 855.555 291.668 816.668 c S
116.668 641.668 m 116.668 680.555 136.109 700 175 700 c S
291.668 583.332 m 330.555 583.332 350 563.891 350 525 c S
233.332 408.332 m 233.332 369.445 213.891 350 175 350 c S
58.332 466.668 m 19.445 466.668 0 486.109 0 525 c S
116.668 641.668 m 155.555 641.668 175 661.109 175 700 c S
58.332 466.668 m 58.332 505.555 38.891 525 0 525 c S
291.668 583.332 m 291.668 544.445 311.109 525 350 525 c S
233.332 408.332 m 194.445 408.332 175 388.891 175 350 c S
116.668 700 m 38.891 700 19.445 661.109 58.332 583.332 c S
350 583.332 m 350 661.109 311.109 680.555 233.332 641.668 c S
233.332 350 m 311.109 350 330.555 388.891 291.668 466.668 c S
0 466.668 m 0 388.891 38.891 369.445 116.668 408.332 c S
175 641.668 m 175 563.891 136.109 544.445 58.332 583.332 c S
58.332 525 m 136.109 525 155.555 486.109 116.668 408.332 c S
291.668 525 m 213.891 525 194.445 563.891 233.332 641.668 c S
175 408.332 m 175 486.109 213.891 505.555 291.668 466.668 c S
116.668 291.668 m 116.668 330.555 136.109 350 175 350 c S
291.668 233.332 m 330.555 233.332 350 213.891 350 175 c S
233.332 58.332 m 233.332 19.445 213.891 0 175 0 c S
58.332 116.668 m 19.445 116.668 0 136.109 0 175 c S
116.668 291.668 m 155.555 291.668 175 311.109 175 350 c S
58.332 116.668 m 58.332 155.555 38.891 175 0 175 c S
291.668 233.332 m 291.668 194.445 311.109 175 350 175 c S
233.332 58.332 m 194.445 58.332 175 38.891 175 0 c S
116.668 350 m 38.891 350 19.445 311.109 58.332 233.332 c S
350 233.332 m 350 311.109 311.109 330.555 233.332 291.668 c S
233.332 0 m 311.109 0 330.555 38.891 291.668 116.668 c S
0 116.668 m 0 38.891 38.891 19.445 116.668 58.332 c S
175 291.668 m 175 213.891 136.109 194.445 58.332 233.332 c S
58.332 175 m 136.109 175 155.555 136.109 116.668 58.332 c S
291.668 175 m 213.891 175 194.445 213.891 233.332 291.668 c S
175 58.332 m 175 136.109 213.891 155.555 291.668 116.668 c S
466.668 1341.668 m 466.668 1380.555 486.109 1400 525 1400 c S
641.668 1283.332 m 680.555 1283.332 700 1263.891 700 1225 c S
583.332 1108.332 m 583.332 1069.445 563.891 1050 525 1050 c S
408.332 1166.668 m 369.445 1166.668 350 1186.109 350 1225 c S
466.668 1341.668 m 505.555 1341.668 525 1361.109 525 1400 c S
408.332 1166.668 m 408.332 1205.555 388.891 1225 350 1225 c S
641.668 1283.332 m 641.668 1244.445 661.109 1225 700 1225 c S
583.332 1108.332 m 544.445 1108.332 525 1088.891 525 1050 c S
466.668 1400 m 388.891 1400 369.445 1361.109 408.332 1283.332 c S
700 1283.332 m 700 1361.109 661.109 1380.555 583.332 1341.668 c S
583.332 1050 m 661.109 1050 680.555 1088.891 641.668 1166.668 c S
350 1166.668 m 350 1088.891 388.891 1069.445 466.668 1108.332 c S
525 1341.668 m 525 1263.891 486.109 1244.445 408.332 1283.332 c S
408.332 1225 m 486.109 1225 505.555 1186.109 466.668 1108.332 c S
641.668 1225 m 563.891 1225 544.445 1263.891 583.332 1341.668 c S
525 1108.332 m 525 1186.109 563.891 1205.555 641.668 1166.668 c S
466.668 991.668 m 466.668 1030.555 486.109 1050 525 1050 c S
641.668 933.332 m 680.555 933.332 700 913.891 700 875 c S
583.332 758.332 m 583.332 719.445 563.891 700 525 700 c S
408.332 816.668 m 369.445 816.668 350 836.109 350 875 c S
466.668 991.668 m 505.555 991.668 525 1011.109 525 1050 c S
408.332 816.668 m 408.332 855.555 388.891 875 350 875 c S
641.668 933.332 m 641.668 894.445 661.109 875 700 875 c S
583.332 758.332 m 544.445 758.332 525 738.891 525 700 c S
466.668 1050 m 388.891 1050 369.445 1011.109 408.332 933.332 c S
700 933.332 m 700 1011.109 661.109 1030.555 583.332 991.668 c S
583.332 700 m 661.109 700 680.555 738.891 641.668 816.668 c S
350 816.668 m 350 738.891 388.891 719.445 466.668 758.332 c S
525 991.668 m 525 913.891 486.109 894.445 408.332 933.332 c S
408.332 875 m 486.109 875 505.555 836.109 466.668 758.332 c S
641.668 875 m 563.891 875 544.445 913.891 583.332 991.668 c S
525 758.332 m 525 836.109 563.891 855.555 641.668 816.668 c S
466.668 641.668 m 466.668 680.555 486.109 700 525 700 c S
641.668 583.332 m 680.555 583.332 700 563.891 700 525 c S
583.332 408.332 m 583.332 369.445 563.891 350 525 350 c S
408.332 466.668 m 369.445 466.668 350 486.109 350 525 c S
466.668 641.668 m 505.555 641.668 525 661.109 525 700 c S
408.332 466.668 m 408.332 505.555 388.891 525 350 525 c S
641.668 583.332 m 641.668 544.445 661.109 525 700 525 c S
583.332 408.332 m 544.445 408.332 525 388.891 525 350 c S
466.668 700 m 388.891 700 369.445 661.109 408.332 583.332 c S
700 583.332 m 700 661.109 661.109 680.555 583.332 641.668 c S
583.332 350 m 661.109 350 680.555 388.891 641.668 466.668 c S
350 466.668 m 350 388.891 388.891 369.445 466.668 408.332 c S
525 641.668 m 525 563.891 486.109 544.445 408.332 583.332 c S
408.332 525 m 486.109 525 505.555 486.109 466.668 408.332 c S
641.668 525 m 563.891 525 544.445 563.891 583.332 641.668 c S
525 408.332 m 525 486.109 563.891 505.555 641.668 466.668 c S
466.668 291.668 m 466.668 330.555 486.109 350 525 350 c S
641.668 233.332 m 680.555 233.332 700 213.891 700 175 c S
583.332 58.332 m 583.332 19.445 563.891 0 525 0 c S
408.332 116.668 m 369.445 116.668 350 136.109 350 175 c S
466.668 291.668 m 505.555 291.668 525 311.109 525 350 c S
408.332 116.668 m 408.332 155.555 388.891 175 350 175 c S
641.668 233.332 m 641.668 194.445 661.109 175 700 175 c S
583.332 58.332 m 544.445 58.332 525 38.891 525 0 c S
466.668 350 m 388.891 350 369.445 311.109 408.332 233.332 c S
700 233.332 m 700 311.109 661.109 330.555 583.332 291.668 c S
583.332 0 m 661.109 0 680.555 38.891 641.668 116.668 c S
350 116.668 m 350 38.891 388.891 19.445 466.668 58.332 c S
525 291.668 m 525 213.891 486.109 194.445 408.332 233.332 c S
408.332 175 m 486.109 175 505.555 136.109 466.668 58.332 c S
641.668 175 m 563.891 175 544.445 213.891 583.332 291.668 c S
525 58.332 m 525 136.109 563.891 155.555 641.668 116.668 c S
816.668 1341.668 m 816.668 1380.555 836.109 1400 875 1400 c S
991.668 1283.332 m 1030.555 1283.332 1050 1263.891 1050 1225 c S
933.332 1108.332 m 933.332 1069.445 913.891 1050 875 1050 c S
758.332 1166.668 m 719.445 1166.668 700 1186.109 700 1225 c S
816.668 1341.668 m 855.555 1341.668 875 1361.109 875 1400 c S
758.332 1166.668 m 758.332 1205.555 738.891 1225 700 1225 c S
991.668 1283.332 m 991.668 1244.445 1011.109 1225 1050 1225 c S
933.332 1108.332 m 894.445 1108.332 875 1088.891 875 1050 c S
816.668 1400 m 738.891 1400 719.445 1361.109 758.332 1283.332 c S
1050 1283.332 m 1050 1361.109 1011.109 1380.555 933.332 1341.668 c S
933.332 1050 m 1011.109 1050 1030.555 1088.891 991.668 1166.668 c S
700 1166.668 m 700 1088.891 738.891 1069.445 816.668 1108.332 c S
875 1341.668 m 875 1263.891 836.109 1244.445 758.332 1283.332 c S
758.332 1225 m 836.109 1225 855.555 1186.109 816.668 1108.332 c S
991.668 1225 m 913.891 1225 894.445 1263.891 933.332 1341.668 c S
875 1108.332 m 875 1186.109 913.891 1205.555 991.668 1166.668 c S
816.668 991.668 m 816.668 1030.555 836.109 1050 875 1050 c S
991.668 933.332 m 1030.555 933.332 1050 913.891 1050 875 c S
933.332 758.332 m 933.332 719.445 913.891 700 875 700 c S
758.332 816.668 m 719.445 816.668 700 836.109 700 875 c S
816.668 991.668 m 855.555 991.668 875 1011.109 875 1050 c S
758.332 816.668 m 758.332 855.555 738.891 875 700 875 c S
991.668 933.332 m 991.668 894.445 1011.109 875 1050 875 c S
933.332 758.332 m 894.445 758.332 875 738.891 875 700 c S
816.668 1050 m 738.891 1050 719.445 1011.109 758.332 933.332 c S
1050 933.332 m 1050 1011.109 1011.109 1030.555 933.332 991.668 c S
933.332 700 m 1011.109 700 1030.555 738.891 991.668 816.668 c S
700 816.668 m 700 738.891 738.891 719.445 816.668 758.332 c S
875 991.668 m 875 913.891 836.109 894.445 758.332 933.332 c S
758.332 875 m 836.109 875 855.555 836.109 816.668 758.332 c S
991.668 875 m 913.891 875 894.445 913.891 933.332 991.668 c S
875 758.332 m 875 836.109 913.891 855.555 991.668 816.668 c S
816.668 641.668 m 816.668 680.555 836.109 700 875 700 c S
991.668 583.332 m 1030.555 583.332 1050 563.891 1050 525 c S
933.332 408.332 m 933.332 369.445 913.891 350 875 350 c S
758.332 466.668 m 719.445 466.668 700 486.109 700 525 c S
816.668 641.668 m 855.555 641.668 875 661.109 875 700 c S
758.332 466.668 m 758.332 505.555 738.891 525 700 525 c S
991.668 583.332 m 991.668 544.445 1011.109 525 1050 525 c S
933.332 408.332 m 894.445 408.332 875 388.891 875 350 c S
816.668 700 m 738.891 700 719.445 661.109 758.332 583.332 c S
1050 583.332 m 1050 661.109 1011.109 680.555 933.332 641.668 c S
933.332 350 m 1011.109 350 1030.555 388.891 991.668 466.668 c S
700 466.668 m 700 388.891 738.891 369.445 816.668 408.332 c S
875 641.668 m 875 563.891 836.109 544.445 758.332 583.332 c S
758.332 525 m 836.109 525 855.555 486.109 816.668 408.332 c S
991.668 525 m 913.891 525 894.445 563.891 933.332 641.668 c S
875 408.332 m 875 486.109 913.891 505.555 991.668 466.668 c S
816.668 291.668 m 816.668 330.555 836.109 350 875 350 c S
991.668 233.332 m 1030.555 233.332 1050 213.891 1050 175 c S
933.332 58.332 m 933.332 19.445 913.891 0 875 0 c S
758.332 116.668 m 719.445 116.668 700 136.109 700 175 c S
816.668 291.668 m 855.555 291.668 875 311.109 875 350 c S
758.332 116.668 m 758.332 155.555 738.891 175 700 175 c S
991.668 233.332 m 991.668 194.445 1011.109 175 1050 175 c S
933.332 58.332 m 894.445 58.332 875 38.891 875 0 c S
816.668 350 m 738.891 350 719.445 311.109 758.332 233.332 c S
1050 233.332 m 1050 311.109 1011.109 330.555 933.332 291.668 c S
933.332 0 m 1011.109 0 1030.555 38.891 991.668 116.668 c S
700 116.668 m 700 38.891 738.891 19.445 816.668 58.332 c S
875 291.668 m 875 213.891 836.109 194.445 758.332 233.332 c S
758.332 175 m 836.109 175 855.555 136.109 816.668 58.332 c S
991.668 175 m 913.891 175 894.445 213.891 933.332 291.668 c S
875 58.332 m 875 136.109 913.891 155.555 991.668 116.668 c S
1166.668 1341.668 m 1166.668 1380.555 1186.109 1400 1225 1400 c S
1341.668 1283.332 m 1380.555 1283.332 1400 1263.891 1400 1225 c S
1283.332 1108.332 m 1283.332 1069.445 1263.891 1050 1225 1050 c S
1108.332 1166.668 m 1069.445 1166.668 1050 1186.109 1050 1225 c S
1166.668 1341.668 m 1205.555 1341.668 1225 1361.109 1225 1400 c S
1108.332 1166.668 m 1108.332 1205.555 1088.891 1225 1050 1225 c S
1341.668 1283.332 m 1341.668 1244.445 1361.109 1225 1400 1225 c S
1283.332 1108.332 m 1244.445 1108.332 1225 1088.891 1225 1050 c S
1166.668 1400 m 1088.891 1400 1069.445 1361.109 1108.332 1283.332 c S
1400 1283.332 m 1400 1361.109 1361.109 1380.555 1283.332 1341.668 c S
1283.332 1050 m 1361.109 1050 1380.555 1088.891 1341.668 1166.668 c S
1050 1166.668 m 1050 1088.891 1088.891 1069.445 1166.668 1108.332 c S
1225 1341.668 m 1225 1263.891 1186.109 1244.445 1108.332 1283.332 c S
1108.332 1225 m 1186.109 1225 1205.555 1186.109 1166.668 1108.332 c S
1341.668 1225 m 1263.891 1225 1244.445 1263.891 1283.332 1341.668 c S
1225 1108.332 m 1225 1186.109 1263.891 1205.555 1341.668 1166.668 c S
1166.668 991.668 m 1166.668 1030.555 1186.109 1050 1225 1050 c S
1341.668 933.332 m 1380.555 933.332 1400 913.891 1400 875 c S
1283.332 758.332 m 1283.332 719.445 1263.891 700 1225 700 c S
1108.332 816.668 m 1069.445 816.668 1050 836.109 1050 875 c S
1166.668 991.668 m 1205.555 991.668 1225 1011.109 1225 1050 c S
1108.332 816.668 m 1108.332 855.555 1088.891 875 1050 875 c S
1341.668 933.332 m 1341.668 894.445 1361.109 875 1400 875 c S
1283.332 758.332 m 1244.445 758.332 1225 738.891 1225 700 c S
1166.668 1050 m 1088.891 1050 1069.445 1011.109 1108.332 933.332 c S
1400 933.332 m 1400 1011.109 1361.109 1030.555 1283.332 991.668 c S
1283.332 700 m 1361.109 700 1380.555 738.891 1341.668 816.668 c S
1050 816.668 m 1050 738.891 1088.891 719.445 1166.668 758.332 c S
1225 991.668 m 1225 913.891 1186.109 894.445 1108.332 933.332 c S
1108.332 875 m 1186.109 875 1205.555 836.109 1166.668 758.332 c S
1341.668 875 m 1263.891 875 1244.445 913.891 1283.332 991.668 c S
1225 758.332 m 1225 836.109 1263.891 855.555 1341.668 816.668 c S
1166.668 641.668 m 1166.668 680.555 1186.109 700 1225 700 c S
1341.668 583.332 m 1380.555 583.332 1400 563.891 1400 525 c S
1283.332 408.332 m 1283.332 369.445 1263.891 350 1225 350 c S
1108.332 466.668 m 1069.445 466.668 1050 486.109 1050 525 c S
1166.668 641.668 m 1205.555 641.668 1225 661.109 1225 700 c S
1108.332 466.668 m 1108.332 505.555 1088.891 525 1050 525 c S
1341.668 583.332 m 1341.668 544.445 1361.109 525 1400 525 c S
1283.332 408.332 m 1244.445 408.332 1225 388.891 1225 350 c S
1166.668 700 m 1088.891 700 1069.445 661.109 1108.332 583.332 c S
1400 583.332 m 1400 661.109 1361.109 680.555 1283.332 641.668 c S
1283.332 350 m 1361.109 350 1380.555 388.891 1341.668 466.668 c S
1050 466.668 m 1050 388.891 1088.891 369.445 1166.668 408.332 c S
1225 641.668 m 1225 563.891 1186.109 544.445 1108.332 583.332 c S
1108.332 525 m 1186.109 525 1205.555 486.109 1166.668 408.332 c S
1341.668 525 m 1263.891 525 1244.445 563.891 1283.332 641.668 c S
1225 408.332 m 1225 486.109 1263.891 505.555 1341.668 466.668 c S
1166.668 291.668 m 1166.668 330.555 1186.109 350 1225 350 c S
1341.668 233.332 m 1380.555 233.332 1400 213.891 1400 175 c S
1283.332 58.332 m 1283.332 19.445 1263.891 0 1225 0 c S
1108.332 116.668 m 1069.445 116.668 1050 136.109 1050 175 c S
1166.668 291.668 m 1205.555 291.668 1225 311.109 1225 350 c S
1108.332 116.668 m 1108.332 155.555 1088.891 175 1050 175 c S
1341.668 233.332 m 1341.668 194.445 1361.109 175 1400 175 c S
1283.332 58.332 m 1244.445 58.332 1225 38.891 1225 0 c S
1166.668 350 m 1088.891 350 1069.445 311.109 1108.332 233.332 c S
1400 233.332 m 1400 311.109 1361.109 330.555 1283.332 291.668 c S
1283.332 0 m 1361.109 0 1380.555 38.891 1341.668 116.668 c S
1050 116.668 m 1050 38.891 1088.891 19.445 1166.668 58.332 c S
1225 291.668 m 1225 213.891 1186.109 194.445 1108.332 233.332 c S
1108.332 175 m 1186.109 175 1205.555 136.109 1166.668 58.332 c S
1341.668 175 m 1263.891 175 1244.445 213.891 1283.332 291.668 c S
1225 58.332 m 1225 136.109 1263.891 155.555 1341.668 116.668 c S
1516.668 1341.668 m 1516.668 1380.555 1536.109 1400 1575 1400 c S
1691.668 1283.332 m 1730.555 1283.332 1750 1263.891 1750 1225 c S
1633.332 1108.332 m 1633.332 1069.445 1613.891 1050 1575 1050 c S
1458.332 1166.668 m 1419.445 1166.668 1400 1186.109 1400 1225 c S
1516.668 1341.668 m 1555.555 1341.668 1575 1361.109 1575 1400 c S
1458.332 1166.668 m 1458.332 1205.555 1438.891 1225 1400 1225 c S
1691.668 1283.332 m 1691.668 1244.445 1711.109 1225 1750 1225 c S
1633.332 1108.332 m 1594.445 1108.332 1575 1088.891 1575 1050 c S
1516.668 1400 m 1438.891 1400 1419.445 1361.109 1458.332 1283.332 c S
1750 1283.332 m 1750 1361.109 1711.109 1380.555 1633.332 1341.668 c S
1633.332 1050 m 1711.109 1050 1730.555 1088.891 1691.668 1166.668 c S
1400 1166.668 m 1400 1088.891 1438.891 1069.445 1516.668 1108.332 c S
1575 1341.668 m 1575 1263.891 1536.109 1244.445 1458.332 1283.332 c S
1458.332 1225 m 1536.109 1225 1555.555 1186.109 1516.668 1108.332 c S
1691.668 1225 m 1613.891 1225 1594.445 1263.891 1633.332 1341.668 c S
1575 1108.332 m 1575 1186.109 1613.891 1205.555 1691.668 1166.668 c S
1516.668 991.668 m 1516.668 1030.555 1536.109 1050 1575 1050 c S
1691.668 933.332 m 1730.555 933.332 1750 913.891 1750 875 c S
1633.332 758.332 m 1633.332 719.445 1613.891 700 1575 700 c S
1458.332 816.668 m 1419.445 816.668 1400 836.109 1400 875 c S
1516.668 991.668 m 1555.555 991.668 1575 1011.109 1575 1050 c S
1458.332 816.668 m 1458.332 855.555 1438.891 875 1400 875 c S
1691.668 933.332 m 1691.668 894.445 1711.109 875 1750 875 c S
1633.332 758.332 m 1594.445 758.332 1575 738.891 1575 700 c S
1516.668 1050 m 1438.891 1050 1419.445 1011.109 1458.332 933.332 c S
1750 933.332 m 1750 1011.109 1711.109 1030.555 1633.332 991.668 c S
1633.332 700 m 1711.109 700 1730.555 738.891 1691.668 816.668 c S
1400 816.668 m 1400 738.891 1438.891 719.445 1516.668 758.332 c S
1575 991.668 m 1575 913.891 1536.109 894.445 1458.332 933.332 c S
1458.332 875 m 1536.109 875 1555.555 836.109 1516.668 758.332 c S
1691.668 875 m 1613.891 875 1594.445 913.891 1633.332 991.668 c S
1575 758.332 m 1575 836.109 1613.891 855.555 1691.668 816.668 c S
1516.668 641.668 m 1516.668 680.555 1536.109 700 1575 700 c S
1691.668 583.332 m 1730.555 583.332 1750 563.891 1750 525 c S
1633.332 408.332 m 1633.332 369.445 1613.891 350 1575 350 c S
1458.332 466.668 m 1419.445 466.668 1400 486.109 1400 525 c S
1516.668 641.668 m 1555.555 641.668 1575 661.109 1575 700 c S
1458.332 466.668 m 1458.332 505.555 1438.891 525 1400 525 c S
1691.668 583.332 m 1691.668 544.445 1711.109 525 1750 525 c S
1633.332 408.332 m 1594.445 408.332 1575 388.891 1575 350 c S
1516.668 700 m 1438.891 700 1419.445 661.109 1458.332 583.332 c S
1750 583.332 m 1750 661.109 1711.109 680.555 1633.332 641.668 c S
1633.332 350 m 1711.109 350 1730.555 388.891 1691.668 466.668 c S
1400 466.668 m 1400 388.891 1438.891 369.445 1516.668 408.332 c S
1575 641.668 m 1575 563.891 1536.109 544.445 1458.332 583.332 c S
1458.332 525 m 1536.109 525 1555.555 486.109 1516.668 408.332 c S
1691.668 525 m 1613.891 525 1594.445 563.891 1633.332 641.668 c S
1575 408.332 m 1575 486.109 1613.891 505.555 1691.668 466.668 c S
1516.668 291.668 m 1516.668 330.555 1536.109 350 1575 350 c S
1691.668 233.332 m 1730.555 233.332 1750 213.891 1750 175 c S
1633.332 58.332 m 1633.332 19.445 1613.891 0 1575 0 c S
1458.332 116.668 m 1419.445 116.668 1400 136.109 1400 175 c S
1516.668 291.668 m 1555.555 291.668 1575 311.109 1575 350 c S
1458.332 116.668 m 1458.332 155.555 1438.891 175 1400 175 c S
1691.668 233.332 m 1691.668 194.445 1711.109 175 1750 175 c S
1633.332 58.332 m 1594.445 58.332 1575 38.891 1575 0 c S
1516.668 350 m 1438.891 350 1419.445 311.109 1458.332 233.332 c S
1750 233.332 m 1750 311.109 1711.109 330.555 1633.332 291.668 c S
1633.332 0 m 1711.109 0 1730.555 38.891 1691.668 116.668 c S
1400 116.668 m 1400 38.891 1438.891 19.445 1516.668 58.332 c S
1575 291.668 m 1575 213.891 1536.109 194.445 1458.332 233.332 c S
1458.332 175 m 1536.109 175 1555.555 136.109 1516.668 58.332 c S
1691.668 175 m 1613.891 175 1594.445 213.891 1633.332 291.668 c S
1575 58.332 m 1575 136.109 1613.891 155.555 1691.668 116.668 c S
1866.668 1341.668 m 1866.668 1380.555 1886.109 1400 1925 1400 c S
2041.668 1283.332 m 2080.555 1283.332 2100 1263.891 2100 1225 c S
1983.332 1108.332 m 1983.332 1069.445 1963.891 1050 1925 1050 c S
1808.332 1166.668 m 1769.445 1166.668 1750 1186.109 1750 1225 c S
1866.668 1341.668 m 1905.555 1341.668 1925 1361.109 1925 1400 c S
1808.332 1166.668 m 1808.332 1205.555 1788.891 1225 1750 1225 c S
2041.668 1283.332 m 2041.668 1244.445 2061.109 1225 2100 1225 c S
1983.332 1108.332 m 1944.445 1108.332 1925 1088.891 1925 1050 c S
1866.668 1400 m 1788.891 1400 1769.445 1361.109 1808.332 1283.332 c S
2100 1283.332 m 2100 1361.109 2061.109 1380.555 1983.332 1341.668 c S
1983.332 1050 m 2061.109 1050 2080.555 1088.891 2041.668 1166.668 c S
1750 1166.668 m 1750 1088.891 1788.891 1069.445 1866.668 1108.332 c S
1925 1341.668 m 1925 1263.891 1886.109 1244.445 1808.332 1283.332 c S
1808.332 1225 m 1886.109 1225 1905.555 1186.109 1866.668 1108.332 c S
2041.668 1225 m 1963.891 1225 1944.445 1263.891 1983.332 1341.668 c S
1925 1108.332 m 1925 1186.109 1963.891 1205.555 2041.668 1166.668 c S
1866.668 991.668 m 1866.668 1030.555 1886.109 1050 1925 1050 c S
2041.668 933.332 m 2080.555 933.332 2100 913.891 2100 875 c S
1983.332 758.332 m 1983.332 719.445 1963.891 700 1925 700 c S
1808.332 816.668 m 1769.445 816.668 1750 836.109 1750 875 c S
1866.668 991.668 m 1905.555 991.668 1925 1011.109 1925 1050 c S
1808.332 816.668 m 1808.332 855.555 1788.891 875 1750 875 c S
2041.668 933.332 m 2041.668 894.445 2061.109 875 2100 875 c S
1983.332 758.332 m 1944.445 758.332 1925 738.891 1925 700 c S
1866.668 1050 m 1788.891 1050 1769.445 1011.109 1808.332 933.332 c S
2100 933.332 m 2100 1011.109 2061.109 1030.555 1983.332 991.668 c S
1983.332 700 m 2061.109 700 2080.555 738.891 2041.668 816.668 c S
1750 816.668 m 1750 738.891 1788.891 719.445 1866.668 758.332 c S
1925 991.668 m 1925 913.891 1886.109 894.445 1808.332 933.332 c S
1808.332 875 m 1886.109 875 1905.555 836.109 1866.668 758.332 c S
2041.668 875 m 1963.891 875 1944.445 913.891 1983.332 991.668 c S
1925 758.332 m 1925 836.109 1963.891 855.555 2041.668 816.668 c S
1866.668 641.668 m 1866.668 680.555 1886.109 700 1925 700 c S
2041.668 583.332 m 2080.555 583.332 2100 563.891 2100 525 c S
1983.332 408.332 m 1983.332 369.445 1963.891 350 1925 350 c S
1808.332 466.668 m 1769.445 466.668 1750 486.109 1750 525 c S
1866.668 641.668 m 1905.555 641.668 1925 661.109 1925 700 c S
1808.332 466.668 m 1808.332 505.555 1788.891 525 1750 525 c S
2041.668 583.332 m 2041.668 544.445 2061.109 525 2100 525 c S
1983.332 408.332 m 1944.445 408.332 1925 388.891 1925 350 c S
1866.668 700 m 1788.891 700 1769.445 661.109 1808.332 583.332 c S
2100 583.332 m 2100 661.109 2061.109 680.555 1983.332 641.668 c S
1983.332 350 m 2061.109 350 2080.555 388.891 2041.668 466.668 c S
1750 466.668 m 1750 388.891 1788.891 369.445 1866.668 408.332 c S
1925 641.668 m 1925 563.891 1886.109 544.445 1808.332 583.332 c S
1808.332 525 m 1886.109 525 1905.555 486.109 1866.668 408.332 c S
2041.668 525 m 1963.891 525 1944.445 563.891 1983.332 641.668 c S
1925 408.332 m 1925 486.109 1963.891 505.555 2041.668 466.668 c S
1866.668 291.668 m 1866.668 330.555 1886.109 350 1925 350 c S
2041.668 233.332 m 2080.555 233.332 2100 213.891 2100 175 c S
1983.332 58.332 m 1983.332 19.445 1963.891 0 1925 0 c S
1808.332 116.668 m 1769.445 116.668 1750 136.109 1750 175 c S
1866.668 291.668 m 1905.555 291.668 1925 311.109 1925 350 c S
1808.332 116.668 m 1808.332 155.555 1788.891 175 1750 175 c S
2041.668 233.332 m 2041.668 194.445 2061.109 175 2100 175 c S
1983.332 58.332 m 1944.445 58.332 1925 38.891 1925 0 c S
1866.668 350 m 1788.891 350 1769.445 311.109 1808.332 233.332 c S
2100 233.332 m 2100 311.109 2061.109 330.555 1983.332 291.668 c S
1983.332 0 m 2061.109 0 2080.555 38.891 2041.668 116.668 c S
1750 116.668 m 1750 38.891 1788.891 19.445 1866.668 58.332 c S
1925 291.668 m 1925 213.891 1886.109 194.445 1808.332 233.332 c S
1808.332 175 m 1886.109 175 1905.555 136.109 1866.668 58.332 c S
2041.668 175 m 1963.891 175 1944.445 213.891 1983.332 291.668 c S
1925 58.332 m 1925 136.109 1963.891 155.555 2041.668 116.668 c S
Q Q
showpage
%%Trailer
%%Trailer
cleartomark
countdictstack
exch sub { end } repeat
restore
%%EOF
