%!PS-Adobe-2.0 EPSF-2.0
%%BoundingBox: 0 0 900 866
%%HiResBoundingBox: 0.000000 0.000000 900.000000 866.000000
%%Creator: cairo 1.14.2 (http://cairographics.org)
%%CreationDate: Mon Sep  7 08:21:56 2015
%%DocumentData: Clean7Bit
%%LanguageLevel: 2
%%DocumentMedia: 318x306mm 900 866 0 () ()
%%EndComments
% EPSF created by ps2eps 1.68
%%BeginProlog
save
countdictstack
mark
newpath
/showpage {} def
/setpagedevice {pop} def
%%EndProlog
%%Page 1 1
%%BeginProlog
/languagelevel where
{ pop languagelevel } { 1 } ifelse
2 lt { /Helvetica findfont 12 scalefont setfont 50 500 moveto
  (This print job requires a PostScript Language Level 2 printer.) show
  showpage quit } if
/q { gsave } bind def
/Q { grestore } bind def
/cm { 6 array astore concat } bind def
/w { setlinewidth } bind def
/J { setlinecap } bind def
/j { setlinejoin } bind def
/M { setmiterlimit } bind def
/d { setdash } bind def
/m { moveto } bind def
/l { lineto } bind def
/c { curveto } bind def
/h { closepath } bind def
/re { exch dup neg 3 1 roll 5 3 roll moveto 0 rlineto
      0 exch rlineto 0 rlineto closepath } bind def
/S { stroke } bind def
/f { fill } bind def
/f* { eofill } bind def
/n { newpath } bind def
/W { clip } bind def
/W* { eoclip } bind def
/BT { } bind def
/ET { } bind def
/pdfmark where { pop globaldict /?pdfmark /exec load put }
    { globaldict begin /?pdfmark /pop load def /pdfmark
    /cleartomark load def end } ifelse
/BDC { mark 3 1 roll /BDC pdfmark } bind def
/EMC { mark /EMC pdfmark } bind def
/cairo_store_point { /cairo_point_y exch def /cairo_point_x exch def } def
/Tj { show currentpoint cairo_store_point } bind def
/TJ {
  {
    dup
    type /stringtype eq
    { show } { -0.001 mul 0 cairo_font_matrix dtransform rmoveto } ifelse
  } forall
  currentpoint cairo_store_point
} bind def
/cairo_selectfont { cairo_font_matrix aload pop pop pop 0 0 6 array astore
    cairo_font exch selectfont cairo_point_x cairo_point_y moveto } bind def
/Tf { pop /cairo_font exch def /cairo_font_matrix where
      { pop cairo_selectfont } if } bind def
/Td { matrix translate cairo_font_matrix matrix concatmatrix dup
      /cairo_font_matrix exch def dup 4 get exch 5 get cairo_store_point
      /cairo_font where { pop cairo_selectfont } if } bind def
/Tm { 2 copy 8 2 roll 6 array astore /cairo_font_matrix exch def
      cairo_store_point /cairo_font where { pop cairo_selectfont } if } bind def
/g { setgray } bind def
/rg { setrgbcolor } bind def
/d1 { setcachedevice } bind def
/cairo_set_page_size {
  % Change paper size, but only if different from previous paper size otherwise
  % duplex fails. PLRM specifies a tolerance of 5 pts when matching paper size
  % so we use the same when checking if the size changes.
  /setpagedevice where {
    pop currentpagedevice
    /PageSize known {
      2 copy
      currentpagedevice /PageSize get aload pop
      exch 4 1 roll
      sub abs 5 gt
      3 1 roll
      sub abs 5 gt
      or
    } {
      true
    } ifelse
    {
      2 array astore
      2 dict begin
        /PageSize exch def
        /ImagingBBox null def
      currentdict end
      setpagedevice
    } {
      pop pop
    } ifelse
  } {
    pop
  } ifelse
} def
%%EndProlog
%%BeginSetup
%%EndSetup
%%Page: 1 1
%%BeginPageSetup
%%PageMedia: 318x306mm
%%PageBoundingBox: 0 0 900 866
900 866 cairo_set_page_size
%%EndPageSetup
q 0 0 900 866 rectclip q
0.984314 g
0 0 900 866 rectfill
0.788235 g
1.875 w
0 J
1 j
[] 0.0 d
4 M 0 866 900 -866.027 re S
0 g
2.5 w
1 J
200 866 m -100 692.793 50 779.398 0 866 c S
200 866 m -100 692.793 50 779.398 100 692.793 c S
100 692.793 m -200 519.59 -50 606.191 -100 692.793 c S
100 692.793 m -200 519.59 -50 606.191 0 519.59 c S
0 519.59 m -300 346.383 -150 432.988 -200 519.59 c S
0 519.59 m -300 346.383 -150 432.988 -100 346.383 c S
400 866 m 100 692.793 250 779.398 200 866 c S
400 866 m 100 692.793 250 779.398 300 692.793 c S
300 692.793 m 0 519.59 150 606.191 100 692.793 c S
300 692.793 m 0 519.59 150 606.191 200 519.59 c S
200 519.59 m -100 346.383 50 432.988 0 519.59 c S
200 519.59 m -100 346.383 50 432.988 100 346.383 c S
100 346.383 m -200 173.18 -50 259.781 -100 346.383 c S
100 346.383 m -200 173.18 -50 259.781 0 173.18 c S
0 173.18 m -300 -0.027 -150 86.578 -200 173.18 c S
0 173.18 m -300 -0.027 -150 86.578 -100 -0.027 c S
600 866 m 300 692.793 450 779.398 400 866 c S
600 866 m 300 692.793 450 779.398 500 692.793 c S
500 692.793 m 200 519.59 350 606.191 300 692.793 c S
500 692.793 m 200 519.59 350 606.191 400 519.59 c S
400 519.59 m 100 346.383 250 432.988 200 519.59 c S
400 519.59 m 100 346.383 250 432.988 300 346.383 c S
300 346.383 m 0 173.18 150 259.781 100 346.383 c S
300 346.383 m 0 173.18 150 259.781 200 173.18 c S
200 173.18 m -100 -0.027 50 86.578 0 173.18 c S
200 173.18 m -100 -0.027 50 86.578 100 -0.027 c S
800 866 m 500 692.793 650 779.398 600 866 c S
800 866 m 500 692.793 650 779.398 700 692.793 c S
700 692.793 m 400 519.59 550 606.191 500 692.793 c S
700 692.793 m 400 519.59 550 606.191 600 519.59 c S
600 519.59 m 300 346.383 450 432.988 400 519.59 c S
600 519.59 m 300 346.383 450 432.988 500 346.383 c S
500 346.383 m 200 173.18 350 259.781 300 346.383 c S
500 346.383 m 200 173.18 350 259.781 400 173.18 c S
400 173.18 m 100 -0.027 250 86.578 200 173.18 c S
400 173.18 m 100 -0.027 250 86.578 300 -0.027 c S
1000 866 m 700 692.793 850 779.398 800 866 c S
1000 866 m 700 692.793 850 779.398 900 692.793 c S
900 692.793 m 600 519.59 750 606.191 700 692.793 c S
900 692.793 m 600 519.59 750 606.191 800 519.59 c S
800 519.59 m 500 346.383 650 432.988 600 519.59 c S
800 519.59 m 500 346.383 650 432.988 700 346.383 c S
700 346.383 m 400 173.18 550 259.781 500 346.383 c S
700 346.383 m 400 173.18 550 259.781 600 173.18 c S
600 173.18 m 300 -0.027 450 86.578 400 173.18 c S
600 173.18 m 300 -0.027 450 86.578 500 -0.027 c S
1100 692.793 m 800 519.59 950 606.191 900 692.793 c S
1000 519.59 m 700 346.383 850 432.988 800 519.59 c S
1000 519.59 m 700 346.383 850 432.988 900 346.383 c S
900 346.383 m 600 173.18 750 259.781 700 346.383 c S
900 346.383 m 600 173.18 750 259.781 800 173.18 c S
800 173.18 m 500 -0.027 650 86.578 600 173.18 c S
800 173.18 m 500 -0.027 650 86.578 700 -0.027 c S
1100 346.383 m 800 173.18 950 259.781 900 346.383 c S
1000 173.18 m 700 -0.027 850 86.578 800 173.18 c S
1000 173.18 m 700 -0.027 850 86.578 900 -0.027 c S
Q Q
showpage
%%Trailer
%%Trailer
cleartomark
countdictstack
exch sub { end } repeat
restore
%%EOF
