<svg xmlns="http://www.w3.org/2000/svg" baseProfile="full" width="900" height="866.025" viewBox="-49.99999999999998 -86.60254037844386 899.9999999999998 866.0254037844387">
    <title>
        Pattern design from http://ornamentist.org
    </title>
    <desc>
        This file is licensed under a Creative Commons CC BY 4.0 license: http://creativecommons.org/licenses/by/4.0/
    </desc>
    <defs>
        <style>
<![CDATA[
        
polyline {
  fill:            none;
  stroke:          black;
  stroke-linecap:  round;
  stroke-linejoin: round;
  stroke-width:    2.0pt;
}


polyline.closed {
  fill:      #d9d9d9;
  fill-rule: evenodd;
}


polygon {
  fill:            #d9d9d9;
  fill-rule:       evenodd;
  stroke:          black;
  stroke-linejoin: round;
  stroke-width:    2.0pt;
}


circle {
  fill:         #d9d9d9;
  stroke:       black;
  stroke-width: 2.0pt;
}


ellipse {
  fill:         #d9d9d9;
  stroke:       black;
  stroke-width: 2.0pt;
}


path {
  fill:            none;
  stroke:          black;
  stroke-linecap:  round;
  stroke-linejoin: round;
  stroke-width:    2.0pt;
}


path.closed {
  fill:      #d9d9d9;
  fill-rule: evenodd;
}


polygon.background,
path.background
{
  fill:   #fbfbfb;
  stroke: #c9c9c9;
  stroke-width: 1.5pt;
}

        ]]>
        </style>
    </defs>
    <clipPath id="design">
        <path d="M-50-86.603h900v866.025H-50z"/>
    </clipPath>
    <g clip-path="url(#design)" color-rendering="optimizeQuality" shape-rendering="geometricPrecision" id="graphics">
        <path class="background closed" d="M850-86.603v866.026H-50V-86.603z"/>
        <circle cx="50" cy="-28.868" r="66.667" class="circle-3-1 closed"/>
        <circle cx="50" cy="-28.868" r="66.667" class="circle-3-1 closed"/>
        <circle cx="-50" cy="144.338" r="66.667" class="circle-3-1 closed"/>
        <circle cx="-50" cy="144.338" r="66.667" class="circle-3-1 closed"/>
        <circle cx="-150" cy="317.543" r="66.667" class="circle-3-1 closed"/>
        <circle cx="-150" cy="317.543" r="66.667" class="circle-3-1 closed"/>
        <circle cx="-250" cy="490.748" r="66.667" class="circle-3-1 closed"/>
        <circle cx="-250" cy="490.748" r="66.667" class="circle-3-1 closed"/>
        <circle cx="-350" cy="663.953" r="66.667" class="circle-3-1 closed"/>
        <circle cx="-350" cy="663.953" r="66.667" class="circle-3-1 closed"/>
        <circle cx="250" cy="-28.868" r="66.667" class="circle-3-1 closed"/>
        <circle cx="250" cy="-28.868" r="66.667" class="circle-3-1 closed"/>
        <circle cx="150" cy="144.338" r="66.667" class="circle-3-1 closed"/>
        <circle cx="150" cy="144.338" r="66.667" class="circle-3-1 closed"/>
        <circle cx="50" cy="317.543" r="66.667" class="circle-3-1 closed"/>
        <circle cx="50" cy="317.543" r="66.667" class="circle-3-1 closed"/>
        <circle cx="-50" cy="490.748" r="66.667" class="circle-3-1 closed"/>
        <circle cx="-50" cy="490.748" r="66.667" class="circle-3-1 closed"/>
        <circle cx="-150" cy="663.953" r="66.667" class="circle-3-1 closed"/>
        <circle cx="-150" cy="663.953" r="66.667" class="circle-3-1 closed"/>
        <circle cx="450" cy="-28.868" r="66.667" class="circle-3-1 closed"/>
        <circle cx="450" cy="-28.868" r="66.667" class="circle-3-1 closed"/>
        <circle cx="350" cy="144.338" r="66.667" class="circle-3-1 closed"/>
        <circle cx="350" cy="144.338" r="66.667" class="circle-3-1 closed"/>
        <circle cx="250" cy="317.543" r="66.667" class="circle-3-1 closed"/>
        <circle cx="250" cy="317.543" r="66.667" class="circle-3-1 closed"/>
        <circle cx="150" cy="490.748" r="66.667" class="circle-3-1 closed"/>
        <circle cx="150" cy="490.748" r="66.667" class="circle-3-1 closed"/>
        <circle cx="50" cy="663.953" r="66.667" class="circle-3-1 closed"/>
        <circle cx="50" cy="663.953" r="66.667" class="circle-3-1 closed"/>
        <circle cx="650" cy="-28.868" r="66.667" class="circle-3-1 closed"/>
        <circle cx="650" cy="-28.868" r="66.667" class="circle-3-1 closed"/>
        <circle cx="550" cy="144.338" r="66.667" class="circle-3-1 closed"/>
        <circle cx="550" cy="144.338" r="66.667" class="circle-3-1 closed"/>
        <circle cx="450" cy="317.543" r="66.667" class="circle-3-1 closed"/>
        <circle cx="450" cy="317.543" r="66.667" class="circle-3-1 closed"/>
        <circle cx="350" cy="490.748" r="66.667" class="circle-3-1 closed"/>
        <circle cx="350" cy="490.748" r="66.667" class="circle-3-1 closed"/>
        <circle cx="250" cy="663.953" r="66.667" class="circle-3-1 closed"/>
        <circle cx="250" cy="663.953" r="66.667" class="circle-3-1 closed"/>
        <circle cx="850" cy="-28.868" r="66.667" class="circle-3-1 closed"/>
        <circle cx="850" cy="-28.868" r="66.667" class="circle-3-1 closed"/>
        <circle cx="750" cy="144.338" r="66.667" class="circle-3-1 closed"/>
        <circle cx="750" cy="144.338" r="66.667" class="circle-3-1 closed"/>
        <circle cx="650" cy="317.543" r="66.667" class="circle-3-1 closed"/>
        <circle cx="650" cy="317.543" r="66.667" class="circle-3-1 closed"/>
        <circle cx="550" cy="490.748" r="66.667" class="circle-3-1 closed"/>
        <circle cx="550" cy="490.748" r="66.667" class="circle-3-1 closed"/>
        <circle cx="450" cy="663.953" r="66.667" class="circle-3-1 closed"/>
        <circle cx="450" cy="663.953" r="66.667" class="circle-3-1 closed"/>
        <circle cx="1050" cy="-28.868" r="66.667" class="circle-3-1 closed"/>
        <circle cx="1050" cy="-28.868" r="66.667" class="circle-3-1 closed"/>
        <circle cx="950" cy="144.338" r="66.667" class="circle-3-1 closed"/>
        <circle cx="950" cy="144.338" r="66.667" class="circle-3-1 closed"/>
        <circle cx="850" cy="317.543" r="66.667" class="circle-3-1 closed"/>
        <circle cx="850" cy="317.543" r="66.667" class="circle-3-1 closed"/>
        <circle cx="750" cy="490.748" r="66.667" class="circle-3-1 closed"/>
        <circle cx="750" cy="490.748" r="66.667" class="circle-3-1 closed"/>
        <circle cx="650" cy="663.953" r="66.667" class="circle-3-1 closed"/>
        <circle cx="650" cy="663.953" r="66.667" class="circle-3-1 closed"/>
        <circle cx="1250" cy="-28.868" r="66.667" class="circle-3-1 closed"/>
        <circle cx="1250" cy="-28.868" r="66.667" class="circle-3-1 closed"/>
        <circle cx="1150" cy="144.338" r="66.667" class="circle-3-1 closed"/>
        <circle cx="1150" cy="144.338" r="66.667" class="circle-3-1 closed"/>
        <circle cx="1050" cy="317.543" r="66.667" class="circle-3-1 closed"/>
        <circle cx="1050" cy="317.543" r="66.667" class="circle-3-1 closed"/>
        <circle cx="950" cy="490.748" r="66.667" class="circle-3-1 closed"/>
        <circle cx="950" cy="490.748" r="66.667" class="circle-3-1 closed"/>
        <circle cx="850" cy="663.953" r="66.667" class="circle-3-1 closed"/>
        <circle cx="850" cy="663.953" r="66.667" class="circle-3-1 closed"/>
    </g>
</svg>
