%!PS-Adobe-2.0 EPSF-2.0
%%BoundingBox: 0 0 900 866
%%HiResBoundingBox: 0.000000 0.000000 900.000000 866.000000
%%Creator: cairo 1.14.2 (http://cairographics.org)
%%CreationDate: Mon Sep  7 08:21:56 2015
%%DocumentData: Clean7Bit
%%LanguageLevel: 2
%%DocumentMedia: 318x306mm 900 866 0 () ()
%%EndComments
% EPSF created by ps2eps 1.68
%%BeginProlog
save
countdictstack
mark
newpath
/showpage {} def
/setpagedevice {pop} def
%%EndProlog
%%Page 1 1
%%BeginProlog
/languagelevel where
{ pop languagelevel } { 1 } ifelse
2 lt { /Helvetica findfont 12 scalefont setfont 50 500 moveto
  (This print job requires a PostScript Language Level 2 printer.) show
  showpage quit } if
/q { gsave } bind def
/Q { grestore } bind def
/cm { 6 array astore concat } bind def
/w { setlinewidth } bind def
/J { setlinecap } bind def
/j { setlinejoin } bind def
/M { setmiterlimit } bind def
/d { setdash } bind def
/m { moveto } bind def
/l { lineto } bind def
/c { curveto } bind def
/h { closepath } bind def
/re { exch dup neg 3 1 roll 5 3 roll moveto 0 rlineto
      0 exch rlineto 0 rlineto closepath } bind def
/S { stroke } bind def
/f { fill } bind def
/f* { eofill } bind def
/n { newpath } bind def
/W { clip } bind def
/W* { eoclip } bind def
/BT { } bind def
/ET { } bind def
/pdfmark where { pop globaldict /?pdfmark /exec load put }
    { globaldict begin /?pdfmark /pop load def /pdfmark
    /cleartomark load def end } ifelse
/BDC { mark 3 1 roll /BDC pdfmark } bind def
/EMC { mark /EMC pdfmark } bind def
/cairo_store_point { /cairo_point_y exch def /cairo_point_x exch def } def
/Tj { show currentpoint cairo_store_point } bind def
/TJ {
  {
    dup
    type /stringtype eq
    { show } { -0.001 mul 0 cairo_font_matrix dtransform rmoveto } ifelse
  } forall
  currentpoint cairo_store_point
} bind def
/cairo_selectfont { cairo_font_matrix aload pop pop pop 0 0 6 array astore
    cairo_font exch selectfont cairo_point_x cairo_point_y moveto } bind def
/Tf { pop /cairo_font exch def /cairo_font_matrix where
      { pop cairo_selectfont } if } bind def
/Td { matrix translate cairo_font_matrix matrix concatmatrix dup
      /cairo_font_matrix exch def dup 4 get exch 5 get cairo_store_point
      /cairo_font where { pop cairo_selectfont } if } bind def
/Tm { 2 copy 8 2 roll 6 array astore /cairo_font_matrix exch def
      cairo_store_point /cairo_font where { pop cairo_selectfont } if } bind def
/g { setgray } bind def
/rg { setrgbcolor } bind def
/d1 { setcachedevice } bind def
/cairo_set_page_size {
  % Change paper size, but only if different from previous paper size otherwise
  % duplex fails. PLRM specifies a tolerance of 5 pts when matching paper size
  % so we use the same when checking if the size changes.
  /setpagedevice where {
    pop currentpagedevice
    /PageSize known {
      2 copy
      currentpagedevice /PageSize get aload pop
      exch 4 1 roll
      sub abs 5 gt
      3 1 roll
      sub abs 5 gt
      or
    } {
      true
    } ifelse
    {
      2 array astore
      2 dict begin
        /PageSize exch def
        /ImagingBBox null def
      currentdict end
      setpagedevice
    } {
      pop pop
    } ifelse
  } {
    pop
  } ifelse
} def
%%EndProlog
%%BeginSetup
%%EndSetup
%%Page: 1 1
%%BeginPageSetup
%%PageMedia: 318x306mm
%%PageBoundingBox: 0 0 900 866
900 866 cairo_set_page_size
%%EndPageSetup
q 0 0 900 866 rectclip q
0.984314 g
0 0 900 866 rectfill
0.788235 g
1.875 w
0 J
1 j
[] 0.0 d
4 M 0 866 900 -866.027 re S
0.85098 g
166.668 808.266 m 166.668 771.445 136.82 741.598 100 741.598 c 63.18 741.598
 33.332 771.445 33.332 808.266 c 33.332 845.082 63.18 874.93 100 874.93 
c 136.82 874.93 166.668 845.082 166.668 808.266 c h
166.668 808.266 m f
0 g
2.5 w
0 j
166.668 808.266 m 166.668 771.445 136.82 741.598 100 741.598 c 63.18 741.598
 33.332 771.445 33.332 808.266 c 33.332 845.082 63.18 874.93 100 874.93 
c 136.82 874.93 166.668 845.082 166.668 808.266 c h
166.668 808.266 m S
0.85098 g
166.668 808.266 m 166.668 771.445 136.82 741.598 100 741.598 c 63.18 741.598
 33.332 771.445 33.332 808.266 c 33.332 845.082 63.18 874.93 100 874.93 
c 136.82 874.93 166.668 845.082 166.668 808.266 c h
166.668 808.266 m f
0 g
166.668 808.266 m 166.668 771.445 136.82 741.598 100 741.598 c 63.18 741.598
 33.332 771.445 33.332 808.266 c 33.332 845.082 63.18 874.93 100 874.93 
c 136.82 874.93 166.668 845.082 166.668 808.266 c h
166.668 808.266 m S
0.85098 g
66.668 635.059 m 66.668 598.242 36.82 568.395 0 568.395 c -36.82 568.395
 -66.668 598.242 -66.668 635.059 c -66.668 671.879 -36.82 701.727 0 701.727
 c 36.82 701.727 66.668 671.879 66.668 635.059 c h
66.668 635.059 m f
0 g
66.668 635.059 m 66.668 598.242 36.82 568.395 0 568.395 c -36.82 568.395
 -66.668 598.242 -66.668 635.059 c -66.668 671.879 -36.82 701.727 0 701.727
 c 36.82 701.727 66.668 671.879 66.668 635.059 c h
66.668 635.059 m S
0.85098 g
66.668 635.059 m 66.668 598.242 36.82 568.395 0 568.395 c -36.82 568.395
 -66.668 598.242 -66.668 635.059 c -66.668 671.879 -36.82 701.727 0 701.727
 c 36.82 701.727 66.668 671.879 66.668 635.059 c h
66.668 635.059 m f
0 g
66.668 635.059 m 66.668 598.242 36.82 568.395 0 568.395 c -36.82 568.395
 -66.668 598.242 -66.668 635.059 c -66.668 671.879 -36.82 701.727 0 701.727
 c 36.82 701.727 66.668 671.879 66.668 635.059 c h
66.668 635.059 m S
0.85098 g
366.668 808.266 m 366.668 771.445 336.82 741.598 300 741.598 c 263.18 741.598
 233.332 771.445 233.332 808.266 c 233.332 845.082 263.18 874.93 300 874.93
 c 336.82 874.93 366.668 845.082 366.668 808.266 c h
366.668 808.266 m f
0 g
366.668 808.266 m 366.668 771.445 336.82 741.598 300 741.598 c 263.18 741.598
 233.332 771.445 233.332 808.266 c 233.332 845.082 263.18 874.93 300 874.93
 c 336.82 874.93 366.668 845.082 366.668 808.266 c h
366.668 808.266 m S
0.85098 g
366.668 808.266 m 366.668 771.445 336.82 741.598 300 741.598 c 263.18 741.598
 233.332 771.445 233.332 808.266 c 233.332 845.082 263.18 874.93 300 874.93
 c 336.82 874.93 366.668 845.082 366.668 808.266 c h
366.668 808.266 m f
0 g
366.668 808.266 m 366.668 771.445 336.82 741.598 300 741.598 c 263.18 741.598
 233.332 771.445 233.332 808.266 c 233.332 845.082 263.18 874.93 300 874.93
 c 336.82 874.93 366.668 845.082 366.668 808.266 c h
366.668 808.266 m S
0.85098 g
266.668 635.059 m 266.668 598.242 236.82 568.395 200 568.395 c 163.18 568.395
 133.332 598.242 133.332 635.059 c 133.332 671.879 163.18 701.727 200 701.727
 c 236.82 701.727 266.668 671.879 266.668 635.059 c h
266.668 635.059 m f
0 g
266.668 635.059 m 266.668 598.242 236.82 568.395 200 568.395 c 163.18 568.395
 133.332 598.242 133.332 635.059 c 133.332 671.879 163.18 701.727 200 701.727
 c 236.82 701.727 266.668 671.879 266.668 635.059 c h
266.668 635.059 m S
0.85098 g
266.668 635.059 m 266.668 598.242 236.82 568.395 200 568.395 c 163.18 568.395
 133.332 598.242 133.332 635.059 c 133.332 671.879 163.18 701.727 200 701.727
 c 236.82 701.727 266.668 671.879 266.668 635.059 c h
266.668 635.059 m f
0 g
266.668 635.059 m 266.668 598.242 236.82 568.395 200 568.395 c 163.18 568.395
 133.332 598.242 133.332 635.059 c 133.332 671.879 163.18 701.727 200 701.727
 c 236.82 701.727 266.668 671.879 266.668 635.059 c h
266.668 635.059 m S
0.85098 g
166.668 461.855 m 166.668 425.035 136.82 395.188 100 395.188 c 63.18 395.188
 33.332 425.035 33.332 461.855 c 33.332 498.672 63.18 528.52 100 528.52 
c 136.82 528.52 166.668 498.672 166.668 461.855 c h
166.668 461.855 m f
0 g
166.668 461.855 m 166.668 425.035 136.82 395.188 100 395.188 c 63.18 395.188
 33.332 425.035 33.332 461.855 c 33.332 498.672 63.18 528.52 100 528.52 
c 136.82 528.52 166.668 498.672 166.668 461.855 c h
166.668 461.855 m S
0.85098 g
166.668 461.855 m 166.668 425.035 136.82 395.188 100 395.188 c 63.18 395.188
 33.332 425.035 33.332 461.855 c 33.332 498.672 63.18 528.52 100 528.52 
c 136.82 528.52 166.668 498.672 166.668 461.855 c h
166.668 461.855 m f
0 g
166.668 461.855 m 166.668 425.035 136.82 395.188 100 395.188 c 63.18 395.188
 33.332 425.035 33.332 461.855 c 33.332 498.672 63.18 528.52 100 528.52 
c 136.82 528.52 166.668 498.672 166.668 461.855 c h
166.668 461.855 m S
0.85098 g
66.668 288.648 m 66.668 251.832 36.82 221.984 0 221.984 c -36.82 221.984
 -66.668 251.832 -66.668 288.648 c -66.668 325.469 -36.82 355.316 0 355.316
 c 36.82 355.316 66.668 325.469 66.668 288.648 c h
66.668 288.648 m f
0 g
66.668 288.648 m 66.668 251.832 36.82 221.984 0 221.984 c -36.82 221.984
 -66.668 251.832 -66.668 288.648 c -66.668 325.469 -36.82 355.316 0 355.316
 c 36.82 355.316 66.668 325.469 66.668 288.648 c h
66.668 288.648 m S
0.85098 g
66.668 288.648 m 66.668 251.832 36.82 221.984 0 221.984 c -36.82 221.984
 -66.668 251.832 -66.668 288.648 c -66.668 325.469 -36.82 355.316 0 355.316
 c 36.82 355.316 66.668 325.469 66.668 288.648 c h
66.668 288.648 m f
0 g
66.668 288.648 m 66.668 251.832 36.82 221.984 0 221.984 c -36.82 221.984
 -66.668 251.832 -66.668 288.648 c -66.668 325.469 -36.82 355.316 0 355.316
 c 36.82 355.316 66.668 325.469 66.668 288.648 c h
66.668 288.648 m S
0.85098 g
566.668 808.266 m 566.668 771.445 536.82 741.598 500 741.598 c 463.18 741.598
 433.332 771.445 433.332 808.266 c 433.332 845.082 463.18 874.93 500 874.93
 c 536.82 874.93 566.668 845.082 566.668 808.266 c h
566.668 808.266 m f
0 g
566.668 808.266 m 566.668 771.445 536.82 741.598 500 741.598 c 463.18 741.598
 433.332 771.445 433.332 808.266 c 433.332 845.082 463.18 874.93 500 874.93
 c 536.82 874.93 566.668 845.082 566.668 808.266 c h
566.668 808.266 m S
0.85098 g
566.668 808.266 m 566.668 771.445 536.82 741.598 500 741.598 c 463.18 741.598
 433.332 771.445 433.332 808.266 c 433.332 845.082 463.18 874.93 500 874.93
 c 536.82 874.93 566.668 845.082 566.668 808.266 c h
566.668 808.266 m f
0 g
566.668 808.266 m 566.668 771.445 536.82 741.598 500 741.598 c 463.18 741.598
 433.332 771.445 433.332 808.266 c 433.332 845.082 463.18 874.93 500 874.93
 c 536.82 874.93 566.668 845.082 566.668 808.266 c h
566.668 808.266 m S
0.85098 g
466.668 635.059 m 466.668 598.242 436.82 568.395 400 568.395 c 363.18 568.395
 333.332 598.242 333.332 635.059 c 333.332 671.879 363.18 701.727 400 701.727
 c 436.82 701.727 466.668 671.879 466.668 635.059 c h
466.668 635.059 m f
0 g
466.668 635.059 m 466.668 598.242 436.82 568.395 400 568.395 c 363.18 568.395
 333.332 598.242 333.332 635.059 c 333.332 671.879 363.18 701.727 400 701.727
 c 436.82 701.727 466.668 671.879 466.668 635.059 c h
466.668 635.059 m S
0.85098 g
466.668 635.059 m 466.668 598.242 436.82 568.395 400 568.395 c 363.18 568.395
 333.332 598.242 333.332 635.059 c 333.332 671.879 363.18 701.727 400 701.727
 c 436.82 701.727 466.668 671.879 466.668 635.059 c h
466.668 635.059 m f
0 g
466.668 635.059 m 466.668 598.242 436.82 568.395 400 568.395 c 363.18 568.395
 333.332 598.242 333.332 635.059 c 333.332 671.879 363.18 701.727 400 701.727
 c 436.82 701.727 466.668 671.879 466.668 635.059 c h
466.668 635.059 m S
0.85098 g
366.668 461.855 m 366.668 425.035 336.82 395.188 300 395.188 c 263.18 395.188
 233.332 425.035 233.332 461.855 c 233.332 498.672 263.18 528.52 300 528.52
 c 336.82 528.52 366.668 498.672 366.668 461.855 c h
366.668 461.855 m f
0 g
366.668 461.855 m 366.668 425.035 336.82 395.188 300 395.188 c 263.18 395.188
 233.332 425.035 233.332 461.855 c 233.332 498.672 263.18 528.52 300 528.52
 c 336.82 528.52 366.668 498.672 366.668 461.855 c h
366.668 461.855 m S
0.85098 g
366.668 461.855 m 366.668 425.035 336.82 395.188 300 395.188 c 263.18 395.188
 233.332 425.035 233.332 461.855 c 233.332 498.672 263.18 528.52 300 528.52
 c 336.82 528.52 366.668 498.672 366.668 461.855 c h
366.668 461.855 m f
0 g
366.668 461.855 m 366.668 425.035 336.82 395.188 300 395.188 c 263.18 395.188
 233.332 425.035 233.332 461.855 c 233.332 498.672 263.18 528.52 300 528.52
 c 336.82 528.52 366.668 498.672 366.668 461.855 c h
366.668 461.855 m S
0.85098 g
266.668 288.648 m 266.668 251.832 236.82 221.984 200 221.984 c 163.18 221.984
 133.332 251.832 133.332 288.648 c 133.332 325.469 163.18 355.316 200 355.316
 c 236.82 355.316 266.668 325.469 266.668 288.648 c h
266.668 288.648 m f
0 g
266.668 288.648 m 266.668 251.832 236.82 221.984 200 221.984 c 163.18 221.984
 133.332 251.832 133.332 288.648 c 133.332 325.469 163.18 355.316 200 355.316
 c 236.82 355.316 266.668 325.469 266.668 288.648 c h
266.668 288.648 m S
0.85098 g
266.668 288.648 m 266.668 251.832 236.82 221.984 200 221.984 c 163.18 221.984
 133.332 251.832 133.332 288.648 c 133.332 325.469 163.18 355.316 200 355.316
 c 236.82 355.316 266.668 325.469 266.668 288.648 c h
266.668 288.648 m f
0 g
266.668 288.648 m 266.668 251.832 236.82 221.984 200 221.984 c 163.18 221.984
 133.332 251.832 133.332 288.648 c 133.332 325.469 163.18 355.316 200 355.316
 c 236.82 355.316 266.668 325.469 266.668 288.648 c h
266.668 288.648 m S
0.85098 g
166.668 115.445 m 166.668 78.625 136.82 48.777 100 48.777 c 63.18 48.777
 33.332 78.625 33.332 115.445 c 33.332 152.262 63.18 182.109 100 182.109
 c 136.82 182.109 166.668 152.262 166.668 115.445 c h
166.668 115.445 m f
0 g
166.668 115.445 m 166.668 78.625 136.82 48.777 100 48.777 c 63.18 48.777
 33.332 78.625 33.332 115.445 c 33.332 152.262 63.18 182.109 100 182.109
 c 136.82 182.109 166.668 152.262 166.668 115.445 c h
166.668 115.445 m S
0.85098 g
166.668 115.445 m 166.668 78.625 136.82 48.777 100 48.777 c 63.18 48.777
 33.332 78.625 33.332 115.445 c 33.332 152.262 63.18 182.109 100 182.109
 c 136.82 182.109 166.668 152.262 166.668 115.445 c h
166.668 115.445 m f
0 g
166.668 115.445 m 166.668 78.625 136.82 48.777 100 48.777 c 63.18 48.777
 33.332 78.625 33.332 115.445 c 33.332 152.262 63.18 182.109 100 182.109
 c 136.82 182.109 166.668 152.262 166.668 115.445 c h
166.668 115.445 m S
0.85098 g
766.668 808.266 m 766.668 771.445 736.82 741.598 700 741.598 c 663.18 741.598
 633.332 771.445 633.332 808.266 c 633.332 845.082 663.18 874.93 700 874.93
 c 736.82 874.93 766.668 845.082 766.668 808.266 c h
766.668 808.266 m f
0 g
766.668 808.266 m 766.668 771.445 736.82 741.598 700 741.598 c 663.18 741.598
 633.332 771.445 633.332 808.266 c 633.332 845.082 663.18 874.93 700 874.93
 c 736.82 874.93 766.668 845.082 766.668 808.266 c h
766.668 808.266 m S
0.85098 g
766.668 808.266 m 766.668 771.445 736.82 741.598 700 741.598 c 663.18 741.598
 633.332 771.445 633.332 808.266 c 633.332 845.082 663.18 874.93 700 874.93
 c 736.82 874.93 766.668 845.082 766.668 808.266 c h
766.668 808.266 m f
0 g
766.668 808.266 m 766.668 771.445 736.82 741.598 700 741.598 c 663.18 741.598
 633.332 771.445 633.332 808.266 c 633.332 845.082 663.18 874.93 700 874.93
 c 736.82 874.93 766.668 845.082 766.668 808.266 c h
766.668 808.266 m S
0.85098 g
666.668 635.059 m 666.668 598.242 636.82 568.395 600 568.395 c 563.18 568.395
 533.332 598.242 533.332 635.059 c 533.332 671.879 563.18 701.727 600 701.727
 c 636.82 701.727 666.668 671.879 666.668 635.059 c h
666.668 635.059 m f
0 g
666.668 635.059 m 666.668 598.242 636.82 568.395 600 568.395 c 563.18 568.395
 533.332 598.242 533.332 635.059 c 533.332 671.879 563.18 701.727 600 701.727
 c 636.82 701.727 666.668 671.879 666.668 635.059 c h
666.668 635.059 m S
0.85098 g
666.668 635.059 m 666.668 598.242 636.82 568.395 600 568.395 c 563.18 568.395
 533.332 598.242 533.332 635.059 c 533.332 671.879 563.18 701.727 600 701.727
 c 636.82 701.727 666.668 671.879 666.668 635.059 c h
666.668 635.059 m f
0 g
666.668 635.059 m 666.668 598.242 636.82 568.395 600 568.395 c 563.18 568.395
 533.332 598.242 533.332 635.059 c 533.332 671.879 563.18 701.727 600 701.727
 c 636.82 701.727 666.668 671.879 666.668 635.059 c h
666.668 635.059 m S
0.85098 g
566.668 461.855 m 566.668 425.035 536.82 395.188 500 395.188 c 463.18 395.188
 433.332 425.035 433.332 461.855 c 433.332 498.672 463.18 528.52 500 528.52
 c 536.82 528.52 566.668 498.672 566.668 461.855 c h
566.668 461.855 m f
0 g
566.668 461.855 m 566.668 425.035 536.82 395.188 500 395.188 c 463.18 395.188
 433.332 425.035 433.332 461.855 c 433.332 498.672 463.18 528.52 500 528.52
 c 536.82 528.52 566.668 498.672 566.668 461.855 c h
566.668 461.855 m S
0.85098 g
566.668 461.855 m 566.668 425.035 536.82 395.188 500 395.188 c 463.18 395.188
 433.332 425.035 433.332 461.855 c 433.332 498.672 463.18 528.52 500 528.52
 c 536.82 528.52 566.668 498.672 566.668 461.855 c h
566.668 461.855 m f
0 g
566.668 461.855 m 566.668 425.035 536.82 395.188 500 395.188 c 463.18 395.188
 433.332 425.035 433.332 461.855 c 433.332 498.672 463.18 528.52 500 528.52
 c 536.82 528.52 566.668 498.672 566.668 461.855 c h
566.668 461.855 m S
0.85098 g
466.668 288.648 m 466.668 251.832 436.82 221.984 400 221.984 c 363.18 221.984
 333.332 251.832 333.332 288.648 c 333.332 325.469 363.18 355.316 400 355.316
 c 436.82 355.316 466.668 325.469 466.668 288.648 c h
466.668 288.648 m f
0 g
466.668 288.648 m 466.668 251.832 436.82 221.984 400 221.984 c 363.18 221.984
 333.332 251.832 333.332 288.648 c 333.332 325.469 363.18 355.316 400 355.316
 c 436.82 355.316 466.668 325.469 466.668 288.648 c h
466.668 288.648 m S
0.85098 g
466.668 288.648 m 466.668 251.832 436.82 221.984 400 221.984 c 363.18 221.984
 333.332 251.832 333.332 288.648 c 333.332 325.469 363.18 355.316 400 355.316
 c 436.82 355.316 466.668 325.469 466.668 288.648 c h
466.668 288.648 m f
0 g
466.668 288.648 m 466.668 251.832 436.82 221.984 400 221.984 c 363.18 221.984
 333.332 251.832 333.332 288.648 c 333.332 325.469 363.18 355.316 400 355.316
 c 436.82 355.316 466.668 325.469 466.668 288.648 c h
466.668 288.648 m S
0.85098 g
366.668 115.445 m 366.668 78.625 336.82 48.777 300 48.777 c 263.18 48.777
 233.332 78.625 233.332 115.445 c 233.332 152.262 263.18 182.109 300 182.109
 c 336.82 182.109 366.668 152.262 366.668 115.445 c h
366.668 115.445 m f
0 g
366.668 115.445 m 366.668 78.625 336.82 48.777 300 48.777 c 263.18 48.777
 233.332 78.625 233.332 115.445 c 233.332 152.262 263.18 182.109 300 182.109
 c 336.82 182.109 366.668 152.262 366.668 115.445 c h
366.668 115.445 m S
0.85098 g
366.668 115.445 m 366.668 78.625 336.82 48.777 300 48.777 c 263.18 48.777
 233.332 78.625 233.332 115.445 c 233.332 152.262 263.18 182.109 300 182.109
 c 336.82 182.109 366.668 152.262 366.668 115.445 c h
366.668 115.445 m f
0 g
366.668 115.445 m 366.668 78.625 336.82 48.777 300 48.777 c 263.18 48.777
 233.332 78.625 233.332 115.445 c 233.332 152.262 263.18 182.109 300 182.109
 c 336.82 182.109 366.668 152.262 366.668 115.445 c h
366.668 115.445 m S
0.85098 g
966.668 808.266 m 966.668 771.445 936.82 741.598 900 741.598 c 863.18 741.598
 833.332 771.445 833.332 808.266 c 833.332 845.082 863.18 874.93 900 874.93
 c 936.82 874.93 966.668 845.082 966.668 808.266 c h
966.668 808.266 m f
0 g
966.668 808.266 m 966.668 771.445 936.82 741.598 900 741.598 c 863.18 741.598
 833.332 771.445 833.332 808.266 c 833.332 845.082 863.18 874.93 900 874.93
 c 936.82 874.93 966.668 845.082 966.668 808.266 c h
966.668 808.266 m S
0.85098 g
966.668 808.266 m 966.668 771.445 936.82 741.598 900 741.598 c 863.18 741.598
 833.332 771.445 833.332 808.266 c 833.332 845.082 863.18 874.93 900 874.93
 c 936.82 874.93 966.668 845.082 966.668 808.266 c h
966.668 808.266 m f
0 g
966.668 808.266 m 966.668 771.445 936.82 741.598 900 741.598 c 863.18 741.598
 833.332 771.445 833.332 808.266 c 833.332 845.082 863.18 874.93 900 874.93
 c 936.82 874.93 966.668 845.082 966.668 808.266 c h
966.668 808.266 m S
0.85098 g
866.668 635.059 m 866.668 598.242 836.82 568.395 800 568.395 c 763.18 568.395
 733.332 598.242 733.332 635.059 c 733.332 671.879 763.18 701.727 800 701.727
 c 836.82 701.727 866.668 671.879 866.668 635.059 c h
866.668 635.059 m f
0 g
866.668 635.059 m 866.668 598.242 836.82 568.395 800 568.395 c 763.18 568.395
 733.332 598.242 733.332 635.059 c 733.332 671.879 763.18 701.727 800 701.727
 c 836.82 701.727 866.668 671.879 866.668 635.059 c h
866.668 635.059 m S
0.85098 g
866.668 635.059 m 866.668 598.242 836.82 568.395 800 568.395 c 763.18 568.395
 733.332 598.242 733.332 635.059 c 733.332 671.879 763.18 701.727 800 701.727
 c 836.82 701.727 866.668 671.879 866.668 635.059 c h
866.668 635.059 m f
0 g
866.668 635.059 m 866.668 598.242 836.82 568.395 800 568.395 c 763.18 568.395
 733.332 598.242 733.332 635.059 c 733.332 671.879 763.18 701.727 800 701.727
 c 836.82 701.727 866.668 671.879 866.668 635.059 c h
866.668 635.059 m S
0.85098 g
766.668 461.855 m 766.668 425.035 736.82 395.188 700 395.188 c 663.18 395.188
 633.332 425.035 633.332 461.855 c 633.332 498.672 663.18 528.52 700 528.52
 c 736.82 528.52 766.668 498.672 766.668 461.855 c h
766.668 461.855 m f
0 g
766.668 461.855 m 766.668 425.035 736.82 395.188 700 395.188 c 663.18 395.188
 633.332 425.035 633.332 461.855 c 633.332 498.672 663.18 528.52 700 528.52
 c 736.82 528.52 766.668 498.672 766.668 461.855 c h
766.668 461.855 m S
0.85098 g
766.668 461.855 m 766.668 425.035 736.82 395.188 700 395.188 c 663.18 395.188
 633.332 425.035 633.332 461.855 c 633.332 498.672 663.18 528.52 700 528.52
 c 736.82 528.52 766.668 498.672 766.668 461.855 c h
766.668 461.855 m f
0 g
766.668 461.855 m 766.668 425.035 736.82 395.188 700 395.188 c 663.18 395.188
 633.332 425.035 633.332 461.855 c 633.332 498.672 663.18 528.52 700 528.52
 c 736.82 528.52 766.668 498.672 766.668 461.855 c h
766.668 461.855 m S
0.85098 g
666.668 288.648 m 666.668 251.832 636.82 221.984 600 221.984 c 563.18 221.984
 533.332 251.832 533.332 288.648 c 533.332 325.469 563.18 355.316 600 355.316
 c 636.82 355.316 666.668 325.469 666.668 288.648 c h
666.668 288.648 m f
0 g
666.668 288.648 m 666.668 251.832 636.82 221.984 600 221.984 c 563.18 221.984
 533.332 251.832 533.332 288.648 c 533.332 325.469 563.18 355.316 600 355.316
 c 636.82 355.316 666.668 325.469 666.668 288.648 c h
666.668 288.648 m S
0.85098 g
666.668 288.648 m 666.668 251.832 636.82 221.984 600 221.984 c 563.18 221.984
 533.332 251.832 533.332 288.648 c 533.332 325.469 563.18 355.316 600 355.316
 c 636.82 355.316 666.668 325.469 666.668 288.648 c h
666.668 288.648 m f
0 g
666.668 288.648 m 666.668 251.832 636.82 221.984 600 221.984 c 563.18 221.984
 533.332 251.832 533.332 288.648 c 533.332 325.469 563.18 355.316 600 355.316
 c 636.82 355.316 666.668 325.469 666.668 288.648 c h
666.668 288.648 m S
0.85098 g
566.668 115.445 m 566.668 78.625 536.82 48.777 500 48.777 c 463.18 48.777
 433.332 78.625 433.332 115.445 c 433.332 152.262 463.18 182.109 500 182.109
 c 536.82 182.109 566.668 152.262 566.668 115.445 c h
566.668 115.445 m f
0 g
566.668 115.445 m 566.668 78.625 536.82 48.777 500 48.777 c 463.18 48.777
 433.332 78.625 433.332 115.445 c 433.332 152.262 463.18 182.109 500 182.109
 c 536.82 182.109 566.668 152.262 566.668 115.445 c h
566.668 115.445 m S
0.85098 g
566.668 115.445 m 566.668 78.625 536.82 48.777 500 48.777 c 463.18 48.777
 433.332 78.625 433.332 115.445 c 433.332 152.262 463.18 182.109 500 182.109
 c 536.82 182.109 566.668 152.262 566.668 115.445 c h
566.668 115.445 m f
0 g
566.668 115.445 m 566.668 78.625 536.82 48.777 500 48.777 c 463.18 48.777
 433.332 78.625 433.332 115.445 c 433.332 152.262 463.18 182.109 500 182.109
 c 536.82 182.109 566.668 152.262 566.668 115.445 c h
566.668 115.445 m S
0.85098 g
966.668 461.855 m 966.668 425.035 936.82 395.188 900 395.188 c 863.18 395.188
 833.332 425.035 833.332 461.855 c 833.332 498.672 863.18 528.52 900 528.52
 c 936.82 528.52 966.668 498.672 966.668 461.855 c h
966.668 461.855 m f
0 g
966.668 461.855 m 966.668 425.035 936.82 395.188 900 395.188 c 863.18 395.188
 833.332 425.035 833.332 461.855 c 833.332 498.672 863.18 528.52 900 528.52
 c 936.82 528.52 966.668 498.672 966.668 461.855 c h
966.668 461.855 m S
0.85098 g
966.668 461.855 m 966.668 425.035 936.82 395.188 900 395.188 c 863.18 395.188
 833.332 425.035 833.332 461.855 c 833.332 498.672 863.18 528.52 900 528.52
 c 936.82 528.52 966.668 498.672 966.668 461.855 c h
966.668 461.855 m f
0 g
966.668 461.855 m 966.668 425.035 936.82 395.188 900 395.188 c 863.18 395.188
 833.332 425.035 833.332 461.855 c 833.332 498.672 863.18 528.52 900 528.52
 c 936.82 528.52 966.668 498.672 966.668 461.855 c h
966.668 461.855 m S
0.85098 g
866.668 288.648 m 866.668 251.832 836.82 221.984 800 221.984 c 763.18 221.984
 733.332 251.832 733.332 288.648 c 733.332 325.469 763.18 355.316 800 355.316
 c 836.82 355.316 866.668 325.469 866.668 288.648 c h
866.668 288.648 m f
0 g
866.668 288.648 m 866.668 251.832 836.82 221.984 800 221.984 c 763.18 221.984
 733.332 251.832 733.332 288.648 c 733.332 325.469 763.18 355.316 800 355.316
 c 836.82 355.316 866.668 325.469 866.668 288.648 c h
866.668 288.648 m S
0.85098 g
866.668 288.648 m 866.668 251.832 836.82 221.984 800 221.984 c 763.18 221.984
 733.332 251.832 733.332 288.648 c 733.332 325.469 763.18 355.316 800 355.316
 c 836.82 355.316 866.668 325.469 866.668 288.648 c h
866.668 288.648 m f
0 g
866.668 288.648 m 866.668 251.832 836.82 221.984 800 221.984 c 763.18 221.984
 733.332 251.832 733.332 288.648 c 733.332 325.469 763.18 355.316 800 355.316
 c 836.82 355.316 866.668 325.469 866.668 288.648 c h
866.668 288.648 m S
0.85098 g
766.668 115.445 m 766.668 78.625 736.82 48.777 700 48.777 c 663.18 48.777
 633.332 78.625 633.332 115.445 c 633.332 152.262 663.18 182.109 700 182.109
 c 736.82 182.109 766.668 152.262 766.668 115.445 c h
766.668 115.445 m f
0 g
766.668 115.445 m 766.668 78.625 736.82 48.777 700 48.777 c 663.18 48.777
 633.332 78.625 633.332 115.445 c 633.332 152.262 663.18 182.109 700 182.109
 c 736.82 182.109 766.668 152.262 766.668 115.445 c h
766.668 115.445 m S
0.85098 g
766.668 115.445 m 766.668 78.625 736.82 48.777 700 48.777 c 663.18 48.777
 633.332 78.625 633.332 115.445 c 633.332 152.262 663.18 182.109 700 182.109
 c 736.82 182.109 766.668 152.262 766.668 115.445 c h
766.668 115.445 m f
0 g
766.668 115.445 m 766.668 78.625 736.82 48.777 700 48.777 c 663.18 48.777
 633.332 78.625 633.332 115.445 c 633.332 152.262 663.18 182.109 700 182.109
 c 736.82 182.109 766.668 152.262 766.668 115.445 c h
766.668 115.445 m S
0.85098 g
966.668 115.445 m 966.668 78.625 936.82 48.777 900 48.777 c 863.18 48.777
 833.332 78.625 833.332 115.445 c 833.332 152.262 863.18 182.109 900 182.109
 c 936.82 182.109 966.668 152.262 966.668 115.445 c h
966.668 115.445 m f
0 g
966.668 115.445 m 966.668 78.625 936.82 48.777 900 48.777 c 863.18 48.777
 833.332 78.625 833.332 115.445 c 833.332 152.262 863.18 182.109 900 182.109
 c 936.82 182.109 966.668 152.262 966.668 115.445 c h
966.668 115.445 m S
0.85098 g
966.668 115.445 m 966.668 78.625 936.82 48.777 900 48.777 c 863.18 48.777
 833.332 78.625 833.332 115.445 c 833.332 152.262 863.18 182.109 900 182.109
 c 936.82 182.109 966.668 152.262 966.668 115.445 c h
966.668 115.445 m f
0 g
966.668 115.445 m 966.668 78.625 936.82 48.777 900 48.777 c 863.18 48.777
 833.332 78.625 833.332 115.445 c 833.332 152.262 863.18 182.109 900 182.109
 c 936.82 182.109 966.668 152.262 966.668 115.445 c h
966.668 115.445 m S
Q Q
showpage
%%Trailer
%%Trailer
cleartomark
countdictstack
exch sub { end } repeat
restore
%%EOF
