%!PS-Adobe-2.0 EPSF-2.0
%%BoundingBox: 0 0 900 866
%%HiResBoundingBox: 0.000000 0.000000 900.000000 866.000000
%%Creator: cairo 1.14.2 (http://cairographics.org)
%%CreationDate: Mon Sep  7 08:21:56 2015
%%DocumentData: Clean7Bit
%%LanguageLevel: 2
%%DocumentMedia: 318x306mm 900 866 0 () ()
%%EndComments
% EPSF created by ps2eps 1.68
%%BeginProlog
save
countdictstack
mark
newpath
/showpage {} def
/setpagedevice {pop} def
%%EndProlog
%%Page 1 1
%%BeginProlog
/languagelevel where
{ pop languagelevel } { 1 } ifelse
2 lt { /Helvetica findfont 12 scalefont setfont 50 500 moveto
  (This print job requires a PostScript Language Level 2 printer.) show
  showpage quit } if
/q { gsave } bind def
/Q { grestore } bind def
/cm { 6 array astore concat } bind def
/w { setlinewidth } bind def
/J { setlinecap } bind def
/j { setlinejoin } bind def
/M { setmiterlimit } bind def
/d { setdash } bind def
/m { moveto } bind def
/l { lineto } bind def
/c { curveto } bind def
/h { closepath } bind def
/re { exch dup neg 3 1 roll 5 3 roll moveto 0 rlineto
      0 exch rlineto 0 rlineto closepath } bind def
/S { stroke } bind def
/f { fill } bind def
/f* { eofill } bind def
/n { newpath } bind def
/W { clip } bind def
/W* { eoclip } bind def
/BT { } bind def
/ET { } bind def
/pdfmark where { pop globaldict /?pdfmark /exec load put }
    { globaldict begin /?pdfmark /pop load def /pdfmark
    /cleartomark load def end } ifelse
/BDC { mark 3 1 roll /BDC pdfmark } bind def
/EMC { mark /EMC pdfmark } bind def
/cairo_store_point { /cairo_point_y exch def /cairo_point_x exch def } def
/Tj { show currentpoint cairo_store_point } bind def
/TJ {
  {
    dup
    type /stringtype eq
    { show } { -0.001 mul 0 cairo_font_matrix dtransform rmoveto } ifelse
  } forall
  currentpoint cairo_store_point
} bind def
/cairo_selectfont { cairo_font_matrix aload pop pop pop 0 0 6 array astore
    cairo_font exch selectfont cairo_point_x cairo_point_y moveto } bind def
/Tf { pop /cairo_font exch def /cairo_font_matrix where
      { pop cairo_selectfont } if } bind def
/Td { matrix translate cairo_font_matrix matrix concatmatrix dup
      /cairo_font_matrix exch def dup 4 get exch 5 get cairo_store_point
      /cairo_font where { pop cairo_selectfont } if } bind def
/Tm { 2 copy 8 2 roll 6 array astore /cairo_font_matrix exch def
      cairo_store_point /cairo_font where { pop cairo_selectfont } if } bind def
/g { setgray } bind def
/rg { setrgbcolor } bind def
/d1 { setcachedevice } bind def
/cairo_set_page_size {
  % Change paper size, but only if different from previous paper size otherwise
  % duplex fails. PLRM specifies a tolerance of 5 pts when matching paper size
  % so we use the same when checking if the size changes.
  /setpagedevice where {
    pop currentpagedevice
    /PageSize known {
      2 copy
      currentpagedevice /PageSize get aload pop
      exch 4 1 roll
      sub abs 5 gt
      3 1 roll
      sub abs 5 gt
      or
    } {
      true
    } ifelse
    {
      2 array astore
      2 dict begin
        /PageSize exch def
        /ImagingBBox null def
      currentdict end
      setpagedevice
    } {
      pop pop
    } ifelse
  } {
    pop
  } ifelse
} def
%%EndProlog
%%BeginSetup
%%EndSetup
%%Page: 1 1
%%BeginPageSetup
%%PageMedia: 318x306mm
%%PageBoundingBox: 0 0 900 866
900 866 cairo_set_page_size
%%EndPageSetup
q 0 0 900 866 rectclip q
0.984314 g
0 0 900 866 rectfill
0.788235 g
1.875 w
0 J
1 j
[] 0.0 d
4 M 0 866 900 -866.027 re S
0 g
2.5 w
1 J
0 866 m 33.332 808.266 25 764.965 -25 736.098 c S
0 866 m 33.332 808.266 75 793.832 125 822.699 c S
100 692.793 m 66.668 750.531 25 764.965 -25 736.098 c S
100 692.793 m 66.668 750.531 75 793.832 125 822.699 c S
-100 692.793 m -66.668 635.059 -25 620.625 25 649.492 c S
0 519.59 m -33.332 577.324 -75 591.758 -125 562.891 c S
0 519.59 m -33.332 577.324 -25 620.625 25 649.492 c S
200 866 m 233.332 808.266 225 764.965 175 736.098 c S
200 866 m 233.332 808.266 275 793.832 325 822.699 c S
300 692.793 m 266.668 750.531 225 764.965 175 736.098 c S
300 692.793 m 266.668 750.531 275 793.832 325 822.699 c S
100 692.793 m 133.332 635.059 125 591.758 75 562.891 c S
100 692.793 m 133.332 635.059 175 620.625 225 649.492 c S
200 519.59 m 166.668 577.324 125 591.758 75 562.891 c S
200 519.59 m 166.668 577.324 175 620.625 225 649.492 c S
0 519.59 m 33.332 461.855 25 418.555 -25 389.688 c S
0 519.59 m 33.332 461.855 75 447.422 125 476.289 c S
100 346.383 m 66.668 404.121 25 418.555 -25 389.688 c S
100 346.383 m 66.668 404.121 75 447.422 125 476.289 c S
-100 346.383 m -66.668 288.648 -25 274.215 25 303.082 c S
0 173.18 m -33.332 230.914 -75 245.348 -125 216.48 c S
0 173.18 m -33.332 230.914 -25 274.215 25 303.082 c S
400 866 m 433.332 808.266 425 764.965 375 736.098 c S
400 866 m 433.332 808.266 475 793.832 525 822.699 c S
500 692.793 m 466.668 750.531 425 764.965 375 736.098 c S
500 692.793 m 466.668 750.531 475 793.832 525 822.699 c S
300 692.793 m 333.332 635.059 325 591.758 275 562.891 c S
300 692.793 m 333.332 635.059 375 620.625 425 649.492 c S
400 519.59 m 366.668 577.324 325 591.758 275 562.891 c S
400 519.59 m 366.668 577.324 375 620.625 425 649.492 c S
200 519.59 m 233.332 461.855 225 418.555 175 389.688 c S
200 519.59 m 233.332 461.855 275 447.422 325 476.289 c S
300 346.383 m 266.668 404.121 225 418.555 175 389.688 c S
300 346.383 m 266.668 404.121 275 447.422 325 476.289 c S
100 346.383 m 133.332 288.648 125 245.348 75 216.48 c S
100 346.383 m 133.332 288.648 175 274.215 225 303.082 c S
200 173.18 m 166.668 230.914 125 245.348 75 216.48 c S
200 173.18 m 166.668 230.914 175 274.215 225 303.082 c S
0 173.18 m 33.332 115.445 25 72.145 -25 43.277 c S
0 173.18 m 33.332 115.445 75 101.012 125 129.879 c S
100 -0.027 m 66.668 57.711 25 72.145 -25 43.277 c S
100 -0.027 m 66.668 57.711 75 101.012 125 129.879 c S
600 866 m 633.332 808.266 625 764.965 575 736.098 c S
600 866 m 633.332 808.266 675 793.832 725 822.699 c S
700 692.793 m 666.668 750.531 625 764.965 575 736.098 c S
700 692.793 m 666.668 750.531 675 793.832 725 822.699 c S
500 692.793 m 533.332 635.059 525 591.758 475 562.891 c S
500 692.793 m 533.332 635.059 575 620.625 625 649.492 c S
600 519.59 m 566.668 577.324 525 591.758 475 562.891 c S
600 519.59 m 566.668 577.324 575 620.625 625 649.492 c S
400 519.59 m 433.332 461.855 425 418.555 375 389.688 c S
400 519.59 m 433.332 461.855 475 447.422 525 476.289 c S
500 346.383 m 466.668 404.121 425 418.555 375 389.688 c S
500 346.383 m 466.668 404.121 475 447.422 525 476.289 c S
300 346.383 m 333.332 288.648 325 245.348 275 216.48 c S
300 346.383 m 333.332 288.648 375 274.215 425 303.082 c S
400 173.18 m 366.668 230.914 325 245.348 275 216.48 c S
400 173.18 m 366.668 230.914 375 274.215 425 303.082 c S
200 173.18 m 233.332 115.445 225 72.145 175 43.277 c S
200 173.18 m 233.332 115.445 275 101.012 325 129.879 c S
300 -0.027 m 266.668 57.711 225 72.145 175 43.277 c S
300 -0.027 m 266.668 57.711 275 101.012 325 129.879 c S
800 866 m 833.332 808.266 825 764.965 775 736.098 c S
800 866 m 833.332 808.266 875 793.832 925 822.699 c S
900 692.793 m 866.668 750.531 825 764.965 775 736.098 c S
900 692.793 m 866.668 750.531 875 793.832 925 822.699 c S
700 692.793 m 733.332 635.059 725 591.758 675 562.891 c S
700 692.793 m 733.332 635.059 775 620.625 825 649.492 c S
800 519.59 m 766.668 577.324 725 591.758 675 562.891 c S
800 519.59 m 766.668 577.324 775 620.625 825 649.492 c S
600 519.59 m 633.332 461.855 625 418.555 575 389.688 c S
600 519.59 m 633.332 461.855 675 447.422 725 476.289 c S
700 346.383 m 666.668 404.121 625 418.555 575 389.688 c S
700 346.383 m 666.668 404.121 675 447.422 725 476.289 c S
500 346.383 m 533.332 288.648 525 245.348 475 216.48 c S
500 346.383 m 533.332 288.648 575 274.215 625 303.082 c S
600 173.18 m 566.668 230.914 525 245.348 475 216.48 c S
600 173.18 m 566.668 230.914 575 274.215 625 303.082 c S
400 173.18 m 433.332 115.445 425 72.145 375 43.277 c S
400 173.18 m 433.332 115.445 475 101.012 525 129.879 c S
500 -0.027 m 466.668 57.711 425 72.145 375 43.277 c S
500 -0.027 m 466.668 57.711 475 101.012 525 129.879 c S
900 692.793 m 933.332 635.059 925 591.758 875 562.891 c S
900 692.793 m 933.332 635.059 975 620.625 1025 649.492 c S
1000 519.59 m 966.668 577.324 925 591.758 875 562.891 c S
800 519.59 m 833.332 461.855 825 418.555 775 389.688 c S
800 519.59 m 833.332 461.855 875 447.422 925 476.289 c S
900 346.383 m 866.668 404.121 825 418.555 775 389.688 c S
900 346.383 m 866.668 404.121 875 447.422 925 476.289 c S
700 346.383 m 733.332 288.648 725 245.348 675 216.48 c S
700 346.383 m 733.332 288.648 775 274.215 825 303.082 c S
800 173.18 m 766.668 230.914 725 245.348 675 216.48 c S
800 173.18 m 766.668 230.914 775 274.215 825 303.082 c S
600 173.18 m 633.332 115.445 625 72.145 575 43.277 c S
600 173.18 m 633.332 115.445 675 101.012 725 129.879 c S
700 -0.027 m 666.668 57.711 625 72.145 575 43.277 c S
700 -0.027 m 666.668 57.711 675 101.012 725 129.879 c S
900 346.383 m 933.332 288.648 925 245.348 875 216.48 c S
900 346.383 m 933.332 288.648 975 274.215 1025 303.082 c S
1000 173.18 m 966.668 230.914 925 245.348 875 216.48 c S
800 173.18 m 833.332 115.445 825 72.145 775 43.277 c S
800 173.18 m 833.332 115.445 875 101.012 925 129.879 c S
900 -0.027 m 866.668 57.711 825 72.145 775 43.277 c S
900 -0.027 m 866.668 57.711 875 101.012 925 129.879 c S
Q Q
showpage
%%Trailer
%%Trailer
cleartomark
countdictstack
exch sub { end } repeat
restore
%%EOF
