%!PS-Adobe-2.0 EPSF-2.0
%%BoundingBox: 0 0 900 866
%%HiResBoundingBox: 0.000000 0.000000 900.000000 866.000000
%%Creator: cairo 1.14.2 (http://cairographics.org)
%%CreationDate: Mon Sep  7 08:21:56 2015
%%DocumentData: Clean7Bit
%%LanguageLevel: 2
%%DocumentMedia: 318x306mm 900 866 0 () ()
%%EndComments
% EPSF created by ps2eps 1.68
%%BeginProlog
save
countdictstack
mark
newpath
/showpage {} def
/setpagedevice {pop} def
%%EndProlog
%%Page 1 1
%%BeginProlog
/languagelevel where
{ pop languagelevel } { 1 } ifelse
2 lt { /Helvetica findfont 12 scalefont setfont 50 500 moveto
  (This print job requires a PostScript Language Level 2 printer.) show
  showpage quit } if
/q { gsave } bind def
/Q { grestore } bind def
/cm { 6 array astore concat } bind def
/w { setlinewidth } bind def
/J { setlinecap } bind def
/j { setlinejoin } bind def
/M { setmiterlimit } bind def
/d { setdash } bind def
/m { moveto } bind def
/l { lineto } bind def
/c { curveto } bind def
/h { closepath } bind def
/re { exch dup neg 3 1 roll 5 3 roll moveto 0 rlineto
      0 exch rlineto 0 rlineto closepath } bind def
/S { stroke } bind def
/f { fill } bind def
/f* { eofill } bind def
/n { newpath } bind def
/W { clip } bind def
/W* { eoclip } bind def
/BT { } bind def
/ET { } bind def
/pdfmark where { pop globaldict /?pdfmark /exec load put }
    { globaldict begin /?pdfmark /pop load def /pdfmark
    /cleartomark load def end } ifelse
/BDC { mark 3 1 roll /BDC pdfmark } bind def
/EMC { mark /EMC pdfmark } bind def
/cairo_store_point { /cairo_point_y exch def /cairo_point_x exch def } def
/Tj { show currentpoint cairo_store_point } bind def
/TJ {
  {
    dup
    type /stringtype eq
    { show } { -0.001 mul 0 cairo_font_matrix dtransform rmoveto } ifelse
  } forall
  currentpoint cairo_store_point
} bind def
/cairo_selectfont { cairo_font_matrix aload pop pop pop 0 0 6 array astore
    cairo_font exch selectfont cairo_point_x cairo_point_y moveto } bind def
/Tf { pop /cairo_font exch def /cairo_font_matrix where
      { pop cairo_selectfont } if } bind def
/Td { matrix translate cairo_font_matrix matrix concatmatrix dup
      /cairo_font_matrix exch def dup 4 get exch 5 get cairo_store_point
      /cairo_font where { pop cairo_selectfont } if } bind def
/Tm { 2 copy 8 2 roll 6 array astore /cairo_font_matrix exch def
      cairo_store_point /cairo_font where { pop cairo_selectfont } if } bind def
/g { setgray } bind def
/rg { setrgbcolor } bind def
/d1 { setcachedevice } bind def
/cairo_set_page_size {
  % Change paper size, but only if different from previous paper size otherwise
  % duplex fails. PLRM specifies a tolerance of 5 pts when matching paper size
  % so we use the same when checking if the size changes.
  /setpagedevice where {
    pop currentpagedevice
    /PageSize known {
      2 copy
      currentpagedevice /PageSize get aload pop
      exch 4 1 roll
      sub abs 5 gt
      3 1 roll
      sub abs 5 gt
      or
    } {
      true
    } ifelse
    {
      2 array astore
      2 dict begin
        /PageSize exch def
        /ImagingBBox null def
      currentdict end
      setpagedevice
    } {
      pop pop
    } ifelse
  } {
    pop
  } ifelse
} def
%%EndProlog
%%BeginSetup
%%EndSetup
%%Page: 1 1
%%BeginPageSetup
%%PageMedia: 318x306mm
%%PageBoundingBox: 0 0 900 866
900 866 cairo_set_page_size
%%EndPageSetup
q 0 0 900 866 rectclip q
0.984314 g
0 0 900 866 rectfill
0.788235 g
1.875 w
0 J
1 j
[] 0.0 d
4 M 0 866 900 -866.027 re S
0 g
2.5 w
1 J
33.332 808.266 m -66.668 750.531 l -50 721.664 l S
33.332 808.266 m 133.332 866 l 150 837.133 l S
66.668 750.531 m -33.332 692.793 l -50 721.664 l S
66.668 750.531 m 166.668 808.266 l 150 837.133 l S
-66.668 635.059 m 33.332 692.793 l 50 663.926 l S
-33.332 577.324 m 66.668 635.059 l 50 663.926 l S
233.332 808.266 m 133.332 750.531 l 150 721.664 l S
233.332 808.266 m 333.332 866 l 350 837.133 l S
266.668 750.531 m 166.668 692.793 l 150 721.664 l S
266.668 750.531 m 366.668 808.266 l 350 837.133 l S
133.332 635.059 m 33.332 577.324 l 50 548.457 l S
133.332 635.059 m 233.332 692.793 l 250 663.926 l S
166.668 577.324 m 66.668 519.59 l 50 548.457 l S
166.668 577.324 m 266.668 635.059 l 250 663.926 l S
33.332 461.855 m -66.668 404.121 l -50 375.254 l S
33.332 461.855 m 133.332 519.59 l 150 490.723 l S
66.668 404.121 m -33.332 346.383 l -50 375.254 l S
66.668 404.121 m 166.668 461.855 l 150 490.723 l S
-66.668 288.648 m 33.332 346.383 l 50 317.516 l S
-33.332 230.914 m 66.668 288.648 l 50 317.516 l S
433.332 808.266 m 333.332 750.531 l 350 721.664 l S
433.332 808.266 m 533.332 866 l 550 837.133 l S
466.668 750.531 m 366.668 692.793 l 350 721.664 l S
466.668 750.531 m 566.668 808.266 l 550 837.133 l S
333.332 635.059 m 233.332 577.324 l 250 548.457 l S
333.332 635.059 m 433.332 692.793 l 450 663.926 l S
366.668 577.324 m 266.668 519.59 l 250 548.457 l S
366.668 577.324 m 466.668 635.059 l 450 663.926 l S
233.332 461.855 m 133.332 404.121 l 150 375.254 l S
233.332 461.855 m 333.332 519.59 l 350 490.723 l S
266.668 404.121 m 166.668 346.383 l 150 375.254 l S
266.668 404.121 m 366.668 461.855 l 350 490.723 l S
133.332 288.648 m 33.332 230.914 l 50 202.047 l S
133.332 288.648 m 233.332 346.383 l 250 317.516 l S
166.668 230.914 m 66.668 173.18 l 50 202.047 l S
166.668 230.914 m 266.668 288.648 l 250 317.516 l S
33.332 115.445 m -66.668 57.711 l -50 28.844 l S
33.332 115.445 m 133.332 173.18 l 150 144.312 l S
66.668 57.711 m -33.332 -0.027 l -50 28.844 l S
66.668 57.711 m 166.668 115.445 l 150 144.312 l S
633.332 808.266 m 533.332 750.531 l 550 721.664 l S
633.332 808.266 m 733.332 866 l 750 837.133 l S
666.668 750.531 m 566.668 692.793 l 550 721.664 l S
666.668 750.531 m 766.668 808.266 l 750 837.133 l S
533.332 635.059 m 433.332 577.324 l 450 548.457 l S
533.332 635.059 m 633.332 692.793 l 650 663.926 l S
566.668 577.324 m 466.668 519.59 l 450 548.457 l S
566.668 577.324 m 666.668 635.059 l 650 663.926 l S
433.332 461.855 m 333.332 404.121 l 350 375.254 l S
433.332 461.855 m 533.332 519.59 l 550 490.723 l S
466.668 404.121 m 366.668 346.383 l 350 375.254 l S
466.668 404.121 m 566.668 461.855 l 550 490.723 l S
333.332 288.648 m 233.332 230.914 l 250 202.047 l S
333.332 288.648 m 433.332 346.383 l 450 317.516 l S
366.668 230.914 m 266.668 173.18 l 250 202.047 l S
366.668 230.914 m 466.668 288.648 l 450 317.516 l S
233.332 115.445 m 133.332 57.711 l 150 28.844 l S
233.332 115.445 m 333.332 173.18 l 350 144.312 l S
266.668 57.711 m 166.668 -0.027 l 150 28.844 l S
266.668 57.711 m 366.668 115.445 l 350 144.312 l S
833.332 808.266 m 733.332 750.531 l 750 721.664 l S
833.332 808.266 m 933.332 866 l 950 837.133 l S
866.668 750.531 m 766.668 692.793 l 750 721.664 l S
866.668 750.531 m 966.668 808.266 l 950 837.133 l S
733.332 635.059 m 633.332 577.324 l 650 548.457 l S
733.332 635.059 m 833.332 692.793 l 850 663.926 l S
766.668 577.324 m 666.668 519.59 l 650 548.457 l S
766.668 577.324 m 866.668 635.059 l 850 663.926 l S
633.332 461.855 m 533.332 404.121 l 550 375.254 l S
633.332 461.855 m 733.332 519.59 l 750 490.723 l S
666.668 404.121 m 566.668 346.383 l 550 375.254 l S
666.668 404.121 m 766.668 461.855 l 750 490.723 l S
533.332 288.648 m 433.332 230.914 l 450 202.047 l S
533.332 288.648 m 633.332 346.383 l 650 317.516 l S
566.668 230.914 m 466.668 173.18 l 450 202.047 l S
566.668 230.914 m 666.668 288.648 l 650 317.516 l S
433.332 115.445 m 333.332 57.711 l 350 28.844 l S
433.332 115.445 m 533.332 173.18 l 550 144.312 l S
466.668 57.711 m 366.668 -0.027 l 350 28.844 l S
466.668 57.711 m 566.668 115.445 l 550 144.312 l S
933.332 635.059 m 833.332 577.324 l 850 548.457 l S
966.668 577.324 m 866.668 519.59 l 850 548.457 l S
833.332 461.855 m 733.332 404.121 l 750 375.254 l S
833.332 461.855 m 933.332 519.59 l 950 490.723 l S
866.668 404.121 m 766.668 346.383 l 750 375.254 l S
866.668 404.121 m 966.668 461.855 l 950 490.723 l S
733.332 288.648 m 633.332 230.914 l 650 202.047 l S
733.332 288.648 m 833.332 346.383 l 850 317.516 l S
766.668 230.914 m 666.668 173.18 l 650 202.047 l S
766.668 230.914 m 866.668 288.648 l 850 317.516 l S
633.332 115.445 m 533.332 57.711 l 550 28.844 l S
633.332 115.445 m 733.332 173.18 l 750 144.312 l S
666.668 57.711 m 566.668 -0.027 l 550 28.844 l S
666.668 57.711 m 766.668 115.445 l 750 144.312 l S
933.332 288.648 m 833.332 230.914 l 850 202.047 l S
966.668 230.914 m 866.668 173.18 l 850 202.047 l S
833.332 115.445 m 733.332 57.711 l 750 28.844 l S
833.332 115.445 m 933.332 173.18 l 950 144.312 l S
866.668 57.711 m 766.668 -0.027 l 750 28.844 l S
866.668 57.711 m 966.668 115.445 l 950 144.312 l S
Q Q
showpage
%%Trailer
%%Trailer
cleartomark
countdictstack
exch sub { end } repeat
restore
%%EOF
