%!PS-Adobe-2.0 EPSF-2.0
%%BoundingBox: 0 0 1164 636
%%HiResBoundingBox: 0.000000 0.000000 1164.000000 636.000000
%%Creator: cairo 1.14.2 (http://cairographics.org)
%%CreationDate: Mon Sep  7 08:21:56 2015
%%DocumentData: Clean7Bit
%%LanguageLevel: 2
%%DocumentMedia: 411x224mm 1164 636 0 () ()
%%EndComments
% EPSF created by ps2eps 1.68
%%BeginProlog
save
countdictstack
mark
newpath
/showpage {} def
/setpagedevice {pop} def
%%EndProlog
%%Page 1 1
%%BeginProlog
/languagelevel where
{ pop languagelevel } { 1 } ifelse
2 lt { /Helvetica findfont 12 scalefont setfont 50 500 moveto
  (This print job requires a PostScript Language Level 2 printer.) show
  showpage quit } if
/q { gsave } bind def
/Q { grestore } bind def
/cm { 6 array astore concat } bind def
/w { setlinewidth } bind def
/J { setlinecap } bind def
/j { setlinejoin } bind def
/M { setmiterlimit } bind def
/d { setdash } bind def
/m { moveto } bind def
/l { lineto } bind def
/c { curveto } bind def
/h { closepath } bind def
/re { exch dup neg 3 1 roll 5 3 roll moveto 0 rlineto
      0 exch rlineto 0 rlineto closepath } bind def
/S { stroke } bind def
/f { fill } bind def
/f* { eofill } bind def
/n { newpath } bind def
/W { clip } bind def
/W* { eoclip } bind def
/BT { } bind def
/ET { } bind def
/pdfmark where { pop globaldict /?pdfmark /exec load put }
    { globaldict begin /?pdfmark /pop load def /pdfmark
    /cleartomark load def end } ifelse
/BDC { mark 3 1 roll /BDC pdfmark } bind def
/EMC { mark /EMC pdfmark } bind def
/cairo_store_point { /cairo_point_y exch def /cairo_point_x exch def } def
/Tj { show currentpoint cairo_store_point } bind def
/TJ {
  {
    dup
    type /stringtype eq
    { show } { -0.001 mul 0 cairo_font_matrix dtransform rmoveto } ifelse
  } forall
  currentpoint cairo_store_point
} bind def
/cairo_selectfont { cairo_font_matrix aload pop pop pop 0 0 6 array astore
    cairo_font exch selectfont cairo_point_x cairo_point_y moveto } bind def
/Tf { pop /cairo_font exch def /cairo_font_matrix where
      { pop cairo_selectfont } if } bind def
/Td { matrix translate cairo_font_matrix matrix concatmatrix dup
      /cairo_font_matrix exch def dup 4 get exch 5 get cairo_store_point
      /cairo_font where { pop cairo_selectfont } if } bind def
/Tm { 2 copy 8 2 roll 6 array astore /cairo_font_matrix exch def
      cairo_store_point /cairo_font where { pop cairo_selectfont } if } bind def
/g { setgray } bind def
/rg { setrgbcolor } bind def
/d1 { setcachedevice } bind def
/cairo_set_page_size {
  % Change paper size, but only if different from previous paper size otherwise
  % duplex fails. PLRM specifies a tolerance of 5 pts when matching paper size
  % so we use the same when checking if the size changes.
  /setpagedevice where {
    pop currentpagedevice
    /PageSize known {
      2 copy
      currentpagedevice /PageSize get aload pop
      exch 4 1 roll
      sub abs 5 gt
      3 1 roll
      sub abs 5 gt
      or
    } {
      true
    } ifelse
    {
      2 array astore
      2 dict begin
        /PageSize exch def
        /ImagingBBox null def
      currentdict end
      setpagedevice
    } {
      pop pop
    } ifelse
  } {
    pop
  } ifelse
} def
%%EndProlog
%%BeginSetup
%%EndSetup
%%Page: 1 1
%%BeginPageSetup
%%PageMedia: 411x224mm
%%PageBoundingBox: 0 0 1164 636
1164 636 cairo_set_page_size
%%EndPageSetup
q 0 0 1164 636 rectclip q
Q q
0.984314 g
0 636 1163.605 -636.395 re f*
0.788235 g
1.875 w
0 J
1 j
[] 0.0 d
4 M 0 636 1163.605 -636.395 re S
0 g
2.5 w
1 J
29.289 70.316 m -37.379 70.316 -60.949 93.887 -41.422 141.023 c S
-41.422 141.023 m 25.246 141.023 48.816 117.453 29.289 70.316 c S
100 -0.395 m 33.332 -0.395 9.762 23.176 29.289 70.316 c S
29.289 70.316 m 95.957 70.316 119.527 46.746 100 -0.395 c S
17.156 282.445 m -49.508 282.445 -73.078 306.016 -53.555 353.156 c S
-53.555 353.156 m 13.113 353.156 36.684 329.586 17.156 282.445 c S
87.867 211.734 m 21.203 211.734 -2.367 235.305 17.156 282.445 c S
17.156 282.445 m 83.824 282.445 107.395 258.875 87.867 211.734 c S
158.578 141.023 m 91.91 141.023 68.34 164.594 87.867 211.734 c S
87.867 211.734 m 154.535 211.734 178.105 188.164 158.578 141.023 c S
229.289 70.316 m 162.621 70.316 139.051 93.887 158.578 141.023 c S
158.578 141.023 m 225.246 141.023 248.816 117.453 229.289 70.316 c S
300 -0.395 m 233.332 -0.395 209.762 23.176 229.289 70.316 c S
229.289 70.316 m 295.957 70.316 319.527 46.746 300 -0.395 c S
5.023 494.578 m -61.641 494.578 -85.211 518.148 -65.684 565.289 c S
-65.684 565.289 m 0.98 565.289 24.551 541.719 5.023 494.578 c S
75.734 423.867 m 9.07 423.867 -14.5 447.438 5.023 494.578 c S
5.023 494.578 m 71.691 494.578 95.262 471.008 75.734 423.867 c S
146.445 353.156 m 79.781 353.156 56.211 376.727 75.734 423.867 c S
75.734 423.867 m 142.402 423.867 165.973 400.297 146.445 353.156 c S
217.156 282.445 m 150.492 282.445 126.922 306.016 146.445 353.156 c S
146.445 353.156 m 213.113 353.156 236.684 329.586 217.156 282.445 c S
287.867 211.734 m 221.203 211.734 197.633 235.305 217.156 282.445 c S
217.156 282.445 m 283.824 282.445 307.395 258.875 287.867 211.734 c S
358.578 141.023 m 291.91 141.023 268.34 164.594 287.867 211.734 c S
287.867 211.734 m 354.535 211.734 378.105 188.164 358.578 141.023 c S
429.289 70.316 m 362.621 70.316 339.051 93.887 358.578 141.023 c S
358.578 141.023 m 425.246 141.023 448.816 117.453 429.289 70.316 c S
500 -0.395 m 433.332 -0.395 409.762 23.176 429.289 70.316 c S
429.289 70.316 m 495.957 70.316 519.527 46.746 500 -0.395 c S
134.316 565.289 m 67.648 565.289 44.078 588.859 63.605 636 c S
63.605 636 m 130.27 636 153.84 612.43 134.316 565.289 c S
205.023 494.578 m 138.359 494.578 114.789 518.148 134.316 565.289 c S
134.316 565.289 m 200.98 565.289 224.551 541.719 205.023 494.578 c S
275.734 423.867 m 209.07 423.867 185.5 447.438 205.023 494.578 c S
205.023 494.578 m 271.691 494.578 295.262 471.008 275.734 423.867 c S
346.445 353.156 m 279.781 353.156 256.211 376.727 275.734 423.867 c S
275.734 423.867 m 342.402 423.867 365.973 400.297 346.445 353.156 c S
417.156 282.445 m 350.492 282.445 326.922 306.016 346.445 353.156 c S
346.445 353.156 m 413.113 353.156 436.684 329.586 417.156 282.445 c S
487.867 211.734 m 421.203 211.734 397.633 235.305 417.156 282.445 c S
417.156 282.445 m 483.824 282.445 507.395 258.875 487.867 211.734 c S
558.578 141.023 m 491.91 141.023 468.34 164.594 487.867 211.734 c S
487.867 211.734 m 554.535 211.734 578.105 188.164 558.578 141.023 c S
629.289 70.316 m 562.621 70.316 539.051 93.887 558.578 141.023 c S
558.578 141.023 m 625.246 141.023 648.816 117.453 629.289 70.316 c S
700 -0.395 m 633.332 -0.395 609.762 23.176 629.289 70.316 c S
629.289 70.316 m 695.957 70.316 719.527 46.746 700 -0.395 c S
334.316 565.289 m 267.648 565.289 244.078 588.859 263.605 636 c S
263.605 636 m 330.27 636 353.84 612.43 334.316 565.289 c S
405.023 494.578 m 338.359 494.578 314.789 518.148 334.316 565.289 c S
334.316 565.289 m 400.98 565.289 424.551 541.719 405.023 494.578 c S
475.734 423.867 m 409.07 423.867 385.5 447.438 405.023 494.578 c S
405.023 494.578 m 471.691 494.578 495.262 471.008 475.734 423.867 c S
546.445 353.156 m 479.781 353.156 456.211 376.727 475.734 423.867 c S
475.734 423.867 m 542.402 423.867 565.973 400.297 546.445 353.156 c S
617.156 282.445 m 550.492 282.445 526.922 306.016 546.445 353.156 c S
546.445 353.156 m 613.113 353.156 636.684 329.586 617.156 282.445 c S
687.867 211.734 m 621.203 211.734 597.633 235.305 617.156 282.445 c S
617.156 282.445 m 683.824 282.445 707.395 258.875 687.867 211.734 c S
758.578 141.023 m 691.91 141.023 668.34 164.594 687.867 211.734 c S
687.867 211.734 m 754.535 211.734 778.105 188.164 758.578 141.023 c S
829.289 70.316 m 762.621 70.316 739.051 93.887 758.578 141.023 c S
758.578 141.023 m 825.246 141.023 848.816 117.453 829.289 70.316 c S
900 -0.395 m 833.332 -0.395 809.762 23.176 829.289 70.316 c S
829.289 70.316 m 895.957 70.316 919.527 46.746 900 -0.395 c S
534.316 565.289 m 467.648 565.289 444.078 588.859 463.605 636 c S
463.605 636 m 530.27 636 553.84 612.43 534.316 565.289 c S
605.023 494.578 m 538.359 494.578 514.789 518.148 534.316 565.289 c S
534.316 565.289 m 600.98 565.289 624.551 541.719 605.023 494.578 c S
675.734 423.867 m 609.07 423.867 585.5 447.438 605.023 494.578 c S
605.023 494.578 m 671.691 494.578 695.262 471.008 675.734 423.867 c S
746.445 353.156 m 679.781 353.156 656.211 376.727 675.734 423.867 c S
675.734 423.867 m 742.402 423.867 765.973 400.297 746.445 353.156 c S
817.156 282.445 m 750.492 282.445 726.922 306.016 746.445 353.156 c S
746.445 353.156 m 813.113 353.156 836.684 329.586 817.156 282.445 c S
887.867 211.734 m 821.203 211.734 797.633 235.305 817.156 282.445 c S
817.156 282.445 m 883.824 282.445 907.395 258.875 887.867 211.734 c S
958.578 141.023 m 891.91 141.023 868.34 164.594 887.867 211.734 c S
887.867 211.734 m 954.535 211.734 978.105 188.164 958.578 141.023 c S
1029.289 70.316 m 962.621 70.316 939.051 93.887 958.578 141.023 c S
958.578 141.023 m 1025.246 141.023 1048.816 117.453 1029.289 70.316 c S
1100 -0.395 m 1033.332 -0.395 1009.762 23.176 1029.289 70.316 c S
1029.289 70.316 m 1095.957 70.316 1119.527 46.746 1100 -0.395 c S
734.316 565.289 m 667.648 565.289 644.078 588.859 663.605 636 c S
663.605 636 m 730.27 636 753.84 612.43 734.316 565.289 c S
805.023 494.578 m 738.359 494.578 714.789 518.148 734.316 565.289 c S
734.316 565.289 m 800.98 565.289 824.551 541.719 805.023 494.578 c S
875.734 423.867 m 809.07 423.867 785.5 447.438 805.023 494.578 c S
805.023 494.578 m 871.691 494.578 895.262 471.008 875.734 423.867 c S
946.445 353.156 m 879.781 353.156 856.211 376.727 875.734 423.867 c S
875.734 423.867 m 942.402 423.867 965.973 400.297 946.445 353.156 c S
1017.156 282.445 m 950.492 282.445 926.922 306.016 946.445 353.156 c S
946.445 353.156 m 1013.113 353.156 1036.684 329.586 1017.156 282.445 c S
1087.867 211.734 m 1021.203 211.734 997.633 235.305 1017.156 282.445 c S
1017.156 282.445 m 1083.824 282.445 1107.395 258.875 1087.867 211.734 c
 S
1158.578 141.023 m 1091.91 141.023 1068.34 164.594 1087.867 211.734 c S
Q q
1086 213 77.605 -74 re W n
0 g
2.5 w
1 J
1 j
[] 0.0 d
4 M 1087.867 211.734 m 1154.535 211.734 1178.105 188.164 1158.578 141.023 c
 S
Q q
1150 143 13.605 -74 re W n
0 g
2.5 w
1 J
1 j
[] 0.0 d
4 M 1229.289 70.316 m 1162.621 70.316 1139.051 93.887 1158.578 141.023 c S
Q q
1157 143 6.605 -74 re W n
0 g
2.5 w
1 J
1 j
[] 0.0 d
4 M 1158.578 141.023 m 1225.246 141.023 1248.816 117.453 1229.289 70.316 c S
Q q
0 g
2.5 w
1 J
1 j
[] 0.0 d
4 M 934.316 565.289 m 867.648 565.289 844.078 588.859 863.605 636 c S
863.605 636 m 930.27 636 953.84 612.43 934.316 565.289 c S
1005.023 494.578 m 938.359 494.578 914.789 518.148 934.316 565.289 c S
934.316 565.289 m 1000.98 565.289 1024.551 541.719 1005.023 494.578 c S
1075.734 423.867 m 1009.07 423.867 985.5 447.438 1005.023 494.578 c S
1005.023 494.578 m 1071.691 494.578 1095.262 471.008 1075.734 423.867 c
 S
1146.445 353.156 m 1079.781 353.156 1056.211 376.727 1075.734 423.867 c
 S
1075.734 423.867 m 1142.402 423.867 1165.973 400.297 1146.445 353.156 c
 S
Q q
1138 355 25.605 -74 re W n
0 g
2.5 w
1 J
1 j
[] 0.0 d
4 M 1217.156 282.445 m 1150.492 282.445 1126.922 306.016 1146.445 353.156 c
 S
Q q
1145 355 18.605 -74 re W n
0 g
2.5 w
1 J
1 j
[] 0.0 d
4 M 1146.445 353.156 m 1213.113 353.156 1236.684 329.586 1217.156 282.445 c
 S
Q q
0 g
2.5 w
1 J
1 j
[] 0.0 d
4 M 1134.316 565.289 m 1067.648 565.289 1044.078 588.859 1063.605 636 c S
1063.605 636 m 1130.27 636 1153.84 612.43 1134.316 565.289 c S
Q q
1126 567 37.605 -74 re W n
0 g
2.5 w
1 J
1 j
[] 0.0 d
4 M 1205.023 494.578 m 1138.359 494.578 1114.789 518.148 1134.316 565.289 c
 S
Q q
1133 567 30.605 -74 re W n
0 g
2.5 w
1 J
1 j
[] 0.0 d
4 M 1134.316 565.289 m 1200.98 565.289 1224.551 541.719 1205.023 494.578 c S
Q Q
showpage
%%Trailer
%%Trailer
cleartomark
countdictstack
exch sub { end } repeat
restore
%%EOF
