%!PS-Adobe-2.0 EPSF-2.0
%%BoundingBox: 0 0 1350 1299
%%HiResBoundingBox: 0.000000 0.000000 1350.000000 1299.000000
%%Creator: cairo 1.14.2 (http://cairographics.org)
%%CreationDate: Mon Sep  7 08:21:56 2015
%%DocumentData: Clean7Bit
%%LanguageLevel: 2
%%DocumentMedia: 476x458mm 1350 1299 0 () ()
%%EndComments
% EPSF created by ps2eps 1.68
%%BeginProlog
save
countdictstack
mark
newpath
/showpage {} def
/setpagedevice {pop} def
%%EndProlog
%%Page 1 1
%%BeginProlog
/languagelevel where
{ pop languagelevel } { 1 } ifelse
2 lt { /Helvetica findfont 12 scalefont setfont 50 500 moveto
  (This print job requires a PostScript Language Level 2 printer.) show
  showpage quit } if
/q { gsave } bind def
/Q { grestore } bind def
/cm { 6 array astore concat } bind def
/w { setlinewidth } bind def
/J { setlinecap } bind def
/j { setlinejoin } bind def
/M { setmiterlimit } bind def
/d { setdash } bind def
/m { moveto } bind def
/l { lineto } bind def
/c { curveto } bind def
/h { closepath } bind def
/re { exch dup neg 3 1 roll 5 3 roll moveto 0 rlineto
      0 exch rlineto 0 rlineto closepath } bind def
/S { stroke } bind def
/f { fill } bind def
/f* { eofill } bind def
/n { newpath } bind def
/W { clip } bind def
/W* { eoclip } bind def
/BT { } bind def
/ET { } bind def
/pdfmark where { pop globaldict /?pdfmark /exec load put }
    { globaldict begin /?pdfmark /pop load def /pdfmark
    /cleartomark load def end } ifelse
/BDC { mark 3 1 roll /BDC pdfmark } bind def
/EMC { mark /EMC pdfmark } bind def
/cairo_store_point { /cairo_point_y exch def /cairo_point_x exch def } def
/Tj { show currentpoint cairo_store_point } bind def
/TJ {
  {
    dup
    type /stringtype eq
    { show } { -0.001 mul 0 cairo_font_matrix dtransform rmoveto } ifelse
  } forall
  currentpoint cairo_store_point
} bind def
/cairo_selectfont { cairo_font_matrix aload pop pop pop 0 0 6 array astore
    cairo_font exch selectfont cairo_point_x cairo_point_y moveto } bind def
/Tf { pop /cairo_font exch def /cairo_font_matrix where
      { pop cairo_selectfont } if } bind def
/Td { matrix translate cairo_font_matrix matrix concatmatrix dup
      /cairo_font_matrix exch def dup 4 get exch 5 get cairo_store_point
      /cairo_font where { pop cairo_selectfont } if } bind def
/Tm { 2 copy 8 2 roll 6 array astore /cairo_font_matrix exch def
      cairo_store_point /cairo_font where { pop cairo_selectfont } if } bind def
/g { setgray } bind def
/rg { setrgbcolor } bind def
/d1 { setcachedevice } bind def
/cairo_set_page_size {
  % Change paper size, but only if different from previous paper size otherwise
  % duplex fails. PLRM specifies a tolerance of 5 pts when matching paper size
  % so we use the same when checking if the size changes.
  /setpagedevice where {
    pop currentpagedevice
    /PageSize known {
      2 copy
      currentpagedevice /PageSize get aload pop
      exch 4 1 roll
      sub abs 5 gt
      3 1 roll
      sub abs 5 gt
      or
    } {
      true
    } ifelse
    {
      2 array astore
      2 dict begin
        /PageSize exch def
        /ImagingBBox null def
      currentdict end
      setpagedevice
    } {
      pop pop
    } ifelse
  } {
    pop
  } ifelse
} def
%%EndProlog
%%BeginSetup
%%EndSetup
%%Page: 1 1
%%BeginPageSetup
%%PageMedia: 476x458mm
%%PageBoundingBox: 0 0 1350 1299
1350 1299 cairo_set_page_size
%%EndPageSetup
q 0 0 1350 1299 rectclip q
0.984314 g
0 0 1350 1299 rectfill
0.788235 g
1.875 w
0 J
1 j
[] 0.0 d
4 M 0 1299 1350 -1299.039 re S
0 g
2.5 w
-150 779.383 m 0 519.578 l -75 562.879 l -150 692.781 l h
-150 779.383 m S
0 519.578 m -300 519.578 l -225 562.879 l -75 562.879 l h
0 519.578 m S
-150 259.77 m 0 519.578 l 0 432.973 l -75 303.07 l h
-150 259.77 m S
0.85098 g
0 519.578 m 150 259.77 l 75 303.07 l 0 432.973 l h
0 519.578 m f*
0 g
0 519.578 m 150 259.77 l 75 303.07 l 0 432.973 l h
0 519.578 m S
0.85098 g
150 259.77 m -150 259.77 l -75 303.07 l 75 303.07 l h
150 259.77 m f*
0 g
150 259.77 m -150 259.77 l -75 303.07 l 75 303.07 l h
150 259.77 m S
0.85098 g
0 -0.039 m 150 259.77 l 150 173.168 l 75 43.262 l h
0 -0.039 m f*
0 g
0 -0.039 m 150 259.77 l 150 173.168 l 75 43.262 l h
0 -0.039 m S
0.85098 g
150 259.77 m 300 -0.039 l 225 43.262 l 150 173.168 l h
150 259.77 m f*
0 g
150 259.77 m 300 -0.039 l 225 43.262 l 150 173.168 l h
150 259.77 m S
0.85098 g
300 -0.039 m 0 -0.039 l 75 43.262 l 225 43.262 l h
300 -0.039 m f*
0 g
300 -0.039 m 0 -0.039 l 75 43.262 l 225 43.262 l h
300 -0.039 m S
-150 1299 m 0 1039.191 l -75 1082.492 l -150 1212.398 l h
-150 1299 m S
0 1039.191 m -300 1039.191 l -225 1082.492 l -75 1082.492 l h
0 1039.191 m S
-150 779.383 m 0 1039.191 l 0 952.59 l -75 822.688 l h
-150 779.383 m S
0.85098 g
0 1039.191 m 150 779.383 l 75 822.688 l 0 952.59 l h
0 1039.191 m f*
0 g
0 1039.191 m 150 779.383 l 75 822.688 l 0 952.59 l h
0 1039.191 m S
0.85098 g
150 779.383 m -150 779.383 l -75 822.688 l 75 822.688 l h
150 779.383 m f*
0 g
150 779.383 m -150 779.383 l -75 822.688 l 75 822.688 l h
150 779.383 m S
0.85098 g
0 519.578 m 150 779.383 l 150 692.781 l 75 562.879 l h
0 519.578 m f*
0 g
0 519.578 m 150 779.383 l 150 692.781 l 75 562.879 l h
0 519.578 m S
0.85098 g
150 779.383 m 300 519.578 l 225 562.879 l 150 692.781 l h
150 779.383 m f*
0 g
150 779.383 m 300 519.578 l 225 562.879 l 150 692.781 l h
150 779.383 m S
0.85098 g
300 519.578 m 0 519.578 l 75 562.879 l 225 562.879 l h
300 519.578 m f*
0 g
300 519.578 m 0 519.578 l 75 562.879 l 225 562.879 l h
300 519.578 m S
0.85098 g
150 259.77 m 300 519.578 l 300 432.973 l 225 303.07 l h
150 259.77 m f*
0 g
150 259.77 m 300 519.578 l 300 432.973 l 225 303.07 l h
150 259.77 m S
0.85098 g
300 519.578 m 450 259.77 l 375 303.07 l 300 432.973 l h
300 519.578 m f*
0 g
300 519.578 m 450 259.77 l 375 303.07 l 300 432.973 l h
300 519.578 m S
0.85098 g
450 259.77 m 150 259.77 l 225 303.07 l 375 303.07 l h
450 259.77 m f*
0 g
450 259.77 m 150 259.77 l 225 303.07 l 375 303.07 l h
450 259.77 m S
0.85098 g
300 -0.039 m 450 259.77 l 450 173.168 l 375 43.262 l h
300 -0.039 m f*
0 g
300 -0.039 m 450 259.77 l 450 173.168 l 375 43.262 l h
300 -0.039 m S
0.85098 g
450 259.77 m 600 -0.039 l 525 43.262 l 450 173.168 l h
450 259.77 m f*
0 g
450 259.77 m 600 -0.039 l 525 43.262 l 450 173.168 l h
450 259.77 m S
0.85098 g
600 -0.039 m 300 -0.039 l 375 43.262 l 525 43.262 l h
600 -0.039 m f*
0 g
600 -0.039 m 300 -0.039 l 375 43.262 l 525 43.262 l h
600 -0.039 m S
0.85098 g
0 1039.191 m 150 1299 l 150 1212.398 l 75 1082.492 l h
0 1039.191 m f*
0 g
0 1039.191 m 150 1299 l 150 1212.398 l 75 1082.492 l h
0 1039.191 m S
0.85098 g
150 1299 m 300 1039.191 l 225 1082.492 l 150 1212.398 l h
150 1299 m f*
0 g
150 1299 m 300 1039.191 l 225 1082.492 l 150 1212.398 l h
150 1299 m S
0.85098 g
300 1039.191 m 0 1039.191 l 75 1082.492 l 225 1082.492 l h
300 1039.191 m f*
0 g
300 1039.191 m 0 1039.191 l 75 1082.492 l 225 1082.492 l h
300 1039.191 m S
0.85098 g
150 779.383 m 300 1039.191 l 300 952.59 l 225 822.688 l h
150 779.383 m f*
0 g
150 779.383 m 300 1039.191 l 300 952.59 l 225 822.688 l h
150 779.383 m S
0.85098 g
300 1039.191 m 450 779.383 l 375 822.688 l 300 952.59 l h
300 1039.191 m f*
0 g
300 1039.191 m 450 779.383 l 375 822.688 l 300 952.59 l h
300 1039.191 m S
0.85098 g
450 779.383 m 150 779.383 l 225 822.688 l 375 822.688 l h
450 779.383 m f*
0 g
450 779.383 m 150 779.383 l 225 822.688 l 375 822.688 l h
450 779.383 m S
0.85098 g
300 519.578 m 450 779.383 l 450 692.781 l 375 562.879 l h
300 519.578 m f*
0 g
300 519.578 m 450 779.383 l 450 692.781 l 375 562.879 l h
300 519.578 m S
0.85098 g
450 779.383 m 600 519.578 l 525 562.879 l 450 692.781 l h
450 779.383 m f*
0 g
450 779.383 m 600 519.578 l 525 562.879 l 450 692.781 l h
450 779.383 m S
0.85098 g
600 519.578 m 300 519.578 l 375 562.879 l 525 562.879 l h
600 519.578 m f*
0 g
600 519.578 m 300 519.578 l 375 562.879 l 525 562.879 l h
600 519.578 m S
0.85098 g
450 259.77 m 600 519.578 l 600 432.973 l 525 303.07 l h
450 259.77 m f*
0 g
450 259.77 m 600 519.578 l 600 432.973 l 525 303.07 l h
450 259.77 m S
0.85098 g
600 519.578 m 750 259.77 l 675 303.07 l 600 432.973 l h
600 519.578 m f*
0 g
600 519.578 m 750 259.77 l 675 303.07 l 600 432.973 l h
600 519.578 m S
0.85098 g
750 259.77 m 450 259.77 l 525 303.07 l 675 303.07 l h
750 259.77 m f*
0 g
750 259.77 m 450 259.77 l 525 303.07 l 675 303.07 l h
750 259.77 m S
0.85098 g
600 -0.039 m 750 259.77 l 750 173.168 l 675 43.262 l h
600 -0.039 m f*
0 g
600 -0.039 m 750 259.77 l 750 173.168 l 675 43.262 l h
600 -0.039 m S
0.85098 g
750 259.77 m 900 -0.039 l 825 43.262 l 750 173.168 l h
750 259.77 m f*
0 g
750 259.77 m 900 -0.039 l 825 43.262 l 750 173.168 l h
750 259.77 m S
0.85098 g
900 -0.039 m 600 -0.039 l 675 43.262 l 825 43.262 l h
900 -0.039 m f*
0 g
900 -0.039 m 600 -0.039 l 675 43.262 l 825 43.262 l h
900 -0.039 m S
0.85098 g
300 1039.191 m 450 1299 l 450 1212.398 l 375 1082.492 l h
300 1039.191 m f*
0 g
300 1039.191 m 450 1299 l 450 1212.398 l 375 1082.492 l h
300 1039.191 m S
0.85098 g
450 1299 m 600 1039.191 l 525 1082.492 l 450 1212.398 l h
450 1299 m f*
0 g
450 1299 m 600 1039.191 l 525 1082.492 l 450 1212.398 l h
450 1299 m S
0.85098 g
600 1039.191 m 300 1039.191 l 375 1082.492 l 525 1082.492 l h
600 1039.191 m f*
0 g
600 1039.191 m 300 1039.191 l 375 1082.492 l 525 1082.492 l h
600 1039.191 m S
0.85098 g
450 779.383 m 600 1039.191 l 600 952.59 l 525 822.688 l h
450 779.383 m f*
0 g
450 779.383 m 600 1039.191 l 600 952.59 l 525 822.688 l h
450 779.383 m S
0.85098 g
600 1039.191 m 750 779.383 l 675 822.688 l 600 952.59 l h
600 1039.191 m f*
0 g
600 1039.191 m 750 779.383 l 675 822.688 l 600 952.59 l h
600 1039.191 m S
0.85098 g
750 779.383 m 450 779.383 l 525 822.688 l 675 822.688 l h
750 779.383 m f*
0 g
750 779.383 m 450 779.383 l 525 822.688 l 675 822.688 l h
750 779.383 m S
0.85098 g
600 519.578 m 750 779.383 l 750 692.781 l 675 562.879 l h
600 519.578 m f*
0 g
600 519.578 m 750 779.383 l 750 692.781 l 675 562.879 l h
600 519.578 m S
0.85098 g
750 779.383 m 900 519.578 l 825 562.879 l 750 692.781 l h
750 779.383 m f*
0 g
750 779.383 m 900 519.578 l 825 562.879 l 750 692.781 l h
750 779.383 m S
0.85098 g
900 519.578 m 600 519.578 l 675 562.879 l 825 562.879 l h
900 519.578 m f*
0 g
900 519.578 m 600 519.578 l 675 562.879 l 825 562.879 l h
900 519.578 m S
0.85098 g
750 259.77 m 900 519.578 l 900 432.973 l 825 303.07 l h
750 259.77 m f*
0 g
750 259.77 m 900 519.578 l 900 432.973 l 825 303.07 l h
750 259.77 m S
0.85098 g
900 519.578 m 1050 259.77 l 975 303.07 l 900 432.973 l h
900 519.578 m f*
0 g
900 519.578 m 1050 259.77 l 975 303.07 l 900 432.973 l h
900 519.578 m S
0.85098 g
1050 259.77 m 750 259.77 l 825 303.07 l 975 303.07 l h
1050 259.77 m f*
0 g
1050 259.77 m 750 259.77 l 825 303.07 l 975 303.07 l h
1050 259.77 m S
0.85098 g
900 -0.039 m 1050 259.77 l 1050 173.168 l 975 43.262 l h
900 -0.039 m f*
0 g
900 -0.039 m 1050 259.77 l 1050 173.168 l 975 43.262 l h
900 -0.039 m S
0.85098 g
1050 259.77 m 1200 -0.039 l 1125 43.262 l 1050 173.168 l h
1050 259.77 m f*
0 g
1050 259.77 m 1200 -0.039 l 1125 43.262 l 1050 173.168 l h
1050 259.77 m S
0.85098 g
1200 -0.039 m 900 -0.039 l 975 43.262 l 1125 43.262 l h
1200 -0.039 m f*
0 g
1200 -0.039 m 900 -0.039 l 975 43.262 l 1125 43.262 l h
1200 -0.039 m S
0.85098 g
600 1039.191 m 750 1299 l 750 1212.398 l 675 1082.492 l h
600 1039.191 m f*
0 g
600 1039.191 m 750 1299 l 750 1212.398 l 675 1082.492 l h
600 1039.191 m S
0.85098 g
750 1299 m 900 1039.191 l 825 1082.492 l 750 1212.398 l h
750 1299 m f*
0 g
750 1299 m 900 1039.191 l 825 1082.492 l 750 1212.398 l h
750 1299 m S
0.85098 g
900 1039.191 m 600 1039.191 l 675 1082.492 l 825 1082.492 l h
900 1039.191 m f*
0 g
900 1039.191 m 600 1039.191 l 675 1082.492 l 825 1082.492 l h
900 1039.191 m S
0.85098 g
750 779.383 m 900 1039.191 l 900 952.59 l 825 822.688 l h
750 779.383 m f*
0 g
750 779.383 m 900 1039.191 l 900 952.59 l 825 822.688 l h
750 779.383 m S
0.85098 g
900 1039.191 m 1050 779.383 l 975 822.688 l 900 952.59 l h
900 1039.191 m f*
0 g
900 1039.191 m 1050 779.383 l 975 822.688 l 900 952.59 l h
900 1039.191 m S
0.85098 g
1050 779.383 m 750 779.383 l 825 822.688 l 975 822.688 l h
1050 779.383 m f*
0 g
1050 779.383 m 750 779.383 l 825 822.688 l 975 822.688 l h
1050 779.383 m S
0.85098 g
900 519.578 m 1050 779.383 l 1050 692.781 l 975 562.879 l h
900 519.578 m f*
0 g
900 519.578 m 1050 779.383 l 1050 692.781 l 975 562.879 l h
900 519.578 m S
0.85098 g
1050 779.383 m 1200 519.578 l 1125 562.879 l 1050 692.781 l h
1050 779.383 m f*
0 g
1050 779.383 m 1200 519.578 l 1125 562.879 l 1050 692.781 l h
1050 779.383 m S
0.85098 g
1200 519.578 m 900 519.578 l 975 562.879 l 1125 562.879 l h
1200 519.578 m f*
0 g
1200 519.578 m 900 519.578 l 975 562.879 l 1125 562.879 l h
1200 519.578 m S
0.85098 g
1050 259.77 m 1200 519.578 l 1200 432.973 l 1125 303.07 l h
1050 259.77 m f*
0 g
1050 259.77 m 1200 519.578 l 1200 432.973 l 1125 303.07 l h
1050 259.77 m S
0.85098 g
1200 519.578 m 1350 259.77 l 1275 303.07 l 1200 432.973 l h
1200 519.578 m f*
0 g
1200 519.578 m 1350 259.77 l 1275 303.07 l 1200 432.973 l h
1200 519.578 m S
0.85098 g
1350 259.77 m 1050 259.77 l 1125 303.07 l 1275 303.07 l h
1350 259.77 m f*
0 g
1350 259.77 m 1050 259.77 l 1125 303.07 l 1275 303.07 l h
1350 259.77 m S
0.85098 g
1200 -0.039 m 1350 259.77 l 1350 173.168 l 1275 43.262 l h
1200 -0.039 m f*
0 g
1200 -0.039 m 1350 259.77 l 1350 173.168 l 1275 43.262 l h
1200 -0.039 m S
1350 259.77 m 1500 -0.039 l 1425 43.262 l 1350 173.168 l h
1350 259.77 m S
0.85098 g
1500 -0.039 m 1200 -0.039 l 1275 43.262 l 1425 43.262 l h
1500 -0.039 m f*
0 g
1500 -0.039 m 1200 -0.039 l 1275 43.262 l 1425 43.262 l h
1500 -0.039 m S
0.85098 g
900 1039.191 m 1050 1299 l 1050 1212.398 l 975 1082.492 l h
900 1039.191 m f*
0 g
900 1039.191 m 1050 1299 l 1050 1212.398 l 975 1082.492 l h
900 1039.191 m S
0.85098 g
1050 1299 m 1200 1039.191 l 1125 1082.492 l 1050 1212.398 l h
1050 1299 m f*
0 g
1050 1299 m 1200 1039.191 l 1125 1082.492 l 1050 1212.398 l h
1050 1299 m S
0.85098 g
1200 1039.191 m 900 1039.191 l 975 1082.492 l 1125 1082.492 l h
1200 1039.191 m f*
0 g
1200 1039.191 m 900 1039.191 l 975 1082.492 l 1125 1082.492 l h
1200 1039.191 m S
0.85098 g
1050 779.383 m 1200 1039.191 l 1200 952.59 l 1125 822.688 l h
1050 779.383 m f*
0 g
1050 779.383 m 1200 1039.191 l 1200 952.59 l 1125 822.688 l h
1050 779.383 m S
0.85098 g
1200 1039.191 m 1350 779.383 l 1275 822.688 l 1200 952.59 l h
1200 1039.191 m f*
0 g
1200 1039.191 m 1350 779.383 l 1275 822.688 l 1200 952.59 l h
1200 1039.191 m S
0.85098 g
1350 779.383 m 1050 779.383 l 1125 822.688 l 1275 822.688 l h
1350 779.383 m f*
0 g
1350 779.383 m 1050 779.383 l 1125 822.688 l 1275 822.688 l h
1350 779.383 m S
0.85098 g
1200 519.578 m 1350 779.383 l 1350 692.781 l 1275 562.879 l h
1200 519.578 m f*
0 g
1200 519.578 m 1350 779.383 l 1350 692.781 l 1275 562.879 l h
1200 519.578 m S
1350 779.383 m 1500 519.578 l 1425 562.879 l 1350 692.781 l h
1350 779.383 m S
0.85098 g
1500 519.578 m 1200 519.578 l 1275 562.879 l 1425 562.879 l h
1500 519.578 m f*
0 g
1500 519.578 m 1200 519.578 l 1275 562.879 l 1425 562.879 l h
1500 519.578 m S
1350 259.77 m 1500 519.578 l 1500 432.973 l 1425 303.07 l h
1350 259.77 m S
1650 259.77 m 1350 259.77 l 1425 303.07 l 1575 303.07 l h
1650 259.77 m S
0.85098 g
1200 1039.191 m 1350 1299 l 1350 1212.398 l 1275 1082.492 l h
1200 1039.191 m f*
0 g
1200 1039.191 m 1350 1299 l 1350 1212.398 l 1275 1082.492 l h
1200 1039.191 m S
1350 1299 m 1500 1039.191 l 1425 1082.492 l 1350 1212.398 l h
1350 1299 m S
0.85098 g
1500 1039.191 m 1200 1039.191 l 1275 1082.492 l 1425 1082.492 l h
1500 1039.191 m f*
0 g
1500 1039.191 m 1200 1039.191 l 1275 1082.492 l 1425 1082.492 l h
1500 1039.191 m S
1350 779.383 m 1500 1039.191 l 1500 952.59 l 1425 822.688 l h
1350 779.383 m S
1650 779.383 m 1350 779.383 l 1425 822.688 l 1575 822.688 l h
1650 779.383 m S
Q Q
showpage
%%Trailer
%%Trailer
cleartomark
countdictstack
exch sub { end } repeat
restore
%%EOF
