%!PS-Adobe-2.0 EPSF-2.0
%%BoundingBox: 0 0 1350 1299
%%HiResBoundingBox: 0.000000 0.000000 1350.000000 1299.000000
%%Creator: cairo 1.14.2 (http://cairographics.org)
%%CreationDate: Mon Sep  7 08:21:57 2015
%%DocumentData: Clean7Bit
%%LanguageLevel: 2
%%DocumentMedia: 476x458mm 1350 1299 0 () ()
%%EndComments
% EPSF created by ps2eps 1.68
%%BeginProlog
save
countdictstack
mark
newpath
/showpage {} def
/setpagedevice {pop} def
%%EndProlog
%%Page 1 1
%%BeginProlog
/languagelevel where
{ pop languagelevel } { 1 } ifelse
2 lt { /Helvetica findfont 12 scalefont setfont 50 500 moveto
  (This print job requires a PostScript Language Level 2 printer.) show
  showpage quit } if
/q { gsave } bind def
/Q { grestore } bind def
/cm { 6 array astore concat } bind def
/w { setlinewidth } bind def
/J { setlinecap } bind def
/j { setlinejoin } bind def
/M { setmiterlimit } bind def
/d { setdash } bind def
/m { moveto } bind def
/l { lineto } bind def
/c { curveto } bind def
/h { closepath } bind def
/re { exch dup neg 3 1 roll 5 3 roll moveto 0 rlineto
      0 exch rlineto 0 rlineto closepath } bind def
/S { stroke } bind def
/f { fill } bind def
/f* { eofill } bind def
/n { newpath } bind def
/W { clip } bind def
/W* { eoclip } bind def
/BT { } bind def
/ET { } bind def
/pdfmark where { pop globaldict /?pdfmark /exec load put }
    { globaldict begin /?pdfmark /pop load def /pdfmark
    /cleartomark load def end } ifelse
/BDC { mark 3 1 roll /BDC pdfmark } bind def
/EMC { mark /EMC pdfmark } bind def
/cairo_store_point { /cairo_point_y exch def /cairo_point_x exch def } def
/Tj { show currentpoint cairo_store_point } bind def
/TJ {
  {
    dup
    type /stringtype eq
    { show } { -0.001 mul 0 cairo_font_matrix dtransform rmoveto } ifelse
  } forall
  currentpoint cairo_store_point
} bind def
/cairo_selectfont { cairo_font_matrix aload pop pop pop 0 0 6 array astore
    cairo_font exch selectfont cairo_point_x cairo_point_y moveto } bind def
/Tf { pop /cairo_font exch def /cairo_font_matrix where
      { pop cairo_selectfont } if } bind def
/Td { matrix translate cairo_font_matrix matrix concatmatrix dup
      /cairo_font_matrix exch def dup 4 get exch 5 get cairo_store_point
      /cairo_font where { pop cairo_selectfont } if } bind def
/Tm { 2 copy 8 2 roll 6 array astore /cairo_font_matrix exch def
      cairo_store_point /cairo_font where { pop cairo_selectfont } if } bind def
/g { setgray } bind def
/rg { setrgbcolor } bind def
/d1 { setcachedevice } bind def
/cairo_set_page_size {
  % Change paper size, but only if different from previous paper size otherwise
  % duplex fails. PLRM specifies a tolerance of 5 pts when matching paper size
  % so we use the same when checking if the size changes.
  /setpagedevice where {
    pop currentpagedevice
    /PageSize known {
      2 copy
      currentpagedevice /PageSize get aload pop
      exch 4 1 roll
      sub abs 5 gt
      3 1 roll
      sub abs 5 gt
      or
    } {
      true
    } ifelse
    {
      2 array astore
      2 dict begin
        /PageSize exch def
        /ImagingBBox null def
      currentdict end
      setpagedevice
    } {
      pop pop
    } ifelse
  } {
    pop
  } ifelse
} def
%%EndProlog
%%BeginSetup
%%EndSetup
%%Page: 1 1
%%BeginPageSetup
%%PageMedia: 476x458mm
%%PageBoundingBox: 0 0 1350 1299
1350 1299 cairo_set_page_size
%%EndPageSetup
q 0 0 1350 1299 rectclip q
0.984314 g
0 0 1350 1299 rectfill
0.788235 g
1.875 w
0 J
1 j
[] 0.0 d
4 M 0 1299 1350 -1299.039 re S
0 g
2.5 w
1 J
0 115.434 m 100 57.695 0 -0.039 0 57.695 c S
50 202.035 m 150 144.301 150 259.77 100 230.902 c S
50 202.035 m 50 317.504 150 259.77 100 230.902 c S
0 115.434 m -100 57.695 0 -0.039 0 57.695 c S
0 635.047 m 100 577.312 0 519.578 0 577.312 c S
50 721.648 m 150 663.914 150 779.383 100 750.516 c S
50 721.648 m 50 837.121 150 779.383 100 750.516 c S
0 635.047 m -100 577.312 0 519.578 0 577.312 c S
150 375.238 m 250 317.504 150 259.77 150 317.504 c S
200 461.844 m 300 404.105 300 519.578 250 490.711 c S
100 461.844 m 0 404.105 0 519.578 50 490.711 c S
200 461.844 m 200 577.312 300 519.578 250 490.711 c S
150 375.238 m 50 317.504 150 259.77 150 317.504 c S
100 461.844 m 100 577.312 0 519.578 50 490.711 c S
300 115.434 m 400 57.695 300 -0.039 300 57.695 c S
350 202.035 m 450 144.301 450 259.77 400 230.902 c S
250 202.035 m 150 144.301 150 259.77 200 230.902 c S
350 202.035 m 350 317.504 450 259.77 400 230.902 c S
300 115.434 m 200 57.695 300 -0.039 300 57.695 c S
250 202.035 m 250 317.504 150 259.77 200 230.902 c S
0 1154.664 m 100 1096.926 0 1039.191 0 1096.926 c S
50 1241.266 m 150 1183.531 150 1299 100 1270.133 c S
50 1241.266 m 50 1356.734 150 1299 100 1270.133 c S
0 1154.664 m -100 1096.926 0 1039.191 0 1096.926 c S
150 894.855 m 250 837.121 150 779.383 150 837.121 c S
200 981.457 m 300 923.723 300 1039.191 250 1010.324 c S
100 981.457 m 0 923.723 0 1039.191 50 1010.324 c S
200 981.457 m 200 1096.926 300 1039.191 250 1010.324 c S
150 894.855 m 50 837.121 150 779.383 150 837.121 c S
100 981.457 m 100 1096.926 0 1039.191 50 1010.324 c S
300 635.047 m 400 577.312 300 519.578 300 577.312 c S
350 721.648 m 450 663.914 450 779.383 400 750.516 c S
250 721.648 m 150 663.914 150 779.383 200 750.516 c S
350 721.648 m 350 837.121 450 779.383 400 750.516 c S
300 635.047 m 200 577.312 300 519.578 300 577.312 c S
250 721.648 m 250 837.121 150 779.383 200 750.516 c S
450 375.238 m 550 317.504 450 259.77 450 317.504 c S
500 461.844 m 600 404.105 600 519.578 550 490.711 c S
400 461.844 m 300 404.105 300 519.578 350 490.711 c S
500 461.844 m 500 577.312 600 519.578 550 490.711 c S
450 375.238 m 350 317.504 450 259.77 450 317.504 c S
400 461.844 m 400 577.312 300 519.578 350 490.711 c S
600 115.434 m 700 57.695 600 -0.039 600 57.695 c S
650 202.035 m 750 144.301 750 259.77 700 230.902 c S
550 202.035 m 450 144.301 450 259.77 500 230.902 c S
650 202.035 m 650 317.504 750 259.77 700 230.902 c S
600 115.434 m 500 57.695 600 -0.039 600 57.695 c S
550 202.035 m 550 317.504 450 259.77 500 230.902 c S
300 1154.664 m 400 1096.926 300 1039.191 300 1096.926 c S
350 1241.266 m 450 1183.531 450 1299 400 1270.133 c S
250 1241.266 m 150 1183.531 150 1299 200 1270.133 c S
350 1241.266 m 350 1356.734 450 1299 400 1270.133 c S
300 1154.664 m 200 1096.926 300 1039.191 300 1096.926 c S
250 1241.266 m 250 1356.734 150 1299 200 1270.133 c S
450 894.855 m 550 837.121 450 779.383 450 837.121 c S
500 981.457 m 600 923.723 600 1039.191 550 1010.324 c S
400 981.457 m 300 923.723 300 1039.191 350 1010.324 c S
500 981.457 m 500 1096.926 600 1039.191 550 1010.324 c S
450 894.855 m 350 837.121 450 779.383 450 837.121 c S
400 981.457 m 400 1096.926 300 1039.191 350 1010.324 c S
600 635.047 m 700 577.312 600 519.578 600 577.312 c S
650 721.648 m 750 663.914 750 779.383 700 750.516 c S
550 721.648 m 450 663.914 450 779.383 500 750.516 c S
650 721.648 m 650 837.121 750 779.383 700 750.516 c S
600 635.047 m 500 577.312 600 519.578 600 577.312 c S
550 721.648 m 550 837.121 450 779.383 500 750.516 c S
750 375.238 m 850 317.504 750 259.77 750 317.504 c S
800 461.844 m 900 404.105 900 519.578 850 490.711 c S
700 461.844 m 600 404.105 600 519.578 650 490.711 c S
800 461.844 m 800 577.312 900 519.578 850 490.711 c S
750 375.238 m 650 317.504 750 259.77 750 317.504 c S
700 461.844 m 700 577.312 600 519.578 650 490.711 c S
900 115.434 m 1000 57.695 900 -0.039 900 57.695 c S
950 202.035 m 1050 144.301 1050 259.77 1000 230.902 c S
850 202.035 m 750 144.301 750 259.77 800 230.902 c S
950 202.035 m 950 317.504 1050 259.77 1000 230.902 c S
900 115.434 m 800 57.695 900 -0.039 900 57.695 c S
850 202.035 m 850 317.504 750 259.77 800 230.902 c S
600 1154.664 m 700 1096.926 600 1039.191 600 1096.926 c S
650 1241.266 m 750 1183.531 750 1299 700 1270.133 c S
550 1241.266 m 450 1183.531 450 1299 500 1270.133 c S
650 1241.266 m 650 1356.734 750 1299 700 1270.133 c S
600 1154.664 m 500 1096.926 600 1039.191 600 1096.926 c S
550 1241.266 m 550 1356.734 450 1299 500 1270.133 c S
750 894.855 m 850 837.121 750 779.383 750 837.121 c S
800 981.457 m 900 923.723 900 1039.191 850 1010.324 c S
700 981.457 m 600 923.723 600 1039.191 650 1010.324 c S
800 981.457 m 800 1096.926 900 1039.191 850 1010.324 c S
750 894.855 m 650 837.121 750 779.383 750 837.121 c S
700 981.457 m 700 1096.926 600 1039.191 650 1010.324 c S
900 635.047 m 1000 577.312 900 519.578 900 577.312 c S
950 721.648 m 1050 663.914 1050 779.383 1000 750.516 c S
850 721.648 m 750 663.914 750 779.383 800 750.516 c S
950 721.648 m 950 837.121 1050 779.383 1000 750.516 c S
900 635.047 m 800 577.312 900 519.578 900 577.312 c S
850 721.648 m 850 837.121 750 779.383 800 750.516 c S
1050 375.238 m 1150 317.504 1050 259.77 1050 317.504 c S
1100 461.844 m 1200 404.105 1200 519.578 1150 490.711 c S
1000 461.844 m 900 404.105 900 519.578 950 490.711 c S
1100 461.844 m 1100 577.312 1200 519.578 1150 490.711 c S
1050 375.238 m 950 317.504 1050 259.77 1050 317.504 c S
1000 461.844 m 1000 577.312 900 519.578 950 490.711 c S
1200 115.434 m 1300 57.695 1200 -0.039 1200 57.695 c S
1250 202.035 m 1350 144.301 1350 259.77 1300 230.902 c S
1150 202.035 m 1050 144.301 1050 259.77 1100 230.902 c S
1250 202.035 m 1250 317.504 1350 259.77 1300 230.902 c S
1200 115.434 m 1100 57.695 1200 -0.039 1200 57.695 c S
1150 202.035 m 1150 317.504 1050 259.77 1100 230.902 c S
900 1154.664 m 1000 1096.926 900 1039.191 900 1096.926 c S
950 1241.266 m 1050 1183.531 1050 1299 1000 1270.133 c S
850 1241.266 m 750 1183.531 750 1299 800 1270.133 c S
950 1241.266 m 950 1356.734 1050 1299 1000 1270.133 c S
900 1154.664 m 800 1096.926 900 1039.191 900 1096.926 c S
850 1241.266 m 850 1356.734 750 1299 800 1270.133 c S
1050 894.855 m 1150 837.121 1050 779.383 1050 837.121 c S
1100 981.457 m 1200 923.723 1200 1039.191 1150 1010.324 c S
1000 981.457 m 900 923.723 900 1039.191 950 1010.324 c S
1100 981.457 m 1100 1096.926 1200 1039.191 1150 1010.324 c S
1050 894.855 m 950 837.121 1050 779.383 1050 837.121 c S
1000 981.457 m 1000 1096.926 900 1039.191 950 1010.324 c S
1200 635.047 m 1300 577.312 1200 519.578 1200 577.312 c S
1250 721.648 m 1350 663.914 1350 779.383 1300 750.516 c S
1150 721.648 m 1050 663.914 1050 779.383 1100 750.516 c S
1250 721.648 m 1250 837.121 1350 779.383 1300 750.516 c S
1200 635.047 m 1100 577.312 1200 519.578 1200 577.312 c S
1150 721.648 m 1150 837.121 1050 779.383 1100 750.516 c S
1350 375.238 m 1450 317.504 1350 259.77 1350 317.504 c S
1300 461.844 m 1200 404.105 1200 519.578 1250 490.711 c S
1350 375.238 m 1250 317.504 1350 259.77 1350 317.504 c S
1300 461.844 m 1300 577.312 1200 519.578 1250 490.711 c S
1200 1154.664 m 1300 1096.926 1200 1039.191 1200 1096.926 c S
1250 1241.266 m 1350 1183.531 1350 1299 1300 1270.133 c S
1150 1241.266 m 1050 1183.531 1050 1299 1100 1270.133 c S
1250 1241.266 m 1250 1356.734 1350 1299 1300 1270.133 c S
1200 1154.664 m 1100 1096.926 1200 1039.191 1200 1096.926 c S
1150 1241.266 m 1150 1356.734 1050 1299 1100 1270.133 c S
1350 894.855 m 1450 837.121 1350 779.383 1350 837.121 c S
1300 981.457 m 1200 923.723 1200 1039.191 1250 1010.324 c S
1350 894.855 m 1250 837.121 1350 779.383 1350 837.121 c S
1300 981.457 m 1300 1096.926 1200 1039.191 1250 1010.324 c S
Q Q
showpage
%%Trailer
%%Trailer
cleartomark
countdictstack
exch sub { end } repeat
restore
%%EOF
