%!PS-Adobe-2.0 EPSF-2.0
%%BoundingBox: 0 0 1350 1299
%%HiResBoundingBox: 0.000000 0.000000 1350.000000 1299.000000
%%Creator: cairo 1.14.2 (http://cairographics.org)
%%CreationDate: Mon Sep  7 08:21:57 2015
%%DocumentData: Clean7Bit
%%LanguageLevel: 2
%%DocumentMedia: 476x458mm 1350 1299 0 () ()
%%EndComments
% EPSF created by ps2eps 1.68
%%BeginProlog
save
countdictstack
mark
newpath
/showpage {} def
/setpagedevice {pop} def
%%EndProlog
%%Page 1 1
%%BeginProlog
/languagelevel where
{ pop languagelevel } { 1 } ifelse
2 lt { /Helvetica findfont 12 scalefont setfont 50 500 moveto
  (This print job requires a PostScript Language Level 2 printer.) show
  showpage quit } if
/q { gsave } bind def
/Q { grestore } bind def
/cm { 6 array astore concat } bind def
/w { setlinewidth } bind def
/J { setlinecap } bind def
/j { setlinejoin } bind def
/M { setmiterlimit } bind def
/d { setdash } bind def
/m { moveto } bind def
/l { lineto } bind def
/c { curveto } bind def
/h { closepath } bind def
/re { exch dup neg 3 1 roll 5 3 roll moveto 0 rlineto
      0 exch rlineto 0 rlineto closepath } bind def
/S { stroke } bind def
/f { fill } bind def
/f* { eofill } bind def
/n { newpath } bind def
/W { clip } bind def
/W* { eoclip } bind def
/BT { } bind def
/ET { } bind def
/pdfmark where { pop globaldict /?pdfmark /exec load put }
    { globaldict begin /?pdfmark /pop load def /pdfmark
    /cleartomark load def end } ifelse
/BDC { mark 3 1 roll /BDC pdfmark } bind def
/EMC { mark /EMC pdfmark } bind def
/cairo_store_point { /cairo_point_y exch def /cairo_point_x exch def } def
/Tj { show currentpoint cairo_store_point } bind def
/TJ {
  {
    dup
    type /stringtype eq
    { show } { -0.001 mul 0 cairo_font_matrix dtransform rmoveto } ifelse
  } forall
  currentpoint cairo_store_point
} bind def
/cairo_selectfont { cairo_font_matrix aload pop pop pop 0 0 6 array astore
    cairo_font exch selectfont cairo_point_x cairo_point_y moveto } bind def
/Tf { pop /cairo_font exch def /cairo_font_matrix where
      { pop cairo_selectfont } if } bind def
/Td { matrix translate cairo_font_matrix matrix concatmatrix dup
      /cairo_font_matrix exch def dup 4 get exch 5 get cairo_store_point
      /cairo_font where { pop cairo_selectfont } if } bind def
/Tm { 2 copy 8 2 roll 6 array astore /cairo_font_matrix exch def
      cairo_store_point /cairo_font where { pop cairo_selectfont } if } bind def
/g { setgray } bind def
/rg { setrgbcolor } bind def
/d1 { setcachedevice } bind def
/cairo_set_page_size {
  % Change paper size, but only if different from previous paper size otherwise
  % duplex fails. PLRM specifies a tolerance of 5 pts when matching paper size
  % so we use the same when checking if the size changes.
  /setpagedevice where {
    pop currentpagedevice
    /PageSize known {
      2 copy
      currentpagedevice /PageSize get aload pop
      exch 4 1 roll
      sub abs 5 gt
      3 1 roll
      sub abs 5 gt
      or
    } {
      true
    } ifelse
    {
      2 array astore
      2 dict begin
        /PageSize exch def
        /ImagingBBox null def
      currentdict end
      setpagedevice
    } {
      pop pop
    } ifelse
  } {
    pop
  } ifelse
} def
%%EndProlog
%%BeginSetup
%%EndSetup
%%Page: 1 1
%%BeginPageSetup
%%PageMedia: 476x458mm
%%PageBoundingBox: 0 0 1350 1299
1350 1299 cairo_set_page_size
%%EndPageSetup
q 0 0 1350 1299 rectclip q
0.984314 g
0 0 1350 1299 rectfill
0.788235 g
1.875 w
0 J
1 j
[] 0.0 d
4 M 0 1299 1350 -1299.039 re S
0 g
2.5 w
1 J
0 404.105 m 0 392.199 -6.352 381.195 -16.668 375.238 c -26.98 369.285 -39.688
 369.285 -50 375.238 c S
100 57.695 m 89.688 63.652 83.332 74.656 83.332 86.562 c 83.332 98.473 
89.688 109.477 100 115.434 c S
150 144.301 m 150 132.391 143.648 121.387 133.332 115.434 c 123.02 109.477
 110.312 109.477 100 115.434 c S
50 317.504 m 64.008 309.418 70.188 292.438 64.656 277.238 c 59.125 262.035
 43.477 253 27.547 255.809 c 11.613 258.617 0 272.461 0 288.637 c S
-50 317.504 m -50 333.68 -38.387 347.523 -22.453 350.332 c -6.523 353.141
 9.125 344.105 14.656 328.906 c 20.188 313.703 14.008 296.727 0 288.637 
c S
0 923.723 m 0 911.812 -6.352 900.809 -16.668 894.855 c -26.98 888.898 -39.688
 888.898 -50 894.855 c S
100 577.312 m 89.688 583.266 83.332 594.27 83.332 606.18 c 83.332 618.09
 89.688 629.094 100 635.047 c S
150 663.914 m 150 652.004 143.648 641 133.332 635.047 c 123.02 629.094 
110.312 629.094 100 635.047 c S
50 837.121 m 64.008 829.031 70.188 812.051 64.656 796.852 c 59.125 781.652
 43.477 772.617 27.547 775.426 c 11.613 778.234 0 792.074 0 808.254 c S
-50 837.121 m -50 853.297 -38.387 867.137 -22.453 869.945 c -6.523 872.754
 9.125 863.723 14.656 848.52 c 20.188 833.32 14.008 816.34 0 808.254 c S
250 317.504 m 239.688 323.457 233.332 334.465 233.332 346.371 c 233.332
 358.281 239.688 369.285 250 375.238 c S
300 404.105 m 300 392.199 293.648 381.195 283.332 375.238 c 273.02 369.285
 260.312 369.285 250 375.238 c S
0 404.105 m 0 420.285 11.613 434.125 27.547 436.934 c 43.477 439.742 59.125
 430.707 64.656 415.508 c 70.188 400.309 64.008 383.328 50 375.238 c S
200 577.312 m 214.008 569.223 220.188 552.246 214.656 537.043 c 209.125
 521.844 193.477 512.809 177.547 515.617 c 161.613 518.426 150 532.27 150
 548.445 c S
50 317.504 m 39.688 323.457 33.332 334.465 33.332 346.371 c 33.332 358.281
 39.688 369.285 50 375.238 c S
100 577.312 m 100 593.488 111.613 607.328 127.547 610.141 c 143.477 612.949
 159.125 603.914 164.656 588.711 c 170.188 573.512 164.008 556.531 150 548.445
 c S
400 57.695 m 389.688 63.652 383.332 74.656 383.332 86.562 c 383.332 98.473
 389.688 109.477 400 115.434 c S
450 144.301 m 450 132.391 443.648 121.387 433.332 115.434 c 423.02 109.477
 410.312 109.477 400 115.434 c S
150 144.301 m 150 160.477 161.613 174.316 177.547 177.125 c 193.477 179.934
 209.125 170.902 214.656 155.699 c 220.188 140.5 214.008 123.52 200 115.434
 c S
350 317.504 m 364.008 309.418 370.188 292.438 364.656 277.238 c 359.125
 262.035 343.477 253 327.547 255.809 c 311.613 258.617 300 272.461 300 288.637
 c S
200 57.695 m 189.688 63.652 183.332 74.656 183.332 86.562 c 183.332 98.473
 189.688 109.477 200 115.434 c S
250 317.504 m 250 333.68 261.613 347.523 277.547 350.332 c 293.477 353.141
 309.125 344.105 314.656 328.906 c 320.188 313.703 314.008 296.727 300 288.637
 c S
100 1096.926 m 89.688 1102.883 83.332 1113.887 83.332 1125.793 c 83.332
 1137.703 89.688 1148.707 100 1154.664 c S
150 1183.531 m 150 1171.621 143.648 1160.617 133.332 1154.664 c 123.02 
1148.707 110.312 1148.707 100 1154.664 c S
50 1356.734 m 64.008 1348.648 70.188 1331.668 64.656 1316.469 c 59.125 
1301.266 43.477 1292.23 27.547 1295.039 c 11.613 1297.848 0 1311.691 0 1327.867
 c S
250 837.121 m 239.688 843.074 233.332 854.078 233.332 865.988 c 233.332
 877.895 239.688 888.898 250 894.855 c S
300 923.723 m 300 911.812 293.648 900.809 283.332 894.855 c 273.02 888.898
 260.312 888.898 250 894.855 c S
0 923.723 m 0 939.898 11.613 953.742 27.547 956.551 c 43.477 959.359 59.125
 950.324 64.656 935.121 c 70.188 919.922 64.008 902.941 50 894.855 c S
200 1096.926 m 214.008 1088.84 220.188 1071.859 214.656 1056.66 c 209.125
 1041.457 193.477 1032.426 177.547 1035.234 c 161.613 1038.043 150 1051.883
 150 1068.059 c S
50 837.121 m 39.688 843.074 33.332 854.078 33.332 865.988 c 33.332 877.895
 39.688 888.898 50 894.855 c S
100 1096.926 m 100 1113.105 111.613 1126.945 127.547 1129.754 c 143.477
 1132.562 159.125 1123.527 164.656 1108.328 c 170.188 1093.129 164.008 1076.148
 150 1068.059 c S
400 577.312 m 389.688 583.266 383.332 594.27 383.332 606.18 c 383.332 618.09
 389.688 629.094 400 635.047 c S
450 663.914 m 450 652.004 443.648 641 433.332 635.047 c 423.02 629.094 
410.312 629.094 400 635.047 c S
150 663.914 m 150 680.09 161.613 693.934 177.547 696.742 c 193.477 699.551
 209.125 690.516 214.656 675.316 c 220.188 660.113 214.008 643.137 200 635.047
 c S
350 837.121 m 364.008 829.031 370.188 812.051 364.656 796.852 c 359.125
 781.652 343.477 772.617 327.547 775.426 c 311.613 778.234 300 792.074 300
 808.254 c S
200 577.312 m 189.688 583.266 183.332 594.27 183.332 606.18 c 183.332 618.09
 189.688 629.094 200 635.047 c S
250 837.121 m 250 853.297 261.613 867.137 277.547 869.945 c 293.477 872.754
 309.125 863.723 314.656 848.52 c 320.188 833.32 314.008 816.34 300 808.254
 c S
550 317.504 m 539.688 323.457 533.332 334.465 533.332 346.371 c 533.332
 358.281 539.688 369.285 550 375.238 c S
600 404.105 m 600 392.199 593.648 381.195 583.332 375.238 c 573.02 369.285
 560.312 369.285 550 375.238 c S
300 404.105 m 300 420.285 311.613 434.125 327.547 436.934 c 343.477 439.742
 359.125 430.707 364.656 415.508 c 370.188 400.309 364.008 383.328 350 375.238
 c S
500 577.312 m 514.008 569.223 520.188 552.246 514.656 537.043 c 509.125
 521.844 493.477 512.809 477.547 515.617 c 461.613 518.426 450 532.27 450
 548.445 c S
350 317.504 m 339.688 323.457 333.332 334.465 333.332 346.371 c 333.332
 358.281 339.688 369.285 350 375.238 c S
400 577.312 m 400 593.488 411.613 607.328 427.547 610.141 c 443.477 612.949
 459.125 603.914 464.656 588.711 c 470.188 573.512 464.008 556.531 450 548.445
 c S
700 57.695 m 689.688 63.652 683.332 74.656 683.332 86.562 c 683.332 98.473
 689.688 109.477 700 115.434 c S
750 144.301 m 750 132.391 743.648 121.387 733.332 115.434 c 723.02 109.477
 710.312 109.477 700 115.434 c S
450 144.301 m 450 160.477 461.613 174.316 477.547 177.125 c 493.477 179.934
 509.125 170.902 514.656 155.699 c 520.188 140.5 514.008 123.52 500 115.434
 c S
650 317.504 m 664.008 309.418 670.188 292.438 664.656 277.238 c 659.125
 262.035 643.477 253 627.547 255.809 c 611.613 258.617 600 272.461 600 288.637
 c S
500 57.695 m 489.688 63.652 483.332 74.656 483.332 86.562 c 483.332 98.473
 489.688 109.477 500 115.434 c S
550 317.504 m 550 333.68 561.613 347.523 577.547 350.332 c 593.477 353.141
 609.125 344.105 614.656 328.906 c 620.188 313.703 614.008 296.727 600 288.637
 c S
400 1096.926 m 389.688 1102.883 383.332 1113.887 383.332 1125.793 c 383.332
 1137.703 389.688 1148.707 400 1154.664 c S
450 1183.531 m 450 1171.621 443.648 1160.617 433.332 1154.664 c 423.02 
1148.707 410.312 1148.707 400 1154.664 c S
150 1183.531 m 150 1199.707 161.613 1213.547 177.547 1216.355 c 193.477
 1219.164 209.125 1210.133 214.656 1194.93 c 220.188 1179.73 214.008 1162.75
 200 1154.664 c S
350 1356.734 m 364.008 1348.648 370.188 1331.668 364.656 1316.469 c 359.125
 1301.266 343.477 1292.23 327.547 1295.039 c 311.613 1297.848 300 1311.691
 300 1327.867 c S
200 1096.926 m 189.688 1102.883 183.332 1113.887 183.332 1125.793 c 183.332
 1137.703 189.688 1148.707 200 1154.664 c S
550 837.121 m 539.688 843.074 533.332 854.078 533.332 865.988 c 533.332
 877.895 539.688 888.898 550 894.855 c S
600 923.723 m 600 911.812 593.648 900.809 583.332 894.855 c 573.02 888.898
 560.312 888.898 550 894.855 c S
300 923.723 m 300 939.898 311.613 953.742 327.547 956.551 c 343.477 959.359
 359.125 950.324 364.656 935.121 c 370.188 919.922 364.008 902.941 350 894.855
 c S
500 1096.926 m 514.008 1088.84 520.188 1071.859 514.656 1056.66 c 509.125
 1041.457 493.477 1032.426 477.547 1035.234 c 461.613 1038.043 450 1051.883
 450 1068.059 c S
350 837.121 m 339.688 843.074 333.332 854.078 333.332 865.988 c 333.332
 877.895 339.688 888.898 350 894.855 c S
400 1096.926 m 400 1113.105 411.613 1126.945 427.547 1129.754 c 443.477
 1132.562 459.125 1123.527 464.656 1108.328 c 470.188 1093.129 464.008 1076.148
 450 1068.059 c S
700 577.312 m 689.688 583.266 683.332 594.27 683.332 606.18 c 683.332 618.09
 689.688 629.094 700 635.047 c S
750 663.914 m 750 652.004 743.648 641 733.332 635.047 c 723.02 629.094 
710.312 629.094 700 635.047 c S
450 663.914 m 450 680.09 461.613 693.934 477.547 696.742 c 493.477 699.551
 509.125 690.516 514.656 675.316 c 520.188 660.113 514.008 643.137 500 635.047
 c S
650 837.121 m 664.008 829.031 670.188 812.051 664.656 796.852 c 659.125
 781.652 643.477 772.617 627.547 775.426 c 611.613 778.234 600 792.074 600
 808.254 c S
500 577.312 m 489.688 583.266 483.332 594.27 483.332 606.18 c 483.332 618.09
 489.688 629.094 500 635.047 c S
550 837.121 m 550 853.297 561.613 867.137 577.547 869.945 c 593.477 872.754
 609.125 863.723 614.656 848.52 c 620.188 833.32 614.008 816.34 600 808.254
 c S
850 317.504 m 839.688 323.457 833.332 334.465 833.332 346.371 c 833.332
 358.281 839.688 369.285 850 375.238 c S
900 404.105 m 900 392.199 893.648 381.195 883.332 375.238 c 873.02 369.285
 860.312 369.285 850 375.238 c S
600 404.105 m 600 420.285 611.613 434.125 627.547 436.934 c 643.477 439.742
 659.125 430.707 664.656 415.508 c 670.188 400.309 664.008 383.328 650 375.238
 c S
800 577.312 m 814.008 569.223 820.188 552.246 814.656 537.043 c 809.125
 521.844 793.477 512.809 777.547 515.617 c 761.613 518.426 750 532.27 750
 548.445 c S
650 317.504 m 639.688 323.457 633.332 334.465 633.332 346.371 c 633.332
 358.281 639.688 369.285 650 375.238 c S
700 577.312 m 700 593.488 711.613 607.328 727.547 610.141 c 743.477 612.949
 759.125 603.914 764.656 588.711 c 770.188 573.512 764.008 556.531 750 548.445
 c S
1000 57.695 m 989.688 63.652 983.332 74.656 983.332 86.562 c 983.332 98.473
 989.688 109.477 1000 115.434 c S
1050 144.301 m 1050 132.391 1043.648 121.387 1033.332 115.434 c 1023.02
 109.477 1010.312 109.477 1000 115.434 c S
750 144.301 m 750 160.477 761.613 174.316 777.547 177.125 c 793.477 179.934
 809.125 170.902 814.656 155.699 c 820.188 140.5 814.008 123.52 800 115.434
 c S
950 317.504 m 964.008 309.418 970.188 292.438 964.656 277.238 c 959.125
 262.035 943.477 253 927.547 255.809 c 911.613 258.617 900 272.461 900 288.637
 c S
800 57.695 m 789.688 63.652 783.332 74.656 783.332 86.562 c 783.332 98.473
 789.688 109.477 800 115.434 c S
850 317.504 m 850 333.68 861.613 347.523 877.547 350.332 c 893.477 353.141
 909.125 344.105 914.656 328.906 c 920.188 313.703 914.008 296.727 900 288.637
 c S
700 1096.926 m 689.688 1102.883 683.332 1113.887 683.332 1125.793 c 683.332
 1137.703 689.688 1148.707 700 1154.664 c S
750 1183.531 m 750 1171.621 743.648 1160.617 733.332 1154.664 c 723.02 
1148.707 710.312 1148.707 700 1154.664 c S
450 1183.531 m 450 1199.707 461.613 1213.547 477.547 1216.355 c 493.477
 1219.164 509.125 1210.133 514.656 1194.93 c 520.188 1179.73 514.008 1162.75
 500 1154.664 c S
650 1356.734 m 664.008 1348.648 670.188 1331.668 664.656 1316.469 c 659.125
 1301.266 643.477 1292.23 627.547 1295.039 c 611.613 1297.848 600 1311.691
 600 1327.867 c S
500 1096.926 m 489.688 1102.883 483.332 1113.887 483.332 1125.793 c 483.332
 1137.703 489.688 1148.707 500 1154.664 c S
850 837.121 m 839.688 843.074 833.332 854.078 833.332 865.988 c 833.332
 877.895 839.688 888.898 850 894.855 c S
900 923.723 m 900 911.812 893.648 900.809 883.332 894.855 c 873.02 888.898
 860.312 888.898 850 894.855 c S
600 923.723 m 600 939.898 611.613 953.742 627.547 956.551 c 643.477 959.359
 659.125 950.324 664.656 935.121 c 670.188 919.922 664.008 902.941 650 894.855
 c S
800 1096.926 m 814.008 1088.84 820.188 1071.859 814.656 1056.66 c 809.125
 1041.457 793.477 1032.426 777.547 1035.234 c 761.613 1038.043 750 1051.883
 750 1068.059 c S
650 837.121 m 639.688 843.074 633.332 854.078 633.332 865.988 c 633.332
 877.895 639.688 888.898 650 894.855 c S
700 1096.926 m 700 1113.105 711.613 1126.945 727.547 1129.754 c 743.477
 1132.562 759.125 1123.527 764.656 1108.328 c 770.188 1093.129 764.008 1076.148
 750 1068.059 c S
1000 577.312 m 989.688 583.266 983.332 594.27 983.332 606.18 c 983.332 
618.09 989.688 629.094 1000 635.047 c S
1050 663.914 m 1050 652.004 1043.648 641 1033.332 635.047 c 1023.02 629.094
 1010.312 629.094 1000 635.047 c S
750 663.914 m 750 680.09 761.613 693.934 777.547 696.742 c 793.477 699.551
 809.125 690.516 814.656 675.316 c 820.188 660.113 814.008 643.137 800 635.047
 c S
950 837.121 m 964.008 829.031 970.188 812.051 964.656 796.852 c 959.125
 781.652 943.477 772.617 927.547 775.426 c 911.613 778.234 900 792.074 900
 808.254 c S
800 577.312 m 789.688 583.266 783.332 594.27 783.332 606.18 c 783.332 618.09
 789.688 629.094 800 635.047 c S
850 837.121 m 850 853.297 861.613 867.137 877.547 869.945 c 893.477 872.754
 909.125 863.723 914.656 848.52 c 920.188 833.32 914.008 816.34 900 808.254
 c S
1150 317.504 m 1139.688 323.457 1133.332 334.465 1133.332 346.371 c 1133.332
 358.281 1139.688 369.285 1150 375.238 c S
1200 404.105 m 1200 392.199 1193.648 381.195 1183.332 375.238 c 1173.02
 369.285 1160.312 369.285 1150 375.238 c S
900 404.105 m 900 420.285 911.613 434.125 927.547 436.934 c 943.477 439.742
 959.125 430.707 964.656 415.508 c 970.188 400.309 964.008 383.328 950 375.238
 c S
1100 577.312 m 1114.008 569.223 1120.188 552.246 1114.656 537.043 c 1109.125
 521.844 1093.477 512.809 1077.547 515.617 c 1061.613 518.426 1050 532.27
 1050 548.445 c S
950 317.504 m 939.688 323.457 933.332 334.465 933.332 346.371 c 933.332
 358.281 939.688 369.285 950 375.238 c S
1000 577.312 m 1000 593.488 1011.613 607.328 1027.547 610.141 c 1043.477
 612.949 1059.125 603.914 1064.656 588.711 c 1070.188 573.512 1064.008 556.531
 1050 548.445 c S
1300 57.695 m 1289.688 63.652 1283.332 74.656 1283.332 86.562 c 1283.332
 98.473 1289.688 109.477 1300 115.434 c S
1350 144.301 m 1350 132.391 1343.648 121.387 1333.332 115.434 c 1323.02
 109.477 1310.312 109.477 1300 115.434 c S
1050 144.301 m 1050 160.477 1061.613 174.316 1077.547 177.125 c 1093.477
 179.934 1109.125 170.902 1114.656 155.699 c 1120.188 140.5 1114.008 123.52
 1100 115.434 c S
1250 317.504 m 1264.008 309.418 1270.188 292.438 1264.656 277.238 c 1259.125
 262.035 1243.477 253 1227.547 255.809 c 1211.613 258.617 1200 272.461 1200
 288.637 c S
1100 57.695 m 1089.688 63.652 1083.332 74.656 1083.332 86.562 c 1083.332
 98.473 1089.688 109.477 1100 115.434 c S
1150 317.504 m 1150 333.68 1161.613 347.523 1177.547 350.332 c 1193.477
 353.141 1209.125 344.105 1214.656 328.906 c 1220.188 313.703 1214.008 296.727
 1200 288.637 c S
1000 1096.926 m 989.688 1102.883 983.332 1113.887 983.332 1125.793 c 983.332
 1137.703 989.688 1148.707 1000 1154.664 c S
1050 1183.531 m 1050 1171.621 1043.648 1160.617 1033.332 1154.664 c 1023.02
 1148.707 1010.312 1148.707 1000 1154.664 c S
750 1183.531 m 750 1199.707 761.613 1213.547 777.547 1216.355 c 793.477
 1219.164 809.125 1210.133 814.656 1194.93 c 820.188 1179.73 814.008 1162.75
 800 1154.664 c S
950 1356.734 m 964.008 1348.648 970.188 1331.668 964.656 1316.469 c 959.125
 1301.266 943.477 1292.23 927.547 1295.039 c 911.613 1297.848 900 1311.691
 900 1327.867 c S
800 1096.926 m 789.688 1102.883 783.332 1113.887 783.332 1125.793 c 783.332
 1137.703 789.688 1148.707 800 1154.664 c S
1150 837.121 m 1139.688 843.074 1133.332 854.078 1133.332 865.988 c 1133.332
 877.895 1139.688 888.898 1150 894.855 c S
1200 923.723 m 1200 911.812 1193.648 900.809 1183.332 894.855 c 1173.02
 888.898 1160.312 888.898 1150 894.855 c S
900 923.723 m 900 939.898 911.613 953.742 927.547 956.551 c 943.477 959.359
 959.125 950.324 964.656 935.121 c 970.188 919.922 964.008 902.941 950 894.855
 c S
1100 1096.926 m 1114.008 1088.84 1120.188 1071.859 1114.656 1056.66 c 1109.125
 1041.457 1093.477 1032.426 1077.547 1035.234 c 1061.613 1038.043 1050 1051.883
 1050 1068.059 c S
950 837.121 m 939.688 843.074 933.332 854.078 933.332 865.988 c 933.332
 877.895 939.688 888.898 950 894.855 c S
1000 1096.926 m 1000 1113.105 1011.613 1126.945 1027.547 1129.754 c 1043.477
 1132.562 1059.125 1123.527 1064.656 1108.328 c 1070.188 1093.129 1064.008
 1076.148 1050 1068.059 c S
1300 577.312 m 1289.688 583.266 1283.332 594.27 1283.332 606.18 c 1283.332
 618.09 1289.688 629.094 1300 635.047 c S
1350 663.914 m 1350 652.004 1343.648 641 1333.332 635.047 c 1323.02 629.094
 1310.312 629.094 1300 635.047 c S
1050 663.914 m 1050 680.09 1061.613 693.934 1077.547 696.742 c 1093.477
 699.551 1109.125 690.516 1114.656 675.316 c 1120.188 660.113 1114.008 643.137
 1100 635.047 c S
1250 837.121 m 1264.008 829.031 1270.188 812.051 1264.656 796.852 c 1259.125
 781.652 1243.477 772.617 1227.547 775.426 c 1211.613 778.234 1200 792.074
 1200 808.254 c S
1100 577.312 m 1089.688 583.266 1083.332 594.27 1083.332 606.18 c 1083.332
 618.09 1089.688 629.094 1100 635.047 c S
1150 837.121 m 1150 853.297 1161.613 867.137 1177.547 869.945 c 1193.477
 872.754 1209.125 863.723 1214.656 848.52 c 1220.188 833.32 1214.008 816.34
 1200 808.254 c S
1200 404.105 m 1200 420.285 1211.613 434.125 1227.547 436.934 c 1243.477
 439.742 1259.125 430.707 1264.656 415.508 c 1270.188 400.309 1264.008 383.328
 1250 375.238 c S
1400 577.312 m 1414.008 569.223 1420.188 552.246 1414.656 537.043 c 1409.125
 521.844 1393.477 512.809 1377.547 515.617 c 1361.613 518.426 1350 532.27
 1350 548.445 c S
1250 317.504 m 1239.688 323.457 1233.332 334.465 1233.332 346.371 c 1233.332
 358.281 1239.688 369.285 1250 375.238 c S
1300 577.312 m 1300 593.488 1311.613 607.328 1327.547 610.141 c 1343.477
 612.949 1359.125 603.914 1364.656 588.711 c 1370.188 573.512 1364.008 556.531
 1350 548.445 c S
1350 144.301 m 1350 160.477 1361.613 174.316 1377.547 177.125 c 1393.477
 179.934 1409.125 170.902 1414.656 155.699 c 1420.188 140.5 1414.008 123.52
 1400 115.434 c S
1300 1096.926 m 1289.688 1102.883 1283.332 1113.887 1283.332 1125.793 c
 1283.332 1137.703 1289.688 1148.707 1300 1154.664 c S
1350 1183.531 m 1350 1171.621 1343.648 1160.617 1333.332 1154.664 c 1323.02
 1148.707 1310.312 1148.707 1300 1154.664 c S
1050 1183.531 m 1050 1199.707 1061.613 1213.547 1077.547 1216.355 c 1093.477
 1219.164 1109.125 1210.133 1114.656 1194.93 c 1120.188 1179.73 1114.008
 1162.75 1100 1154.664 c S
1250 1356.734 m 1264.008 1348.648 1270.188 1331.668 1264.656 1316.469 c
 1259.125 1301.266 1243.477 1292.23 1227.547 1295.039 c 1211.613 1297.848
 1200 1311.691 1200 1327.867 c S
1100 1096.926 m 1089.688 1102.883 1083.332 1113.887 1083.332 1125.793 c
 1083.332 1137.703 1089.688 1148.707 1100 1154.664 c S
1200 923.723 m 1200 939.898 1211.613 953.742 1227.547 956.551 c 1243.477
 959.359 1259.125 950.324 1264.656 935.121 c 1270.188 919.922 1264.008 902.941
 1250 894.855 c S
1400 1096.926 m 1414.008 1088.84 1420.188 1071.859 1414.656 1056.66 c 1409.125
 1041.457 1393.477 1032.426 1377.547 1035.234 c 1361.613 1038.043 1350 1051.883
 1350 1068.059 c S
1250 837.121 m 1239.688 843.074 1233.332 854.078 1233.332 865.988 c 1233.332
 877.895 1239.688 888.898 1250 894.855 c S
1300 1096.926 m 1300 1113.105 1311.613 1126.945 1327.547 1129.754 c 1343.477
 1132.562 1359.125 1123.527 1364.656 1108.328 c 1370.188 1093.129 1364.008
 1076.148 1350 1068.059 c S
1350 663.914 m 1350 680.09 1361.613 693.934 1377.547 696.742 c 1393.477
 699.551 1409.125 690.516 1414.656 675.316 c 1420.188 660.113 1414.008 643.137
 1400 635.047 c S
Q Q
showpage
%%Trailer
%%Trailer
cleartomark
countdictstack
exch sub { end } repeat
restore
%%EOF
