%!PS-Adobe-2.0 EPSF-2.0
%%BoundingBox: 0 0 2450 1750
%%HiResBoundingBox: 0.000000 0.000000 2450.000000 1750.000000
%%Creator: cairo 1.14.2 (http://cairographics.org)
%%CreationDate: Mon Sep  7 08:21:57 2015
%%DocumentData: Clean7Bit
%%LanguageLevel: 2
%%DocumentMedia: 864x617mm 2450 1750 0 () ()
%%EndComments
% EPSF created by ps2eps 1.68
%%BeginProlog
save
countdictstack
mark
newpath
/showpage {} def
/setpagedevice {pop} def
%%EndProlog
%%Page 1 1
%%BeginProlog
/languagelevel where
{ pop languagelevel } { 1 } ifelse
2 lt { /Helvetica findfont 12 scalefont setfont 50 500 moveto
  (This print job requires a PostScript Language Level 2 printer.) show
  showpage quit } if
/q { gsave } bind def
/Q { grestore } bind def
/cm { 6 array astore concat } bind def
/w { setlinewidth } bind def
/J { setlinecap } bind def
/j { setlinejoin } bind def
/M { setmiterlimit } bind def
/d { setdash } bind def
/m { moveto } bind def
/l { lineto } bind def
/c { curveto } bind def
/h { closepath } bind def
/re { exch dup neg 3 1 roll 5 3 roll moveto 0 rlineto
      0 exch rlineto 0 rlineto closepath } bind def
/S { stroke } bind def
/f { fill } bind def
/f* { eofill } bind def
/n { newpath } bind def
/W { clip } bind def
/W* { eoclip } bind def
/BT { } bind def
/ET { } bind def
/pdfmark where { pop globaldict /?pdfmark /exec load put }
    { globaldict begin /?pdfmark /pop load def /pdfmark
    /cleartomark load def end } ifelse
/BDC { mark 3 1 roll /BDC pdfmark } bind def
/EMC { mark /EMC pdfmark } bind def
/cairo_store_point { /cairo_point_y exch def /cairo_point_x exch def } def
/Tj { show currentpoint cairo_store_point } bind def
/TJ {
  {
    dup
    type /stringtype eq
    { show } { -0.001 mul 0 cairo_font_matrix dtransform rmoveto } ifelse
  } forall
  currentpoint cairo_store_point
} bind def
/cairo_selectfont { cairo_font_matrix aload pop pop pop 0 0 6 array astore
    cairo_font exch selectfont cairo_point_x cairo_point_y moveto } bind def
/Tf { pop /cairo_font exch def /cairo_font_matrix where
      { pop cairo_selectfont } if } bind def
/Td { matrix translate cairo_font_matrix matrix concatmatrix dup
      /cairo_font_matrix exch def dup 4 get exch 5 get cairo_store_point
      /cairo_font where { pop cairo_selectfont } if } bind def
/Tm { 2 copy 8 2 roll 6 array astore /cairo_font_matrix exch def
      cairo_store_point /cairo_font where { pop cairo_selectfont } if } bind def
/g { setgray } bind def
/rg { setrgbcolor } bind def
/d1 { setcachedevice } bind def
/cairo_set_page_size {
  % Change paper size, but only if different from previous paper size otherwise
  % duplex fails. PLRM specifies a tolerance of 5 pts when matching paper size
  % so we use the same when checking if the size changes.
  /setpagedevice where {
    pop currentpagedevice
    /PageSize known {
      2 copy
      currentpagedevice /PageSize get aload pop
      exch 4 1 roll
      sub abs 5 gt
      3 1 roll
      sub abs 5 gt
      or
    } {
      true
    } ifelse
    {
      2 array astore
      2 dict begin
        /PageSize exch def
        /ImagingBBox null def
      currentdict end
      setpagedevice
    } {
      pop pop
    } ifelse
  } {
    pop
  } ifelse
} def
%%EndProlog
%%BeginSetup
%%EndSetup
%%Page: 1 1
%%BeginPageSetup
%%PageMedia: 864x617mm
%%PageBoundingBox: 0 0 2450 1750
2450 1750 cairo_set_page_size
%%EndPageSetup
q 0 0 2450 1750 rectclip q
0.984314 g
0 0 2450 1750 rectfill
0.788235 g
1.875 w
0 J
1 j
[] 0.0 d
4 M 0 1750 2450 -1750 re S
0.85098 g
145.832 1720.832 m 145.832 1704.727 132.773 1691.668 116.668 1691.668 c
 100.559 1691.668 87.5 1704.727 87.5 1720.832 c 87.5 1736.941 100.559 1750
 116.668 1750 c 132.773 1750 145.832 1736.941 145.832 1720.832 c h
145.832 1720.832 m f
0 g
2.5 w
0 j
145.832 1720.832 m 145.832 1704.727 132.773 1691.668 116.668 1691.668 c
 100.559 1691.668 87.5 1704.727 87.5 1720.832 c 87.5 1736.941 100.559 1750
 116.668 1750 c 132.773 1750 145.832 1736.941 145.832 1720.832 c h
145.832 1720.832 m S
0.85098 g
350 1633.332 m 350 1617.227 336.941 1604.168 320.832 1604.168 c 304.727
 1604.168 291.668 1617.227 291.668 1633.332 c 291.668 1649.441 304.727 1662.5
 320.832 1662.5 c 336.941 1662.5 350 1649.441 350 1633.332 c h
350 1633.332 m f
0 g
350 1633.332 m 350 1617.227 336.941 1604.168 320.832 1604.168 c 304.727
 1604.168 291.668 1617.227 291.668 1633.332 c 291.668 1649.441 304.727 1662.5
 320.832 1662.5 c 336.941 1662.5 350 1649.441 350 1633.332 c h
350 1633.332 m S
0.85098 g
262.5 1429.168 m 262.5 1413.059 249.441 1400 233.332 1400 c 217.227 1400
 204.168 1413.059 204.168 1429.168 c 204.168 1445.273 217.227 1458.332 233.332
 1458.332 c 249.441 1458.332 262.5 1445.273 262.5 1429.168 c h
262.5 1429.168 m f
0 g
262.5 1429.168 m 262.5 1413.059 249.441 1400 233.332 1400 c 217.227 1400
 204.168 1413.059 204.168 1429.168 c 204.168 1445.273 217.227 1458.332 233.332
 1458.332 c 249.441 1458.332 262.5 1445.273 262.5 1429.168 c h
262.5 1429.168 m S
0.85098 g
58.332 1516.668 m 58.332 1500.559 45.273 1487.5 29.168 1487.5 c 13.059 
1487.5 0 1500.559 0 1516.668 c 0 1532.773 13.059 1545.832 29.168 1545.832
 c 45.273 1545.832 58.332 1532.773 58.332 1516.668 c h
58.332 1516.668 m f
0 g
58.332 1516.668 m 58.332 1500.559 45.273 1487.5 29.168 1487.5 c 13.059 
1487.5 0 1500.559 0 1516.668 c 0 1532.773 13.059 1545.832 29.168 1545.832
 c 45.273 1545.832 58.332 1532.773 58.332 1516.668 c h
58.332 1516.668 m S
0.85098 g
145.832 1370.832 m 145.832 1354.727 132.773 1341.668 116.668 1341.668 c
 100.559 1341.668 87.5 1354.727 87.5 1370.832 c 87.5 1386.941 100.559 1400
 116.668 1400 c 132.773 1400 145.832 1386.941 145.832 1370.832 c h
145.832 1370.832 m f
0 g
145.832 1370.832 m 145.832 1354.727 132.773 1341.668 116.668 1341.668 c
 100.559 1341.668 87.5 1354.727 87.5 1370.832 c 87.5 1386.941 100.559 1400
 116.668 1400 c 132.773 1400 145.832 1386.941 145.832 1370.832 c h
145.832 1370.832 m S
0.85098 g
350 1283.332 m 350 1267.227 336.941 1254.168 320.832 1254.168 c 304.727
 1254.168 291.668 1267.227 291.668 1283.332 c 291.668 1299.441 304.727 1312.5
 320.832 1312.5 c 336.941 1312.5 350 1299.441 350 1283.332 c h
350 1283.332 m f
0 g
350 1283.332 m 350 1267.227 336.941 1254.168 320.832 1254.168 c 304.727
 1254.168 291.668 1267.227 291.668 1283.332 c 291.668 1299.441 304.727 1312.5
 320.832 1312.5 c 336.941 1312.5 350 1299.441 350 1283.332 c h
350 1283.332 m S
0.85098 g
262.5 1079.168 m 262.5 1063.059 249.441 1050 233.332 1050 c 217.227 1050
 204.168 1063.059 204.168 1079.168 c 204.168 1095.273 217.227 1108.332 233.332
 1108.332 c 249.441 1108.332 262.5 1095.273 262.5 1079.168 c h
262.5 1079.168 m f
0 g
262.5 1079.168 m 262.5 1063.059 249.441 1050 233.332 1050 c 217.227 1050
 204.168 1063.059 204.168 1079.168 c 204.168 1095.273 217.227 1108.332 233.332
 1108.332 c 249.441 1108.332 262.5 1095.273 262.5 1079.168 c h
262.5 1079.168 m S
0.85098 g
58.332 1166.668 m 58.332 1150.559 45.273 1137.5 29.168 1137.5 c 13.059 
1137.5 0 1150.559 0 1166.668 c 0 1182.773 13.059 1195.832 29.168 1195.832
 c 45.273 1195.832 58.332 1182.773 58.332 1166.668 c h
58.332 1166.668 m f
0 g
58.332 1166.668 m 58.332 1150.559 45.273 1137.5 29.168 1137.5 c 13.059 
1137.5 0 1150.559 0 1166.668 c 0 1182.773 13.059 1195.832 29.168 1195.832
 c 45.273 1195.832 58.332 1182.773 58.332 1166.668 c h
58.332 1166.668 m S
0.85098 g
145.832 1020.832 m 145.832 1004.727 132.773 991.668 116.668 991.668 c 100.559
 991.668 87.5 1004.727 87.5 1020.832 c 87.5 1036.941 100.559 1050 116.668
 1050 c 132.773 1050 145.832 1036.941 145.832 1020.832 c h
145.832 1020.832 m f
0 g
145.832 1020.832 m 145.832 1004.727 132.773 991.668 116.668 991.668 c 100.559
 991.668 87.5 1004.727 87.5 1020.832 c 87.5 1036.941 100.559 1050 116.668
 1050 c 132.773 1050 145.832 1036.941 145.832 1020.832 c h
145.832 1020.832 m S
0.85098 g
350 933.332 m 350 917.227 336.941 904.168 320.832 904.168 c 304.727 904.168
 291.668 917.227 291.668 933.332 c 291.668 949.441 304.727 962.5 320.832
 962.5 c 336.941 962.5 350 949.441 350 933.332 c h
350 933.332 m f
0 g
350 933.332 m 350 917.227 336.941 904.168 320.832 904.168 c 304.727 904.168
 291.668 917.227 291.668 933.332 c 291.668 949.441 304.727 962.5 320.832
 962.5 c 336.941 962.5 350 949.441 350 933.332 c h
350 933.332 m S
0.85098 g
262.5 729.168 m 262.5 713.059 249.441 700 233.332 700 c 217.227 700 204.168
 713.059 204.168 729.168 c 204.168 745.273 217.227 758.332 233.332 758.332
 c 249.441 758.332 262.5 745.273 262.5 729.168 c h
262.5 729.168 m f
0 g
262.5 729.168 m 262.5 713.059 249.441 700 233.332 700 c 217.227 700 204.168
 713.059 204.168 729.168 c 204.168 745.273 217.227 758.332 233.332 758.332
 c 249.441 758.332 262.5 745.273 262.5 729.168 c h
262.5 729.168 m S
0.85098 g
58.332 816.668 m 58.332 800.559 45.273 787.5 29.168 787.5 c 13.059 787.5
 0 800.559 0 816.668 c 0 832.773 13.059 845.832 29.168 845.832 c 45.273 
845.832 58.332 832.773 58.332 816.668 c h
58.332 816.668 m f
0 g
58.332 816.668 m 58.332 800.559 45.273 787.5 29.168 787.5 c 13.059 787.5
 0 800.559 0 816.668 c 0 832.773 13.059 845.832 29.168 845.832 c 45.273 
845.832 58.332 832.773 58.332 816.668 c h
58.332 816.668 m S
0.85098 g
145.832 670.832 m 145.832 654.727 132.773 641.668 116.668 641.668 c 100.559
 641.668 87.5 654.727 87.5 670.832 c 87.5 686.941 100.559 700 116.668 700
 c 132.773 700 145.832 686.941 145.832 670.832 c h
145.832 670.832 m f
0 g
145.832 670.832 m 145.832 654.727 132.773 641.668 116.668 641.668 c 100.559
 641.668 87.5 654.727 87.5 670.832 c 87.5 686.941 100.559 700 116.668 700
 c 132.773 700 145.832 686.941 145.832 670.832 c h
145.832 670.832 m S
0.85098 g
350 583.332 m 350 567.227 336.941 554.168 320.832 554.168 c 304.727 554.168
 291.668 567.227 291.668 583.332 c 291.668 599.441 304.727 612.5 320.832
 612.5 c 336.941 612.5 350 599.441 350 583.332 c h
350 583.332 m f
0 g
350 583.332 m 350 567.227 336.941 554.168 320.832 554.168 c 304.727 554.168
 291.668 567.227 291.668 583.332 c 291.668 599.441 304.727 612.5 320.832
 612.5 c 336.941 612.5 350 599.441 350 583.332 c h
350 583.332 m S
0.85098 g
262.5 379.168 m 262.5 363.059 249.441 350 233.332 350 c 217.227 350 204.168
 363.059 204.168 379.168 c 204.168 395.273 217.227 408.332 233.332 408.332
 c 249.441 408.332 262.5 395.273 262.5 379.168 c h
262.5 379.168 m f
0 g
262.5 379.168 m 262.5 363.059 249.441 350 233.332 350 c 217.227 350 204.168
 363.059 204.168 379.168 c 204.168 395.273 217.227 408.332 233.332 408.332
 c 249.441 408.332 262.5 395.273 262.5 379.168 c h
262.5 379.168 m S
0.85098 g
58.332 466.668 m 58.332 450.559 45.273 437.5 29.168 437.5 c 13.059 437.5
 0 450.559 0 466.668 c 0 482.773 13.059 495.832 29.168 495.832 c 45.273 
495.832 58.332 482.773 58.332 466.668 c h
58.332 466.668 m f
0 g
58.332 466.668 m 58.332 450.559 45.273 437.5 29.168 437.5 c 13.059 437.5
 0 450.559 0 466.668 c 0 482.773 13.059 495.832 29.168 495.832 c 45.273 
495.832 58.332 482.773 58.332 466.668 c h
58.332 466.668 m S
0.85098 g
145.832 320.832 m 145.832 304.727 132.773 291.668 116.668 291.668 c 100.559
 291.668 87.5 304.727 87.5 320.832 c 87.5 336.941 100.559 350 116.668 350
 c 132.773 350 145.832 336.941 145.832 320.832 c h
145.832 320.832 m f
0 g
145.832 320.832 m 145.832 304.727 132.773 291.668 116.668 291.668 c 100.559
 291.668 87.5 304.727 87.5 320.832 c 87.5 336.941 100.559 350 116.668 350
 c 132.773 350 145.832 336.941 145.832 320.832 c h
145.832 320.832 m S
0.85098 g
350 233.332 m 350 217.227 336.941 204.168 320.832 204.168 c 304.727 204.168
 291.668 217.227 291.668 233.332 c 291.668 249.441 304.727 262.5 320.832
 262.5 c 336.941 262.5 350 249.441 350 233.332 c h
350 233.332 m f
0 g
350 233.332 m 350 217.227 336.941 204.168 320.832 204.168 c 304.727 204.168
 291.668 217.227 291.668 233.332 c 291.668 249.441 304.727 262.5 320.832
 262.5 c 336.941 262.5 350 249.441 350 233.332 c h
350 233.332 m S
0.85098 g
262.5 29.168 m 262.5 13.059 249.441 0 233.332 0 c 217.227 0 204.168 13.059
 204.168 29.168 c 204.168 45.273 217.227 58.332 233.332 58.332 c 249.441
 58.332 262.5 45.273 262.5 29.168 c h
262.5 29.168 m f
0 g
262.5 29.168 m 262.5 13.059 249.441 0 233.332 0 c 217.227 0 204.168 13.059
 204.168 29.168 c 204.168 45.273 217.227 58.332 233.332 58.332 c 249.441
 58.332 262.5 45.273 262.5 29.168 c h
262.5 29.168 m S
0.85098 g
58.332 116.668 m 58.332 100.559 45.273 87.5 29.168 87.5 c 13.059 87.5 0
 100.559 0 116.668 c 0 132.773 13.059 145.832 29.168 145.832 c 45.273 145.832
 58.332 132.773 58.332 116.668 c h
58.332 116.668 m f
0 g
58.332 116.668 m 58.332 100.559 45.273 87.5 29.168 87.5 c 13.059 87.5 0
 100.559 0 116.668 c 0 132.773 13.059 145.832 29.168 145.832 c 45.273 145.832
 58.332 132.773 58.332 116.668 c h
58.332 116.668 m S
0.85098 g
495.832 1720.832 m 495.832 1704.727 482.773 1691.668 466.668 1691.668 c
 450.559 1691.668 437.5 1704.727 437.5 1720.832 c 437.5 1736.941 450.559
 1750 466.668 1750 c 482.773 1750 495.832 1736.941 495.832 1720.832 c h
495.832 1720.832 m f
0 g
495.832 1720.832 m 495.832 1704.727 482.773 1691.668 466.668 1691.668 c
 450.559 1691.668 437.5 1704.727 437.5 1720.832 c 437.5 1736.941 450.559
 1750 466.668 1750 c 482.773 1750 495.832 1736.941 495.832 1720.832 c h
495.832 1720.832 m S
0.85098 g
700 1633.332 m 700 1617.227 686.941 1604.168 670.832 1604.168 c 654.727
 1604.168 641.668 1617.227 641.668 1633.332 c 641.668 1649.441 654.727 1662.5
 670.832 1662.5 c 686.941 1662.5 700 1649.441 700 1633.332 c h
700 1633.332 m f
0 g
700 1633.332 m 700 1617.227 686.941 1604.168 670.832 1604.168 c 654.727
 1604.168 641.668 1617.227 641.668 1633.332 c 641.668 1649.441 654.727 1662.5
 670.832 1662.5 c 686.941 1662.5 700 1649.441 700 1633.332 c h
700 1633.332 m S
0.85098 g
612.5 1429.168 m 612.5 1413.059 599.441 1400 583.332 1400 c 567.227 1400
 554.168 1413.059 554.168 1429.168 c 554.168 1445.273 567.227 1458.332 583.332
 1458.332 c 599.441 1458.332 612.5 1445.273 612.5 1429.168 c h
612.5 1429.168 m f
0 g
612.5 1429.168 m 612.5 1413.059 599.441 1400 583.332 1400 c 567.227 1400
 554.168 1413.059 554.168 1429.168 c 554.168 1445.273 567.227 1458.332 583.332
 1458.332 c 599.441 1458.332 612.5 1445.273 612.5 1429.168 c h
612.5 1429.168 m S
0.85098 g
408.332 1516.668 m 408.332 1500.559 395.273 1487.5 379.168 1487.5 c 363.059
 1487.5 350 1500.559 350 1516.668 c 350 1532.773 363.059 1545.832 379.168
 1545.832 c 395.273 1545.832 408.332 1532.773 408.332 1516.668 c h
408.332 1516.668 m f
0 g
408.332 1516.668 m 408.332 1500.559 395.273 1487.5 379.168 1487.5 c 363.059
 1487.5 350 1500.559 350 1516.668 c 350 1532.773 363.059 1545.832 379.168
 1545.832 c 395.273 1545.832 408.332 1532.773 408.332 1516.668 c h
408.332 1516.668 m S
0.85098 g
495.832 1370.832 m 495.832 1354.727 482.773 1341.668 466.668 1341.668 c
 450.559 1341.668 437.5 1354.727 437.5 1370.832 c 437.5 1386.941 450.559
 1400 466.668 1400 c 482.773 1400 495.832 1386.941 495.832 1370.832 c h
495.832 1370.832 m f
0 g
495.832 1370.832 m 495.832 1354.727 482.773 1341.668 466.668 1341.668 c
 450.559 1341.668 437.5 1354.727 437.5 1370.832 c 437.5 1386.941 450.559
 1400 466.668 1400 c 482.773 1400 495.832 1386.941 495.832 1370.832 c h
495.832 1370.832 m S
0.85098 g
700 1283.332 m 700 1267.227 686.941 1254.168 670.832 1254.168 c 654.727
 1254.168 641.668 1267.227 641.668 1283.332 c 641.668 1299.441 654.727 1312.5
 670.832 1312.5 c 686.941 1312.5 700 1299.441 700 1283.332 c h
700 1283.332 m f
0 g
700 1283.332 m 700 1267.227 686.941 1254.168 670.832 1254.168 c 654.727
 1254.168 641.668 1267.227 641.668 1283.332 c 641.668 1299.441 654.727 1312.5
 670.832 1312.5 c 686.941 1312.5 700 1299.441 700 1283.332 c h
700 1283.332 m S
0.85098 g
612.5 1079.168 m 612.5 1063.059 599.441 1050 583.332 1050 c 567.227 1050
 554.168 1063.059 554.168 1079.168 c 554.168 1095.273 567.227 1108.332 583.332
 1108.332 c 599.441 1108.332 612.5 1095.273 612.5 1079.168 c h
612.5 1079.168 m f
0 g
612.5 1079.168 m 612.5 1063.059 599.441 1050 583.332 1050 c 567.227 1050
 554.168 1063.059 554.168 1079.168 c 554.168 1095.273 567.227 1108.332 583.332
 1108.332 c 599.441 1108.332 612.5 1095.273 612.5 1079.168 c h
612.5 1079.168 m S
0.85098 g
408.332 1166.668 m 408.332 1150.559 395.273 1137.5 379.168 1137.5 c 363.059
 1137.5 350 1150.559 350 1166.668 c 350 1182.773 363.059 1195.832 379.168
 1195.832 c 395.273 1195.832 408.332 1182.773 408.332 1166.668 c h
408.332 1166.668 m f
0 g
408.332 1166.668 m 408.332 1150.559 395.273 1137.5 379.168 1137.5 c 363.059
 1137.5 350 1150.559 350 1166.668 c 350 1182.773 363.059 1195.832 379.168
 1195.832 c 395.273 1195.832 408.332 1182.773 408.332 1166.668 c h
408.332 1166.668 m S
0.85098 g
495.832 1020.832 m 495.832 1004.727 482.773 991.668 466.668 991.668 c 450.559
 991.668 437.5 1004.727 437.5 1020.832 c 437.5 1036.941 450.559 1050 466.668
 1050 c 482.773 1050 495.832 1036.941 495.832 1020.832 c h
495.832 1020.832 m f
0 g
495.832 1020.832 m 495.832 1004.727 482.773 991.668 466.668 991.668 c 450.559
 991.668 437.5 1004.727 437.5 1020.832 c 437.5 1036.941 450.559 1050 466.668
 1050 c 482.773 1050 495.832 1036.941 495.832 1020.832 c h
495.832 1020.832 m S
0.85098 g
700 933.332 m 700 917.227 686.941 904.168 670.832 904.168 c 654.727 904.168
 641.668 917.227 641.668 933.332 c 641.668 949.441 654.727 962.5 670.832
 962.5 c 686.941 962.5 700 949.441 700 933.332 c h
700 933.332 m f
0 g
700 933.332 m 700 917.227 686.941 904.168 670.832 904.168 c 654.727 904.168
 641.668 917.227 641.668 933.332 c 641.668 949.441 654.727 962.5 670.832
 962.5 c 686.941 962.5 700 949.441 700 933.332 c h
700 933.332 m S
0.85098 g
612.5 729.168 m 612.5 713.059 599.441 700 583.332 700 c 567.227 700 554.168
 713.059 554.168 729.168 c 554.168 745.273 567.227 758.332 583.332 758.332
 c 599.441 758.332 612.5 745.273 612.5 729.168 c h
612.5 729.168 m f
0 g
612.5 729.168 m 612.5 713.059 599.441 700 583.332 700 c 567.227 700 554.168
 713.059 554.168 729.168 c 554.168 745.273 567.227 758.332 583.332 758.332
 c 599.441 758.332 612.5 745.273 612.5 729.168 c h
612.5 729.168 m S
0.85098 g
408.332 816.668 m 408.332 800.559 395.273 787.5 379.168 787.5 c 363.059
 787.5 350 800.559 350 816.668 c 350 832.773 363.059 845.832 379.168 845.832
 c 395.273 845.832 408.332 832.773 408.332 816.668 c h
408.332 816.668 m f
0 g
408.332 816.668 m 408.332 800.559 395.273 787.5 379.168 787.5 c 363.059
 787.5 350 800.559 350 816.668 c 350 832.773 363.059 845.832 379.168 845.832
 c 395.273 845.832 408.332 832.773 408.332 816.668 c h
408.332 816.668 m S
0.85098 g
495.832 670.832 m 495.832 654.727 482.773 641.668 466.668 641.668 c 450.559
 641.668 437.5 654.727 437.5 670.832 c 437.5 686.941 450.559 700 466.668
 700 c 482.773 700 495.832 686.941 495.832 670.832 c h
495.832 670.832 m f
0 g
495.832 670.832 m 495.832 654.727 482.773 641.668 466.668 641.668 c 450.559
 641.668 437.5 654.727 437.5 670.832 c 437.5 686.941 450.559 700 466.668
 700 c 482.773 700 495.832 686.941 495.832 670.832 c h
495.832 670.832 m S
0.85098 g
700 583.332 m 700 567.227 686.941 554.168 670.832 554.168 c 654.727 554.168
 641.668 567.227 641.668 583.332 c 641.668 599.441 654.727 612.5 670.832
 612.5 c 686.941 612.5 700 599.441 700 583.332 c h
700 583.332 m f
0 g
700 583.332 m 700 567.227 686.941 554.168 670.832 554.168 c 654.727 554.168
 641.668 567.227 641.668 583.332 c 641.668 599.441 654.727 612.5 670.832
 612.5 c 686.941 612.5 700 599.441 700 583.332 c h
700 583.332 m S
0.85098 g
612.5 379.168 m 612.5 363.059 599.441 350 583.332 350 c 567.227 350 554.168
 363.059 554.168 379.168 c 554.168 395.273 567.227 408.332 583.332 408.332
 c 599.441 408.332 612.5 395.273 612.5 379.168 c h
612.5 379.168 m f
0 g
612.5 379.168 m 612.5 363.059 599.441 350 583.332 350 c 567.227 350 554.168
 363.059 554.168 379.168 c 554.168 395.273 567.227 408.332 583.332 408.332
 c 599.441 408.332 612.5 395.273 612.5 379.168 c h
612.5 379.168 m S
0.85098 g
408.332 466.668 m 408.332 450.559 395.273 437.5 379.168 437.5 c 363.059
 437.5 350 450.559 350 466.668 c 350 482.773 363.059 495.832 379.168 495.832
 c 395.273 495.832 408.332 482.773 408.332 466.668 c h
408.332 466.668 m f
0 g
408.332 466.668 m 408.332 450.559 395.273 437.5 379.168 437.5 c 363.059
 437.5 350 450.559 350 466.668 c 350 482.773 363.059 495.832 379.168 495.832
 c 395.273 495.832 408.332 482.773 408.332 466.668 c h
408.332 466.668 m S
0.85098 g
495.832 320.832 m 495.832 304.727 482.773 291.668 466.668 291.668 c 450.559
 291.668 437.5 304.727 437.5 320.832 c 437.5 336.941 450.559 350 466.668
 350 c 482.773 350 495.832 336.941 495.832 320.832 c h
495.832 320.832 m f
0 g
495.832 320.832 m 495.832 304.727 482.773 291.668 466.668 291.668 c 450.559
 291.668 437.5 304.727 437.5 320.832 c 437.5 336.941 450.559 350 466.668
 350 c 482.773 350 495.832 336.941 495.832 320.832 c h
495.832 320.832 m S
0.85098 g
700 233.332 m 700 217.227 686.941 204.168 670.832 204.168 c 654.727 204.168
 641.668 217.227 641.668 233.332 c 641.668 249.441 654.727 262.5 670.832
 262.5 c 686.941 262.5 700 249.441 700 233.332 c h
700 233.332 m f
0 g
700 233.332 m 700 217.227 686.941 204.168 670.832 204.168 c 654.727 204.168
 641.668 217.227 641.668 233.332 c 641.668 249.441 654.727 262.5 670.832
 262.5 c 686.941 262.5 700 249.441 700 233.332 c h
700 233.332 m S
0.85098 g
612.5 29.168 m 612.5 13.059 599.441 0 583.332 0 c 567.227 0 554.168 13.059
 554.168 29.168 c 554.168 45.273 567.227 58.332 583.332 58.332 c 599.441
 58.332 612.5 45.273 612.5 29.168 c h
612.5 29.168 m f
0 g
612.5 29.168 m 612.5 13.059 599.441 0 583.332 0 c 567.227 0 554.168 13.059
 554.168 29.168 c 554.168 45.273 567.227 58.332 583.332 58.332 c 599.441
 58.332 612.5 45.273 612.5 29.168 c h
612.5 29.168 m S
0.85098 g
408.332 116.668 m 408.332 100.559 395.273 87.5 379.168 87.5 c 363.059 87.5
 350 100.559 350 116.668 c 350 132.773 363.059 145.832 379.168 145.832 c
 395.273 145.832 408.332 132.773 408.332 116.668 c h
408.332 116.668 m f
0 g
408.332 116.668 m 408.332 100.559 395.273 87.5 379.168 87.5 c 363.059 87.5
 350 100.559 350 116.668 c 350 132.773 363.059 145.832 379.168 145.832 c
 395.273 145.832 408.332 132.773 408.332 116.668 c h
408.332 116.668 m S
0.85098 g
845.832 1720.832 m 845.832 1704.727 832.773 1691.668 816.668 1691.668 c
 800.559 1691.668 787.5 1704.727 787.5 1720.832 c 787.5 1736.941 800.559
 1750 816.668 1750 c 832.773 1750 845.832 1736.941 845.832 1720.832 c h
845.832 1720.832 m f
0 g
845.832 1720.832 m 845.832 1704.727 832.773 1691.668 816.668 1691.668 c
 800.559 1691.668 787.5 1704.727 787.5 1720.832 c 787.5 1736.941 800.559
 1750 816.668 1750 c 832.773 1750 845.832 1736.941 845.832 1720.832 c h
845.832 1720.832 m S
0.85098 g
1050 1633.332 m 1050 1617.227 1036.941 1604.168 1020.832 1604.168 c 1004.727
 1604.168 991.668 1617.227 991.668 1633.332 c 991.668 1649.441 1004.727 
1662.5 1020.832 1662.5 c 1036.941 1662.5 1050 1649.441 1050 1633.332 c h
1050 1633.332 m f
0 g
1050 1633.332 m 1050 1617.227 1036.941 1604.168 1020.832 1604.168 c 1004.727
 1604.168 991.668 1617.227 991.668 1633.332 c 991.668 1649.441 1004.727 
1662.5 1020.832 1662.5 c 1036.941 1662.5 1050 1649.441 1050 1633.332 c h
1050 1633.332 m S
0.85098 g
962.5 1429.168 m 962.5 1413.059 949.441 1400 933.332 1400 c 917.227 1400
 904.168 1413.059 904.168 1429.168 c 904.168 1445.273 917.227 1458.332 933.332
 1458.332 c 949.441 1458.332 962.5 1445.273 962.5 1429.168 c h
962.5 1429.168 m f
0 g
962.5 1429.168 m 962.5 1413.059 949.441 1400 933.332 1400 c 917.227 1400
 904.168 1413.059 904.168 1429.168 c 904.168 1445.273 917.227 1458.332 933.332
 1458.332 c 949.441 1458.332 962.5 1445.273 962.5 1429.168 c h
962.5 1429.168 m S
0.85098 g
758.332 1516.668 m 758.332 1500.559 745.273 1487.5 729.168 1487.5 c 713.059
 1487.5 700 1500.559 700 1516.668 c 700 1532.773 713.059 1545.832 729.168
 1545.832 c 745.273 1545.832 758.332 1532.773 758.332 1516.668 c h
758.332 1516.668 m f
0 g
758.332 1516.668 m 758.332 1500.559 745.273 1487.5 729.168 1487.5 c 713.059
 1487.5 700 1500.559 700 1516.668 c 700 1532.773 713.059 1545.832 729.168
 1545.832 c 745.273 1545.832 758.332 1532.773 758.332 1516.668 c h
758.332 1516.668 m S
0.85098 g
845.832 1370.832 m 845.832 1354.727 832.773 1341.668 816.668 1341.668 c
 800.559 1341.668 787.5 1354.727 787.5 1370.832 c 787.5 1386.941 800.559
 1400 816.668 1400 c 832.773 1400 845.832 1386.941 845.832 1370.832 c h
845.832 1370.832 m f
0 g
845.832 1370.832 m 845.832 1354.727 832.773 1341.668 816.668 1341.668 c
 800.559 1341.668 787.5 1354.727 787.5 1370.832 c 787.5 1386.941 800.559
 1400 816.668 1400 c 832.773 1400 845.832 1386.941 845.832 1370.832 c h
845.832 1370.832 m S
0.85098 g
1050 1283.332 m 1050 1267.227 1036.941 1254.168 1020.832 1254.168 c 1004.727
 1254.168 991.668 1267.227 991.668 1283.332 c 991.668 1299.441 1004.727 
1312.5 1020.832 1312.5 c 1036.941 1312.5 1050 1299.441 1050 1283.332 c h
1050 1283.332 m f
0 g
1050 1283.332 m 1050 1267.227 1036.941 1254.168 1020.832 1254.168 c 1004.727
 1254.168 991.668 1267.227 991.668 1283.332 c 991.668 1299.441 1004.727 
1312.5 1020.832 1312.5 c 1036.941 1312.5 1050 1299.441 1050 1283.332 c h
1050 1283.332 m S
0.85098 g
962.5 1079.168 m 962.5 1063.059 949.441 1050 933.332 1050 c 917.227 1050
 904.168 1063.059 904.168 1079.168 c 904.168 1095.273 917.227 1108.332 933.332
 1108.332 c 949.441 1108.332 962.5 1095.273 962.5 1079.168 c h
962.5 1079.168 m f
0 g
962.5 1079.168 m 962.5 1063.059 949.441 1050 933.332 1050 c 917.227 1050
 904.168 1063.059 904.168 1079.168 c 904.168 1095.273 917.227 1108.332 933.332
 1108.332 c 949.441 1108.332 962.5 1095.273 962.5 1079.168 c h
962.5 1079.168 m S
0.85098 g
758.332 1166.668 m 758.332 1150.559 745.273 1137.5 729.168 1137.5 c 713.059
 1137.5 700 1150.559 700 1166.668 c 700 1182.773 713.059 1195.832 729.168
 1195.832 c 745.273 1195.832 758.332 1182.773 758.332 1166.668 c h
758.332 1166.668 m f
0 g
758.332 1166.668 m 758.332 1150.559 745.273 1137.5 729.168 1137.5 c 713.059
 1137.5 700 1150.559 700 1166.668 c 700 1182.773 713.059 1195.832 729.168
 1195.832 c 745.273 1195.832 758.332 1182.773 758.332 1166.668 c h
758.332 1166.668 m S
0.85098 g
845.832 1020.832 m 845.832 1004.727 832.773 991.668 816.668 991.668 c 800.559
 991.668 787.5 1004.727 787.5 1020.832 c 787.5 1036.941 800.559 1050 816.668
 1050 c 832.773 1050 845.832 1036.941 845.832 1020.832 c h
845.832 1020.832 m f
0 g
845.832 1020.832 m 845.832 1004.727 832.773 991.668 816.668 991.668 c 800.559
 991.668 787.5 1004.727 787.5 1020.832 c 787.5 1036.941 800.559 1050 816.668
 1050 c 832.773 1050 845.832 1036.941 845.832 1020.832 c h
845.832 1020.832 m S
0.85098 g
1050 933.332 m 1050 917.227 1036.941 904.168 1020.832 904.168 c 1004.727
 904.168 991.668 917.227 991.668 933.332 c 991.668 949.441 1004.727 962.5
 1020.832 962.5 c 1036.941 962.5 1050 949.441 1050 933.332 c h
1050 933.332 m f
0 g
1050 933.332 m 1050 917.227 1036.941 904.168 1020.832 904.168 c 1004.727
 904.168 991.668 917.227 991.668 933.332 c 991.668 949.441 1004.727 962.5
 1020.832 962.5 c 1036.941 962.5 1050 949.441 1050 933.332 c h
1050 933.332 m S
0.85098 g
962.5 729.168 m 962.5 713.059 949.441 700 933.332 700 c 917.227 700 904.168
 713.059 904.168 729.168 c 904.168 745.273 917.227 758.332 933.332 758.332
 c 949.441 758.332 962.5 745.273 962.5 729.168 c h
962.5 729.168 m f
0 g
962.5 729.168 m 962.5 713.059 949.441 700 933.332 700 c 917.227 700 904.168
 713.059 904.168 729.168 c 904.168 745.273 917.227 758.332 933.332 758.332
 c 949.441 758.332 962.5 745.273 962.5 729.168 c h
962.5 729.168 m S
0.85098 g
758.332 816.668 m 758.332 800.559 745.273 787.5 729.168 787.5 c 713.059
 787.5 700 800.559 700 816.668 c 700 832.773 713.059 845.832 729.168 845.832
 c 745.273 845.832 758.332 832.773 758.332 816.668 c h
758.332 816.668 m f
0 g
758.332 816.668 m 758.332 800.559 745.273 787.5 729.168 787.5 c 713.059
 787.5 700 800.559 700 816.668 c 700 832.773 713.059 845.832 729.168 845.832
 c 745.273 845.832 758.332 832.773 758.332 816.668 c h
758.332 816.668 m S
0.85098 g
845.832 670.832 m 845.832 654.727 832.773 641.668 816.668 641.668 c 800.559
 641.668 787.5 654.727 787.5 670.832 c 787.5 686.941 800.559 700 816.668
 700 c 832.773 700 845.832 686.941 845.832 670.832 c h
845.832 670.832 m f
0 g
845.832 670.832 m 845.832 654.727 832.773 641.668 816.668 641.668 c 800.559
 641.668 787.5 654.727 787.5 670.832 c 787.5 686.941 800.559 700 816.668
 700 c 832.773 700 845.832 686.941 845.832 670.832 c h
845.832 670.832 m S
0.85098 g
1050 583.332 m 1050 567.227 1036.941 554.168 1020.832 554.168 c 1004.727
 554.168 991.668 567.227 991.668 583.332 c 991.668 599.441 1004.727 612.5
 1020.832 612.5 c 1036.941 612.5 1050 599.441 1050 583.332 c h
1050 583.332 m f
0 g
1050 583.332 m 1050 567.227 1036.941 554.168 1020.832 554.168 c 1004.727
 554.168 991.668 567.227 991.668 583.332 c 991.668 599.441 1004.727 612.5
 1020.832 612.5 c 1036.941 612.5 1050 599.441 1050 583.332 c h
1050 583.332 m S
0.85098 g
962.5 379.168 m 962.5 363.059 949.441 350 933.332 350 c 917.227 350 904.168
 363.059 904.168 379.168 c 904.168 395.273 917.227 408.332 933.332 408.332
 c 949.441 408.332 962.5 395.273 962.5 379.168 c h
962.5 379.168 m f
0 g
962.5 379.168 m 962.5 363.059 949.441 350 933.332 350 c 917.227 350 904.168
 363.059 904.168 379.168 c 904.168 395.273 917.227 408.332 933.332 408.332
 c 949.441 408.332 962.5 395.273 962.5 379.168 c h
962.5 379.168 m S
0.85098 g
758.332 466.668 m 758.332 450.559 745.273 437.5 729.168 437.5 c 713.059
 437.5 700 450.559 700 466.668 c 700 482.773 713.059 495.832 729.168 495.832
 c 745.273 495.832 758.332 482.773 758.332 466.668 c h
758.332 466.668 m f
0 g
758.332 466.668 m 758.332 450.559 745.273 437.5 729.168 437.5 c 713.059
 437.5 700 450.559 700 466.668 c 700 482.773 713.059 495.832 729.168 495.832
 c 745.273 495.832 758.332 482.773 758.332 466.668 c h
758.332 466.668 m S
0.85098 g
845.832 320.832 m 845.832 304.727 832.773 291.668 816.668 291.668 c 800.559
 291.668 787.5 304.727 787.5 320.832 c 787.5 336.941 800.559 350 816.668
 350 c 832.773 350 845.832 336.941 845.832 320.832 c h
845.832 320.832 m f
0 g
845.832 320.832 m 845.832 304.727 832.773 291.668 816.668 291.668 c 800.559
 291.668 787.5 304.727 787.5 320.832 c 787.5 336.941 800.559 350 816.668
 350 c 832.773 350 845.832 336.941 845.832 320.832 c h
845.832 320.832 m S
0.85098 g
1050 233.332 m 1050 217.227 1036.941 204.168 1020.832 204.168 c 1004.727
 204.168 991.668 217.227 991.668 233.332 c 991.668 249.441 1004.727 262.5
 1020.832 262.5 c 1036.941 262.5 1050 249.441 1050 233.332 c h
1050 233.332 m f
0 g
1050 233.332 m 1050 217.227 1036.941 204.168 1020.832 204.168 c 1004.727
 204.168 991.668 217.227 991.668 233.332 c 991.668 249.441 1004.727 262.5
 1020.832 262.5 c 1036.941 262.5 1050 249.441 1050 233.332 c h
1050 233.332 m S
0.85098 g
962.5 29.168 m 962.5 13.059 949.441 0 933.332 0 c 917.227 0 904.168 13.059
 904.168 29.168 c 904.168 45.273 917.227 58.332 933.332 58.332 c 949.441
 58.332 962.5 45.273 962.5 29.168 c h
962.5 29.168 m f
0 g
962.5 29.168 m 962.5 13.059 949.441 0 933.332 0 c 917.227 0 904.168 13.059
 904.168 29.168 c 904.168 45.273 917.227 58.332 933.332 58.332 c 949.441
 58.332 962.5 45.273 962.5 29.168 c h
962.5 29.168 m S
0.85098 g
758.332 116.668 m 758.332 100.559 745.273 87.5 729.168 87.5 c 713.059 87.5
 700 100.559 700 116.668 c 700 132.773 713.059 145.832 729.168 145.832 c
 745.273 145.832 758.332 132.773 758.332 116.668 c h
758.332 116.668 m f
0 g
758.332 116.668 m 758.332 100.559 745.273 87.5 729.168 87.5 c 713.059 87.5
 700 100.559 700 116.668 c 700 132.773 713.059 145.832 729.168 145.832 c
 745.273 145.832 758.332 132.773 758.332 116.668 c h
758.332 116.668 m S
0.85098 g
1195.832 1720.832 m 1195.832 1704.727 1182.773 1691.668 1166.668 1691.668
 c 1150.559 1691.668 1137.5 1704.727 1137.5 1720.832 c 1137.5 1736.941 1150.559
 1750 1166.668 1750 c 1182.773 1750 1195.832 1736.941 1195.832 1720.832 
c h
1195.832 1720.832 m f
0 g
1195.832 1720.832 m 1195.832 1704.727 1182.773 1691.668 1166.668 1691.668
 c 1150.559 1691.668 1137.5 1704.727 1137.5 1720.832 c 1137.5 1736.941 1150.559
 1750 1166.668 1750 c 1182.773 1750 1195.832 1736.941 1195.832 1720.832 
c h
1195.832 1720.832 m S
0.85098 g
1400 1633.332 m 1400 1617.227 1386.941 1604.168 1370.832 1604.168 c 1354.727
 1604.168 1341.668 1617.227 1341.668 1633.332 c 1341.668 1649.441 1354.727
 1662.5 1370.832 1662.5 c 1386.941 1662.5 1400 1649.441 1400 1633.332 c 
h
1400 1633.332 m f
0 g
1400 1633.332 m 1400 1617.227 1386.941 1604.168 1370.832 1604.168 c 1354.727
 1604.168 1341.668 1617.227 1341.668 1633.332 c 1341.668 1649.441 1354.727
 1662.5 1370.832 1662.5 c 1386.941 1662.5 1400 1649.441 1400 1633.332 c 
h
1400 1633.332 m S
0.85098 g
1312.5 1429.168 m 1312.5 1413.059 1299.441 1400 1283.332 1400 c 1267.227
 1400 1254.168 1413.059 1254.168 1429.168 c 1254.168 1445.273 1267.227 1458.332
 1283.332 1458.332 c 1299.441 1458.332 1312.5 1445.273 1312.5 1429.168 c
 h
1312.5 1429.168 m f
0 g
1312.5 1429.168 m 1312.5 1413.059 1299.441 1400 1283.332 1400 c 1267.227
 1400 1254.168 1413.059 1254.168 1429.168 c 1254.168 1445.273 1267.227 1458.332
 1283.332 1458.332 c 1299.441 1458.332 1312.5 1445.273 1312.5 1429.168 c
 h
1312.5 1429.168 m S
0.85098 g
1108.332 1516.668 m 1108.332 1500.559 1095.273 1487.5 1079.168 1487.5 c
 1063.059 1487.5 1050 1500.559 1050 1516.668 c 1050 1532.773 1063.059 1545.832
 1079.168 1545.832 c 1095.273 1545.832 1108.332 1532.773 1108.332 1516.668
 c h
1108.332 1516.668 m f
0 g
1108.332 1516.668 m 1108.332 1500.559 1095.273 1487.5 1079.168 1487.5 c
 1063.059 1487.5 1050 1500.559 1050 1516.668 c 1050 1532.773 1063.059 1545.832
 1079.168 1545.832 c 1095.273 1545.832 1108.332 1532.773 1108.332 1516.668
 c h
1108.332 1516.668 m S
0.85098 g
1195.832 1370.832 m 1195.832 1354.727 1182.773 1341.668 1166.668 1341.668
 c 1150.559 1341.668 1137.5 1354.727 1137.5 1370.832 c 1137.5 1386.941 1150.559
 1400 1166.668 1400 c 1182.773 1400 1195.832 1386.941 1195.832 1370.832 
c h
1195.832 1370.832 m f
0 g
1195.832 1370.832 m 1195.832 1354.727 1182.773 1341.668 1166.668 1341.668
 c 1150.559 1341.668 1137.5 1354.727 1137.5 1370.832 c 1137.5 1386.941 1150.559
 1400 1166.668 1400 c 1182.773 1400 1195.832 1386.941 1195.832 1370.832 
c h
1195.832 1370.832 m S
0.85098 g
1400 1283.332 m 1400 1267.227 1386.941 1254.168 1370.832 1254.168 c 1354.727
 1254.168 1341.668 1267.227 1341.668 1283.332 c 1341.668 1299.441 1354.727
 1312.5 1370.832 1312.5 c 1386.941 1312.5 1400 1299.441 1400 1283.332 c 
h
1400 1283.332 m f
0 g
1400 1283.332 m 1400 1267.227 1386.941 1254.168 1370.832 1254.168 c 1354.727
 1254.168 1341.668 1267.227 1341.668 1283.332 c 1341.668 1299.441 1354.727
 1312.5 1370.832 1312.5 c 1386.941 1312.5 1400 1299.441 1400 1283.332 c 
h
1400 1283.332 m S
0.85098 g
1312.5 1079.168 m 1312.5 1063.059 1299.441 1050 1283.332 1050 c 1267.227
 1050 1254.168 1063.059 1254.168 1079.168 c 1254.168 1095.273 1267.227 1108.332
 1283.332 1108.332 c 1299.441 1108.332 1312.5 1095.273 1312.5 1079.168 c
 h
1312.5 1079.168 m f
0 g
1312.5 1079.168 m 1312.5 1063.059 1299.441 1050 1283.332 1050 c 1267.227
 1050 1254.168 1063.059 1254.168 1079.168 c 1254.168 1095.273 1267.227 1108.332
 1283.332 1108.332 c 1299.441 1108.332 1312.5 1095.273 1312.5 1079.168 c
 h
1312.5 1079.168 m S
0.85098 g
1108.332 1166.668 m 1108.332 1150.559 1095.273 1137.5 1079.168 1137.5 c
 1063.059 1137.5 1050 1150.559 1050 1166.668 c 1050 1182.773 1063.059 1195.832
 1079.168 1195.832 c 1095.273 1195.832 1108.332 1182.773 1108.332 1166.668
 c h
1108.332 1166.668 m f
0 g
1108.332 1166.668 m 1108.332 1150.559 1095.273 1137.5 1079.168 1137.5 c
 1063.059 1137.5 1050 1150.559 1050 1166.668 c 1050 1182.773 1063.059 1195.832
 1079.168 1195.832 c 1095.273 1195.832 1108.332 1182.773 1108.332 1166.668
 c h
1108.332 1166.668 m S
0.85098 g
1195.832 1020.832 m 1195.832 1004.727 1182.773 991.668 1166.668 991.668
 c 1150.559 991.668 1137.5 1004.727 1137.5 1020.832 c 1137.5 1036.941 1150.559
 1050 1166.668 1050 c 1182.773 1050 1195.832 1036.941 1195.832 1020.832 
c h
1195.832 1020.832 m f
0 g
1195.832 1020.832 m 1195.832 1004.727 1182.773 991.668 1166.668 991.668
 c 1150.559 991.668 1137.5 1004.727 1137.5 1020.832 c 1137.5 1036.941 1150.559
 1050 1166.668 1050 c 1182.773 1050 1195.832 1036.941 1195.832 1020.832 
c h
1195.832 1020.832 m S
0.85098 g
1400 933.332 m 1400 917.227 1386.941 904.168 1370.832 904.168 c 1354.727
 904.168 1341.668 917.227 1341.668 933.332 c 1341.668 949.441 1354.727 962.5
 1370.832 962.5 c 1386.941 962.5 1400 949.441 1400 933.332 c h
1400 933.332 m f
0 g
1400 933.332 m 1400 917.227 1386.941 904.168 1370.832 904.168 c 1354.727
 904.168 1341.668 917.227 1341.668 933.332 c 1341.668 949.441 1354.727 962.5
 1370.832 962.5 c 1386.941 962.5 1400 949.441 1400 933.332 c h
1400 933.332 m S
0.85098 g
1312.5 729.168 m 1312.5 713.059 1299.441 700 1283.332 700 c 1267.227 700
 1254.168 713.059 1254.168 729.168 c 1254.168 745.273 1267.227 758.332 1283.332
 758.332 c 1299.441 758.332 1312.5 745.273 1312.5 729.168 c h
1312.5 729.168 m f
0 g
1312.5 729.168 m 1312.5 713.059 1299.441 700 1283.332 700 c 1267.227 700
 1254.168 713.059 1254.168 729.168 c 1254.168 745.273 1267.227 758.332 1283.332
 758.332 c 1299.441 758.332 1312.5 745.273 1312.5 729.168 c h
1312.5 729.168 m S
0.85098 g
1108.332 816.668 m 1108.332 800.559 1095.273 787.5 1079.168 787.5 c 1063.059
 787.5 1050 800.559 1050 816.668 c 1050 832.773 1063.059 845.832 1079.168
 845.832 c 1095.273 845.832 1108.332 832.773 1108.332 816.668 c h
1108.332 816.668 m f
0 g
1108.332 816.668 m 1108.332 800.559 1095.273 787.5 1079.168 787.5 c 1063.059
 787.5 1050 800.559 1050 816.668 c 1050 832.773 1063.059 845.832 1079.168
 845.832 c 1095.273 845.832 1108.332 832.773 1108.332 816.668 c h
1108.332 816.668 m S
0.85098 g
1195.832 670.832 m 1195.832 654.727 1182.773 641.668 1166.668 641.668 c
 1150.559 641.668 1137.5 654.727 1137.5 670.832 c 1137.5 686.941 1150.559
 700 1166.668 700 c 1182.773 700 1195.832 686.941 1195.832 670.832 c h
1195.832 670.832 m f
0 g
1195.832 670.832 m 1195.832 654.727 1182.773 641.668 1166.668 641.668 c
 1150.559 641.668 1137.5 654.727 1137.5 670.832 c 1137.5 686.941 1150.559
 700 1166.668 700 c 1182.773 700 1195.832 686.941 1195.832 670.832 c h
1195.832 670.832 m S
0.85098 g
1400 583.332 m 1400 567.227 1386.941 554.168 1370.832 554.168 c 1354.727
 554.168 1341.668 567.227 1341.668 583.332 c 1341.668 599.441 1354.727 612.5
 1370.832 612.5 c 1386.941 612.5 1400 599.441 1400 583.332 c h
1400 583.332 m f
0 g
1400 583.332 m 1400 567.227 1386.941 554.168 1370.832 554.168 c 1354.727
 554.168 1341.668 567.227 1341.668 583.332 c 1341.668 599.441 1354.727 612.5
 1370.832 612.5 c 1386.941 612.5 1400 599.441 1400 583.332 c h
1400 583.332 m S
0.85098 g
1312.5 379.168 m 1312.5 363.059 1299.441 350 1283.332 350 c 1267.227 350
 1254.168 363.059 1254.168 379.168 c 1254.168 395.273 1267.227 408.332 1283.332
 408.332 c 1299.441 408.332 1312.5 395.273 1312.5 379.168 c h
1312.5 379.168 m f
0 g
1312.5 379.168 m 1312.5 363.059 1299.441 350 1283.332 350 c 1267.227 350
 1254.168 363.059 1254.168 379.168 c 1254.168 395.273 1267.227 408.332 1283.332
 408.332 c 1299.441 408.332 1312.5 395.273 1312.5 379.168 c h
1312.5 379.168 m S
0.85098 g
1108.332 466.668 m 1108.332 450.559 1095.273 437.5 1079.168 437.5 c 1063.059
 437.5 1050 450.559 1050 466.668 c 1050 482.773 1063.059 495.832 1079.168
 495.832 c 1095.273 495.832 1108.332 482.773 1108.332 466.668 c h
1108.332 466.668 m f
0 g
1108.332 466.668 m 1108.332 450.559 1095.273 437.5 1079.168 437.5 c 1063.059
 437.5 1050 450.559 1050 466.668 c 1050 482.773 1063.059 495.832 1079.168
 495.832 c 1095.273 495.832 1108.332 482.773 1108.332 466.668 c h
1108.332 466.668 m S
0.85098 g
1195.832 320.832 m 1195.832 304.727 1182.773 291.668 1166.668 291.668 c
 1150.559 291.668 1137.5 304.727 1137.5 320.832 c 1137.5 336.941 1150.559
 350 1166.668 350 c 1182.773 350 1195.832 336.941 1195.832 320.832 c h
1195.832 320.832 m f
0 g
1195.832 320.832 m 1195.832 304.727 1182.773 291.668 1166.668 291.668 c
 1150.559 291.668 1137.5 304.727 1137.5 320.832 c 1137.5 336.941 1150.559
 350 1166.668 350 c 1182.773 350 1195.832 336.941 1195.832 320.832 c h
1195.832 320.832 m S
0.85098 g
1400 233.332 m 1400 217.227 1386.941 204.168 1370.832 204.168 c 1354.727
 204.168 1341.668 217.227 1341.668 233.332 c 1341.668 249.441 1354.727 262.5
 1370.832 262.5 c 1386.941 262.5 1400 249.441 1400 233.332 c h
1400 233.332 m f
0 g
1400 233.332 m 1400 217.227 1386.941 204.168 1370.832 204.168 c 1354.727
 204.168 1341.668 217.227 1341.668 233.332 c 1341.668 249.441 1354.727 262.5
 1370.832 262.5 c 1386.941 262.5 1400 249.441 1400 233.332 c h
1400 233.332 m S
0.85098 g
1312.5 29.168 m 1312.5 13.059 1299.441 0 1283.332 0 c 1267.227 0 1254.168
 13.059 1254.168 29.168 c 1254.168 45.273 1267.227 58.332 1283.332 58.332
 c 1299.441 58.332 1312.5 45.273 1312.5 29.168 c h
1312.5 29.168 m f
0 g
1312.5 29.168 m 1312.5 13.059 1299.441 0 1283.332 0 c 1267.227 0 1254.168
 13.059 1254.168 29.168 c 1254.168 45.273 1267.227 58.332 1283.332 58.332
 c 1299.441 58.332 1312.5 45.273 1312.5 29.168 c h
1312.5 29.168 m S
0.85098 g
1108.332 116.668 m 1108.332 100.559 1095.273 87.5 1079.168 87.5 c 1063.059
 87.5 1050 100.559 1050 116.668 c 1050 132.773 1063.059 145.832 1079.168
 145.832 c 1095.273 145.832 1108.332 132.773 1108.332 116.668 c h
1108.332 116.668 m f
0 g
1108.332 116.668 m 1108.332 100.559 1095.273 87.5 1079.168 87.5 c 1063.059
 87.5 1050 100.559 1050 116.668 c 1050 132.773 1063.059 145.832 1079.168
 145.832 c 1095.273 145.832 1108.332 132.773 1108.332 116.668 c h
1108.332 116.668 m S
0.85098 g
1545.832 1720.832 m 1545.832 1704.727 1532.773 1691.668 1516.668 1691.668
 c 1500.559 1691.668 1487.5 1704.727 1487.5 1720.832 c 1487.5 1736.941 1500.559
 1750 1516.668 1750 c 1532.773 1750 1545.832 1736.941 1545.832 1720.832 
c h
1545.832 1720.832 m f
0 g
1545.832 1720.832 m 1545.832 1704.727 1532.773 1691.668 1516.668 1691.668
 c 1500.559 1691.668 1487.5 1704.727 1487.5 1720.832 c 1487.5 1736.941 1500.559
 1750 1516.668 1750 c 1532.773 1750 1545.832 1736.941 1545.832 1720.832 
c h
1545.832 1720.832 m S
0.85098 g
1750 1633.332 m 1750 1617.227 1736.941 1604.168 1720.832 1604.168 c 1704.727
 1604.168 1691.668 1617.227 1691.668 1633.332 c 1691.668 1649.441 1704.727
 1662.5 1720.832 1662.5 c 1736.941 1662.5 1750 1649.441 1750 1633.332 c 
h
1750 1633.332 m f
0 g
1750 1633.332 m 1750 1617.227 1736.941 1604.168 1720.832 1604.168 c 1704.727
 1604.168 1691.668 1617.227 1691.668 1633.332 c 1691.668 1649.441 1704.727
 1662.5 1720.832 1662.5 c 1736.941 1662.5 1750 1649.441 1750 1633.332 c 
h
1750 1633.332 m S
0.85098 g
1662.5 1429.168 m 1662.5 1413.059 1649.441 1400 1633.332 1400 c 1617.227
 1400 1604.168 1413.059 1604.168 1429.168 c 1604.168 1445.273 1617.227 1458.332
 1633.332 1458.332 c 1649.441 1458.332 1662.5 1445.273 1662.5 1429.168 c
 h
1662.5 1429.168 m f
0 g
1662.5 1429.168 m 1662.5 1413.059 1649.441 1400 1633.332 1400 c 1617.227
 1400 1604.168 1413.059 1604.168 1429.168 c 1604.168 1445.273 1617.227 1458.332
 1633.332 1458.332 c 1649.441 1458.332 1662.5 1445.273 1662.5 1429.168 c
 h
1662.5 1429.168 m S
0.85098 g
1458.332 1516.668 m 1458.332 1500.559 1445.273 1487.5 1429.168 1487.5 c
 1413.059 1487.5 1400 1500.559 1400 1516.668 c 1400 1532.773 1413.059 1545.832
 1429.168 1545.832 c 1445.273 1545.832 1458.332 1532.773 1458.332 1516.668
 c h
1458.332 1516.668 m f
0 g
1458.332 1516.668 m 1458.332 1500.559 1445.273 1487.5 1429.168 1487.5 c
 1413.059 1487.5 1400 1500.559 1400 1516.668 c 1400 1532.773 1413.059 1545.832
 1429.168 1545.832 c 1445.273 1545.832 1458.332 1532.773 1458.332 1516.668
 c h
1458.332 1516.668 m S
0.85098 g
1545.832 1370.832 m 1545.832 1354.727 1532.773 1341.668 1516.668 1341.668
 c 1500.559 1341.668 1487.5 1354.727 1487.5 1370.832 c 1487.5 1386.941 1500.559
 1400 1516.668 1400 c 1532.773 1400 1545.832 1386.941 1545.832 1370.832 
c h
1545.832 1370.832 m f
0 g
1545.832 1370.832 m 1545.832 1354.727 1532.773 1341.668 1516.668 1341.668
 c 1500.559 1341.668 1487.5 1354.727 1487.5 1370.832 c 1487.5 1386.941 1500.559
 1400 1516.668 1400 c 1532.773 1400 1545.832 1386.941 1545.832 1370.832 
c h
1545.832 1370.832 m S
0.85098 g
1750 1283.332 m 1750 1267.227 1736.941 1254.168 1720.832 1254.168 c 1704.727
 1254.168 1691.668 1267.227 1691.668 1283.332 c 1691.668 1299.441 1704.727
 1312.5 1720.832 1312.5 c 1736.941 1312.5 1750 1299.441 1750 1283.332 c 
h
1750 1283.332 m f
0 g
1750 1283.332 m 1750 1267.227 1736.941 1254.168 1720.832 1254.168 c 1704.727
 1254.168 1691.668 1267.227 1691.668 1283.332 c 1691.668 1299.441 1704.727
 1312.5 1720.832 1312.5 c 1736.941 1312.5 1750 1299.441 1750 1283.332 c 
h
1750 1283.332 m S
0.85098 g
1662.5 1079.168 m 1662.5 1063.059 1649.441 1050 1633.332 1050 c 1617.227
 1050 1604.168 1063.059 1604.168 1079.168 c 1604.168 1095.273 1617.227 1108.332
 1633.332 1108.332 c 1649.441 1108.332 1662.5 1095.273 1662.5 1079.168 c
 h
1662.5 1079.168 m f
0 g
1662.5 1079.168 m 1662.5 1063.059 1649.441 1050 1633.332 1050 c 1617.227
 1050 1604.168 1063.059 1604.168 1079.168 c 1604.168 1095.273 1617.227 1108.332
 1633.332 1108.332 c 1649.441 1108.332 1662.5 1095.273 1662.5 1079.168 c
 h
1662.5 1079.168 m S
0.85098 g
1458.332 1166.668 m 1458.332 1150.559 1445.273 1137.5 1429.168 1137.5 c
 1413.059 1137.5 1400 1150.559 1400 1166.668 c 1400 1182.773 1413.059 1195.832
 1429.168 1195.832 c 1445.273 1195.832 1458.332 1182.773 1458.332 1166.668
 c h
1458.332 1166.668 m f
0 g
1458.332 1166.668 m 1458.332 1150.559 1445.273 1137.5 1429.168 1137.5 c
 1413.059 1137.5 1400 1150.559 1400 1166.668 c 1400 1182.773 1413.059 1195.832
 1429.168 1195.832 c 1445.273 1195.832 1458.332 1182.773 1458.332 1166.668
 c h
1458.332 1166.668 m S
0.85098 g
1545.832 1020.832 m 1545.832 1004.727 1532.773 991.668 1516.668 991.668
 c 1500.559 991.668 1487.5 1004.727 1487.5 1020.832 c 1487.5 1036.941 1500.559
 1050 1516.668 1050 c 1532.773 1050 1545.832 1036.941 1545.832 1020.832 
c h
1545.832 1020.832 m f
0 g
1545.832 1020.832 m 1545.832 1004.727 1532.773 991.668 1516.668 991.668
 c 1500.559 991.668 1487.5 1004.727 1487.5 1020.832 c 1487.5 1036.941 1500.559
 1050 1516.668 1050 c 1532.773 1050 1545.832 1036.941 1545.832 1020.832 
c h
1545.832 1020.832 m S
0.85098 g
1750 933.332 m 1750 917.227 1736.941 904.168 1720.832 904.168 c 1704.727
 904.168 1691.668 917.227 1691.668 933.332 c 1691.668 949.441 1704.727 962.5
 1720.832 962.5 c 1736.941 962.5 1750 949.441 1750 933.332 c h
1750 933.332 m f
0 g
1750 933.332 m 1750 917.227 1736.941 904.168 1720.832 904.168 c 1704.727
 904.168 1691.668 917.227 1691.668 933.332 c 1691.668 949.441 1704.727 962.5
 1720.832 962.5 c 1736.941 962.5 1750 949.441 1750 933.332 c h
1750 933.332 m S
0.85098 g
1662.5 729.168 m 1662.5 713.059 1649.441 700 1633.332 700 c 1617.227 700
 1604.168 713.059 1604.168 729.168 c 1604.168 745.273 1617.227 758.332 1633.332
 758.332 c 1649.441 758.332 1662.5 745.273 1662.5 729.168 c h
1662.5 729.168 m f
0 g
1662.5 729.168 m 1662.5 713.059 1649.441 700 1633.332 700 c 1617.227 700
 1604.168 713.059 1604.168 729.168 c 1604.168 745.273 1617.227 758.332 1633.332
 758.332 c 1649.441 758.332 1662.5 745.273 1662.5 729.168 c h
1662.5 729.168 m S
0.85098 g
1458.332 816.668 m 1458.332 800.559 1445.273 787.5 1429.168 787.5 c 1413.059
 787.5 1400 800.559 1400 816.668 c 1400 832.773 1413.059 845.832 1429.168
 845.832 c 1445.273 845.832 1458.332 832.773 1458.332 816.668 c h
1458.332 816.668 m f
0 g
1458.332 816.668 m 1458.332 800.559 1445.273 787.5 1429.168 787.5 c 1413.059
 787.5 1400 800.559 1400 816.668 c 1400 832.773 1413.059 845.832 1429.168
 845.832 c 1445.273 845.832 1458.332 832.773 1458.332 816.668 c h
1458.332 816.668 m S
0.85098 g
1545.832 670.832 m 1545.832 654.727 1532.773 641.668 1516.668 641.668 c
 1500.559 641.668 1487.5 654.727 1487.5 670.832 c 1487.5 686.941 1500.559
 700 1516.668 700 c 1532.773 700 1545.832 686.941 1545.832 670.832 c h
1545.832 670.832 m f
0 g
1545.832 670.832 m 1545.832 654.727 1532.773 641.668 1516.668 641.668 c
 1500.559 641.668 1487.5 654.727 1487.5 670.832 c 1487.5 686.941 1500.559
 700 1516.668 700 c 1532.773 700 1545.832 686.941 1545.832 670.832 c h
1545.832 670.832 m S
0.85098 g
1750 583.332 m 1750 567.227 1736.941 554.168 1720.832 554.168 c 1704.727
 554.168 1691.668 567.227 1691.668 583.332 c 1691.668 599.441 1704.727 612.5
 1720.832 612.5 c 1736.941 612.5 1750 599.441 1750 583.332 c h
1750 583.332 m f
0 g
1750 583.332 m 1750 567.227 1736.941 554.168 1720.832 554.168 c 1704.727
 554.168 1691.668 567.227 1691.668 583.332 c 1691.668 599.441 1704.727 612.5
 1720.832 612.5 c 1736.941 612.5 1750 599.441 1750 583.332 c h
1750 583.332 m S
0.85098 g
1662.5 379.168 m 1662.5 363.059 1649.441 350 1633.332 350 c 1617.227 350
 1604.168 363.059 1604.168 379.168 c 1604.168 395.273 1617.227 408.332 1633.332
 408.332 c 1649.441 408.332 1662.5 395.273 1662.5 379.168 c h
1662.5 379.168 m f
0 g
1662.5 379.168 m 1662.5 363.059 1649.441 350 1633.332 350 c 1617.227 350
 1604.168 363.059 1604.168 379.168 c 1604.168 395.273 1617.227 408.332 1633.332
 408.332 c 1649.441 408.332 1662.5 395.273 1662.5 379.168 c h
1662.5 379.168 m S
0.85098 g
1458.332 466.668 m 1458.332 450.559 1445.273 437.5 1429.168 437.5 c 1413.059
 437.5 1400 450.559 1400 466.668 c 1400 482.773 1413.059 495.832 1429.168
 495.832 c 1445.273 495.832 1458.332 482.773 1458.332 466.668 c h
1458.332 466.668 m f
0 g
1458.332 466.668 m 1458.332 450.559 1445.273 437.5 1429.168 437.5 c 1413.059
 437.5 1400 450.559 1400 466.668 c 1400 482.773 1413.059 495.832 1429.168
 495.832 c 1445.273 495.832 1458.332 482.773 1458.332 466.668 c h
1458.332 466.668 m S
0.85098 g
1545.832 320.832 m 1545.832 304.727 1532.773 291.668 1516.668 291.668 c
 1500.559 291.668 1487.5 304.727 1487.5 320.832 c 1487.5 336.941 1500.559
 350 1516.668 350 c 1532.773 350 1545.832 336.941 1545.832 320.832 c h
1545.832 320.832 m f
0 g
1545.832 320.832 m 1545.832 304.727 1532.773 291.668 1516.668 291.668 c
 1500.559 291.668 1487.5 304.727 1487.5 320.832 c 1487.5 336.941 1500.559
 350 1516.668 350 c 1532.773 350 1545.832 336.941 1545.832 320.832 c h
1545.832 320.832 m S
0.85098 g
1750 233.332 m 1750 217.227 1736.941 204.168 1720.832 204.168 c 1704.727
 204.168 1691.668 217.227 1691.668 233.332 c 1691.668 249.441 1704.727 262.5
 1720.832 262.5 c 1736.941 262.5 1750 249.441 1750 233.332 c h
1750 233.332 m f
0 g
1750 233.332 m 1750 217.227 1736.941 204.168 1720.832 204.168 c 1704.727
 204.168 1691.668 217.227 1691.668 233.332 c 1691.668 249.441 1704.727 262.5
 1720.832 262.5 c 1736.941 262.5 1750 249.441 1750 233.332 c h
1750 233.332 m S
0.85098 g
1662.5 29.168 m 1662.5 13.059 1649.441 0 1633.332 0 c 1617.227 0 1604.168
 13.059 1604.168 29.168 c 1604.168 45.273 1617.227 58.332 1633.332 58.332
 c 1649.441 58.332 1662.5 45.273 1662.5 29.168 c h
1662.5 29.168 m f
0 g
1662.5 29.168 m 1662.5 13.059 1649.441 0 1633.332 0 c 1617.227 0 1604.168
 13.059 1604.168 29.168 c 1604.168 45.273 1617.227 58.332 1633.332 58.332
 c 1649.441 58.332 1662.5 45.273 1662.5 29.168 c h
1662.5 29.168 m S
0.85098 g
1458.332 116.668 m 1458.332 100.559 1445.273 87.5 1429.168 87.5 c 1413.059
 87.5 1400 100.559 1400 116.668 c 1400 132.773 1413.059 145.832 1429.168
 145.832 c 1445.273 145.832 1458.332 132.773 1458.332 116.668 c h
1458.332 116.668 m f
0 g
1458.332 116.668 m 1458.332 100.559 1445.273 87.5 1429.168 87.5 c 1413.059
 87.5 1400 100.559 1400 116.668 c 1400 132.773 1413.059 145.832 1429.168
 145.832 c 1445.273 145.832 1458.332 132.773 1458.332 116.668 c h
1458.332 116.668 m S
0.85098 g
1895.832 1720.832 m 1895.832 1704.727 1882.773 1691.668 1866.668 1691.668
 c 1850.559 1691.668 1837.5 1704.727 1837.5 1720.832 c 1837.5 1736.941 1850.559
 1750 1866.668 1750 c 1882.773 1750 1895.832 1736.941 1895.832 1720.832 
c h
1895.832 1720.832 m f
0 g
1895.832 1720.832 m 1895.832 1704.727 1882.773 1691.668 1866.668 1691.668
 c 1850.559 1691.668 1837.5 1704.727 1837.5 1720.832 c 1837.5 1736.941 1850.559
 1750 1866.668 1750 c 1882.773 1750 1895.832 1736.941 1895.832 1720.832 
c h
1895.832 1720.832 m S
0.85098 g
2100 1633.332 m 2100 1617.227 2086.941 1604.168 2070.832 1604.168 c 2054.727
 1604.168 2041.668 1617.227 2041.668 1633.332 c 2041.668 1649.441 2054.727
 1662.5 2070.832 1662.5 c 2086.941 1662.5 2100 1649.441 2100 1633.332 c 
h
2100 1633.332 m f
0 g
2100 1633.332 m 2100 1617.227 2086.941 1604.168 2070.832 1604.168 c 2054.727
 1604.168 2041.668 1617.227 2041.668 1633.332 c 2041.668 1649.441 2054.727
 1662.5 2070.832 1662.5 c 2086.941 1662.5 2100 1649.441 2100 1633.332 c 
h
2100 1633.332 m S
0.85098 g
2012.5 1429.168 m 2012.5 1413.059 1999.441 1400 1983.332 1400 c 1967.227
 1400 1954.168 1413.059 1954.168 1429.168 c 1954.168 1445.273 1967.227 1458.332
 1983.332 1458.332 c 1999.441 1458.332 2012.5 1445.273 2012.5 1429.168 c
 h
2012.5 1429.168 m f
0 g
2012.5 1429.168 m 2012.5 1413.059 1999.441 1400 1983.332 1400 c 1967.227
 1400 1954.168 1413.059 1954.168 1429.168 c 1954.168 1445.273 1967.227 1458.332
 1983.332 1458.332 c 1999.441 1458.332 2012.5 1445.273 2012.5 1429.168 c
 h
2012.5 1429.168 m S
0.85098 g
1808.332 1516.668 m 1808.332 1500.559 1795.273 1487.5 1779.168 1487.5 c
 1763.059 1487.5 1750 1500.559 1750 1516.668 c 1750 1532.773 1763.059 1545.832
 1779.168 1545.832 c 1795.273 1545.832 1808.332 1532.773 1808.332 1516.668
 c h
1808.332 1516.668 m f
0 g
1808.332 1516.668 m 1808.332 1500.559 1795.273 1487.5 1779.168 1487.5 c
 1763.059 1487.5 1750 1500.559 1750 1516.668 c 1750 1532.773 1763.059 1545.832
 1779.168 1545.832 c 1795.273 1545.832 1808.332 1532.773 1808.332 1516.668
 c h
1808.332 1516.668 m S
0.85098 g
1895.832 1370.832 m 1895.832 1354.727 1882.773 1341.668 1866.668 1341.668
 c 1850.559 1341.668 1837.5 1354.727 1837.5 1370.832 c 1837.5 1386.941 1850.559
 1400 1866.668 1400 c 1882.773 1400 1895.832 1386.941 1895.832 1370.832 
c h
1895.832 1370.832 m f
0 g
1895.832 1370.832 m 1895.832 1354.727 1882.773 1341.668 1866.668 1341.668
 c 1850.559 1341.668 1837.5 1354.727 1837.5 1370.832 c 1837.5 1386.941 1850.559
 1400 1866.668 1400 c 1882.773 1400 1895.832 1386.941 1895.832 1370.832 
c h
1895.832 1370.832 m S
0.85098 g
2100 1283.332 m 2100 1267.227 2086.941 1254.168 2070.832 1254.168 c 2054.727
 1254.168 2041.668 1267.227 2041.668 1283.332 c 2041.668 1299.441 2054.727
 1312.5 2070.832 1312.5 c 2086.941 1312.5 2100 1299.441 2100 1283.332 c 
h
2100 1283.332 m f
0 g
2100 1283.332 m 2100 1267.227 2086.941 1254.168 2070.832 1254.168 c 2054.727
 1254.168 2041.668 1267.227 2041.668 1283.332 c 2041.668 1299.441 2054.727
 1312.5 2070.832 1312.5 c 2086.941 1312.5 2100 1299.441 2100 1283.332 c 
h
2100 1283.332 m S
0.85098 g
2012.5 1079.168 m 2012.5 1063.059 1999.441 1050 1983.332 1050 c 1967.227
 1050 1954.168 1063.059 1954.168 1079.168 c 1954.168 1095.273 1967.227 1108.332
 1983.332 1108.332 c 1999.441 1108.332 2012.5 1095.273 2012.5 1079.168 c
 h
2012.5 1079.168 m f
0 g
2012.5 1079.168 m 2012.5 1063.059 1999.441 1050 1983.332 1050 c 1967.227
 1050 1954.168 1063.059 1954.168 1079.168 c 1954.168 1095.273 1967.227 1108.332
 1983.332 1108.332 c 1999.441 1108.332 2012.5 1095.273 2012.5 1079.168 c
 h
2012.5 1079.168 m S
0.85098 g
1808.332 1166.668 m 1808.332 1150.559 1795.273 1137.5 1779.168 1137.5 c
 1763.059 1137.5 1750 1150.559 1750 1166.668 c 1750 1182.773 1763.059 1195.832
 1779.168 1195.832 c 1795.273 1195.832 1808.332 1182.773 1808.332 1166.668
 c h
1808.332 1166.668 m f
0 g
1808.332 1166.668 m 1808.332 1150.559 1795.273 1137.5 1779.168 1137.5 c
 1763.059 1137.5 1750 1150.559 1750 1166.668 c 1750 1182.773 1763.059 1195.832
 1779.168 1195.832 c 1795.273 1195.832 1808.332 1182.773 1808.332 1166.668
 c h
1808.332 1166.668 m S
0.85098 g
1895.832 1020.832 m 1895.832 1004.727 1882.773 991.668 1866.668 991.668
 c 1850.559 991.668 1837.5 1004.727 1837.5 1020.832 c 1837.5 1036.941 1850.559
 1050 1866.668 1050 c 1882.773 1050 1895.832 1036.941 1895.832 1020.832 
c h
1895.832 1020.832 m f
0 g
1895.832 1020.832 m 1895.832 1004.727 1882.773 991.668 1866.668 991.668
 c 1850.559 991.668 1837.5 1004.727 1837.5 1020.832 c 1837.5 1036.941 1850.559
 1050 1866.668 1050 c 1882.773 1050 1895.832 1036.941 1895.832 1020.832 
c h
1895.832 1020.832 m S
0.85098 g
2100 933.332 m 2100 917.227 2086.941 904.168 2070.832 904.168 c 2054.727
 904.168 2041.668 917.227 2041.668 933.332 c 2041.668 949.441 2054.727 962.5
 2070.832 962.5 c 2086.941 962.5 2100 949.441 2100 933.332 c h
2100 933.332 m f
0 g
2100 933.332 m 2100 917.227 2086.941 904.168 2070.832 904.168 c 2054.727
 904.168 2041.668 917.227 2041.668 933.332 c 2041.668 949.441 2054.727 962.5
 2070.832 962.5 c 2086.941 962.5 2100 949.441 2100 933.332 c h
2100 933.332 m S
0.85098 g
2012.5 729.168 m 2012.5 713.059 1999.441 700 1983.332 700 c 1967.227 700
 1954.168 713.059 1954.168 729.168 c 1954.168 745.273 1967.227 758.332 1983.332
 758.332 c 1999.441 758.332 2012.5 745.273 2012.5 729.168 c h
2012.5 729.168 m f
0 g
2012.5 729.168 m 2012.5 713.059 1999.441 700 1983.332 700 c 1967.227 700
 1954.168 713.059 1954.168 729.168 c 1954.168 745.273 1967.227 758.332 1983.332
 758.332 c 1999.441 758.332 2012.5 745.273 2012.5 729.168 c h
2012.5 729.168 m S
0.85098 g
1808.332 816.668 m 1808.332 800.559 1795.273 787.5 1779.168 787.5 c 1763.059
 787.5 1750 800.559 1750 816.668 c 1750 832.773 1763.059 845.832 1779.168
 845.832 c 1795.273 845.832 1808.332 832.773 1808.332 816.668 c h
1808.332 816.668 m f
0 g
1808.332 816.668 m 1808.332 800.559 1795.273 787.5 1779.168 787.5 c 1763.059
 787.5 1750 800.559 1750 816.668 c 1750 832.773 1763.059 845.832 1779.168
 845.832 c 1795.273 845.832 1808.332 832.773 1808.332 816.668 c h
1808.332 816.668 m S
0.85098 g
1895.832 670.832 m 1895.832 654.727 1882.773 641.668 1866.668 641.668 c
 1850.559 641.668 1837.5 654.727 1837.5 670.832 c 1837.5 686.941 1850.559
 700 1866.668 700 c 1882.773 700 1895.832 686.941 1895.832 670.832 c h
1895.832 670.832 m f
0 g
1895.832 670.832 m 1895.832 654.727 1882.773 641.668 1866.668 641.668 c
 1850.559 641.668 1837.5 654.727 1837.5 670.832 c 1837.5 686.941 1850.559
 700 1866.668 700 c 1882.773 700 1895.832 686.941 1895.832 670.832 c h
1895.832 670.832 m S
0.85098 g
2100 583.332 m 2100 567.227 2086.941 554.168 2070.832 554.168 c 2054.727
 554.168 2041.668 567.227 2041.668 583.332 c 2041.668 599.441 2054.727 612.5
 2070.832 612.5 c 2086.941 612.5 2100 599.441 2100 583.332 c h
2100 583.332 m f
0 g
2100 583.332 m 2100 567.227 2086.941 554.168 2070.832 554.168 c 2054.727
 554.168 2041.668 567.227 2041.668 583.332 c 2041.668 599.441 2054.727 612.5
 2070.832 612.5 c 2086.941 612.5 2100 599.441 2100 583.332 c h
2100 583.332 m S
0.85098 g
2012.5 379.168 m 2012.5 363.059 1999.441 350 1983.332 350 c 1967.227 350
 1954.168 363.059 1954.168 379.168 c 1954.168 395.273 1967.227 408.332 1983.332
 408.332 c 1999.441 408.332 2012.5 395.273 2012.5 379.168 c h
2012.5 379.168 m f
0 g
2012.5 379.168 m 2012.5 363.059 1999.441 350 1983.332 350 c 1967.227 350
 1954.168 363.059 1954.168 379.168 c 1954.168 395.273 1967.227 408.332 1983.332
 408.332 c 1999.441 408.332 2012.5 395.273 2012.5 379.168 c h
2012.5 379.168 m S
0.85098 g
1808.332 466.668 m 1808.332 450.559 1795.273 437.5 1779.168 437.5 c 1763.059
 437.5 1750 450.559 1750 466.668 c 1750 482.773 1763.059 495.832 1779.168
 495.832 c 1795.273 495.832 1808.332 482.773 1808.332 466.668 c h
1808.332 466.668 m f
0 g
1808.332 466.668 m 1808.332 450.559 1795.273 437.5 1779.168 437.5 c 1763.059
 437.5 1750 450.559 1750 466.668 c 1750 482.773 1763.059 495.832 1779.168
 495.832 c 1795.273 495.832 1808.332 482.773 1808.332 466.668 c h
1808.332 466.668 m S
0.85098 g
1895.832 320.832 m 1895.832 304.727 1882.773 291.668 1866.668 291.668 c
 1850.559 291.668 1837.5 304.727 1837.5 320.832 c 1837.5 336.941 1850.559
 350 1866.668 350 c 1882.773 350 1895.832 336.941 1895.832 320.832 c h
1895.832 320.832 m f
0 g
1895.832 320.832 m 1895.832 304.727 1882.773 291.668 1866.668 291.668 c
 1850.559 291.668 1837.5 304.727 1837.5 320.832 c 1837.5 336.941 1850.559
 350 1866.668 350 c 1882.773 350 1895.832 336.941 1895.832 320.832 c h
1895.832 320.832 m S
0.85098 g
2100 233.332 m 2100 217.227 2086.941 204.168 2070.832 204.168 c 2054.727
 204.168 2041.668 217.227 2041.668 233.332 c 2041.668 249.441 2054.727 262.5
 2070.832 262.5 c 2086.941 262.5 2100 249.441 2100 233.332 c h
2100 233.332 m f
0 g
2100 233.332 m 2100 217.227 2086.941 204.168 2070.832 204.168 c 2054.727
 204.168 2041.668 217.227 2041.668 233.332 c 2041.668 249.441 2054.727 262.5
 2070.832 262.5 c 2086.941 262.5 2100 249.441 2100 233.332 c h
2100 233.332 m S
0.85098 g
2012.5 29.168 m 2012.5 13.059 1999.441 0 1983.332 0 c 1967.227 0 1954.168
 13.059 1954.168 29.168 c 1954.168 45.273 1967.227 58.332 1983.332 58.332
 c 1999.441 58.332 2012.5 45.273 2012.5 29.168 c h
2012.5 29.168 m f
0 g
2012.5 29.168 m 2012.5 13.059 1999.441 0 1983.332 0 c 1967.227 0 1954.168
 13.059 1954.168 29.168 c 1954.168 45.273 1967.227 58.332 1983.332 58.332
 c 1999.441 58.332 2012.5 45.273 2012.5 29.168 c h
2012.5 29.168 m S
0.85098 g
1808.332 116.668 m 1808.332 100.559 1795.273 87.5 1779.168 87.5 c 1763.059
 87.5 1750 100.559 1750 116.668 c 1750 132.773 1763.059 145.832 1779.168
 145.832 c 1795.273 145.832 1808.332 132.773 1808.332 116.668 c h
1808.332 116.668 m f
0 g
1808.332 116.668 m 1808.332 100.559 1795.273 87.5 1779.168 87.5 c 1763.059
 87.5 1750 100.559 1750 116.668 c 1750 132.773 1763.059 145.832 1779.168
 145.832 c 1795.273 145.832 1808.332 132.773 1808.332 116.668 c h
1808.332 116.668 m S
0.85098 g
2245.832 1720.832 m 2245.832 1704.727 2232.773 1691.668 2216.668 1691.668
 c 2200.559 1691.668 2187.5 1704.727 2187.5 1720.832 c 2187.5 1736.941 2200.559
 1750 2216.668 1750 c 2232.773 1750 2245.832 1736.941 2245.832 1720.832 
c h
2245.832 1720.832 m f
0 g
2245.832 1720.832 m 2245.832 1704.727 2232.773 1691.668 2216.668 1691.668
 c 2200.559 1691.668 2187.5 1704.727 2187.5 1720.832 c 2187.5 1736.941 2200.559
 1750 2216.668 1750 c 2232.773 1750 2245.832 1736.941 2245.832 1720.832 
c h
2245.832 1720.832 m S
0.85098 g
2450 1633.332 m 2450 1617.227 2436.941 1604.168 2420.832 1604.168 c 2404.727
 1604.168 2391.668 1617.227 2391.668 1633.332 c 2391.668 1649.441 2404.727
 1662.5 2420.832 1662.5 c 2436.941 1662.5 2450 1649.441 2450 1633.332 c 
h
2450 1633.332 m f
0 g
2450 1633.332 m 2450 1617.227 2436.941 1604.168 2420.832 1604.168 c 2404.727
 1604.168 2391.668 1617.227 2391.668 1633.332 c 2391.668 1649.441 2404.727
 1662.5 2420.832 1662.5 c 2436.941 1662.5 2450 1649.441 2450 1633.332 c 
h
2450 1633.332 m S
0.85098 g
2362.5 1429.168 m 2362.5 1413.059 2349.441 1400 2333.332 1400 c 2317.227
 1400 2304.168 1413.059 2304.168 1429.168 c 2304.168 1445.273 2317.227 1458.332
 2333.332 1458.332 c 2349.441 1458.332 2362.5 1445.273 2362.5 1429.168 c
 h
2362.5 1429.168 m f
0 g
2362.5 1429.168 m 2362.5 1413.059 2349.441 1400 2333.332 1400 c 2317.227
 1400 2304.168 1413.059 2304.168 1429.168 c 2304.168 1445.273 2317.227 1458.332
 2333.332 1458.332 c 2349.441 1458.332 2362.5 1445.273 2362.5 1429.168 c
 h
2362.5 1429.168 m S
0.85098 g
2158.332 1516.668 m 2158.332 1500.559 2145.273 1487.5 2129.168 1487.5 c
 2113.059 1487.5 2100 1500.559 2100 1516.668 c 2100 1532.773 2113.059 1545.832
 2129.168 1545.832 c 2145.273 1545.832 2158.332 1532.773 2158.332 1516.668
 c h
2158.332 1516.668 m f
0 g
2158.332 1516.668 m 2158.332 1500.559 2145.273 1487.5 2129.168 1487.5 c
 2113.059 1487.5 2100 1500.559 2100 1516.668 c 2100 1532.773 2113.059 1545.832
 2129.168 1545.832 c 2145.273 1545.832 2158.332 1532.773 2158.332 1516.668
 c h
2158.332 1516.668 m S
0.85098 g
2245.832 1370.832 m 2245.832 1354.727 2232.773 1341.668 2216.668 1341.668
 c 2200.559 1341.668 2187.5 1354.727 2187.5 1370.832 c 2187.5 1386.941 2200.559
 1400 2216.668 1400 c 2232.773 1400 2245.832 1386.941 2245.832 1370.832 
c h
2245.832 1370.832 m f
0 g
2245.832 1370.832 m 2245.832 1354.727 2232.773 1341.668 2216.668 1341.668
 c 2200.559 1341.668 2187.5 1354.727 2187.5 1370.832 c 2187.5 1386.941 2200.559
 1400 2216.668 1400 c 2232.773 1400 2245.832 1386.941 2245.832 1370.832 
c h
2245.832 1370.832 m S
0.85098 g
2450 1283.332 m 2450 1267.227 2436.941 1254.168 2420.832 1254.168 c 2404.727
 1254.168 2391.668 1267.227 2391.668 1283.332 c 2391.668 1299.441 2404.727
 1312.5 2420.832 1312.5 c 2436.941 1312.5 2450 1299.441 2450 1283.332 c 
h
2450 1283.332 m f
0 g
2450 1283.332 m 2450 1267.227 2436.941 1254.168 2420.832 1254.168 c 2404.727
 1254.168 2391.668 1267.227 2391.668 1283.332 c 2391.668 1299.441 2404.727
 1312.5 2420.832 1312.5 c 2436.941 1312.5 2450 1299.441 2450 1283.332 c 
h
2450 1283.332 m S
0.85098 g
2362.5 1079.168 m 2362.5 1063.059 2349.441 1050 2333.332 1050 c 2317.227
 1050 2304.168 1063.059 2304.168 1079.168 c 2304.168 1095.273 2317.227 1108.332
 2333.332 1108.332 c 2349.441 1108.332 2362.5 1095.273 2362.5 1079.168 c
 h
2362.5 1079.168 m f
0 g
2362.5 1079.168 m 2362.5 1063.059 2349.441 1050 2333.332 1050 c 2317.227
 1050 2304.168 1063.059 2304.168 1079.168 c 2304.168 1095.273 2317.227 1108.332
 2333.332 1108.332 c 2349.441 1108.332 2362.5 1095.273 2362.5 1079.168 c
 h
2362.5 1079.168 m S
0.85098 g
2158.332 1166.668 m 2158.332 1150.559 2145.273 1137.5 2129.168 1137.5 c
 2113.059 1137.5 2100 1150.559 2100 1166.668 c 2100 1182.773 2113.059 1195.832
 2129.168 1195.832 c 2145.273 1195.832 2158.332 1182.773 2158.332 1166.668
 c h
2158.332 1166.668 m f
0 g
2158.332 1166.668 m 2158.332 1150.559 2145.273 1137.5 2129.168 1137.5 c
 2113.059 1137.5 2100 1150.559 2100 1166.668 c 2100 1182.773 2113.059 1195.832
 2129.168 1195.832 c 2145.273 1195.832 2158.332 1182.773 2158.332 1166.668
 c h
2158.332 1166.668 m S
0.85098 g
2245.832 1020.832 m 2245.832 1004.727 2232.773 991.668 2216.668 991.668
 c 2200.559 991.668 2187.5 1004.727 2187.5 1020.832 c 2187.5 1036.941 2200.559
 1050 2216.668 1050 c 2232.773 1050 2245.832 1036.941 2245.832 1020.832 
c h
2245.832 1020.832 m f
0 g
2245.832 1020.832 m 2245.832 1004.727 2232.773 991.668 2216.668 991.668
 c 2200.559 991.668 2187.5 1004.727 2187.5 1020.832 c 2187.5 1036.941 2200.559
 1050 2216.668 1050 c 2232.773 1050 2245.832 1036.941 2245.832 1020.832 
c h
2245.832 1020.832 m S
0.85098 g
2450 933.332 m 2450 917.227 2436.941 904.168 2420.832 904.168 c 2404.727
 904.168 2391.668 917.227 2391.668 933.332 c 2391.668 949.441 2404.727 962.5
 2420.832 962.5 c 2436.941 962.5 2450 949.441 2450 933.332 c h
2450 933.332 m f
0 g
2450 933.332 m 2450 917.227 2436.941 904.168 2420.832 904.168 c 2404.727
 904.168 2391.668 917.227 2391.668 933.332 c 2391.668 949.441 2404.727 962.5
 2420.832 962.5 c 2436.941 962.5 2450 949.441 2450 933.332 c h
2450 933.332 m S
0.85098 g
2362.5 729.168 m 2362.5 713.059 2349.441 700 2333.332 700 c 2317.227 700
 2304.168 713.059 2304.168 729.168 c 2304.168 745.273 2317.227 758.332 2333.332
 758.332 c 2349.441 758.332 2362.5 745.273 2362.5 729.168 c h
2362.5 729.168 m f
0 g
2362.5 729.168 m 2362.5 713.059 2349.441 700 2333.332 700 c 2317.227 700
 2304.168 713.059 2304.168 729.168 c 2304.168 745.273 2317.227 758.332 2333.332
 758.332 c 2349.441 758.332 2362.5 745.273 2362.5 729.168 c h
2362.5 729.168 m S
0.85098 g
2158.332 816.668 m 2158.332 800.559 2145.273 787.5 2129.168 787.5 c 2113.059
 787.5 2100 800.559 2100 816.668 c 2100 832.773 2113.059 845.832 2129.168
 845.832 c 2145.273 845.832 2158.332 832.773 2158.332 816.668 c h
2158.332 816.668 m f
0 g
2158.332 816.668 m 2158.332 800.559 2145.273 787.5 2129.168 787.5 c 2113.059
 787.5 2100 800.559 2100 816.668 c 2100 832.773 2113.059 845.832 2129.168
 845.832 c 2145.273 845.832 2158.332 832.773 2158.332 816.668 c h
2158.332 816.668 m S
0.85098 g
2245.832 670.832 m 2245.832 654.727 2232.773 641.668 2216.668 641.668 c
 2200.559 641.668 2187.5 654.727 2187.5 670.832 c 2187.5 686.941 2200.559
 700 2216.668 700 c 2232.773 700 2245.832 686.941 2245.832 670.832 c h
2245.832 670.832 m f
0 g
2245.832 670.832 m 2245.832 654.727 2232.773 641.668 2216.668 641.668 c
 2200.559 641.668 2187.5 654.727 2187.5 670.832 c 2187.5 686.941 2200.559
 700 2216.668 700 c 2232.773 700 2245.832 686.941 2245.832 670.832 c h
2245.832 670.832 m S
0.85098 g
2450 583.332 m 2450 567.227 2436.941 554.168 2420.832 554.168 c 2404.727
 554.168 2391.668 567.227 2391.668 583.332 c 2391.668 599.441 2404.727 612.5
 2420.832 612.5 c 2436.941 612.5 2450 599.441 2450 583.332 c h
2450 583.332 m f
0 g
2450 583.332 m 2450 567.227 2436.941 554.168 2420.832 554.168 c 2404.727
 554.168 2391.668 567.227 2391.668 583.332 c 2391.668 599.441 2404.727 612.5
 2420.832 612.5 c 2436.941 612.5 2450 599.441 2450 583.332 c h
2450 583.332 m S
0.85098 g
2362.5 379.168 m 2362.5 363.059 2349.441 350 2333.332 350 c 2317.227 350
 2304.168 363.059 2304.168 379.168 c 2304.168 395.273 2317.227 408.332 2333.332
 408.332 c 2349.441 408.332 2362.5 395.273 2362.5 379.168 c h
2362.5 379.168 m f
0 g
2362.5 379.168 m 2362.5 363.059 2349.441 350 2333.332 350 c 2317.227 350
 2304.168 363.059 2304.168 379.168 c 2304.168 395.273 2317.227 408.332 2333.332
 408.332 c 2349.441 408.332 2362.5 395.273 2362.5 379.168 c h
2362.5 379.168 m S
0.85098 g
2158.332 466.668 m 2158.332 450.559 2145.273 437.5 2129.168 437.5 c 2113.059
 437.5 2100 450.559 2100 466.668 c 2100 482.773 2113.059 495.832 2129.168
 495.832 c 2145.273 495.832 2158.332 482.773 2158.332 466.668 c h
2158.332 466.668 m f
0 g
2158.332 466.668 m 2158.332 450.559 2145.273 437.5 2129.168 437.5 c 2113.059
 437.5 2100 450.559 2100 466.668 c 2100 482.773 2113.059 495.832 2129.168
 495.832 c 2145.273 495.832 2158.332 482.773 2158.332 466.668 c h
2158.332 466.668 m S
0.85098 g
2245.832 320.832 m 2245.832 304.727 2232.773 291.668 2216.668 291.668 c
 2200.559 291.668 2187.5 304.727 2187.5 320.832 c 2187.5 336.941 2200.559
 350 2216.668 350 c 2232.773 350 2245.832 336.941 2245.832 320.832 c h
2245.832 320.832 m f
0 g
2245.832 320.832 m 2245.832 304.727 2232.773 291.668 2216.668 291.668 c
 2200.559 291.668 2187.5 304.727 2187.5 320.832 c 2187.5 336.941 2200.559
 350 2216.668 350 c 2232.773 350 2245.832 336.941 2245.832 320.832 c h
2245.832 320.832 m S
0.85098 g
2450 233.332 m 2450 217.227 2436.941 204.168 2420.832 204.168 c 2404.727
 204.168 2391.668 217.227 2391.668 233.332 c 2391.668 249.441 2404.727 262.5
 2420.832 262.5 c 2436.941 262.5 2450 249.441 2450 233.332 c h
2450 233.332 m f
0 g
2450 233.332 m 2450 217.227 2436.941 204.168 2420.832 204.168 c 2404.727
 204.168 2391.668 217.227 2391.668 233.332 c 2391.668 249.441 2404.727 262.5
 2420.832 262.5 c 2436.941 262.5 2450 249.441 2450 233.332 c h
2450 233.332 m S
0.85098 g
2362.5 29.168 m 2362.5 13.059 2349.441 0 2333.332 0 c 2317.227 0 2304.168
 13.059 2304.168 29.168 c 2304.168 45.273 2317.227 58.332 2333.332 58.332
 c 2349.441 58.332 2362.5 45.273 2362.5 29.168 c h
2362.5 29.168 m f
0 g
2362.5 29.168 m 2362.5 13.059 2349.441 0 2333.332 0 c 2317.227 0 2304.168
 13.059 2304.168 29.168 c 2304.168 45.273 2317.227 58.332 2333.332 58.332
 c 2349.441 58.332 2362.5 45.273 2362.5 29.168 c h
2362.5 29.168 m S
0.85098 g
2158.332 116.668 m 2158.332 100.559 2145.273 87.5 2129.168 87.5 c 2113.059
 87.5 2100 100.559 2100 116.668 c 2100 132.773 2113.059 145.832 2129.168
 145.832 c 2145.273 145.832 2158.332 132.773 2158.332 116.668 c h
2158.332 116.668 m f
0 g
2158.332 116.668 m 2158.332 100.559 2145.273 87.5 2129.168 87.5 c 2113.059
 87.5 2100 100.559 2100 116.668 c 2100 132.773 2113.059 145.832 2129.168
 145.832 c 2145.273 145.832 2158.332 132.773 2158.332 116.668 c h
2158.332 116.668 m S
Q Q
showpage
%%Trailer
%%Trailer
cleartomark
countdictstack
exch sub { end } repeat
restore
%%EOF
