%!PS-Adobe-2.0 EPSF-2.0
%%BoundingBox: 0 0 2450 1750
%%HiResBoundingBox: 0.000000 0.000000 2450.000000 1750.000000
%%Creator: cairo 1.14.2 (http://cairographics.org)
%%CreationDate: Mon Sep  7 08:21:57 2015
%%DocumentData: Clean7Bit
%%LanguageLevel: 2
%%DocumentMedia: 864x617mm 2450 1750 0 () ()
%%EndComments
% EPSF created by ps2eps 1.68
%%BeginProlog
save
countdictstack
mark
newpath
/showpage {} def
/setpagedevice {pop} def
%%EndProlog
%%Page 1 1
%%BeginProlog
/languagelevel where
{ pop languagelevel } { 1 } ifelse
2 lt { /Helvetica findfont 12 scalefont setfont 50 500 moveto
  (This print job requires a PostScript Language Level 2 printer.) show
  showpage quit } if
/q { gsave } bind def
/Q { grestore } bind def
/cm { 6 array astore concat } bind def
/w { setlinewidth } bind def
/J { setlinecap } bind def
/j { setlinejoin } bind def
/M { setmiterlimit } bind def
/d { setdash } bind def
/m { moveto } bind def
/l { lineto } bind def
/c { curveto } bind def
/h { closepath } bind def
/re { exch dup neg 3 1 roll 5 3 roll moveto 0 rlineto
      0 exch rlineto 0 rlineto closepath } bind def
/S { stroke } bind def
/f { fill } bind def
/f* { eofill } bind def
/n { newpath } bind def
/W { clip } bind def
/W* { eoclip } bind def
/BT { } bind def
/ET { } bind def
/pdfmark where { pop globaldict /?pdfmark /exec load put }
    { globaldict begin /?pdfmark /pop load def /pdfmark
    /cleartomark load def end } ifelse
/BDC { mark 3 1 roll /BDC pdfmark } bind def
/EMC { mark /EMC pdfmark } bind def
/cairo_store_point { /cairo_point_y exch def /cairo_point_x exch def } def
/Tj { show currentpoint cairo_store_point } bind def
/TJ {
  {
    dup
    type /stringtype eq
    { show } { -0.001 mul 0 cairo_font_matrix dtransform rmoveto } ifelse
  } forall
  currentpoint cairo_store_point
} bind def
/cairo_selectfont { cairo_font_matrix aload pop pop pop 0 0 6 array astore
    cairo_font exch selectfont cairo_point_x cairo_point_y moveto } bind def
/Tf { pop /cairo_font exch def /cairo_font_matrix where
      { pop cairo_selectfont } if } bind def
/Td { matrix translate cairo_font_matrix matrix concatmatrix dup
      /cairo_font_matrix exch def dup 4 get exch 5 get cairo_store_point
      /cairo_font where { pop cairo_selectfont } if } bind def
/Tm { 2 copy 8 2 roll 6 array astore /cairo_font_matrix exch def
      cairo_store_point /cairo_font where { pop cairo_selectfont } if } bind def
/g { setgray } bind def
/rg { setrgbcolor } bind def
/d1 { setcachedevice } bind def
/cairo_set_page_size {
  % Change paper size, but only if different from previous paper size otherwise
  % duplex fails. PLRM specifies a tolerance of 5 pts when matching paper size
  % so we use the same when checking if the size changes.
  /setpagedevice where {
    pop currentpagedevice
    /PageSize known {
      2 copy
      currentpagedevice /PageSize get aload pop
      exch 4 1 roll
      sub abs 5 gt
      3 1 roll
      sub abs 5 gt
      or
    } {
      true
    } ifelse
    {
      2 array astore
      2 dict begin
        /PageSize exch def
        /ImagingBBox null def
      currentdict end
      setpagedevice
    } {
      pop pop
    } ifelse
  } {
    pop
  } ifelse
} def
%%EndProlog
%%BeginSetup
%%EndSetup
%%Page: 1 1
%%BeginPageSetup
%%PageMedia: 864x617mm
%%PageBoundingBox: 0 0 2450 1750
2450 1750 cairo_set_page_size
%%EndPageSetup
q 0 0 2450 1750 rectclip q
0.984314 g
0 0 2450 1750 rectfill
0.788235 g
1.875 w
0 J
1 j
[] 0.0 d
4 M 0 1750 2450 -1750 re S
0 g
2.5 w
1 J
87.5 1750 m 87.5 1662.5 l S
350 1662.5 m 262.5 1662.5 l S
262.5 1400 m 262.5 1487.5 l S
0 1487.5 m 87.5 1487.5 l S
350 1487.5 m 262.5 1487.5 l S
0 1662.5 m 87.5 1662.5 l S
87.5 1400 m 87.5 1487.5 l S
262.5 1750 m 262.5 1662.5 l S
87.5 1400 m 87.5 1312.5 l S
350 1312.5 m 262.5 1312.5 l S
262.5 1050 m 262.5 1137.5 l S
0 1137.5 m 87.5 1137.5 l S
350 1137.5 m 262.5 1137.5 l S
0 1312.5 m 87.5 1312.5 l S
87.5 1050 m 87.5 1137.5 l S
262.5 1400 m 262.5 1312.5 l S
87.5 1050 m 87.5 962.5 l S
350 962.5 m 262.5 962.5 l S
262.5 700 m 262.5 787.5 l S
0 787.5 m 87.5 787.5 l S
350 787.5 m 262.5 787.5 l S
0 962.5 m 87.5 962.5 l S
87.5 700 m 87.5 787.5 l S
262.5 1050 m 262.5 962.5 l S
87.5 700 m 87.5 612.5 l S
350 612.5 m 262.5 612.5 l S
262.5 350 m 262.5 437.5 l S
0 437.5 m 87.5 437.5 l S
350 437.5 m 262.5 437.5 l S
0 612.5 m 87.5 612.5 l S
87.5 350 m 87.5 437.5 l S
262.5 700 m 262.5 612.5 l S
87.5 350 m 87.5 262.5 l S
350 262.5 m 262.5 262.5 l S
262.5 0 m 262.5 87.5 l S
0 87.5 m 87.5 87.5 l S
350 87.5 m 262.5 87.5 l S
0 262.5 m 87.5 262.5 l S
87.5 0 m 87.5 87.5 l S
262.5 350 m 262.5 262.5 l S
437.5 1750 m 437.5 1662.5 l S
700 1662.5 m 612.5 1662.5 l S
612.5 1400 m 612.5 1487.5 l S
350 1487.5 m 437.5 1487.5 l S
700 1487.5 m 612.5 1487.5 l S
350 1662.5 m 437.5 1662.5 l S
437.5 1400 m 437.5 1487.5 l S
612.5 1750 m 612.5 1662.5 l S
437.5 1400 m 437.5 1312.5 l S
700 1312.5 m 612.5 1312.5 l S
612.5 1050 m 612.5 1137.5 l S
350 1137.5 m 437.5 1137.5 l S
700 1137.5 m 612.5 1137.5 l S
350 1312.5 m 437.5 1312.5 l S
437.5 1050 m 437.5 1137.5 l S
612.5 1400 m 612.5 1312.5 l S
437.5 1050 m 437.5 962.5 l S
700 962.5 m 612.5 962.5 l S
612.5 700 m 612.5 787.5 l S
350 787.5 m 437.5 787.5 l S
700 787.5 m 612.5 787.5 l S
350 962.5 m 437.5 962.5 l S
437.5 700 m 437.5 787.5 l S
612.5 1050 m 612.5 962.5 l S
437.5 700 m 437.5 612.5 l S
700 612.5 m 612.5 612.5 l S
612.5 350 m 612.5 437.5 l S
350 437.5 m 437.5 437.5 l S
700 437.5 m 612.5 437.5 l S
350 612.5 m 437.5 612.5 l S
437.5 350 m 437.5 437.5 l S
612.5 700 m 612.5 612.5 l S
437.5 350 m 437.5 262.5 l S
700 262.5 m 612.5 262.5 l S
612.5 0 m 612.5 87.5 l S
350 87.5 m 437.5 87.5 l S
700 87.5 m 612.5 87.5 l S
350 262.5 m 437.5 262.5 l S
437.5 0 m 437.5 87.5 l S
612.5 350 m 612.5 262.5 l S
787.5 1750 m 787.5 1662.5 l S
1050 1662.5 m 962.5 1662.5 l S
962.5 1400 m 962.5 1487.5 l S
700 1487.5 m 787.5 1487.5 l S
1050 1487.5 m 962.5 1487.5 l S
700 1662.5 m 787.5 1662.5 l S
787.5 1400 m 787.5 1487.5 l S
962.5 1750 m 962.5 1662.5 l S
787.5 1400 m 787.5 1312.5 l S
1050 1312.5 m 962.5 1312.5 l S
962.5 1050 m 962.5 1137.5 l S
700 1137.5 m 787.5 1137.5 l S
1050 1137.5 m 962.5 1137.5 l S
700 1312.5 m 787.5 1312.5 l S
787.5 1050 m 787.5 1137.5 l S
962.5 1400 m 962.5 1312.5 l S
787.5 1050 m 787.5 962.5 l S
1050 962.5 m 962.5 962.5 l S
962.5 700 m 962.5 787.5 l S
700 787.5 m 787.5 787.5 l S
1050 787.5 m 962.5 787.5 l S
700 962.5 m 787.5 962.5 l S
787.5 700 m 787.5 787.5 l S
962.5 1050 m 962.5 962.5 l S
787.5 700 m 787.5 612.5 l S
1050 612.5 m 962.5 612.5 l S
962.5 350 m 962.5 437.5 l S
700 437.5 m 787.5 437.5 l S
1050 437.5 m 962.5 437.5 l S
700 612.5 m 787.5 612.5 l S
787.5 350 m 787.5 437.5 l S
962.5 700 m 962.5 612.5 l S
787.5 350 m 787.5 262.5 l S
1050 262.5 m 962.5 262.5 l S
962.5 0 m 962.5 87.5 l S
700 87.5 m 787.5 87.5 l S
1050 87.5 m 962.5 87.5 l S
700 262.5 m 787.5 262.5 l S
787.5 0 m 787.5 87.5 l S
962.5 350 m 962.5 262.5 l S
1137.5 1750 m 1137.5 1662.5 l S
1400 1662.5 m 1312.5 1662.5 l S
1312.5 1400 m 1312.5 1487.5 l S
1050 1487.5 m 1137.5 1487.5 l S
1400 1487.5 m 1312.5 1487.5 l S
1050 1662.5 m 1137.5 1662.5 l S
1137.5 1400 m 1137.5 1487.5 l S
1312.5 1750 m 1312.5 1662.5 l S
1137.5 1400 m 1137.5 1312.5 l S
1400 1312.5 m 1312.5 1312.5 l S
1312.5 1050 m 1312.5 1137.5 l S
1050 1137.5 m 1137.5 1137.5 l S
1400 1137.5 m 1312.5 1137.5 l S
1050 1312.5 m 1137.5 1312.5 l S
1137.5 1050 m 1137.5 1137.5 l S
1312.5 1400 m 1312.5 1312.5 l S
1137.5 1050 m 1137.5 962.5 l S
1400 962.5 m 1312.5 962.5 l S
1312.5 700 m 1312.5 787.5 l S
1050 787.5 m 1137.5 787.5 l S
1400 787.5 m 1312.5 787.5 l S
1050 962.5 m 1137.5 962.5 l S
1137.5 700 m 1137.5 787.5 l S
1312.5 1050 m 1312.5 962.5 l S
1137.5 700 m 1137.5 612.5 l S
1400 612.5 m 1312.5 612.5 l S
1312.5 350 m 1312.5 437.5 l S
1050 437.5 m 1137.5 437.5 l S
1400 437.5 m 1312.5 437.5 l S
1050 612.5 m 1137.5 612.5 l S
1137.5 350 m 1137.5 437.5 l S
1312.5 700 m 1312.5 612.5 l S
1137.5 350 m 1137.5 262.5 l S
1400 262.5 m 1312.5 262.5 l S
1312.5 0 m 1312.5 87.5 l S
1050 87.5 m 1137.5 87.5 l S
1400 87.5 m 1312.5 87.5 l S
1050 262.5 m 1137.5 262.5 l S
1137.5 0 m 1137.5 87.5 l S
1312.5 350 m 1312.5 262.5 l S
1487.5 1750 m 1487.5 1662.5 l S
1750 1662.5 m 1662.5 1662.5 l S
1662.5 1400 m 1662.5 1487.5 l S
1400 1487.5 m 1487.5 1487.5 l S
1750 1487.5 m 1662.5 1487.5 l S
1400 1662.5 m 1487.5 1662.5 l S
1487.5 1400 m 1487.5 1487.5 l S
1662.5 1750 m 1662.5 1662.5 l S
1487.5 1400 m 1487.5 1312.5 l S
1750 1312.5 m 1662.5 1312.5 l S
1662.5 1050 m 1662.5 1137.5 l S
1400 1137.5 m 1487.5 1137.5 l S
1750 1137.5 m 1662.5 1137.5 l S
1400 1312.5 m 1487.5 1312.5 l S
1487.5 1050 m 1487.5 1137.5 l S
1662.5 1400 m 1662.5 1312.5 l S
1487.5 1050 m 1487.5 962.5 l S
1750 962.5 m 1662.5 962.5 l S
1662.5 700 m 1662.5 787.5 l S
1400 787.5 m 1487.5 787.5 l S
1750 787.5 m 1662.5 787.5 l S
1400 962.5 m 1487.5 962.5 l S
1487.5 700 m 1487.5 787.5 l S
1662.5 1050 m 1662.5 962.5 l S
1487.5 700 m 1487.5 612.5 l S
1750 612.5 m 1662.5 612.5 l S
1662.5 350 m 1662.5 437.5 l S
1400 437.5 m 1487.5 437.5 l S
1750 437.5 m 1662.5 437.5 l S
1400 612.5 m 1487.5 612.5 l S
1487.5 350 m 1487.5 437.5 l S
1662.5 700 m 1662.5 612.5 l S
1487.5 350 m 1487.5 262.5 l S
1750 262.5 m 1662.5 262.5 l S
1662.5 0 m 1662.5 87.5 l S
1400 87.5 m 1487.5 87.5 l S
1750 87.5 m 1662.5 87.5 l S
1400 262.5 m 1487.5 262.5 l S
1487.5 0 m 1487.5 87.5 l S
1662.5 350 m 1662.5 262.5 l S
1837.5 1750 m 1837.5 1662.5 l S
2100 1662.5 m 2012.5 1662.5 l S
2012.5 1400 m 2012.5 1487.5 l S
1750 1487.5 m 1837.5 1487.5 l S
2100 1487.5 m 2012.5 1487.5 l S
1750 1662.5 m 1837.5 1662.5 l S
1837.5 1400 m 1837.5 1487.5 l S
2012.5 1750 m 2012.5 1662.5 l S
1837.5 1400 m 1837.5 1312.5 l S
2100 1312.5 m 2012.5 1312.5 l S
2012.5 1050 m 2012.5 1137.5 l S
1750 1137.5 m 1837.5 1137.5 l S
2100 1137.5 m 2012.5 1137.5 l S
1750 1312.5 m 1837.5 1312.5 l S
1837.5 1050 m 1837.5 1137.5 l S
2012.5 1400 m 2012.5 1312.5 l S
1837.5 1050 m 1837.5 962.5 l S
2100 962.5 m 2012.5 962.5 l S
2012.5 700 m 2012.5 787.5 l S
1750 787.5 m 1837.5 787.5 l S
2100 787.5 m 2012.5 787.5 l S
1750 962.5 m 1837.5 962.5 l S
1837.5 700 m 1837.5 787.5 l S
2012.5 1050 m 2012.5 962.5 l S
1837.5 700 m 1837.5 612.5 l S
2100 612.5 m 2012.5 612.5 l S
2012.5 350 m 2012.5 437.5 l S
1750 437.5 m 1837.5 437.5 l S
2100 437.5 m 2012.5 437.5 l S
1750 612.5 m 1837.5 612.5 l S
1837.5 350 m 1837.5 437.5 l S
2012.5 700 m 2012.5 612.5 l S
1837.5 350 m 1837.5 262.5 l S
2100 262.5 m 2012.5 262.5 l S
2012.5 0 m 2012.5 87.5 l S
1750 87.5 m 1837.5 87.5 l S
2100 87.5 m 2012.5 87.5 l S
1750 262.5 m 1837.5 262.5 l S
1837.5 0 m 1837.5 87.5 l S
2012.5 350 m 2012.5 262.5 l S
2187.5 1750 m 2187.5 1662.5 l S
2450 1662.5 m 2362.5 1662.5 l S
2362.5 1400 m 2362.5 1487.5 l S
2100 1487.5 m 2187.5 1487.5 l S
2450 1487.5 m 2362.5 1487.5 l S
2100 1662.5 m 2187.5 1662.5 l S
2187.5 1400 m 2187.5 1487.5 l S
2362.5 1750 m 2362.5 1662.5 l S
2187.5 1400 m 2187.5 1312.5 l S
2450 1312.5 m 2362.5 1312.5 l S
2362.5 1050 m 2362.5 1137.5 l S
2100 1137.5 m 2187.5 1137.5 l S
2450 1137.5 m 2362.5 1137.5 l S
2100 1312.5 m 2187.5 1312.5 l S
2187.5 1050 m 2187.5 1137.5 l S
2362.5 1400 m 2362.5 1312.5 l S
2187.5 1050 m 2187.5 962.5 l S
2450 962.5 m 2362.5 962.5 l S
2362.5 700 m 2362.5 787.5 l S
2100 787.5 m 2187.5 787.5 l S
2450 787.5 m 2362.5 787.5 l S
2100 962.5 m 2187.5 962.5 l S
2187.5 700 m 2187.5 787.5 l S
2362.5 1050 m 2362.5 962.5 l S
2187.5 700 m 2187.5 612.5 l S
2450 612.5 m 2362.5 612.5 l S
2362.5 350 m 2362.5 437.5 l S
2100 437.5 m 2187.5 437.5 l S
2450 437.5 m 2362.5 437.5 l S
2100 612.5 m 2187.5 612.5 l S
2187.5 350 m 2187.5 437.5 l S
2362.5 700 m 2362.5 612.5 l S
2187.5 350 m 2187.5 262.5 l S
2450 262.5 m 2362.5 262.5 l S
2362.5 0 m 2362.5 87.5 l S
2100 87.5 m 2187.5 87.5 l S
2450 87.5 m 2362.5 87.5 l S
2100 262.5 m 2187.5 262.5 l S
2187.5 0 m 2187.5 87.5 l S
2362.5 350 m 2362.5 262.5 l S
Q Q
showpage
%%Trailer
%%Trailer
cleartomark
countdictstack
exch sub { end } repeat
restore
%%EOF
