%!PS-Adobe-2.0 EPSF-2.0
%%BoundingBox: 0 0 2450 1750
%%HiResBoundingBox: 0.000000 0.000000 2450.000000 1750.000000
%%Creator: cairo 1.14.2 (http://cairographics.org)
%%CreationDate: Mon Sep  7 08:21:57 2015
%%DocumentData: Clean7Bit
%%LanguageLevel: 2
%%DocumentMedia: 864x617mm 2450 1750 0 () ()
%%EndComments
% EPSF created by ps2eps 1.68
%%BeginProlog
save
countdictstack
mark
newpath
/showpage {} def
/setpagedevice {pop} def
%%EndProlog
%%Page 1 1
%%BeginProlog
/languagelevel where
{ pop languagelevel } { 1 } ifelse
2 lt { /Helvetica findfont 12 scalefont setfont 50 500 moveto
  (This print job requires a PostScript Language Level 2 printer.) show
  showpage quit } if
/q { gsave } bind def
/Q { grestore } bind def
/cm { 6 array astore concat } bind def
/w { setlinewidth } bind def
/J { setlinecap } bind def
/j { setlinejoin } bind def
/M { setmiterlimit } bind def
/d { setdash } bind def
/m { moveto } bind def
/l { lineto } bind def
/c { curveto } bind def
/h { closepath } bind def
/re { exch dup neg 3 1 roll 5 3 roll moveto 0 rlineto
      0 exch rlineto 0 rlineto closepath } bind def
/S { stroke } bind def
/f { fill } bind def
/f* { eofill } bind def
/n { newpath } bind def
/W { clip } bind def
/W* { eoclip } bind def
/BT { } bind def
/ET { } bind def
/pdfmark where { pop globaldict /?pdfmark /exec load put }
    { globaldict begin /?pdfmark /pop load def /pdfmark
    /cleartomark load def end } ifelse
/BDC { mark 3 1 roll /BDC pdfmark } bind def
/EMC { mark /EMC pdfmark } bind def
/cairo_store_point { /cairo_point_y exch def /cairo_point_x exch def } def
/Tj { show currentpoint cairo_store_point } bind def
/TJ {
  {
    dup
    type /stringtype eq
    { show } { -0.001 mul 0 cairo_font_matrix dtransform rmoveto } ifelse
  } forall
  currentpoint cairo_store_point
} bind def
/cairo_selectfont { cairo_font_matrix aload pop pop pop 0 0 6 array astore
    cairo_font exch selectfont cairo_point_x cairo_point_y moveto } bind def
/Tf { pop /cairo_font exch def /cairo_font_matrix where
      { pop cairo_selectfont } if } bind def
/Td { matrix translate cairo_font_matrix matrix concatmatrix dup
      /cairo_font_matrix exch def dup 4 get exch 5 get cairo_store_point
      /cairo_font where { pop cairo_selectfont } if } bind def
/Tm { 2 copy 8 2 roll 6 array astore /cairo_font_matrix exch def
      cairo_store_point /cairo_font where { pop cairo_selectfont } if } bind def
/g { setgray } bind def
/rg { setrgbcolor } bind def
/d1 { setcachedevice } bind def
/cairo_set_page_size {
  % Change paper size, but only if different from previous paper size otherwise
  % duplex fails. PLRM specifies a tolerance of 5 pts when matching paper size
  % so we use the same when checking if the size changes.
  /setpagedevice where {
    pop currentpagedevice
    /PageSize known {
      2 copy
      currentpagedevice /PageSize get aload pop
      exch 4 1 roll
      sub abs 5 gt
      3 1 roll
      sub abs 5 gt
      or
    } {
      true
    } ifelse
    {
      2 array astore
      2 dict begin
        /PageSize exch def
        /ImagingBBox null def
      currentdict end
      setpagedevice
    } {
      pop pop
    } ifelse
  } {
    pop
  } ifelse
} def
%%EndProlog
%%BeginSetup
%%EndSetup
%%Page: 1 1
%%BeginPageSetup
%%PageMedia: 864x617mm
%%PageBoundingBox: 0 0 2450 1750
2450 1750 cairo_set_page_size
%%EndPageSetup
q 0 0 2450 1750 rectclip q
0.984314 g
0 0 2450 1750 rectfill
0.788235 g
1.875 w
0 J
1 j
[] 0.0 d
4 M 0 1750 2450 -1750 re S
0 g
2.5 w
1 J
175 1662.5 m 150.836 1638.336 111.664 1638.336 87.5 1662.5 c 63.336 1686.664
 63.336 1725.836 87.5 1750 c S
262.5 1575 m 238.336 1599.164 238.336 1638.336 262.5 1662.5 c 286.664 1686.664
 325.836 1686.664 350 1662.5 c S
175 1487.5 m 199.164 1511.664 238.336 1511.664 262.5 1487.5 c 286.664 1463.336
 286.664 1424.164 262.5 1400 c S
87.5 1575 m 111.664 1550.836 111.664 1511.664 87.5 1487.5 c 63.336 1463.336
 24.164 1463.336 0 1487.5 c S
262.5 1575 m 286.664 1599.164 325.836 1599.164 350 1575 c 374.164 1550.836
 374.164 1511.664 350 1487.5 c S
87.5 1575 m 63.336 1550.836 24.164 1550.836 0 1575 c -24.164 1599.164 -24.164
 1638.336 0 1662.5 c S
175 1487.5 m 199.164 1463.336 199.164 1424.164 175 1400 c 150.836 1375.836
 111.664 1375.836 87.5 1400 c S
175 1662.5 m 150.836 1686.664 150.836 1725.836 175 1750 c 199.164 1774.164
 238.336 1774.164 262.5 1750 c S
175 1312.5 m 150.836 1288.336 111.664 1288.336 87.5 1312.5 c 63.336 1336.664
 63.336 1375.836 87.5 1400 c S
262.5 1225 m 238.336 1249.164 238.336 1288.336 262.5 1312.5 c 286.664 1336.664
 325.836 1336.664 350 1312.5 c S
175 1137.5 m 199.164 1161.664 238.336 1161.664 262.5 1137.5 c 286.664 1113.336
 286.664 1074.164 262.5 1050 c S
87.5 1225 m 111.664 1200.836 111.664 1161.664 87.5 1137.5 c 63.336 1113.336
 24.164 1113.336 0 1137.5 c S
262.5 1225 m 286.664 1249.164 325.836 1249.164 350 1225 c 374.164 1200.836
 374.164 1161.664 350 1137.5 c S
87.5 1225 m 63.336 1200.836 24.164 1200.836 0 1225 c -24.164 1249.164 -24.164
 1288.336 0 1312.5 c S
175 1137.5 m 199.164 1113.336 199.164 1074.164 175 1050 c 150.836 1025.836
 111.664 1025.836 87.5 1050 c S
175 1312.5 m 150.836 1336.664 150.836 1375.836 175 1400 c 199.164 1424.164
 238.336 1424.164 262.5 1400 c S
175 962.5 m 150.836 938.336 111.664 938.336 87.5 962.5 c 63.336 986.664
 63.336 1025.836 87.5 1050 c S
262.5 875 m 238.336 899.164 238.336 938.336 262.5 962.5 c 286.664 986.664
 325.836 986.664 350 962.5 c S
175 787.5 m 199.164 811.664 238.336 811.664 262.5 787.5 c 286.664 763.336
 286.664 724.164 262.5 700 c S
87.5 875 m 111.664 850.836 111.664 811.664 87.5 787.5 c 63.336 763.336 
24.164 763.336 0 787.5 c S
262.5 875 m 286.664 899.164 325.836 899.164 350 875 c 374.164 850.836 374.164
 811.664 350 787.5 c S
87.5 875 m 63.336 850.836 24.164 850.836 0 875 c -24.164 899.164 -24.164
 938.336 0 962.5 c S
175 787.5 m 199.164 763.336 199.164 724.164 175 700 c 150.836 675.836 111.664
 675.836 87.5 700 c S
175 962.5 m 150.836 986.664 150.836 1025.836 175 1050 c 199.164 1074.164
 238.336 1074.164 262.5 1050 c S
175 612.5 m 150.836 588.336 111.664 588.336 87.5 612.5 c 63.336 636.664
 63.336 675.836 87.5 700 c S
262.5 525 m 238.336 549.164 238.336 588.336 262.5 612.5 c 286.664 636.664
 325.836 636.664 350 612.5 c S
175 437.5 m 199.164 461.664 238.336 461.664 262.5 437.5 c 286.664 413.336
 286.664 374.164 262.5 350 c S
87.5 525 m 111.664 500.836 111.664 461.664 87.5 437.5 c 63.336 413.336 
24.164 413.336 0 437.5 c S
262.5 525 m 286.664 549.164 325.836 549.164 350 525 c 374.164 500.836 374.164
 461.664 350 437.5 c S
87.5 525 m 63.336 500.836 24.164 500.836 0 525 c -24.164 549.164 -24.164
 588.336 0 612.5 c S
175 437.5 m 199.164 413.336 199.164 374.164 175 350 c 150.836 325.836 111.664
 325.836 87.5 350 c S
175 612.5 m 150.836 636.664 150.836 675.836 175 700 c 199.164 724.164 238.336
 724.164 262.5 700 c S
175 262.5 m 150.836 238.336 111.664 238.336 87.5 262.5 c 63.336 286.664
 63.336 325.836 87.5 350 c S
262.5 175 m 238.336 199.164 238.336 238.336 262.5 262.5 c 286.664 286.664
 325.836 286.664 350 262.5 c S
175 87.5 m 199.164 111.664 238.336 111.664 262.5 87.5 c 286.664 63.336 
286.664 24.164 262.5 0 c S
87.5 175 m 111.664 150.836 111.664 111.664 87.5 87.5 c 63.336 63.336 24.164
 63.336 0 87.5 c S
262.5 175 m 286.664 199.164 325.836 199.164 350 175 c 374.164 150.836 374.164
 111.664 350 87.5 c S
87.5 175 m 63.336 150.836 24.164 150.836 0 175 c -24.164 199.164 -24.164
 238.336 0 262.5 c S
175 87.5 m 199.164 63.336 199.164 24.164 175 0 c 150.836 -24.164 111.664
 -24.164 87.5 0 c S
175 262.5 m 150.836 286.664 150.836 325.836 175 350 c 199.164 374.164 238.336
 374.164 262.5 350 c S
525 1662.5 m 500.836 1638.336 461.664 1638.336 437.5 1662.5 c 413.336 1686.664
 413.336 1725.836 437.5 1750 c S
612.5 1575 m 588.336 1599.164 588.336 1638.336 612.5 1662.5 c 636.664 1686.664
 675.836 1686.664 700 1662.5 c S
525 1487.5 m 549.164 1511.664 588.336 1511.664 612.5 1487.5 c 636.664 1463.336
 636.664 1424.164 612.5 1400 c S
437.5 1575 m 461.664 1550.836 461.664 1511.664 437.5 1487.5 c 413.336 1463.336
 374.164 1463.336 350 1487.5 c S
612.5 1575 m 636.664 1599.164 675.836 1599.164 700 1575 c 724.164 1550.836
 724.164 1511.664 700 1487.5 c S
437.5 1575 m 413.336 1550.836 374.164 1550.836 350 1575 c 325.836 1599.164
 325.836 1638.336 350 1662.5 c S
525 1487.5 m 549.164 1463.336 549.164 1424.164 525 1400 c 500.836 1375.836
 461.664 1375.836 437.5 1400 c S
525 1662.5 m 500.836 1686.664 500.836 1725.836 525 1750 c 549.164 1774.164
 588.336 1774.164 612.5 1750 c S
525 1312.5 m 500.836 1288.336 461.664 1288.336 437.5 1312.5 c 413.336 1336.664
 413.336 1375.836 437.5 1400 c S
612.5 1225 m 588.336 1249.164 588.336 1288.336 612.5 1312.5 c 636.664 1336.664
 675.836 1336.664 700 1312.5 c S
525 1137.5 m 549.164 1161.664 588.336 1161.664 612.5 1137.5 c 636.664 1113.336
 636.664 1074.164 612.5 1050 c S
437.5 1225 m 461.664 1200.836 461.664 1161.664 437.5 1137.5 c 413.336 1113.336
 374.164 1113.336 350 1137.5 c S
612.5 1225 m 636.664 1249.164 675.836 1249.164 700 1225 c 724.164 1200.836
 724.164 1161.664 700 1137.5 c S
437.5 1225 m 413.336 1200.836 374.164 1200.836 350 1225 c 325.836 1249.164
 325.836 1288.336 350 1312.5 c S
525 1137.5 m 549.164 1113.336 549.164 1074.164 525 1050 c 500.836 1025.836
 461.664 1025.836 437.5 1050 c S
525 1312.5 m 500.836 1336.664 500.836 1375.836 525 1400 c 549.164 1424.164
 588.336 1424.164 612.5 1400 c S
525 962.5 m 500.836 938.336 461.664 938.336 437.5 962.5 c 413.336 986.664
 413.336 1025.836 437.5 1050 c S
612.5 875 m 588.336 899.164 588.336 938.336 612.5 962.5 c 636.664 986.664
 675.836 986.664 700 962.5 c S
525 787.5 m 549.164 811.664 588.336 811.664 612.5 787.5 c 636.664 763.336
 636.664 724.164 612.5 700 c S
437.5 875 m 461.664 850.836 461.664 811.664 437.5 787.5 c 413.336 763.336
 374.164 763.336 350 787.5 c S
612.5 875 m 636.664 899.164 675.836 899.164 700 875 c 724.164 850.836 724.164
 811.664 700 787.5 c S
437.5 875 m 413.336 850.836 374.164 850.836 350 875 c 325.836 899.164 325.836
 938.336 350 962.5 c S
525 787.5 m 549.164 763.336 549.164 724.164 525 700 c 500.836 675.836 461.664
 675.836 437.5 700 c S
525 962.5 m 500.836 986.664 500.836 1025.836 525 1050 c 549.164 1074.164
 588.336 1074.164 612.5 1050 c S
525 612.5 m 500.836 588.336 461.664 588.336 437.5 612.5 c 413.336 636.664
 413.336 675.836 437.5 700 c S
612.5 525 m 588.336 549.164 588.336 588.336 612.5 612.5 c 636.664 636.664
 675.836 636.664 700 612.5 c S
525 437.5 m 549.164 461.664 588.336 461.664 612.5 437.5 c 636.664 413.336
 636.664 374.164 612.5 350 c S
437.5 525 m 461.664 500.836 461.664 461.664 437.5 437.5 c 413.336 413.336
 374.164 413.336 350 437.5 c S
612.5 525 m 636.664 549.164 675.836 549.164 700 525 c 724.164 500.836 724.164
 461.664 700 437.5 c S
437.5 525 m 413.336 500.836 374.164 500.836 350 525 c 325.836 549.164 325.836
 588.336 350 612.5 c S
525 437.5 m 549.164 413.336 549.164 374.164 525 350 c 500.836 325.836 461.664
 325.836 437.5 350 c S
525 612.5 m 500.836 636.664 500.836 675.836 525 700 c 549.164 724.164 588.336
 724.164 612.5 700 c S
525 262.5 m 500.836 238.336 461.664 238.336 437.5 262.5 c 413.336 286.664
 413.336 325.836 437.5 350 c S
612.5 175 m 588.336 199.164 588.336 238.336 612.5 262.5 c 636.664 286.664
 675.836 286.664 700 262.5 c S
525 87.5 m 549.164 111.664 588.336 111.664 612.5 87.5 c 636.664 63.336 
636.664 24.164 612.5 0 c S
437.5 175 m 461.664 150.836 461.664 111.664 437.5 87.5 c 413.336 63.336
 374.164 63.336 350 87.5 c S
612.5 175 m 636.664 199.164 675.836 199.164 700 175 c 724.164 150.836 724.164
 111.664 700 87.5 c S
437.5 175 m 413.336 150.836 374.164 150.836 350 175 c 325.836 199.164 325.836
 238.336 350 262.5 c S
525 87.5 m 549.164 63.336 549.164 24.164 525 0 c 500.836 -24.164 461.664
 -24.164 437.5 0 c S
525 262.5 m 500.836 286.664 500.836 325.836 525 350 c 549.164 374.164 588.336
 374.164 612.5 350 c S
875 1662.5 m 850.836 1638.336 811.664 1638.336 787.5 1662.5 c 763.336 1686.664
 763.336 1725.836 787.5 1750 c S
962.5 1575 m 938.336 1599.164 938.336 1638.336 962.5 1662.5 c 986.664 1686.664
 1025.836 1686.664 1050 1662.5 c S
875 1487.5 m 899.164 1511.664 938.336 1511.664 962.5 1487.5 c 986.664 1463.336
 986.664 1424.164 962.5 1400 c S
787.5 1575 m 811.664 1550.836 811.664 1511.664 787.5 1487.5 c 763.336 1463.336
 724.164 1463.336 700 1487.5 c S
962.5 1575 m 986.664 1599.164 1025.836 1599.164 1050 1575 c 1074.164 1550.836
 1074.164 1511.664 1050 1487.5 c S
787.5 1575 m 763.336 1550.836 724.164 1550.836 700 1575 c 675.836 1599.164
 675.836 1638.336 700 1662.5 c S
875 1487.5 m 899.164 1463.336 899.164 1424.164 875 1400 c 850.836 1375.836
 811.664 1375.836 787.5 1400 c S
875 1662.5 m 850.836 1686.664 850.836 1725.836 875 1750 c 899.164 1774.164
 938.336 1774.164 962.5 1750 c S
875 1312.5 m 850.836 1288.336 811.664 1288.336 787.5 1312.5 c 763.336 1336.664
 763.336 1375.836 787.5 1400 c S
962.5 1225 m 938.336 1249.164 938.336 1288.336 962.5 1312.5 c 986.664 1336.664
 1025.836 1336.664 1050 1312.5 c S
875 1137.5 m 899.164 1161.664 938.336 1161.664 962.5 1137.5 c 986.664 1113.336
 986.664 1074.164 962.5 1050 c S
787.5 1225 m 811.664 1200.836 811.664 1161.664 787.5 1137.5 c 763.336 1113.336
 724.164 1113.336 700 1137.5 c S
962.5 1225 m 986.664 1249.164 1025.836 1249.164 1050 1225 c 1074.164 1200.836
 1074.164 1161.664 1050 1137.5 c S
787.5 1225 m 763.336 1200.836 724.164 1200.836 700 1225 c 675.836 1249.164
 675.836 1288.336 700 1312.5 c S
875 1137.5 m 899.164 1113.336 899.164 1074.164 875 1050 c 850.836 1025.836
 811.664 1025.836 787.5 1050 c S
875 1312.5 m 850.836 1336.664 850.836 1375.836 875 1400 c 899.164 1424.164
 938.336 1424.164 962.5 1400 c S
875 962.5 m 850.836 938.336 811.664 938.336 787.5 962.5 c 763.336 986.664
 763.336 1025.836 787.5 1050 c S
962.5 875 m 938.336 899.164 938.336 938.336 962.5 962.5 c 986.664 986.664
 1025.836 986.664 1050 962.5 c S
875 787.5 m 899.164 811.664 938.336 811.664 962.5 787.5 c 986.664 763.336
 986.664 724.164 962.5 700 c S
787.5 875 m 811.664 850.836 811.664 811.664 787.5 787.5 c 763.336 763.336
 724.164 763.336 700 787.5 c S
962.5 875 m 986.664 899.164 1025.836 899.164 1050 875 c 1074.164 850.836
 1074.164 811.664 1050 787.5 c S
787.5 875 m 763.336 850.836 724.164 850.836 700 875 c 675.836 899.164 675.836
 938.336 700 962.5 c S
875 787.5 m 899.164 763.336 899.164 724.164 875 700 c 850.836 675.836 811.664
 675.836 787.5 700 c S
875 962.5 m 850.836 986.664 850.836 1025.836 875 1050 c 899.164 1074.164
 938.336 1074.164 962.5 1050 c S
875 612.5 m 850.836 588.336 811.664 588.336 787.5 612.5 c 763.336 636.664
 763.336 675.836 787.5 700 c S
962.5 525 m 938.336 549.164 938.336 588.336 962.5 612.5 c 986.664 636.664
 1025.836 636.664 1050 612.5 c S
875 437.5 m 899.164 461.664 938.336 461.664 962.5 437.5 c 986.664 413.336
 986.664 374.164 962.5 350 c S
787.5 525 m 811.664 500.836 811.664 461.664 787.5 437.5 c 763.336 413.336
 724.164 413.336 700 437.5 c S
962.5 525 m 986.664 549.164 1025.836 549.164 1050 525 c 1074.164 500.836
 1074.164 461.664 1050 437.5 c S
787.5 525 m 763.336 500.836 724.164 500.836 700 525 c 675.836 549.164 675.836
 588.336 700 612.5 c S
875 437.5 m 899.164 413.336 899.164 374.164 875 350 c 850.836 325.836 811.664
 325.836 787.5 350 c S
875 612.5 m 850.836 636.664 850.836 675.836 875 700 c 899.164 724.164 938.336
 724.164 962.5 700 c S
875 262.5 m 850.836 238.336 811.664 238.336 787.5 262.5 c 763.336 286.664
 763.336 325.836 787.5 350 c S
962.5 175 m 938.336 199.164 938.336 238.336 962.5 262.5 c 986.664 286.664
 1025.836 286.664 1050 262.5 c S
875 87.5 m 899.164 111.664 938.336 111.664 962.5 87.5 c 986.664 63.336 
986.664 24.164 962.5 0 c S
787.5 175 m 811.664 150.836 811.664 111.664 787.5 87.5 c 763.336 63.336
 724.164 63.336 700 87.5 c S
962.5 175 m 986.664 199.164 1025.836 199.164 1050 175 c 1074.164 150.836
 1074.164 111.664 1050 87.5 c S
787.5 175 m 763.336 150.836 724.164 150.836 700 175 c 675.836 199.164 675.836
 238.336 700 262.5 c S
875 87.5 m 899.164 63.336 899.164 24.164 875 0 c 850.836 -24.164 811.664
 -24.164 787.5 0 c S
875 262.5 m 850.836 286.664 850.836 325.836 875 350 c 899.164 374.164 938.336
 374.164 962.5 350 c S
1225 1662.5 m 1200.836 1638.336 1161.664 1638.336 1137.5 1662.5 c 1113.336
 1686.664 1113.336 1725.836 1137.5 1750 c S
1312.5 1575 m 1288.336 1599.164 1288.336 1638.336 1312.5 1662.5 c 1336.664
 1686.664 1375.836 1686.664 1400 1662.5 c S
1225 1487.5 m 1249.164 1511.664 1288.336 1511.664 1312.5 1487.5 c 1336.664
 1463.336 1336.664 1424.164 1312.5 1400 c S
1137.5 1575 m 1161.664 1550.836 1161.664 1511.664 1137.5 1487.5 c 1113.336
 1463.336 1074.164 1463.336 1050 1487.5 c S
1312.5 1575 m 1336.664 1599.164 1375.836 1599.164 1400 1575 c 1424.164 
1550.836 1424.164 1511.664 1400 1487.5 c S
1137.5 1575 m 1113.336 1550.836 1074.164 1550.836 1050 1575 c 1025.836 
1599.164 1025.836 1638.336 1050 1662.5 c S
1225 1487.5 m 1249.164 1463.336 1249.164 1424.164 1225 1400 c 1200.836 
1375.836 1161.664 1375.836 1137.5 1400 c S
1225 1662.5 m 1200.836 1686.664 1200.836 1725.836 1225 1750 c 1249.164 
1774.164 1288.336 1774.164 1312.5 1750 c S
1225 1312.5 m 1200.836 1288.336 1161.664 1288.336 1137.5 1312.5 c 1113.336
 1336.664 1113.336 1375.836 1137.5 1400 c S
1312.5 1225 m 1288.336 1249.164 1288.336 1288.336 1312.5 1312.5 c 1336.664
 1336.664 1375.836 1336.664 1400 1312.5 c S
1225 1137.5 m 1249.164 1161.664 1288.336 1161.664 1312.5 1137.5 c 1336.664
 1113.336 1336.664 1074.164 1312.5 1050 c S
1137.5 1225 m 1161.664 1200.836 1161.664 1161.664 1137.5 1137.5 c 1113.336
 1113.336 1074.164 1113.336 1050 1137.5 c S
1312.5 1225 m 1336.664 1249.164 1375.836 1249.164 1400 1225 c 1424.164 
1200.836 1424.164 1161.664 1400 1137.5 c S
1137.5 1225 m 1113.336 1200.836 1074.164 1200.836 1050 1225 c 1025.836 
1249.164 1025.836 1288.336 1050 1312.5 c S
1225 1137.5 m 1249.164 1113.336 1249.164 1074.164 1225 1050 c 1200.836 
1025.836 1161.664 1025.836 1137.5 1050 c S
1225 1312.5 m 1200.836 1336.664 1200.836 1375.836 1225 1400 c 1249.164 
1424.164 1288.336 1424.164 1312.5 1400 c S
1225 962.5 m 1200.836 938.336 1161.664 938.336 1137.5 962.5 c 1113.336 
986.664 1113.336 1025.836 1137.5 1050 c S
1312.5 875 m 1288.336 899.164 1288.336 938.336 1312.5 962.5 c 1336.664 
986.664 1375.836 986.664 1400 962.5 c S
1225 787.5 m 1249.164 811.664 1288.336 811.664 1312.5 787.5 c 1336.664 
763.336 1336.664 724.164 1312.5 700 c S
1137.5 875 m 1161.664 850.836 1161.664 811.664 1137.5 787.5 c 1113.336 
763.336 1074.164 763.336 1050 787.5 c S
1312.5 875 m 1336.664 899.164 1375.836 899.164 1400 875 c 1424.164 850.836
 1424.164 811.664 1400 787.5 c S
1137.5 875 m 1113.336 850.836 1074.164 850.836 1050 875 c 1025.836 899.164
 1025.836 938.336 1050 962.5 c S
1225 787.5 m 1249.164 763.336 1249.164 724.164 1225 700 c 1200.836 675.836
 1161.664 675.836 1137.5 700 c S
1225 962.5 m 1200.836 986.664 1200.836 1025.836 1225 1050 c 1249.164 1074.164
 1288.336 1074.164 1312.5 1050 c S
1225 612.5 m 1200.836 588.336 1161.664 588.336 1137.5 612.5 c 1113.336 
636.664 1113.336 675.836 1137.5 700 c S
1312.5 525 m 1288.336 549.164 1288.336 588.336 1312.5 612.5 c 1336.664 
636.664 1375.836 636.664 1400 612.5 c S
1225 437.5 m 1249.164 461.664 1288.336 461.664 1312.5 437.5 c 1336.664 
413.336 1336.664 374.164 1312.5 350 c S
1137.5 525 m 1161.664 500.836 1161.664 461.664 1137.5 437.5 c 1113.336 
413.336 1074.164 413.336 1050 437.5 c S
1312.5 525 m 1336.664 549.164 1375.836 549.164 1400 525 c 1424.164 500.836
 1424.164 461.664 1400 437.5 c S
1137.5 525 m 1113.336 500.836 1074.164 500.836 1050 525 c 1025.836 549.164
 1025.836 588.336 1050 612.5 c S
1225 437.5 m 1249.164 413.336 1249.164 374.164 1225 350 c 1200.836 325.836
 1161.664 325.836 1137.5 350 c S
1225 612.5 m 1200.836 636.664 1200.836 675.836 1225 700 c 1249.164 724.164
 1288.336 724.164 1312.5 700 c S
1225 262.5 m 1200.836 238.336 1161.664 238.336 1137.5 262.5 c 1113.336 
286.664 1113.336 325.836 1137.5 350 c S
1312.5 175 m 1288.336 199.164 1288.336 238.336 1312.5 262.5 c 1336.664 
286.664 1375.836 286.664 1400 262.5 c S
1225 87.5 m 1249.164 111.664 1288.336 111.664 1312.5 87.5 c 1336.664 63.336
 1336.664 24.164 1312.5 0 c S
1137.5 175 m 1161.664 150.836 1161.664 111.664 1137.5 87.5 c 1113.336 63.336
 1074.164 63.336 1050 87.5 c S
1312.5 175 m 1336.664 199.164 1375.836 199.164 1400 175 c 1424.164 150.836
 1424.164 111.664 1400 87.5 c S
1137.5 175 m 1113.336 150.836 1074.164 150.836 1050 175 c 1025.836 199.164
 1025.836 238.336 1050 262.5 c S
1225 87.5 m 1249.164 63.336 1249.164 24.164 1225 0 c 1200.836 -24.164 1161.664
 -24.164 1137.5 0 c S
1225 262.5 m 1200.836 286.664 1200.836 325.836 1225 350 c 1249.164 374.164
 1288.336 374.164 1312.5 350 c S
1575 1662.5 m 1550.836 1638.336 1511.664 1638.336 1487.5 1662.5 c 1463.336
 1686.664 1463.336 1725.836 1487.5 1750 c S
1662.5 1575 m 1638.336 1599.164 1638.336 1638.336 1662.5 1662.5 c 1686.664
 1686.664 1725.836 1686.664 1750 1662.5 c S
1575 1487.5 m 1599.164 1511.664 1638.336 1511.664 1662.5 1487.5 c 1686.664
 1463.336 1686.664 1424.164 1662.5 1400 c S
1487.5 1575 m 1511.664 1550.836 1511.664 1511.664 1487.5 1487.5 c 1463.336
 1463.336 1424.164 1463.336 1400 1487.5 c S
1662.5 1575 m 1686.664 1599.164 1725.836 1599.164 1750 1575 c 1774.164 
1550.836 1774.164 1511.664 1750 1487.5 c S
1487.5 1575 m 1463.336 1550.836 1424.164 1550.836 1400 1575 c 1375.836 
1599.164 1375.836 1638.336 1400 1662.5 c S
1575 1487.5 m 1599.164 1463.336 1599.164 1424.164 1575 1400 c 1550.836 
1375.836 1511.664 1375.836 1487.5 1400 c S
1575 1662.5 m 1550.836 1686.664 1550.836 1725.836 1575 1750 c 1599.164 
1774.164 1638.336 1774.164 1662.5 1750 c S
1575 1312.5 m 1550.836 1288.336 1511.664 1288.336 1487.5 1312.5 c 1463.336
 1336.664 1463.336 1375.836 1487.5 1400 c S
1662.5 1225 m 1638.336 1249.164 1638.336 1288.336 1662.5 1312.5 c 1686.664
 1336.664 1725.836 1336.664 1750 1312.5 c S
1575 1137.5 m 1599.164 1161.664 1638.336 1161.664 1662.5 1137.5 c 1686.664
 1113.336 1686.664 1074.164 1662.5 1050 c S
1487.5 1225 m 1511.664 1200.836 1511.664 1161.664 1487.5 1137.5 c 1463.336
 1113.336 1424.164 1113.336 1400 1137.5 c S
1662.5 1225 m 1686.664 1249.164 1725.836 1249.164 1750 1225 c 1774.164 
1200.836 1774.164 1161.664 1750 1137.5 c S
1487.5 1225 m 1463.336 1200.836 1424.164 1200.836 1400 1225 c 1375.836 
1249.164 1375.836 1288.336 1400 1312.5 c S
1575 1137.5 m 1599.164 1113.336 1599.164 1074.164 1575 1050 c 1550.836 
1025.836 1511.664 1025.836 1487.5 1050 c S
1575 1312.5 m 1550.836 1336.664 1550.836 1375.836 1575 1400 c 1599.164 
1424.164 1638.336 1424.164 1662.5 1400 c S
1575 962.5 m 1550.836 938.336 1511.664 938.336 1487.5 962.5 c 1463.336 
986.664 1463.336 1025.836 1487.5 1050 c S
1662.5 875 m 1638.336 899.164 1638.336 938.336 1662.5 962.5 c 1686.664 
986.664 1725.836 986.664 1750 962.5 c S
1575 787.5 m 1599.164 811.664 1638.336 811.664 1662.5 787.5 c 1686.664 
763.336 1686.664 724.164 1662.5 700 c S
1487.5 875 m 1511.664 850.836 1511.664 811.664 1487.5 787.5 c 1463.336 
763.336 1424.164 763.336 1400 787.5 c S
1662.5 875 m 1686.664 899.164 1725.836 899.164 1750 875 c 1774.164 850.836
 1774.164 811.664 1750 787.5 c S
1487.5 875 m 1463.336 850.836 1424.164 850.836 1400 875 c 1375.836 899.164
 1375.836 938.336 1400 962.5 c S
1575 787.5 m 1599.164 763.336 1599.164 724.164 1575 700 c 1550.836 675.836
 1511.664 675.836 1487.5 700 c S
1575 962.5 m 1550.836 986.664 1550.836 1025.836 1575 1050 c 1599.164 1074.164
 1638.336 1074.164 1662.5 1050 c S
1575 612.5 m 1550.836 588.336 1511.664 588.336 1487.5 612.5 c 1463.336 
636.664 1463.336 675.836 1487.5 700 c S
1662.5 525 m 1638.336 549.164 1638.336 588.336 1662.5 612.5 c 1686.664 
636.664 1725.836 636.664 1750 612.5 c S
1575 437.5 m 1599.164 461.664 1638.336 461.664 1662.5 437.5 c 1686.664 
413.336 1686.664 374.164 1662.5 350 c S
1487.5 525 m 1511.664 500.836 1511.664 461.664 1487.5 437.5 c 1463.336 
413.336 1424.164 413.336 1400 437.5 c S
1662.5 525 m 1686.664 549.164 1725.836 549.164 1750 525 c 1774.164 500.836
 1774.164 461.664 1750 437.5 c S
1487.5 525 m 1463.336 500.836 1424.164 500.836 1400 525 c 1375.836 549.164
 1375.836 588.336 1400 612.5 c S
1575 437.5 m 1599.164 413.336 1599.164 374.164 1575 350 c 1550.836 325.836
 1511.664 325.836 1487.5 350 c S
1575 612.5 m 1550.836 636.664 1550.836 675.836 1575 700 c 1599.164 724.164
 1638.336 724.164 1662.5 700 c S
1575 262.5 m 1550.836 238.336 1511.664 238.336 1487.5 262.5 c 1463.336 
286.664 1463.336 325.836 1487.5 350 c S
1662.5 175 m 1638.336 199.164 1638.336 238.336 1662.5 262.5 c 1686.664 
286.664 1725.836 286.664 1750 262.5 c S
1575 87.5 m 1599.164 111.664 1638.336 111.664 1662.5 87.5 c 1686.664 63.336
 1686.664 24.164 1662.5 0 c S
1487.5 175 m 1511.664 150.836 1511.664 111.664 1487.5 87.5 c 1463.336 63.336
 1424.164 63.336 1400 87.5 c S
1662.5 175 m 1686.664 199.164 1725.836 199.164 1750 175 c 1774.164 150.836
 1774.164 111.664 1750 87.5 c S
1487.5 175 m 1463.336 150.836 1424.164 150.836 1400 175 c 1375.836 199.164
 1375.836 238.336 1400 262.5 c S
1575 87.5 m 1599.164 63.336 1599.164 24.164 1575 0 c 1550.836 -24.164 1511.664
 -24.164 1487.5 0 c S
1575 262.5 m 1550.836 286.664 1550.836 325.836 1575 350 c 1599.164 374.164
 1638.336 374.164 1662.5 350 c S
1925 1662.5 m 1900.836 1638.336 1861.664 1638.336 1837.5 1662.5 c 1813.336
 1686.664 1813.336 1725.836 1837.5 1750 c S
2012.5 1575 m 1988.336 1599.164 1988.336 1638.336 2012.5 1662.5 c 2036.664
 1686.664 2075.836 1686.664 2100 1662.5 c S
1925 1487.5 m 1949.164 1511.664 1988.336 1511.664 2012.5 1487.5 c 2036.664
 1463.336 2036.664 1424.164 2012.5 1400 c S
1837.5 1575 m 1861.664 1550.836 1861.664 1511.664 1837.5 1487.5 c 1813.336
 1463.336 1774.164 1463.336 1750 1487.5 c S
2012.5 1575 m 2036.664 1599.164 2075.836 1599.164 2100 1575 c 2124.164 
1550.836 2124.164 1511.664 2100 1487.5 c S
1837.5 1575 m 1813.336 1550.836 1774.164 1550.836 1750 1575 c 1725.836 
1599.164 1725.836 1638.336 1750 1662.5 c S
1925 1487.5 m 1949.164 1463.336 1949.164 1424.164 1925 1400 c 1900.836 
1375.836 1861.664 1375.836 1837.5 1400 c S
1925 1662.5 m 1900.836 1686.664 1900.836 1725.836 1925 1750 c 1949.164 
1774.164 1988.336 1774.164 2012.5 1750 c S
1925 1312.5 m 1900.836 1288.336 1861.664 1288.336 1837.5 1312.5 c 1813.336
 1336.664 1813.336 1375.836 1837.5 1400 c S
2012.5 1225 m 1988.336 1249.164 1988.336 1288.336 2012.5 1312.5 c 2036.664
 1336.664 2075.836 1336.664 2100 1312.5 c S
1925 1137.5 m 1949.164 1161.664 1988.336 1161.664 2012.5 1137.5 c 2036.664
 1113.336 2036.664 1074.164 2012.5 1050 c S
1837.5 1225 m 1861.664 1200.836 1861.664 1161.664 1837.5 1137.5 c 1813.336
 1113.336 1774.164 1113.336 1750 1137.5 c S
2012.5 1225 m 2036.664 1249.164 2075.836 1249.164 2100 1225 c 2124.164 
1200.836 2124.164 1161.664 2100 1137.5 c S
1837.5 1225 m 1813.336 1200.836 1774.164 1200.836 1750 1225 c 1725.836 
1249.164 1725.836 1288.336 1750 1312.5 c S
1925 1137.5 m 1949.164 1113.336 1949.164 1074.164 1925 1050 c 1900.836 
1025.836 1861.664 1025.836 1837.5 1050 c S
1925 1312.5 m 1900.836 1336.664 1900.836 1375.836 1925 1400 c 1949.164 
1424.164 1988.336 1424.164 2012.5 1400 c S
1925 962.5 m 1900.836 938.336 1861.664 938.336 1837.5 962.5 c 1813.336 
986.664 1813.336 1025.836 1837.5 1050 c S
2012.5 875 m 1988.336 899.164 1988.336 938.336 2012.5 962.5 c 2036.664 
986.664 2075.836 986.664 2100 962.5 c S
1925 787.5 m 1949.164 811.664 1988.336 811.664 2012.5 787.5 c 2036.664 
763.336 2036.664 724.164 2012.5 700 c S
1837.5 875 m 1861.664 850.836 1861.664 811.664 1837.5 787.5 c 1813.336 
763.336 1774.164 763.336 1750 787.5 c S
2012.5 875 m 2036.664 899.164 2075.836 899.164 2100 875 c 2124.164 850.836
 2124.164 811.664 2100 787.5 c S
1837.5 875 m 1813.336 850.836 1774.164 850.836 1750 875 c 1725.836 899.164
 1725.836 938.336 1750 962.5 c S
1925 787.5 m 1949.164 763.336 1949.164 724.164 1925 700 c 1900.836 675.836
 1861.664 675.836 1837.5 700 c S
1925 962.5 m 1900.836 986.664 1900.836 1025.836 1925 1050 c 1949.164 1074.164
 1988.336 1074.164 2012.5 1050 c S
1925 612.5 m 1900.836 588.336 1861.664 588.336 1837.5 612.5 c 1813.336 
636.664 1813.336 675.836 1837.5 700 c S
2012.5 525 m 1988.336 549.164 1988.336 588.336 2012.5 612.5 c 2036.664 
636.664 2075.836 636.664 2100 612.5 c S
1925 437.5 m 1949.164 461.664 1988.336 461.664 2012.5 437.5 c 2036.664 
413.336 2036.664 374.164 2012.5 350 c S
1837.5 525 m 1861.664 500.836 1861.664 461.664 1837.5 437.5 c 1813.336 
413.336 1774.164 413.336 1750 437.5 c S
2012.5 525 m 2036.664 549.164 2075.836 549.164 2100 525 c 2124.164 500.836
 2124.164 461.664 2100 437.5 c S
1837.5 525 m 1813.336 500.836 1774.164 500.836 1750 525 c 1725.836 549.164
 1725.836 588.336 1750 612.5 c S
1925 437.5 m 1949.164 413.336 1949.164 374.164 1925 350 c 1900.836 325.836
 1861.664 325.836 1837.5 350 c S
1925 612.5 m 1900.836 636.664 1900.836 675.836 1925 700 c 1949.164 724.164
 1988.336 724.164 2012.5 700 c S
1925 262.5 m 1900.836 238.336 1861.664 238.336 1837.5 262.5 c 1813.336 
286.664 1813.336 325.836 1837.5 350 c S
2012.5 175 m 1988.336 199.164 1988.336 238.336 2012.5 262.5 c 2036.664 
286.664 2075.836 286.664 2100 262.5 c S
1925 87.5 m 1949.164 111.664 1988.336 111.664 2012.5 87.5 c 2036.664 63.336
 2036.664 24.164 2012.5 0 c S
1837.5 175 m 1861.664 150.836 1861.664 111.664 1837.5 87.5 c 1813.336 63.336
 1774.164 63.336 1750 87.5 c S
2012.5 175 m 2036.664 199.164 2075.836 199.164 2100 175 c 2124.164 150.836
 2124.164 111.664 2100 87.5 c S
1837.5 175 m 1813.336 150.836 1774.164 150.836 1750 175 c 1725.836 199.164
 1725.836 238.336 1750 262.5 c S
1925 87.5 m 1949.164 63.336 1949.164 24.164 1925 0 c 1900.836 -24.164 1861.664
 -24.164 1837.5 0 c S
1925 262.5 m 1900.836 286.664 1900.836 325.836 1925 350 c 1949.164 374.164
 1988.336 374.164 2012.5 350 c S
2275 1662.5 m 2250.836 1638.336 2211.664 1638.336 2187.5 1662.5 c 2163.336
 1686.664 2163.336 1725.836 2187.5 1750 c S
2362.5 1575 m 2338.336 1599.164 2338.336 1638.336 2362.5 1662.5 c 2386.664
 1686.664 2425.836 1686.664 2450 1662.5 c S
2275 1487.5 m 2299.164 1511.664 2338.336 1511.664 2362.5 1487.5 c 2386.664
 1463.336 2386.664 1424.164 2362.5 1400 c S
2187.5 1575 m 2211.664 1550.836 2211.664 1511.664 2187.5 1487.5 c 2163.336
 1463.336 2124.164 1463.336 2100 1487.5 c S
2362.5 1575 m 2386.664 1599.164 2425.836 1599.164 2450 1575 c 2474.164 
1550.836 2474.164 1511.664 2450 1487.5 c S
2187.5 1575 m 2163.336 1550.836 2124.164 1550.836 2100 1575 c 2075.836 
1599.164 2075.836 1638.336 2100 1662.5 c S
2275 1487.5 m 2299.164 1463.336 2299.164 1424.164 2275 1400 c 2250.836 
1375.836 2211.664 1375.836 2187.5 1400 c S
2275 1662.5 m 2250.836 1686.664 2250.836 1725.836 2275 1750 c 2299.164 
1774.164 2338.336 1774.164 2362.5 1750 c S
2275 1312.5 m 2250.836 1288.336 2211.664 1288.336 2187.5 1312.5 c 2163.336
 1336.664 2163.336 1375.836 2187.5 1400 c S
2362.5 1225 m 2338.336 1249.164 2338.336 1288.336 2362.5 1312.5 c 2386.664
 1336.664 2425.836 1336.664 2450 1312.5 c S
2275 1137.5 m 2299.164 1161.664 2338.336 1161.664 2362.5 1137.5 c 2386.664
 1113.336 2386.664 1074.164 2362.5 1050 c S
2187.5 1225 m 2211.664 1200.836 2211.664 1161.664 2187.5 1137.5 c 2163.336
 1113.336 2124.164 1113.336 2100 1137.5 c S
2362.5 1225 m 2386.664 1249.164 2425.836 1249.164 2450 1225 c 2474.164 
1200.836 2474.164 1161.664 2450 1137.5 c S
2187.5 1225 m 2163.336 1200.836 2124.164 1200.836 2100 1225 c 2075.836 
1249.164 2075.836 1288.336 2100 1312.5 c S
2275 1137.5 m 2299.164 1113.336 2299.164 1074.164 2275 1050 c 2250.836 
1025.836 2211.664 1025.836 2187.5 1050 c S
2275 1312.5 m 2250.836 1336.664 2250.836 1375.836 2275 1400 c 2299.164 
1424.164 2338.336 1424.164 2362.5 1400 c S
2275 962.5 m 2250.836 938.336 2211.664 938.336 2187.5 962.5 c 2163.336 
986.664 2163.336 1025.836 2187.5 1050 c S
2362.5 875 m 2338.336 899.164 2338.336 938.336 2362.5 962.5 c 2386.664 
986.664 2425.836 986.664 2450 962.5 c S
2275 787.5 m 2299.164 811.664 2338.336 811.664 2362.5 787.5 c 2386.664 
763.336 2386.664 724.164 2362.5 700 c S
2187.5 875 m 2211.664 850.836 2211.664 811.664 2187.5 787.5 c 2163.336 
763.336 2124.164 763.336 2100 787.5 c S
2362.5 875 m 2386.664 899.164 2425.836 899.164 2450 875 c 2474.164 850.836
 2474.164 811.664 2450 787.5 c S
2187.5 875 m 2163.336 850.836 2124.164 850.836 2100 875 c 2075.836 899.164
 2075.836 938.336 2100 962.5 c S
2275 787.5 m 2299.164 763.336 2299.164 724.164 2275 700 c 2250.836 675.836
 2211.664 675.836 2187.5 700 c S
2275 962.5 m 2250.836 986.664 2250.836 1025.836 2275 1050 c 2299.164 1074.164
 2338.336 1074.164 2362.5 1050 c S
2275 612.5 m 2250.836 588.336 2211.664 588.336 2187.5 612.5 c 2163.336 
636.664 2163.336 675.836 2187.5 700 c S
2362.5 525 m 2338.336 549.164 2338.336 588.336 2362.5 612.5 c 2386.664 
636.664 2425.836 636.664 2450 612.5 c S
2275 437.5 m 2299.164 461.664 2338.336 461.664 2362.5 437.5 c 2386.664 
413.336 2386.664 374.164 2362.5 350 c S
2187.5 525 m 2211.664 500.836 2211.664 461.664 2187.5 437.5 c 2163.336 
413.336 2124.164 413.336 2100 437.5 c S
2362.5 525 m 2386.664 549.164 2425.836 549.164 2450 525 c 2474.164 500.836
 2474.164 461.664 2450 437.5 c S
2187.5 525 m 2163.336 500.836 2124.164 500.836 2100 525 c 2075.836 549.164
 2075.836 588.336 2100 612.5 c S
2275 437.5 m 2299.164 413.336 2299.164 374.164 2275 350 c 2250.836 325.836
 2211.664 325.836 2187.5 350 c S
2275 612.5 m 2250.836 636.664 2250.836 675.836 2275 700 c 2299.164 724.164
 2338.336 724.164 2362.5 700 c S
2275 262.5 m 2250.836 238.336 2211.664 238.336 2187.5 262.5 c 2163.336 
286.664 2163.336 325.836 2187.5 350 c S
2362.5 175 m 2338.336 199.164 2338.336 238.336 2362.5 262.5 c 2386.664 
286.664 2425.836 286.664 2450 262.5 c S
2275 87.5 m 2299.164 111.664 2338.336 111.664 2362.5 87.5 c 2386.664 63.336
 2386.664 24.164 2362.5 0 c S
2187.5 175 m 2211.664 150.836 2211.664 111.664 2187.5 87.5 c 2163.336 63.336
 2124.164 63.336 2100 87.5 c S
2362.5 175 m 2386.664 199.164 2425.836 199.164 2450 175 c 2474.164 150.836
 2474.164 111.664 2450 87.5 c S
2187.5 175 m 2163.336 150.836 2124.164 150.836 2100 175 c 2075.836 199.164
 2075.836 238.336 2100 262.5 c S
2275 87.5 m 2299.164 63.336 2299.164 24.164 2275 0 c 2250.836 -24.164 2211.664
 -24.164 2187.5 0 c S
2275 262.5 m 2250.836 286.664 2250.836 325.836 2275 350 c 2299.164 374.164
 2338.336 374.164 2362.5 350 c S
Q Q
showpage
%%Trailer
%%Trailer
cleartomark
countdictstack
exch sub { end } repeat
restore
%%EOF
