%!PS-Adobe-2.0 EPSF-2.0
%%BoundingBox: 0 0 2450 1750
%%HiResBoundingBox: 0.000000 0.000000 2450.000000 1750.000000
%%Creator: cairo 1.14.2 (http://cairographics.org)
%%CreationDate: Mon Sep  7 08:21:58 2015
%%DocumentData: Clean7Bit
%%LanguageLevel: 2
%%DocumentMedia: 864x617mm 2450 1750 0 () ()
%%EndComments
% EPSF created by ps2eps 1.68
%%BeginProlog
save
countdictstack
mark
newpath
/showpage {} def
/setpagedevice {pop} def
%%EndProlog
%%Page 1 1
%%BeginProlog
/languagelevel where
{ pop languagelevel } { 1 } ifelse
2 lt { /Helvetica findfont 12 scalefont setfont 50 500 moveto
  (This print job requires a PostScript Language Level 2 printer.) show
  showpage quit } if
/q { gsave } bind def
/Q { grestore } bind def
/cm { 6 array astore concat } bind def
/w { setlinewidth } bind def
/J { setlinecap } bind def
/j { setlinejoin } bind def
/M { setmiterlimit } bind def
/d { setdash } bind def
/m { moveto } bind def
/l { lineto } bind def
/c { curveto } bind def
/h { closepath } bind def
/re { exch dup neg 3 1 roll 5 3 roll moveto 0 rlineto
      0 exch rlineto 0 rlineto closepath } bind def
/S { stroke } bind def
/f { fill } bind def
/f* { eofill } bind def
/n { newpath } bind def
/W { clip } bind def
/W* { eoclip } bind def
/BT { } bind def
/ET { } bind def
/pdfmark where { pop globaldict /?pdfmark /exec load put }
    { globaldict begin /?pdfmark /pop load def /pdfmark
    /cleartomark load def end } ifelse
/BDC { mark 3 1 roll /BDC pdfmark } bind def
/EMC { mark /EMC pdfmark } bind def
/cairo_store_point { /cairo_point_y exch def /cairo_point_x exch def } def
/Tj { show currentpoint cairo_store_point } bind def
/TJ {
  {
    dup
    type /stringtype eq
    { show } { -0.001 mul 0 cairo_font_matrix dtransform rmoveto } ifelse
  } forall
  currentpoint cairo_store_point
} bind def
/cairo_selectfont { cairo_font_matrix aload pop pop pop 0 0 6 array astore
    cairo_font exch selectfont cairo_point_x cairo_point_y moveto } bind def
/Tf { pop /cairo_font exch def /cairo_font_matrix where
      { pop cairo_selectfont } if } bind def
/Td { matrix translate cairo_font_matrix matrix concatmatrix dup
      /cairo_font_matrix exch def dup 4 get exch 5 get cairo_store_point
      /cairo_font where { pop cairo_selectfont } if } bind def
/Tm { 2 copy 8 2 roll 6 array astore /cairo_font_matrix exch def
      cairo_store_point /cairo_font where { pop cairo_selectfont } if } bind def
/g { setgray } bind def
/rg { setrgbcolor } bind def
/d1 { setcachedevice } bind def
/cairo_set_page_size {
  % Change paper size, but only if different from previous paper size otherwise
  % duplex fails. PLRM specifies a tolerance of 5 pts when matching paper size
  % so we use the same when checking if the size changes.
  /setpagedevice where {
    pop currentpagedevice
    /PageSize known {
      2 copy
      currentpagedevice /PageSize get aload pop
      exch 4 1 roll
      sub abs 5 gt
      3 1 roll
      sub abs 5 gt
      or
    } {
      true
    } ifelse
    {
      2 array astore
      2 dict begin
        /PageSize exch def
        /ImagingBBox null def
      currentdict end
      setpagedevice
    } {
      pop pop
    } ifelse
  } {
    pop
  } ifelse
} def
%%EndProlog
%%BeginSetup
%%EndSetup
%%Page: 1 1
%%BeginPageSetup
%%PageMedia: 864x617mm
%%PageBoundingBox: 0 0 2450 1750
2450 1750 cairo_set_page_size
%%EndPageSetup
q 0 0 2450 1750 rectclip q
0.984314 g
0 0 2450 1750 rectfill
0.788235 g
1.875 w
0 J
1 j
[] 0.0 d
4 M 0 1750 2450 -1750 re S
0 g
2.5 w
1 J
58.332 1750 m 116.668 1750 l 175 1691.668 l 175 1633.332 l S
350 1691.668 m 350 1633.332 l 291.668 1575 l 233.332 1575 l S
291.668 1400 m 233.332 1400 l 175 1458.332 l 175 1516.668 l S
0 1458.332 m 0 1516.668 l 58.332 1575 l 116.668 1575 l S
350 1458.332 m 350 1516.668 l 291.668 1575 l 233.332 1575 l S
0 1691.668 m 0 1633.332 l 58.332 1575 l 116.668 1575 l S
58.332 1400 m 116.668 1400 l 175 1458.332 l 175 1516.668 l S
291.668 1750 m 233.332 1750 l 175 1691.668 l 175 1633.332 l S
58.332 1400 m 116.668 1400 l 175 1341.668 l 175 1283.332 l S
350 1341.668 m 350 1283.332 l 291.668 1225 l 233.332 1225 l S
291.668 1050 m 233.332 1050 l 175 1108.332 l 175 1166.668 l S
0 1108.332 m 0 1166.668 l 58.332 1225 l 116.668 1225 l S
350 1108.332 m 350 1166.668 l 291.668 1225 l 233.332 1225 l S
0 1341.668 m 0 1283.332 l 58.332 1225 l 116.668 1225 l S
58.332 1050 m 116.668 1050 l 175 1108.332 l 175 1166.668 l S
291.668 1400 m 233.332 1400 l 175 1341.668 l 175 1283.332 l S
58.332 1050 m 116.668 1050 l 175 991.668 l 175 933.332 l S
350 991.668 m 350 933.332 l 291.668 875 l 233.332 875 l S
291.668 700 m 233.332 700 l 175 758.332 l 175 816.668 l S
0 758.332 m 0 816.668 l 58.332 875 l 116.668 875 l S
350 758.332 m 350 816.668 l 291.668 875 l 233.332 875 l S
0 991.668 m 0 933.332 l 58.332 875 l 116.668 875 l S
58.332 700 m 116.668 700 l 175 758.332 l 175 816.668 l S
291.668 1050 m 233.332 1050 l 175 991.668 l 175 933.332 l S
58.332 700 m 116.668 700 l 175 641.668 l 175 583.332 l S
350 641.668 m 350 583.332 l 291.668 525 l 233.332 525 l S
291.668 350 m 233.332 350 l 175 408.332 l 175 466.668 l S
0 408.332 m 0 466.668 l 58.332 525 l 116.668 525 l S
350 408.332 m 350 466.668 l 291.668 525 l 233.332 525 l S
0 641.668 m 0 583.332 l 58.332 525 l 116.668 525 l S
58.332 350 m 116.668 350 l 175 408.332 l 175 466.668 l S
291.668 700 m 233.332 700 l 175 641.668 l 175 583.332 l S
58.332 350 m 116.668 350 l 175 291.668 l 175 233.332 l S
350 291.668 m 350 233.332 l 291.668 175 l 233.332 175 l S
291.668 0 m 233.332 0 l 175 58.332 l 175 116.668 l S
0 58.332 m 0 116.668 l 58.332 175 l 116.668 175 l S
350 58.332 m 350 116.668 l 291.668 175 l 233.332 175 l S
0 291.668 m 0 233.332 l 58.332 175 l 116.668 175 l S
58.332 0 m 116.668 0 l 175 58.332 l 175 116.668 l S
291.668 350 m 233.332 350 l 175 291.668 l 175 233.332 l S
408.332 1750 m 466.668 1750 l 525 1691.668 l 525 1633.332 l S
700 1691.668 m 700 1633.332 l 641.668 1575 l 583.332 1575 l S
641.668 1400 m 583.332 1400 l 525 1458.332 l 525 1516.668 l S
350 1458.332 m 350 1516.668 l 408.332 1575 l 466.668 1575 l S
700 1458.332 m 700 1516.668 l 641.668 1575 l 583.332 1575 l S
350 1691.668 m 350 1633.332 l 408.332 1575 l 466.668 1575 l S
408.332 1400 m 466.668 1400 l 525 1458.332 l 525 1516.668 l S
641.668 1750 m 583.332 1750 l 525 1691.668 l 525 1633.332 l S
408.332 1400 m 466.668 1400 l 525 1341.668 l 525 1283.332 l S
700 1341.668 m 700 1283.332 l 641.668 1225 l 583.332 1225 l S
641.668 1050 m 583.332 1050 l 525 1108.332 l 525 1166.668 l S
350 1108.332 m 350 1166.668 l 408.332 1225 l 466.668 1225 l S
700 1108.332 m 700 1166.668 l 641.668 1225 l 583.332 1225 l S
350 1341.668 m 350 1283.332 l 408.332 1225 l 466.668 1225 l S
408.332 1050 m 466.668 1050 l 525 1108.332 l 525 1166.668 l S
641.668 1400 m 583.332 1400 l 525 1341.668 l 525 1283.332 l S
408.332 1050 m 466.668 1050 l 525 991.668 l 525 933.332 l S
700 991.668 m 700 933.332 l 641.668 875 l 583.332 875 l S
641.668 700 m 583.332 700 l 525 758.332 l 525 816.668 l S
350 758.332 m 350 816.668 l 408.332 875 l 466.668 875 l S
700 758.332 m 700 816.668 l 641.668 875 l 583.332 875 l S
350 991.668 m 350 933.332 l 408.332 875 l 466.668 875 l S
408.332 700 m 466.668 700 l 525 758.332 l 525 816.668 l S
641.668 1050 m 583.332 1050 l 525 991.668 l 525 933.332 l S
408.332 700 m 466.668 700 l 525 641.668 l 525 583.332 l S
700 641.668 m 700 583.332 l 641.668 525 l 583.332 525 l S
641.668 350 m 583.332 350 l 525 408.332 l 525 466.668 l S
350 408.332 m 350 466.668 l 408.332 525 l 466.668 525 l S
700 408.332 m 700 466.668 l 641.668 525 l 583.332 525 l S
350 641.668 m 350 583.332 l 408.332 525 l 466.668 525 l S
408.332 350 m 466.668 350 l 525 408.332 l 525 466.668 l S
641.668 700 m 583.332 700 l 525 641.668 l 525 583.332 l S
408.332 350 m 466.668 350 l 525 291.668 l 525 233.332 l S
700 291.668 m 700 233.332 l 641.668 175 l 583.332 175 l S
641.668 0 m 583.332 0 l 525 58.332 l 525 116.668 l S
350 58.332 m 350 116.668 l 408.332 175 l 466.668 175 l S
700 58.332 m 700 116.668 l 641.668 175 l 583.332 175 l S
350 291.668 m 350 233.332 l 408.332 175 l 466.668 175 l S
408.332 0 m 466.668 0 l 525 58.332 l 525 116.668 l S
641.668 350 m 583.332 350 l 525 291.668 l 525 233.332 l S
758.332 1750 m 816.668 1750 l 875 1691.668 l 875 1633.332 l S
1050 1691.668 m 1050 1633.332 l 991.668 1575 l 933.332 1575 l S
991.668 1400 m 933.332 1400 l 875 1458.332 l 875 1516.668 l S
700 1458.332 m 700 1516.668 l 758.332 1575 l 816.668 1575 l S
1050 1458.332 m 1050 1516.668 l 991.668 1575 l 933.332 1575 l S
700 1691.668 m 700 1633.332 l 758.332 1575 l 816.668 1575 l S
758.332 1400 m 816.668 1400 l 875 1458.332 l 875 1516.668 l S
991.668 1750 m 933.332 1750 l 875 1691.668 l 875 1633.332 l S
758.332 1400 m 816.668 1400 l 875 1341.668 l 875 1283.332 l S
1050 1341.668 m 1050 1283.332 l 991.668 1225 l 933.332 1225 l S
991.668 1050 m 933.332 1050 l 875 1108.332 l 875 1166.668 l S
700 1108.332 m 700 1166.668 l 758.332 1225 l 816.668 1225 l S
1050 1108.332 m 1050 1166.668 l 991.668 1225 l 933.332 1225 l S
700 1341.668 m 700 1283.332 l 758.332 1225 l 816.668 1225 l S
758.332 1050 m 816.668 1050 l 875 1108.332 l 875 1166.668 l S
991.668 1400 m 933.332 1400 l 875 1341.668 l 875 1283.332 l S
758.332 1050 m 816.668 1050 l 875 991.668 l 875 933.332 l S
1050 991.668 m 1050 933.332 l 991.668 875 l 933.332 875 l S
991.668 700 m 933.332 700 l 875 758.332 l 875 816.668 l S
700 758.332 m 700 816.668 l 758.332 875 l 816.668 875 l S
1050 758.332 m 1050 816.668 l 991.668 875 l 933.332 875 l S
700 991.668 m 700 933.332 l 758.332 875 l 816.668 875 l S
758.332 700 m 816.668 700 l 875 758.332 l 875 816.668 l S
991.668 1050 m 933.332 1050 l 875 991.668 l 875 933.332 l S
758.332 700 m 816.668 700 l 875 641.668 l 875 583.332 l S
1050 641.668 m 1050 583.332 l 991.668 525 l 933.332 525 l S
991.668 350 m 933.332 350 l 875 408.332 l 875 466.668 l S
700 408.332 m 700 466.668 l 758.332 525 l 816.668 525 l S
1050 408.332 m 1050 466.668 l 991.668 525 l 933.332 525 l S
700 641.668 m 700 583.332 l 758.332 525 l 816.668 525 l S
758.332 350 m 816.668 350 l 875 408.332 l 875 466.668 l S
991.668 700 m 933.332 700 l 875 641.668 l 875 583.332 l S
758.332 350 m 816.668 350 l 875 291.668 l 875 233.332 l S
1050 291.668 m 1050 233.332 l 991.668 175 l 933.332 175 l S
991.668 0 m 933.332 0 l 875 58.332 l 875 116.668 l S
700 58.332 m 700 116.668 l 758.332 175 l 816.668 175 l S
1050 58.332 m 1050 116.668 l 991.668 175 l 933.332 175 l S
700 291.668 m 700 233.332 l 758.332 175 l 816.668 175 l S
758.332 0 m 816.668 0 l 875 58.332 l 875 116.668 l S
991.668 350 m 933.332 350 l 875 291.668 l 875 233.332 l S
1108.332 1750 m 1166.668 1750 l 1225 1691.668 l 1225 1633.332 l S
1400 1691.668 m 1400 1633.332 l 1341.668 1575 l 1283.332 1575 l S
1341.668 1400 m 1283.332 1400 l 1225 1458.332 l 1225 1516.668 l S
1050 1458.332 m 1050 1516.668 l 1108.332 1575 l 1166.668 1575 l S
1400 1458.332 m 1400 1516.668 l 1341.668 1575 l 1283.332 1575 l S
1050 1691.668 m 1050 1633.332 l 1108.332 1575 l 1166.668 1575 l S
1108.332 1400 m 1166.668 1400 l 1225 1458.332 l 1225 1516.668 l S
1341.668 1750 m 1283.332 1750 l 1225 1691.668 l 1225 1633.332 l S
1108.332 1400 m 1166.668 1400 l 1225 1341.668 l 1225 1283.332 l S
1400 1341.668 m 1400 1283.332 l 1341.668 1225 l 1283.332 1225 l S
1341.668 1050 m 1283.332 1050 l 1225 1108.332 l 1225 1166.668 l S
1050 1108.332 m 1050 1166.668 l 1108.332 1225 l 1166.668 1225 l S
1400 1108.332 m 1400 1166.668 l 1341.668 1225 l 1283.332 1225 l S
1050 1341.668 m 1050 1283.332 l 1108.332 1225 l 1166.668 1225 l S
1108.332 1050 m 1166.668 1050 l 1225 1108.332 l 1225 1166.668 l S
1341.668 1400 m 1283.332 1400 l 1225 1341.668 l 1225 1283.332 l S
1108.332 1050 m 1166.668 1050 l 1225 991.668 l 1225 933.332 l S
1400 991.668 m 1400 933.332 l 1341.668 875 l 1283.332 875 l S
1341.668 700 m 1283.332 700 l 1225 758.332 l 1225 816.668 l S
1050 758.332 m 1050 816.668 l 1108.332 875 l 1166.668 875 l S
1400 758.332 m 1400 816.668 l 1341.668 875 l 1283.332 875 l S
1050 991.668 m 1050 933.332 l 1108.332 875 l 1166.668 875 l S
1108.332 700 m 1166.668 700 l 1225 758.332 l 1225 816.668 l S
1341.668 1050 m 1283.332 1050 l 1225 991.668 l 1225 933.332 l S
1108.332 700 m 1166.668 700 l 1225 641.668 l 1225 583.332 l S
1400 641.668 m 1400 583.332 l 1341.668 525 l 1283.332 525 l S
1341.668 350 m 1283.332 350 l 1225 408.332 l 1225 466.668 l S
1050 408.332 m 1050 466.668 l 1108.332 525 l 1166.668 525 l S
1400 408.332 m 1400 466.668 l 1341.668 525 l 1283.332 525 l S
1050 641.668 m 1050 583.332 l 1108.332 525 l 1166.668 525 l S
1108.332 350 m 1166.668 350 l 1225 408.332 l 1225 466.668 l S
1341.668 700 m 1283.332 700 l 1225 641.668 l 1225 583.332 l S
1108.332 350 m 1166.668 350 l 1225 291.668 l 1225 233.332 l S
1400 291.668 m 1400 233.332 l 1341.668 175 l 1283.332 175 l S
1341.668 0 m 1283.332 0 l 1225 58.332 l 1225 116.668 l S
1050 58.332 m 1050 116.668 l 1108.332 175 l 1166.668 175 l S
1400 58.332 m 1400 116.668 l 1341.668 175 l 1283.332 175 l S
1050 291.668 m 1050 233.332 l 1108.332 175 l 1166.668 175 l S
1108.332 0 m 1166.668 0 l 1225 58.332 l 1225 116.668 l S
1341.668 350 m 1283.332 350 l 1225 291.668 l 1225 233.332 l S
1458.332 1750 m 1516.668 1750 l 1575 1691.668 l 1575 1633.332 l S
1750 1691.668 m 1750 1633.332 l 1691.668 1575 l 1633.332 1575 l S
1691.668 1400 m 1633.332 1400 l 1575 1458.332 l 1575 1516.668 l S
1400 1458.332 m 1400 1516.668 l 1458.332 1575 l 1516.668 1575 l S
1750 1458.332 m 1750 1516.668 l 1691.668 1575 l 1633.332 1575 l S
1400 1691.668 m 1400 1633.332 l 1458.332 1575 l 1516.668 1575 l S
1458.332 1400 m 1516.668 1400 l 1575 1458.332 l 1575 1516.668 l S
1691.668 1750 m 1633.332 1750 l 1575 1691.668 l 1575 1633.332 l S
1458.332 1400 m 1516.668 1400 l 1575 1341.668 l 1575 1283.332 l S
1750 1341.668 m 1750 1283.332 l 1691.668 1225 l 1633.332 1225 l S
1691.668 1050 m 1633.332 1050 l 1575 1108.332 l 1575 1166.668 l S
1400 1108.332 m 1400 1166.668 l 1458.332 1225 l 1516.668 1225 l S
1750 1108.332 m 1750 1166.668 l 1691.668 1225 l 1633.332 1225 l S
1400 1341.668 m 1400 1283.332 l 1458.332 1225 l 1516.668 1225 l S
1458.332 1050 m 1516.668 1050 l 1575 1108.332 l 1575 1166.668 l S
1691.668 1400 m 1633.332 1400 l 1575 1341.668 l 1575 1283.332 l S
1458.332 1050 m 1516.668 1050 l 1575 991.668 l 1575 933.332 l S
1750 991.668 m 1750 933.332 l 1691.668 875 l 1633.332 875 l S
1691.668 700 m 1633.332 700 l 1575 758.332 l 1575 816.668 l S
1400 758.332 m 1400 816.668 l 1458.332 875 l 1516.668 875 l S
1750 758.332 m 1750 816.668 l 1691.668 875 l 1633.332 875 l S
1400 991.668 m 1400 933.332 l 1458.332 875 l 1516.668 875 l S
1458.332 700 m 1516.668 700 l 1575 758.332 l 1575 816.668 l S
1691.668 1050 m 1633.332 1050 l 1575 991.668 l 1575 933.332 l S
1458.332 700 m 1516.668 700 l 1575 641.668 l 1575 583.332 l S
1750 641.668 m 1750 583.332 l 1691.668 525 l 1633.332 525 l S
1691.668 350 m 1633.332 350 l 1575 408.332 l 1575 466.668 l S
1400 408.332 m 1400 466.668 l 1458.332 525 l 1516.668 525 l S
1750 408.332 m 1750 466.668 l 1691.668 525 l 1633.332 525 l S
1400 641.668 m 1400 583.332 l 1458.332 525 l 1516.668 525 l S
1458.332 350 m 1516.668 350 l 1575 408.332 l 1575 466.668 l S
1691.668 700 m 1633.332 700 l 1575 641.668 l 1575 583.332 l S
1458.332 350 m 1516.668 350 l 1575 291.668 l 1575 233.332 l S
1750 291.668 m 1750 233.332 l 1691.668 175 l 1633.332 175 l S
1691.668 0 m 1633.332 0 l 1575 58.332 l 1575 116.668 l S
1400 58.332 m 1400 116.668 l 1458.332 175 l 1516.668 175 l S
1750 58.332 m 1750 116.668 l 1691.668 175 l 1633.332 175 l S
1400 291.668 m 1400 233.332 l 1458.332 175 l 1516.668 175 l S
1458.332 0 m 1516.668 0 l 1575 58.332 l 1575 116.668 l S
1691.668 350 m 1633.332 350 l 1575 291.668 l 1575 233.332 l S
1808.332 1750 m 1866.668 1750 l 1925 1691.668 l 1925 1633.332 l S
2100 1691.668 m 2100 1633.332 l 2041.668 1575 l 1983.332 1575 l S
2041.668 1400 m 1983.332 1400 l 1925 1458.332 l 1925 1516.668 l S
1750 1458.332 m 1750 1516.668 l 1808.332 1575 l 1866.668 1575 l S
2100 1458.332 m 2100 1516.668 l 2041.668 1575 l 1983.332 1575 l S
1750 1691.668 m 1750 1633.332 l 1808.332 1575 l 1866.668 1575 l S
1808.332 1400 m 1866.668 1400 l 1925 1458.332 l 1925 1516.668 l S
2041.668 1750 m 1983.332 1750 l 1925 1691.668 l 1925 1633.332 l S
1808.332 1400 m 1866.668 1400 l 1925 1341.668 l 1925 1283.332 l S
2100 1341.668 m 2100 1283.332 l 2041.668 1225 l 1983.332 1225 l S
2041.668 1050 m 1983.332 1050 l 1925 1108.332 l 1925 1166.668 l S
1750 1108.332 m 1750 1166.668 l 1808.332 1225 l 1866.668 1225 l S
2100 1108.332 m 2100 1166.668 l 2041.668 1225 l 1983.332 1225 l S
1750 1341.668 m 1750 1283.332 l 1808.332 1225 l 1866.668 1225 l S
1808.332 1050 m 1866.668 1050 l 1925 1108.332 l 1925 1166.668 l S
2041.668 1400 m 1983.332 1400 l 1925 1341.668 l 1925 1283.332 l S
1808.332 1050 m 1866.668 1050 l 1925 991.668 l 1925 933.332 l S
2100 991.668 m 2100 933.332 l 2041.668 875 l 1983.332 875 l S
2041.668 700 m 1983.332 700 l 1925 758.332 l 1925 816.668 l S
1750 758.332 m 1750 816.668 l 1808.332 875 l 1866.668 875 l S
2100 758.332 m 2100 816.668 l 2041.668 875 l 1983.332 875 l S
1750 991.668 m 1750 933.332 l 1808.332 875 l 1866.668 875 l S
1808.332 700 m 1866.668 700 l 1925 758.332 l 1925 816.668 l S
2041.668 1050 m 1983.332 1050 l 1925 991.668 l 1925 933.332 l S
1808.332 700 m 1866.668 700 l 1925 641.668 l 1925 583.332 l S
2100 641.668 m 2100 583.332 l 2041.668 525 l 1983.332 525 l S
2041.668 350 m 1983.332 350 l 1925 408.332 l 1925 466.668 l S
1750 408.332 m 1750 466.668 l 1808.332 525 l 1866.668 525 l S
2100 408.332 m 2100 466.668 l 2041.668 525 l 1983.332 525 l S
1750 641.668 m 1750 583.332 l 1808.332 525 l 1866.668 525 l S
1808.332 350 m 1866.668 350 l 1925 408.332 l 1925 466.668 l S
2041.668 700 m 1983.332 700 l 1925 641.668 l 1925 583.332 l S
1808.332 350 m 1866.668 350 l 1925 291.668 l 1925 233.332 l S
2100 291.668 m 2100 233.332 l 2041.668 175 l 1983.332 175 l S
2041.668 0 m 1983.332 0 l 1925 58.332 l 1925 116.668 l S
1750 58.332 m 1750 116.668 l 1808.332 175 l 1866.668 175 l S
2100 58.332 m 2100 116.668 l 2041.668 175 l 1983.332 175 l S
1750 291.668 m 1750 233.332 l 1808.332 175 l 1866.668 175 l S
1808.332 0 m 1866.668 0 l 1925 58.332 l 1925 116.668 l S
2041.668 350 m 1983.332 350 l 1925 291.668 l 1925 233.332 l S
2158.332 1750 m 2216.668 1750 l 2275 1691.668 l 2275 1633.332 l S
2450 1691.668 m 2450 1633.332 l 2391.668 1575 l 2333.332 1575 l S
2391.668 1400 m 2333.332 1400 l 2275 1458.332 l 2275 1516.668 l S
2100 1458.332 m 2100 1516.668 l 2158.332 1575 l 2216.668 1575 l S
2450 1458.332 m 2450 1516.668 l 2391.668 1575 l 2333.332 1575 l S
2100 1691.668 m 2100 1633.332 l 2158.332 1575 l 2216.668 1575 l S
2158.332 1400 m 2216.668 1400 l 2275 1458.332 l 2275 1516.668 l S
2391.668 1750 m 2333.332 1750 l 2275 1691.668 l 2275 1633.332 l S
2158.332 1400 m 2216.668 1400 l 2275 1341.668 l 2275 1283.332 l S
2450 1341.668 m 2450 1283.332 l 2391.668 1225 l 2333.332 1225 l S
2391.668 1050 m 2333.332 1050 l 2275 1108.332 l 2275 1166.668 l S
2100 1108.332 m 2100 1166.668 l 2158.332 1225 l 2216.668 1225 l S
2450 1108.332 m 2450 1166.668 l 2391.668 1225 l 2333.332 1225 l S
2100 1341.668 m 2100 1283.332 l 2158.332 1225 l 2216.668 1225 l S
2158.332 1050 m 2216.668 1050 l 2275 1108.332 l 2275 1166.668 l S
2391.668 1400 m 2333.332 1400 l 2275 1341.668 l 2275 1283.332 l S
2158.332 1050 m 2216.668 1050 l 2275 991.668 l 2275 933.332 l S
2450 991.668 m 2450 933.332 l 2391.668 875 l 2333.332 875 l S
2391.668 700 m 2333.332 700 l 2275 758.332 l 2275 816.668 l S
2100 758.332 m 2100 816.668 l 2158.332 875 l 2216.668 875 l S
2450 758.332 m 2450 816.668 l 2391.668 875 l 2333.332 875 l S
2100 991.668 m 2100 933.332 l 2158.332 875 l 2216.668 875 l S
2158.332 700 m 2216.668 700 l 2275 758.332 l 2275 816.668 l S
2391.668 1050 m 2333.332 1050 l 2275 991.668 l 2275 933.332 l S
2158.332 700 m 2216.668 700 l 2275 641.668 l 2275 583.332 l S
2450 641.668 m 2450 583.332 l 2391.668 525 l 2333.332 525 l S
2391.668 350 m 2333.332 350 l 2275 408.332 l 2275 466.668 l S
2100 408.332 m 2100 466.668 l 2158.332 525 l 2216.668 525 l S
2450 408.332 m 2450 466.668 l 2391.668 525 l 2333.332 525 l S
2100 641.668 m 2100 583.332 l 2158.332 525 l 2216.668 525 l S
2158.332 350 m 2216.668 350 l 2275 408.332 l 2275 466.668 l S
2391.668 700 m 2333.332 700 l 2275 641.668 l 2275 583.332 l S
2158.332 350 m 2216.668 350 l 2275 291.668 l 2275 233.332 l S
2450 291.668 m 2450 233.332 l 2391.668 175 l 2333.332 175 l S
2391.668 0 m 2333.332 0 l 2275 58.332 l 2275 116.668 l S
2100 58.332 m 2100 116.668 l 2158.332 175 l 2216.668 175 l S
2450 58.332 m 2450 116.668 l 2391.668 175 l 2333.332 175 l S
2100 291.668 m 2100 233.332 l 2158.332 175 l 2216.668 175 l S
2158.332 0 m 2216.668 0 l 2275 58.332 l 2275 116.668 l S
2391.668 350 m 2333.332 350 l 2275 291.668 l 2275 233.332 l S
Q Q
showpage
%%Trailer
%%Trailer
cleartomark
countdictstack
exch sub { end } repeat
restore
%%EOF
