%!PS-Adobe-2.0 EPSF-2.0
%%BoundingBox: 0 0 2450 1750
%%HiResBoundingBox: 0.000000 0.000000 2450.000000 1750.000000
%%Creator: cairo 1.14.2 (http://cairographics.org)
%%CreationDate: Mon Sep  7 08:21:58 2015
%%DocumentData: Clean7Bit
%%LanguageLevel: 2
%%DocumentMedia: 864x617mm 2450 1750 0 () ()
%%EndComments
% EPSF created by ps2eps 1.68
%%BeginProlog
save
countdictstack
mark
newpath
/showpage {} def
/setpagedevice {pop} def
%%EndProlog
%%Page 1 1
%%BeginProlog
/languagelevel where
{ pop languagelevel } { 1 } ifelse
2 lt { /Helvetica findfont 12 scalefont setfont 50 500 moveto
  (This print job requires a PostScript Language Level 2 printer.) show
  showpage quit } if
/q { gsave } bind def
/Q { grestore } bind def
/cm { 6 array astore concat } bind def
/w { setlinewidth } bind def
/J { setlinecap } bind def
/j { setlinejoin } bind def
/M { setmiterlimit } bind def
/d { setdash } bind def
/m { moveto } bind def
/l { lineto } bind def
/c { curveto } bind def
/h { closepath } bind def
/re { exch dup neg 3 1 roll 5 3 roll moveto 0 rlineto
      0 exch rlineto 0 rlineto closepath } bind def
/S { stroke } bind def
/f { fill } bind def
/f* { eofill } bind def
/n { newpath } bind def
/W { clip } bind def
/W* { eoclip } bind def
/BT { } bind def
/ET { } bind def
/pdfmark where { pop globaldict /?pdfmark /exec load put }
    { globaldict begin /?pdfmark /pop load def /pdfmark
    /cleartomark load def end } ifelse
/BDC { mark 3 1 roll /BDC pdfmark } bind def
/EMC { mark /EMC pdfmark } bind def
/cairo_store_point { /cairo_point_y exch def /cairo_point_x exch def } def
/Tj { show currentpoint cairo_store_point } bind def
/TJ {
  {
    dup
    type /stringtype eq
    { show } { -0.001 mul 0 cairo_font_matrix dtransform rmoveto } ifelse
  } forall
  currentpoint cairo_store_point
} bind def
/cairo_selectfont { cairo_font_matrix aload pop pop pop 0 0 6 array astore
    cairo_font exch selectfont cairo_point_x cairo_point_y moveto } bind def
/Tf { pop /cairo_font exch def /cairo_font_matrix where
      { pop cairo_selectfont } if } bind def
/Td { matrix translate cairo_font_matrix matrix concatmatrix dup
      /cairo_font_matrix exch def dup 4 get exch 5 get cairo_store_point
      /cairo_font where { pop cairo_selectfont } if } bind def
/Tm { 2 copy 8 2 roll 6 array astore /cairo_font_matrix exch def
      cairo_store_point /cairo_font where { pop cairo_selectfont } if } bind def
/g { setgray } bind def
/rg { setrgbcolor } bind def
/d1 { setcachedevice } bind def
/cairo_set_page_size {
  % Change paper size, but only if different from previous paper size otherwise
  % duplex fails. PLRM specifies a tolerance of 5 pts when matching paper size
  % so we use the same when checking if the size changes.
  /setpagedevice where {
    pop currentpagedevice
    /PageSize known {
      2 copy
      currentpagedevice /PageSize get aload pop
      exch 4 1 roll
      sub abs 5 gt
      3 1 roll
      sub abs 5 gt
      or
    } {
      true
    } ifelse
    {
      2 array astore
      2 dict begin
        /PageSize exch def
        /ImagingBBox null def
      currentdict end
      setpagedevice
    } {
      pop pop
    } ifelse
  } {
    pop
  } ifelse
} def
%%EndProlog
%%BeginSetup
%%EndSetup
%%Page: 1 1
%%BeginPageSetup
%%PageMedia: 864x617mm
%%PageBoundingBox: 0 0 2450 1750
2450 1750 cairo_set_page_size
%%EndPageSetup
q 0 0 2450 1750 rectclip q
0.984314 g
0 0 2450 1750 rectfill
0.788235 g
1.875 w
0 J
1 j
[] 0.0 d
4 M 0 1750 2450 -1750 re S
0 g
2.5 w
1 J
58.332 1750 m 97.223 1750 136.109 1711.109 175 1633.332 c S
350 1691.668 m 350 1652.777 311.109 1613.891 233.332 1575 c S
291.668 1400 m 252.777 1400 213.891 1438.891 175 1516.668 c S
0 1458.332 m 0 1497.223 38.891 1536.109 116.668 1575 c S
350 1458.332 m 350 1497.223 311.109 1536.109 233.332 1575 c S
0 1691.668 m 0 1652.777 38.891 1613.891 116.668 1575 c S
58.332 1400 m 97.223 1400 136.109 1438.891 175 1516.668 c S
291.668 1750 m 252.777 1750 213.891 1711.109 175 1633.332 c S
58.332 1400 m 97.223 1400 136.109 1361.109 175 1283.332 c S
350 1341.668 m 350 1302.777 311.109 1263.891 233.332 1225 c S
291.668 1050 m 252.777 1050 213.891 1088.891 175 1166.668 c S
0 1108.332 m 0 1147.223 38.891 1186.109 116.668 1225 c S
350 1108.332 m 350 1147.223 311.109 1186.109 233.332 1225 c S
0 1341.668 m 0 1302.777 38.891 1263.891 116.668 1225 c S
58.332 1050 m 97.223 1050 136.109 1088.891 175 1166.668 c S
291.668 1400 m 252.777 1400 213.891 1361.109 175 1283.332 c S
58.332 1050 m 97.223 1050 136.109 1011.109 175 933.332 c S
350 991.668 m 350 952.777 311.109 913.891 233.332 875 c S
291.668 700 m 252.777 700 213.891 738.891 175 816.668 c S
0 758.332 m 0 797.223 38.891 836.109 116.668 875 c S
350 758.332 m 350 797.223 311.109 836.109 233.332 875 c S
0 991.668 m 0 952.777 38.891 913.891 116.668 875 c S
58.332 700 m 97.223 700 136.109 738.891 175 816.668 c S
291.668 1050 m 252.777 1050 213.891 1011.109 175 933.332 c S
58.332 700 m 97.223 700 136.109 661.109 175 583.332 c S
350 641.668 m 350 602.777 311.109 563.891 233.332 525 c S
291.668 350 m 252.777 350 213.891 388.891 175 466.668 c S
0 408.332 m 0 447.223 38.891 486.109 116.668 525 c S
350 408.332 m 350 447.223 311.109 486.109 233.332 525 c S
0 641.668 m 0 602.777 38.891 563.891 116.668 525 c S
58.332 350 m 97.223 350 136.109 388.891 175 466.668 c S
291.668 700 m 252.777 700 213.891 661.109 175 583.332 c S
58.332 350 m 97.223 350 136.109 311.109 175 233.332 c S
350 291.668 m 350 252.777 311.109 213.891 233.332 175 c S
291.668 0 m 252.777 0 213.891 38.891 175 116.668 c S
0 58.332 m 0 97.223 38.891 136.109 116.668 175 c S
350 58.332 m 350 97.223 311.109 136.109 233.332 175 c S
0 291.668 m 0 252.777 38.891 213.891 116.668 175 c S
58.332 0 m 97.223 0 136.109 38.891 175 116.668 c S
291.668 350 m 252.777 350 213.891 311.109 175 233.332 c S
408.332 1750 m 447.223 1750 486.109 1711.109 525 1633.332 c S
700 1691.668 m 700 1652.777 661.109 1613.891 583.332 1575 c S
641.668 1400 m 602.777 1400 563.891 1438.891 525 1516.668 c S
350 1458.332 m 350 1497.223 388.891 1536.109 466.668 1575 c S
700 1458.332 m 700 1497.223 661.109 1536.109 583.332 1575 c S
350 1691.668 m 350 1652.777 388.891 1613.891 466.668 1575 c S
408.332 1400 m 447.223 1400 486.109 1438.891 525 1516.668 c S
641.668 1750 m 602.777 1750 563.891 1711.109 525 1633.332 c S
408.332 1400 m 447.223 1400 486.109 1361.109 525 1283.332 c S
700 1341.668 m 700 1302.777 661.109 1263.891 583.332 1225 c S
641.668 1050 m 602.777 1050 563.891 1088.891 525 1166.668 c S
350 1108.332 m 350 1147.223 388.891 1186.109 466.668 1225 c S
700 1108.332 m 700 1147.223 661.109 1186.109 583.332 1225 c S
350 1341.668 m 350 1302.777 388.891 1263.891 466.668 1225 c S
408.332 1050 m 447.223 1050 486.109 1088.891 525 1166.668 c S
641.668 1400 m 602.777 1400 563.891 1361.109 525 1283.332 c S
408.332 1050 m 447.223 1050 486.109 1011.109 525 933.332 c S
700 991.668 m 700 952.777 661.109 913.891 583.332 875 c S
641.668 700 m 602.777 700 563.891 738.891 525 816.668 c S
350 758.332 m 350 797.223 388.891 836.109 466.668 875 c S
700 758.332 m 700 797.223 661.109 836.109 583.332 875 c S
350 991.668 m 350 952.777 388.891 913.891 466.668 875 c S
408.332 700 m 447.223 700 486.109 738.891 525 816.668 c S
641.668 1050 m 602.777 1050 563.891 1011.109 525 933.332 c S
408.332 700 m 447.223 700 486.109 661.109 525 583.332 c S
700 641.668 m 700 602.777 661.109 563.891 583.332 525 c S
641.668 350 m 602.777 350 563.891 388.891 525 466.668 c S
350 408.332 m 350 447.223 388.891 486.109 466.668 525 c S
700 408.332 m 700 447.223 661.109 486.109 583.332 525 c S
350 641.668 m 350 602.777 388.891 563.891 466.668 525 c S
408.332 350 m 447.223 350 486.109 388.891 525 466.668 c S
641.668 700 m 602.777 700 563.891 661.109 525 583.332 c S
408.332 350 m 447.223 350 486.109 311.109 525 233.332 c S
700 291.668 m 700 252.777 661.109 213.891 583.332 175 c S
641.668 0 m 602.777 0 563.891 38.891 525 116.668 c S
350 58.332 m 350 97.223 388.891 136.109 466.668 175 c S
700 58.332 m 700 97.223 661.109 136.109 583.332 175 c S
350 291.668 m 350 252.777 388.891 213.891 466.668 175 c S
408.332 0 m 447.223 0 486.109 38.891 525 116.668 c S
641.668 350 m 602.777 350 563.891 311.109 525 233.332 c S
758.332 1750 m 797.223 1750 836.109 1711.109 875 1633.332 c S
1050 1691.668 m 1050 1652.777 1011.109 1613.891 933.332 1575 c S
991.668 1400 m 952.777 1400 913.891 1438.891 875 1516.668 c S
700 1458.332 m 700 1497.223 738.891 1536.109 816.668 1575 c S
1050 1458.332 m 1050 1497.223 1011.109 1536.109 933.332 1575 c S
700 1691.668 m 700 1652.777 738.891 1613.891 816.668 1575 c S
758.332 1400 m 797.223 1400 836.109 1438.891 875 1516.668 c S
991.668 1750 m 952.777 1750 913.891 1711.109 875 1633.332 c S
758.332 1400 m 797.223 1400 836.109 1361.109 875 1283.332 c S
1050 1341.668 m 1050 1302.777 1011.109 1263.891 933.332 1225 c S
991.668 1050 m 952.777 1050 913.891 1088.891 875 1166.668 c S
700 1108.332 m 700 1147.223 738.891 1186.109 816.668 1225 c S
1050 1108.332 m 1050 1147.223 1011.109 1186.109 933.332 1225 c S
700 1341.668 m 700 1302.777 738.891 1263.891 816.668 1225 c S
758.332 1050 m 797.223 1050 836.109 1088.891 875 1166.668 c S
991.668 1400 m 952.777 1400 913.891 1361.109 875 1283.332 c S
758.332 1050 m 797.223 1050 836.109 1011.109 875 933.332 c S
1050 991.668 m 1050 952.777 1011.109 913.891 933.332 875 c S
991.668 700 m 952.777 700 913.891 738.891 875 816.668 c S
700 758.332 m 700 797.223 738.891 836.109 816.668 875 c S
1050 758.332 m 1050 797.223 1011.109 836.109 933.332 875 c S
700 991.668 m 700 952.777 738.891 913.891 816.668 875 c S
758.332 700 m 797.223 700 836.109 738.891 875 816.668 c S
991.668 1050 m 952.777 1050 913.891 1011.109 875 933.332 c S
758.332 700 m 797.223 700 836.109 661.109 875 583.332 c S
1050 641.668 m 1050 602.777 1011.109 563.891 933.332 525 c S
991.668 350 m 952.777 350 913.891 388.891 875 466.668 c S
700 408.332 m 700 447.223 738.891 486.109 816.668 525 c S
1050 408.332 m 1050 447.223 1011.109 486.109 933.332 525 c S
700 641.668 m 700 602.777 738.891 563.891 816.668 525 c S
758.332 350 m 797.223 350 836.109 388.891 875 466.668 c S
991.668 700 m 952.777 700 913.891 661.109 875 583.332 c S
758.332 350 m 797.223 350 836.109 311.109 875 233.332 c S
1050 291.668 m 1050 252.777 1011.109 213.891 933.332 175 c S
991.668 0 m 952.777 0 913.891 38.891 875 116.668 c S
700 58.332 m 700 97.223 738.891 136.109 816.668 175 c S
1050 58.332 m 1050 97.223 1011.109 136.109 933.332 175 c S
700 291.668 m 700 252.777 738.891 213.891 816.668 175 c S
758.332 0 m 797.223 0 836.109 38.891 875 116.668 c S
991.668 350 m 952.777 350 913.891 311.109 875 233.332 c S
1108.332 1750 m 1147.223 1750 1186.109 1711.109 1225 1633.332 c S
1400 1691.668 m 1400 1652.777 1361.109 1613.891 1283.332 1575 c S
1341.668 1400 m 1302.777 1400 1263.891 1438.891 1225 1516.668 c S
1050 1458.332 m 1050 1497.223 1088.891 1536.109 1166.668 1575 c S
1400 1458.332 m 1400 1497.223 1361.109 1536.109 1283.332 1575 c S
1050 1691.668 m 1050 1652.777 1088.891 1613.891 1166.668 1575 c S
1108.332 1400 m 1147.223 1400 1186.109 1438.891 1225 1516.668 c S
1341.668 1750 m 1302.777 1750 1263.891 1711.109 1225 1633.332 c S
1108.332 1400 m 1147.223 1400 1186.109 1361.109 1225 1283.332 c S
1400 1341.668 m 1400 1302.777 1361.109 1263.891 1283.332 1225 c S
1341.668 1050 m 1302.777 1050 1263.891 1088.891 1225 1166.668 c S
1050 1108.332 m 1050 1147.223 1088.891 1186.109 1166.668 1225 c S
1400 1108.332 m 1400 1147.223 1361.109 1186.109 1283.332 1225 c S
1050 1341.668 m 1050 1302.777 1088.891 1263.891 1166.668 1225 c S
1108.332 1050 m 1147.223 1050 1186.109 1088.891 1225 1166.668 c S
1341.668 1400 m 1302.777 1400 1263.891 1361.109 1225 1283.332 c S
1108.332 1050 m 1147.223 1050 1186.109 1011.109 1225 933.332 c S
1400 991.668 m 1400 952.777 1361.109 913.891 1283.332 875 c S
1341.668 700 m 1302.777 700 1263.891 738.891 1225 816.668 c S
1050 758.332 m 1050 797.223 1088.891 836.109 1166.668 875 c S
1400 758.332 m 1400 797.223 1361.109 836.109 1283.332 875 c S
1050 991.668 m 1050 952.777 1088.891 913.891 1166.668 875 c S
1108.332 700 m 1147.223 700 1186.109 738.891 1225 816.668 c S
1341.668 1050 m 1302.777 1050 1263.891 1011.109 1225 933.332 c S
1108.332 700 m 1147.223 700 1186.109 661.109 1225 583.332 c S
1400 641.668 m 1400 602.777 1361.109 563.891 1283.332 525 c S
1341.668 350 m 1302.777 350 1263.891 388.891 1225 466.668 c S
1050 408.332 m 1050 447.223 1088.891 486.109 1166.668 525 c S
1400 408.332 m 1400 447.223 1361.109 486.109 1283.332 525 c S
1050 641.668 m 1050 602.777 1088.891 563.891 1166.668 525 c S
1108.332 350 m 1147.223 350 1186.109 388.891 1225 466.668 c S
1341.668 700 m 1302.777 700 1263.891 661.109 1225 583.332 c S
1108.332 350 m 1147.223 350 1186.109 311.109 1225 233.332 c S
1400 291.668 m 1400 252.777 1361.109 213.891 1283.332 175 c S
1341.668 0 m 1302.777 0 1263.891 38.891 1225 116.668 c S
1050 58.332 m 1050 97.223 1088.891 136.109 1166.668 175 c S
1400 58.332 m 1400 97.223 1361.109 136.109 1283.332 175 c S
1050 291.668 m 1050 252.777 1088.891 213.891 1166.668 175 c S
1108.332 0 m 1147.223 0 1186.109 38.891 1225 116.668 c S
1341.668 350 m 1302.777 350 1263.891 311.109 1225 233.332 c S
1458.332 1750 m 1497.223 1750 1536.109 1711.109 1575 1633.332 c S
1750 1691.668 m 1750 1652.777 1711.109 1613.891 1633.332 1575 c S
1691.668 1400 m 1652.777 1400 1613.891 1438.891 1575 1516.668 c S
1400 1458.332 m 1400 1497.223 1438.891 1536.109 1516.668 1575 c S
1750 1458.332 m 1750 1497.223 1711.109 1536.109 1633.332 1575 c S
1400 1691.668 m 1400 1652.777 1438.891 1613.891 1516.668 1575 c S
1458.332 1400 m 1497.223 1400 1536.109 1438.891 1575 1516.668 c S
1691.668 1750 m 1652.777 1750 1613.891 1711.109 1575 1633.332 c S
1458.332 1400 m 1497.223 1400 1536.109 1361.109 1575 1283.332 c S
1750 1341.668 m 1750 1302.777 1711.109 1263.891 1633.332 1225 c S
1691.668 1050 m 1652.777 1050 1613.891 1088.891 1575 1166.668 c S
1400 1108.332 m 1400 1147.223 1438.891 1186.109 1516.668 1225 c S
1750 1108.332 m 1750 1147.223 1711.109 1186.109 1633.332 1225 c S
1400 1341.668 m 1400 1302.777 1438.891 1263.891 1516.668 1225 c S
1458.332 1050 m 1497.223 1050 1536.109 1088.891 1575 1166.668 c S
1691.668 1400 m 1652.777 1400 1613.891 1361.109 1575 1283.332 c S
1458.332 1050 m 1497.223 1050 1536.109 1011.109 1575 933.332 c S
1750 991.668 m 1750 952.777 1711.109 913.891 1633.332 875 c S
1691.668 700 m 1652.777 700 1613.891 738.891 1575 816.668 c S
1400 758.332 m 1400 797.223 1438.891 836.109 1516.668 875 c S
1750 758.332 m 1750 797.223 1711.109 836.109 1633.332 875 c S
1400 991.668 m 1400 952.777 1438.891 913.891 1516.668 875 c S
1458.332 700 m 1497.223 700 1536.109 738.891 1575 816.668 c S
1691.668 1050 m 1652.777 1050 1613.891 1011.109 1575 933.332 c S
1458.332 700 m 1497.223 700 1536.109 661.109 1575 583.332 c S
1750 641.668 m 1750 602.777 1711.109 563.891 1633.332 525 c S
1691.668 350 m 1652.777 350 1613.891 388.891 1575 466.668 c S
1400 408.332 m 1400 447.223 1438.891 486.109 1516.668 525 c S
1750 408.332 m 1750 447.223 1711.109 486.109 1633.332 525 c S
1400 641.668 m 1400 602.777 1438.891 563.891 1516.668 525 c S
1458.332 350 m 1497.223 350 1536.109 388.891 1575 466.668 c S
1691.668 700 m 1652.777 700 1613.891 661.109 1575 583.332 c S
1458.332 350 m 1497.223 350 1536.109 311.109 1575 233.332 c S
1750 291.668 m 1750 252.777 1711.109 213.891 1633.332 175 c S
1691.668 0 m 1652.777 0 1613.891 38.891 1575 116.668 c S
1400 58.332 m 1400 97.223 1438.891 136.109 1516.668 175 c S
1750 58.332 m 1750 97.223 1711.109 136.109 1633.332 175 c S
1400 291.668 m 1400 252.777 1438.891 213.891 1516.668 175 c S
1458.332 0 m 1497.223 0 1536.109 38.891 1575 116.668 c S
1691.668 350 m 1652.777 350 1613.891 311.109 1575 233.332 c S
1808.332 1750 m 1847.223 1750 1886.109 1711.109 1925 1633.332 c S
2100 1691.668 m 2100 1652.777 2061.109 1613.891 1983.332 1575 c S
2041.668 1400 m 2002.777 1400 1963.891 1438.891 1925 1516.668 c S
1750 1458.332 m 1750 1497.223 1788.891 1536.109 1866.668 1575 c S
2100 1458.332 m 2100 1497.223 2061.109 1536.109 1983.332 1575 c S
1750 1691.668 m 1750 1652.777 1788.891 1613.891 1866.668 1575 c S
1808.332 1400 m 1847.223 1400 1886.109 1438.891 1925 1516.668 c S
2041.668 1750 m 2002.777 1750 1963.891 1711.109 1925 1633.332 c S
1808.332 1400 m 1847.223 1400 1886.109 1361.109 1925 1283.332 c S
2100 1341.668 m 2100 1302.777 2061.109 1263.891 1983.332 1225 c S
2041.668 1050 m 2002.777 1050 1963.891 1088.891 1925 1166.668 c S
1750 1108.332 m 1750 1147.223 1788.891 1186.109 1866.668 1225 c S
2100 1108.332 m 2100 1147.223 2061.109 1186.109 1983.332 1225 c S
1750 1341.668 m 1750 1302.777 1788.891 1263.891 1866.668 1225 c S
1808.332 1050 m 1847.223 1050 1886.109 1088.891 1925 1166.668 c S
2041.668 1400 m 2002.777 1400 1963.891 1361.109 1925 1283.332 c S
1808.332 1050 m 1847.223 1050 1886.109 1011.109 1925 933.332 c S
2100 991.668 m 2100 952.777 2061.109 913.891 1983.332 875 c S
2041.668 700 m 2002.777 700 1963.891 738.891 1925 816.668 c S
1750 758.332 m 1750 797.223 1788.891 836.109 1866.668 875 c S
2100 758.332 m 2100 797.223 2061.109 836.109 1983.332 875 c S
1750 991.668 m 1750 952.777 1788.891 913.891 1866.668 875 c S
1808.332 700 m 1847.223 700 1886.109 738.891 1925 816.668 c S
2041.668 1050 m 2002.777 1050 1963.891 1011.109 1925 933.332 c S
1808.332 700 m 1847.223 700 1886.109 661.109 1925 583.332 c S
2100 641.668 m 2100 602.777 2061.109 563.891 1983.332 525 c S
2041.668 350 m 2002.777 350 1963.891 388.891 1925 466.668 c S
1750 408.332 m 1750 447.223 1788.891 486.109 1866.668 525 c S
2100 408.332 m 2100 447.223 2061.109 486.109 1983.332 525 c S
1750 641.668 m 1750 602.777 1788.891 563.891 1866.668 525 c S
1808.332 350 m 1847.223 350 1886.109 388.891 1925 466.668 c S
2041.668 700 m 2002.777 700 1963.891 661.109 1925 583.332 c S
1808.332 350 m 1847.223 350 1886.109 311.109 1925 233.332 c S
2100 291.668 m 2100 252.777 2061.109 213.891 1983.332 175 c S
2041.668 0 m 2002.777 0 1963.891 38.891 1925 116.668 c S
1750 58.332 m 1750 97.223 1788.891 136.109 1866.668 175 c S
2100 58.332 m 2100 97.223 2061.109 136.109 1983.332 175 c S
1750 291.668 m 1750 252.777 1788.891 213.891 1866.668 175 c S
1808.332 0 m 1847.223 0 1886.109 38.891 1925 116.668 c S
2041.668 350 m 2002.777 350 1963.891 311.109 1925 233.332 c S
2158.332 1750 m 2197.223 1750 2236.109 1711.109 2275 1633.332 c S
2450 1691.668 m 2450 1652.777 2411.109 1613.891 2333.332 1575 c S
2391.668 1400 m 2352.777 1400 2313.891 1438.891 2275 1516.668 c S
2100 1458.332 m 2100 1497.223 2138.891 1536.109 2216.668 1575 c S
2450 1458.332 m 2450 1497.223 2411.109 1536.109 2333.332 1575 c S
2100 1691.668 m 2100 1652.777 2138.891 1613.891 2216.668 1575 c S
2158.332 1400 m 2197.223 1400 2236.109 1438.891 2275 1516.668 c S
2391.668 1750 m 2352.777 1750 2313.891 1711.109 2275 1633.332 c S
2158.332 1400 m 2197.223 1400 2236.109 1361.109 2275 1283.332 c S
2450 1341.668 m 2450 1302.777 2411.109 1263.891 2333.332 1225 c S
2391.668 1050 m 2352.777 1050 2313.891 1088.891 2275 1166.668 c S
2100 1108.332 m 2100 1147.223 2138.891 1186.109 2216.668 1225 c S
2450 1108.332 m 2450 1147.223 2411.109 1186.109 2333.332 1225 c S
2100 1341.668 m 2100 1302.777 2138.891 1263.891 2216.668 1225 c S
2158.332 1050 m 2197.223 1050 2236.109 1088.891 2275 1166.668 c S
2391.668 1400 m 2352.777 1400 2313.891 1361.109 2275 1283.332 c S
2158.332 1050 m 2197.223 1050 2236.109 1011.109 2275 933.332 c S
2450 991.668 m 2450 952.777 2411.109 913.891 2333.332 875 c S
2391.668 700 m 2352.777 700 2313.891 738.891 2275 816.668 c S
2100 758.332 m 2100 797.223 2138.891 836.109 2216.668 875 c S
2450 758.332 m 2450 797.223 2411.109 836.109 2333.332 875 c S
2100 991.668 m 2100 952.777 2138.891 913.891 2216.668 875 c S
2158.332 700 m 2197.223 700 2236.109 738.891 2275 816.668 c S
2391.668 1050 m 2352.777 1050 2313.891 1011.109 2275 933.332 c S
2158.332 700 m 2197.223 700 2236.109 661.109 2275 583.332 c S
2450 641.668 m 2450 602.777 2411.109 563.891 2333.332 525 c S
2391.668 350 m 2352.777 350 2313.891 388.891 2275 466.668 c S
2100 408.332 m 2100 447.223 2138.891 486.109 2216.668 525 c S
2450 408.332 m 2450 447.223 2411.109 486.109 2333.332 525 c S
2100 641.668 m 2100 602.777 2138.891 563.891 2216.668 525 c S
2158.332 350 m 2197.223 350 2236.109 388.891 2275 466.668 c S
2391.668 700 m 2352.777 700 2313.891 661.109 2275 583.332 c S
2158.332 350 m 2197.223 350 2236.109 311.109 2275 233.332 c S
2450 291.668 m 2450 252.777 2411.109 213.891 2333.332 175 c S
2391.668 0 m 2352.777 0 2313.891 38.891 2275 116.668 c S
2100 58.332 m 2100 97.223 2138.891 136.109 2216.668 175 c S
2450 58.332 m 2450 97.223 2411.109 136.109 2333.332 175 c S
2100 291.668 m 2100 252.777 2138.891 213.891 2216.668 175 c S
2158.332 0 m 2197.223 0 2236.109 38.891 2275 116.668 c S
2391.668 350 m 2352.777 350 2313.891 311.109 2275 233.332 c S
Q Q
showpage
%%Trailer
%%Trailer
cleartomark
countdictstack
exch sub { end } repeat
restore
%%EOF
