<svg xmlns="http://www.w3.org/2000/svg" baseProfile="full" width="2450" height="1750" viewBox="-175.0 -175.0 2450.0 1750.0">
    <title>
        Pattern design from http://ornamentist.org
    </title>
    <desc>
        This file is licensed under a Creative Commons CC BY 4.0 license: http://creativecommons.org/licenses/by/4.0/
    </desc>
    <defs>
        <style>
<![CDATA[
        
polyline {
  fill:            none;
  stroke:          black;
  stroke-linecap:  round;
  stroke-linejoin: round;
  stroke-width:    2.0pt;
}


polyline.closed {
  fill:      #d9d9d9;
  fill-rule: evenodd;
}


polygon {
  fill:            #d9d9d9;
  fill-rule:       evenodd;
  stroke:          black;
  stroke-linejoin: round;
  stroke-width:    2.0pt;
}


circle {
  fill:         #d9d9d9;
  stroke:       black;
  stroke-width: 2.0pt;
}


ellipse {
  fill:         #d9d9d9;
  stroke:       black;
  stroke-width: 2.0pt;
}


path {
  fill:            none;
  stroke:          black;
  stroke-linecap:  round;
  stroke-linejoin: round;
  stroke-width:    2.0pt;
}


path.closed {
  fill:      #d9d9d9;
  fill-rule: evenodd;
}


polygon.background,
path.background
{
  fill:   #fbfbfb;
  stroke: #c9c9c9;
  stroke-width: 1.5pt;
}

        ]]>
        </style>
    </defs>
    <clipPath id="design">
        <path d="M-175-175h2450v1750H-175z"/>
    </clipPath>
    <g clip-path="url(#design)" color-rendering="optimizeQuality" shape-rendering="geometricPrecision" id="graphics">
        <path class="background closed" d="M2275-175v1750H-175V-175z"/>
        <path d="M-58.333-175L0-116.667h-58.333L-175-175M175-58.333L116.667 0v-58.333L175-175M58.333 175L0 116.667h58.333L175 175M-175 58.333L-116.667 0v58.333L-175 175M175 58.333L116.667 0v58.333L175 175M-175-58.333L-116.667 0v-58.333L-175-175M-58.333 175L0 116.667h-58.333L-175 175M58.333-175L0-116.667h58.333L175-175M-58.333 175L0 233.333h-58.333L-175 175M175 291.667L116.667 350v-58.333L175 175M58.333 525L0 466.667h58.333L175 525M-175 408.333L-116.667 350v58.333L-175 525M175 408.333L116.667 350v58.333L175 525M-175 291.667L-116.667 350v-58.333L-175 175M-58.333 525L0 466.667h-58.333L-175 525M58.333 175L0 233.333h58.333L175 175M-58.333 525L0 583.333h-58.333L-175 525M175 641.667L116.667 700v-58.333L175 525M58.333 875L0 816.667h58.333L175 875M-175 758.333L-116.667 700v58.333L-175 875M175 758.333L116.667 700v58.333L175 875M-175 641.667L-116.667 700v-58.333L-175 525M-58.333 875L0 816.667h-58.333L-175 875M58.333 525L0 583.333h58.333L175 525M-58.333 875L0 933.333h-58.333L-175 875M175 991.667L116.667 1050v-58.333L175 875M58.333 1225L0 1166.667h58.333L175 1225M-175 1108.333l58.333-58.333v58.333L-175 1225M175 1108.333L116.667 1050v58.333L175 1225M-175 991.667l58.333 58.333v-58.333L-175 875M-58.333 1225L0 1166.667h-58.333L-175 1225M58.333 875L0 933.333h58.333L175 875M-58.333 1225L0 1283.333h-58.333L-175 1225M175 1341.667L116.667 1400v-58.333L175 1225M58.333 1575L0 1516.667h58.333L175 1575M-175 1458.333l58.333-58.333v58.333L-175 1575M175 1458.333L116.667 1400v58.333L175 1575M-175 1341.667l58.333 58.333v-58.333L-175 1225M-58.333 1575L0 1516.667h-58.333L-175 1575M58.333 1225L0 1283.333h58.333L175 1225M291.667-175L350-116.667h-58.333L175-175M525-58.333L466.667 0v-58.333L525-175M408.333 175L350 116.667h58.333L525 175M175 58.333L233.333 0v58.333L175 175M525 58.333L466.667 0v58.333L525 175M175-58.333L233.333 0v-58.333L175-175M291.667 175L350 116.667h-58.333L175 175M408.333-175L350-116.667h58.333L525-175M291.667 175L350 233.333h-58.333L175 175M525 291.667L466.667 350v-58.333L525 175M408.333 525L350 466.667h58.333L525 525M175 408.333L233.333 350v58.333L175 525M525 408.333L466.667 350v58.333L525 525M175 291.667L233.333 350v-58.333L175 175M291.667 525L350 466.667h-58.333L175 525M408.333 175L350 233.333h58.333L525 175M291.667 525L350 583.333h-58.333L175 525M525 641.667L466.667 700v-58.333L525 525M408.333 875L350 816.667h58.333L525 875M175 758.333L233.333 700v58.333L175 875M525 758.333L466.667 700v58.333L525 875M175 641.667L233.333 700v-58.333L175 525M291.667 875L350 816.667h-58.333L175 875M408.333 525L350 583.333h58.333L525 525M291.667 875L350 933.333h-58.333L175 875M525 991.667L466.667 1050v-58.333L525 875M408.333 1225L350 1166.667h58.333L525 1225M175 1108.333L233.333 1050v58.333L175 1225M525 1108.333L466.667 1050v58.333L525 1225M175 991.667L233.333 1050v-58.333L175 875M291.667 1225L350 1166.667h-58.333L175 1225M408.333 875L350 933.333h58.333L525 875M291.667 1225L350 1283.333h-58.333L175 1225M525 1341.667L466.667 1400v-58.333L525 1225M408.333 1575L350 1516.667h58.333L525 1575M175 1458.333L233.333 1400v58.333L175 1575M525 1458.333L466.667 1400v58.333L525 1575M175 1341.667L233.333 1400v-58.333L175 1225M291.667 1575L350 1516.667h-58.333L175 1575M408.333 1225L350 1283.333h58.333L525 1225M641.667-175L700-116.667h-58.333L525-175M875-58.333L816.667 0v-58.333L875-175M758.333 175L700 116.667h58.333L875 175M525 58.333L583.333 0v58.333L525 175M875 58.333L816.667 0v58.333L875 175M525-58.333L583.333 0v-58.333L525-175M641.667 175L700 116.667h-58.333L525 175M758.333-175L700-116.667h58.333L875-175M641.667 175L700 233.333h-58.333L525 175M875 291.667L816.667 350v-58.333L875 175M758.333 525L700 466.667h58.333L875 525M525 408.333L583.333 350v58.333L525 525M875 408.333L816.667 350v58.333L875 525M525 291.667L583.333 350v-58.333L525 175M641.667 525L700 466.667h-58.333L525 525M758.333 175L700 233.333h58.333L875 175M641.667 525L700 583.333h-58.333L525 525M875 641.667L816.667 700v-58.333L875 525M758.333 875L700 816.667h58.333L875 875M525 758.333L583.333 700v58.333L525 875M875 758.333L816.667 700v58.333L875 875M525 641.667L583.333 700v-58.333L525 525M641.667 875L700 816.667h-58.333L525 875" class="polyline-4-1 open"/>
        <path d="M758.333 525L700 583.333h58.333L875 525M641.667 875L700 933.333h-58.333L525 875M875 991.667L816.667 1050v-58.333L875 875M758.333 1225L700 1166.667h58.333L875 1225M525 1108.333L583.333 1050v58.333L525 1225M875 1108.333L816.667 1050v58.333L875 1225M525 991.667L583.333 1050v-58.333L525 875M641.667 1225L700 1166.667h-58.333L525 1225M758.333 875L700 933.333h58.333L875 875M641.667 1225L700 1283.333h-58.333L525 1225M875 1341.667L816.667 1400v-58.333L875 1225M758.333 1575L700 1516.667h58.333L875 1575M525 1458.333L583.333 1400v58.333L525 1575M875 1458.333L816.667 1400v58.333L875 1575M525 1341.667L583.333 1400v-58.333L525 1225M641.667 1575L700 1516.667h-58.333L525 1575M758.333 1225L700 1283.333h58.333L875 1225M991.667-175L1050-116.667h-58.333L875-175M1225-58.333L1166.667 0v-58.333L1225-175M1108.333 175L1050 116.667h58.333L1225 175M875 58.333L933.333 0v58.333L875 175M1225 58.333L1166.667 0v58.333L1225 175M875-58.333L933.333 0v-58.333L875-175M991.667 175L1050 116.667h-58.333L875 175M1108.333-175L1050-116.667h58.333L1225-175M991.667 175L1050 233.333h-58.333L875 175M1225 291.667L1166.667 350v-58.333L1225 175M1108.333 525L1050 466.667h58.333L1225 525M875 408.333L933.333 350v58.333L875 525M1225 408.333L1166.667 350v58.333L1225 525M875 291.667L933.333 350v-58.333L875 175M991.667 525L1050 466.667h-58.333L875 525M1108.333 175L1050 233.333h58.333L1225 175M991.667 525L1050 583.333h-58.333L875 525M1225 641.667L1166.667 700v-58.333L1225 525M1108.333 875L1050 816.667h58.333L1225 875M875 758.333L933.333 700v58.333L875 875M1225 758.333L1166.667 700v58.333L1225 875M875 641.667L933.333 700v-58.333L875 525M991.667 875L1050 816.667h-58.333L875 875M1108.333 525L1050 583.333h58.333L1225 525M991.667 875L1050 933.333h-58.333L875 875M1225 991.667L1166.667 1050v-58.333L1225 875M1108.333 1225L1050 1166.667h58.333L1225 1225M875 1108.333L933.333 1050v58.333L875 1225M1225 1108.333L1166.667 1050v58.333L1225 1225M875 991.667L933.333 1050v-58.333L875 875M991.667 1225l58.333-58.333h-58.333L875 1225M1108.333 875L1050 933.333h58.333L1225 875M991.667 1225l58.333 58.333h-58.333L875 1225M1225 1341.667L1166.667 1400v-58.333L1225 1225M1108.333 1575L1050 1516.667h58.333L1225 1575M875 1458.333L933.333 1400v58.333L875 1575M1225 1458.333L1166.667 1400v58.333L1225 1575M875 1341.667L933.333 1400v-58.333L875 1225M991.667 1575l58.333-58.333h-58.333L875 1575M1108.333 1225L1050 1283.333h58.333L1225 1225M1341.667-175L1400-116.667h-58.333L1225-175M1575-58.333L1516.667 0v-58.333L1575-175M1458.333 175L1400 116.667h58.333L1575 175M1225 58.333L1283.333 0v58.333L1225 175M1575 58.333L1516.667 0v58.333L1575 175M1225-58.333L1283.333 0v-58.333L1225-175M1341.667 175L1400 116.667h-58.333L1225 175M1458.333-175L1400-116.667h58.333L1575-175M1341.667 175L1400 233.333h-58.333L1225 175M1575 291.667L1516.667 350v-58.333L1575 175M1458.333 525L1400 466.667h58.333L1575 525M1225 408.333L1283.333 350v58.333L1225 525M1575 408.333L1516.667 350v58.333L1575 525M1225 291.667L1283.333 350v-58.333L1225 175M1341.667 525L1400 466.667h-58.333L1225 525M1458.333 175L1400 233.333h58.333L1575 175M1341.667 525L1400 583.333h-58.333L1225 525M1575 641.667L1516.667 700v-58.333L1575 525M1458.333 875L1400 816.667h58.333L1575 875M1225 758.333L1283.333 700v58.333L1225 875M1575 758.333L1516.667 700v58.333L1575 875M1225 641.667L1283.333 700v-58.333L1225 525M1341.667 875L1400 816.667h-58.333L1225 875M1458.333 525L1400 583.333h58.333L1575 525M1341.667 875L1400 933.333h-58.333L1225 875M1575 991.667L1516.667 1050v-58.333L1575 875M1458.333 1225L1400 1166.667h58.333L1575 1225M1225 1108.333l58.333-58.333v58.333L1225 1225M1575 1108.333L1516.667 1050v58.333L1575 1225M1225 991.667l58.333 58.333v-58.333L1225 875M1341.667 1225l58.333-58.333h-58.333L1225 1225M1458.333 875L1400 933.333h58.333L1575 875M1341.667 1225l58.333 58.333h-58.333L1225 1225M1575 1341.667L1516.667 1400v-58.333L1575 1225M1458.333 1575L1400 1516.667h58.333L1575 1575M1225 1458.333l58.333-58.333v58.333L1225 1575M1575 1458.333L1516.667 1400v58.333L1575 1575M1225 1341.667l58.333 58.333v-58.333L1225 1225M1341.667 1575l58.333-58.333h-58.333L1225 1575M1458.333 1225L1400 1283.333h58.333L1575 1225M1691.667-175L1750-116.667h-58.333L1575-175M1925-58.333L1866.667 0v-58.333L1925-175M1808.333 175L1750 116.667h58.333L1925 175M1575 58.333L1633.333 0v58.333L1575 175M1925 58.333L1866.667 0v58.333L1925 175M1575-58.333L1633.333 0v-58.333L1575-175M1691.667 175L1750 116.667h-58.333L1575 175M1808.333-175L1750-116.667h58.333L1925-175M1691.667 175L1750 233.333h-58.333L1575 175M1925 291.667L1866.667 350v-58.333L1925 175M1808.333 525L1750 466.667h58.333L1925 525M1575 408.333L1633.333 350v58.333L1575 525M1925 408.333L1866.667 350v58.333L1925 525M1575 291.667L1633.333 350v-58.333L1575 175M1691.667 525L1750 466.667h-58.333L1575 525M1808.333 175L1750 233.333h58.333L1925 175M1691.667 525L1750 583.333h-58.333L1575 525M1925 641.667L1866.667 700v-58.333L1925 525M1808.333 875L1750 816.667h58.333L1925 875M1575 758.333L1633.333 700v58.333L1575 875M1925 758.333L1866.667 700v58.333L1925 875M1575 641.667L1633.333 700v-58.333L1575 525M1691.667 875L1750 816.667h-58.333L1575 875M1808.333 525L1750 583.333h58.333L1925 525M1691.667 875L1750 933.333h-58.333L1575 875M1925 991.667L1866.667 1050v-58.333L1925 875M1808.333 1225L1750 1166.667h58.333L1925 1225M1575 1108.333l58.333-58.333v58.333L1575 1225M1925 1108.333L1866.667 1050v58.333L1925 1225M1575 991.667l58.333 58.333v-58.333L1575 875M1691.667 1225l58.333-58.333h-58.333L1575 1225M1808.333 875L1750 933.333h58.333L1925 875M1691.667 1225l58.333 58.333h-58.333L1575 1225M1925 1341.667L1866.667 1400v-58.333L1925 1225M1808.333 1575L1750 1516.667h58.333L1925 1575M1575 1458.333l58.333-58.333v58.333L1575 1575M1925 1458.333L1866.667 1400v58.333L1925 1575M1575 1341.667l58.333 58.333v-58.333L1575 1225M1691.667 1575l58.333-58.333h-58.333L1575 1575M1808.333 1225L1750 1283.333h58.333L1925 1225M2041.667-175L2100-116.667h-58.333L1925-175M2275-58.333L2216.667 0v-58.333L2275-175M2158.333 175L2100 116.667h58.333L2275 175M1925 58.333L1983.333 0v58.333L1925 175M2275 58.333L2216.667 0v58.333L2275 175M1925-58.333L1983.333 0v-58.333L1925-175M2041.667 175L2100 116.667h-58.333L1925 175M2158.333-175L2100-116.667h58.333L2275-175M2041.667 175L2100 233.333h-58.333L1925 175M2275 291.667L2216.667 350v-58.333L2275 175M2158.333 525L2100 466.667h58.333L2275 525M1925 408.333L1983.333 350v58.333L1925 525M2275 408.333L2216.667 350v58.333L2275 525M1925 291.667L1983.333 350v-58.333L1925 175M2041.667 525L2100 466.667h-58.333L1925 525M2158.333 175L2100 233.333h58.333L2275 175M2041.667 525L2100 583.333h-58.333L1925 525M2275 641.667L2216.667 700v-58.333L2275 525M2158.333 875L2100 816.667h58.333L2275 875M1925 758.333L1983.333 700v58.333L1925 875M2275 758.333L2216.667 700v58.333L2275 875M1925 641.667L1983.333 700v-58.333L1925 525M2041.667 875L2100 816.667h-58.333L1925 875M2158.333 525L2100 583.333h58.333L2275 525M2041.667 875L2100 933.333h-58.333L1925 875M2275 991.667L2216.667 1050v-58.333L2275 875M2158.333 1225L2100 1166.667h58.333L2275 1225M1925 1108.333l58.333-58.333v58.333L1925 1225M2275 1108.333L2216.667 1050v58.333L2275 1225M1925 991.667l58.333 58.333v-58.333L1925 875M2041.667 1225l58.333-58.333h-58.333L1925 1225M2158.333 875L2100 933.333h58.333L2275 875M2041.667 1225l58.333 58.333h-58.333L1925 1225M2275 1341.667L2216.667 1400v-58.333L2275 1225M2158.333 1575L2100 1516.667h58.333L2275 1575M1925 1458.333l58.333-58.333v58.333L1925 1575M2275 1458.333L2216.667 1400v58.333L2275 1575M1925 1341.667l58.333 58.333v-58.333L1925 1225M2041.667 1575l58.333-58.333h-58.333L1925 1575M2158.333 1225L2100 1283.333h58.333L2275 1225" class="polyline-4-1 open"/>
    </g>
</svg>
