%!PS-Adobe-2.0 EPSF-2.0
%%BoundingBox: 0 0 1350 1299
%%HiResBoundingBox: 0.000000 0.000000 1350.000000 1299.000000
%%Creator: cairo 1.14.2 (http://cairographics.org)
%%CreationDate: Mon Sep  7 08:21:59 2015
%%DocumentData: Clean7Bit
%%LanguageLevel: 2
%%DocumentMedia: 476x458mm 1350 1299 0 () ()
%%EndComments
% EPSF created by ps2eps 1.68
%%BeginProlog
save
countdictstack
mark
newpath
/showpage {} def
/setpagedevice {pop} def
%%EndProlog
%%Page 1 1
%%BeginProlog
/languagelevel where
{ pop languagelevel } { 1 } ifelse
2 lt { /Helvetica findfont 12 scalefont setfont 50 500 moveto
  (This print job requires a PostScript Language Level 2 printer.) show
  showpage quit } if
/q { gsave } bind def
/Q { grestore } bind def
/cm { 6 array astore concat } bind def
/w { setlinewidth } bind def
/J { setlinecap } bind def
/j { setlinejoin } bind def
/M { setmiterlimit } bind def
/d { setdash } bind def
/m { moveto } bind def
/l { lineto } bind def
/c { curveto } bind def
/h { closepath } bind def
/re { exch dup neg 3 1 roll 5 3 roll moveto 0 rlineto
      0 exch rlineto 0 rlineto closepath } bind def
/S { stroke } bind def
/f { fill } bind def
/f* { eofill } bind def
/n { newpath } bind def
/W { clip } bind def
/W* { eoclip } bind def
/BT { } bind def
/ET { } bind def
/pdfmark where { pop globaldict /?pdfmark /exec load put }
    { globaldict begin /?pdfmark /pop load def /pdfmark
    /cleartomark load def end } ifelse
/BDC { mark 3 1 roll /BDC pdfmark } bind def
/EMC { mark /EMC pdfmark } bind def
/cairo_store_point { /cairo_point_y exch def /cairo_point_x exch def } def
/Tj { show currentpoint cairo_store_point } bind def
/TJ {
  {
    dup
    type /stringtype eq
    { show } { -0.001 mul 0 cairo_font_matrix dtransform rmoveto } ifelse
  } forall
  currentpoint cairo_store_point
} bind def
/cairo_selectfont { cairo_font_matrix aload pop pop pop 0 0 6 array astore
    cairo_font exch selectfont cairo_point_x cairo_point_y moveto } bind def
/Tf { pop /cairo_font exch def /cairo_font_matrix where
      { pop cairo_selectfont } if } bind def
/Td { matrix translate cairo_font_matrix matrix concatmatrix dup
      /cairo_font_matrix exch def dup 4 get exch 5 get cairo_store_point
      /cairo_font where { pop cairo_selectfont } if } bind def
/Tm { 2 copy 8 2 roll 6 array astore /cairo_font_matrix exch def
      cairo_store_point /cairo_font where { pop cairo_selectfont } if } bind def
/g { setgray } bind def
/rg { setrgbcolor } bind def
/d1 { setcachedevice } bind def
/cairo_set_page_size {
  % Change paper size, but only if different from previous paper size otherwise
  % duplex fails. PLRM specifies a tolerance of 5 pts when matching paper size
  % so we use the same when checking if the size changes.
  /setpagedevice where {
    pop currentpagedevice
    /PageSize known {
      2 copy
      currentpagedevice /PageSize get aload pop
      exch 4 1 roll
      sub abs 5 gt
      3 1 roll
      sub abs 5 gt
      or
    } {
      true
    } ifelse
    {
      2 array astore
      2 dict begin
        /PageSize exch def
        /ImagingBBox null def
      currentdict end
      setpagedevice
    } {
      pop pop
    } ifelse
  } {
    pop
  } ifelse
} def
%%EndProlog
%%BeginSetup
%%EndSetup
%%Page: 1 1
%%BeginPageSetup
%%PageMedia: 476x458mm
%%PageBoundingBox: 0 0 1350 1299
1350 1299 cairo_set_page_size
%%EndPageSetup
q 0 0 1350 1299 rectclip q
0.984314 g
0 0 1350 1299 rectfill
0.788235 g
1.875 w
0 J
1 j
[] 0.0 d
4 M 0 1299 1350 -1299.039 re S
0 g
2.5 w
1 J
-150 606.18 m -183.332 586.934 -133.332 558.066 0 519.578 c S
-150 432.973 m -150 394.484 -100 423.352 0 519.578 c S
0 346.371 m -33.332 327.129 16.668 298.258 150 259.77 c S
0 346.371 m 0 384.863 -50 355.996 -150 259.77 c S
0 346.371 m 33.332 327.129 33.332 384.863 0 519.578 c S
0 173.168 m 33.332 192.41 -16.668 221.281 -150 259.77 c S
0 173.168 m 0 134.676 50 163.543 150 259.77 c S
0 173.168 m -33.332 192.41 -33.332 134.676 0 -0.039 c S
150 86.562 m 116.668 67.32 166.668 38.453 300 -0.039 c S
150 86.562 m 150 125.055 100 96.188 0 -0.039 c S
150 86.562 m 183.332 67.32 183.332 125.055 150 259.77 c S
-150 1125.793 m -183.332 1106.551 -133.332 1077.684 0 1039.191 c S
-150 952.59 m -150 914.102 -100 942.969 0 1039.191 c S
0 865.988 m -33.332 846.742 16.668 817.875 150 779.383 c S
0 865.988 m 0 904.477 -50 875.609 -150 779.383 c S
0 865.988 m 33.332 846.742 33.332 904.477 0 1039.191 c S
0 692.781 m 33.332 712.027 -16.668 740.895 -150 779.383 c S
0 692.781 m 0 654.293 50 683.16 150 779.383 c S
0 692.781 m -33.332 712.027 -33.332 654.293 0 519.578 c S
150 606.18 m 116.668 586.934 166.668 558.066 300 519.578 c S
150 606.18 m 150 644.668 100 615.801 0 519.578 c S
150 606.18 m 183.332 586.934 183.332 644.668 150 779.383 c S
150 432.973 m 183.332 452.219 133.332 481.086 0 519.578 c S
150 432.973 m 150 394.484 200 423.352 300 519.578 c S
150 432.973 m 116.668 452.219 116.668 394.484 150 259.77 c S
300 346.371 m 266.668 327.129 316.668 298.258 450 259.77 c S
300 346.371 m 300 384.863 250 355.996 150 259.77 c S
300 346.371 m 333.332 327.129 333.332 384.863 300 519.578 c S
300 173.168 m 333.332 192.41 283.332 221.281 150 259.77 c S
300 173.168 m 300 134.676 350 163.543 450 259.77 c S
300 173.168 m 266.668 192.41 266.668 134.676 300 -0.039 c S
450 86.562 m 416.668 67.32 466.668 38.453 600 -0.039 c S
450 86.562 m 450 125.055 400 96.188 300 -0.039 c S
450 86.562 m 483.332 67.32 483.332 125.055 450 259.77 c S
0 1212.398 m 33.332 1231.641 -16.668 1260.512 -150 1299 c S
0 1212.398 m 0 1173.906 50 1202.773 150 1299 c S
0 1212.398 m -33.332 1231.641 -33.332 1173.906 0 1039.191 c S
150 1125.793 m 116.668 1106.551 166.668 1077.684 300 1039.191 c S
150 1125.793 m 150 1164.285 100 1135.418 0 1039.191 c S
150 1125.793 m 183.332 1106.551 183.332 1164.285 150 1299 c S
150 952.59 m 183.332 971.836 133.332 1000.703 0 1039.191 c S
150 952.59 m 150 914.102 200 942.969 300 1039.191 c S
150 952.59 m 116.668 971.836 116.668 914.102 150 779.383 c S
300 865.988 m 266.668 846.742 316.668 817.875 450 779.383 c S
300 865.988 m 300 904.477 250 875.609 150 779.383 c S
300 865.988 m 333.332 846.742 333.332 904.477 300 1039.191 c S
300 692.781 m 333.332 712.027 283.332 740.895 150 779.383 c S
300 692.781 m 300 654.293 350 683.16 450 779.383 c S
300 692.781 m 266.668 712.027 266.668 654.293 300 519.578 c S
450 606.18 m 416.668 586.934 466.668 558.066 600 519.578 c S
450 606.18 m 450 644.668 400 615.801 300 519.578 c S
450 606.18 m 483.332 586.934 483.332 644.668 450 779.383 c S
450 432.973 m 483.332 452.219 433.332 481.086 300 519.578 c S
450 432.973 m 450 394.484 500 423.352 600 519.578 c S
450 432.973 m 416.668 452.219 416.668 394.484 450 259.77 c S
600 346.371 m 566.668 327.129 616.668 298.258 750 259.77 c S
600 346.371 m 600 384.863 550 355.996 450 259.77 c S
600 346.371 m 633.332 327.129 633.332 384.863 600 519.578 c S
600 173.168 m 633.332 192.41 583.332 221.281 450 259.77 c S
600 173.168 m 600 134.676 650 163.543 750 259.77 c S
600 173.168 m 566.668 192.41 566.668 134.676 600 -0.039 c S
750 86.562 m 716.668 67.32 766.668 38.453 900 -0.039 c S
750 86.562 m 750 125.055 700 96.188 600 -0.039 c S
750 86.562 m 783.332 67.32 783.332 125.055 750 259.77 c S
300 1212.398 m 333.332 1231.641 283.332 1260.512 150 1299 c S
300 1212.398 m 300 1173.906 350 1202.773 450 1299 c S
300 1212.398 m 266.668 1231.641 266.668 1173.906 300 1039.191 c S
450 1125.793 m 416.668 1106.551 466.668 1077.684 600 1039.191 c S
450 1125.793 m 450 1164.285 400 1135.418 300 1039.191 c S
450 1125.793 m 483.332 1106.551 483.332 1164.285 450 1299 c S
450 952.59 m 483.332 971.836 433.332 1000.703 300 1039.191 c S
450 952.59 m 450 914.102 500 942.969 600 1039.191 c S
450 952.59 m 416.668 971.836 416.668 914.102 450 779.383 c S
600 865.988 m 566.668 846.742 616.668 817.875 750 779.383 c S
600 865.988 m 600 904.477 550 875.609 450 779.383 c S
600 865.988 m 633.332 846.742 633.332 904.477 600 1039.191 c S
600 692.781 m 633.332 712.027 583.332 740.895 450 779.383 c S
600 692.781 m 600 654.293 650 683.16 750 779.383 c S
600 692.781 m 566.668 712.027 566.668 654.293 600 519.578 c S
750 606.18 m 716.668 586.934 766.668 558.066 900 519.578 c S
750 606.18 m 750 644.668 700 615.801 600 519.578 c S
750 606.18 m 783.332 586.934 783.332 644.668 750 779.383 c S
750 432.973 m 783.332 452.219 733.332 481.086 600 519.578 c S
750 432.973 m 750 394.484 800 423.352 900 519.578 c S
750 432.973 m 716.668 452.219 716.668 394.484 750 259.77 c S
900 346.371 m 866.668 327.129 916.668 298.258 1050 259.77 c S
900 346.371 m 900 384.863 850 355.996 750 259.77 c S
900 346.371 m 933.332 327.129 933.332 384.863 900 519.578 c S
900 173.168 m 933.332 192.41 883.332 221.281 750 259.77 c S
900 173.168 m 900 134.676 950 163.543 1050 259.77 c S
900 173.168 m 866.668 192.41 866.668 134.676 900 -0.039 c S
1050 86.562 m 1016.668 67.32 1066.668 38.453 1200 -0.039 c S
1050 86.562 m 1050 125.055 1000 96.188 900 -0.039 c S
1050 86.562 m 1083.332 67.32 1083.332 125.055 1050 259.77 c S
600 1212.398 m 633.332 1231.641 583.332 1260.512 450 1299 c S
600 1212.398 m 600 1173.906 650 1202.773 750 1299 c S
600 1212.398 m 566.668 1231.641 566.668 1173.906 600 1039.191 c S
750 1125.793 m 716.668 1106.551 766.668 1077.684 900 1039.191 c S
750 1125.793 m 750 1164.285 700 1135.418 600 1039.191 c S
750 1125.793 m 783.332 1106.551 783.332 1164.285 750 1299 c S
750 952.59 m 783.332 971.836 733.332 1000.703 600 1039.191 c S
750 952.59 m 750 914.102 800 942.969 900 1039.191 c S
750 952.59 m 716.668 971.836 716.668 914.102 750 779.383 c S
900 865.988 m 866.668 846.742 916.668 817.875 1050 779.383 c S
900 865.988 m 900 904.477 850 875.609 750 779.383 c S
900 865.988 m 933.332 846.742 933.332 904.477 900 1039.191 c S
900 692.781 m 933.332 712.027 883.332 740.895 750 779.383 c S
900 692.781 m 900 654.293 950 683.16 1050 779.383 c S
900 692.781 m 866.668 712.027 866.668 654.293 900 519.578 c S
1050 606.18 m 1016.668 586.934 1066.668 558.066 1200 519.578 c S
1050 606.18 m 1050 644.668 1000 615.801 900 519.578 c S
1050 606.18 m 1083.332 586.934 1083.332 644.668 1050 779.383 c S
1050 432.973 m 1083.332 452.219 1033.332 481.086 900 519.578 c S
1050 432.973 m 1050 394.484 1100 423.352 1200 519.578 c S
1050 432.973 m 1016.668 452.219 1016.668 394.484 1050 259.77 c S
1200 346.371 m 1166.668 327.129 1216.668 298.258 1350 259.77 c S
1200 346.371 m 1200 384.863 1150 355.996 1050 259.77 c S
1200 346.371 m 1233.332 327.129 1233.332 384.863 1200 519.578 c S
1200 173.168 m 1233.332 192.41 1183.332 221.281 1050 259.77 c S
1200 173.168 m 1200 134.676 1250 163.543 1350 259.77 c S
1200 173.168 m 1166.668 192.41 1166.668 134.676 1200 -0.039 c S
1350 86.562 m 1316.668 67.32 1366.668 38.453 1500 -0.039 c S
1350 86.562 m 1350 125.055 1300 96.188 1200 -0.039 c S
1350 86.562 m 1383.332 67.32 1383.332 125.055 1350 259.77 c S
900 1212.398 m 933.332 1231.641 883.332 1260.512 750 1299 c S
900 1212.398 m 900 1173.906 950 1202.773 1050 1299 c S
900 1212.398 m 866.668 1231.641 866.668 1173.906 900 1039.191 c S
1050 1125.793 m 1016.668 1106.551 1066.668 1077.684 1200 1039.191 c S
1050 1125.793 m 1050 1164.285 1000 1135.418 900 1039.191 c S
1050 1125.793 m 1083.332 1106.551 1083.332 1164.285 1050 1299 c S
1050 952.59 m 1083.332 971.836 1033.332 1000.703 900 1039.191 c S
1050 952.59 m 1050 914.102 1100 942.969 1200 1039.191 c S
1050 952.59 m 1016.668 971.836 1016.668 914.102 1050 779.383 c S
1200 865.988 m 1166.668 846.742 1216.668 817.875 1350 779.383 c S
1200 865.988 m 1200 904.477 1150 875.609 1050 779.383 c S
1200 865.988 m 1233.332 846.742 1233.332 904.477 1200 1039.191 c S
1200 692.781 m 1233.332 712.027 1183.332 740.895 1050 779.383 c S
1200 692.781 m 1200 654.293 1250 683.16 1350 779.383 c S
1200 692.781 m 1166.668 712.027 1166.668 654.293 1200 519.578 c S
1350 606.18 m 1316.668 586.934 1366.668 558.066 1500 519.578 c S
1350 606.18 m 1350 644.668 1300 615.801 1200 519.578 c S
1350 606.18 m 1383.332 586.934 1383.332 644.668 1350 779.383 c S
1350 432.973 m 1383.332 452.219 1333.332 481.086 1200 519.578 c S
1350 432.973 m 1350 394.484 1400 423.352 1500 519.578 c S
1350 432.973 m 1316.668 452.219 1316.668 394.484 1350 259.77 c S
1500 346.371 m 1500 384.863 1450 355.996 1350 259.77 c S
1500 173.168 m 1533.332 192.41 1483.332 221.281 1350 259.77 c S
1200 1212.398 m 1233.332 1231.641 1183.332 1260.512 1050 1299 c S
1200 1212.398 m 1200 1173.906 1250 1202.773 1350 1299 c S
1200 1212.398 m 1166.668 1231.641 1166.668 1173.906 1200 1039.191 c S
1350 1125.793 m 1316.668 1106.551 1366.668 1077.684 1500 1039.191 c S
1350 1125.793 m 1350 1164.285 1300 1135.418 1200 1039.191 c S
1350 1125.793 m 1383.332 1106.551 1383.332 1164.285 1350 1299 c S
1350 952.59 m 1383.332 971.836 1333.332 1000.703 1200 1039.191 c S
1350 952.59 m 1350 914.102 1400 942.969 1500 1039.191 c S
1350 952.59 m 1316.668 971.836 1316.668 914.102 1350 779.383 c S
1500 865.988 m 1500 904.477 1450 875.609 1350 779.383 c S
1500 692.781 m 1533.332 712.027 1483.332 740.895 1350 779.383 c S
Q Q
showpage
%%Trailer
%%Trailer
cleartomark
countdictstack
exch sub { end } repeat
restore
%%EOF
