%!PS-Adobe-2.0 EPSF-2.0
%%BoundingBox: 0 0 1200 1039
%%HiResBoundingBox: 0.000000 0.000000 1200.000000 1039.000000
%%Creator: cairo 1.14.2 (http://cairographics.org)
%%CreationDate: Mon Sep  7 08:21:59 2015
%%DocumentData: Clean7Bit
%%LanguageLevel: 2
%%DocumentMedia: 423x367mm 1200 1039 0 () ()
%%EndComments
% EPSF created by ps2eps 1.68
%%BeginProlog
save
countdictstack
mark
newpath
/showpage {} def
/setpagedevice {pop} def
%%EndProlog
%%Page 1 1
%%BeginProlog
/languagelevel where
{ pop languagelevel } { 1 } ifelse
2 lt { /Helvetica findfont 12 scalefont setfont 50 500 moveto
  (This print job requires a PostScript Language Level 2 printer.) show
  showpage quit } if
/q { gsave } bind def
/Q { grestore } bind def
/cm { 6 array astore concat } bind def
/w { setlinewidth } bind def
/J { setlinecap } bind def
/j { setlinejoin } bind def
/M { setmiterlimit } bind def
/d { setdash } bind def
/m { moveto } bind def
/l { lineto } bind def
/c { curveto } bind def
/h { closepath } bind def
/re { exch dup neg 3 1 roll 5 3 roll moveto 0 rlineto
      0 exch rlineto 0 rlineto closepath } bind def
/S { stroke } bind def
/f { fill } bind def
/f* { eofill } bind def
/n { newpath } bind def
/W { clip } bind def
/W* { eoclip } bind def
/BT { } bind def
/ET { } bind def
/pdfmark where { pop globaldict /?pdfmark /exec load put }
    { globaldict begin /?pdfmark /pop load def /pdfmark
    /cleartomark load def end } ifelse
/BDC { mark 3 1 roll /BDC pdfmark } bind def
/EMC { mark /EMC pdfmark } bind def
/cairo_store_point { /cairo_point_y exch def /cairo_point_x exch def } def
/Tj { show currentpoint cairo_store_point } bind def
/TJ {
  {
    dup
    type /stringtype eq
    { show } { -0.001 mul 0 cairo_font_matrix dtransform rmoveto } ifelse
  } forall
  currentpoint cairo_store_point
} bind def
/cairo_selectfont { cairo_font_matrix aload pop pop pop 0 0 6 array astore
    cairo_font exch selectfont cairo_point_x cairo_point_y moveto } bind def
/Tf { pop /cairo_font exch def /cairo_font_matrix where
      { pop cairo_selectfont } if } bind def
/Td { matrix translate cairo_font_matrix matrix concatmatrix dup
      /cairo_font_matrix exch def dup 4 get exch 5 get cairo_store_point
      /cairo_font where { pop cairo_selectfont } if } bind def
/Tm { 2 copy 8 2 roll 6 array astore /cairo_font_matrix exch def
      cairo_store_point /cairo_font where { pop cairo_selectfont } if } bind def
/g { setgray } bind def
/rg { setrgbcolor } bind def
/d1 { setcachedevice } bind def
/cairo_set_page_size {
  % Change paper size, but only if different from previous paper size otherwise
  % duplex fails. PLRM specifies a tolerance of 5 pts when matching paper size
  % so we use the same when checking if the size changes.
  /setpagedevice where {
    pop currentpagedevice
    /PageSize known {
      2 copy
      currentpagedevice /PageSize get aload pop
      exch 4 1 roll
      sub abs 5 gt
      3 1 roll
      sub abs 5 gt
      or
    } {
      true
    } ifelse
    {
      2 array astore
      2 dict begin
        /PageSize exch def
        /ImagingBBox null def
      currentdict end
      setpagedevice
    } {
      pop pop
    } ifelse
  } {
    pop
  } ifelse
} def
%%EndProlog
%%BeginSetup
%%EndSetup
%%Page: 1 1
%%BeginPageSetup
%%PageMedia: 423x367mm
%%PageBoundingBox: 0 0 1200 1039
1200 1039 cairo_set_page_size
%%EndPageSetup
q 0 0 1200 1039 rectclip q
0.984314 g
0 0 1200 1039 rectfill
0.788235 g
1.875 w
0 J
1 j
[] 0.0 d
4 M 0 1039 1200 -1039.23 re S
0 g
2.5 w
1 J
133.332 1039 m -22.223 923.531 -66.668 923.531 0 1039 c S
166.668 981.266 m -11.109 904.285 -33.332 865.793 100 865.793 c S
33.332 865.793 m -122.223 750.324 -166.668 750.324 -100 865.793 c S
66.668 808.059 m -111.109 731.078 -133.332 692.59 0 692.59 c S
333.332 1039 m 177.777 923.531 133.332 923.531 200 1039 c S
366.668 981.266 m 188.891 904.285 166.668 865.793 300 865.793 c S
233.332 865.793 m 77.777 750.324 33.332 750.324 100 865.793 c S
266.668 808.059 m 88.891 731.078 66.668 692.59 200 692.59 c S
133.332 692.59 m -22.223 577.121 -66.668 577.121 0 692.59 c S
166.668 634.855 m -11.109 557.875 -33.332 519.383 100 519.383 c S
33.332 519.383 m -122.223 403.914 -166.668 403.914 -100 519.383 c S
66.668 461.648 m -111.109 384.668 -133.332 346.18 0 346.18 c S
533.332 1039 m 377.777 923.531 333.332 923.531 400 1039 c S
566.668 981.266 m 388.891 904.285 366.668 865.793 500 865.793 c S
433.332 865.793 m 277.777 750.324 233.332 750.324 300 865.793 c S
466.668 808.059 m 288.891 731.078 266.668 692.59 400 692.59 c S
333.332 692.59 m 177.777 577.121 133.332 577.121 200 692.59 c S
366.668 634.855 m 188.891 557.875 166.668 519.383 300 519.383 c S
233.332 519.383 m 77.777 403.914 33.332 403.914 100 519.383 c S
266.668 461.648 m 88.891 384.668 66.668 346.18 200 346.18 c S
133.332 346.18 m -22.223 230.711 -66.668 230.711 0 346.18 c S
166.668 288.445 m -11.109 211.465 -33.332 172.973 100 172.973 c S
33.332 172.973 m -122.223 57.504 -166.668 57.504 -100 172.973 c S
66.668 115.238 m -111.109 38.258 -133.332 -0.23 0 -0.23 c S
733.332 1039 m 577.777 923.531 533.332 923.531 600 1039 c S
766.668 981.266 m 588.891 904.285 566.668 865.793 700 865.793 c S
633.332 865.793 m 477.777 750.324 433.332 750.324 500 865.793 c S
666.668 808.059 m 488.891 731.078 466.668 692.59 600 692.59 c S
533.332 692.59 m 377.777 577.121 333.332 577.121 400 692.59 c S
566.668 634.855 m 388.891 557.875 366.668 519.383 500 519.383 c S
433.332 519.383 m 277.777 403.914 233.332 403.914 300 519.383 c S
466.668 461.648 m 288.891 384.668 266.668 346.18 400 346.18 c S
333.332 346.18 m 177.777 230.711 133.332 230.711 200 346.18 c S
366.668 288.445 m 188.891 211.465 166.668 172.973 300 172.973 c S
233.332 172.973 m 77.777 57.504 33.332 57.504 100 172.973 c S
266.668 115.238 m 88.891 38.258 66.668 -0.23 200 -0.23 c S
933.332 1039 m 777.777 923.531 733.332 923.531 800 1039 c S
966.668 981.266 m 788.891 904.285 766.668 865.793 900 865.793 c S
833.332 865.793 m 677.777 750.324 633.332 750.324 700 865.793 c S
866.668 808.059 m 688.891 731.078 666.668 692.59 800 692.59 c S
733.332 692.59 m 577.777 577.121 533.332 577.121 600 692.59 c S
766.668 634.855 m 588.891 557.875 566.668 519.383 700 519.383 c S
633.332 519.383 m 477.777 403.914 433.332 403.914 500 519.383 c S
666.668 461.648 m 488.891 384.668 466.668 346.18 600 346.18 c S
533.332 346.18 m 377.777 230.711 333.332 230.711 400 346.18 c S
566.668 288.445 m 388.891 211.465 366.668 172.973 500 172.973 c S
433.332 172.973 m 277.777 57.504 233.332 57.504 300 172.973 c S
466.668 115.238 m 288.891 38.258 266.668 -0.23 400 -0.23 c S
1133.332 1039 m 977.777 923.531 933.332 923.531 1000 1039 c S
1166.668 981.266 m 988.891 904.285 966.668 865.793 1100 865.793 c S
1033.332 865.793 m 877.777 750.324 833.332 750.324 900 865.793 c S
1066.668 808.059 m 888.891 731.078 866.668 692.59 1000 692.59 c S
933.332 692.59 m 777.777 577.121 733.332 577.121 800 692.59 c S
966.668 634.855 m 788.891 557.875 766.668 519.383 900 519.383 c S
833.332 519.383 m 677.777 403.914 633.332 403.914 700 519.383 c S
866.668 461.648 m 688.891 384.668 666.668 346.18 800 346.18 c S
733.332 346.18 m 577.777 230.711 533.332 230.711 600 346.18 c S
766.668 288.445 m 588.891 211.465 566.668 172.973 700 172.973 c S
633.332 172.973 m 477.777 57.504 433.332 57.504 500 172.973 c S
666.668 115.238 m 488.891 38.258 466.668 -0.23 600 -0.23 c S
1333.332 1039 m 1177.777 923.531 1133.332 923.531 1200 1039 c S
1233.332 865.793 m 1077.777 750.324 1033.332 750.324 1100 865.793 c S
1266.668 808.059 m 1088.891 731.078 1066.668 692.59 1200 692.59 c S
1133.332 692.59 m 977.777 577.121 933.332 577.121 1000 692.59 c S
1166.668 634.855 m 988.891 557.875 966.668 519.383 1100 519.383 c S
1033.332 519.383 m 877.777 403.914 833.332 403.914 900 519.383 c S
1066.668 461.648 m 888.891 384.668 866.668 346.18 1000 346.18 c S
933.332 346.18 m 777.777 230.711 733.332 230.711 800 346.18 c S
966.668 288.445 m 788.891 211.465 766.668 172.973 900 172.973 c S
833.332 172.973 m 677.777 57.504 633.332 57.504 700 172.973 c S
866.668 115.238 m 688.891 38.258 666.668 -0.23 800 -0.23 c S
1333.332 692.59 m 1177.777 577.121 1133.332 577.121 1200 692.59 c S
1233.332 519.383 m 1077.777 403.914 1033.332 403.914 1100 519.383 c S
1266.668 461.648 m 1088.891 384.668 1066.668 346.18 1200 346.18 c S
1133.332 346.18 m 977.777 230.711 933.332 230.711 1000 346.18 c S
1166.668 288.445 m 988.891 211.465 966.668 172.973 1100 172.973 c S
1033.332 172.973 m 877.777 57.504 833.332 57.504 900 172.973 c S
1066.668 115.238 m 888.891 38.258 866.668 -0.23 1000 -0.23 c S
1333.332 346.18 m 1177.777 230.711 1133.332 230.711 1200 346.18 c S
1233.332 172.973 m 1077.777 57.504 1033.332 57.504 1100 172.973 c S
1266.668 115.238 m 1088.891 38.258 1066.668 -0.23 1200 -0.23 c S
Q Q
showpage
%%Trailer
%%Trailer
cleartomark
countdictstack
exch sub { end } repeat
restore
%%EOF
