%!PS-Adobe-2.0 EPSF-2.0
%%BoundingBox: 0 0 1200 1039
%%HiResBoundingBox: 0.000000 0.000000 1200.000000 1039.000000
%%Creator: cairo 1.14.2 (http://cairographics.org)
%%CreationDate: Mon Sep  7 08:21:59 2015
%%DocumentData: Clean7Bit
%%LanguageLevel: 2
%%DocumentMedia: 423x367mm 1200 1039 0 () ()
%%EndComments
% EPSF created by ps2eps 1.68
%%BeginProlog
save
countdictstack
mark
newpath
/showpage {} def
/setpagedevice {pop} def
%%EndProlog
%%Page 1 1
%%BeginProlog
/languagelevel where
{ pop languagelevel } { 1 } ifelse
2 lt { /Helvetica findfont 12 scalefont setfont 50 500 moveto
  (This print job requires a PostScript Language Level 2 printer.) show
  showpage quit } if
/q { gsave } bind def
/Q { grestore } bind def
/cm { 6 array astore concat } bind def
/w { setlinewidth } bind def
/J { setlinecap } bind def
/j { setlinejoin } bind def
/M { setmiterlimit } bind def
/d { setdash } bind def
/m { moveto } bind def
/l { lineto } bind def
/c { curveto } bind def
/h { closepath } bind def
/re { exch dup neg 3 1 roll 5 3 roll moveto 0 rlineto
      0 exch rlineto 0 rlineto closepath } bind def
/S { stroke } bind def
/f { fill } bind def
/f* { eofill } bind def
/n { newpath } bind def
/W { clip } bind def
/W* { eoclip } bind def
/BT { } bind def
/ET { } bind def
/pdfmark where { pop globaldict /?pdfmark /exec load put }
    { globaldict begin /?pdfmark /pop load def /pdfmark
    /cleartomark load def end } ifelse
/BDC { mark 3 1 roll /BDC pdfmark } bind def
/EMC { mark /EMC pdfmark } bind def
/cairo_store_point { /cairo_point_y exch def /cairo_point_x exch def } def
/Tj { show currentpoint cairo_store_point } bind def
/TJ {
  {
    dup
    type /stringtype eq
    { show } { -0.001 mul 0 cairo_font_matrix dtransform rmoveto } ifelse
  } forall
  currentpoint cairo_store_point
} bind def
/cairo_selectfont { cairo_font_matrix aload pop pop pop 0 0 6 array astore
    cairo_font exch selectfont cairo_point_x cairo_point_y moveto } bind def
/Tf { pop /cairo_font exch def /cairo_font_matrix where
      { pop cairo_selectfont } if } bind def
/Td { matrix translate cairo_font_matrix matrix concatmatrix dup
      /cairo_font_matrix exch def dup 4 get exch 5 get cairo_store_point
      /cairo_font where { pop cairo_selectfont } if } bind def
/Tm { 2 copy 8 2 roll 6 array astore /cairo_font_matrix exch def
      cairo_store_point /cairo_font where { pop cairo_selectfont } if } bind def
/g { setgray } bind def
/rg { setrgbcolor } bind def
/d1 { setcachedevice } bind def
/cairo_set_page_size {
  % Change paper size, but only if different from previous paper size otherwise
  % duplex fails. PLRM specifies a tolerance of 5 pts when matching paper size
  % so we use the same when checking if the size changes.
  /setpagedevice where {
    pop currentpagedevice
    /PageSize known {
      2 copy
      currentpagedevice /PageSize get aload pop
      exch 4 1 roll
      sub abs 5 gt
      3 1 roll
      sub abs 5 gt
      or
    } {
      true
    } ifelse
    {
      2 array astore
      2 dict begin
        /PageSize exch def
        /ImagingBBox null def
      currentdict end
      setpagedevice
    } {
      pop pop
    } ifelse
  } {
    pop
  } ifelse
} def
%%EndProlog
%%BeginSetup
%%EndSetup
%%Page: 1 1
%%BeginPageSetup
%%PageMedia: 423x367mm
%%PageBoundingBox: 0 0 1200 1039
1200 1039 cairo_set_page_size
%%EndPageSetup
q 0 0 1200 1039 rectclip q
0.984314 g
0 0 1200 1039 rectfill
0.788235 g
1.875 w
0 J
1 j
[] 0.0 d
4 M 0 1039 1200 -1039.23 re S
0 g
2.5 w
1 J
0 1039 m -16.668 952.398 -33.332 923.531 -50 952.398 c S
0 1039 m 83.332 1010.133 116.668 1010.133 100 1039 c S
100 865.793 m 16.668 894.664 -16.668 894.664 0 865.793 c S
100 865.793 m 116.668 952.398 133.332 981.266 150 952.398 c S
-100 865.793 m -16.668 836.926 16.668 836.926 0 865.793 c S
0 692.59 m -83.332 721.457 -116.668 721.457 -100 692.59 c S
0 692.59 m 16.668 779.191 33.332 808.059 50 779.191 c S
200 1039 m 183.332 952.398 166.668 923.531 150 952.398 c S
200 1039 m 283.332 1010.133 316.668 1010.133 300 1039 c S
300 865.793 m 216.668 894.664 183.332 894.664 200 865.793 c S
300 865.793 m 316.668 952.398 333.332 981.266 350 952.398 c S
100 865.793 m 83.332 779.191 66.668 750.324 50 779.191 c S
100 865.793 m 183.332 836.926 216.668 836.926 200 865.793 c S
200 692.59 m 116.668 721.457 83.332 721.457 100 692.59 c S
200 692.59 m 216.668 779.191 233.332 808.059 250 779.191 c S
0 692.59 m -16.668 605.988 -33.332 577.121 -50 605.988 c S
0 692.59 m 83.332 663.723 116.668 663.723 100 692.59 c S
100 519.383 m 16.668 548.254 -16.668 548.254 0 519.383 c S
100 519.383 m 116.668 605.988 133.332 634.855 150 605.988 c S
-100 519.383 m -16.668 490.516 16.668 490.516 0 519.383 c S
0 346.18 m -83.332 375.047 -116.668 375.047 -100 346.18 c S
0 346.18 m 16.668 432.781 33.332 461.648 50 432.781 c S
400 1039 m 383.332 952.398 366.668 923.531 350 952.398 c S
400 1039 m 483.332 1010.133 516.668 1010.133 500 1039 c S
500 865.793 m 416.668 894.664 383.332 894.664 400 865.793 c S
500 865.793 m 516.668 952.398 533.332 981.266 550 952.398 c S
300 865.793 m 283.332 779.191 266.668 750.324 250 779.191 c S
300 865.793 m 383.332 836.926 416.668 836.926 400 865.793 c S
400 692.59 m 316.668 721.457 283.332 721.457 300 692.59 c S
400 692.59 m 416.668 779.191 433.332 808.059 450 779.191 c S
200 692.59 m 183.332 605.988 166.668 577.121 150 605.988 c S
200 692.59 m 283.332 663.723 316.668 663.723 300 692.59 c S
300 519.383 m 216.668 548.254 183.332 548.254 200 519.383 c S
300 519.383 m 316.668 605.988 333.332 634.855 350 605.988 c S
100 519.383 m 83.332 432.781 66.668 403.914 50 432.781 c S
100 519.383 m 183.332 490.516 216.668 490.516 200 519.383 c S
200 346.18 m 116.668 375.047 83.332 375.047 100 346.18 c S
200 346.18 m 216.668 432.781 233.332 461.648 250 432.781 c S
0 346.18 m -16.668 259.578 -33.332 230.711 -50 259.578 c S
0 346.18 m 83.332 317.312 116.668 317.312 100 346.18 c S
100 172.973 m 16.668 201.844 -16.668 201.844 0 172.973 c S
100 172.973 m 116.668 259.578 133.332 288.445 150 259.578 c S
-100 172.973 m -16.668 144.105 16.668 144.105 0 172.973 c S
0 -0.23 m -83.332 28.637 -116.668 28.637 -100 -0.23 c S
0 -0.23 m 16.668 86.371 33.332 115.238 50 86.371 c S
600 1039 m 583.332 952.398 566.668 923.531 550 952.398 c S
600 1039 m 683.332 1010.133 716.668 1010.133 700 1039 c S
700 865.793 m 616.668 894.664 583.332 894.664 600 865.793 c S
700 865.793 m 716.668 952.398 733.332 981.266 750 952.398 c S
500 865.793 m 483.332 779.191 466.668 750.324 450 779.191 c S
500 865.793 m 583.332 836.926 616.668 836.926 600 865.793 c S
600 692.59 m 516.668 721.457 483.332 721.457 500 692.59 c S
600 692.59 m 616.668 779.191 633.332 808.059 650 779.191 c S
400 692.59 m 383.332 605.988 366.668 577.121 350 605.988 c S
400 692.59 m 483.332 663.723 516.668 663.723 500 692.59 c S
500 519.383 m 416.668 548.254 383.332 548.254 400 519.383 c S
500 519.383 m 516.668 605.988 533.332 634.855 550 605.988 c S
300 519.383 m 283.332 432.781 266.668 403.914 250 432.781 c S
300 519.383 m 383.332 490.516 416.668 490.516 400 519.383 c S
400 346.18 m 316.668 375.047 283.332 375.047 300 346.18 c S
400 346.18 m 416.668 432.781 433.332 461.648 450 432.781 c S
200 346.18 m 183.332 259.578 166.668 230.711 150 259.578 c S
200 346.18 m 283.332 317.312 316.668 317.312 300 346.18 c S
300 172.973 m 216.668 201.844 183.332 201.844 200 172.973 c S
300 172.973 m 316.668 259.578 333.332 288.445 350 259.578 c S
100 172.973 m 83.332 86.371 66.668 57.504 50 86.371 c S
100 172.973 m 183.332 144.105 216.668 144.105 200 172.973 c S
200 -0.23 m 116.668 28.637 83.332 28.637 100 -0.23 c S
200 -0.23 m 216.668 86.371 233.332 115.238 250 86.371 c S
800 1039 m 783.332 952.398 766.668 923.531 750 952.398 c S
800 1039 m 883.332 1010.133 916.668 1010.133 900 1039 c S
900 865.793 m 816.668 894.664 783.332 894.664 800 865.793 c S
900 865.793 m 916.668 952.398 933.332 981.266 950 952.398 c S
700 865.793 m 683.332 779.191 666.668 750.324 650 779.191 c S
700 865.793 m 783.332 836.926 816.668 836.926 800 865.793 c S
800 692.59 m 716.668 721.457 683.332 721.457 700 692.59 c S
800 692.59 m 816.668 779.191 833.332 808.059 850 779.191 c S
600 692.59 m 583.332 605.988 566.668 577.121 550 605.988 c S
600 692.59 m 683.332 663.723 716.668 663.723 700 692.59 c S
700 519.383 m 616.668 548.254 583.332 548.254 600 519.383 c S
700 519.383 m 716.668 605.988 733.332 634.855 750 605.988 c S
500 519.383 m 483.332 432.781 466.668 403.914 450 432.781 c S
500 519.383 m 583.332 490.516 616.668 490.516 600 519.383 c S
600 346.18 m 516.668 375.047 483.332 375.047 500 346.18 c S
600 346.18 m 616.668 432.781 633.332 461.648 650 432.781 c S
400 346.18 m 383.332 259.578 366.668 230.711 350 259.578 c S
400 346.18 m 483.332 317.312 516.668 317.312 500 346.18 c S
500 172.973 m 416.668 201.844 383.332 201.844 400 172.973 c S
500 172.973 m 516.668 259.578 533.332 288.445 550 259.578 c S
300 172.973 m 283.332 86.371 266.668 57.504 250 86.371 c S
300 172.973 m 383.332 144.105 416.668 144.105 400 172.973 c S
400 -0.23 m 316.668 28.637 283.332 28.637 300 -0.23 c S
400 -0.23 m 416.668 86.371 433.332 115.238 450 86.371 c S
1000 1039 m 983.332 952.398 966.668 923.531 950 952.398 c S
1000 1039 m 1083.332 1010.133 1116.668 1010.133 1100 1039 c S
1100 865.793 m 1016.668 894.664 983.332 894.664 1000 865.793 c S
1100 865.793 m 1116.668 952.398 1133.332 981.266 1150 952.398 c S
900 865.793 m 883.332 779.191 866.668 750.324 850 779.191 c S
900 865.793 m 983.332 836.926 1016.668 836.926 1000 865.793 c S
1000 692.59 m 916.668 721.457 883.332 721.457 900 692.59 c S
1000 692.59 m 1016.668 779.191 1033.332 808.059 1050 779.191 c S
800 692.59 m 783.332 605.988 766.668 577.121 750 605.988 c S
800 692.59 m 883.332 663.723 916.668 663.723 900 692.59 c S
900 519.383 m 816.668 548.254 783.332 548.254 800 519.383 c S
900 519.383 m 916.668 605.988 933.332 634.855 950 605.988 c S
700 519.383 m 683.332 432.781 666.668 403.914 650 432.781 c S
700 519.383 m 783.332 490.516 816.668 490.516 800 519.383 c S
800 346.18 m 716.668 375.047 683.332 375.047 700 346.18 c S
800 346.18 m 816.668 432.781 833.332 461.648 850 432.781 c S
600 346.18 m 583.332 259.578 566.668 230.711 550 259.578 c S
600 346.18 m 683.332 317.312 716.668 317.312 700 346.18 c S
700 172.973 m 616.668 201.844 583.332 201.844 600 172.973 c S
700 172.973 m 716.668 259.578 733.332 288.445 750 259.578 c S
500 172.973 m 483.332 86.371 466.668 57.504 450 86.371 c S
500 172.973 m 583.332 144.105 616.668 144.105 600 172.973 c S
600 -0.23 m 516.668 28.637 483.332 28.637 500 -0.23 c S
600 -0.23 m 616.668 86.371 633.332 115.238 650 86.371 c S
1200 1039 m 1183.332 952.398 1166.668 923.531 1150 952.398 c S
1200 1039 m 1283.332 1010.133 1316.668 1010.133 1300 1039 c S
1300 865.793 m 1216.668 894.664 1183.332 894.664 1200 865.793 c S
1100 865.793 m 1083.332 779.191 1066.668 750.324 1050 779.191 c S
1100 865.793 m 1183.332 836.926 1216.668 836.926 1200 865.793 c S
1200 692.59 m 1116.668 721.457 1083.332 721.457 1100 692.59 c S
1200 692.59 m 1216.668 779.191 1233.332 808.059 1250 779.191 c S
1000 692.59 m 983.332 605.988 966.668 577.121 950 605.988 c S
1000 692.59 m 1083.332 663.723 1116.668 663.723 1100 692.59 c S
1100 519.383 m 1016.668 548.254 983.332 548.254 1000 519.383 c S
1100 519.383 m 1116.668 605.988 1133.332 634.855 1150 605.988 c S
900 519.383 m 883.332 432.781 866.668 403.914 850 432.781 c S
900 519.383 m 983.332 490.516 1016.668 490.516 1000 519.383 c S
1000 346.18 m 916.668 375.047 883.332 375.047 900 346.18 c S
1000 346.18 m 1016.668 432.781 1033.332 461.648 1050 432.781 c S
800 346.18 m 783.332 259.578 766.668 230.711 750 259.578 c S
800 346.18 m 883.332 317.312 916.668 317.312 900 346.18 c S
900 172.973 m 816.668 201.844 783.332 201.844 800 172.973 c S
900 172.973 m 916.668 259.578 933.332 288.445 950 259.578 c S
700 172.973 m 683.332 86.371 666.668 57.504 650 86.371 c S
700 172.973 m 783.332 144.105 816.668 144.105 800 172.973 c S
800 -0.23 m 716.668 28.637 683.332 28.637 700 -0.23 c S
800 -0.23 m 816.668 86.371 833.332 115.238 850 86.371 c S
1200 692.59 m 1183.332 605.988 1166.668 577.121 1150 605.988 c S
1200 692.59 m 1283.332 663.723 1316.668 663.723 1300 692.59 c S
1300 519.383 m 1216.668 548.254 1183.332 548.254 1200 519.383 c S
1100 519.383 m 1083.332 432.781 1066.668 403.914 1050 432.781 c S
1100 519.383 m 1183.332 490.516 1216.668 490.516 1200 519.383 c S
1200 346.18 m 1116.668 375.047 1083.332 375.047 1100 346.18 c S
1200 346.18 m 1216.668 432.781 1233.332 461.648 1250 432.781 c S
1000 346.18 m 983.332 259.578 966.668 230.711 950 259.578 c S
1000 346.18 m 1083.332 317.312 1116.668 317.312 1100 346.18 c S
1100 172.973 m 1016.668 201.844 983.332 201.844 1000 172.973 c S
1100 172.973 m 1116.668 259.578 1133.332 288.445 1150 259.578 c S
900 172.973 m 883.332 86.371 866.668 57.504 850 86.371 c S
900 172.973 m 983.332 144.105 1016.668 144.105 1000 172.973 c S
1000 -0.23 m 916.668 28.637 883.332 28.637 900 -0.23 c S
1000 -0.23 m 1016.668 86.371 1033.332 115.238 1050 86.371 c S
1200 346.18 m 1183.332 259.578 1166.668 230.711 1150 259.578 c S
1200 346.18 m 1283.332 317.312 1316.668 317.312 1300 346.18 c S
1300 172.973 m 1216.668 201.844 1183.332 201.844 1200 172.973 c S
1100 172.973 m 1083.332 86.371 1066.668 57.504 1050 86.371 c S
1100 172.973 m 1183.332 144.105 1216.668 144.105 1200 172.973 c S
1200 -0.23 m 1116.668 28.637 1083.332 28.637 1100 -0.23 c S
1200 -0.23 m 1216.668 86.371 1233.332 115.238 1250 86.371 c S
Q Q
showpage
%%Trailer
%%Trailer
cleartomark
countdictstack
exch sub { end } repeat
restore
%%EOF
