%!PS-Adobe-2.0 EPSF-2.0
%%BoundingBox: 0 0 900 866
%%HiResBoundingBox: 0.000000 0.000000 900.000000 866.000000
%%Creator: cairo 1.14.2 (http://cairographics.org)
%%CreationDate: Mon Sep  7 08:21:59 2015
%%DocumentData: Clean7Bit
%%LanguageLevel: 2
%%DocumentMedia: 318x306mm 900 866 0 () ()
%%EndComments
% EPSF created by ps2eps 1.68
%%BeginProlog
save
countdictstack
mark
newpath
/showpage {} def
/setpagedevice {pop} def
%%EndProlog
%%Page 1 1
%%BeginProlog
/languagelevel where
{ pop languagelevel } { 1 } ifelse
2 lt { /Helvetica findfont 12 scalefont setfont 50 500 moveto
  (This print job requires a PostScript Language Level 2 printer.) show
  showpage quit } if
/q { gsave } bind def
/Q { grestore } bind def
/cm { 6 array astore concat } bind def
/w { setlinewidth } bind def
/J { setlinecap } bind def
/j { setlinejoin } bind def
/M { setmiterlimit } bind def
/d { setdash } bind def
/m { moveto } bind def
/l { lineto } bind def
/c { curveto } bind def
/h { closepath } bind def
/re { exch dup neg 3 1 roll 5 3 roll moveto 0 rlineto
      0 exch rlineto 0 rlineto closepath } bind def
/S { stroke } bind def
/f { fill } bind def
/f* { eofill } bind def
/n { newpath } bind def
/W { clip } bind def
/W* { eoclip } bind def
/BT { } bind def
/ET { } bind def
/pdfmark where { pop globaldict /?pdfmark /exec load put }
    { globaldict begin /?pdfmark /pop load def /pdfmark
    /cleartomark load def end } ifelse
/BDC { mark 3 1 roll /BDC pdfmark } bind def
/EMC { mark /EMC pdfmark } bind def
/cairo_store_point { /cairo_point_y exch def /cairo_point_x exch def } def
/Tj { show currentpoint cairo_store_point } bind def
/TJ {
  {
    dup
    type /stringtype eq
    { show } { -0.001 mul 0 cairo_font_matrix dtransform rmoveto } ifelse
  } forall
  currentpoint cairo_store_point
} bind def
/cairo_selectfont { cairo_font_matrix aload pop pop pop 0 0 6 array astore
    cairo_font exch selectfont cairo_point_x cairo_point_y moveto } bind def
/Tf { pop /cairo_font exch def /cairo_font_matrix where
      { pop cairo_selectfont } if } bind def
/Td { matrix translate cairo_font_matrix matrix concatmatrix dup
      /cairo_font_matrix exch def dup 4 get exch 5 get cairo_store_point
      /cairo_font where { pop cairo_selectfont } if } bind def
/Tm { 2 copy 8 2 roll 6 array astore /cairo_font_matrix exch def
      cairo_store_point /cairo_font where { pop cairo_selectfont } if } bind def
/g { setgray } bind def
/rg { setrgbcolor } bind def
/d1 { setcachedevice } bind def
/cairo_set_page_size {
  % Change paper size, but only if different from previous paper size otherwise
  % duplex fails. PLRM specifies a tolerance of 5 pts when matching paper size
  % so we use the same when checking if the size changes.
  /setpagedevice where {
    pop currentpagedevice
    /PageSize known {
      2 copy
      currentpagedevice /PageSize get aload pop
      exch 4 1 roll
      sub abs 5 gt
      3 1 roll
      sub abs 5 gt
      or
    } {
      true
    } ifelse
    {
      2 array astore
      2 dict begin
        /PageSize exch def
        /ImagingBBox null def
      currentdict end
      setpagedevice
    } {
      pop pop
    } ifelse
  } {
    pop
  } ifelse
} def
%%EndProlog
%%BeginSetup
%%EndSetup
%%Page: 1 1
%%BeginPageSetup
%%PageMedia: 318x306mm
%%PageBoundingBox: 0 0 900 866
900 866 cairo_set_page_size
%%EndPageSetup
q 0 0 900 866 rectclip q
0.984314 g
0 0 900 866 rectfill
0.788235 g
1.875 w
0 J
1 j
[] 0.0 d
4 M 0 866 900 -866.027 re S
0.85098 g
58.332 793.832 m 58.332 784.625 50.871 777.164 41.668 777.164 c 32.461 
777.164 25 784.625 25 793.832 c 25 803.035 32.461 810.496 41.668 810.496
 c 50.871 810.496 58.332 803.035 58.332 793.832 c h
58.332 793.832 m f
0 g
2.5 w
0 j
58.332 793.832 m 58.332 784.625 50.871 777.164 41.668 777.164 c 32.461 
777.164 25 784.625 25 793.832 c 25 803.035 32.461 810.496 41.668 810.496
 c 50.871 810.496 58.332 803.035 58.332 793.832 c h
58.332 793.832 m S
0.85098 g
58.332 793.832 m 58.332 784.625 50.871 777.164 41.668 777.164 c 32.461 
777.164 25 784.625 25 793.832 c 25 803.035 32.461 810.496 41.668 810.496
 c 50.871 810.496 58.332 803.035 58.332 793.832 c h
58.332 793.832 m f
0 g
58.332 793.832 m 58.332 784.625 50.871 777.164 41.668 777.164 c 32.461 
777.164 25 784.625 25 793.832 c 25 803.035 32.461 810.496 41.668 810.496
 c 50.871 810.496 58.332 803.035 58.332 793.832 c h
58.332 793.832 m S
0.85098 g
75 764.965 m 75 755.758 67.539 748.297 58.332 748.297 c 49.129 748.297 
41.668 755.758 41.668 764.965 c 41.668 774.168 49.129 781.629 58.332 781.629
 c 67.539 781.629 75 774.168 75 764.965 c h
75 764.965 m f
0 g
75 764.965 m 75 755.758 67.539 748.297 58.332 748.297 c 49.129 748.297 
41.668 755.758 41.668 764.965 c 41.668 774.168 49.129 781.629 58.332 781.629
 c 67.539 781.629 75 774.168 75 764.965 c h
75 764.965 m S
0.85098 g
75 764.965 m 75 755.758 67.539 748.297 58.332 748.297 c 49.129 748.297 
41.668 755.758 41.668 764.965 c 41.668 774.168 49.129 781.629 58.332 781.629
 c 67.539 781.629 75 774.168 75 764.965 c h
75 764.965 m f
0 g
75 764.965 m 75 755.758 67.539 748.297 58.332 748.297 c 49.129 748.297 
41.668 755.758 41.668 764.965 c 41.668 774.168 49.129 781.629 58.332 781.629
 c 67.539 781.629 75 774.168 75 764.965 c h
75 764.965 m S
0.85098 g
258.332 793.832 m 258.332 784.625 250.871 777.164 241.668 777.164 c 232.461
 777.164 225 784.625 225 793.832 c 225 803.035 232.461 810.496 241.668 810.496
 c 250.871 810.496 258.332 803.035 258.332 793.832 c h
258.332 793.832 m f
0 g
258.332 793.832 m 258.332 784.625 250.871 777.164 241.668 777.164 c 232.461
 777.164 225 784.625 225 793.832 c 225 803.035 232.461 810.496 241.668 810.496
 c 250.871 810.496 258.332 803.035 258.332 793.832 c h
258.332 793.832 m S
0.85098 g
258.332 793.832 m 258.332 784.625 250.871 777.164 241.668 777.164 c 232.461
 777.164 225 784.625 225 793.832 c 225 803.035 232.461 810.496 241.668 810.496
 c 250.871 810.496 258.332 803.035 258.332 793.832 c h
258.332 793.832 m f
0 g
258.332 793.832 m 258.332 784.625 250.871 777.164 241.668 777.164 c 232.461
 777.164 225 784.625 225 793.832 c 225 803.035 232.461 810.496 241.668 810.496
 c 250.871 810.496 258.332 803.035 258.332 793.832 c h
258.332 793.832 m S
0.85098 g
275 764.965 m 275 755.758 267.539 748.297 258.332 748.297 c 249.129 748.297
 241.668 755.758 241.668 764.965 c 241.668 774.168 249.129 781.629 258.332
 781.629 c 267.539 781.629 275 774.168 275 764.965 c h
275 764.965 m f
0 g
275 764.965 m 275 755.758 267.539 748.297 258.332 748.297 c 249.129 748.297
 241.668 755.758 241.668 764.965 c 241.668 774.168 249.129 781.629 258.332
 781.629 c 267.539 781.629 275 774.168 275 764.965 c h
275 764.965 m S
0.85098 g
275 764.965 m 275 755.758 267.539 748.297 258.332 748.297 c 249.129 748.297
 241.668 755.758 241.668 764.965 c 241.668 774.168 249.129 781.629 258.332
 781.629 c 267.539 781.629 275 774.168 275 764.965 c h
275 764.965 m f
0 g
275 764.965 m 275 755.758 267.539 748.297 258.332 748.297 c 249.129 748.297
 241.668 755.758 241.668 764.965 c 241.668 774.168 249.129 781.629 258.332
 781.629 c 267.539 781.629 275 774.168 275 764.965 c h
275 764.965 m S
0.85098 g
158.332 620.625 m 158.332 611.422 150.871 603.961 141.668 603.961 c 132.461
 603.961 125 611.422 125 620.625 c 125 629.832 132.461 637.293 141.668 637.293
 c 150.871 637.293 158.332 629.832 158.332 620.625 c h
158.332 620.625 m f
0 g
158.332 620.625 m 158.332 611.422 150.871 603.961 141.668 603.961 c 132.461
 603.961 125 611.422 125 620.625 c 125 629.832 132.461 637.293 141.668 637.293
 c 150.871 637.293 158.332 629.832 158.332 620.625 c h
158.332 620.625 m S
0.85098 g
158.332 620.625 m 158.332 611.422 150.871 603.961 141.668 603.961 c 132.461
 603.961 125 611.422 125 620.625 c 125 629.832 132.461 637.293 141.668 637.293
 c 150.871 637.293 158.332 629.832 158.332 620.625 c h
158.332 620.625 m f
0 g
158.332 620.625 m 158.332 611.422 150.871 603.961 141.668 603.961 c 132.461
 603.961 125 611.422 125 620.625 c 125 629.832 132.461 637.293 141.668 637.293
 c 150.871 637.293 158.332 629.832 158.332 620.625 c h
158.332 620.625 m S
0.85098 g
175 591.758 m 175 582.555 167.539 575.094 158.332 575.094 c 149.129 575.094
 141.668 582.555 141.668 591.758 c 141.668 600.965 149.129 608.426 158.332
 608.426 c 167.539 608.426 175 600.965 175 591.758 c h
175 591.758 m f
0 g
175 591.758 m 175 582.555 167.539 575.094 158.332 575.094 c 149.129 575.094
 141.668 582.555 141.668 591.758 c 141.668 600.965 149.129 608.426 158.332
 608.426 c 167.539 608.426 175 600.965 175 591.758 c h
175 591.758 m S
0.85098 g
175 591.758 m 175 582.555 167.539 575.094 158.332 575.094 c 149.129 575.094
 141.668 582.555 141.668 591.758 c 141.668 600.965 149.129 608.426 158.332
 608.426 c 167.539 608.426 175 600.965 175 591.758 c h
175 591.758 m f
0 g
175 591.758 m 175 582.555 167.539 575.094 158.332 575.094 c 149.129 575.094
 141.668 582.555 141.668 591.758 c 141.668 600.965 149.129 608.426 158.332
 608.426 c 167.539 608.426 175 600.965 175 591.758 c h
175 591.758 m S
0.85098 g
58.332 447.422 m 58.332 438.215 50.871 430.754 41.668 430.754 c 32.461 
430.754 25 438.215 25 447.422 c 25 456.625 32.461 464.086 41.668 464.086
 c 50.871 464.086 58.332 456.625 58.332 447.422 c h
58.332 447.422 m f
0 g
58.332 447.422 m 58.332 438.215 50.871 430.754 41.668 430.754 c 32.461 
430.754 25 438.215 25 447.422 c 25 456.625 32.461 464.086 41.668 464.086
 c 50.871 464.086 58.332 456.625 58.332 447.422 c h
58.332 447.422 m S
0.85098 g
58.332 447.422 m 58.332 438.215 50.871 430.754 41.668 430.754 c 32.461 
430.754 25 438.215 25 447.422 c 25 456.625 32.461 464.086 41.668 464.086
 c 50.871 464.086 58.332 456.625 58.332 447.422 c h
58.332 447.422 m f
0 g
58.332 447.422 m 58.332 438.215 50.871 430.754 41.668 430.754 c 32.461 
430.754 25 438.215 25 447.422 c 25 456.625 32.461 464.086 41.668 464.086
 c 50.871 464.086 58.332 456.625 58.332 447.422 c h
58.332 447.422 m S
0.85098 g
75 418.555 m 75 409.348 67.539 401.887 58.332 401.887 c 49.129 401.887 
41.668 409.348 41.668 418.555 c 41.668 427.758 49.129 435.219 58.332 435.219
 c 67.539 435.219 75 427.758 75 418.555 c h
75 418.555 m f
0 g
75 418.555 m 75 409.348 67.539 401.887 58.332 401.887 c 49.129 401.887 
41.668 409.348 41.668 418.555 c 41.668 427.758 49.129 435.219 58.332 435.219
 c 67.539 435.219 75 427.758 75 418.555 c h
75 418.555 m S
0.85098 g
75 418.555 m 75 409.348 67.539 401.887 58.332 401.887 c 49.129 401.887 
41.668 409.348 41.668 418.555 c 41.668 427.758 49.129 435.219 58.332 435.219
 c 67.539 435.219 75 427.758 75 418.555 c h
75 418.555 m f
0 g
75 418.555 m 75 409.348 67.539 401.887 58.332 401.887 c 49.129 401.887 
41.668 409.348 41.668 418.555 c 41.668 427.758 49.129 435.219 58.332 435.219
 c 67.539 435.219 75 427.758 75 418.555 c h
75 418.555 m S
0.85098 g
458.332 793.832 m 458.332 784.625 450.871 777.164 441.668 777.164 c 432.461
 777.164 425 784.625 425 793.832 c 425 803.035 432.461 810.496 441.668 810.496
 c 450.871 810.496 458.332 803.035 458.332 793.832 c h
458.332 793.832 m f
0 g
458.332 793.832 m 458.332 784.625 450.871 777.164 441.668 777.164 c 432.461
 777.164 425 784.625 425 793.832 c 425 803.035 432.461 810.496 441.668 810.496
 c 450.871 810.496 458.332 803.035 458.332 793.832 c h
458.332 793.832 m S
0.85098 g
458.332 793.832 m 458.332 784.625 450.871 777.164 441.668 777.164 c 432.461
 777.164 425 784.625 425 793.832 c 425 803.035 432.461 810.496 441.668 810.496
 c 450.871 810.496 458.332 803.035 458.332 793.832 c h
458.332 793.832 m f
0 g
458.332 793.832 m 458.332 784.625 450.871 777.164 441.668 777.164 c 432.461
 777.164 425 784.625 425 793.832 c 425 803.035 432.461 810.496 441.668 810.496
 c 450.871 810.496 458.332 803.035 458.332 793.832 c h
458.332 793.832 m S
0.85098 g
475 764.965 m 475 755.758 467.539 748.297 458.332 748.297 c 449.129 748.297
 441.668 755.758 441.668 764.965 c 441.668 774.168 449.129 781.629 458.332
 781.629 c 467.539 781.629 475 774.168 475 764.965 c h
475 764.965 m f
0 g
475 764.965 m 475 755.758 467.539 748.297 458.332 748.297 c 449.129 748.297
 441.668 755.758 441.668 764.965 c 441.668 774.168 449.129 781.629 458.332
 781.629 c 467.539 781.629 475 774.168 475 764.965 c h
475 764.965 m S
0.85098 g
475 764.965 m 475 755.758 467.539 748.297 458.332 748.297 c 449.129 748.297
 441.668 755.758 441.668 764.965 c 441.668 774.168 449.129 781.629 458.332
 781.629 c 467.539 781.629 475 774.168 475 764.965 c h
475 764.965 m f
0 g
475 764.965 m 475 755.758 467.539 748.297 458.332 748.297 c 449.129 748.297
 441.668 755.758 441.668 764.965 c 441.668 774.168 449.129 781.629 458.332
 781.629 c 467.539 781.629 475 774.168 475 764.965 c h
475 764.965 m S
0.85098 g
358.332 620.625 m 358.332 611.422 350.871 603.961 341.668 603.961 c 332.461
 603.961 325 611.422 325 620.625 c 325 629.832 332.461 637.293 341.668 637.293
 c 350.871 637.293 358.332 629.832 358.332 620.625 c h
358.332 620.625 m f
0 g
358.332 620.625 m 358.332 611.422 350.871 603.961 341.668 603.961 c 332.461
 603.961 325 611.422 325 620.625 c 325 629.832 332.461 637.293 341.668 637.293
 c 350.871 637.293 358.332 629.832 358.332 620.625 c h
358.332 620.625 m S
0.85098 g
358.332 620.625 m 358.332 611.422 350.871 603.961 341.668 603.961 c 332.461
 603.961 325 611.422 325 620.625 c 325 629.832 332.461 637.293 341.668 637.293
 c 350.871 637.293 358.332 629.832 358.332 620.625 c h
358.332 620.625 m f
0 g
358.332 620.625 m 358.332 611.422 350.871 603.961 341.668 603.961 c 332.461
 603.961 325 611.422 325 620.625 c 325 629.832 332.461 637.293 341.668 637.293
 c 350.871 637.293 358.332 629.832 358.332 620.625 c h
358.332 620.625 m S
0.85098 g
375 591.758 m 375 582.555 367.539 575.094 358.332 575.094 c 349.129 575.094
 341.668 582.555 341.668 591.758 c 341.668 600.965 349.129 608.426 358.332
 608.426 c 367.539 608.426 375 600.965 375 591.758 c h
375 591.758 m f
0 g
375 591.758 m 375 582.555 367.539 575.094 358.332 575.094 c 349.129 575.094
 341.668 582.555 341.668 591.758 c 341.668 600.965 349.129 608.426 358.332
 608.426 c 367.539 608.426 375 600.965 375 591.758 c h
375 591.758 m S
0.85098 g
375 591.758 m 375 582.555 367.539 575.094 358.332 575.094 c 349.129 575.094
 341.668 582.555 341.668 591.758 c 341.668 600.965 349.129 608.426 358.332
 608.426 c 367.539 608.426 375 600.965 375 591.758 c h
375 591.758 m f
0 g
375 591.758 m 375 582.555 367.539 575.094 358.332 575.094 c 349.129 575.094
 341.668 582.555 341.668 591.758 c 341.668 600.965 349.129 608.426 358.332
 608.426 c 367.539 608.426 375 600.965 375 591.758 c h
375 591.758 m S
0.85098 g
258.332 447.422 m 258.332 438.215 250.871 430.754 241.668 430.754 c 232.461
 430.754 225 438.215 225 447.422 c 225 456.625 232.461 464.086 241.668 464.086
 c 250.871 464.086 258.332 456.625 258.332 447.422 c h
258.332 447.422 m f
0 g
258.332 447.422 m 258.332 438.215 250.871 430.754 241.668 430.754 c 232.461
 430.754 225 438.215 225 447.422 c 225 456.625 232.461 464.086 241.668 464.086
 c 250.871 464.086 258.332 456.625 258.332 447.422 c h
258.332 447.422 m S
0.85098 g
258.332 447.422 m 258.332 438.215 250.871 430.754 241.668 430.754 c 232.461
 430.754 225 438.215 225 447.422 c 225 456.625 232.461 464.086 241.668 464.086
 c 250.871 464.086 258.332 456.625 258.332 447.422 c h
258.332 447.422 m f
0 g
258.332 447.422 m 258.332 438.215 250.871 430.754 241.668 430.754 c 232.461
 430.754 225 438.215 225 447.422 c 225 456.625 232.461 464.086 241.668 464.086
 c 250.871 464.086 258.332 456.625 258.332 447.422 c h
258.332 447.422 m S
0.85098 g
275 418.555 m 275 409.348 267.539 401.887 258.332 401.887 c 249.129 401.887
 241.668 409.348 241.668 418.555 c 241.668 427.758 249.129 435.219 258.332
 435.219 c 267.539 435.219 275 427.758 275 418.555 c h
275 418.555 m f
0 g
275 418.555 m 275 409.348 267.539 401.887 258.332 401.887 c 249.129 401.887
 241.668 409.348 241.668 418.555 c 241.668 427.758 249.129 435.219 258.332
 435.219 c 267.539 435.219 275 427.758 275 418.555 c h
275 418.555 m S
0.85098 g
275 418.555 m 275 409.348 267.539 401.887 258.332 401.887 c 249.129 401.887
 241.668 409.348 241.668 418.555 c 241.668 427.758 249.129 435.219 258.332
 435.219 c 267.539 435.219 275 427.758 275 418.555 c h
275 418.555 m f
0 g
275 418.555 m 275 409.348 267.539 401.887 258.332 401.887 c 249.129 401.887
 241.668 409.348 241.668 418.555 c 241.668 427.758 249.129 435.219 258.332
 435.219 c 267.539 435.219 275 427.758 275 418.555 c h
275 418.555 m S
0.85098 g
158.332 274.215 m 158.332 265.012 150.871 257.551 141.668 257.551 c 132.461
 257.551 125 265.012 125 274.215 c 125 283.422 132.461 290.883 141.668 290.883
 c 150.871 290.883 158.332 283.422 158.332 274.215 c h
158.332 274.215 m f
0 g
158.332 274.215 m 158.332 265.012 150.871 257.551 141.668 257.551 c 132.461
 257.551 125 265.012 125 274.215 c 125 283.422 132.461 290.883 141.668 290.883
 c 150.871 290.883 158.332 283.422 158.332 274.215 c h
158.332 274.215 m S
0.85098 g
158.332 274.215 m 158.332 265.012 150.871 257.551 141.668 257.551 c 132.461
 257.551 125 265.012 125 274.215 c 125 283.422 132.461 290.883 141.668 290.883
 c 150.871 290.883 158.332 283.422 158.332 274.215 c h
158.332 274.215 m f
0 g
158.332 274.215 m 158.332 265.012 150.871 257.551 141.668 257.551 c 132.461
 257.551 125 265.012 125 274.215 c 125 283.422 132.461 290.883 141.668 290.883
 c 150.871 290.883 158.332 283.422 158.332 274.215 c h
158.332 274.215 m S
0.85098 g
175 245.348 m 175 236.145 167.539 228.684 158.332 228.684 c 149.129 228.684
 141.668 236.145 141.668 245.348 c 141.668 254.555 149.129 262.016 158.332
 262.016 c 167.539 262.016 175 254.555 175 245.348 c h
175 245.348 m f
0 g
175 245.348 m 175 236.145 167.539 228.684 158.332 228.684 c 149.129 228.684
 141.668 236.145 141.668 245.348 c 141.668 254.555 149.129 262.016 158.332
 262.016 c 167.539 262.016 175 254.555 175 245.348 c h
175 245.348 m S
0.85098 g
175 245.348 m 175 236.145 167.539 228.684 158.332 228.684 c 149.129 228.684
 141.668 236.145 141.668 245.348 c 141.668 254.555 149.129 262.016 158.332
 262.016 c 167.539 262.016 175 254.555 175 245.348 c h
175 245.348 m f
0 g
175 245.348 m 175 236.145 167.539 228.684 158.332 228.684 c 149.129 228.684
 141.668 236.145 141.668 245.348 c 141.668 254.555 149.129 262.016 158.332
 262.016 c 167.539 262.016 175 254.555 175 245.348 c h
175 245.348 m S
0.85098 g
58.332 101.012 m 58.332 91.805 50.871 84.344 41.668 84.344 c 32.461 84.344
 25 91.805 25 101.012 c 25 110.215 32.461 117.676 41.668 117.676 c 50.871
 117.676 58.332 110.215 58.332 101.012 c h
58.332 101.012 m f
0 g
58.332 101.012 m 58.332 91.805 50.871 84.344 41.668 84.344 c 32.461 84.344
 25 91.805 25 101.012 c 25 110.215 32.461 117.676 41.668 117.676 c 50.871
 117.676 58.332 110.215 58.332 101.012 c h
58.332 101.012 m S
0.85098 g
58.332 101.012 m 58.332 91.805 50.871 84.344 41.668 84.344 c 32.461 84.344
 25 91.805 25 101.012 c 25 110.215 32.461 117.676 41.668 117.676 c 50.871
 117.676 58.332 110.215 58.332 101.012 c h
58.332 101.012 m f
0 g
58.332 101.012 m 58.332 91.805 50.871 84.344 41.668 84.344 c 32.461 84.344
 25 91.805 25 101.012 c 25 110.215 32.461 117.676 41.668 117.676 c 50.871
 117.676 58.332 110.215 58.332 101.012 c h
58.332 101.012 m S
0.85098 g
75 72.145 m 75 62.938 67.539 55.477 58.332 55.477 c 49.129 55.477 41.668
 62.938 41.668 72.145 c 41.668 81.348 49.129 88.809 58.332 88.809 c 67.539
 88.809 75 81.348 75 72.145 c h
75 72.145 m f
0 g
75 72.145 m 75 62.938 67.539 55.477 58.332 55.477 c 49.129 55.477 41.668
 62.938 41.668 72.145 c 41.668 81.348 49.129 88.809 58.332 88.809 c 67.539
 88.809 75 81.348 75 72.145 c h
75 72.145 m S
0.85098 g
75 72.145 m 75 62.938 67.539 55.477 58.332 55.477 c 49.129 55.477 41.668
 62.938 41.668 72.145 c 41.668 81.348 49.129 88.809 58.332 88.809 c 67.539
 88.809 75 81.348 75 72.145 c h
75 72.145 m f
0 g
75 72.145 m 75 62.938 67.539 55.477 58.332 55.477 c 49.129 55.477 41.668
 62.938 41.668 72.145 c 41.668 81.348 49.129 88.809 58.332 88.809 c 67.539
 88.809 75 81.348 75 72.145 c h
75 72.145 m S
0.85098 g
658.332 793.832 m 658.332 784.625 650.871 777.164 641.668 777.164 c 632.461
 777.164 625 784.625 625 793.832 c 625 803.035 632.461 810.496 641.668 810.496
 c 650.871 810.496 658.332 803.035 658.332 793.832 c h
658.332 793.832 m f
0 g
658.332 793.832 m 658.332 784.625 650.871 777.164 641.668 777.164 c 632.461
 777.164 625 784.625 625 793.832 c 625 803.035 632.461 810.496 641.668 810.496
 c 650.871 810.496 658.332 803.035 658.332 793.832 c h
658.332 793.832 m S
0.85098 g
658.332 793.832 m 658.332 784.625 650.871 777.164 641.668 777.164 c 632.461
 777.164 625 784.625 625 793.832 c 625 803.035 632.461 810.496 641.668 810.496
 c 650.871 810.496 658.332 803.035 658.332 793.832 c h
658.332 793.832 m f
0 g
658.332 793.832 m 658.332 784.625 650.871 777.164 641.668 777.164 c 632.461
 777.164 625 784.625 625 793.832 c 625 803.035 632.461 810.496 641.668 810.496
 c 650.871 810.496 658.332 803.035 658.332 793.832 c h
658.332 793.832 m S
0.85098 g
675 764.965 m 675 755.758 667.539 748.297 658.332 748.297 c 649.129 748.297
 641.668 755.758 641.668 764.965 c 641.668 774.168 649.129 781.629 658.332
 781.629 c 667.539 781.629 675 774.168 675 764.965 c h
675 764.965 m f
0 g
675 764.965 m 675 755.758 667.539 748.297 658.332 748.297 c 649.129 748.297
 641.668 755.758 641.668 764.965 c 641.668 774.168 649.129 781.629 658.332
 781.629 c 667.539 781.629 675 774.168 675 764.965 c h
675 764.965 m S
0.85098 g
675 764.965 m 675 755.758 667.539 748.297 658.332 748.297 c 649.129 748.297
 641.668 755.758 641.668 764.965 c 641.668 774.168 649.129 781.629 658.332
 781.629 c 667.539 781.629 675 774.168 675 764.965 c h
675 764.965 m f
0 g
675 764.965 m 675 755.758 667.539 748.297 658.332 748.297 c 649.129 748.297
 641.668 755.758 641.668 764.965 c 641.668 774.168 649.129 781.629 658.332
 781.629 c 667.539 781.629 675 774.168 675 764.965 c h
675 764.965 m S
0.85098 g
558.332 620.625 m 558.332 611.422 550.871 603.961 541.668 603.961 c 532.461
 603.961 525 611.422 525 620.625 c 525 629.832 532.461 637.293 541.668 637.293
 c 550.871 637.293 558.332 629.832 558.332 620.625 c h
558.332 620.625 m f
0 g
558.332 620.625 m 558.332 611.422 550.871 603.961 541.668 603.961 c 532.461
 603.961 525 611.422 525 620.625 c 525 629.832 532.461 637.293 541.668 637.293
 c 550.871 637.293 558.332 629.832 558.332 620.625 c h
558.332 620.625 m S
0.85098 g
558.332 620.625 m 558.332 611.422 550.871 603.961 541.668 603.961 c 532.461
 603.961 525 611.422 525 620.625 c 525 629.832 532.461 637.293 541.668 637.293
 c 550.871 637.293 558.332 629.832 558.332 620.625 c h
558.332 620.625 m f
0 g
558.332 620.625 m 558.332 611.422 550.871 603.961 541.668 603.961 c 532.461
 603.961 525 611.422 525 620.625 c 525 629.832 532.461 637.293 541.668 637.293
 c 550.871 637.293 558.332 629.832 558.332 620.625 c h
558.332 620.625 m S
0.85098 g
575 591.758 m 575 582.555 567.539 575.094 558.332 575.094 c 549.129 575.094
 541.668 582.555 541.668 591.758 c 541.668 600.965 549.129 608.426 558.332
 608.426 c 567.539 608.426 575 600.965 575 591.758 c h
575 591.758 m f
0 g
575 591.758 m 575 582.555 567.539 575.094 558.332 575.094 c 549.129 575.094
 541.668 582.555 541.668 591.758 c 541.668 600.965 549.129 608.426 558.332
 608.426 c 567.539 608.426 575 600.965 575 591.758 c h
575 591.758 m S
0.85098 g
575 591.758 m 575 582.555 567.539 575.094 558.332 575.094 c 549.129 575.094
 541.668 582.555 541.668 591.758 c 541.668 600.965 549.129 608.426 558.332
 608.426 c 567.539 608.426 575 600.965 575 591.758 c h
575 591.758 m f
0 g
575 591.758 m 575 582.555 567.539 575.094 558.332 575.094 c 549.129 575.094
 541.668 582.555 541.668 591.758 c 541.668 600.965 549.129 608.426 558.332
 608.426 c 567.539 608.426 575 600.965 575 591.758 c h
575 591.758 m S
0.85098 g
458.332 447.422 m 458.332 438.215 450.871 430.754 441.668 430.754 c 432.461
 430.754 425 438.215 425 447.422 c 425 456.625 432.461 464.086 441.668 464.086
 c 450.871 464.086 458.332 456.625 458.332 447.422 c h
458.332 447.422 m f
0 g
458.332 447.422 m 458.332 438.215 450.871 430.754 441.668 430.754 c 432.461
 430.754 425 438.215 425 447.422 c 425 456.625 432.461 464.086 441.668 464.086
 c 450.871 464.086 458.332 456.625 458.332 447.422 c h
458.332 447.422 m S
0.85098 g
458.332 447.422 m 458.332 438.215 450.871 430.754 441.668 430.754 c 432.461
 430.754 425 438.215 425 447.422 c 425 456.625 432.461 464.086 441.668 464.086
 c 450.871 464.086 458.332 456.625 458.332 447.422 c h
458.332 447.422 m f
0 g
458.332 447.422 m 458.332 438.215 450.871 430.754 441.668 430.754 c 432.461
 430.754 425 438.215 425 447.422 c 425 456.625 432.461 464.086 441.668 464.086
 c 450.871 464.086 458.332 456.625 458.332 447.422 c h
458.332 447.422 m S
0.85098 g
475 418.555 m 475 409.348 467.539 401.887 458.332 401.887 c 449.129 401.887
 441.668 409.348 441.668 418.555 c 441.668 427.758 449.129 435.219 458.332
 435.219 c 467.539 435.219 475 427.758 475 418.555 c h
475 418.555 m f
0 g
475 418.555 m 475 409.348 467.539 401.887 458.332 401.887 c 449.129 401.887
 441.668 409.348 441.668 418.555 c 441.668 427.758 449.129 435.219 458.332
 435.219 c 467.539 435.219 475 427.758 475 418.555 c h
475 418.555 m S
0.85098 g
475 418.555 m 475 409.348 467.539 401.887 458.332 401.887 c 449.129 401.887
 441.668 409.348 441.668 418.555 c 441.668 427.758 449.129 435.219 458.332
 435.219 c 467.539 435.219 475 427.758 475 418.555 c h
475 418.555 m f
0 g
475 418.555 m 475 409.348 467.539 401.887 458.332 401.887 c 449.129 401.887
 441.668 409.348 441.668 418.555 c 441.668 427.758 449.129 435.219 458.332
 435.219 c 467.539 435.219 475 427.758 475 418.555 c h
475 418.555 m S
0.85098 g
358.332 274.215 m 358.332 265.012 350.871 257.551 341.668 257.551 c 332.461
 257.551 325 265.012 325 274.215 c 325 283.422 332.461 290.883 341.668 290.883
 c 350.871 290.883 358.332 283.422 358.332 274.215 c h
358.332 274.215 m f
0 g
358.332 274.215 m 358.332 265.012 350.871 257.551 341.668 257.551 c 332.461
 257.551 325 265.012 325 274.215 c 325 283.422 332.461 290.883 341.668 290.883
 c 350.871 290.883 358.332 283.422 358.332 274.215 c h
358.332 274.215 m S
0.85098 g
358.332 274.215 m 358.332 265.012 350.871 257.551 341.668 257.551 c 332.461
 257.551 325 265.012 325 274.215 c 325 283.422 332.461 290.883 341.668 290.883
 c 350.871 290.883 358.332 283.422 358.332 274.215 c h
358.332 274.215 m f
0 g
358.332 274.215 m 358.332 265.012 350.871 257.551 341.668 257.551 c 332.461
 257.551 325 265.012 325 274.215 c 325 283.422 332.461 290.883 341.668 290.883
 c 350.871 290.883 358.332 283.422 358.332 274.215 c h
358.332 274.215 m S
0.85098 g
375 245.348 m 375 236.145 367.539 228.684 358.332 228.684 c 349.129 228.684
 341.668 236.145 341.668 245.348 c 341.668 254.555 349.129 262.016 358.332
 262.016 c 367.539 262.016 375 254.555 375 245.348 c h
375 245.348 m f
0 g
375 245.348 m 375 236.145 367.539 228.684 358.332 228.684 c 349.129 228.684
 341.668 236.145 341.668 245.348 c 341.668 254.555 349.129 262.016 358.332
 262.016 c 367.539 262.016 375 254.555 375 245.348 c h
375 245.348 m S
0.85098 g
375 245.348 m 375 236.145 367.539 228.684 358.332 228.684 c 349.129 228.684
 341.668 236.145 341.668 245.348 c 341.668 254.555 349.129 262.016 358.332
 262.016 c 367.539 262.016 375 254.555 375 245.348 c h
375 245.348 m f
0 g
375 245.348 m 375 236.145 367.539 228.684 358.332 228.684 c 349.129 228.684
 341.668 236.145 341.668 245.348 c 341.668 254.555 349.129 262.016 358.332
 262.016 c 367.539 262.016 375 254.555 375 245.348 c h
375 245.348 m S
0.85098 g
258.332 101.012 m 258.332 91.805 250.871 84.344 241.668 84.344 c 232.461
 84.344 225 91.805 225 101.012 c 225 110.215 232.461 117.676 241.668 117.676
 c 250.871 117.676 258.332 110.215 258.332 101.012 c h
258.332 101.012 m f
0 g
258.332 101.012 m 258.332 91.805 250.871 84.344 241.668 84.344 c 232.461
 84.344 225 91.805 225 101.012 c 225 110.215 232.461 117.676 241.668 117.676
 c 250.871 117.676 258.332 110.215 258.332 101.012 c h
258.332 101.012 m S
0.85098 g
258.332 101.012 m 258.332 91.805 250.871 84.344 241.668 84.344 c 232.461
 84.344 225 91.805 225 101.012 c 225 110.215 232.461 117.676 241.668 117.676
 c 250.871 117.676 258.332 110.215 258.332 101.012 c h
258.332 101.012 m f
0 g
258.332 101.012 m 258.332 91.805 250.871 84.344 241.668 84.344 c 232.461
 84.344 225 91.805 225 101.012 c 225 110.215 232.461 117.676 241.668 117.676
 c 250.871 117.676 258.332 110.215 258.332 101.012 c h
258.332 101.012 m S
0.85098 g
275 72.145 m 275 62.938 267.539 55.477 258.332 55.477 c 249.129 55.477 
241.668 62.938 241.668 72.145 c 241.668 81.348 249.129 88.809 258.332 88.809
 c 267.539 88.809 275 81.348 275 72.145 c h
275 72.145 m f
0 g
275 72.145 m 275 62.938 267.539 55.477 258.332 55.477 c 249.129 55.477 
241.668 62.938 241.668 72.145 c 241.668 81.348 249.129 88.809 258.332 88.809
 c 267.539 88.809 275 81.348 275 72.145 c h
275 72.145 m S
0.85098 g
275 72.145 m 275 62.938 267.539 55.477 258.332 55.477 c 249.129 55.477 
241.668 62.938 241.668 72.145 c 241.668 81.348 249.129 88.809 258.332 88.809
 c 267.539 88.809 275 81.348 275 72.145 c h
275 72.145 m f
0 g
275 72.145 m 275 62.938 267.539 55.477 258.332 55.477 c 249.129 55.477 
241.668 62.938 241.668 72.145 c 241.668 81.348 249.129 88.809 258.332 88.809
 c 267.539 88.809 275 81.348 275 72.145 c h
275 72.145 m S
0.85098 g
858.332 793.832 m 858.332 784.625 850.871 777.164 841.668 777.164 c 832.461
 777.164 825 784.625 825 793.832 c 825 803.035 832.461 810.496 841.668 810.496
 c 850.871 810.496 858.332 803.035 858.332 793.832 c h
858.332 793.832 m f
0 g
858.332 793.832 m 858.332 784.625 850.871 777.164 841.668 777.164 c 832.461
 777.164 825 784.625 825 793.832 c 825 803.035 832.461 810.496 841.668 810.496
 c 850.871 810.496 858.332 803.035 858.332 793.832 c h
858.332 793.832 m S
0.85098 g
858.332 793.832 m 858.332 784.625 850.871 777.164 841.668 777.164 c 832.461
 777.164 825 784.625 825 793.832 c 825 803.035 832.461 810.496 841.668 810.496
 c 850.871 810.496 858.332 803.035 858.332 793.832 c h
858.332 793.832 m f
0 g
858.332 793.832 m 858.332 784.625 850.871 777.164 841.668 777.164 c 832.461
 777.164 825 784.625 825 793.832 c 825 803.035 832.461 810.496 841.668 810.496
 c 850.871 810.496 858.332 803.035 858.332 793.832 c h
858.332 793.832 m S
0.85098 g
875 764.965 m 875 755.758 867.539 748.297 858.332 748.297 c 849.129 748.297
 841.668 755.758 841.668 764.965 c 841.668 774.168 849.129 781.629 858.332
 781.629 c 867.539 781.629 875 774.168 875 764.965 c h
875 764.965 m f
0 g
875 764.965 m 875 755.758 867.539 748.297 858.332 748.297 c 849.129 748.297
 841.668 755.758 841.668 764.965 c 841.668 774.168 849.129 781.629 858.332
 781.629 c 867.539 781.629 875 774.168 875 764.965 c h
875 764.965 m S
0.85098 g
875 764.965 m 875 755.758 867.539 748.297 858.332 748.297 c 849.129 748.297
 841.668 755.758 841.668 764.965 c 841.668 774.168 849.129 781.629 858.332
 781.629 c 867.539 781.629 875 774.168 875 764.965 c h
875 764.965 m f
0 g
875 764.965 m 875 755.758 867.539 748.297 858.332 748.297 c 849.129 748.297
 841.668 755.758 841.668 764.965 c 841.668 774.168 849.129 781.629 858.332
 781.629 c 867.539 781.629 875 774.168 875 764.965 c h
875 764.965 m S
0.85098 g
758.332 620.625 m 758.332 611.422 750.871 603.961 741.668 603.961 c 732.461
 603.961 725 611.422 725 620.625 c 725 629.832 732.461 637.293 741.668 637.293
 c 750.871 637.293 758.332 629.832 758.332 620.625 c h
758.332 620.625 m f
0 g
758.332 620.625 m 758.332 611.422 750.871 603.961 741.668 603.961 c 732.461
 603.961 725 611.422 725 620.625 c 725 629.832 732.461 637.293 741.668 637.293
 c 750.871 637.293 758.332 629.832 758.332 620.625 c h
758.332 620.625 m S
0.85098 g
758.332 620.625 m 758.332 611.422 750.871 603.961 741.668 603.961 c 732.461
 603.961 725 611.422 725 620.625 c 725 629.832 732.461 637.293 741.668 637.293
 c 750.871 637.293 758.332 629.832 758.332 620.625 c h
758.332 620.625 m f
0 g
758.332 620.625 m 758.332 611.422 750.871 603.961 741.668 603.961 c 732.461
 603.961 725 611.422 725 620.625 c 725 629.832 732.461 637.293 741.668 637.293
 c 750.871 637.293 758.332 629.832 758.332 620.625 c h
758.332 620.625 m S
0.85098 g
775 591.758 m 775 582.555 767.539 575.094 758.332 575.094 c 749.129 575.094
 741.668 582.555 741.668 591.758 c 741.668 600.965 749.129 608.426 758.332
 608.426 c 767.539 608.426 775 600.965 775 591.758 c h
775 591.758 m f
0 g
775 591.758 m 775 582.555 767.539 575.094 758.332 575.094 c 749.129 575.094
 741.668 582.555 741.668 591.758 c 741.668 600.965 749.129 608.426 758.332
 608.426 c 767.539 608.426 775 600.965 775 591.758 c h
775 591.758 m S
0.85098 g
775 591.758 m 775 582.555 767.539 575.094 758.332 575.094 c 749.129 575.094
 741.668 582.555 741.668 591.758 c 741.668 600.965 749.129 608.426 758.332
 608.426 c 767.539 608.426 775 600.965 775 591.758 c h
775 591.758 m f
0 g
775 591.758 m 775 582.555 767.539 575.094 758.332 575.094 c 749.129 575.094
 741.668 582.555 741.668 591.758 c 741.668 600.965 749.129 608.426 758.332
 608.426 c 767.539 608.426 775 600.965 775 591.758 c h
775 591.758 m S
0.85098 g
658.332 447.422 m 658.332 438.215 650.871 430.754 641.668 430.754 c 632.461
 430.754 625 438.215 625 447.422 c 625 456.625 632.461 464.086 641.668 464.086
 c 650.871 464.086 658.332 456.625 658.332 447.422 c h
658.332 447.422 m f
0 g
658.332 447.422 m 658.332 438.215 650.871 430.754 641.668 430.754 c 632.461
 430.754 625 438.215 625 447.422 c 625 456.625 632.461 464.086 641.668 464.086
 c 650.871 464.086 658.332 456.625 658.332 447.422 c h
658.332 447.422 m S
0.85098 g
658.332 447.422 m 658.332 438.215 650.871 430.754 641.668 430.754 c 632.461
 430.754 625 438.215 625 447.422 c 625 456.625 632.461 464.086 641.668 464.086
 c 650.871 464.086 658.332 456.625 658.332 447.422 c h
658.332 447.422 m f
0 g
658.332 447.422 m 658.332 438.215 650.871 430.754 641.668 430.754 c 632.461
 430.754 625 438.215 625 447.422 c 625 456.625 632.461 464.086 641.668 464.086
 c 650.871 464.086 658.332 456.625 658.332 447.422 c h
658.332 447.422 m S
0.85098 g
675 418.555 m 675 409.348 667.539 401.887 658.332 401.887 c 649.129 401.887
 641.668 409.348 641.668 418.555 c 641.668 427.758 649.129 435.219 658.332
 435.219 c 667.539 435.219 675 427.758 675 418.555 c h
675 418.555 m f
0 g
675 418.555 m 675 409.348 667.539 401.887 658.332 401.887 c 649.129 401.887
 641.668 409.348 641.668 418.555 c 641.668 427.758 649.129 435.219 658.332
 435.219 c 667.539 435.219 675 427.758 675 418.555 c h
675 418.555 m S
0.85098 g
675 418.555 m 675 409.348 667.539 401.887 658.332 401.887 c 649.129 401.887
 641.668 409.348 641.668 418.555 c 641.668 427.758 649.129 435.219 658.332
 435.219 c 667.539 435.219 675 427.758 675 418.555 c h
675 418.555 m f
0 g
675 418.555 m 675 409.348 667.539 401.887 658.332 401.887 c 649.129 401.887
 641.668 409.348 641.668 418.555 c 641.668 427.758 649.129 435.219 658.332
 435.219 c 667.539 435.219 675 427.758 675 418.555 c h
675 418.555 m S
0.85098 g
558.332 274.215 m 558.332 265.012 550.871 257.551 541.668 257.551 c 532.461
 257.551 525 265.012 525 274.215 c 525 283.422 532.461 290.883 541.668 290.883
 c 550.871 290.883 558.332 283.422 558.332 274.215 c h
558.332 274.215 m f
0 g
558.332 274.215 m 558.332 265.012 550.871 257.551 541.668 257.551 c 532.461
 257.551 525 265.012 525 274.215 c 525 283.422 532.461 290.883 541.668 290.883
 c 550.871 290.883 558.332 283.422 558.332 274.215 c h
558.332 274.215 m S
0.85098 g
558.332 274.215 m 558.332 265.012 550.871 257.551 541.668 257.551 c 532.461
 257.551 525 265.012 525 274.215 c 525 283.422 532.461 290.883 541.668 290.883
 c 550.871 290.883 558.332 283.422 558.332 274.215 c h
558.332 274.215 m f
0 g
558.332 274.215 m 558.332 265.012 550.871 257.551 541.668 257.551 c 532.461
 257.551 525 265.012 525 274.215 c 525 283.422 532.461 290.883 541.668 290.883
 c 550.871 290.883 558.332 283.422 558.332 274.215 c h
558.332 274.215 m S
0.85098 g
575 245.348 m 575 236.145 567.539 228.684 558.332 228.684 c 549.129 228.684
 541.668 236.145 541.668 245.348 c 541.668 254.555 549.129 262.016 558.332
 262.016 c 567.539 262.016 575 254.555 575 245.348 c h
575 245.348 m f
0 g
575 245.348 m 575 236.145 567.539 228.684 558.332 228.684 c 549.129 228.684
 541.668 236.145 541.668 245.348 c 541.668 254.555 549.129 262.016 558.332
 262.016 c 567.539 262.016 575 254.555 575 245.348 c h
575 245.348 m S
0.85098 g
575 245.348 m 575 236.145 567.539 228.684 558.332 228.684 c 549.129 228.684
 541.668 236.145 541.668 245.348 c 541.668 254.555 549.129 262.016 558.332
 262.016 c 567.539 262.016 575 254.555 575 245.348 c h
575 245.348 m f
0 g
575 245.348 m 575 236.145 567.539 228.684 558.332 228.684 c 549.129 228.684
 541.668 236.145 541.668 245.348 c 541.668 254.555 549.129 262.016 558.332
 262.016 c 567.539 262.016 575 254.555 575 245.348 c h
575 245.348 m S
0.85098 g
458.332 101.012 m 458.332 91.805 450.871 84.344 441.668 84.344 c 432.461
 84.344 425 91.805 425 101.012 c 425 110.215 432.461 117.676 441.668 117.676
 c 450.871 117.676 458.332 110.215 458.332 101.012 c h
458.332 101.012 m f
0 g
458.332 101.012 m 458.332 91.805 450.871 84.344 441.668 84.344 c 432.461
 84.344 425 91.805 425 101.012 c 425 110.215 432.461 117.676 441.668 117.676
 c 450.871 117.676 458.332 110.215 458.332 101.012 c h
458.332 101.012 m S
0.85098 g
458.332 101.012 m 458.332 91.805 450.871 84.344 441.668 84.344 c 432.461
 84.344 425 91.805 425 101.012 c 425 110.215 432.461 117.676 441.668 117.676
 c 450.871 117.676 458.332 110.215 458.332 101.012 c h
458.332 101.012 m f
0 g
458.332 101.012 m 458.332 91.805 450.871 84.344 441.668 84.344 c 432.461
 84.344 425 91.805 425 101.012 c 425 110.215 432.461 117.676 441.668 117.676
 c 450.871 117.676 458.332 110.215 458.332 101.012 c h
458.332 101.012 m S
0.85098 g
475 72.145 m 475 62.938 467.539 55.477 458.332 55.477 c 449.129 55.477 
441.668 62.938 441.668 72.145 c 441.668 81.348 449.129 88.809 458.332 88.809
 c 467.539 88.809 475 81.348 475 72.145 c h
475 72.145 m f
0 g
475 72.145 m 475 62.938 467.539 55.477 458.332 55.477 c 449.129 55.477 
441.668 62.938 441.668 72.145 c 441.668 81.348 449.129 88.809 458.332 88.809
 c 467.539 88.809 475 81.348 475 72.145 c h
475 72.145 m S
0.85098 g
475 72.145 m 475 62.938 467.539 55.477 458.332 55.477 c 449.129 55.477 
441.668 62.938 441.668 72.145 c 441.668 81.348 449.129 88.809 458.332 88.809
 c 467.539 88.809 475 81.348 475 72.145 c h
475 72.145 m f
0 g
475 72.145 m 475 62.938 467.539 55.477 458.332 55.477 c 449.129 55.477 
441.668 62.938 441.668 72.145 c 441.668 81.348 449.129 88.809 458.332 88.809
 c 467.539 88.809 475 81.348 475 72.145 c h
475 72.145 m S
0.85098 g
858.332 447.422 m 858.332 438.215 850.871 430.754 841.668 430.754 c 832.461
 430.754 825 438.215 825 447.422 c 825 456.625 832.461 464.086 841.668 464.086
 c 850.871 464.086 858.332 456.625 858.332 447.422 c h
858.332 447.422 m f
0 g
858.332 447.422 m 858.332 438.215 850.871 430.754 841.668 430.754 c 832.461
 430.754 825 438.215 825 447.422 c 825 456.625 832.461 464.086 841.668 464.086
 c 850.871 464.086 858.332 456.625 858.332 447.422 c h
858.332 447.422 m S
0.85098 g
858.332 447.422 m 858.332 438.215 850.871 430.754 841.668 430.754 c 832.461
 430.754 825 438.215 825 447.422 c 825 456.625 832.461 464.086 841.668 464.086
 c 850.871 464.086 858.332 456.625 858.332 447.422 c h
858.332 447.422 m f
0 g
858.332 447.422 m 858.332 438.215 850.871 430.754 841.668 430.754 c 832.461
 430.754 825 438.215 825 447.422 c 825 456.625 832.461 464.086 841.668 464.086
 c 850.871 464.086 858.332 456.625 858.332 447.422 c h
858.332 447.422 m S
0.85098 g
875 418.555 m 875 409.348 867.539 401.887 858.332 401.887 c 849.129 401.887
 841.668 409.348 841.668 418.555 c 841.668 427.758 849.129 435.219 858.332
 435.219 c 867.539 435.219 875 427.758 875 418.555 c h
875 418.555 m f
0 g
875 418.555 m 875 409.348 867.539 401.887 858.332 401.887 c 849.129 401.887
 841.668 409.348 841.668 418.555 c 841.668 427.758 849.129 435.219 858.332
 435.219 c 867.539 435.219 875 427.758 875 418.555 c h
875 418.555 m S
0.85098 g
875 418.555 m 875 409.348 867.539 401.887 858.332 401.887 c 849.129 401.887
 841.668 409.348 841.668 418.555 c 841.668 427.758 849.129 435.219 858.332
 435.219 c 867.539 435.219 875 427.758 875 418.555 c h
875 418.555 m f
0 g
875 418.555 m 875 409.348 867.539 401.887 858.332 401.887 c 849.129 401.887
 841.668 409.348 841.668 418.555 c 841.668 427.758 849.129 435.219 858.332
 435.219 c 867.539 435.219 875 427.758 875 418.555 c h
875 418.555 m S
0.85098 g
758.332 274.215 m 758.332 265.012 750.871 257.551 741.668 257.551 c 732.461
 257.551 725 265.012 725 274.215 c 725 283.422 732.461 290.883 741.668 290.883
 c 750.871 290.883 758.332 283.422 758.332 274.215 c h
758.332 274.215 m f
0 g
758.332 274.215 m 758.332 265.012 750.871 257.551 741.668 257.551 c 732.461
 257.551 725 265.012 725 274.215 c 725 283.422 732.461 290.883 741.668 290.883
 c 750.871 290.883 758.332 283.422 758.332 274.215 c h
758.332 274.215 m S
0.85098 g
758.332 274.215 m 758.332 265.012 750.871 257.551 741.668 257.551 c 732.461
 257.551 725 265.012 725 274.215 c 725 283.422 732.461 290.883 741.668 290.883
 c 750.871 290.883 758.332 283.422 758.332 274.215 c h
758.332 274.215 m f
0 g
758.332 274.215 m 758.332 265.012 750.871 257.551 741.668 257.551 c 732.461
 257.551 725 265.012 725 274.215 c 725 283.422 732.461 290.883 741.668 290.883
 c 750.871 290.883 758.332 283.422 758.332 274.215 c h
758.332 274.215 m S
0.85098 g
775 245.348 m 775 236.145 767.539 228.684 758.332 228.684 c 749.129 228.684
 741.668 236.145 741.668 245.348 c 741.668 254.555 749.129 262.016 758.332
 262.016 c 767.539 262.016 775 254.555 775 245.348 c h
775 245.348 m f
0 g
775 245.348 m 775 236.145 767.539 228.684 758.332 228.684 c 749.129 228.684
 741.668 236.145 741.668 245.348 c 741.668 254.555 749.129 262.016 758.332
 262.016 c 767.539 262.016 775 254.555 775 245.348 c h
775 245.348 m S
0.85098 g
775 245.348 m 775 236.145 767.539 228.684 758.332 228.684 c 749.129 228.684
 741.668 236.145 741.668 245.348 c 741.668 254.555 749.129 262.016 758.332
 262.016 c 767.539 262.016 775 254.555 775 245.348 c h
775 245.348 m f
0 g
775 245.348 m 775 236.145 767.539 228.684 758.332 228.684 c 749.129 228.684
 741.668 236.145 741.668 245.348 c 741.668 254.555 749.129 262.016 758.332
 262.016 c 767.539 262.016 775 254.555 775 245.348 c h
775 245.348 m S
0.85098 g
658.332 101.012 m 658.332 91.805 650.871 84.344 641.668 84.344 c 632.461
 84.344 625 91.805 625 101.012 c 625 110.215 632.461 117.676 641.668 117.676
 c 650.871 117.676 658.332 110.215 658.332 101.012 c h
658.332 101.012 m f
0 g
658.332 101.012 m 658.332 91.805 650.871 84.344 641.668 84.344 c 632.461
 84.344 625 91.805 625 101.012 c 625 110.215 632.461 117.676 641.668 117.676
 c 650.871 117.676 658.332 110.215 658.332 101.012 c h
658.332 101.012 m S
0.85098 g
658.332 101.012 m 658.332 91.805 650.871 84.344 641.668 84.344 c 632.461
 84.344 625 91.805 625 101.012 c 625 110.215 632.461 117.676 641.668 117.676
 c 650.871 117.676 658.332 110.215 658.332 101.012 c h
658.332 101.012 m f
0 g
658.332 101.012 m 658.332 91.805 650.871 84.344 641.668 84.344 c 632.461
 84.344 625 91.805 625 101.012 c 625 110.215 632.461 117.676 641.668 117.676
 c 650.871 117.676 658.332 110.215 658.332 101.012 c h
658.332 101.012 m S
0.85098 g
675 72.145 m 675 62.938 667.539 55.477 658.332 55.477 c 649.129 55.477 
641.668 62.938 641.668 72.145 c 641.668 81.348 649.129 88.809 658.332 88.809
 c 667.539 88.809 675 81.348 675 72.145 c h
675 72.145 m f
0 g
675 72.145 m 675 62.938 667.539 55.477 658.332 55.477 c 649.129 55.477 
641.668 62.938 641.668 72.145 c 641.668 81.348 649.129 88.809 658.332 88.809
 c 667.539 88.809 675 81.348 675 72.145 c h
675 72.145 m S
0.85098 g
675 72.145 m 675 62.938 667.539 55.477 658.332 55.477 c 649.129 55.477 
641.668 62.938 641.668 72.145 c 641.668 81.348 649.129 88.809 658.332 88.809
 c 667.539 88.809 675 81.348 675 72.145 c h
675 72.145 m f
0 g
675 72.145 m 675 62.938 667.539 55.477 658.332 55.477 c 649.129 55.477 
641.668 62.938 641.668 72.145 c 641.668 81.348 649.129 88.809 658.332 88.809
 c 667.539 88.809 675 81.348 675 72.145 c h
675 72.145 m S
0.85098 g
858.332 101.012 m 858.332 91.805 850.871 84.344 841.668 84.344 c 832.461
 84.344 825 91.805 825 101.012 c 825 110.215 832.461 117.676 841.668 117.676
 c 850.871 117.676 858.332 110.215 858.332 101.012 c h
858.332 101.012 m f
0 g
858.332 101.012 m 858.332 91.805 850.871 84.344 841.668 84.344 c 832.461
 84.344 825 91.805 825 101.012 c 825 110.215 832.461 117.676 841.668 117.676
 c 850.871 117.676 858.332 110.215 858.332 101.012 c h
858.332 101.012 m S
0.85098 g
858.332 101.012 m 858.332 91.805 850.871 84.344 841.668 84.344 c 832.461
 84.344 825 91.805 825 101.012 c 825 110.215 832.461 117.676 841.668 117.676
 c 850.871 117.676 858.332 110.215 858.332 101.012 c h
858.332 101.012 m f
0 g
858.332 101.012 m 858.332 91.805 850.871 84.344 841.668 84.344 c 832.461
 84.344 825 91.805 825 101.012 c 825 110.215 832.461 117.676 841.668 117.676
 c 850.871 117.676 858.332 110.215 858.332 101.012 c h
858.332 101.012 m S
0.85098 g
875 72.145 m 875 62.938 867.539 55.477 858.332 55.477 c 849.129 55.477 
841.668 62.938 841.668 72.145 c 841.668 81.348 849.129 88.809 858.332 88.809
 c 867.539 88.809 875 81.348 875 72.145 c h
875 72.145 m f
0 g
875 72.145 m 875 62.938 867.539 55.477 858.332 55.477 c 849.129 55.477 
841.668 62.938 841.668 72.145 c 841.668 81.348 849.129 88.809 858.332 88.809
 c 867.539 88.809 875 81.348 875 72.145 c h
875 72.145 m S
0.85098 g
875 72.145 m 875 62.938 867.539 55.477 858.332 55.477 c 849.129 55.477 
841.668 62.938 841.668 72.145 c 841.668 81.348 849.129 88.809 858.332 88.809
 c 867.539 88.809 875 81.348 875 72.145 c h
875 72.145 m f
0 g
875 72.145 m 875 62.938 867.539 55.477 858.332 55.477 c 849.129 55.477 
841.668 62.938 841.668 72.145 c 841.668 81.348 849.129 88.809 858.332 88.809
 c 867.539 88.809 875 81.348 875 72.145 c h
875 72.145 m S
Q Q
showpage
%%Trailer
%%Trailer
cleartomark
countdictstack
exch sub { end } repeat
restore
%%EOF
