%!PS-Adobe-2.0 EPSF-2.0
%%BoundingBox: 0 0 900 866
%%HiResBoundingBox: 0.000000 0.000000 900.000000 866.000000
%%Creator: cairo 1.14.2 (http://cairographics.org)
%%CreationDate: Mon Sep  7 08:21:59 2015
%%DocumentData: Clean7Bit
%%LanguageLevel: 2
%%DocumentMedia: 318x306mm 900 866 0 () ()
%%EndComments
% EPSF created by ps2eps 1.68
%%BeginProlog
save
countdictstack
mark
newpath
/showpage {} def
/setpagedevice {pop} def
%%EndProlog
%%Page 1 1
%%BeginProlog
/languagelevel where
{ pop languagelevel } { 1 } ifelse
2 lt { /Helvetica findfont 12 scalefont setfont 50 500 moveto
  (This print job requires a PostScript Language Level 2 printer.) show
  showpage quit } if
/q { gsave } bind def
/Q { grestore } bind def
/cm { 6 array astore concat } bind def
/w { setlinewidth } bind def
/J { setlinecap } bind def
/j { setlinejoin } bind def
/M { setmiterlimit } bind def
/d { setdash } bind def
/m { moveto } bind def
/l { lineto } bind def
/c { curveto } bind def
/h { closepath } bind def
/re { exch dup neg 3 1 roll 5 3 roll moveto 0 rlineto
      0 exch rlineto 0 rlineto closepath } bind def
/S { stroke } bind def
/f { fill } bind def
/f* { eofill } bind def
/n { newpath } bind def
/W { clip } bind def
/W* { eoclip } bind def
/BT { } bind def
/ET { } bind def
/pdfmark where { pop globaldict /?pdfmark /exec load put }
    { globaldict begin /?pdfmark /pop load def /pdfmark
    /cleartomark load def end } ifelse
/BDC { mark 3 1 roll /BDC pdfmark } bind def
/EMC { mark /EMC pdfmark } bind def
/cairo_store_point { /cairo_point_y exch def /cairo_point_x exch def } def
/Tj { show currentpoint cairo_store_point } bind def
/TJ {
  {
    dup
    type /stringtype eq
    { show } { -0.001 mul 0 cairo_font_matrix dtransform rmoveto } ifelse
  } forall
  currentpoint cairo_store_point
} bind def
/cairo_selectfont { cairo_font_matrix aload pop pop pop 0 0 6 array astore
    cairo_font exch selectfont cairo_point_x cairo_point_y moveto } bind def
/Tf { pop /cairo_font exch def /cairo_font_matrix where
      { pop cairo_selectfont } if } bind def
/Td { matrix translate cairo_font_matrix matrix concatmatrix dup
      /cairo_font_matrix exch def dup 4 get exch 5 get cairo_store_point
      /cairo_font where { pop cairo_selectfont } if } bind def
/Tm { 2 copy 8 2 roll 6 array astore /cairo_font_matrix exch def
      cairo_store_point /cairo_font where { pop cairo_selectfont } if } bind def
/g { setgray } bind def
/rg { setrgbcolor } bind def
/d1 { setcachedevice } bind def
/cairo_set_page_size {
  % Change paper size, but only if different from previous paper size otherwise
  % duplex fails. PLRM specifies a tolerance of 5 pts when matching paper size
  % so we use the same when checking if the size changes.
  /setpagedevice where {
    pop currentpagedevice
    /PageSize known {
      2 copy
      currentpagedevice /PageSize get aload pop
      exch 4 1 roll
      sub abs 5 gt
      3 1 roll
      sub abs 5 gt
      or
    } {
      true
    } ifelse
    {
      2 array astore
      2 dict begin
        /PageSize exch def
        /ImagingBBox null def
      currentdict end
      setpagedevice
    } {
      pop pop
    } ifelse
  } {
    pop
  } ifelse
} def
%%EndProlog
%%BeginSetup
%%EndSetup
%%Page: 1 1
%%BeginPageSetup
%%PageMedia: 318x306mm
%%PageBoundingBox: 0 0 900 866
900 866 cairo_set_page_size
%%EndPageSetup
q 0 0 900 866 rectclip q
0.984314 g
0 0 900 866 rectfill
0.788235 g
1.875 w
0 J
1 j
[] 0.0 d
4 M 0 866 900 -866.027 re S
0 g
2.5 w
-16.668 779.398 m 0 750.531 l -100 692.793 l -50 721.664 l -66.668 750.531
 l h
-16.668 779.398 m S
0.85098 g
83.332 837.133 m 133.332 866 l 150 837.133 l 200 866 l 100 808.266 l h
83.332 837.133 m f*
0 g
83.332 837.133 m 133.332 866 l 150 837.133 l 200 866 l 100 808.266 l h
83.332 837.133 m S
0.85098 g
16.668 721.664 m -33.332 692.793 l -50 721.664 l -100 692.793 l 0 750.531
 l h
16.668 721.664 m f*
0 g
16.668 721.664 m -33.332 692.793 l -50 721.664 l -100 692.793 l 0 750.531
 l h
16.668 721.664 m S
0.85098 g
116.668 779.398 m 100 808.266 l 200 866 l 150 837.133 l 166.668 808.266
 l h
116.668 779.398 m f*
0 g
116.668 779.398 m 100 808.266 l 200 866 l 150 837.133 l 166.668 808.266
 l h
116.668 779.398 m S
0.85098 g
-16.668 663.926 m 33.332 692.793 l 50 663.926 l 100 692.793 l 0 635.059
 l h
-16.668 663.926 m f*
0 g
-16.668 663.926 m 33.332 692.793 l 50 663.926 l 100 692.793 l 0 635.059
 l h
-16.668 663.926 m S
0.85098 g
16.668 606.191 m 0 635.059 l 100 692.793 l 50 663.926 l 66.668 635.059 
l h
16.668 606.191 m f*
0 g
16.668 606.191 m 0 635.059 l 100 692.793 l 50 663.926 l 66.668 635.059 
l h
16.668 606.191 m S
-116.668 490.723 m -66.668 519.59 l -50 490.723 l 0 519.59 l -100 461.855
 l h
-116.668 490.723 m S
-83.332 432.988 m -100 461.855 l 0 519.59 l -50 490.723 l -33.332 461.855
 l h
-83.332 432.988 m S
0.85098 g
183.332 779.398 m 200 750.531 l 100 692.793 l 150 721.664 l 133.332 750.531
 l h
183.332 779.398 m f*
0 g
183.332 779.398 m 200 750.531 l 100 692.793 l 150 721.664 l 133.332 750.531
 l h
183.332 779.398 m S
0.85098 g
283.332 837.133 m 333.332 866 l 350 837.133 l 400 866 l 300 808.266 l h
283.332 837.133 m f*
0 g
283.332 837.133 m 333.332 866 l 350 837.133 l 400 866 l 300 808.266 l h
283.332 837.133 m S
0.85098 g
216.668 721.664 m 166.668 692.793 l 150 721.664 l 100 692.793 l 200 750.531
 l h
216.668 721.664 m f*
0 g
216.668 721.664 m 166.668 692.793 l 150 721.664 l 100 692.793 l 200 750.531
 l h
216.668 721.664 m S
0.85098 g
316.668 779.398 m 300 808.266 l 400 866 l 350 837.133 l 366.668 808.266
 l h
316.668 779.398 m f*
0 g
316.668 779.398 m 300 808.266 l 400 866 l 350 837.133 l 366.668 808.266
 l h
316.668 779.398 m S
0.85098 g
83.332 606.191 m 100 577.324 l 0 519.59 l 50 548.457 l 33.332 577.324 l
 h
83.332 606.191 m f*
0 g
83.332 606.191 m 100 577.324 l 0 519.59 l 50 548.457 l 33.332 577.324 l
 h
83.332 606.191 m S
0.85098 g
183.332 663.926 m 233.332 692.793 l 250 663.926 l 300 692.793 l 200 635.059
 l h
183.332 663.926 m f*
0 g
183.332 663.926 m 233.332 692.793 l 250 663.926 l 300 692.793 l 200 635.059
 l h
183.332 663.926 m S
0.85098 g
116.668 548.457 m 66.668 519.59 l 50 548.457 l 0 519.59 l 100 577.324 l
 h
116.668 548.457 m f*
0 g
116.668 548.457 m 66.668 519.59 l 50 548.457 l 0 519.59 l 100 577.324 l
 h
116.668 548.457 m S
0.85098 g
216.668 606.191 m 200 635.059 l 300 692.793 l 250 663.926 l 266.668 635.059
 l h
216.668 606.191 m f*
0 g
216.668 606.191 m 200 635.059 l 300 692.793 l 250 663.926 l 266.668 635.059
 l h
216.668 606.191 m S
-16.668 432.988 m 0 404.121 l -100 346.383 l -50 375.254 l -66.668 404.121
 l h
-16.668 432.988 m S
0.85098 g
83.332 490.723 m 133.332 519.59 l 150 490.723 l 200 519.59 l 100 461.855
 l h
83.332 490.723 m f*
0 g
83.332 490.723 m 133.332 519.59 l 150 490.723 l 200 519.59 l 100 461.855
 l h
83.332 490.723 m S
0.85098 g
16.668 375.254 m -33.332 346.383 l -50 375.254 l -100 346.383 l 0 404.121
 l h
16.668 375.254 m f*
0 g
16.668 375.254 m -33.332 346.383 l -50 375.254 l -100 346.383 l 0 404.121
 l h
16.668 375.254 m S
0.85098 g
116.668 432.988 m 100 461.855 l 200 519.59 l 150 490.723 l 166.668 461.855
 l h
116.668 432.988 m f*
0 g
116.668 432.988 m 100 461.855 l 200 519.59 l 150 490.723 l 166.668 461.855
 l h
116.668 432.988 m S
0.85098 g
-16.668 317.516 m 33.332 346.383 l 50 317.516 l 100 346.383 l 0 288.648
 l h
-16.668 317.516 m f*
0 g
-16.668 317.516 m 33.332 346.383 l 50 317.516 l 100 346.383 l 0 288.648
 l h
-16.668 317.516 m S
0.85098 g
16.668 259.781 m 0 288.648 l 100 346.383 l 50 317.516 l 66.668 288.648 
l h
16.668 259.781 m f*
0 g
16.668 259.781 m 0 288.648 l 100 346.383 l 50 317.516 l 66.668 288.648 
l h
16.668 259.781 m S
-116.668 144.312 m -66.668 173.18 l -50 144.312 l 0 173.18 l -100 115.445
 l h
-116.668 144.312 m S
-83.332 86.578 m -100 115.445 l 0 173.18 l -50 144.312 l -33.332 115.445
 l h
-83.332 86.578 m S
0.85098 g
383.332 779.398 m 400 750.531 l 300 692.793 l 350 721.664 l 333.332 750.531
 l h
383.332 779.398 m f*
0 g
383.332 779.398 m 400 750.531 l 300 692.793 l 350 721.664 l 333.332 750.531
 l h
383.332 779.398 m S
0.85098 g
483.332 837.133 m 533.332 866 l 550 837.133 l 600 866 l 500 808.266 l h
483.332 837.133 m f*
0 g
483.332 837.133 m 533.332 866 l 550 837.133 l 600 866 l 500 808.266 l h
483.332 837.133 m S
0.85098 g
416.668 721.664 m 366.668 692.793 l 350 721.664 l 300 692.793 l 400 750.531
 l h
416.668 721.664 m f*
0 g
416.668 721.664 m 366.668 692.793 l 350 721.664 l 300 692.793 l 400 750.531
 l h
416.668 721.664 m S
0.85098 g
516.668 779.398 m 500 808.266 l 600 866 l 550 837.133 l 566.668 808.266
 l h
516.668 779.398 m f*
0 g
516.668 779.398 m 500 808.266 l 600 866 l 550 837.133 l 566.668 808.266
 l h
516.668 779.398 m S
0.85098 g
283.332 606.191 m 300 577.324 l 200 519.59 l 250 548.457 l 233.332 577.324
 l h
283.332 606.191 m f*
0 g
283.332 606.191 m 300 577.324 l 200 519.59 l 250 548.457 l 233.332 577.324
 l h
283.332 606.191 m S
0.85098 g
383.332 663.926 m 433.332 692.793 l 450 663.926 l 500 692.793 l 400 635.059
 l h
383.332 663.926 m f*
0 g
383.332 663.926 m 433.332 692.793 l 450 663.926 l 500 692.793 l 400 635.059
 l h
383.332 663.926 m S
0.85098 g
316.668 548.457 m 266.668 519.59 l 250 548.457 l 200 519.59 l 300 577.324
 l h
316.668 548.457 m f*
0 g
316.668 548.457 m 266.668 519.59 l 250 548.457 l 200 519.59 l 300 577.324
 l h
316.668 548.457 m S
0.85098 g
416.668 606.191 m 400 635.059 l 500 692.793 l 450 663.926 l 466.668 635.059
 l h
416.668 606.191 m f*
0 g
416.668 606.191 m 400 635.059 l 500 692.793 l 450 663.926 l 466.668 635.059
 l h
416.668 606.191 m S
0.85098 g
183.332 432.988 m 200 404.121 l 100 346.383 l 150 375.254 l 133.332 404.121
 l h
183.332 432.988 m f*
0 g
183.332 432.988 m 200 404.121 l 100 346.383 l 150 375.254 l 133.332 404.121
 l h
183.332 432.988 m S
0.85098 g
283.332 490.723 m 333.332 519.59 l 350 490.723 l 400 519.59 l 300 461.855
 l h
283.332 490.723 m f*
0 g
283.332 490.723 m 333.332 519.59 l 350 490.723 l 400 519.59 l 300 461.855
 l h
283.332 490.723 m S
0.85098 g
216.668 375.254 m 166.668 346.383 l 150 375.254 l 100 346.383 l 200 404.121
 l h
216.668 375.254 m f*
0 g
216.668 375.254 m 166.668 346.383 l 150 375.254 l 100 346.383 l 200 404.121
 l h
216.668 375.254 m S
0.85098 g
316.668 432.988 m 300 461.855 l 400 519.59 l 350 490.723 l 366.668 461.855
 l h
316.668 432.988 m f*
0 g
316.668 432.988 m 300 461.855 l 400 519.59 l 350 490.723 l 366.668 461.855
 l h
316.668 432.988 m S
0.85098 g
83.332 259.781 m 100 230.914 l 0 173.18 l 50 202.047 l 33.332 230.914 l
 h
83.332 259.781 m f*
0 g
83.332 259.781 m 100 230.914 l 0 173.18 l 50 202.047 l 33.332 230.914 l
 h
83.332 259.781 m S
0.85098 g
183.332 317.516 m 233.332 346.383 l 250 317.516 l 300 346.383 l 200 288.648
 l h
183.332 317.516 m f*
0 g
183.332 317.516 m 233.332 346.383 l 250 317.516 l 300 346.383 l 200 288.648
 l h
183.332 317.516 m S
0.85098 g
116.668 202.047 m 66.668 173.18 l 50 202.047 l 0 173.18 l 100 230.914 l
 h
116.668 202.047 m f*
0 g
116.668 202.047 m 66.668 173.18 l 50 202.047 l 0 173.18 l 100 230.914 l
 h
116.668 202.047 m S
0.85098 g
216.668 259.781 m 200 288.648 l 300 346.383 l 250 317.516 l 266.668 288.648
 l h
216.668 259.781 m f*
0 g
216.668 259.781 m 200 288.648 l 300 346.383 l 250 317.516 l 266.668 288.648
 l h
216.668 259.781 m S
-16.668 86.578 m 0 57.711 l -100 -0.027 l -50 28.844 l -66.668 57.711 l
 h
-16.668 86.578 m S
0.85098 g
83.332 144.312 m 133.332 173.18 l 150 144.312 l 200 173.18 l 100 115.445
 l h
83.332 144.312 m f*
0 g
83.332 144.312 m 133.332 173.18 l 150 144.312 l 200 173.18 l 100 115.445
 l h
83.332 144.312 m S
0.85098 g
16.668 28.844 m -33.332 -0.027 l -50 28.844 l -100 -0.027 l 0 57.711 l 
h
16.668 28.844 m f*
0 g
16.668 28.844 m -33.332 -0.027 l -50 28.844 l -100 -0.027 l 0 57.711 l 
h
16.668 28.844 m S
0.85098 g
116.668 86.578 m 100 115.445 l 200 173.18 l 150 144.312 l 166.668 115.445
 l h
116.668 86.578 m f*
0 g
116.668 86.578 m 100 115.445 l 200 173.18 l 150 144.312 l 166.668 115.445
 l h
116.668 86.578 m S
0.85098 g
583.332 779.398 m 600 750.531 l 500 692.793 l 550 721.664 l 533.332 750.531
 l h
583.332 779.398 m f*
0 g
583.332 779.398 m 600 750.531 l 500 692.793 l 550 721.664 l 533.332 750.531
 l h
583.332 779.398 m S
0.85098 g
683.332 837.133 m 733.332 866 l 750 837.133 l 800 866 l 700 808.266 l h
683.332 837.133 m f*
0 g
683.332 837.133 m 733.332 866 l 750 837.133 l 800 866 l 700 808.266 l h
683.332 837.133 m S
0.85098 g
616.668 721.664 m 566.668 692.793 l 550 721.664 l 500 692.793 l 600 750.531
 l h
616.668 721.664 m f*
0 g
616.668 721.664 m 566.668 692.793 l 550 721.664 l 500 692.793 l 600 750.531
 l h
616.668 721.664 m S
0.85098 g
716.668 779.398 m 700 808.266 l 800 866 l 750 837.133 l 766.668 808.266
 l h
716.668 779.398 m f*
0 g
716.668 779.398 m 700 808.266 l 800 866 l 750 837.133 l 766.668 808.266
 l h
716.668 779.398 m S
0.85098 g
483.332 606.191 m 500 577.324 l 400 519.59 l 450 548.457 l 433.332 577.324
 l h
483.332 606.191 m f*
0 g
483.332 606.191 m 500 577.324 l 400 519.59 l 450 548.457 l 433.332 577.324
 l h
483.332 606.191 m S
0.85098 g
583.332 663.926 m 633.332 692.793 l 650 663.926 l 700 692.793 l 600 635.059
 l h
583.332 663.926 m f*
0 g
583.332 663.926 m 633.332 692.793 l 650 663.926 l 700 692.793 l 600 635.059
 l h
583.332 663.926 m S
0.85098 g
516.668 548.457 m 466.668 519.59 l 450 548.457 l 400 519.59 l 500 577.324
 l h
516.668 548.457 m f*
0 g
516.668 548.457 m 466.668 519.59 l 450 548.457 l 400 519.59 l 500 577.324
 l h
516.668 548.457 m S
0.85098 g
616.668 606.191 m 600 635.059 l 700 692.793 l 650 663.926 l 666.668 635.059
 l h
616.668 606.191 m f*
0 g
616.668 606.191 m 600 635.059 l 700 692.793 l 650 663.926 l 666.668 635.059
 l h
616.668 606.191 m S
0.85098 g
383.332 432.988 m 400 404.121 l 300 346.383 l 350 375.254 l 333.332 404.121
 l h
383.332 432.988 m f*
0 g
383.332 432.988 m 400 404.121 l 300 346.383 l 350 375.254 l 333.332 404.121
 l h
383.332 432.988 m S
0.85098 g
483.332 490.723 m 533.332 519.59 l 550 490.723 l 600 519.59 l 500 461.855
 l h
483.332 490.723 m f*
0 g
483.332 490.723 m 533.332 519.59 l 550 490.723 l 600 519.59 l 500 461.855
 l h
483.332 490.723 m S
0.85098 g
416.668 375.254 m 366.668 346.383 l 350 375.254 l 300 346.383 l 400 404.121
 l h
416.668 375.254 m f*
0 g
416.668 375.254 m 366.668 346.383 l 350 375.254 l 300 346.383 l 400 404.121
 l h
416.668 375.254 m S
0.85098 g
516.668 432.988 m 500 461.855 l 600 519.59 l 550 490.723 l 566.668 461.855
 l h
516.668 432.988 m f*
0 g
516.668 432.988 m 500 461.855 l 600 519.59 l 550 490.723 l 566.668 461.855
 l h
516.668 432.988 m S
0.85098 g
283.332 259.781 m 300 230.914 l 200 173.18 l 250 202.047 l 233.332 230.914
 l h
283.332 259.781 m f*
0 g
283.332 259.781 m 300 230.914 l 200 173.18 l 250 202.047 l 233.332 230.914
 l h
283.332 259.781 m S
0.85098 g
383.332 317.516 m 433.332 346.383 l 450 317.516 l 500 346.383 l 400 288.648
 l h
383.332 317.516 m f*
0 g
383.332 317.516 m 433.332 346.383 l 450 317.516 l 500 346.383 l 400 288.648
 l h
383.332 317.516 m S
0.85098 g
316.668 202.047 m 266.668 173.18 l 250 202.047 l 200 173.18 l 300 230.914
 l h
316.668 202.047 m f*
0 g
316.668 202.047 m 266.668 173.18 l 250 202.047 l 200 173.18 l 300 230.914
 l h
316.668 202.047 m S
0.85098 g
416.668 259.781 m 400 288.648 l 500 346.383 l 450 317.516 l 466.668 288.648
 l h
416.668 259.781 m f*
0 g
416.668 259.781 m 400 288.648 l 500 346.383 l 450 317.516 l 466.668 288.648
 l h
416.668 259.781 m S
0.85098 g
183.332 86.578 m 200 57.711 l 100 -0.027 l 150 28.844 l 133.332 57.711 
l h
183.332 86.578 m f*
0 g
183.332 86.578 m 200 57.711 l 100 -0.027 l 150 28.844 l 133.332 57.711 
l h
183.332 86.578 m S
0.85098 g
283.332 144.312 m 333.332 173.18 l 350 144.312 l 400 173.18 l 300 115.445
 l h
283.332 144.312 m f*
0 g
283.332 144.312 m 333.332 173.18 l 350 144.312 l 400 173.18 l 300 115.445
 l h
283.332 144.312 m S
0.85098 g
216.668 28.844 m 166.668 -0.027 l 150 28.844 l 100 -0.027 l 200 57.711 
l h
216.668 28.844 m f*
0 g
216.668 28.844 m 166.668 -0.027 l 150 28.844 l 100 -0.027 l 200 57.711 
l h
216.668 28.844 m S
0.85098 g
316.668 86.578 m 300 115.445 l 400 173.18 l 350 144.312 l 366.668 115.445
 l h
316.668 86.578 m f*
0 g
316.668 86.578 m 300 115.445 l 400 173.18 l 350 144.312 l 366.668 115.445
 l h
316.668 86.578 m S
0.85098 g
783.332 779.398 m 800 750.531 l 700 692.793 l 750 721.664 l 733.332 750.531
 l h
783.332 779.398 m f*
0 g
783.332 779.398 m 800 750.531 l 700 692.793 l 750 721.664 l 733.332 750.531
 l h
783.332 779.398 m S
0.85098 g
883.332 837.133 m 933.332 866 l 950 837.133 l 1000 866 l 900 808.266 l 
h
883.332 837.133 m f*
0 g
883.332 837.133 m 933.332 866 l 950 837.133 l 1000 866 l 900 808.266 l 
h
883.332 837.133 m S
0.85098 g
816.668 721.664 m 766.668 692.793 l 750 721.664 l 700 692.793 l 800 750.531
 l h
816.668 721.664 m f*
0 g
816.668 721.664 m 766.668 692.793 l 750 721.664 l 700 692.793 l 800 750.531
 l h
816.668 721.664 m S
916.668 779.398 m 900 808.266 l 1000 866 l 950 837.133 l 966.668 808.266
 l h
916.668 779.398 m S
0.85098 g
683.332 606.191 m 700 577.324 l 600 519.59 l 650 548.457 l 633.332 577.324
 l h
683.332 606.191 m f*
0 g
683.332 606.191 m 700 577.324 l 600 519.59 l 650 548.457 l 633.332 577.324
 l h
683.332 606.191 m S
0.85098 g
783.332 663.926 m 833.332 692.793 l 850 663.926 l 900 692.793 l 800 635.059
 l h
783.332 663.926 m f*
0 g
783.332 663.926 m 833.332 692.793 l 850 663.926 l 900 692.793 l 800 635.059
 l h
783.332 663.926 m S
0.85098 g
716.668 548.457 m 666.668 519.59 l 650 548.457 l 600 519.59 l 700 577.324
 l h
716.668 548.457 m f*
0 g
716.668 548.457 m 666.668 519.59 l 650 548.457 l 600 519.59 l 700 577.324
 l h
716.668 548.457 m S
0.85098 g
816.668 606.191 m 800 635.059 l 900 692.793 l 850 663.926 l 866.668 635.059
 l h
816.668 606.191 m f*
0 g
816.668 606.191 m 800 635.059 l 900 692.793 l 850 663.926 l 866.668 635.059
 l h
816.668 606.191 m S
0.85098 g
583.332 432.988 m 600 404.121 l 500 346.383 l 550 375.254 l 533.332 404.121
 l h
583.332 432.988 m f*
0 g
583.332 432.988 m 600 404.121 l 500 346.383 l 550 375.254 l 533.332 404.121
 l h
583.332 432.988 m S
0.85098 g
683.332 490.723 m 733.332 519.59 l 750 490.723 l 800 519.59 l 700 461.855
 l h
683.332 490.723 m f*
0 g
683.332 490.723 m 733.332 519.59 l 750 490.723 l 800 519.59 l 700 461.855
 l h
683.332 490.723 m S
0.85098 g
616.668 375.254 m 566.668 346.383 l 550 375.254 l 500 346.383 l 600 404.121
 l h
616.668 375.254 m f*
0 g
616.668 375.254 m 566.668 346.383 l 550 375.254 l 500 346.383 l 600 404.121
 l h
616.668 375.254 m S
0.85098 g
716.668 432.988 m 700 461.855 l 800 519.59 l 750 490.723 l 766.668 461.855
 l h
716.668 432.988 m f*
0 g
716.668 432.988 m 700 461.855 l 800 519.59 l 750 490.723 l 766.668 461.855
 l h
716.668 432.988 m S
0.85098 g
483.332 259.781 m 500 230.914 l 400 173.18 l 450 202.047 l 433.332 230.914
 l h
483.332 259.781 m f*
0 g
483.332 259.781 m 500 230.914 l 400 173.18 l 450 202.047 l 433.332 230.914
 l h
483.332 259.781 m S
0.85098 g
583.332 317.516 m 633.332 346.383 l 650 317.516 l 700 346.383 l 600 288.648
 l h
583.332 317.516 m f*
0 g
583.332 317.516 m 633.332 346.383 l 650 317.516 l 700 346.383 l 600 288.648
 l h
583.332 317.516 m S
0.85098 g
516.668 202.047 m 466.668 173.18 l 450 202.047 l 400 173.18 l 500 230.914
 l h
516.668 202.047 m f*
0 g
516.668 202.047 m 466.668 173.18 l 450 202.047 l 400 173.18 l 500 230.914
 l h
516.668 202.047 m S
0.85098 g
616.668 259.781 m 600 288.648 l 700 346.383 l 650 317.516 l 666.668 288.648
 l h
616.668 259.781 m f*
0 g
616.668 259.781 m 600 288.648 l 700 346.383 l 650 317.516 l 666.668 288.648
 l h
616.668 259.781 m S
0.85098 g
383.332 86.578 m 400 57.711 l 300 -0.027 l 350 28.844 l 333.332 57.711 
l h
383.332 86.578 m f*
0 g
383.332 86.578 m 400 57.711 l 300 -0.027 l 350 28.844 l 333.332 57.711 
l h
383.332 86.578 m S
0.85098 g
483.332 144.312 m 533.332 173.18 l 550 144.312 l 600 173.18 l 500 115.445
 l h
483.332 144.312 m f*
0 g
483.332 144.312 m 533.332 173.18 l 550 144.312 l 600 173.18 l 500 115.445
 l h
483.332 144.312 m S
0.85098 g
416.668 28.844 m 366.668 -0.027 l 350 28.844 l 300 -0.027 l 400 57.711 
l h
416.668 28.844 m f*
0 g
416.668 28.844 m 366.668 -0.027 l 350 28.844 l 300 -0.027 l 400 57.711 
l h
416.668 28.844 m S
0.85098 g
516.668 86.578 m 500 115.445 l 600 173.18 l 550 144.312 l 566.668 115.445
 l h
516.668 86.578 m f*
0 g
516.668 86.578 m 500 115.445 l 600 173.18 l 550 144.312 l 566.668 115.445
 l h
516.668 86.578 m S
983.332 779.398 m 1000 750.531 l 900 692.793 l 950 721.664 l 933.332 750.531
 l h
983.332 779.398 m S
1016.668 721.664 m 966.668 692.793 l 950 721.664 l 900 692.793 l 1000 750.531
 l h
1016.668 721.664 m S
0.85098 g
883.332 606.191 m 900 577.324 l 800 519.59 l 850 548.457 l 833.332 577.324
 l h
883.332 606.191 m f*
0 g
883.332 606.191 m 900 577.324 l 800 519.59 l 850 548.457 l 833.332 577.324
 l h
883.332 606.191 m S
0.85098 g
916.668 548.457 m 866.668 519.59 l 850 548.457 l 800 519.59 l 900 577.324
 l h
916.668 548.457 m f*
0 g
916.668 548.457 m 866.668 519.59 l 850 548.457 l 800 519.59 l 900 577.324
 l h
916.668 548.457 m S
0.85098 g
783.332 432.988 m 800 404.121 l 700 346.383 l 750 375.254 l 733.332 404.121
 l h
783.332 432.988 m f*
0 g
783.332 432.988 m 800 404.121 l 700 346.383 l 750 375.254 l 733.332 404.121
 l h
783.332 432.988 m S
0.85098 g
883.332 490.723 m 933.332 519.59 l 950 490.723 l 1000 519.59 l 900 461.855
 l h
883.332 490.723 m f*
0 g
883.332 490.723 m 933.332 519.59 l 950 490.723 l 1000 519.59 l 900 461.855
 l h
883.332 490.723 m S
0.85098 g
816.668 375.254 m 766.668 346.383 l 750 375.254 l 700 346.383 l 800 404.121
 l h
816.668 375.254 m f*
0 g
816.668 375.254 m 766.668 346.383 l 750 375.254 l 700 346.383 l 800 404.121
 l h
816.668 375.254 m S
916.668 432.988 m 900 461.855 l 1000 519.59 l 950 490.723 l 966.668 461.855
 l h
916.668 432.988 m S
0.85098 g
683.332 259.781 m 700 230.914 l 600 173.18 l 650 202.047 l 633.332 230.914
 l h
683.332 259.781 m f*
0 g
683.332 259.781 m 700 230.914 l 600 173.18 l 650 202.047 l 633.332 230.914
 l h
683.332 259.781 m S
0.85098 g
783.332 317.516 m 833.332 346.383 l 850 317.516 l 900 346.383 l 800 288.648
 l h
783.332 317.516 m f*
0 g
783.332 317.516 m 833.332 346.383 l 850 317.516 l 900 346.383 l 800 288.648
 l h
783.332 317.516 m S
0.85098 g
716.668 202.047 m 666.668 173.18 l 650 202.047 l 600 173.18 l 700 230.914
 l h
716.668 202.047 m f*
0 g
716.668 202.047 m 666.668 173.18 l 650 202.047 l 600 173.18 l 700 230.914
 l h
716.668 202.047 m S
0.85098 g
816.668 259.781 m 800 288.648 l 900 346.383 l 850 317.516 l 866.668 288.648
 l h
816.668 259.781 m f*
0 g
816.668 259.781 m 800 288.648 l 900 346.383 l 850 317.516 l 866.668 288.648
 l h
816.668 259.781 m S
0.85098 g
583.332 86.578 m 600 57.711 l 500 -0.027 l 550 28.844 l 533.332 57.711 
l h
583.332 86.578 m f*
0 g
583.332 86.578 m 600 57.711 l 500 -0.027 l 550 28.844 l 533.332 57.711 
l h
583.332 86.578 m S
0.85098 g
683.332 144.312 m 733.332 173.18 l 750 144.312 l 800 173.18 l 700 115.445
 l h
683.332 144.312 m f*
0 g
683.332 144.312 m 733.332 173.18 l 750 144.312 l 800 173.18 l 700 115.445
 l h
683.332 144.312 m S
0.85098 g
616.668 28.844 m 566.668 -0.027 l 550 28.844 l 500 -0.027 l 600 57.711 
l h
616.668 28.844 m f*
0 g
616.668 28.844 m 566.668 -0.027 l 550 28.844 l 500 -0.027 l 600 57.711 
l h
616.668 28.844 m S
0.85098 g
716.668 86.578 m 700 115.445 l 800 173.18 l 750 144.312 l 766.668 115.445
 l h
716.668 86.578 m f*
0 g
716.668 86.578 m 700 115.445 l 800 173.18 l 750 144.312 l 766.668 115.445
 l h
716.668 86.578 m S
983.332 432.988 m 1000 404.121 l 900 346.383 l 950 375.254 l 933.332 404.121
 l h
983.332 432.988 m S
1016.668 375.254 m 966.668 346.383 l 950 375.254 l 900 346.383 l 1000 404.121
 l h
1016.668 375.254 m S
0.85098 g
883.332 259.781 m 900 230.914 l 800 173.18 l 850 202.047 l 833.332 230.914
 l h
883.332 259.781 m f*
0 g
883.332 259.781 m 900 230.914 l 800 173.18 l 850 202.047 l 833.332 230.914
 l h
883.332 259.781 m S
0.85098 g
916.668 202.047 m 866.668 173.18 l 850 202.047 l 800 173.18 l 900 230.914
 l h
916.668 202.047 m f*
0 g
916.668 202.047 m 866.668 173.18 l 850 202.047 l 800 173.18 l 900 230.914
 l h
916.668 202.047 m S
0.85098 g
783.332 86.578 m 800 57.711 l 700 -0.027 l 750 28.844 l 733.332 57.711 
l h
783.332 86.578 m f*
0 g
783.332 86.578 m 800 57.711 l 700 -0.027 l 750 28.844 l 733.332 57.711 
l h
783.332 86.578 m S
0.85098 g
883.332 144.312 m 933.332 173.18 l 950 144.312 l 1000 173.18 l 900 115.445
 l h
883.332 144.312 m f*
0 g
883.332 144.312 m 933.332 173.18 l 950 144.312 l 1000 173.18 l 900 115.445
 l h
883.332 144.312 m S
0.85098 g
816.668 28.844 m 766.668 -0.027 l 750 28.844 l 700 -0.027 l 800 57.711 
l h
816.668 28.844 m f*
0 g
816.668 28.844 m 766.668 -0.027 l 750 28.844 l 700 -0.027 l 800 57.711 
l h
816.668 28.844 m S
916.668 86.578 m 900 115.445 l 1000 173.18 l 950 144.312 l 966.668 115.445
 l h
916.668 86.578 m S
Q Q
showpage
%%Trailer
%%Trailer
cleartomark
countdictstack
exch sub { end } repeat
restore
%%EOF
