%!PS-Adobe-2.0 EPSF-2.0
%%BoundingBox: 0 0 900 866
%%HiResBoundingBox: 0.000000 0.000000 900.000000 866.000000
%%Creator: cairo 1.14.2 (http://cairographics.org)
%%CreationDate: Mon Sep  7 08:21:59 2015
%%DocumentData: Clean7Bit
%%LanguageLevel: 2
%%DocumentMedia: 318x306mm 900 866 0 () ()
%%EndComments
% EPSF created by ps2eps 1.68
%%BeginProlog
save
countdictstack
mark
newpath
/showpage {} def
/setpagedevice {pop} def
%%EndProlog
%%Page 1 1
%%BeginProlog
/languagelevel where
{ pop languagelevel } { 1 } ifelse
2 lt { /Helvetica findfont 12 scalefont setfont 50 500 moveto
  (This print job requires a PostScript Language Level 2 printer.) show
  showpage quit } if
/q { gsave } bind def
/Q { grestore } bind def
/cm { 6 array astore concat } bind def
/w { setlinewidth } bind def
/J { setlinecap } bind def
/j { setlinejoin } bind def
/M { setmiterlimit } bind def
/d { setdash } bind def
/m { moveto } bind def
/l { lineto } bind def
/c { curveto } bind def
/h { closepath } bind def
/re { exch dup neg 3 1 roll 5 3 roll moveto 0 rlineto
      0 exch rlineto 0 rlineto closepath } bind def
/S { stroke } bind def
/f { fill } bind def
/f* { eofill } bind def
/n { newpath } bind def
/W { clip } bind def
/W* { eoclip } bind def
/BT { } bind def
/ET { } bind def
/pdfmark where { pop globaldict /?pdfmark /exec load put }
    { globaldict begin /?pdfmark /pop load def /pdfmark
    /cleartomark load def end } ifelse
/BDC { mark 3 1 roll /BDC pdfmark } bind def
/EMC { mark /EMC pdfmark } bind def
/cairo_store_point { /cairo_point_y exch def /cairo_point_x exch def } def
/Tj { show currentpoint cairo_store_point } bind def
/TJ {
  {
    dup
    type /stringtype eq
    { show } { -0.001 mul 0 cairo_font_matrix dtransform rmoveto } ifelse
  } forall
  currentpoint cairo_store_point
} bind def
/cairo_selectfont { cairo_font_matrix aload pop pop pop 0 0 6 array astore
    cairo_font exch selectfont cairo_point_x cairo_point_y moveto } bind def
/Tf { pop /cairo_font exch def /cairo_font_matrix where
      { pop cairo_selectfont } if } bind def
/Td { matrix translate cairo_font_matrix matrix concatmatrix dup
      /cairo_font_matrix exch def dup 4 get exch 5 get cairo_store_point
      /cairo_font where { pop cairo_selectfont } if } bind def
/Tm { 2 copy 8 2 roll 6 array astore /cairo_font_matrix exch def
      cairo_store_point /cairo_font where { pop cairo_selectfont } if } bind def
/g { setgray } bind def
/rg { setrgbcolor } bind def
/d1 { setcachedevice } bind def
/cairo_set_page_size {
  % Change paper size, but only if different from previous paper size otherwise
  % duplex fails. PLRM specifies a tolerance of 5 pts when matching paper size
  % so we use the same when checking if the size changes.
  /setpagedevice where {
    pop currentpagedevice
    /PageSize known {
      2 copy
      currentpagedevice /PageSize get aload pop
      exch 4 1 roll
      sub abs 5 gt
      3 1 roll
      sub abs 5 gt
      or
    } {
      true
    } ifelse
    {
      2 array astore
      2 dict begin
        /PageSize exch def
        /ImagingBBox null def
      currentdict end
      setpagedevice
    } {
      pop pop
    } ifelse
  } {
    pop
  } ifelse
} def
%%EndProlog
%%BeginSetup
%%EndSetup
%%Page: 1 1
%%BeginPageSetup
%%PageMedia: 318x306mm
%%PageBoundingBox: 0 0 900 866
900 866 cairo_set_page_size
%%EndPageSetup
q 0 0 900 866 rectclip q
0.984314 g
0 0 900 866 rectfill
0.788235 g
1.875 w
0 J
1 j
[] 0.0 d
4 M 0 866 900 -866.027 re S
0 g
2.5 w
1 J
-33.332 808.266 m -16.668 779.398 l 0 750.531 l -66.668 750.531 l S
66.668 866 m 83.332 837.133 l 100 808.266 l 133.332 866 l S
33.332 692.793 m 16.668 721.664 l 0 750.531 l -33.332 692.793 l S
133.332 750.531 m 116.668 779.398 l 100 808.266 l 166.668 808.266 l S
-33.332 692.793 m -16.668 663.926 l 0 635.059 l 33.332 692.793 l S
33.332 577.324 m 16.668 606.191 l 0 635.059 l 66.668 635.059 l S
166.668 808.266 m 183.332 779.398 l 200 750.531 l 133.332 750.531 l S
266.668 866 m 283.332 837.133 l 300 808.266 l 333.332 866 l S
233.332 692.793 m 216.668 721.664 l 200 750.531 l 166.668 692.793 l S
333.332 750.531 m 316.668 779.398 l 300 808.266 l 366.668 808.266 l S
66.668 635.059 m 83.332 606.191 l 100 577.324 l 33.332 577.324 l S
166.668 692.793 m 183.332 663.926 l 200 635.059 l 233.332 692.793 l S
133.332 519.59 m 116.668 548.457 l 100 577.324 l 66.668 519.59 l S
233.332 577.324 m 216.668 606.191 l 200 635.059 l 266.668 635.059 l S
-33.332 461.855 m -16.668 432.988 l 0 404.121 l -66.668 404.121 l S
66.668 519.59 m 83.332 490.723 l 100 461.855 l 133.332 519.59 l S
33.332 346.383 m 16.668 375.254 l 0 404.121 l -33.332 346.383 l S
133.332 404.121 m 116.668 432.988 l 100 461.855 l 166.668 461.855 l S
-33.332 346.383 m -16.668 317.516 l 0 288.648 l 33.332 346.383 l S
33.332 230.914 m 16.668 259.781 l 0 288.648 l 66.668 288.648 l S
366.668 808.266 m 383.332 779.398 l 400 750.531 l 333.332 750.531 l S
466.668 866 m 483.332 837.133 l 500 808.266 l 533.332 866 l S
433.332 692.793 m 416.668 721.664 l 400 750.531 l 366.668 692.793 l S
533.332 750.531 m 516.668 779.398 l 500 808.266 l 566.668 808.266 l S
266.668 635.059 m 283.332 606.191 l 300 577.324 l 233.332 577.324 l S
366.668 692.793 m 383.332 663.926 l 400 635.059 l 433.332 692.793 l S
333.332 519.59 m 316.668 548.457 l 300 577.324 l 266.668 519.59 l S
433.332 577.324 m 416.668 606.191 l 400 635.059 l 466.668 635.059 l S
166.668 461.855 m 183.332 432.988 l 200 404.121 l 133.332 404.121 l S
266.668 519.59 m 283.332 490.723 l 300 461.855 l 333.332 519.59 l S
233.332 346.383 m 216.668 375.254 l 200 404.121 l 166.668 346.383 l S
333.332 404.121 m 316.668 432.988 l 300 461.855 l 366.668 461.855 l S
66.668 288.648 m 83.332 259.781 l 100 230.914 l 33.332 230.914 l S
166.668 346.383 m 183.332 317.516 l 200 288.648 l 233.332 346.383 l S
133.332 173.18 m 116.668 202.047 l 100 230.914 l 66.668 173.18 l S
233.332 230.914 m 216.668 259.781 l 200 288.648 l 266.668 288.648 l S
-33.332 115.445 m -16.668 86.578 l 0 57.711 l -66.668 57.711 l S
66.668 173.18 m 83.332 144.312 l 100 115.445 l 133.332 173.18 l S
33.332 -0.027 m 16.668 28.844 l 0 57.711 l -33.332 -0.027 l S
133.332 57.711 m 116.668 86.578 l 100 115.445 l 166.668 115.445 l S
566.668 808.266 m 583.332 779.398 l 600 750.531 l 533.332 750.531 l S
666.668 866 m 683.332 837.133 l 700 808.266 l 733.332 866 l S
633.332 692.793 m 616.668 721.664 l 600 750.531 l 566.668 692.793 l S
733.332 750.531 m 716.668 779.398 l 700 808.266 l 766.668 808.266 l S
466.668 635.059 m 483.332 606.191 l 500 577.324 l 433.332 577.324 l S
566.668 692.793 m 583.332 663.926 l 600 635.059 l 633.332 692.793 l S
533.332 519.59 m 516.668 548.457 l 500 577.324 l 466.668 519.59 l S
633.332 577.324 m 616.668 606.191 l 600 635.059 l 666.668 635.059 l S
366.668 461.855 m 383.332 432.988 l 400 404.121 l 333.332 404.121 l S
466.668 519.59 m 483.332 490.723 l 500 461.855 l 533.332 519.59 l S
433.332 346.383 m 416.668 375.254 l 400 404.121 l 366.668 346.383 l S
533.332 404.121 m 516.668 432.988 l 500 461.855 l 566.668 461.855 l S
266.668 288.648 m 283.332 259.781 l 300 230.914 l 233.332 230.914 l S
366.668 346.383 m 383.332 317.516 l 400 288.648 l 433.332 346.383 l S
333.332 173.18 m 316.668 202.047 l 300 230.914 l 266.668 173.18 l S
433.332 230.914 m 416.668 259.781 l 400 288.648 l 466.668 288.648 l S
166.668 115.445 m 183.332 86.578 l 200 57.711 l 133.332 57.711 l S
266.668 173.18 m 283.332 144.312 l 300 115.445 l 333.332 173.18 l S
233.332 -0.027 m 216.668 28.844 l 200 57.711 l 166.668 -0.027 l S
333.332 57.711 m 316.668 86.578 l 300 115.445 l 366.668 115.445 l S
766.668 808.266 m 783.332 779.398 l 800 750.531 l 733.332 750.531 l S
866.668 866 m 883.332 837.133 l 900 808.266 l 933.332 866 l S
833.332 692.793 m 816.668 721.664 l 800 750.531 l 766.668 692.793 l S
933.332 750.531 m 916.668 779.398 l 900 808.266 l 966.668 808.266 l S
666.668 635.059 m 683.332 606.191 l 700 577.324 l 633.332 577.324 l S
766.668 692.793 m 783.332 663.926 l 800 635.059 l 833.332 692.793 l S
733.332 519.59 m 716.668 548.457 l 700 577.324 l 666.668 519.59 l S
833.332 577.324 m 816.668 606.191 l 800 635.059 l 866.668 635.059 l S
566.668 461.855 m 583.332 432.988 l 600 404.121 l 533.332 404.121 l S
666.668 519.59 m 683.332 490.723 l 700 461.855 l 733.332 519.59 l S
633.332 346.383 m 616.668 375.254 l 600 404.121 l 566.668 346.383 l S
733.332 404.121 m 716.668 432.988 l 700 461.855 l 766.668 461.855 l S
466.668 288.648 m 483.332 259.781 l 500 230.914 l 433.332 230.914 l S
566.668 346.383 m 583.332 317.516 l 600 288.648 l 633.332 346.383 l S
533.332 173.18 m 516.668 202.047 l 500 230.914 l 466.668 173.18 l S
633.332 230.914 m 616.668 259.781 l 600 288.648 l 666.668 288.648 l S
366.668 115.445 m 383.332 86.578 l 400 57.711 l 333.332 57.711 l S
466.668 173.18 m 483.332 144.312 l 500 115.445 l 533.332 173.18 l S
433.332 -0.027 m 416.668 28.844 l 400 57.711 l 366.668 -0.027 l S
533.332 57.711 m 516.668 86.578 l 500 115.445 l 566.668 115.445 l S
866.668 635.059 m 883.332 606.191 l 900 577.324 l 833.332 577.324 l S
933.332 519.59 m 916.668 548.457 l 900 577.324 l 866.668 519.59 l S
766.668 461.855 m 783.332 432.988 l 800 404.121 l 733.332 404.121 l S
866.668 519.59 m 883.332 490.723 l 900 461.855 l 933.332 519.59 l S
833.332 346.383 m 816.668 375.254 l 800 404.121 l 766.668 346.383 l S
933.332 404.121 m 916.668 432.988 l 900 461.855 l 966.668 461.855 l S
666.668 288.648 m 683.332 259.781 l 700 230.914 l 633.332 230.914 l S
766.668 346.383 m 783.332 317.516 l 800 288.648 l 833.332 346.383 l S
733.332 173.18 m 716.668 202.047 l 700 230.914 l 666.668 173.18 l S
833.332 230.914 m 816.668 259.781 l 800 288.648 l 866.668 288.648 l S
566.668 115.445 m 583.332 86.578 l 600 57.711 l 533.332 57.711 l S
666.668 173.18 m 683.332 144.312 l 700 115.445 l 733.332 173.18 l S
633.332 -0.027 m 616.668 28.844 l 600 57.711 l 566.668 -0.027 l S
733.332 57.711 m 716.668 86.578 l 700 115.445 l 766.668 115.445 l S
866.668 288.648 m 883.332 259.781 l 900 230.914 l 833.332 230.914 l S
933.332 173.18 m 916.668 202.047 l 900 230.914 l 866.668 173.18 l S
766.668 115.445 m 783.332 86.578 l 800 57.711 l 733.332 57.711 l S
866.668 173.18 m 883.332 144.312 l 900 115.445 l 933.332 173.18 l S
833.332 -0.027 m 816.668 28.844 l 800 57.711 l 766.668 -0.027 l S
933.332 57.711 m 916.668 86.578 l 900 115.445 l 966.668 115.445 l S
Q Q
showpage
%%Trailer
%%Trailer
cleartomark
countdictstack
exch sub { end } repeat
restore
%%EOF
