%!PS-Adobe-2.0 EPSF-2.0
%%BoundingBox: 0 0 1164 636
%%HiResBoundingBox: 0.000000 0.000000 1164.000000 636.000000
%%Creator: cairo 1.14.2 (http://cairographics.org)
%%CreationDate: Mon Sep  7 08:21:59 2015
%%DocumentData: Clean7Bit
%%LanguageLevel: 2
%%DocumentMedia: 411x224mm 1164 636 0 () ()
%%EndComments
% EPSF created by ps2eps 1.68
%%BeginProlog
save
countdictstack
mark
newpath
/showpage {} def
/setpagedevice {pop} def
%%EndProlog
%%Page 1 1
%%BeginProlog
/languagelevel where
{ pop languagelevel } { 1 } ifelse
2 lt { /Helvetica findfont 12 scalefont setfont 50 500 moveto
  (This print job requires a PostScript Language Level 2 printer.) show
  showpage quit } if
/q { gsave } bind def
/Q { grestore } bind def
/cm { 6 array astore concat } bind def
/w { setlinewidth } bind def
/J { setlinecap } bind def
/j { setlinejoin } bind def
/M { setmiterlimit } bind def
/d { setdash } bind def
/m { moveto } bind def
/l { lineto } bind def
/c { curveto } bind def
/h { closepath } bind def
/re { exch dup neg 3 1 roll 5 3 roll moveto 0 rlineto
      0 exch rlineto 0 rlineto closepath } bind def
/S { stroke } bind def
/f { fill } bind def
/f* { eofill } bind def
/n { newpath } bind def
/W { clip } bind def
/W* { eoclip } bind def
/BT { } bind def
/ET { } bind def
/pdfmark where { pop globaldict /?pdfmark /exec load put }
    { globaldict begin /?pdfmark /pop load def /pdfmark
    /cleartomark load def end } ifelse
/BDC { mark 3 1 roll /BDC pdfmark } bind def
/EMC { mark /EMC pdfmark } bind def
/cairo_store_point { /cairo_point_y exch def /cairo_point_x exch def } def
/Tj { show currentpoint cairo_store_point } bind def
/TJ {
  {
    dup
    type /stringtype eq
    { show } { -0.001 mul 0 cairo_font_matrix dtransform rmoveto } ifelse
  } forall
  currentpoint cairo_store_point
} bind def
/cairo_selectfont { cairo_font_matrix aload pop pop pop 0 0 6 array astore
    cairo_font exch selectfont cairo_point_x cairo_point_y moveto } bind def
/Tf { pop /cairo_font exch def /cairo_font_matrix where
      { pop cairo_selectfont } if } bind def
/Td { matrix translate cairo_font_matrix matrix concatmatrix dup
      /cairo_font_matrix exch def dup 4 get exch 5 get cairo_store_point
      /cairo_font where { pop cairo_selectfont } if } bind def
/Tm { 2 copy 8 2 roll 6 array astore /cairo_font_matrix exch def
      cairo_store_point /cairo_font where { pop cairo_selectfont } if } bind def
/g { setgray } bind def
/rg { setrgbcolor } bind def
/d1 { setcachedevice } bind def
/cairo_set_page_size {
  % Change paper size, but only if different from previous paper size otherwise
  % duplex fails. PLRM specifies a tolerance of 5 pts when matching paper size
  % so we use the same when checking if the size changes.
  /setpagedevice where {
    pop currentpagedevice
    /PageSize known {
      2 copy
      currentpagedevice /PageSize get aload pop
      exch 4 1 roll
      sub abs 5 gt
      3 1 roll
      sub abs 5 gt
      or
    } {
      true
    } ifelse
    {
      2 array astore
      2 dict begin
        /PageSize exch def
        /ImagingBBox null def
      currentdict end
      setpagedevice
    } {
      pop pop
    } ifelse
  } {
    pop
  } ifelse
} def
%%EndProlog
%%BeginSetup
%%EndSetup
%%Page: 1 1
%%BeginPageSetup
%%PageMedia: 411x224mm
%%PageBoundingBox: 0 0 1164 636
1164 636 cairo_set_page_size
%%EndPageSetup
q 0 0 1164 636 rectclip q
Q q
0.984314 g
0 636 1163.605 -636.395 re f*
0.788235 g
1.875 w
0 J
1 j
[] 0.0 d
4 M 0 636 1163.605 -636.395 re S
0 g
2.5 w
1 J
58.578 141.023 m -76.777 176.379 8.578 141.023 -62.133 211.734 c S
129.289 70.316 m -6.066 105.668 79.289 70.316 8.578 141.023 c S
-70.711 70.316 m 64.645 34.961 -20.711 70.316 50 -0.395 c S
200 -0.395 m 64.645 34.961 150 -0.395 79.289 70.316 c S
46.445 353.156 m -88.91 388.512 -3.555 353.156 -74.266 423.867 c S
117.156 282.445 m -18.199 317.801 67.156 282.445 -3.555 353.156 c S
-82.844 282.445 m 52.512 247.09 -32.844 282.445 37.867 211.734 c S
187.867 211.734 m 52.512 247.09 137.867 211.734 67.156 282.445 c S
-12.133 211.734 m 123.223 176.379 37.867 211.734 108.578 141.023 c S
258.578 141.023 m 123.223 176.379 208.578 141.023 137.867 211.734 c S
58.578 141.023 m 193.934 105.668 108.578 141.023 179.289 70.316 c S
329.289 70.316 m 193.934 105.668 279.289 70.316 208.578 141.023 c S
129.289 70.316 m 264.645 34.961 179.289 70.316 250 -0.395 c S
400 -0.395 m 264.645 34.961 350 -0.395 279.289 70.316 c S
34.316 565.289 m -101.039 600.645 -15.684 565.289 -86.395 636 c S
105.023 494.578 m -30.332 529.934 55.023 494.578 -15.684 565.289 c S
-94.977 494.578 m 40.379 459.223 -44.977 494.578 25.734 423.867 c S
175.734 423.867 m 40.379 459.223 125.734 423.867 55.023 494.578 c S
-24.266 423.867 m 111.09 388.512 25.734 423.867 96.445 353.156 c S
246.445 353.156 m 111.09 388.512 196.445 353.156 125.734 423.867 c S
46.445 353.156 m 181.801 317.801 96.445 353.156 167.156 282.445 c S
317.156 282.445 m 181.801 317.801 267.156 282.445 196.445 353.156 c S
117.156 282.445 m 252.512 247.09 167.156 282.445 237.867 211.734 c S
387.867 211.734 m 252.512 247.09 337.867 211.734 267.156 282.445 c S
187.867 211.734 m 323.223 176.379 237.867 211.734 308.578 141.023 c S
458.578 141.023 m 323.223 176.379 408.578 141.023 337.867 211.734 c S
258.578 141.023 m 393.934 105.668 308.578 141.023 379.289 70.316 c S
529.289 70.316 m 393.934 105.668 479.289 70.316 408.578 141.023 c S
329.289 70.316 m 464.645 34.961 379.289 70.316 450 -0.395 c S
600 -0.395 m 464.645 34.961 550 -0.395 479.289 70.316 c S
-36.395 636 m 98.961 600.645 13.605 636 84.316 565.289 c S
234.316 565.289 m 98.961 600.645 184.316 565.289 113.605 636 c S
34.316 565.289 m 169.668 529.934 84.316 565.289 155.023 494.578 c S
305.023 494.578 m 169.668 529.934 255.023 494.578 184.316 565.289 c S
105.023 494.578 m 240.379 459.223 155.023 494.578 225.734 423.867 c S
375.734 423.867 m 240.379 459.223 325.734 423.867 255.023 494.578 c S
175.734 423.867 m 311.09 388.512 225.734 423.867 296.445 353.156 c S
446.445 353.156 m 311.09 388.512 396.445 353.156 325.734 423.867 c S
246.445 353.156 m 381.801 317.801 296.445 353.156 367.156 282.445 c S
517.156 282.445 m 381.801 317.801 467.156 282.445 396.445 353.156 c S
317.156 282.445 m 452.512 247.09 367.156 282.445 437.867 211.734 c S
587.867 211.734 m 452.512 247.09 537.867 211.734 467.156 282.445 c S
387.867 211.734 m 523.223 176.379 437.867 211.734 508.578 141.023 c S
658.578 141.023 m 523.223 176.379 608.578 141.023 537.867 211.734 c S
458.578 141.023 m 593.934 105.668 508.578 141.023 579.289 70.316 c S
729.289 70.316 m 593.934 105.668 679.289 70.316 608.578 141.023 c S
529.289 70.316 m 664.645 34.961 579.289 70.316 650 -0.395 c S
800 -0.395 m 664.645 34.961 750 -0.395 679.289 70.316 c S
163.605 636 m 298.961 600.645 213.605 636 284.316 565.289 c S
434.316 565.289 m 298.961 600.645 384.316 565.289 313.605 636 c S
234.316 565.289 m 369.668 529.934 284.316 565.289 355.023 494.578 c S
505.023 494.578 m 369.668 529.934 455.023 494.578 384.316 565.289 c S
305.023 494.578 m 440.379 459.223 355.023 494.578 425.734 423.867 c S
575.734 423.867 m 440.379 459.223 525.734 423.867 455.023 494.578 c S
375.734 423.867 m 511.09 388.512 425.734 423.867 496.445 353.156 c S
646.445 353.156 m 511.09 388.512 596.445 353.156 525.734 423.867 c S
446.445 353.156 m 581.801 317.801 496.445 353.156 567.156 282.445 c S
717.156 282.445 m 581.801 317.801 667.156 282.445 596.445 353.156 c S
517.156 282.445 m 652.512 247.09 567.156 282.445 637.867 211.734 c S
787.867 211.734 m 652.512 247.09 737.867 211.734 667.156 282.445 c S
587.867 211.734 m 723.223 176.379 637.867 211.734 708.578 141.023 c S
858.578 141.023 m 723.223 176.379 808.578 141.023 737.867 211.734 c S
658.578 141.023 m 793.934 105.668 708.578 141.023 779.289 70.316 c S
929.289 70.316 m 793.934 105.668 879.289 70.316 808.578 141.023 c S
729.289 70.316 m 864.645 34.961 779.289 70.316 850 -0.395 c S
1000 -0.395 m 864.645 34.961 950 -0.395 879.289 70.316 c S
363.605 636 m 498.961 600.645 413.605 636 484.316 565.289 c S
634.316 565.289 m 498.961 600.645 584.316 565.289 513.605 636 c S
434.316 565.289 m 569.668 529.934 484.316 565.289 555.023 494.578 c S
705.023 494.578 m 569.668 529.934 655.023 494.578 584.316 565.289 c S
505.023 494.578 m 640.379 459.223 555.023 494.578 625.734 423.867 c S
775.734 423.867 m 640.379 459.223 725.734 423.867 655.023 494.578 c S
575.734 423.867 m 711.09 388.512 625.734 423.867 696.445 353.156 c S
846.445 353.156 m 711.09 388.512 796.445 353.156 725.734 423.867 c S
646.445 353.156 m 781.801 317.801 696.445 353.156 767.156 282.445 c S
917.156 282.445 m 781.801 317.801 867.156 282.445 796.445 353.156 c S
717.156 282.445 m 852.512 247.09 767.156 282.445 837.867 211.734 c S
987.867 211.734 m 852.512 247.09 937.867 211.734 867.156 282.445 c S
787.867 211.734 m 923.223 176.379 837.867 211.734 908.578 141.023 c S
1058.578 141.023 m 923.223 176.379 1008.578 141.023 937.867 211.734 c S
858.578 141.023 m 993.934 105.668 908.578 141.023 979.289 70.316 c S
1129.289 70.316 m 993.934 105.668 1079.289 70.316 1008.578 141.023 c S
929.289 70.316 m 1064.645 34.961 979.289 70.316 1050 -0.395 c S
Q q
1078 72 85.605 -72 re W n
0 g
2.5 w
1 J
1 j
[] 0.0 d
4 M 1200 -0.395 m 1064.645 34.961 1150 -0.395 1079.289 70.316 c S
Q q
0 g
2.5 w
1 J
1 j
[] 0.0 d
4 M 563.605 636 m 698.961 600.645 613.605 636 684.316 565.289 c S
834.316 565.289 m 698.961 600.645 784.316 565.289 713.605 636 c S
634.316 565.289 m 769.668 529.934 684.316 565.289 755.023 494.578 c S
905.023 494.578 m 769.668 529.934 855.023 494.578 784.316 565.289 c S
705.023 494.578 m 840.379 459.223 755.023 494.578 825.734 423.867 c S
975.734 423.867 m 840.379 459.223 925.734 423.867 855.023 494.578 c S
775.734 423.867 m 911.09 388.512 825.734 423.867 896.445 353.156 c S
1046.445 353.156 m 911.09 388.512 996.445 353.156 925.734 423.867 c S
846.445 353.156 m 981.801 317.801 896.445 353.156 967.156 282.445 c S
1117.156 282.445 m 981.801 317.801 1067.156 282.445 996.445 353.156 c S
917.156 282.445 m 1052.512 247.09 967.156 282.445 1037.867 211.734 c S
Q q
1065 284 98.605 -74 re W n
0 g
2.5 w
1 J
1 j
[] 0.0 d
4 M 1187.867 211.734 m 1052.512 247.09 1137.867 211.734 1067.156 282.445 c S
Q q
0 g
2.5 w
1 J
1 j
[] 0.0 d
4 M 987.867 211.734 m 1123.223 176.379 1037.867 211.734 1108.578 141.023 c S
Q q
1136 213 27.605 -74 re W n
0 g
2.5 w
1 J
1 j
[] 0.0 d
4 M 1258.578 141.023 m 1123.223 176.379 1208.578 141.023 1137.867 211.734 c
 S
Q q
1057 143 106.605 -74 re W n
0 g
2.5 w
1 J
1 j
[] 0.0 d
4 M 1058.578 141.023 m 1193.934 105.668 1108.578 141.023 1179.289 70.316 c S
Q q
1128 72 35.605 -72 re W n
0 g
2.5 w
1 J
1 j
[] 0.0 d
4 M 1129.289 70.316 m 1264.645 34.961 1179.289 70.316 1250 -0.395 c S
Q q
0 g
2.5 w
1 J
1 j
[] 0.0 d
4 M 763.605 636 m 898.961 600.645 813.605 636 884.316 565.289 c S
1034.316 565.289 m 898.961 600.645 984.316 565.289 913.605 636 c S
834.316 565.289 m 969.668 529.934 884.316 565.289 955.023 494.578 c S
1105.023 494.578 m 969.668 529.934 1055.023 494.578 984.316 565.289 c S
905.023 494.578 m 1040.379 459.223 955.023 494.578 1025.734 423.867 c S
Q q
1053 496 110.605 -74 re W n
0 g
2.5 w
1 J
1 j
[] 0.0 d
4 M 1175.734 423.867 m 1040.379 459.223 1125.734 423.867 1055.023 494.578 c
 S
Q q
0 g
2.5 w
1 J
1 j
[] 0.0 d
4 M 975.734 423.867 m 1111.09 388.512 1025.734 423.867 1096.445 353.156 c S
Q q
1124 426 39.605 -75 re W n
0 g
2.5 w
1 J
1 j
[] 0.0 d
4 M 1246.445 353.156 m 1111.09 388.512 1196.445 353.156 1125.734 423.867 c S
Q q
1045 355 118.605 -74 re W n
0 g
2.5 w
1 J
1 j
[] 0.0 d
4 M 1046.445 353.156 m 1181.801 317.801 1096.445 353.156 1167.156 282.445 c
 S
Q q
1115 284 48.605 -74 re W n
0 g
2.5 w
1 J
1 j
[] 0.0 d
4 M 1117.156 282.445 m 1252.512 247.09 1167.156 282.445 1237.867 211.734 c S
Q q
0 g
2.5 w
1 J
1 j
[] 0.0 d
4 M 963.605 636 m 1098.961 600.645 1013.605 636 1084.316 565.289 c S
Q q
1112 636 51.605 -72 re W n
0 g
2.5 w
1 J
1 j
[] 0.0 d
4 M 1234.316 565.289 m 1098.961 600.645 1184.316 565.289 1113.605 636 c S
Q q
0 g
2.5 w
1 J
1 j
[] 0.0 d
4 M 1034.316 565.289 m 1169.668 529.934 1084.316 565.289 1155.023 494.578 c
 S
Q q
1103 496 60.605 -74 re W n
0 g
2.5 w
1 J
1 j
[] 0.0 d
4 M 1105.023 494.578 m 1240.379 459.223 1155.023 494.578 1225.734 423.867 c
 S
Q Q
showpage
%%Trailer
%%Trailer
cleartomark
countdictstack
exch sub { end } repeat
restore
%%EOF
