%!PS-Adobe-2.0 EPSF-2.0
%%BoundingBox: 0 0 1800 1559
%%HiResBoundingBox: 0.000000 0.000000 1800.000000 1559.000000
%%Creator: cairo 1.14.2 (http://cairographics.org)
%%CreationDate: Mon Sep  7 08:21:59 2015
%%DocumentData: Clean7Bit
%%LanguageLevel: 2
%%DocumentMedia: 635x550mm 1800 1559 0 () ()
%%EndComments
% EPSF created by ps2eps 1.68
%%BeginProlog
save
countdictstack
mark
newpath
/showpage {} def
/setpagedevice {pop} def
%%EndProlog
%%Page 1 1
%%BeginProlog
/languagelevel where
{ pop languagelevel } { 1 } ifelse
2 lt { /Helvetica findfont 12 scalefont setfont 50 500 moveto
  (This print job requires a PostScript Language Level 2 printer.) show
  showpage quit } if
/q { gsave } bind def
/Q { grestore } bind def
/cm { 6 array astore concat } bind def
/w { setlinewidth } bind def
/J { setlinecap } bind def
/j { setlinejoin } bind def
/M { setmiterlimit } bind def
/d { setdash } bind def
/m { moveto } bind def
/l { lineto } bind def
/c { curveto } bind def
/h { closepath } bind def
/re { exch dup neg 3 1 roll 5 3 roll moveto 0 rlineto
      0 exch rlineto 0 rlineto closepath } bind def
/S { stroke } bind def
/f { fill } bind def
/f* { eofill } bind def
/n { newpath } bind def
/W { clip } bind def
/W* { eoclip } bind def
/BT { } bind def
/ET { } bind def
/pdfmark where { pop globaldict /?pdfmark /exec load put }
    { globaldict begin /?pdfmark /pop load def /pdfmark
    /cleartomark load def end } ifelse
/BDC { mark 3 1 roll /BDC pdfmark } bind def
/EMC { mark /EMC pdfmark } bind def
/cairo_store_point { /cairo_point_y exch def /cairo_point_x exch def } def
/Tj { show currentpoint cairo_store_point } bind def
/TJ {
  {
    dup
    type /stringtype eq
    { show } { -0.001 mul 0 cairo_font_matrix dtransform rmoveto } ifelse
  } forall
  currentpoint cairo_store_point
} bind def
/cairo_selectfont { cairo_font_matrix aload pop pop pop 0 0 6 array astore
    cairo_font exch selectfont cairo_point_x cairo_point_y moveto } bind def
/Tf { pop /cairo_font exch def /cairo_font_matrix where
      { pop cairo_selectfont } if } bind def
/Td { matrix translate cairo_font_matrix matrix concatmatrix dup
      /cairo_font_matrix exch def dup 4 get exch 5 get cairo_store_point
      /cairo_font where { pop cairo_selectfont } if } bind def
/Tm { 2 copy 8 2 roll 6 array astore /cairo_font_matrix exch def
      cairo_store_point /cairo_font where { pop cairo_selectfont } if } bind def
/g { setgray } bind def
/rg { setrgbcolor } bind def
/d1 { setcachedevice } bind def
/cairo_set_page_size {
  % Change paper size, but only if different from previous paper size otherwise
  % duplex fails. PLRM specifies a tolerance of 5 pts when matching paper size
  % so we use the same when checking if the size changes.
  /setpagedevice where {
    pop currentpagedevice
    /PageSize known {
      2 copy
      currentpagedevice /PageSize get aload pop
      exch 4 1 roll
      sub abs 5 gt
      3 1 roll
      sub abs 5 gt
      or
    } {
      true
    } ifelse
    {
      2 array astore
      2 dict begin
        /PageSize exch def
        /ImagingBBox null def
      currentdict end
      setpagedevice
    } {
      pop pop
    } ifelse
  } {
    pop
  } ifelse
} def
%%EndProlog
%%BeginSetup
%%EndSetup
%%Page: 1 1
%%BeginPageSetup
%%PageMedia: 635x550mm
%%PageBoundingBox: 0 0 1800 1559
1800 1559 cairo_set_page_size
%%EndPageSetup
q 0 0 1800 1559 rectclip q
Q q
0.984314 g
0 1559 1800 -1558.848 re f*
0.788235 g
1.875 w
0 J
1 j
[] 0.0 d
4 M 0 1559 1800 -1558.848 re S
0 g
2.5 w
1 J
-150 779.578 m -107.973 803.844 -54.59 794.43 -23.395 757.254 c 7.797 720.078
 7.797 665.871 -23.395 628.695 c -54.59 591.52 -107.973 582.105 -150 606.371
 c S
0 519.77 m -30.941 501.906 -69.059 501.906 -100 519.77 c -130.941 537.633
 -150 570.645 -150 606.371 c S
0 519.77 m 42.027 544.035 95.41 534.621 126.605 497.445 c 157.797 460.27
 157.797 406.062 126.605 368.887 c 95.41 331.711 42.027 322.301 0 346.562
 c S
150 259.961 m 119.059 242.098 80.941 242.098 50 259.961 c 19.059 277.824
 0 310.836 0 346.562 c S
-150 259.961 m -192.027 284.227 -210.566 335.164 -193.969 380.766 c -177.371
 426.367 -130.426 453.473 -82.637 445.047 c -34.844 436.617 0 395.094 0 
346.562 c S
150 259.961 m 192.027 284.227 245.41 274.812 276.605 237.637 c 307.797 
200.461 307.797 146.258 276.605 109.082 c 245.41 71.906 192.027 62.492 150
 86.758 c S
Q q
148 89 154 -88.848 re W n
0 g
2.5 w
1 J
1 j
[] 0.0 d
4 M 300 0.152 m 269.059 -17.711 230.941 -17.711 200 0.152 c 169.059 18.016 
150 51.031 150 86.758 c S
Q q
0 189 152 -188.848 re W n
0 g
2.5 w
1 J
1 j
[] 0.0 d
4 M 0 0.152 m -42.027 24.418 -60.566 75.355 -43.969 120.957 c -27.371 166.562
 19.574 193.664 67.363 185.238 c 115.156 176.812 150 135.285 150 86.758 
c S
Q q
0 g
2.5 w
1 J
1 j
[] 0.0 d
4 M -150 1299.191 m -107.973 1323.457 -54.59 1314.043 -23.395 1276.867 c 7.797
 1239.691 7.797 1185.488 -23.395 1148.312 c -54.59 1111.137 -107.973 1101.723
 -150 1125.988 c S
0 1039.383 m -30.941 1021.52 -69.059 1021.52 -100 1039.383 c -130.941 1057.246
 -150 1090.262 -150 1125.988 c S
0 1039.383 m 42.027 1063.648 95.41 1054.238 126.605 1017.062 c 157.797 
979.887 157.797 925.68 126.605 888.504 c 95.41 851.328 42.027 841.914 0 
866.18 c S
150 779.578 m 119.059 761.715 80.941 761.715 50 779.578 c 19.059 797.441
 0 830.453 0 866.18 c S
-150 779.578 m -192.027 803.844 -210.566 854.777 -193.969 900.383 c -177.371
 945.984 -130.426 973.086 -82.637 964.66 c -34.844 956.234 0 914.711 0 866.18
 c S
150 779.578 m 192.027 803.844 245.41 794.43 276.605 757.254 c 307.797 720.078
 307.797 665.871 276.605 628.695 c 245.41 591.52 192.027 582.105 150 606.371
 c S
300 519.77 m 269.059 501.906 230.941 501.906 200 519.77 c 169.059 537.633
 150 570.645 150 606.371 c S
0 519.77 m -42.027 544.035 -60.566 594.973 -43.969 640.574 c -27.371 686.176
 19.574 713.281 67.363 704.852 c 115.156 696.426 150 654.902 150 606.371
 c S
300 519.77 m 342.027 544.035 395.41 534.621 426.605 497.445 c 457.797 460.27
 457.797 406.062 426.605 368.887 c 395.41 331.711 342.027 322.301 300 346.562
 c S
450 259.961 m 419.059 242.098 380.941 242.098 350 259.961 c 319.059 277.824
 300 310.836 300 346.562 c S
150 259.961 m 107.973 284.227 89.434 335.164 106.031 380.766 c 122.629 
426.367 169.574 453.473 217.363 445.047 c 265.156 436.617 300 395.094 300
 346.562 c S
450 259.961 m 492.027 284.227 545.41 274.812 576.605 237.637 c 607.797 
200.461 607.797 146.258 576.605 109.082 c 545.41 71.906 492.027 62.492 450
 86.758 c S
Q q
448 89 154 -88.848 re W n
0 g
2.5 w
1 J
1 j
[] 0.0 d
4 M 600 0.152 m 569.059 -17.711 530.941 -17.711 500 0.152 c 469.059 18.016 
450 51.031 450 86.758 c S
Q q
248 189 204 -188.848 re W n
0 g
2.5 w
1 J
1 j
[] 0.0 d
4 M 300 0.152 m 257.973 24.418 239.434 75.355 256.031 120.957 c 272.629 166.562
 319.574 193.664 367.363 185.238 c 415.156 176.812 450 135.285 450 86.758
 c S
Q q
0 g
2.5 w
1 J
1 j
[] 0.0 d
4 M 0 1559 m 42.027 1583.266 95.41 1573.852 126.605 1536.676 c 157.797 1499.5
 157.797 1445.293 126.605 1408.117 c 95.41 1370.941 42.027 1361.531 0 1385.793
 c S
150 1299.191 m 119.059 1281.328 80.941 1281.328 50 1299.191 c 19.059 1317.055
 0 1350.07 0 1385.793 c S
-150 1299.191 m -192.027 1323.457 -210.566 1374.395 -193.969 1419.996 c
 -177.371 1465.602 -130.426 1492.703 -82.637 1484.277 c -34.844 1475.848
 0 1434.324 0 1385.793 c S
150 1299.191 m 192.027 1323.457 245.41 1314.043 276.605 1276.867 c 307.797
 1239.691 307.797 1185.488 276.605 1148.312 c 245.41 1111.137 192.027 1101.723
 150 1125.988 c S
300 1039.383 m 269.059 1021.52 230.941 1021.52 200 1039.383 c 169.059 1057.246
 150 1090.262 150 1125.988 c S
0 1039.383 m -42.027 1063.648 -60.566 1114.586 -43.969 1160.188 c -27.371
 1205.793 19.574 1232.895 67.363 1224.469 c 115.156 1216.043 150 1174.516
 150 1125.988 c S
300 1039.383 m 342.027 1063.648 395.41 1054.238 426.605 1017.062 c 457.797
 979.887 457.797 925.68 426.605 888.504 c 395.41 851.328 342.027 841.914
 300 866.18 c S
450 779.578 m 419.059 761.715 380.941 761.715 350 779.578 c 319.059 797.441
 300 830.453 300 866.18 c S
150 779.578 m 107.973 803.844 89.434 854.777 106.031 900.383 c 122.629 
945.984 169.574 973.086 217.363 964.66 c 265.156 956.234 300 914.711 300
 866.18 c S
450 779.578 m 492.027 803.844 545.41 794.43 576.605 757.254 c 607.797 720.078
 607.797 665.871 576.605 628.695 c 545.41 591.52 492.027 582.105 450 606.371
 c S
600 519.77 m 569.059 501.906 530.941 501.906 500 519.77 c 469.059 537.633
 450 570.645 450 606.371 c S
300 519.77 m 257.973 544.035 239.434 594.973 256.031 640.574 c 272.629 
686.176 319.574 713.281 367.363 704.852 c 415.156 696.426 450 654.902 450
 606.371 c S
600 519.77 m 642.027 544.035 695.41 534.621 726.605 497.445 c 757.797 460.27
 757.797 406.062 726.605 368.887 c 695.41 331.711 642.027 322.301 600 346.562
 c S
750 259.961 m 719.059 242.098 680.941 242.098 650 259.961 c 619.059 277.824
 600 310.836 600 346.562 c S
450 259.961 m 407.973 284.227 389.434 335.164 406.031 380.766 c 422.629
 426.367 469.574 453.473 517.363 445.047 c 565.156 436.617 600 395.094 600
 346.562 c S
750 259.961 m 792.027 284.227 845.41 274.812 876.605 237.637 c 907.797 
200.461 907.797 146.258 876.605 109.082 c 845.41 71.906 792.027 62.492 750
 86.758 c S
Q q
748 89 154 -88.848 re W n
0 g
2.5 w
1 J
1 j
[] 0.0 d
4 M 900 0.152 m 869.059 -17.711 830.941 -17.711 800 0.152 c 769.059 18.016 
750 51.031 750 86.758 c S
Q q
548 189 204 -188.848 re W n
0 g
2.5 w
1 J
1 j
[] 0.0 d
4 M 600 0.152 m 557.973 24.418 539.434 75.355 556.031 120.957 c 572.629 166.562
 619.574 193.664 667.363 185.238 c 715.156 176.812 750 135.285 750 86.758
 c S
Q q
0 g
2.5 w
1 J
1 j
[] 0.0 d
4 M 300 1559 m 342.027 1583.266 395.41 1573.852 426.605 1536.676 c 457.797 
1499.5 457.797 1445.293 426.605 1408.117 c 395.41 1370.941 342.027 1361.531
 300 1385.793 c S
450 1299.191 m 419.059 1281.328 380.941 1281.328 350 1299.191 c 319.059
 1317.055 300 1350.07 300 1385.793 c S
150 1299.191 m 107.973 1323.457 89.434 1374.395 106.031 1419.996 c 122.629
 1465.602 169.574 1492.703 217.363 1484.277 c 265.156 1475.848 300 1434.324
 300 1385.793 c S
450 1299.191 m 492.027 1323.457 545.41 1314.043 576.605 1276.867 c 607.797
 1239.691 607.797 1185.488 576.605 1148.312 c 545.41 1111.137 492.027 1101.723
 450 1125.988 c S
600 1039.383 m 569.059 1021.52 530.941 1021.52 500 1039.383 c 469.059 1057.246
 450 1090.262 450 1125.988 c S
300 1039.383 m 257.973 1063.648 239.434 1114.586 256.031 1160.188 c 272.629
 1205.793 319.574 1232.895 367.363 1224.469 c 415.156 1216.043 450 1174.516
 450 1125.988 c S
600 1039.383 m 642.027 1063.648 695.41 1054.238 726.605 1017.062 c 757.797
 979.887 757.797 925.68 726.605 888.504 c 695.41 851.328 642.027 841.914
 600 866.18 c S
750 779.578 m 719.059 761.715 680.941 761.715 650 779.578 c 619.059 797.441
 600 830.453 600 866.18 c S
450 779.578 m 407.973 803.844 389.434 854.777 406.031 900.383 c 422.629
 945.984 469.574 973.086 517.363 964.66 c 565.156 956.234 600 914.711 600
 866.18 c S
750 779.578 m 792.027 803.844 845.41 794.43 876.605 757.254 c 907.797 720.078
 907.797 665.871 876.605 628.695 c 845.41 591.52 792.027 582.105 750 606.371
 c S
900 519.77 m 869.059 501.906 830.941 501.906 800 519.77 c 769.059 537.633
 750 570.645 750 606.371 c S
600 519.77 m 557.973 544.035 539.434 594.973 556.031 640.574 c 572.629 
686.176 619.574 713.281 667.363 704.852 c 715.156 696.426 750 654.902 750
 606.371 c S
900 519.77 m 942.027 544.035 995.41 534.621 1026.605 497.445 c 1057.797
 460.27 1057.797 406.062 1026.605 368.887 c 995.41 331.711 942.027 322.301
 900 346.562 c S
1050 259.961 m 1019.059 242.098 980.941 242.098 950 259.961 c 919.059 277.824
 900 310.836 900 346.562 c S
750 259.961 m 707.973 284.227 689.434 335.164 706.031 380.766 c 722.629
 426.367 769.574 453.473 817.363 445.047 c 865.156 436.617 900 395.094 900
 346.562 c S
1050 259.961 m 1092.027 284.227 1145.41 274.812 1176.605 237.637 c 1207.797
 200.461 1207.797 146.258 1176.605 109.082 c 1145.41 71.906 1092.027 62.492
 1050 86.758 c S
Q q
1048 89 154 -88.848 re W n
0 g
2.5 w
1 J
1 j
[] 0.0 d
4 M 1200 0.152 m 1169.059 -17.711 1130.941 -17.711 1100 0.152 c 1069.059 18.016
 1050 51.031 1050 86.758 c S
Q q
848 189 204 -188.848 re W n
0 g
2.5 w
1 J
1 j
[] 0.0 d
4 M 900 0.152 m 857.973 24.418 839.434 75.355 856.031 120.957 c 872.629 166.562
 919.574 193.664 967.363 185.238 c 1015.156 176.812 1050 135.285 1050 86.758
 c S
Q q
0 g
2.5 w
1 J
1 j
[] 0.0 d
4 M 600 1559 m 642.027 1583.266 695.41 1573.852 726.605 1536.676 c 757.797 
1499.5 757.797 1445.293 726.605 1408.117 c 695.41 1370.941 642.027 1361.531
 600 1385.793 c S
750 1299.191 m 719.059 1281.328 680.941 1281.328 650 1299.191 c 619.059
 1317.055 600 1350.07 600 1385.793 c S
450 1299.191 m 407.973 1323.457 389.434 1374.395 406.031 1419.996 c 422.629
 1465.602 469.574 1492.703 517.363 1484.277 c 565.156 1475.848 600 1434.324
 600 1385.793 c S
750 1299.191 m 792.027 1323.457 845.41 1314.043 876.605 1276.867 c 907.797
 1239.691 907.797 1185.488 876.605 1148.312 c 845.41 1111.137 792.027 1101.723
 750 1125.988 c S
900 1039.383 m 869.059 1021.52 830.941 1021.52 800 1039.383 c 769.059 1057.246
 750 1090.262 750 1125.988 c S
600 1039.383 m 557.973 1063.648 539.434 1114.586 556.031 1160.188 c 572.629
 1205.793 619.574 1232.895 667.363 1224.469 c 715.156 1216.043 750 1174.516
 750 1125.988 c S
900 1039.383 m 942.027 1063.648 995.41 1054.238 1026.605 1017.062 c 1057.797
 979.887 1057.797 925.68 1026.605 888.504 c 995.41 851.328 942.027 841.914
 900 866.18 c S
1050 779.578 m 1019.059 761.715 980.941 761.715 950 779.578 c 919.059 797.441
 900 830.453 900 866.18 c S
750 779.578 m 707.973 803.844 689.434 854.777 706.031 900.383 c 722.629
 945.984 769.574 973.086 817.363 964.66 c 865.156 956.234 900 914.711 900
 866.18 c S
1050 779.578 m 1092.027 803.844 1145.41 794.43 1176.605 757.254 c 1207.797
 720.078 1207.797 665.871 1176.605 628.695 c 1145.41 591.52 1092.027 582.105
 1050 606.371 c S
1200 519.77 m 1169.059 501.906 1130.941 501.906 1100 519.77 c 1069.059 
537.633 1050 570.645 1050 606.371 c S
900 519.77 m 857.973 544.035 839.434 594.973 856.031 640.574 c 872.629 
686.176 919.574 713.281 967.363 704.852 c 1015.156 696.426 1050 654.902 
1050 606.371 c S
1200 519.77 m 1242.027 544.035 1295.41 534.621 1326.605 497.445 c 1357.797
 460.27 1357.797 406.062 1326.605 368.887 c 1295.41 331.711 1242.027 322.301
 1200 346.562 c S
1350 259.961 m 1319.059 242.098 1280.941 242.098 1250 259.961 c 1219.059
 277.824 1200 310.836 1200 346.562 c S
1050 259.961 m 1007.973 284.227 989.434 335.164 1006.031 380.766 c 1022.629
 426.367 1069.574 453.473 1117.363 445.047 c 1165.156 436.617 1200 395.094
 1200 346.562 c S
1350 259.961 m 1392.027 284.227 1445.41 274.812 1476.605 237.637 c 1507.797
 200.461 1507.797 146.258 1476.605 109.082 c 1445.41 71.906 1392.027 62.492
 1350 86.758 c S
Q q
1348 89 154 -88.848 re W n
0 g
2.5 w
1 J
1 j
[] 0.0 d
4 M 1500 0.152 m 1469.059 -17.711 1430.941 -17.711 1400 0.152 c 1369.059 18.016
 1350 51.031 1350 86.758 c S
Q q
1148 189 204 -188.848 re W n
0 g
2.5 w
1 J
1 j
[] 0.0 d
4 M 1200 0.152 m 1157.973 24.418 1139.434 75.355 1156.031 120.957 c 1172.629
 166.562 1219.574 193.664 1267.363 185.238 c 1315.156 176.812 1350 135.285
 1350 86.758 c S
Q q
0 g
2.5 w
1 J
1 j
[] 0.0 d
4 M 900 1559 m 942.027 1583.266 995.41 1573.852 1026.605 1536.676 c 1057.797
 1499.5 1057.797 1445.293 1026.605 1408.117 c 995.41 1370.941 942.027 1361.531
 900 1385.793 c S
1050 1299.191 m 1019.059 1281.328 980.941 1281.328 950 1299.191 c 919.059
 1317.055 900 1350.07 900 1385.793 c S
750 1299.191 m 707.973 1323.457 689.434 1374.395 706.031 1419.996 c 722.629
 1465.602 769.574 1492.703 817.363 1484.277 c 865.156 1475.848 900 1434.324
 900 1385.793 c S
1050 1299.191 m 1092.027 1323.457 1145.41 1314.043 1176.605 1276.867 c 
1207.797 1239.691 1207.797 1185.488 1176.605 1148.312 c 1145.41 1111.137
 1092.027 1101.723 1050 1125.988 c S
1200 1039.383 m 1169.059 1021.52 1130.941 1021.52 1100 1039.383 c 1069.059
 1057.246 1050 1090.262 1050 1125.988 c S
900 1039.383 m 857.973 1063.648 839.434 1114.586 856.031 1160.188 c 872.629
 1205.793 919.574 1232.895 967.363 1224.469 c 1015.156 1216.043 1050 1174.516
 1050 1125.988 c S
1200 1039.383 m 1242.027 1063.648 1295.41 1054.238 1326.605 1017.062 c 
1357.797 979.887 1357.797 925.68 1326.605 888.504 c 1295.41 851.328 1242.027
 841.914 1200 866.18 c S
1350 779.578 m 1319.059 761.715 1280.941 761.715 1250 779.578 c 1219.059
 797.441 1200 830.453 1200 866.18 c S
1050 779.578 m 1007.973 803.844 989.434 854.777 1006.031 900.383 c 1022.629
 945.984 1069.574 973.086 1117.363 964.66 c 1165.156 956.234 1200 914.711
 1200 866.18 c S
1350 779.578 m 1392.027 803.844 1445.41 794.43 1476.605 757.254 c 1507.797
 720.078 1507.797 665.871 1476.605 628.695 c 1445.41 591.52 1392.027 582.105
 1350 606.371 c S
1500 519.77 m 1469.059 501.906 1430.941 501.906 1400 519.77 c 1369.059 
537.633 1350 570.645 1350 606.371 c S
1200 519.77 m 1157.973 544.035 1139.434 594.973 1156.031 640.574 c 1172.629
 686.176 1219.574 713.281 1267.363 704.852 c 1315.156 696.426 1350 654.902
 1350 606.371 c S
1500 519.77 m 1542.027 544.035 1595.41 534.621 1626.605 497.445 c 1657.797
 460.27 1657.797 406.062 1626.605 368.887 c 1595.41 331.711 1542.027 322.301
 1500 346.562 c S
1650 259.961 m 1619.059 242.098 1580.941 242.098 1550 259.961 c 1519.059
 277.824 1500 310.836 1500 346.562 c S
1350 259.961 m 1307.973 284.227 1289.434 335.164 1306.031 380.766 c 1322.629
 426.367 1369.574 453.473 1417.363 445.047 c 1465.156 436.617 1500 395.094
 1500 346.562 c S
1650 259.961 m 1692.027 284.227 1745.41 274.812 1776.605 237.637 c 1807.797
 200.461 1807.797 146.258 1776.605 109.082 c 1745.41 71.906 1692.027 62.492
 1650 86.758 c S
Q q
1648 89 152 -88.848 re W n
0 g
2.5 w
1 J
1 j
[] 0.0 d
4 M 1800 0.152 m 1769.059 -17.711 1730.941 -17.711 1700 0.152 c 1669.059 18.016
 1650 51.031 1650 86.758 c S
Q q
1448 189 204 -188.848 re W n
0 g
2.5 w
1 J
1 j
[] 0.0 d
4 M 1500 0.152 m 1457.973 24.418 1439.434 75.355 1456.031 120.957 c 1472.629
 166.562 1519.574 193.664 1567.363 185.238 c 1615.156 176.812 1650 135.285
 1650 86.758 c S
Q q
0 g
2.5 w
1 J
1 j
[] 0.0 d
4 M 1200 1559 m 1242.027 1583.266 1295.41 1573.852 1326.605 1536.676 c 1357.797
 1499.5 1357.797 1445.293 1326.605 1408.117 c 1295.41 1370.941 1242.027 
1361.531 1200 1385.793 c S
1350 1299.191 m 1319.059 1281.328 1280.941 1281.328 1250 1299.191 c 1219.059
 1317.055 1200 1350.07 1200 1385.793 c S
1050 1299.191 m 1007.973 1323.457 989.434 1374.395 1006.031 1419.996 c 
1022.629 1465.602 1069.574 1492.703 1117.363 1484.277 c 1165.156 1475.848
 1200 1434.324 1200 1385.793 c S
1350 1299.191 m 1392.027 1323.457 1445.41 1314.043 1476.605 1276.867 c 
1507.797 1239.691 1507.797 1185.488 1476.605 1148.312 c 1445.41 1111.137
 1392.027 1101.723 1350 1125.988 c S
1500 1039.383 m 1469.059 1021.52 1430.941 1021.52 1400 1039.383 c 1369.059
 1057.246 1350 1090.262 1350 1125.988 c S
1200 1039.383 m 1157.973 1063.648 1139.434 1114.586 1156.031 1160.188 c
 1172.629 1205.793 1219.574 1232.895 1267.363 1224.469 c 1315.156 1216.043
 1350 1174.516 1350 1125.988 c S
1500 1039.383 m 1542.027 1063.648 1595.41 1054.238 1626.605 1017.062 c 
1657.797 979.887 1657.797 925.68 1626.605 888.504 c 1595.41 851.328 1542.027
 841.914 1500 866.18 c S
1650 779.578 m 1619.059 761.715 1580.941 761.715 1550 779.578 c 1519.059
 797.441 1500 830.453 1500 866.18 c S
1350 779.578 m 1307.973 803.844 1289.434 854.777 1306.031 900.383 c 1322.629
 945.984 1369.574 973.086 1417.363 964.66 c 1465.156 956.234 1500 914.711
 1500 866.18 c S
1650 779.578 m 1692.027 803.844 1745.41 794.43 1776.605 757.254 c 1807.797
 720.078 1807.797 665.871 1776.605 628.695 c 1745.41 591.52 1692.027 582.105
 1650 606.371 c S
1800 519.77 m 1769.059 501.906 1730.941 501.906 1700 519.77 c 1669.059 
537.633 1650 570.645 1650 606.371 c S
1500 519.77 m 1457.973 544.035 1439.434 594.973 1456.031 640.574 c 1472.629
 686.176 1519.574 713.281 1567.363 704.852 c 1615.156 696.426 1650 654.902
 1650 606.371 c S
1800 519.77 m 1842.027 544.035 1895.41 534.621 1926.605 497.445 c 1957.797
 460.27 1957.797 406.062 1926.605 368.887 c 1895.41 331.711 1842.027 322.301
 1800 346.562 c S
1950 259.961 m 1919.059 242.098 1880.941 242.098 1850 259.961 c 1819.059
 277.824 1800 310.836 1800 346.562 c S
1650 259.961 m 1607.973 284.227 1589.434 335.164 1606.031 380.766 c 1622.629
 426.367 1669.574 453.473 1717.363 445.047 c 1765.156 436.617 1800 395.094
 1800 346.562 c S
Q q
1748 189 52 -188.848 re W n
0 g
2.5 w
1 J
1 j
[] 0.0 d
4 M 1800 0.152 m 1757.973 24.418 1739.434 75.355 1756.031 120.957 c 1772.629
 166.562 1819.574 193.664 1867.363 185.238 c 1915.156 176.812 1950 135.285
 1950 86.758 c S
Q q
0 g
2.5 w
1 J
1 j
[] 0.0 d
4 M 1500 1559 m 1542.027 1583.266 1595.41 1573.852 1626.605 1536.676 c 1657.797
 1499.5 1657.797 1445.293 1626.605 1408.117 c 1595.41 1370.941 1542.027 
1361.531 1500 1385.793 c S
1650 1299.191 m 1619.059 1281.328 1580.941 1281.328 1550 1299.191 c 1519.059
 1317.055 1500 1350.07 1500 1385.793 c S
1350 1299.191 m 1307.973 1323.457 1289.434 1374.395 1306.031 1419.996 c
 1322.629 1465.602 1369.574 1492.703 1417.363 1484.277 c 1465.156 1475.848
 1500 1434.324 1500 1385.793 c S
1650 1299.191 m 1692.027 1323.457 1745.41 1314.043 1776.605 1276.867 c 
1807.797 1239.691 1807.797 1185.488 1776.605 1148.312 c 1745.41 1111.137
 1692.027 1101.723 1650 1125.988 c S
1800 1039.383 m 1769.059 1021.52 1730.941 1021.52 1700 1039.383 c 1669.059
 1057.246 1650 1090.262 1650 1125.988 c S
1500 1039.383 m 1457.973 1063.648 1439.434 1114.586 1456.031 1160.188 c
 1472.629 1205.793 1519.574 1232.895 1567.363 1224.469 c 1615.156 1216.043
 1650 1174.516 1650 1125.988 c S
1800 1039.383 m 1842.027 1063.648 1895.41 1054.238 1926.605 1017.062 c 
1957.797 979.887 1957.797 925.68 1926.605 888.504 c 1895.41 851.328 1842.027
 841.914 1800 866.18 c S
1950 779.578 m 1919.059 761.715 1880.941 761.715 1850 779.578 c 1819.059
 797.441 1800 830.453 1800 866.18 c S
1650 779.578 m 1607.973 803.844 1589.434 854.777 1606.031 900.383 c 1622.629
 945.984 1669.574 973.086 1717.363 964.66 c 1765.156 956.234 1800 914.711
 1800 866.18 c S
1800 519.77 m 1757.973 544.035 1739.434 594.973 1756.031 640.574 c 1772.629
 686.176 1819.574 713.281 1867.363 704.852 c 1915.156 696.426 1950 654.902
 1950 606.371 c S
1800 1559 m 1842.027 1583.266 1895.41 1573.852 1926.605 1536.676 c 1957.797
 1499.5 1957.797 1445.293 1926.605 1408.117 c 1895.41 1370.941 1842.027 
1361.531 1800 1385.793 c S
1950 1299.191 m 1919.059 1281.328 1880.941 1281.328 1850 1299.191 c 1819.059
 1317.055 1800 1350.07 1800 1385.793 c S
1650 1299.191 m 1607.973 1323.457 1589.434 1374.395 1606.031 1419.996 c
 1622.629 1465.602 1669.574 1492.703 1717.363 1484.277 c 1765.156 1475.848
 1800 1434.324 1800 1385.793 c S
1800 1039.383 m 1757.973 1063.648 1739.434 1114.586 1756.031 1160.188 c
 1772.629 1205.793 1819.574 1232.895 1867.363 1224.469 c 1915.156 1216.043
 1950 1174.516 1950 1125.988 c S
Q Q
showpage
%%Trailer
%%Trailer
cleartomark
countdictstack
exch sub { end } repeat
restore
%%EOF
