%!PS-Adobe-2.0 EPSF-2.0
%%BoundingBox: 0 0 1800 1559
%%HiResBoundingBox: 0.000000 0.000000 1800.000000 1559.000000
%%Creator: cairo 1.14.2 (http://cairographics.org)
%%CreationDate: Mon Sep  7 08:21:59 2015
%%DocumentData: Clean7Bit
%%LanguageLevel: 2
%%DocumentMedia: 635x550mm 1800 1559 0 () ()
%%EndComments
% EPSF created by ps2eps 1.68
%%BeginProlog
save
countdictstack
mark
newpath
/showpage {} def
/setpagedevice {pop} def
%%EndProlog
%%Page 1 1
%%BeginProlog
/languagelevel where
{ pop languagelevel } { 1 } ifelse
2 lt { /Helvetica findfont 12 scalefont setfont 50 500 moveto
  (This print job requires a PostScript Language Level 2 printer.) show
  showpage quit } if
/q { gsave } bind def
/Q { grestore } bind def
/cm { 6 array astore concat } bind def
/w { setlinewidth } bind def
/J { setlinecap } bind def
/j { setlinejoin } bind def
/M { setmiterlimit } bind def
/d { setdash } bind def
/m { moveto } bind def
/l { lineto } bind def
/c { curveto } bind def
/h { closepath } bind def
/re { exch dup neg 3 1 roll 5 3 roll moveto 0 rlineto
      0 exch rlineto 0 rlineto closepath } bind def
/S { stroke } bind def
/f { fill } bind def
/f* { eofill } bind def
/n { newpath } bind def
/W { clip } bind def
/W* { eoclip } bind def
/BT { } bind def
/ET { } bind def
/pdfmark where { pop globaldict /?pdfmark /exec load put }
    { globaldict begin /?pdfmark /pop load def /pdfmark
    /cleartomark load def end } ifelse
/BDC { mark 3 1 roll /BDC pdfmark } bind def
/EMC { mark /EMC pdfmark } bind def
/cairo_store_point { /cairo_point_y exch def /cairo_point_x exch def } def
/Tj { show currentpoint cairo_store_point } bind def
/TJ {
  {
    dup
    type /stringtype eq
    { show } { -0.001 mul 0 cairo_font_matrix dtransform rmoveto } ifelse
  } forall
  currentpoint cairo_store_point
} bind def
/cairo_selectfont { cairo_font_matrix aload pop pop pop 0 0 6 array astore
    cairo_font exch selectfont cairo_point_x cairo_point_y moveto } bind def
/Tf { pop /cairo_font exch def /cairo_font_matrix where
      { pop cairo_selectfont } if } bind def
/Td { matrix translate cairo_font_matrix matrix concatmatrix dup
      /cairo_font_matrix exch def dup 4 get exch 5 get cairo_store_point
      /cairo_font where { pop cairo_selectfont } if } bind def
/Tm { 2 copy 8 2 roll 6 array astore /cairo_font_matrix exch def
      cairo_store_point /cairo_font where { pop cairo_selectfont } if } bind def
/g { setgray } bind def
/rg { setrgbcolor } bind def
/d1 { setcachedevice } bind def
/cairo_set_page_size {
  % Change paper size, but only if different from previous paper size otherwise
  % duplex fails. PLRM specifies a tolerance of 5 pts when matching paper size
  % so we use the same when checking if the size changes.
  /setpagedevice where {
    pop currentpagedevice
    /PageSize known {
      2 copy
      currentpagedevice /PageSize get aload pop
      exch 4 1 roll
      sub abs 5 gt
      3 1 roll
      sub abs 5 gt
      or
    } {
      true
    } ifelse
    {
      2 array astore
      2 dict begin
        /PageSize exch def
        /ImagingBBox null def
      currentdict end
      setpagedevice
    } {
      pop pop
    } ifelse
  } {
    pop
  } ifelse
} def
%%EndProlog
%%BeginSetup
%%EndSetup
%%Page: 1 1
%%BeginPageSetup
%%PageMedia: 635x550mm
%%PageBoundingBox: 0 0 1800 1559
1800 1559 cairo_set_page_size
%%EndPageSetup
q 0 0 1800 1559 rectclip q
Q q
0.984314 g
0 1559 1800 -1558.848 re f*
0.788235 g
1.875 w
0 J
1 j
[] 0.0 d
4 M 0 1559 1800 -1558.848 re S
0 g
2.5 w
-50 433.168 m -150 375.434 l 0 462.035 l 0 404.301 l h
-50 433.168 m S
0.85098 g
100 346.562 m 100 462.035 l 100 288.828 l 50 317.695 l h
100 346.562 m f*
0 g
100 346.562 m 100 462.035 l 100 288.828 l 50 317.695 l h
100 346.562 m S
0.85098 g
-50 259.961 m 50 202.227 l -100 288.828 l -50 317.695 l h
-50 259.961 m f*
0 g
-50 259.961 m 50 202.227 l -100 288.828 l -50 317.695 l h
-50 259.961 m S
0.85098 g
100 173.359 m 0 115.625 l 150 202.227 l 150 144.492 l h
100 173.359 m f*
0 g
100 173.359 m 0 115.625 l 150 202.227 l 150 144.492 l h
100 173.359 m S
0.85098 g
250 86.758 m 250 202.227 l 250 29.023 l 200 57.891 l h
250 86.758 m f*
0 g
250 86.758 m 250 202.227 l 250 29.023 l 200 57.891 l h
250 86.758 m S
Q q
50 58 150 -57.848 re W n
0.85098 g
100 0.152 m 200 -57.582 l 50 29.023 l 100 57.891 l h
100 0.152 m f*
Q q
48 60 154 -59.848 re W n
0 g
2.5 w
0 J
1 j
[] 0.0 d
4 M 100 0.152 m 200 -57.582 l 50 29.023 l 100 57.891 l h
100 0.152 m S
Q q
0 g
2.5 w
0 J
1 j
[] 0.0 d
4 M -50 952.781 m -150 895.047 l 0 981.648 l 0 923.914 l h
-50 952.781 m S
0.85098 g
100 866.18 m 100 981.648 l 100 808.445 l 50 837.312 l h
100 866.18 m f*
0 g
100 866.18 m 100 981.648 l 100 808.445 l 50 837.312 l h
100 866.18 m S
0.85098 g
-50 779.578 m 50 721.844 l -100 808.445 l -50 837.312 l h
-50 779.578 m f*
0 g
-50 779.578 m 50 721.844 l -100 808.445 l -50 837.312 l h
-50 779.578 m S
0.85098 g
100 692.973 m 0 635.238 l 150 721.844 l 150 664.105 l h
100 692.973 m f*
0 g
100 692.973 m 0 635.238 l 150 721.844 l 150 664.105 l h
100 692.973 m S
0.85098 g
250 606.371 m 250 721.844 l 250 548.637 l 200 577.504 l h
250 606.371 m f*
0 g
250 606.371 m 250 721.844 l 250 548.637 l 200 577.504 l h
250 606.371 m S
0.85098 g
100 519.77 m 200 462.035 l 50 548.637 l 100 577.504 l h
100 519.77 m f*
0 g
100 519.77 m 200 462.035 l 50 548.637 l 100 577.504 l h
100 519.77 m S
0.85098 g
250 433.168 m 150 375.434 l 300 462.035 l 300 404.301 l h
250 433.168 m f*
0 g
250 433.168 m 150 375.434 l 300 462.035 l 300 404.301 l h
250 433.168 m S
0.85098 g
400 346.562 m 400 462.035 l 400 288.828 l 350 317.695 l h
400 346.562 m f*
0 g
400 346.562 m 400 462.035 l 400 288.828 l 350 317.695 l h
400 346.562 m S
0.85098 g
250 259.961 m 350 202.227 l 200 288.828 l 250 317.695 l h
250 259.961 m f*
0 g
250 259.961 m 350 202.227 l 200 288.828 l 250 317.695 l h
250 259.961 m S
0.85098 g
400 173.359 m 300 115.625 l 450 202.227 l 450 144.492 l h
400 173.359 m f*
0 g
400 173.359 m 300 115.625 l 450 202.227 l 450 144.492 l h
400 173.359 m S
0.85098 g
550 86.758 m 550 202.227 l 550 29.023 l 500 57.891 l h
550 86.758 m f*
0 g
550 86.758 m 550 202.227 l 550 29.023 l 500 57.891 l h
550 86.758 m S
Q q
350 58 150 -57.848 re W n
0.85098 g
400 0.152 m 500 -57.582 l 350 29.023 l 400 57.891 l h
400 0.152 m f*
Q q
348 60 154 -59.848 re W n
0 g
2.5 w
0 J
1 j
[] 0.0 d
4 M 400 0.152 m 500 -57.582 l 350 29.023 l 400 57.891 l h
400 0.152 m S
Q q
0 g
2.5 w
0 J
1 j
[] 0.0 d
4 M -50 1472.398 m -150 1414.664 l 0 1501.266 l 0 1443.531 l h
-50 1472.398 m S
0.85098 g
100 1385.793 m 100 1501.266 l 100 1328.059 l 50 1356.926 l h
100 1385.793 m f*
0 g
100 1385.793 m 100 1501.266 l 100 1328.059 l 50 1356.926 l h
100 1385.793 m S
0.85098 g
-50 1299.191 m 50 1241.457 l -100 1328.059 l -50 1356.926 l h
-50 1299.191 m f*
0 g
-50 1299.191 m 50 1241.457 l -100 1328.059 l -50 1356.926 l h
-50 1299.191 m S
0.85098 g
100 1212.59 m 0 1154.855 l 150 1241.457 l 150 1183.723 l h
100 1212.59 m f*
0 g
100 1212.59 m 0 1154.855 l 150 1241.457 l 150 1183.723 l h
100 1212.59 m S
0.85098 g
250 1125.988 m 250 1241.457 l 250 1068.254 l 200 1097.121 l h
250 1125.988 m f*
0 g
250 1125.988 m 250 1241.457 l 250 1068.254 l 200 1097.121 l h
250 1125.988 m S
0.85098 g
100 1039.383 m 200 981.648 l 50 1068.254 l 100 1097.121 l h
100 1039.383 m f*
0 g
100 1039.383 m 200 981.648 l 50 1068.254 l 100 1097.121 l h
100 1039.383 m S
0.85098 g
250 952.781 m 150 895.047 l 300 981.648 l 300 923.914 l h
250 952.781 m f*
0 g
250 952.781 m 150 895.047 l 300 981.648 l 300 923.914 l h
250 952.781 m S
0.85098 g
400 866.18 m 400 981.648 l 400 808.445 l 350 837.312 l h
400 866.18 m f*
0 g
400 866.18 m 400 981.648 l 400 808.445 l 350 837.312 l h
400 866.18 m S
0.85098 g
250 779.578 m 350 721.844 l 200 808.445 l 250 837.312 l h
250 779.578 m f*
0 g
250 779.578 m 350 721.844 l 200 808.445 l 250 837.312 l h
250 779.578 m S
0.85098 g
400 692.973 m 300 635.238 l 450 721.844 l 450 664.105 l h
400 692.973 m f*
0 g
400 692.973 m 300 635.238 l 450 721.844 l 450 664.105 l h
400 692.973 m S
0.85098 g
550 606.371 m 550 721.844 l 550 548.637 l 500 577.504 l h
550 606.371 m f*
0 g
550 606.371 m 550 721.844 l 550 548.637 l 500 577.504 l h
550 606.371 m S
0.85098 g
400 519.77 m 500 462.035 l 350 548.637 l 400 577.504 l h
400 519.77 m f*
0 g
400 519.77 m 500 462.035 l 350 548.637 l 400 577.504 l h
400 519.77 m S
0.85098 g
550 433.168 m 450 375.434 l 600 462.035 l 600 404.301 l h
550 433.168 m f*
0 g
550 433.168 m 450 375.434 l 600 462.035 l 600 404.301 l h
550 433.168 m S
0.85098 g
700 346.562 m 700 462.035 l 700 288.828 l 650 317.695 l h
700 346.562 m f*
0 g
700 346.562 m 700 462.035 l 700 288.828 l 650 317.695 l h
700 346.562 m S
0.85098 g
550 259.961 m 650 202.227 l 500 288.828 l 550 317.695 l h
550 259.961 m f*
0 g
550 259.961 m 650 202.227 l 500 288.828 l 550 317.695 l h
550 259.961 m S
0.85098 g
700 173.359 m 600 115.625 l 750 202.227 l 750 144.492 l h
700 173.359 m f*
0 g
700 173.359 m 600 115.625 l 750 202.227 l 750 144.492 l h
700 173.359 m S
0.85098 g
850 86.758 m 850 202.227 l 850 29.023 l 800 57.891 l h
850 86.758 m f*
0 g
850 86.758 m 850 202.227 l 850 29.023 l 800 57.891 l h
850 86.758 m S
Q q
650 58 150 -57.848 re W n
0.85098 g
700 0.152 m 800 -57.582 l 650 29.023 l 700 57.891 l h
700 0.152 m f*
Q q
648 60 154 -59.848 re W n
0 g
2.5 w
0 J
1 j
[] 0.0 d
4 M 700 0.152 m 800 -57.582 l 650 29.023 l 700 57.891 l h
700 0.152 m S
Q q
0.85098 g
250 1472.398 m 150 1414.664 l 300 1501.266 l 300 1443.531 l h
250 1472.398 m f*
0 g
2.5 w
0 J
1 j
[] 0.0 d
4 M 250 1472.398 m 150 1414.664 l 300 1501.266 l 300 1443.531 l h
250 1472.398 m S
0.85098 g
400 1385.793 m 400 1501.266 l 400 1328.059 l 350 1356.926 l h
400 1385.793 m f*
0 g
400 1385.793 m 400 1501.266 l 400 1328.059 l 350 1356.926 l h
400 1385.793 m S
0.85098 g
250 1299.191 m 350 1241.457 l 200 1328.059 l 250 1356.926 l h
250 1299.191 m f*
0 g
250 1299.191 m 350 1241.457 l 200 1328.059 l 250 1356.926 l h
250 1299.191 m S
0.85098 g
400 1212.59 m 300 1154.855 l 450 1241.457 l 450 1183.723 l h
400 1212.59 m f*
0 g
400 1212.59 m 300 1154.855 l 450 1241.457 l 450 1183.723 l h
400 1212.59 m S
0.85098 g
550 1125.988 m 550 1241.457 l 550 1068.254 l 500 1097.121 l h
550 1125.988 m f*
0 g
550 1125.988 m 550 1241.457 l 550 1068.254 l 500 1097.121 l h
550 1125.988 m S
0.85098 g
400 1039.383 m 500 981.648 l 350 1068.254 l 400 1097.121 l h
400 1039.383 m f*
0 g
400 1039.383 m 500 981.648 l 350 1068.254 l 400 1097.121 l h
400 1039.383 m S
0.85098 g
550 952.781 m 450 895.047 l 600 981.648 l 600 923.914 l h
550 952.781 m f*
0 g
550 952.781 m 450 895.047 l 600 981.648 l 600 923.914 l h
550 952.781 m S
0.85098 g
700 866.18 m 700 981.648 l 700 808.445 l 650 837.312 l h
700 866.18 m f*
0 g
700 866.18 m 700 981.648 l 700 808.445 l 650 837.312 l h
700 866.18 m S
0.85098 g
550 779.578 m 650 721.844 l 500 808.445 l 550 837.312 l h
550 779.578 m f*
0 g
550 779.578 m 650 721.844 l 500 808.445 l 550 837.312 l h
550 779.578 m S
0.85098 g
700 692.973 m 600 635.238 l 750 721.844 l 750 664.105 l h
700 692.973 m f*
0 g
700 692.973 m 600 635.238 l 750 721.844 l 750 664.105 l h
700 692.973 m S
0.85098 g
850 606.371 m 850 721.844 l 850 548.637 l 800 577.504 l h
850 606.371 m f*
0 g
850 606.371 m 850 721.844 l 850 548.637 l 800 577.504 l h
850 606.371 m S
0.85098 g
700 519.77 m 800 462.035 l 650 548.637 l 700 577.504 l h
700 519.77 m f*
0 g
700 519.77 m 800 462.035 l 650 548.637 l 700 577.504 l h
700 519.77 m S
0.85098 g
850 433.168 m 750 375.434 l 900 462.035 l 900 404.301 l h
850 433.168 m f*
0 g
850 433.168 m 750 375.434 l 900 462.035 l 900 404.301 l h
850 433.168 m S
0.85098 g
1000 346.562 m 1000 462.035 l 1000 288.828 l 950 317.695 l h
1000 346.562 m f*
0 g
1000 346.562 m 1000 462.035 l 1000 288.828 l 950 317.695 l h
1000 346.562 m S
0.85098 g
850 259.961 m 950 202.227 l 800 288.828 l 850 317.695 l h
850 259.961 m f*
0 g
850 259.961 m 950 202.227 l 800 288.828 l 850 317.695 l h
850 259.961 m S
0.85098 g
1000 173.359 m 900 115.625 l 1050 202.227 l 1050 144.492 l h
1000 173.359 m f*
0 g
1000 173.359 m 900 115.625 l 1050 202.227 l 1050 144.492 l h
1000 173.359 m S
0.85098 g
1150 86.758 m 1150 202.227 l 1150 29.023 l 1100 57.891 l h
1150 86.758 m f*
0 g
1150 86.758 m 1150 202.227 l 1150 29.023 l 1100 57.891 l h
1150 86.758 m S
Q q
950 58 150 -57.848 re W n
0.85098 g
1000 0.152 m 1100 -57.582 l 950 29.023 l 1000 57.891 l h
1000 0.152 m f*
Q q
948 60 154 -59.848 re W n
0 g
2.5 w
0 J
1 j
[] 0.0 d
4 M 1000 0.152 m 1100 -57.582 l 950 29.023 l 1000 57.891 l h
1000 0.152 m S
Q q
0.85098 g
550 1472.398 m 450 1414.664 l 600 1501.266 l 600 1443.531 l h
550 1472.398 m f*
0 g
2.5 w
0 J
1 j
[] 0.0 d
4 M 550 1472.398 m 450 1414.664 l 600 1501.266 l 600 1443.531 l h
550 1472.398 m S
0.85098 g
700 1385.793 m 700 1501.266 l 700 1328.059 l 650 1356.926 l h
700 1385.793 m f*
0 g
700 1385.793 m 700 1501.266 l 700 1328.059 l 650 1356.926 l h
700 1385.793 m S
0.85098 g
550 1299.191 m 650 1241.457 l 500 1328.059 l 550 1356.926 l h
550 1299.191 m f*
0 g
550 1299.191 m 650 1241.457 l 500 1328.059 l 550 1356.926 l h
550 1299.191 m S
0.85098 g
700 1212.59 m 600 1154.855 l 750 1241.457 l 750 1183.723 l h
700 1212.59 m f*
0 g
700 1212.59 m 600 1154.855 l 750 1241.457 l 750 1183.723 l h
700 1212.59 m S
0.85098 g
850 1125.988 m 850 1241.457 l 850 1068.254 l 800 1097.121 l h
850 1125.988 m f*
0 g
850 1125.988 m 850 1241.457 l 850 1068.254 l 800 1097.121 l h
850 1125.988 m S
0.85098 g
700 1039.383 m 800 981.648 l 650 1068.254 l 700 1097.121 l h
700 1039.383 m f*
0 g
700 1039.383 m 800 981.648 l 650 1068.254 l 700 1097.121 l h
700 1039.383 m S
0.85098 g
850 952.781 m 750 895.047 l 900 981.648 l 900 923.914 l h
850 952.781 m f*
0 g
850 952.781 m 750 895.047 l 900 981.648 l 900 923.914 l h
850 952.781 m S
0.85098 g
1000 866.18 m 1000 981.648 l 1000 808.445 l 950 837.312 l h
1000 866.18 m f*
0 g
1000 866.18 m 1000 981.648 l 1000 808.445 l 950 837.312 l h
1000 866.18 m S
0.85098 g
850 779.578 m 950 721.844 l 800 808.445 l 850 837.312 l h
850 779.578 m f*
0 g
850 779.578 m 950 721.844 l 800 808.445 l 850 837.312 l h
850 779.578 m S
0.85098 g
1000 692.973 m 900 635.238 l 1050 721.844 l 1050 664.105 l h
1000 692.973 m f*
0 g
1000 692.973 m 900 635.238 l 1050 721.844 l 1050 664.105 l h
1000 692.973 m S
0.85098 g
1150 606.371 m 1150 721.844 l 1150 548.637 l 1100 577.504 l h
1150 606.371 m f*
0 g
1150 606.371 m 1150 721.844 l 1150 548.637 l 1100 577.504 l h
1150 606.371 m S
0.85098 g
1000 519.77 m 1100 462.035 l 950 548.637 l 1000 577.504 l h
1000 519.77 m f*
0 g
1000 519.77 m 1100 462.035 l 950 548.637 l 1000 577.504 l h
1000 519.77 m S
0.85098 g
1150 433.168 m 1050 375.434 l 1200 462.035 l 1200 404.301 l h
1150 433.168 m f*
0 g
1150 433.168 m 1050 375.434 l 1200 462.035 l 1200 404.301 l h
1150 433.168 m S
0.85098 g
1300 346.562 m 1300 462.035 l 1300 288.828 l 1250 317.695 l h
1300 346.562 m f*
0 g
1300 346.562 m 1300 462.035 l 1300 288.828 l 1250 317.695 l h
1300 346.562 m S
0.85098 g
1150 259.961 m 1250 202.227 l 1100 288.828 l 1150 317.695 l h
1150 259.961 m f*
0 g
1150 259.961 m 1250 202.227 l 1100 288.828 l 1150 317.695 l h
1150 259.961 m S
0.85098 g
1300 173.359 m 1200 115.625 l 1350 202.227 l 1350 144.492 l h
1300 173.359 m f*
0 g
1300 173.359 m 1200 115.625 l 1350 202.227 l 1350 144.492 l h
1300 173.359 m S
0.85098 g
1450 86.758 m 1450 202.227 l 1450 29.023 l 1400 57.891 l h
1450 86.758 m f*
0 g
1450 86.758 m 1450 202.227 l 1450 29.023 l 1400 57.891 l h
1450 86.758 m S
Q q
1250 58 150 -57.848 re W n
0.85098 g
1300 0.152 m 1400 -57.582 l 1250 29.023 l 1300 57.891 l h
1300 0.152 m f*
Q q
1248 60 154 -59.848 re W n
0 g
2.5 w
0 J
1 j
[] 0.0 d
4 M 1300 0.152 m 1400 -57.582 l 1250 29.023 l 1300 57.891 l h
1300 0.152 m S
Q q
0.85098 g
850 1472.398 m 750 1414.664 l 900 1501.266 l 900 1443.531 l h
850 1472.398 m f*
0 g
2.5 w
0 J
1 j
[] 0.0 d
4 M 850 1472.398 m 750 1414.664 l 900 1501.266 l 900 1443.531 l h
850 1472.398 m S
0.85098 g
1000 1385.793 m 1000 1501.266 l 1000 1328.059 l 950 1356.926 l h
1000 1385.793 m f*
0 g
1000 1385.793 m 1000 1501.266 l 1000 1328.059 l 950 1356.926 l h
1000 1385.793 m S
0.85098 g
850 1299.191 m 950 1241.457 l 800 1328.059 l 850 1356.926 l h
850 1299.191 m f*
0 g
850 1299.191 m 950 1241.457 l 800 1328.059 l 850 1356.926 l h
850 1299.191 m S
0.85098 g
1000 1212.59 m 900 1154.855 l 1050 1241.457 l 1050 1183.723 l h
1000 1212.59 m f*
0 g
1000 1212.59 m 900 1154.855 l 1050 1241.457 l 1050 1183.723 l h
1000 1212.59 m S
0.85098 g
1150 1125.988 m 1150 1241.457 l 1150 1068.254 l 1100 1097.121 l h
1150 1125.988 m f*
0 g
1150 1125.988 m 1150 1241.457 l 1150 1068.254 l 1100 1097.121 l h
1150 1125.988 m S
0.85098 g
1000 1039.383 m 1100 981.648 l 950 1068.254 l 1000 1097.121 l h
1000 1039.383 m f*
0 g
1000 1039.383 m 1100 981.648 l 950 1068.254 l 1000 1097.121 l h
1000 1039.383 m S
0.85098 g
1150 952.781 m 1050 895.047 l 1200 981.648 l 1200 923.914 l h
1150 952.781 m f*
0 g
1150 952.781 m 1050 895.047 l 1200 981.648 l 1200 923.914 l h
1150 952.781 m S
0.85098 g
1300 866.18 m 1300 981.648 l 1300 808.445 l 1250 837.312 l h
1300 866.18 m f*
0 g
1300 866.18 m 1300 981.648 l 1300 808.445 l 1250 837.312 l h
1300 866.18 m S
0.85098 g
1150 779.578 m 1250 721.844 l 1100 808.445 l 1150 837.312 l h
1150 779.578 m f*
0 g
1150 779.578 m 1250 721.844 l 1100 808.445 l 1150 837.312 l h
1150 779.578 m S
0.85098 g
1300 692.973 m 1200 635.238 l 1350 721.844 l 1350 664.105 l h
1300 692.973 m f*
0 g
1300 692.973 m 1200 635.238 l 1350 721.844 l 1350 664.105 l h
1300 692.973 m S
0.85098 g
1450 606.371 m 1450 721.844 l 1450 548.637 l 1400 577.504 l h
1450 606.371 m f*
0 g
1450 606.371 m 1450 721.844 l 1450 548.637 l 1400 577.504 l h
1450 606.371 m S
0.85098 g
1300 519.77 m 1400 462.035 l 1250 548.637 l 1300 577.504 l h
1300 519.77 m f*
0 g
1300 519.77 m 1400 462.035 l 1250 548.637 l 1300 577.504 l h
1300 519.77 m S
0.85098 g
1450 433.168 m 1350 375.434 l 1500 462.035 l 1500 404.301 l h
1450 433.168 m f*
0 g
1450 433.168 m 1350 375.434 l 1500 462.035 l 1500 404.301 l h
1450 433.168 m S
0.85098 g
1600 346.562 m 1600 462.035 l 1600 288.828 l 1550 317.695 l h
1600 346.562 m f*
0 g
1600 346.562 m 1600 462.035 l 1600 288.828 l 1550 317.695 l h
1600 346.562 m S
0.85098 g
1450 259.961 m 1550 202.227 l 1400 288.828 l 1450 317.695 l h
1450 259.961 m f*
0 g
1450 259.961 m 1550 202.227 l 1400 288.828 l 1450 317.695 l h
1450 259.961 m S
0.85098 g
1600 173.359 m 1500 115.625 l 1650 202.227 l 1650 144.492 l h
1600 173.359 m f*
0 g
1600 173.359 m 1500 115.625 l 1650 202.227 l 1650 144.492 l h
1600 173.359 m S
0.85098 g
1750 86.758 m 1750 202.227 l 1750 29.023 l 1700 57.891 l h
1750 86.758 m f*
0 g
1750 86.758 m 1750 202.227 l 1750 29.023 l 1700 57.891 l h
1750 86.758 m S
Q q
1550 58 150 -57.848 re W n
0.85098 g
1600 0.152 m 1700 -57.582 l 1550 29.023 l 1600 57.891 l h
1600 0.152 m f*
Q q
1548 60 154 -59.848 re W n
0 g
2.5 w
0 J
1 j
[] 0.0 d
4 M 1600 0.152 m 1700 -57.582 l 1550 29.023 l 1600 57.891 l h
1600 0.152 m S
Q q
0.85098 g
1150 1472.398 m 1050 1414.664 l 1200 1501.266 l 1200 1443.531 l h
1150 1472.398 m f*
0 g
2.5 w
0 J
1 j
[] 0.0 d
4 M 1150 1472.398 m 1050 1414.664 l 1200 1501.266 l 1200 1443.531 l h
1150 1472.398 m S
0.85098 g
1300 1385.793 m 1300 1501.266 l 1300 1328.059 l 1250 1356.926 l h
1300 1385.793 m f*
0 g
1300 1385.793 m 1300 1501.266 l 1300 1328.059 l 1250 1356.926 l h
1300 1385.793 m S
0.85098 g
1150 1299.191 m 1250 1241.457 l 1100 1328.059 l 1150 1356.926 l h
1150 1299.191 m f*
0 g
1150 1299.191 m 1250 1241.457 l 1100 1328.059 l 1150 1356.926 l h
1150 1299.191 m S
0.85098 g
1300 1212.59 m 1200 1154.855 l 1350 1241.457 l 1350 1183.723 l h
1300 1212.59 m f*
0 g
1300 1212.59 m 1200 1154.855 l 1350 1241.457 l 1350 1183.723 l h
1300 1212.59 m S
0.85098 g
1450 1125.988 m 1450 1241.457 l 1450 1068.254 l 1400 1097.121 l h
1450 1125.988 m f*
0 g
1450 1125.988 m 1450 1241.457 l 1450 1068.254 l 1400 1097.121 l h
1450 1125.988 m S
0.85098 g
1300 1039.383 m 1400 981.648 l 1250 1068.254 l 1300 1097.121 l h
1300 1039.383 m f*
0 g
1300 1039.383 m 1400 981.648 l 1250 1068.254 l 1300 1097.121 l h
1300 1039.383 m S
0.85098 g
1450 952.781 m 1350 895.047 l 1500 981.648 l 1500 923.914 l h
1450 952.781 m f*
0 g
1450 952.781 m 1350 895.047 l 1500 981.648 l 1500 923.914 l h
1450 952.781 m S
0.85098 g
1600 866.18 m 1600 981.648 l 1600 808.445 l 1550 837.312 l h
1600 866.18 m f*
0 g
1600 866.18 m 1600 981.648 l 1600 808.445 l 1550 837.312 l h
1600 866.18 m S
0.85098 g
1450 779.578 m 1550 721.844 l 1400 808.445 l 1450 837.312 l h
1450 779.578 m f*
0 g
1450 779.578 m 1550 721.844 l 1400 808.445 l 1450 837.312 l h
1450 779.578 m S
0.85098 g
1600 692.973 m 1500 635.238 l 1650 721.844 l 1650 664.105 l h
1600 692.973 m f*
0 g
1600 692.973 m 1500 635.238 l 1650 721.844 l 1650 664.105 l h
1600 692.973 m S
0.85098 g
1750 606.371 m 1750 721.844 l 1750 548.637 l 1700 577.504 l h
1750 606.371 m f*
0 g
1750 606.371 m 1750 721.844 l 1750 548.637 l 1700 577.504 l h
1750 606.371 m S
0.85098 g
1600 519.77 m 1700 462.035 l 1550 548.637 l 1600 577.504 l h
1600 519.77 m f*
0 g
1600 519.77 m 1700 462.035 l 1550 548.637 l 1600 577.504 l h
1600 519.77 m S
0.85098 g
1750 433.168 m 1650 375.434 l 1800 462.035 l 1800 404.301 l h
1750 433.168 m f*
0 g
1750 433.168 m 1650 375.434 l 1800 462.035 l 1800 404.301 l h
1750 433.168 m S
0.85098 g
1750 259.961 m 1850 202.227 l 1700 288.828 l 1750 317.695 l h
1750 259.961 m f*
0 g
1750 259.961 m 1850 202.227 l 1700 288.828 l 1750 317.695 l h
1750 259.961 m S
1900 173.359 m 1800 115.625 l 1950 202.227 l 1950 144.492 l h
1900 173.359 m S
0.85098 g
1450 1472.398 m 1350 1414.664 l 1500 1501.266 l 1500 1443.531 l h
1450 1472.398 m f*
0 g
1450 1472.398 m 1350 1414.664 l 1500 1501.266 l 1500 1443.531 l h
1450 1472.398 m S
0.85098 g
1600 1385.793 m 1600 1501.266 l 1600 1328.059 l 1550 1356.926 l h
1600 1385.793 m f*
0 g
1600 1385.793 m 1600 1501.266 l 1600 1328.059 l 1550 1356.926 l h
1600 1385.793 m S
0.85098 g
1450 1299.191 m 1550 1241.457 l 1400 1328.059 l 1450 1356.926 l h
1450 1299.191 m f*
0 g
1450 1299.191 m 1550 1241.457 l 1400 1328.059 l 1450 1356.926 l h
1450 1299.191 m S
0.85098 g
1600 1212.59 m 1500 1154.855 l 1650 1241.457 l 1650 1183.723 l h
1600 1212.59 m f*
0 g
1600 1212.59 m 1500 1154.855 l 1650 1241.457 l 1650 1183.723 l h
1600 1212.59 m S
0.85098 g
1750 1125.988 m 1750 1241.457 l 1750 1068.254 l 1700 1097.121 l h
1750 1125.988 m f*
0 g
1750 1125.988 m 1750 1241.457 l 1750 1068.254 l 1700 1097.121 l h
1750 1125.988 m S
0.85098 g
1600 1039.383 m 1700 981.648 l 1550 1068.254 l 1600 1097.121 l h
1600 1039.383 m f*
0 g
1600 1039.383 m 1700 981.648 l 1550 1068.254 l 1600 1097.121 l h
1600 1039.383 m S
0.85098 g
1750 952.781 m 1650 895.047 l 1800 981.648 l 1800 923.914 l h
1750 952.781 m f*
0 g
1750 952.781 m 1650 895.047 l 1800 981.648 l 1800 923.914 l h
1750 952.781 m S
0.85098 g
1750 779.578 m 1850 721.844 l 1700 808.445 l 1750 837.312 l h
1750 779.578 m f*
0 g
1750 779.578 m 1850 721.844 l 1700 808.445 l 1750 837.312 l h
1750 779.578 m S
1900 692.973 m 1800 635.238 l 1950 721.844 l 1950 664.105 l h
1900 692.973 m S
0.85098 g
1750 1472.398 m 1650 1414.664 l 1800 1501.266 l 1800 1443.531 l h
1750 1472.398 m f*
0 g
1750 1472.398 m 1650 1414.664 l 1800 1501.266 l 1800 1443.531 l h
1750 1472.398 m S
0.85098 g
1750 1299.191 m 1850 1241.457 l 1700 1328.059 l 1750 1356.926 l h
1750 1299.191 m f*
0 g
1750 1299.191 m 1850 1241.457 l 1700 1328.059 l 1750 1356.926 l h
1750 1299.191 m S
1900 1212.59 m 1800 1154.855 l 1950 1241.457 l 1950 1183.723 l h
1900 1212.59 m S
Q Q
showpage
%%Trailer
%%Trailer
cleartomark
countdictstack
exch sub { end } repeat
restore
%%EOF
