%!PS-Adobe-2.0 EPSF-2.0
%%BoundingBox: 0 0 1800 1559
%%HiResBoundingBox: 0.000000 0.000000 1800.000000 1559.000000
%%Creator: cairo 1.14.2 (http://cairographics.org)
%%CreationDate: Mon Sep  7 08:22:00 2015
%%DocumentData: Clean7Bit
%%LanguageLevel: 2
%%DocumentMedia: 635x550mm 1800 1559 0 () ()
%%EndComments
% EPSF created by ps2eps 1.68
%%BeginProlog
save
countdictstack
mark
newpath
/showpage {} def
/setpagedevice {pop} def
%%EndProlog
%%Page 1 1
%%BeginProlog
/languagelevel where
{ pop languagelevel } { 1 } ifelse
2 lt { /Helvetica findfont 12 scalefont setfont 50 500 moveto
  (This print job requires a PostScript Language Level 2 printer.) show
  showpage quit } if
/q { gsave } bind def
/Q { grestore } bind def
/cm { 6 array astore concat } bind def
/w { setlinewidth } bind def
/J { setlinecap } bind def
/j { setlinejoin } bind def
/M { setmiterlimit } bind def
/d { setdash } bind def
/m { moveto } bind def
/l { lineto } bind def
/c { curveto } bind def
/h { closepath } bind def
/re { exch dup neg 3 1 roll 5 3 roll moveto 0 rlineto
      0 exch rlineto 0 rlineto closepath } bind def
/S { stroke } bind def
/f { fill } bind def
/f* { eofill } bind def
/n { newpath } bind def
/W { clip } bind def
/W* { eoclip } bind def
/BT { } bind def
/ET { } bind def
/pdfmark where { pop globaldict /?pdfmark /exec load put }
    { globaldict begin /?pdfmark /pop load def /pdfmark
    /cleartomark load def end } ifelse
/BDC { mark 3 1 roll /BDC pdfmark } bind def
/EMC { mark /EMC pdfmark } bind def
/cairo_store_point { /cairo_point_y exch def /cairo_point_x exch def } def
/Tj { show currentpoint cairo_store_point } bind def
/TJ {
  {
    dup
    type /stringtype eq
    { show } { -0.001 mul 0 cairo_font_matrix dtransform rmoveto } ifelse
  } forall
  currentpoint cairo_store_point
} bind def
/cairo_selectfont { cairo_font_matrix aload pop pop pop 0 0 6 array astore
    cairo_font exch selectfont cairo_point_x cairo_point_y moveto } bind def
/Tf { pop /cairo_font exch def /cairo_font_matrix where
      { pop cairo_selectfont } if } bind def
/Td { matrix translate cairo_font_matrix matrix concatmatrix dup
      /cairo_font_matrix exch def dup 4 get exch 5 get cairo_store_point
      /cairo_font where { pop cairo_selectfont } if } bind def
/Tm { 2 copy 8 2 roll 6 array astore /cairo_font_matrix exch def
      cairo_store_point /cairo_font where { pop cairo_selectfont } if } bind def
/g { setgray } bind def
/rg { setrgbcolor } bind def
/d1 { setcachedevice } bind def
/cairo_set_page_size {
  % Change paper size, but only if different from previous paper size otherwise
  % duplex fails. PLRM specifies a tolerance of 5 pts when matching paper size
  % so we use the same when checking if the size changes.
  /setpagedevice where {
    pop currentpagedevice
    /PageSize known {
      2 copy
      currentpagedevice /PageSize get aload pop
      exch 4 1 roll
      sub abs 5 gt
      3 1 roll
      sub abs 5 gt
      or
    } {
      true
    } ifelse
    {
      2 array astore
      2 dict begin
        /PageSize exch def
        /ImagingBBox null def
      currentdict end
      setpagedevice
    } {
      pop pop
    } ifelse
  } {
    pop
  } ifelse
} def
%%EndProlog
%%BeginSetup
%%EndSetup
%%Page: 1 1
%%BeginPageSetup
%%PageMedia: 635x550mm
%%PageBoundingBox: 0 0 1800 1559
1800 1559 cairo_set_page_size
%%EndPageSetup
q 0 0 1800 1559 rectclip q
Q q
0.984314 g
0 1559 1800 -1558.848 re f*
0.788235 g
1.875 w
0 J
1 j
[] 0.0 d
4 M 0 1559 1800 -1558.848 re S
0 g
2.5 w
1 J
50 144.492 m 16.668 125.246 0 96.379 0 57.891 c S
100 115.625 m 100 77.133 83.332 48.266 50 29.023 c S
0 231.094 m 33.332 211.848 66.668 211.848 100 231.094 c S
0 288.828 m 33.332 308.074 66.668 308.074 100 288.828 c S
50 664.105 m 16.668 644.863 0 615.996 0 577.504 c S
100 635.238 m 100 596.75 83.332 567.883 50 548.637 c S
0 750.711 m 33.332 731.465 66.668 731.465 100 750.711 c S
0 808.445 m 33.332 827.691 66.668 827.691 100 808.445 c S
200 404.301 m 166.668 385.055 150 356.188 150 317.695 c S
250 375.434 m 250 336.941 233.332 308.074 200 288.828 c S
100 404.301 m 100 442.789 83.332 471.656 50 490.902 c S
150 490.902 m 183.332 471.656 216.668 471.656 250 490.902 c S
50 375.434 m 16.668 394.676 0 423.543 0 462.035 c S
150 548.637 m 183.332 567.883 216.668 567.883 250 548.637 c S
350 144.492 m 316.668 125.246 300 96.379 300 57.891 c S
400 115.625 m 400 77.133 383.332 48.266 350 29.023 c S
250 144.492 m 250 182.98 233.332 211.848 200 231.094 c S
300 231.094 m 333.332 211.848 366.668 211.848 400 231.094 c S
200 115.625 m 166.668 134.871 150 163.738 150 202.227 c S
300 288.828 m 333.332 308.074 366.668 308.074 400 288.828 c S
50 1183.723 m 16.668 1164.477 0 1135.609 0 1097.121 c S
100 1154.855 m 100 1116.363 83.332 1087.496 50 1068.254 c S
0 1270.324 m 33.332 1251.078 66.668 1251.078 100 1270.324 c S
0 1328.059 m 33.332 1347.305 66.668 1347.305 100 1328.059 c S
200 923.914 m 166.668 904.668 150 875.801 150 837.312 c S
250 895.047 m 250 856.559 233.332 827.691 200 808.445 c S
100 923.914 m 100 962.406 83.332 991.273 50 1010.516 c S
150 1010.516 m 183.332 991.273 216.668 991.273 250 1010.516 c S
50 895.047 m 16.668 914.293 0 943.16 0 981.648 c S
150 1068.254 m 183.332 1087.496 216.668 1087.496 250 1068.254 c S
350 664.105 m 316.668 644.863 300 615.996 300 577.504 c S
400 635.238 m 400 596.75 383.332 567.883 350 548.637 c S
250 664.105 m 250 702.598 233.332 731.465 200 750.711 c S
300 750.711 m 333.332 731.465 366.668 731.465 400 750.711 c S
200 635.238 m 166.668 654.484 150 683.352 150 721.844 c S
300 808.445 m 333.332 827.691 366.668 827.691 400 808.445 c S
500 404.301 m 466.668 385.055 450 356.188 450 317.695 c S
550 375.434 m 550 336.941 533.332 308.074 500 288.828 c S
400 404.301 m 400 442.789 383.332 471.656 350 490.902 c S
450 490.902 m 483.332 471.656 516.668 471.656 550 490.902 c S
350 375.434 m 316.668 394.676 300 423.543 300 462.035 c S
450 548.637 m 483.332 567.883 516.668 567.883 550 548.637 c S
650 144.492 m 616.668 125.246 600 96.379 600 57.891 c S
700 115.625 m 700 77.133 683.332 48.266 650 29.023 c S
550 144.492 m 550 182.98 533.332 211.848 500 231.094 c S
600 231.094 m 633.332 211.848 666.668 211.848 700 231.094 c S
500 115.625 m 466.668 134.871 450 163.738 450 202.227 c S
600 288.828 m 633.332 308.074 666.668 308.074 700 288.828 c S
200 1443.531 m 166.668 1424.285 150 1395.418 150 1356.926 c S
250 1414.664 m 250 1376.172 233.332 1347.305 200 1328.059 c S
100 1443.531 m 100 1482.02 83.332 1510.887 50 1530.133 c S
150 1530.133 m 183.332 1510.887 216.668 1510.887 250 1530.133 c S
50 1414.664 m 16.668 1433.906 0 1462.773 0 1501.266 c S
350 1183.723 m 316.668 1164.477 300 1135.609 300 1097.121 c S
400 1154.855 m 400 1116.363 383.332 1087.496 350 1068.254 c S
250 1183.723 m 250 1222.211 233.332 1251.078 200 1270.324 c S
300 1270.324 m 333.332 1251.078 366.668 1251.078 400 1270.324 c S
200 1154.855 m 166.668 1174.102 150 1202.969 150 1241.457 c S
300 1328.059 m 333.332 1347.305 366.668 1347.305 400 1328.059 c S
500 923.914 m 466.668 904.668 450 875.801 450 837.312 c S
550 895.047 m 550 856.559 533.332 827.691 500 808.445 c S
400 923.914 m 400 962.406 383.332 991.273 350 1010.516 c S
450 1010.516 m 483.332 991.273 516.668 991.273 550 1010.516 c S
350 895.047 m 316.668 914.293 300 943.16 300 981.648 c S
450 1068.254 m 483.332 1087.496 516.668 1087.496 550 1068.254 c S
650 664.105 m 616.668 644.863 600 615.996 600 577.504 c S
700 635.238 m 700 596.75 683.332 567.883 650 548.637 c S
550 664.105 m 550 702.598 533.332 731.465 500 750.711 c S
600 750.711 m 633.332 731.465 666.668 731.465 700 750.711 c S
500 635.238 m 466.668 654.484 450 683.352 450 721.844 c S
600 808.445 m 633.332 827.691 666.668 827.691 700 808.445 c S
800 404.301 m 766.668 385.055 750 356.188 750 317.695 c S
850 375.434 m 850 336.941 833.332 308.074 800 288.828 c S
700 404.301 m 700 442.789 683.332 471.656 650 490.902 c S
750 490.902 m 783.332 471.656 816.668 471.656 850 490.902 c S
650 375.434 m 616.668 394.676 600 423.543 600 462.035 c S
750 548.637 m 783.332 567.883 816.668 567.883 850 548.637 c S
950 144.492 m 916.668 125.246 900 96.379 900 57.891 c S
1000 115.625 m 1000 77.133 983.332 48.266 950 29.023 c S
850 144.492 m 850 182.98 833.332 211.848 800 231.094 c S
900 231.094 m 933.332 211.848 966.668 211.848 1000 231.094 c S
800 115.625 m 766.668 134.871 750 163.738 750 202.227 c S
900 288.828 m 933.332 308.074 966.668 308.074 1000 288.828 c S
500 1443.531 m 466.668 1424.285 450 1395.418 450 1356.926 c S
550 1414.664 m 550 1376.172 533.332 1347.305 500 1328.059 c S
400 1443.531 m 400 1482.02 383.332 1510.887 350 1530.133 c S
450 1530.133 m 483.332 1510.887 516.668 1510.887 550 1530.133 c S
350 1414.664 m 316.668 1433.906 300 1462.773 300 1501.266 c S
650 1183.723 m 616.668 1164.477 600 1135.609 600 1097.121 c S
700 1154.855 m 700 1116.363 683.332 1087.496 650 1068.254 c S
550 1183.723 m 550 1222.211 533.332 1251.078 500 1270.324 c S
600 1270.324 m 633.332 1251.078 666.668 1251.078 700 1270.324 c S
500 1154.855 m 466.668 1174.102 450 1202.969 450 1241.457 c S
600 1328.059 m 633.332 1347.305 666.668 1347.305 700 1328.059 c S
800 923.914 m 766.668 904.668 750 875.801 750 837.312 c S
850 895.047 m 850 856.559 833.332 827.691 800 808.445 c S
700 923.914 m 700 962.406 683.332 991.273 650 1010.516 c S
750 1010.516 m 783.332 991.273 816.668 991.273 850 1010.516 c S
650 895.047 m 616.668 914.293 600 943.16 600 981.648 c S
750 1068.254 m 783.332 1087.496 816.668 1087.496 850 1068.254 c S
950 664.105 m 916.668 644.863 900 615.996 900 577.504 c S
1000 635.238 m 1000 596.75 983.332 567.883 950 548.637 c S
850 664.105 m 850 702.598 833.332 731.465 800 750.711 c S
900 750.711 m 933.332 731.465 966.668 731.465 1000 750.711 c S
800 635.238 m 766.668 654.484 750 683.352 750 721.844 c S
900 808.445 m 933.332 827.691 966.668 827.691 1000 808.445 c S
1100 404.301 m 1066.668 385.055 1050 356.188 1050 317.695 c S
1150 375.434 m 1150 336.941 1133.332 308.074 1100 288.828 c S
1000 404.301 m 1000 442.789 983.332 471.656 950 490.902 c S
1050 490.902 m 1083.332 471.656 1116.668 471.656 1150 490.902 c S
950 375.434 m 916.668 394.676 900 423.543 900 462.035 c S
1050 548.637 m 1083.332 567.883 1116.668 567.883 1150 548.637 c S
1250 144.492 m 1216.668 125.246 1200 96.379 1200 57.891 c S
1300 115.625 m 1300 77.133 1283.332 48.266 1250 29.023 c S
1150 144.492 m 1150 182.98 1133.332 211.848 1100 231.094 c S
1200 231.094 m 1233.332 211.848 1266.668 211.848 1300 231.094 c S
1100 115.625 m 1066.668 134.871 1050 163.738 1050 202.227 c S
1200 288.828 m 1233.332 308.074 1266.668 308.074 1300 288.828 c S
800 1443.531 m 766.668 1424.285 750 1395.418 750 1356.926 c S
850 1414.664 m 850 1376.172 833.332 1347.305 800 1328.059 c S
700 1443.531 m 700 1482.02 683.332 1510.887 650 1530.133 c S
750 1530.133 m 783.332 1510.887 816.668 1510.887 850 1530.133 c S
650 1414.664 m 616.668 1433.906 600 1462.773 600 1501.266 c S
950 1183.723 m 916.668 1164.477 900 1135.609 900 1097.121 c S
1000 1154.855 m 1000 1116.363 983.332 1087.496 950 1068.254 c S
850 1183.723 m 850 1222.211 833.332 1251.078 800 1270.324 c S
900 1270.324 m 933.332 1251.078 966.668 1251.078 1000 1270.324 c S
800 1154.855 m 766.668 1174.102 750 1202.969 750 1241.457 c S
900 1328.059 m 933.332 1347.305 966.668 1347.305 1000 1328.059 c S
1100 923.914 m 1066.668 904.668 1050 875.801 1050 837.312 c S
1150 895.047 m 1150 856.559 1133.332 827.691 1100 808.445 c S
1000 923.914 m 1000 962.406 983.332 991.273 950 1010.516 c S
1050 1010.516 m 1083.332 991.273 1116.668 991.273 1150 1010.516 c S
950 895.047 m 916.668 914.293 900 943.16 900 981.648 c S
1050 1068.254 m 1083.332 1087.496 1116.668 1087.496 1150 1068.254 c S
1250 664.105 m 1216.668 644.863 1200 615.996 1200 577.504 c S
1300 635.238 m 1300 596.75 1283.332 567.883 1250 548.637 c S
1150 664.105 m 1150 702.598 1133.332 731.465 1100 750.711 c S
1200 750.711 m 1233.332 731.465 1266.668 731.465 1300 750.711 c S
1100 635.238 m 1066.668 654.484 1050 683.352 1050 721.844 c S
1200 808.445 m 1233.332 827.691 1266.668 827.691 1300 808.445 c S
1400 404.301 m 1366.668 385.055 1350 356.188 1350 317.695 c S
1450 375.434 m 1450 336.941 1433.332 308.074 1400 288.828 c S
1300 404.301 m 1300 442.789 1283.332 471.656 1250 490.902 c S
1350 490.902 m 1383.332 471.656 1416.668 471.656 1450 490.902 c S
1250 375.434 m 1216.668 394.676 1200 423.543 1200 462.035 c S
1350 548.637 m 1383.332 567.883 1416.668 567.883 1450 548.637 c S
1550 144.492 m 1516.668 125.246 1500 96.379 1500 57.891 c S
1600 115.625 m 1600 77.133 1583.332 48.266 1550 29.023 c S
1450 144.492 m 1450 182.98 1433.332 211.848 1400 231.094 c S
1500 231.094 m 1533.332 211.848 1566.668 211.848 1600 231.094 c S
1400 115.625 m 1366.668 134.871 1350 163.738 1350 202.227 c S
1500 288.828 m 1533.332 308.074 1566.668 308.074 1600 288.828 c S
1100 1443.531 m 1066.668 1424.285 1050 1395.418 1050 1356.926 c S
1150 1414.664 m 1150 1376.172 1133.332 1347.305 1100 1328.059 c S
1000 1443.531 m 1000 1482.02 983.332 1510.887 950 1530.133 c S
1050 1530.133 m 1083.332 1510.887 1116.668 1510.887 1150 1530.133 c S
950 1414.664 m 916.668 1433.906 900 1462.773 900 1501.266 c S
1250 1183.723 m 1216.668 1164.477 1200 1135.609 1200 1097.121 c S
1300 1154.855 m 1300 1116.363 1283.332 1087.496 1250 1068.254 c S
1150 1183.723 m 1150 1222.211 1133.332 1251.078 1100 1270.324 c S
1200 1270.324 m 1233.332 1251.078 1266.668 1251.078 1300 1270.324 c S
1100 1154.855 m 1066.668 1174.102 1050 1202.969 1050 1241.457 c S
1200 1328.059 m 1233.332 1347.305 1266.668 1347.305 1300 1328.059 c S
1400 923.914 m 1366.668 904.668 1350 875.801 1350 837.312 c S
1450 895.047 m 1450 856.559 1433.332 827.691 1400 808.445 c S
1300 923.914 m 1300 962.406 1283.332 991.273 1250 1010.516 c S
1350 1010.516 m 1383.332 991.273 1416.668 991.273 1450 1010.516 c S
1250 895.047 m 1216.668 914.293 1200 943.16 1200 981.648 c S
1350 1068.254 m 1383.332 1087.496 1416.668 1087.496 1450 1068.254 c S
1550 664.105 m 1516.668 644.863 1500 615.996 1500 577.504 c S
1600 635.238 m 1600 596.75 1583.332 567.883 1550 548.637 c S
1450 664.105 m 1450 702.598 1433.332 731.465 1400 750.711 c S
1500 750.711 m 1533.332 731.465 1566.668 731.465 1600 750.711 c S
1400 635.238 m 1366.668 654.484 1350 683.352 1350 721.844 c S
1500 808.445 m 1533.332 827.691 1566.668 827.691 1600 808.445 c S
1700 404.301 m 1666.668 385.055 1650 356.188 1650 317.695 c S
1750 375.434 m 1750 336.941 1733.332 308.074 1700 288.828 c S
1600 404.301 m 1600 442.789 1583.332 471.656 1550 490.902 c S
1650 490.902 m 1683.332 471.656 1716.668 471.656 1750 490.902 c S
1550 375.434 m 1516.668 394.676 1500 423.543 1500 462.035 c S
1650 548.637 m 1683.332 567.883 1716.668 567.883 1750 548.637 c S
1850 144.492 m 1816.668 125.246 1800 96.379 1800 57.891 c S
1750 144.492 m 1750 182.98 1733.332 211.848 1700 231.094 c S
1800 231.094 m 1833.332 211.848 1866.668 211.848 1900 231.094 c S
1700 115.625 m 1666.668 134.871 1650 163.738 1650 202.227 c S
1800 288.828 m 1833.332 308.074 1866.668 308.074 1900 288.828 c S
1400 1443.531 m 1366.668 1424.285 1350 1395.418 1350 1356.926 c S
1450 1414.664 m 1450 1376.172 1433.332 1347.305 1400 1328.059 c S
1300 1443.531 m 1300 1482.02 1283.332 1510.887 1250 1530.133 c S
1350 1530.133 m 1383.332 1510.887 1416.668 1510.887 1450 1530.133 c S
1250 1414.664 m 1216.668 1433.906 1200 1462.773 1200 1501.266 c S
1550 1183.723 m 1516.668 1164.477 1500 1135.609 1500 1097.121 c S
1600 1154.855 m 1600 1116.363 1583.332 1087.496 1550 1068.254 c S
1450 1183.723 m 1450 1222.211 1433.332 1251.078 1400 1270.324 c S
1500 1270.324 m 1533.332 1251.078 1566.668 1251.078 1600 1270.324 c S
1400 1154.855 m 1366.668 1174.102 1350 1202.969 1350 1241.457 c S
1500 1328.059 m 1533.332 1347.305 1566.668 1347.305 1600 1328.059 c S
1700 923.914 m 1666.668 904.668 1650 875.801 1650 837.312 c S
1750 895.047 m 1750 856.559 1733.332 827.691 1700 808.445 c S
1600 923.914 m 1600 962.406 1583.332 991.273 1550 1010.516 c S
1650 1010.516 m 1683.332 991.273 1716.668 991.273 1750 1010.516 c S
1550 895.047 m 1516.668 914.293 1500 943.16 1500 981.648 c S
1650 1068.254 m 1683.332 1087.496 1716.668 1087.496 1750 1068.254 c S
1850 664.105 m 1816.668 644.863 1800 615.996 1800 577.504 c S
1750 664.105 m 1750 702.598 1733.332 731.465 1700 750.711 c S
1800 750.711 m 1833.332 731.465 1866.668 731.465 1900 750.711 c S
1700 635.238 m 1666.668 654.484 1650 683.352 1650 721.844 c S
1800 808.445 m 1833.332 827.691 1866.668 827.691 1900 808.445 c S
1850 375.434 m 1816.668 394.676 1800 423.543 1800 462.035 c S
1700 1443.531 m 1666.668 1424.285 1650 1395.418 1650 1356.926 c S
1750 1414.664 m 1750 1376.172 1733.332 1347.305 1700 1328.059 c S
1600 1443.531 m 1600 1482.02 1583.332 1510.887 1550 1530.133 c S
1650 1530.133 m 1683.332 1510.887 1716.668 1510.887 1750 1530.133 c S
1550 1414.664 m 1516.668 1433.906 1500 1462.773 1500 1501.266 c S
1850 1183.723 m 1816.668 1164.477 1800 1135.609 1800 1097.121 c S
1750 1183.723 m 1750 1222.211 1733.332 1251.078 1700 1270.324 c S
1800 1270.324 m 1833.332 1251.078 1866.668 1251.078 1900 1270.324 c S
1700 1154.855 m 1666.668 1174.102 1650 1202.969 1650 1241.457 c S
1800 1328.059 m 1833.332 1347.305 1866.668 1347.305 1900 1328.059 c S
1850 895.047 m 1816.668 914.293 1800 943.16 1800 981.648 c S
Q Q
showpage
%%Trailer
%%Trailer
cleartomark
countdictstack
exch sub { end } repeat
restore
%%EOF
