%!PS-Adobe-2.0 EPSF-2.0
%%BoundingBox: 0 0 2450 1750
%%HiResBoundingBox: 0.000000 0.000000 2450.000000 1750.000000
%%Creator: cairo 1.14.2 (http://cairographics.org)
%%CreationDate: Mon Sep  7 08:22:00 2015
%%DocumentData: Clean7Bit
%%LanguageLevel: 2
%%DocumentMedia: 864x617mm 2450 1750 0 () ()
%%EndComments
% EPSF created by ps2eps 1.68
%%BeginProlog
save
countdictstack
mark
newpath
/showpage {} def
/setpagedevice {pop} def
%%EndProlog
%%Page 1 1
%%BeginProlog
/languagelevel where
{ pop languagelevel } { 1 } ifelse
2 lt { /Helvetica findfont 12 scalefont setfont 50 500 moveto
  (This print job requires a PostScript Language Level 2 printer.) show
  showpage quit } if
/q { gsave } bind def
/Q { grestore } bind def
/cm { 6 array astore concat } bind def
/w { setlinewidth } bind def
/J { setlinecap } bind def
/j { setlinejoin } bind def
/M { setmiterlimit } bind def
/d { setdash } bind def
/m { moveto } bind def
/l { lineto } bind def
/c { curveto } bind def
/h { closepath } bind def
/re { exch dup neg 3 1 roll 5 3 roll moveto 0 rlineto
      0 exch rlineto 0 rlineto closepath } bind def
/S { stroke } bind def
/f { fill } bind def
/f* { eofill } bind def
/n { newpath } bind def
/W { clip } bind def
/W* { eoclip } bind def
/BT { } bind def
/ET { } bind def
/pdfmark where { pop globaldict /?pdfmark /exec load put }
    { globaldict begin /?pdfmark /pop load def /pdfmark
    /cleartomark load def end } ifelse
/BDC { mark 3 1 roll /BDC pdfmark } bind def
/EMC { mark /EMC pdfmark } bind def
/cairo_store_point { /cairo_point_y exch def /cairo_point_x exch def } def
/Tj { show currentpoint cairo_store_point } bind def
/TJ {
  {
    dup
    type /stringtype eq
    { show } { -0.001 mul 0 cairo_font_matrix dtransform rmoveto } ifelse
  } forall
  currentpoint cairo_store_point
} bind def
/cairo_selectfont { cairo_font_matrix aload pop pop pop 0 0 6 array astore
    cairo_font exch selectfont cairo_point_x cairo_point_y moveto } bind def
/Tf { pop /cairo_font exch def /cairo_font_matrix where
      { pop cairo_selectfont } if } bind def
/Td { matrix translate cairo_font_matrix matrix concatmatrix dup
      /cairo_font_matrix exch def dup 4 get exch 5 get cairo_store_point
      /cairo_font where { pop cairo_selectfont } if } bind def
/Tm { 2 copy 8 2 roll 6 array astore /cairo_font_matrix exch def
      cairo_store_point /cairo_font where { pop cairo_selectfont } if } bind def
/g { setgray } bind def
/rg { setrgbcolor } bind def
/d1 { setcachedevice } bind def
/cairo_set_page_size {
  % Change paper size, but only if different from previous paper size otherwise
  % duplex fails. PLRM specifies a tolerance of 5 pts when matching paper size
  % so we use the same when checking if the size changes.
  /setpagedevice where {
    pop currentpagedevice
    /PageSize known {
      2 copy
      currentpagedevice /PageSize get aload pop
      exch 4 1 roll
      sub abs 5 gt
      3 1 roll
      sub abs 5 gt
      or
    } {
      true
    } ifelse
    {
      2 array astore
      2 dict begin
        /PageSize exch def
        /ImagingBBox null def
      currentdict end
      setpagedevice
    } {
      pop pop
    } ifelse
  } {
    pop
  } ifelse
} def
%%EndProlog
%%BeginSetup
%%EndSetup
%%Page: 1 1
%%BeginPageSetup
%%PageMedia: 864x617mm
%%PageBoundingBox: 0 0 2450 1750
2450 1750 cairo_set_page_size
%%EndPageSetup
q 0 0 2450 1750 rectclip q
0.984314 g
0 0 2450 1750 rectfill
0.788235 g
1.875 w
0 J
1 j
[] 0.0 d
4 M 0 1750 2450 -1750 re S
0 g
2.5 w
1 J
175 1750 m 175 1633.332 145.832 1575 87.5 1575 c S
350 1575 m 233.332 1575 175 1604.168 175 1662.5 c S
175 1400 m 175 1516.668 204.168 1575 262.5 1575 c S
0 1575 m 116.668 1575 175 1545.832 175 1487.5 c S
175 1400 m 175 1283.332 145.832 1225 87.5 1225 c S
350 1225 m 233.332 1225 175 1254.168 175 1312.5 c S
175 1050 m 175 1166.668 204.168 1225 262.5 1225 c S
0 1225 m 116.668 1225 175 1195.832 175 1137.5 c S
175 1050 m 175 933.332 145.832 875 87.5 875 c S
350 875 m 233.332 875 175 904.168 175 962.5 c S
175 700 m 175 816.668 204.168 875 262.5 875 c S
0 875 m 116.668 875 175 845.832 175 787.5 c S
175 700 m 175 583.332 145.832 525 87.5 525 c S
350 525 m 233.332 525 175 554.168 175 612.5 c S
175 350 m 175 466.668 204.168 525 262.5 525 c S
0 525 m 116.668 525 175 495.832 175 437.5 c S
175 350 m 175 233.332 145.832 175 87.5 175 c S
350 175 m 233.332 175 175 204.168 175 262.5 c S
175 0 m 175 116.668 204.168 175 262.5 175 c S
0 175 m 116.668 175 175 145.832 175 87.5 c S
525 1750 m 525 1633.332 495.832 1575 437.5 1575 c S
700 1575 m 583.332 1575 525 1604.168 525 1662.5 c S
525 1400 m 525 1516.668 554.168 1575 612.5 1575 c S
350 1575 m 466.668 1575 525 1545.832 525 1487.5 c S
525 1400 m 525 1283.332 495.832 1225 437.5 1225 c S
700 1225 m 583.332 1225 525 1254.168 525 1312.5 c S
525 1050 m 525 1166.668 554.168 1225 612.5 1225 c S
350 1225 m 466.668 1225 525 1195.832 525 1137.5 c S
525 1050 m 525 933.332 495.832 875 437.5 875 c S
700 875 m 583.332 875 525 904.168 525 962.5 c S
525 700 m 525 816.668 554.168 875 612.5 875 c S
350 875 m 466.668 875 525 845.832 525 787.5 c S
525 700 m 525 583.332 495.832 525 437.5 525 c S
700 525 m 583.332 525 525 554.168 525 612.5 c S
525 350 m 525 466.668 554.168 525 612.5 525 c S
350 525 m 466.668 525 525 495.832 525 437.5 c S
525 350 m 525 233.332 495.832 175 437.5 175 c S
700 175 m 583.332 175 525 204.168 525 262.5 c S
525 0 m 525 116.668 554.168 175 612.5 175 c S
350 175 m 466.668 175 525 145.832 525 87.5 c S
875 1750 m 875 1633.332 845.832 1575 787.5 1575 c S
1050 1575 m 933.332 1575 875 1604.168 875 1662.5 c S
875 1400 m 875 1516.668 904.168 1575 962.5 1575 c S
700 1575 m 816.668 1575 875 1545.832 875 1487.5 c S
875 1400 m 875 1283.332 845.832 1225 787.5 1225 c S
1050 1225 m 933.332 1225 875 1254.168 875 1312.5 c S
875 1050 m 875 1166.668 904.168 1225 962.5 1225 c S
700 1225 m 816.668 1225 875 1195.832 875 1137.5 c S
875 1050 m 875 933.332 845.832 875 787.5 875 c S
1050 875 m 933.332 875 875 904.168 875 962.5 c S
875 700 m 875 816.668 904.168 875 962.5 875 c S
700 875 m 816.668 875 875 845.832 875 787.5 c S
875 700 m 875 583.332 845.832 525 787.5 525 c S
1050 525 m 933.332 525 875 554.168 875 612.5 c S
875 350 m 875 466.668 904.168 525 962.5 525 c S
700 525 m 816.668 525 875 495.832 875 437.5 c S
875 350 m 875 233.332 845.832 175 787.5 175 c S
1050 175 m 933.332 175 875 204.168 875 262.5 c S
875 0 m 875 116.668 904.168 175 962.5 175 c S
700 175 m 816.668 175 875 145.832 875 87.5 c S
1225 1750 m 1225 1633.332 1195.832 1575 1137.5 1575 c S
1400 1575 m 1283.332 1575 1225 1604.168 1225 1662.5 c S
1225 1400 m 1225 1516.668 1254.168 1575 1312.5 1575 c S
1050 1575 m 1166.668 1575 1225 1545.832 1225 1487.5 c S
1225 1400 m 1225 1283.332 1195.832 1225 1137.5 1225 c S
1400 1225 m 1283.332 1225 1225 1254.168 1225 1312.5 c S
1225 1050 m 1225 1166.668 1254.168 1225 1312.5 1225 c S
1050 1225 m 1166.668 1225 1225 1195.832 1225 1137.5 c S
1225 1050 m 1225 933.332 1195.832 875 1137.5 875 c S
1400 875 m 1283.332 875 1225 904.168 1225 962.5 c S
1225 700 m 1225 816.668 1254.168 875 1312.5 875 c S
1050 875 m 1166.668 875 1225 845.832 1225 787.5 c S
1225 700 m 1225 583.332 1195.832 525 1137.5 525 c S
1400 525 m 1283.332 525 1225 554.168 1225 612.5 c S
1225 350 m 1225 466.668 1254.168 525 1312.5 525 c S
1050 525 m 1166.668 525 1225 495.832 1225 437.5 c S
1225 350 m 1225 233.332 1195.832 175 1137.5 175 c S
1400 175 m 1283.332 175 1225 204.168 1225 262.5 c S
1225 0 m 1225 116.668 1254.168 175 1312.5 175 c S
1050 175 m 1166.668 175 1225 145.832 1225 87.5 c S
1575 1750 m 1575 1633.332 1545.832 1575 1487.5 1575 c S
1750 1575 m 1633.332 1575 1575 1604.168 1575 1662.5 c S
1575 1400 m 1575 1516.668 1604.168 1575 1662.5 1575 c S
1400 1575 m 1516.668 1575 1575 1545.832 1575 1487.5 c S
1575 1400 m 1575 1283.332 1545.832 1225 1487.5 1225 c S
1750 1225 m 1633.332 1225 1575 1254.168 1575 1312.5 c S
1575 1050 m 1575 1166.668 1604.168 1225 1662.5 1225 c S
1400 1225 m 1516.668 1225 1575 1195.832 1575 1137.5 c S
1575 1050 m 1575 933.332 1545.832 875 1487.5 875 c S
1750 875 m 1633.332 875 1575 904.168 1575 962.5 c S
1575 700 m 1575 816.668 1604.168 875 1662.5 875 c S
1400 875 m 1516.668 875 1575 845.832 1575 787.5 c S
1575 700 m 1575 583.332 1545.832 525 1487.5 525 c S
1750 525 m 1633.332 525 1575 554.168 1575 612.5 c S
1575 350 m 1575 466.668 1604.168 525 1662.5 525 c S
1400 525 m 1516.668 525 1575 495.832 1575 437.5 c S
1575 350 m 1575 233.332 1545.832 175 1487.5 175 c S
1750 175 m 1633.332 175 1575 204.168 1575 262.5 c S
1575 0 m 1575 116.668 1604.168 175 1662.5 175 c S
1400 175 m 1516.668 175 1575 145.832 1575 87.5 c S
1925 1750 m 1925 1633.332 1895.832 1575 1837.5 1575 c S
2100 1575 m 1983.332 1575 1925 1604.168 1925 1662.5 c S
1925 1400 m 1925 1516.668 1954.168 1575 2012.5 1575 c S
1750 1575 m 1866.668 1575 1925 1545.832 1925 1487.5 c S
1925 1400 m 1925 1283.332 1895.832 1225 1837.5 1225 c S
2100 1225 m 1983.332 1225 1925 1254.168 1925 1312.5 c S
1925 1050 m 1925 1166.668 1954.168 1225 2012.5 1225 c S
1750 1225 m 1866.668 1225 1925 1195.832 1925 1137.5 c S
1925 1050 m 1925 933.332 1895.832 875 1837.5 875 c S
2100 875 m 1983.332 875 1925 904.168 1925 962.5 c S
1925 700 m 1925 816.668 1954.168 875 2012.5 875 c S
1750 875 m 1866.668 875 1925 845.832 1925 787.5 c S
1925 700 m 1925 583.332 1895.832 525 1837.5 525 c S
2100 525 m 1983.332 525 1925 554.168 1925 612.5 c S
1925 350 m 1925 466.668 1954.168 525 2012.5 525 c S
1750 525 m 1866.668 525 1925 495.832 1925 437.5 c S
1925 350 m 1925 233.332 1895.832 175 1837.5 175 c S
2100 175 m 1983.332 175 1925 204.168 1925 262.5 c S
1925 0 m 1925 116.668 1954.168 175 2012.5 175 c S
1750 175 m 1866.668 175 1925 145.832 1925 87.5 c S
2275 1750 m 2275 1633.332 2245.832 1575 2187.5 1575 c S
2450 1575 m 2333.332 1575 2275 1604.168 2275 1662.5 c S
2275 1400 m 2275 1516.668 2304.168 1575 2362.5 1575 c S
2100 1575 m 2216.668 1575 2275 1545.832 2275 1487.5 c S
2275 1400 m 2275 1283.332 2245.832 1225 2187.5 1225 c S
2450 1225 m 2333.332 1225 2275 1254.168 2275 1312.5 c S
2275 1050 m 2275 1166.668 2304.168 1225 2362.5 1225 c S
2100 1225 m 2216.668 1225 2275 1195.832 2275 1137.5 c S
2275 1050 m 2275 933.332 2245.832 875 2187.5 875 c S
2450 875 m 2333.332 875 2275 904.168 2275 962.5 c S
2275 700 m 2275 816.668 2304.168 875 2362.5 875 c S
2100 875 m 2216.668 875 2275 845.832 2275 787.5 c S
2275 700 m 2275 583.332 2245.832 525 2187.5 525 c S
2450 525 m 2333.332 525 2275 554.168 2275 612.5 c S
2275 350 m 2275 466.668 2304.168 525 2362.5 525 c S
2100 525 m 2216.668 525 2275 495.832 2275 437.5 c S
2275 350 m 2275 233.332 2245.832 175 2187.5 175 c S
2450 175 m 2333.332 175 2275 204.168 2275 262.5 c S
2275 0 m 2275 116.668 2304.168 175 2362.5 175 c S
2100 175 m 2216.668 175 2275 145.832 2275 87.5 c S
Q Q
showpage
%%Trailer
%%Trailer
cleartomark
countdictstack
exch sub { end } repeat
restore
%%EOF
