%!PS-Adobe-2.0 EPSF-2.0
%%BoundingBox: 0 0 2450 1750
%%HiResBoundingBox: 0.000000 0.000000 2450.000000 1750.000000
%%Creator: cairo 1.14.2 (http://cairographics.org)
%%CreationDate: Mon Sep  7 08:22:00 2015
%%DocumentData: Clean7Bit
%%LanguageLevel: 2
%%DocumentMedia: 864x617mm 2450 1750 0 () ()
%%EndComments
% EPSF created by ps2eps 1.68
%%BeginProlog
save
countdictstack
mark
newpath
/showpage {} def
/setpagedevice {pop} def
%%EndProlog
%%Page 1 1
%%BeginProlog
/languagelevel where
{ pop languagelevel } { 1 } ifelse
2 lt { /Helvetica findfont 12 scalefont setfont 50 500 moveto
  (This print job requires a PostScript Language Level 2 printer.) show
  showpage quit } if
/q { gsave } bind def
/Q { grestore } bind def
/cm { 6 array astore concat } bind def
/w { setlinewidth } bind def
/J { setlinecap } bind def
/j { setlinejoin } bind def
/M { setmiterlimit } bind def
/d { setdash } bind def
/m { moveto } bind def
/l { lineto } bind def
/c { curveto } bind def
/h { closepath } bind def
/re { exch dup neg 3 1 roll 5 3 roll moveto 0 rlineto
      0 exch rlineto 0 rlineto closepath } bind def
/S { stroke } bind def
/f { fill } bind def
/f* { eofill } bind def
/n { newpath } bind def
/W { clip } bind def
/W* { eoclip } bind def
/BT { } bind def
/ET { } bind def
/pdfmark where { pop globaldict /?pdfmark /exec load put }
    { globaldict begin /?pdfmark /pop load def /pdfmark
    /cleartomark load def end } ifelse
/BDC { mark 3 1 roll /BDC pdfmark } bind def
/EMC { mark /EMC pdfmark } bind def
/cairo_store_point { /cairo_point_y exch def /cairo_point_x exch def } def
/Tj { show currentpoint cairo_store_point } bind def
/TJ {
  {
    dup
    type /stringtype eq
    { show } { -0.001 mul 0 cairo_font_matrix dtransform rmoveto } ifelse
  } forall
  currentpoint cairo_store_point
} bind def
/cairo_selectfont { cairo_font_matrix aload pop pop pop 0 0 6 array astore
    cairo_font exch selectfont cairo_point_x cairo_point_y moveto } bind def
/Tf { pop /cairo_font exch def /cairo_font_matrix where
      { pop cairo_selectfont } if } bind def
/Td { matrix translate cairo_font_matrix matrix concatmatrix dup
      /cairo_font_matrix exch def dup 4 get exch 5 get cairo_store_point
      /cairo_font where { pop cairo_selectfont } if } bind def
/Tm { 2 copy 8 2 roll 6 array astore /cairo_font_matrix exch def
      cairo_store_point /cairo_font where { pop cairo_selectfont } if } bind def
/g { setgray } bind def
/rg { setrgbcolor } bind def
/d1 { setcachedevice } bind def
/cairo_set_page_size {
  % Change paper size, but only if different from previous paper size otherwise
  % duplex fails. PLRM specifies a tolerance of 5 pts when matching paper size
  % so we use the same when checking if the size changes.
  /setpagedevice where {
    pop currentpagedevice
    /PageSize known {
      2 copy
      currentpagedevice /PageSize get aload pop
      exch 4 1 roll
      sub abs 5 gt
      3 1 roll
      sub abs 5 gt
      or
    } {
      true
    } ifelse
    {
      2 array astore
      2 dict begin
        /PageSize exch def
        /ImagingBBox null def
      currentdict end
      setpagedevice
    } {
      pop pop
    } ifelse
  } {
    pop
  } ifelse
} def
%%EndProlog
%%BeginSetup
%%EndSetup
%%Page: 1 1
%%BeginPageSetup
%%PageMedia: 864x617mm
%%PageBoundingBox: 0 0 2450 1750
2450 1750 cairo_set_page_size
%%EndPageSetup
q 0 0 2450 1750 rectclip q
0.984314 g
0 0 2450 1750 rectfill
0.788235 g
1.875 w
0 J
1 j
[] 0.0 d
4 M 0 1750 2450 -1750 re S
0.85098 g
175 1691.668 m 175 1633.332 l 0 1633.332 l 0 1575 l h
175 1691.668 m f*
0 g
2.5 w
175 1691.668 m 175 1633.332 l 0 1633.332 l 0 1575 l h
175 1691.668 m S
0.85098 g
291.668 1575 m 233.332 1575 l 233.332 1750 l 175 1750 l h
291.668 1575 m f*
0 g
291.668 1575 m 233.332 1575 l 233.332 1750 l 175 1750 l h
291.668 1575 m S
0.85098 g
175 1458.332 m 175 1516.668 l 350 1516.668 l 350 1575 l h
175 1458.332 m f*
0 g
175 1458.332 m 175 1516.668 l 350 1516.668 l 350 1575 l h
175 1458.332 m S
0.85098 g
58.332 1575 m 116.668 1575 l 116.668 1400 l 175 1400 l h
58.332 1575 m f*
0 g
58.332 1575 m 116.668 1575 l 116.668 1400 l 175 1400 l h
58.332 1575 m S
0.85098 g
175 1341.668 m 175 1283.332 l 0 1283.332 l 0 1225 l h
175 1341.668 m f*
0 g
175 1341.668 m 175 1283.332 l 0 1283.332 l 0 1225 l h
175 1341.668 m S
0.85098 g
291.668 1225 m 233.332 1225 l 233.332 1400 l 175 1400 l h
291.668 1225 m f*
0 g
291.668 1225 m 233.332 1225 l 233.332 1400 l 175 1400 l h
291.668 1225 m S
0.85098 g
175 1108.332 m 175 1166.668 l 350 1166.668 l 350 1225 l h
175 1108.332 m f*
0 g
175 1108.332 m 175 1166.668 l 350 1166.668 l 350 1225 l h
175 1108.332 m S
0.85098 g
58.332 1225 m 116.668 1225 l 116.668 1050 l 175 1050 l h
58.332 1225 m f*
0 g
58.332 1225 m 116.668 1225 l 116.668 1050 l 175 1050 l h
58.332 1225 m S
0.85098 g
175 991.668 m 175 933.332 l 0 933.332 l 0 875 l h
175 991.668 m f*
0 g
175 991.668 m 175 933.332 l 0 933.332 l 0 875 l h
175 991.668 m S
0.85098 g
291.668 875 m 233.332 875 l 233.332 1050 l 175 1050 l h
291.668 875 m f*
0 g
291.668 875 m 233.332 875 l 233.332 1050 l 175 1050 l h
291.668 875 m S
0.85098 g
175 758.332 m 175 816.668 l 350 816.668 l 350 875 l h
175 758.332 m f*
0 g
175 758.332 m 175 816.668 l 350 816.668 l 350 875 l h
175 758.332 m S
0.85098 g
58.332 875 m 116.668 875 l 116.668 700 l 175 700 l h
58.332 875 m f*
0 g
58.332 875 m 116.668 875 l 116.668 700 l 175 700 l h
58.332 875 m S
0.85098 g
175 641.668 m 175 583.332 l 0 583.332 l 0 525 l h
175 641.668 m f*
0 g
175 641.668 m 175 583.332 l 0 583.332 l 0 525 l h
175 641.668 m S
0.85098 g
291.668 525 m 233.332 525 l 233.332 700 l 175 700 l h
291.668 525 m f*
0 g
291.668 525 m 233.332 525 l 233.332 700 l 175 700 l h
291.668 525 m S
0.85098 g
175 408.332 m 175 466.668 l 350 466.668 l 350 525 l h
175 408.332 m f*
0 g
175 408.332 m 175 466.668 l 350 466.668 l 350 525 l h
175 408.332 m S
0.85098 g
58.332 525 m 116.668 525 l 116.668 350 l 175 350 l h
58.332 525 m f*
0 g
58.332 525 m 116.668 525 l 116.668 350 l 175 350 l h
58.332 525 m S
0.85098 g
175 291.668 m 175 233.332 l 0 233.332 l 0 175 l h
175 291.668 m f*
0 g
175 291.668 m 175 233.332 l 0 233.332 l 0 175 l h
175 291.668 m S
0.85098 g
291.668 175 m 233.332 175 l 233.332 350 l 175 350 l h
291.668 175 m f*
0 g
291.668 175 m 233.332 175 l 233.332 350 l 175 350 l h
291.668 175 m S
0.85098 g
175 58.332 m 175 116.668 l 350 116.668 l 350 175 l h
175 58.332 m f*
0 g
175 58.332 m 175 116.668 l 350 116.668 l 350 175 l h
175 58.332 m S
0.85098 g
58.332 175 m 116.668 175 l 116.668 0 l 175 0 l h
58.332 175 m f*
0 g
58.332 175 m 116.668 175 l 116.668 0 l 175 0 l h
58.332 175 m S
0.85098 g
525 1691.668 m 525 1633.332 l 350 1633.332 l 350 1575 l h
525 1691.668 m f*
0 g
525 1691.668 m 525 1633.332 l 350 1633.332 l 350 1575 l h
525 1691.668 m S
0.85098 g
641.668 1575 m 583.332 1575 l 583.332 1750 l 525 1750 l h
641.668 1575 m f*
0 g
641.668 1575 m 583.332 1575 l 583.332 1750 l 525 1750 l h
641.668 1575 m S
0.85098 g
525 1458.332 m 525 1516.668 l 700 1516.668 l 700 1575 l h
525 1458.332 m f*
0 g
525 1458.332 m 525 1516.668 l 700 1516.668 l 700 1575 l h
525 1458.332 m S
0.85098 g
408.332 1575 m 466.668 1575 l 466.668 1400 l 525 1400 l h
408.332 1575 m f*
0 g
408.332 1575 m 466.668 1575 l 466.668 1400 l 525 1400 l h
408.332 1575 m S
0.85098 g
525 1341.668 m 525 1283.332 l 350 1283.332 l 350 1225 l h
525 1341.668 m f*
0 g
525 1341.668 m 525 1283.332 l 350 1283.332 l 350 1225 l h
525 1341.668 m S
0.85098 g
641.668 1225 m 583.332 1225 l 583.332 1400 l 525 1400 l h
641.668 1225 m f*
0 g
641.668 1225 m 583.332 1225 l 583.332 1400 l 525 1400 l h
641.668 1225 m S
0.85098 g
525 1108.332 m 525 1166.668 l 700 1166.668 l 700 1225 l h
525 1108.332 m f*
0 g
525 1108.332 m 525 1166.668 l 700 1166.668 l 700 1225 l h
525 1108.332 m S
0.85098 g
408.332 1225 m 466.668 1225 l 466.668 1050 l 525 1050 l h
408.332 1225 m f*
0 g
408.332 1225 m 466.668 1225 l 466.668 1050 l 525 1050 l h
408.332 1225 m S
0.85098 g
525 991.668 m 525 933.332 l 350 933.332 l 350 875 l h
525 991.668 m f*
0 g
525 991.668 m 525 933.332 l 350 933.332 l 350 875 l h
525 991.668 m S
0.85098 g
641.668 875 m 583.332 875 l 583.332 1050 l 525 1050 l h
641.668 875 m f*
0 g
641.668 875 m 583.332 875 l 583.332 1050 l 525 1050 l h
641.668 875 m S
0.85098 g
525 758.332 m 525 816.668 l 700 816.668 l 700 875 l h
525 758.332 m f*
0 g
525 758.332 m 525 816.668 l 700 816.668 l 700 875 l h
525 758.332 m S
0.85098 g
408.332 875 m 466.668 875 l 466.668 700 l 525 700 l h
408.332 875 m f*
0 g
408.332 875 m 466.668 875 l 466.668 700 l 525 700 l h
408.332 875 m S
0.85098 g
525 641.668 m 525 583.332 l 350 583.332 l 350 525 l h
525 641.668 m f*
0 g
525 641.668 m 525 583.332 l 350 583.332 l 350 525 l h
525 641.668 m S
0.85098 g
641.668 525 m 583.332 525 l 583.332 700 l 525 700 l h
641.668 525 m f*
0 g
641.668 525 m 583.332 525 l 583.332 700 l 525 700 l h
641.668 525 m S
0.85098 g
525 408.332 m 525 466.668 l 700 466.668 l 700 525 l h
525 408.332 m f*
0 g
525 408.332 m 525 466.668 l 700 466.668 l 700 525 l h
525 408.332 m S
0.85098 g
408.332 525 m 466.668 525 l 466.668 350 l 525 350 l h
408.332 525 m f*
0 g
408.332 525 m 466.668 525 l 466.668 350 l 525 350 l h
408.332 525 m S
0.85098 g
525 291.668 m 525 233.332 l 350 233.332 l 350 175 l h
525 291.668 m f*
0 g
525 291.668 m 525 233.332 l 350 233.332 l 350 175 l h
525 291.668 m S
0.85098 g
641.668 175 m 583.332 175 l 583.332 350 l 525 350 l h
641.668 175 m f*
0 g
641.668 175 m 583.332 175 l 583.332 350 l 525 350 l h
641.668 175 m S
0.85098 g
525 58.332 m 525 116.668 l 700 116.668 l 700 175 l h
525 58.332 m f*
0 g
525 58.332 m 525 116.668 l 700 116.668 l 700 175 l h
525 58.332 m S
0.85098 g
408.332 175 m 466.668 175 l 466.668 0 l 525 0 l h
408.332 175 m f*
0 g
408.332 175 m 466.668 175 l 466.668 0 l 525 0 l h
408.332 175 m S
0.85098 g
875 1691.668 m 875 1633.332 l 700 1633.332 l 700 1575 l h
875 1691.668 m f*
0 g
875 1691.668 m 875 1633.332 l 700 1633.332 l 700 1575 l h
875 1691.668 m S
0.85098 g
991.668 1575 m 933.332 1575 l 933.332 1750 l 875 1750 l h
991.668 1575 m f*
0 g
991.668 1575 m 933.332 1575 l 933.332 1750 l 875 1750 l h
991.668 1575 m S
0.85098 g
875 1458.332 m 875 1516.668 l 1050 1516.668 l 1050 1575 l h
875 1458.332 m f*
0 g
875 1458.332 m 875 1516.668 l 1050 1516.668 l 1050 1575 l h
875 1458.332 m S
0.85098 g
758.332 1575 m 816.668 1575 l 816.668 1400 l 875 1400 l h
758.332 1575 m f*
0 g
758.332 1575 m 816.668 1575 l 816.668 1400 l 875 1400 l h
758.332 1575 m S
0.85098 g
875 1341.668 m 875 1283.332 l 700 1283.332 l 700 1225 l h
875 1341.668 m f*
0 g
875 1341.668 m 875 1283.332 l 700 1283.332 l 700 1225 l h
875 1341.668 m S
0.85098 g
991.668 1225 m 933.332 1225 l 933.332 1400 l 875 1400 l h
991.668 1225 m f*
0 g
991.668 1225 m 933.332 1225 l 933.332 1400 l 875 1400 l h
991.668 1225 m S
0.85098 g
875 1108.332 m 875 1166.668 l 1050 1166.668 l 1050 1225 l h
875 1108.332 m f*
0 g
875 1108.332 m 875 1166.668 l 1050 1166.668 l 1050 1225 l h
875 1108.332 m S
0.85098 g
758.332 1225 m 816.668 1225 l 816.668 1050 l 875 1050 l h
758.332 1225 m f*
0 g
758.332 1225 m 816.668 1225 l 816.668 1050 l 875 1050 l h
758.332 1225 m S
0.85098 g
875 991.668 m 875 933.332 l 700 933.332 l 700 875 l h
875 991.668 m f*
0 g
875 991.668 m 875 933.332 l 700 933.332 l 700 875 l h
875 991.668 m S
0.85098 g
991.668 875 m 933.332 875 l 933.332 1050 l 875 1050 l h
991.668 875 m f*
0 g
991.668 875 m 933.332 875 l 933.332 1050 l 875 1050 l h
991.668 875 m S
0.85098 g
875 758.332 m 875 816.668 l 1050 816.668 l 1050 875 l h
875 758.332 m f*
0 g
875 758.332 m 875 816.668 l 1050 816.668 l 1050 875 l h
875 758.332 m S
0.85098 g
758.332 875 m 816.668 875 l 816.668 700 l 875 700 l h
758.332 875 m f*
0 g
758.332 875 m 816.668 875 l 816.668 700 l 875 700 l h
758.332 875 m S
0.85098 g
875 641.668 m 875 583.332 l 700 583.332 l 700 525 l h
875 641.668 m f*
0 g
875 641.668 m 875 583.332 l 700 583.332 l 700 525 l h
875 641.668 m S
0.85098 g
991.668 525 m 933.332 525 l 933.332 700 l 875 700 l h
991.668 525 m f*
0 g
991.668 525 m 933.332 525 l 933.332 700 l 875 700 l h
991.668 525 m S
0.85098 g
875 408.332 m 875 466.668 l 1050 466.668 l 1050 525 l h
875 408.332 m f*
0 g
875 408.332 m 875 466.668 l 1050 466.668 l 1050 525 l h
875 408.332 m S
0.85098 g
758.332 525 m 816.668 525 l 816.668 350 l 875 350 l h
758.332 525 m f*
0 g
758.332 525 m 816.668 525 l 816.668 350 l 875 350 l h
758.332 525 m S
0.85098 g
875 291.668 m 875 233.332 l 700 233.332 l 700 175 l h
875 291.668 m f*
0 g
875 291.668 m 875 233.332 l 700 233.332 l 700 175 l h
875 291.668 m S
0.85098 g
991.668 175 m 933.332 175 l 933.332 350 l 875 350 l h
991.668 175 m f*
0 g
991.668 175 m 933.332 175 l 933.332 350 l 875 350 l h
991.668 175 m S
0.85098 g
875 58.332 m 875 116.668 l 1050 116.668 l 1050 175 l h
875 58.332 m f*
0 g
875 58.332 m 875 116.668 l 1050 116.668 l 1050 175 l h
875 58.332 m S
0.85098 g
758.332 175 m 816.668 175 l 816.668 0 l 875 0 l h
758.332 175 m f*
0 g
758.332 175 m 816.668 175 l 816.668 0 l 875 0 l h
758.332 175 m S
0.85098 g
1225 1691.668 m 1225 1633.332 l 1050 1633.332 l 1050 1575 l h
1225 1691.668 m f*
0 g
1225 1691.668 m 1225 1633.332 l 1050 1633.332 l 1050 1575 l h
1225 1691.668 m S
0.85098 g
1341.668 1575 m 1283.332 1575 l 1283.332 1750 l 1225 1750 l h
1341.668 1575 m f*
0 g
1341.668 1575 m 1283.332 1575 l 1283.332 1750 l 1225 1750 l h
1341.668 1575 m S
0.85098 g
1225 1458.332 m 1225 1516.668 l 1400 1516.668 l 1400 1575 l h
1225 1458.332 m f*
0 g
1225 1458.332 m 1225 1516.668 l 1400 1516.668 l 1400 1575 l h
1225 1458.332 m S
0.85098 g
1108.332 1575 m 1166.668 1575 l 1166.668 1400 l 1225 1400 l h
1108.332 1575 m f*
0 g
1108.332 1575 m 1166.668 1575 l 1166.668 1400 l 1225 1400 l h
1108.332 1575 m S
0.85098 g
1225 1341.668 m 1225 1283.332 l 1050 1283.332 l 1050 1225 l h
1225 1341.668 m f*
0 g
1225 1341.668 m 1225 1283.332 l 1050 1283.332 l 1050 1225 l h
1225 1341.668 m S
0.85098 g
1341.668 1225 m 1283.332 1225 l 1283.332 1400 l 1225 1400 l h
1341.668 1225 m f*
0 g
1341.668 1225 m 1283.332 1225 l 1283.332 1400 l 1225 1400 l h
1341.668 1225 m S
0.85098 g
1225 1108.332 m 1225 1166.668 l 1400 1166.668 l 1400 1225 l h
1225 1108.332 m f*
0 g
1225 1108.332 m 1225 1166.668 l 1400 1166.668 l 1400 1225 l h
1225 1108.332 m S
0.85098 g
1108.332 1225 m 1166.668 1225 l 1166.668 1050 l 1225 1050 l h
1108.332 1225 m f*
0 g
1108.332 1225 m 1166.668 1225 l 1166.668 1050 l 1225 1050 l h
1108.332 1225 m S
0.85098 g
1225 991.668 m 1225 933.332 l 1050 933.332 l 1050 875 l h
1225 991.668 m f*
0 g
1225 991.668 m 1225 933.332 l 1050 933.332 l 1050 875 l h
1225 991.668 m S
0.85098 g
1341.668 875 m 1283.332 875 l 1283.332 1050 l 1225 1050 l h
1341.668 875 m f*
0 g
1341.668 875 m 1283.332 875 l 1283.332 1050 l 1225 1050 l h
1341.668 875 m S
0.85098 g
1225 758.332 m 1225 816.668 l 1400 816.668 l 1400 875 l h
1225 758.332 m f*
0 g
1225 758.332 m 1225 816.668 l 1400 816.668 l 1400 875 l h
1225 758.332 m S
0.85098 g
1108.332 875 m 1166.668 875 l 1166.668 700 l 1225 700 l h
1108.332 875 m f*
0 g
1108.332 875 m 1166.668 875 l 1166.668 700 l 1225 700 l h
1108.332 875 m S
0.85098 g
1225 641.668 m 1225 583.332 l 1050 583.332 l 1050 525 l h
1225 641.668 m f*
0 g
1225 641.668 m 1225 583.332 l 1050 583.332 l 1050 525 l h
1225 641.668 m S
0.85098 g
1341.668 525 m 1283.332 525 l 1283.332 700 l 1225 700 l h
1341.668 525 m f*
0 g
1341.668 525 m 1283.332 525 l 1283.332 700 l 1225 700 l h
1341.668 525 m S
0.85098 g
1225 408.332 m 1225 466.668 l 1400 466.668 l 1400 525 l h
1225 408.332 m f*
0 g
1225 408.332 m 1225 466.668 l 1400 466.668 l 1400 525 l h
1225 408.332 m S
0.85098 g
1108.332 525 m 1166.668 525 l 1166.668 350 l 1225 350 l h
1108.332 525 m f*
0 g
1108.332 525 m 1166.668 525 l 1166.668 350 l 1225 350 l h
1108.332 525 m S
0.85098 g
1225 291.668 m 1225 233.332 l 1050 233.332 l 1050 175 l h
1225 291.668 m f*
0 g
1225 291.668 m 1225 233.332 l 1050 233.332 l 1050 175 l h
1225 291.668 m S
0.85098 g
1341.668 175 m 1283.332 175 l 1283.332 350 l 1225 350 l h
1341.668 175 m f*
0 g
1341.668 175 m 1283.332 175 l 1283.332 350 l 1225 350 l h
1341.668 175 m S
0.85098 g
1225 58.332 m 1225 116.668 l 1400 116.668 l 1400 175 l h
1225 58.332 m f*
0 g
1225 58.332 m 1225 116.668 l 1400 116.668 l 1400 175 l h
1225 58.332 m S
0.85098 g
1108.332 175 m 1166.668 175 l 1166.668 0 l 1225 0 l h
1108.332 175 m f*
0 g
1108.332 175 m 1166.668 175 l 1166.668 0 l 1225 0 l h
1108.332 175 m S
0.85098 g
1575 1691.668 m 1575 1633.332 l 1400 1633.332 l 1400 1575 l h
1575 1691.668 m f*
0 g
1575 1691.668 m 1575 1633.332 l 1400 1633.332 l 1400 1575 l h
1575 1691.668 m S
0.85098 g
1691.668 1575 m 1633.332 1575 l 1633.332 1750 l 1575 1750 l h
1691.668 1575 m f*
0 g
1691.668 1575 m 1633.332 1575 l 1633.332 1750 l 1575 1750 l h
1691.668 1575 m S
0.85098 g
1575 1458.332 m 1575 1516.668 l 1750 1516.668 l 1750 1575 l h
1575 1458.332 m f*
0 g
1575 1458.332 m 1575 1516.668 l 1750 1516.668 l 1750 1575 l h
1575 1458.332 m S
0.85098 g
1458.332 1575 m 1516.668 1575 l 1516.668 1400 l 1575 1400 l h
1458.332 1575 m f*
0 g
1458.332 1575 m 1516.668 1575 l 1516.668 1400 l 1575 1400 l h
1458.332 1575 m S
0.85098 g
1575 1341.668 m 1575 1283.332 l 1400 1283.332 l 1400 1225 l h
1575 1341.668 m f*
0 g
1575 1341.668 m 1575 1283.332 l 1400 1283.332 l 1400 1225 l h
1575 1341.668 m S
0.85098 g
1691.668 1225 m 1633.332 1225 l 1633.332 1400 l 1575 1400 l h
1691.668 1225 m f*
0 g
1691.668 1225 m 1633.332 1225 l 1633.332 1400 l 1575 1400 l h
1691.668 1225 m S
0.85098 g
1575 1108.332 m 1575 1166.668 l 1750 1166.668 l 1750 1225 l h
1575 1108.332 m f*
0 g
1575 1108.332 m 1575 1166.668 l 1750 1166.668 l 1750 1225 l h
1575 1108.332 m S
0.85098 g
1458.332 1225 m 1516.668 1225 l 1516.668 1050 l 1575 1050 l h
1458.332 1225 m f*
0 g
1458.332 1225 m 1516.668 1225 l 1516.668 1050 l 1575 1050 l h
1458.332 1225 m S
0.85098 g
1575 991.668 m 1575 933.332 l 1400 933.332 l 1400 875 l h
1575 991.668 m f*
0 g
1575 991.668 m 1575 933.332 l 1400 933.332 l 1400 875 l h
1575 991.668 m S
0.85098 g
1691.668 875 m 1633.332 875 l 1633.332 1050 l 1575 1050 l h
1691.668 875 m f*
0 g
1691.668 875 m 1633.332 875 l 1633.332 1050 l 1575 1050 l h
1691.668 875 m S
0.85098 g
1575 758.332 m 1575 816.668 l 1750 816.668 l 1750 875 l h
1575 758.332 m f*
0 g
1575 758.332 m 1575 816.668 l 1750 816.668 l 1750 875 l h
1575 758.332 m S
0.85098 g
1458.332 875 m 1516.668 875 l 1516.668 700 l 1575 700 l h
1458.332 875 m f*
0 g
1458.332 875 m 1516.668 875 l 1516.668 700 l 1575 700 l h
1458.332 875 m S
0.85098 g
1575 641.668 m 1575 583.332 l 1400 583.332 l 1400 525 l h
1575 641.668 m f*
0 g
1575 641.668 m 1575 583.332 l 1400 583.332 l 1400 525 l h
1575 641.668 m S
0.85098 g
1691.668 525 m 1633.332 525 l 1633.332 700 l 1575 700 l h
1691.668 525 m f*
0 g
1691.668 525 m 1633.332 525 l 1633.332 700 l 1575 700 l h
1691.668 525 m S
0.85098 g
1575 408.332 m 1575 466.668 l 1750 466.668 l 1750 525 l h
1575 408.332 m f*
0 g
1575 408.332 m 1575 466.668 l 1750 466.668 l 1750 525 l h
1575 408.332 m S
0.85098 g
1458.332 525 m 1516.668 525 l 1516.668 350 l 1575 350 l h
1458.332 525 m f*
0 g
1458.332 525 m 1516.668 525 l 1516.668 350 l 1575 350 l h
1458.332 525 m S
0.85098 g
1575 291.668 m 1575 233.332 l 1400 233.332 l 1400 175 l h
1575 291.668 m f*
0 g
1575 291.668 m 1575 233.332 l 1400 233.332 l 1400 175 l h
1575 291.668 m S
0.85098 g
1691.668 175 m 1633.332 175 l 1633.332 350 l 1575 350 l h
1691.668 175 m f*
0 g
1691.668 175 m 1633.332 175 l 1633.332 350 l 1575 350 l h
1691.668 175 m S
0.85098 g
1575 58.332 m 1575 116.668 l 1750 116.668 l 1750 175 l h
1575 58.332 m f*
0 g
1575 58.332 m 1575 116.668 l 1750 116.668 l 1750 175 l h
1575 58.332 m S
0.85098 g
1458.332 175 m 1516.668 175 l 1516.668 0 l 1575 0 l h
1458.332 175 m f*
0 g
1458.332 175 m 1516.668 175 l 1516.668 0 l 1575 0 l h
1458.332 175 m S
0.85098 g
1925 1691.668 m 1925 1633.332 l 1750 1633.332 l 1750 1575 l h
1925 1691.668 m f*
0 g
1925 1691.668 m 1925 1633.332 l 1750 1633.332 l 1750 1575 l h
1925 1691.668 m S
0.85098 g
2041.668 1575 m 1983.332 1575 l 1983.332 1750 l 1925 1750 l h
2041.668 1575 m f*
0 g
2041.668 1575 m 1983.332 1575 l 1983.332 1750 l 1925 1750 l h
2041.668 1575 m S
0.85098 g
1925 1458.332 m 1925 1516.668 l 2100 1516.668 l 2100 1575 l h
1925 1458.332 m f*
0 g
1925 1458.332 m 1925 1516.668 l 2100 1516.668 l 2100 1575 l h
1925 1458.332 m S
0.85098 g
1808.332 1575 m 1866.668 1575 l 1866.668 1400 l 1925 1400 l h
1808.332 1575 m f*
0 g
1808.332 1575 m 1866.668 1575 l 1866.668 1400 l 1925 1400 l h
1808.332 1575 m S
0.85098 g
1925 1341.668 m 1925 1283.332 l 1750 1283.332 l 1750 1225 l h
1925 1341.668 m f*
0 g
1925 1341.668 m 1925 1283.332 l 1750 1283.332 l 1750 1225 l h
1925 1341.668 m S
0.85098 g
2041.668 1225 m 1983.332 1225 l 1983.332 1400 l 1925 1400 l h
2041.668 1225 m f*
0 g
2041.668 1225 m 1983.332 1225 l 1983.332 1400 l 1925 1400 l h
2041.668 1225 m S
0.85098 g
1925 1108.332 m 1925 1166.668 l 2100 1166.668 l 2100 1225 l h
1925 1108.332 m f*
0 g
1925 1108.332 m 1925 1166.668 l 2100 1166.668 l 2100 1225 l h
1925 1108.332 m S
0.85098 g
1808.332 1225 m 1866.668 1225 l 1866.668 1050 l 1925 1050 l h
1808.332 1225 m f*
0 g
1808.332 1225 m 1866.668 1225 l 1866.668 1050 l 1925 1050 l h
1808.332 1225 m S
0.85098 g
1925 991.668 m 1925 933.332 l 1750 933.332 l 1750 875 l h
1925 991.668 m f*
0 g
1925 991.668 m 1925 933.332 l 1750 933.332 l 1750 875 l h
1925 991.668 m S
0.85098 g
2041.668 875 m 1983.332 875 l 1983.332 1050 l 1925 1050 l h
2041.668 875 m f*
0 g
2041.668 875 m 1983.332 875 l 1983.332 1050 l 1925 1050 l h
2041.668 875 m S
0.85098 g
1925 758.332 m 1925 816.668 l 2100 816.668 l 2100 875 l h
1925 758.332 m f*
0 g
1925 758.332 m 1925 816.668 l 2100 816.668 l 2100 875 l h
1925 758.332 m S
0.85098 g
1808.332 875 m 1866.668 875 l 1866.668 700 l 1925 700 l h
1808.332 875 m f*
0 g
1808.332 875 m 1866.668 875 l 1866.668 700 l 1925 700 l h
1808.332 875 m S
0.85098 g
1925 641.668 m 1925 583.332 l 1750 583.332 l 1750 525 l h
1925 641.668 m f*
0 g
1925 641.668 m 1925 583.332 l 1750 583.332 l 1750 525 l h
1925 641.668 m S
0.85098 g
2041.668 525 m 1983.332 525 l 1983.332 700 l 1925 700 l h
2041.668 525 m f*
0 g
2041.668 525 m 1983.332 525 l 1983.332 700 l 1925 700 l h
2041.668 525 m S
0.85098 g
1925 408.332 m 1925 466.668 l 2100 466.668 l 2100 525 l h
1925 408.332 m f*
0 g
1925 408.332 m 1925 466.668 l 2100 466.668 l 2100 525 l h
1925 408.332 m S
0.85098 g
1808.332 525 m 1866.668 525 l 1866.668 350 l 1925 350 l h
1808.332 525 m f*
0 g
1808.332 525 m 1866.668 525 l 1866.668 350 l 1925 350 l h
1808.332 525 m S
0.85098 g
1925 291.668 m 1925 233.332 l 1750 233.332 l 1750 175 l h
1925 291.668 m f*
0 g
1925 291.668 m 1925 233.332 l 1750 233.332 l 1750 175 l h
1925 291.668 m S
0.85098 g
2041.668 175 m 1983.332 175 l 1983.332 350 l 1925 350 l h
2041.668 175 m f*
0 g
2041.668 175 m 1983.332 175 l 1983.332 350 l 1925 350 l h
2041.668 175 m S
0.85098 g
1925 58.332 m 1925 116.668 l 2100 116.668 l 2100 175 l h
1925 58.332 m f*
0 g
1925 58.332 m 1925 116.668 l 2100 116.668 l 2100 175 l h
1925 58.332 m S
0.85098 g
1808.332 175 m 1866.668 175 l 1866.668 0 l 1925 0 l h
1808.332 175 m f*
0 g
1808.332 175 m 1866.668 175 l 1866.668 0 l 1925 0 l h
1808.332 175 m S
0.85098 g
2275 1691.668 m 2275 1633.332 l 2100 1633.332 l 2100 1575 l h
2275 1691.668 m f*
0 g
2275 1691.668 m 2275 1633.332 l 2100 1633.332 l 2100 1575 l h
2275 1691.668 m S
0.85098 g
2391.668 1575 m 2333.332 1575 l 2333.332 1750 l 2275 1750 l h
2391.668 1575 m f*
0 g
2391.668 1575 m 2333.332 1575 l 2333.332 1750 l 2275 1750 l h
2391.668 1575 m S
0.85098 g
2275 1458.332 m 2275 1516.668 l 2450 1516.668 l 2450 1575 l h
2275 1458.332 m f*
0 g
2275 1458.332 m 2275 1516.668 l 2450 1516.668 l 2450 1575 l h
2275 1458.332 m S
0.85098 g
2158.332 1575 m 2216.668 1575 l 2216.668 1400 l 2275 1400 l h
2158.332 1575 m f*
0 g
2158.332 1575 m 2216.668 1575 l 2216.668 1400 l 2275 1400 l h
2158.332 1575 m S
0.85098 g
2275 1341.668 m 2275 1283.332 l 2100 1283.332 l 2100 1225 l h
2275 1341.668 m f*
0 g
2275 1341.668 m 2275 1283.332 l 2100 1283.332 l 2100 1225 l h
2275 1341.668 m S
0.85098 g
2391.668 1225 m 2333.332 1225 l 2333.332 1400 l 2275 1400 l h
2391.668 1225 m f*
0 g
2391.668 1225 m 2333.332 1225 l 2333.332 1400 l 2275 1400 l h
2391.668 1225 m S
0.85098 g
2275 1108.332 m 2275 1166.668 l 2450 1166.668 l 2450 1225 l h
2275 1108.332 m f*
0 g
2275 1108.332 m 2275 1166.668 l 2450 1166.668 l 2450 1225 l h
2275 1108.332 m S
0.85098 g
2158.332 1225 m 2216.668 1225 l 2216.668 1050 l 2275 1050 l h
2158.332 1225 m f*
0 g
2158.332 1225 m 2216.668 1225 l 2216.668 1050 l 2275 1050 l h
2158.332 1225 m S
0.85098 g
2275 991.668 m 2275 933.332 l 2100 933.332 l 2100 875 l h
2275 991.668 m f*
0 g
2275 991.668 m 2275 933.332 l 2100 933.332 l 2100 875 l h
2275 991.668 m S
0.85098 g
2391.668 875 m 2333.332 875 l 2333.332 1050 l 2275 1050 l h
2391.668 875 m f*
0 g
2391.668 875 m 2333.332 875 l 2333.332 1050 l 2275 1050 l h
2391.668 875 m S
0.85098 g
2275 758.332 m 2275 816.668 l 2450 816.668 l 2450 875 l h
2275 758.332 m f*
0 g
2275 758.332 m 2275 816.668 l 2450 816.668 l 2450 875 l h
2275 758.332 m S
0.85098 g
2158.332 875 m 2216.668 875 l 2216.668 700 l 2275 700 l h
2158.332 875 m f*
0 g
2158.332 875 m 2216.668 875 l 2216.668 700 l 2275 700 l h
2158.332 875 m S
0.85098 g
2275 641.668 m 2275 583.332 l 2100 583.332 l 2100 525 l h
2275 641.668 m f*
0 g
2275 641.668 m 2275 583.332 l 2100 583.332 l 2100 525 l h
2275 641.668 m S
0.85098 g
2391.668 525 m 2333.332 525 l 2333.332 700 l 2275 700 l h
2391.668 525 m f*
0 g
2391.668 525 m 2333.332 525 l 2333.332 700 l 2275 700 l h
2391.668 525 m S
0.85098 g
2275 408.332 m 2275 466.668 l 2450 466.668 l 2450 525 l h
2275 408.332 m f*
0 g
2275 408.332 m 2275 466.668 l 2450 466.668 l 2450 525 l h
2275 408.332 m S
0.85098 g
2158.332 525 m 2216.668 525 l 2216.668 350 l 2275 350 l h
2158.332 525 m f*
0 g
2158.332 525 m 2216.668 525 l 2216.668 350 l 2275 350 l h
2158.332 525 m S
0.85098 g
2275 291.668 m 2275 233.332 l 2100 233.332 l 2100 175 l h
2275 291.668 m f*
0 g
2275 291.668 m 2275 233.332 l 2100 233.332 l 2100 175 l h
2275 291.668 m S
0.85098 g
2391.668 175 m 2333.332 175 l 2333.332 350 l 2275 350 l h
2391.668 175 m f*
0 g
2391.668 175 m 2333.332 175 l 2333.332 350 l 2275 350 l h
2391.668 175 m S
0.85098 g
2275 58.332 m 2275 116.668 l 2450 116.668 l 2450 175 l h
2275 58.332 m f*
0 g
2275 58.332 m 2275 116.668 l 2450 116.668 l 2450 175 l h
2275 58.332 m S
0.85098 g
2158.332 175 m 2216.668 175 l 2216.668 0 l 2275 0 l h
2158.332 175 m f*
0 g
2158.332 175 m 2216.668 175 l 2216.668 0 l 2275 0 l h
2158.332 175 m S
Q Q
showpage
%%Trailer
%%Trailer
cleartomark
countdictstack
exch sub { end } repeat
restore
%%EOF
