%!PS-Adobe-2.0 EPSF-2.0
%%BoundingBox: 0 0 2450 1750
%%HiResBoundingBox: 0.000000 0.000000 2450.000000 1750.000000
%%Creator: cairo 1.14.2 (http://cairographics.org)
%%CreationDate: Mon Sep  7 08:22:00 2015
%%DocumentData: Clean7Bit
%%LanguageLevel: 2
%%DocumentMedia: 864x617mm 2450 1750 0 () ()
%%EndComments
% EPSF created by ps2eps 1.68
%%BeginProlog
save
countdictstack
mark
newpath
/showpage {} def
/setpagedevice {pop} def
%%EndProlog
%%Page 1 1
%%BeginProlog
/languagelevel where
{ pop languagelevel } { 1 } ifelse
2 lt { /Helvetica findfont 12 scalefont setfont 50 500 moveto
  (This print job requires a PostScript Language Level 2 printer.) show
  showpage quit } if
/q { gsave } bind def
/Q { grestore } bind def
/cm { 6 array astore concat } bind def
/w { setlinewidth } bind def
/J { setlinecap } bind def
/j { setlinejoin } bind def
/M { setmiterlimit } bind def
/d { setdash } bind def
/m { moveto } bind def
/l { lineto } bind def
/c { curveto } bind def
/h { closepath } bind def
/re { exch dup neg 3 1 roll 5 3 roll moveto 0 rlineto
      0 exch rlineto 0 rlineto closepath } bind def
/S { stroke } bind def
/f { fill } bind def
/f* { eofill } bind def
/n { newpath } bind def
/W { clip } bind def
/W* { eoclip } bind def
/BT { } bind def
/ET { } bind def
/pdfmark where { pop globaldict /?pdfmark /exec load put }
    { globaldict begin /?pdfmark /pop load def /pdfmark
    /cleartomark load def end } ifelse
/BDC { mark 3 1 roll /BDC pdfmark } bind def
/EMC { mark /EMC pdfmark } bind def
/cairo_store_point { /cairo_point_y exch def /cairo_point_x exch def } def
/Tj { show currentpoint cairo_store_point } bind def
/TJ {
  {
    dup
    type /stringtype eq
    { show } { -0.001 mul 0 cairo_font_matrix dtransform rmoveto } ifelse
  } forall
  currentpoint cairo_store_point
} bind def
/cairo_selectfont { cairo_font_matrix aload pop pop pop 0 0 6 array astore
    cairo_font exch selectfont cairo_point_x cairo_point_y moveto } bind def
/Tf { pop /cairo_font exch def /cairo_font_matrix where
      { pop cairo_selectfont } if } bind def
/Td { matrix translate cairo_font_matrix matrix concatmatrix dup
      /cairo_font_matrix exch def dup 4 get exch 5 get cairo_store_point
      /cairo_font where { pop cairo_selectfont } if } bind def
/Tm { 2 copy 8 2 roll 6 array astore /cairo_font_matrix exch def
      cairo_store_point /cairo_font where { pop cairo_selectfont } if } bind def
/g { setgray } bind def
/rg { setrgbcolor } bind def
/d1 { setcachedevice } bind def
/cairo_set_page_size {
  % Change paper size, but only if different from previous paper size otherwise
  % duplex fails. PLRM specifies a tolerance of 5 pts when matching paper size
  % so we use the same when checking if the size changes.
  /setpagedevice where {
    pop currentpagedevice
    /PageSize known {
      2 copy
      currentpagedevice /PageSize get aload pop
      exch 4 1 roll
      sub abs 5 gt
      3 1 roll
      sub abs 5 gt
      or
    } {
      true
    } ifelse
    {
      2 array astore
      2 dict begin
        /PageSize exch def
        /ImagingBBox null def
      currentdict end
      setpagedevice
    } {
      pop pop
    } ifelse
  } {
    pop
  } ifelse
} def
%%EndProlog
%%BeginSetup
%%EndSetup
%%Page: 1 1
%%BeginPageSetup
%%PageMedia: 864x617mm
%%PageBoundingBox: 0 0 2450 1750
2450 1750 cairo_set_page_size
%%EndPageSetup
q 0 0 2450 1750 rectclip q
0.984314 g
0 0 2450 1750 rectfill
0.788235 g
1.875 w
0 J
1 j
[] 0.0 d
4 M 0 1750 2450 -1750 re S
0 g
2.5 w
1 J
175 1691.668 m 58.332 1691.668 116.668 1633.332 0 1633.332 c S
291.668 1575 m 291.668 1691.668 233.332 1633.332 233.332 1750 c S
175 1458.332 m 291.668 1458.332 233.332 1516.668 350 1516.668 c S
58.332 1575 m 58.332 1458.332 116.668 1516.668 116.668 1400 c S
175 1341.668 m 58.332 1341.668 116.668 1283.332 0 1283.332 c S
291.668 1225 m 291.668 1341.668 233.332 1283.332 233.332 1400 c S
175 1108.332 m 291.668 1108.332 233.332 1166.668 350 1166.668 c S
58.332 1225 m 58.332 1108.332 116.668 1166.668 116.668 1050 c S
175 991.668 m 58.332 991.668 116.668 933.332 0 933.332 c S
291.668 875 m 291.668 991.668 233.332 933.332 233.332 1050 c S
175 758.332 m 291.668 758.332 233.332 816.668 350 816.668 c S
58.332 875 m 58.332 758.332 116.668 816.668 116.668 700 c S
175 641.668 m 58.332 641.668 116.668 583.332 0 583.332 c S
291.668 525 m 291.668 641.668 233.332 583.332 233.332 700 c S
175 408.332 m 291.668 408.332 233.332 466.668 350 466.668 c S
58.332 525 m 58.332 408.332 116.668 466.668 116.668 350 c S
175 291.668 m 58.332 291.668 116.668 233.332 0 233.332 c S
291.668 175 m 291.668 291.668 233.332 233.332 233.332 350 c S
175 58.332 m 291.668 58.332 233.332 116.668 350 116.668 c S
58.332 175 m 58.332 58.332 116.668 116.668 116.668 0 c S
525 1691.668 m 408.332 1691.668 466.668 1633.332 350 1633.332 c S
641.668 1575 m 641.668 1691.668 583.332 1633.332 583.332 1750 c S
525 1458.332 m 641.668 1458.332 583.332 1516.668 700 1516.668 c S
408.332 1575 m 408.332 1458.332 466.668 1516.668 466.668 1400 c S
525 1341.668 m 408.332 1341.668 466.668 1283.332 350 1283.332 c S
641.668 1225 m 641.668 1341.668 583.332 1283.332 583.332 1400 c S
525 1108.332 m 641.668 1108.332 583.332 1166.668 700 1166.668 c S
408.332 1225 m 408.332 1108.332 466.668 1166.668 466.668 1050 c S
525 991.668 m 408.332 991.668 466.668 933.332 350 933.332 c S
641.668 875 m 641.668 991.668 583.332 933.332 583.332 1050 c S
525 758.332 m 641.668 758.332 583.332 816.668 700 816.668 c S
408.332 875 m 408.332 758.332 466.668 816.668 466.668 700 c S
525 641.668 m 408.332 641.668 466.668 583.332 350 583.332 c S
641.668 525 m 641.668 641.668 583.332 583.332 583.332 700 c S
525 408.332 m 641.668 408.332 583.332 466.668 700 466.668 c S
408.332 525 m 408.332 408.332 466.668 466.668 466.668 350 c S
525 291.668 m 408.332 291.668 466.668 233.332 350 233.332 c S
641.668 175 m 641.668 291.668 583.332 233.332 583.332 350 c S
525 58.332 m 641.668 58.332 583.332 116.668 700 116.668 c S
408.332 175 m 408.332 58.332 466.668 116.668 466.668 0 c S
875 1691.668 m 758.332 1691.668 816.668 1633.332 700 1633.332 c S
991.668 1575 m 991.668 1691.668 933.332 1633.332 933.332 1750 c S
875 1458.332 m 991.668 1458.332 933.332 1516.668 1050 1516.668 c S
758.332 1575 m 758.332 1458.332 816.668 1516.668 816.668 1400 c S
875 1341.668 m 758.332 1341.668 816.668 1283.332 700 1283.332 c S
991.668 1225 m 991.668 1341.668 933.332 1283.332 933.332 1400 c S
875 1108.332 m 991.668 1108.332 933.332 1166.668 1050 1166.668 c S
758.332 1225 m 758.332 1108.332 816.668 1166.668 816.668 1050 c S
875 991.668 m 758.332 991.668 816.668 933.332 700 933.332 c S
991.668 875 m 991.668 991.668 933.332 933.332 933.332 1050 c S
875 758.332 m 991.668 758.332 933.332 816.668 1050 816.668 c S
758.332 875 m 758.332 758.332 816.668 816.668 816.668 700 c S
875 641.668 m 758.332 641.668 816.668 583.332 700 583.332 c S
991.668 525 m 991.668 641.668 933.332 583.332 933.332 700 c S
875 408.332 m 991.668 408.332 933.332 466.668 1050 466.668 c S
758.332 525 m 758.332 408.332 816.668 466.668 816.668 350 c S
875 291.668 m 758.332 291.668 816.668 233.332 700 233.332 c S
991.668 175 m 991.668 291.668 933.332 233.332 933.332 350 c S
875 58.332 m 991.668 58.332 933.332 116.668 1050 116.668 c S
758.332 175 m 758.332 58.332 816.668 116.668 816.668 0 c S
1225 1691.668 m 1108.332 1691.668 1166.668 1633.332 1050 1633.332 c S
1341.668 1575 m 1341.668 1691.668 1283.332 1633.332 1283.332 1750 c S
1225 1458.332 m 1341.668 1458.332 1283.332 1516.668 1400 1516.668 c S
1108.332 1575 m 1108.332 1458.332 1166.668 1516.668 1166.668 1400 c S
1225 1341.668 m 1108.332 1341.668 1166.668 1283.332 1050 1283.332 c S
1341.668 1225 m 1341.668 1341.668 1283.332 1283.332 1283.332 1400 c S
1225 1108.332 m 1341.668 1108.332 1283.332 1166.668 1400 1166.668 c S
1108.332 1225 m 1108.332 1108.332 1166.668 1166.668 1166.668 1050 c S
1225 991.668 m 1108.332 991.668 1166.668 933.332 1050 933.332 c S
1341.668 875 m 1341.668 991.668 1283.332 933.332 1283.332 1050 c S
1225 758.332 m 1341.668 758.332 1283.332 816.668 1400 816.668 c S
1108.332 875 m 1108.332 758.332 1166.668 816.668 1166.668 700 c S
1225 641.668 m 1108.332 641.668 1166.668 583.332 1050 583.332 c S
1341.668 525 m 1341.668 641.668 1283.332 583.332 1283.332 700 c S
1225 408.332 m 1341.668 408.332 1283.332 466.668 1400 466.668 c S
1108.332 525 m 1108.332 408.332 1166.668 466.668 1166.668 350 c S
1225 291.668 m 1108.332 291.668 1166.668 233.332 1050 233.332 c S
1341.668 175 m 1341.668 291.668 1283.332 233.332 1283.332 350 c S
1225 58.332 m 1341.668 58.332 1283.332 116.668 1400 116.668 c S
1108.332 175 m 1108.332 58.332 1166.668 116.668 1166.668 0 c S
1575 1691.668 m 1458.332 1691.668 1516.668 1633.332 1400 1633.332 c S
1691.668 1575 m 1691.668 1691.668 1633.332 1633.332 1633.332 1750 c S
1575 1458.332 m 1691.668 1458.332 1633.332 1516.668 1750 1516.668 c S
1458.332 1575 m 1458.332 1458.332 1516.668 1516.668 1516.668 1400 c S
1575 1341.668 m 1458.332 1341.668 1516.668 1283.332 1400 1283.332 c S
1691.668 1225 m 1691.668 1341.668 1633.332 1283.332 1633.332 1400 c S
1575 1108.332 m 1691.668 1108.332 1633.332 1166.668 1750 1166.668 c S
1458.332 1225 m 1458.332 1108.332 1516.668 1166.668 1516.668 1050 c S
1575 991.668 m 1458.332 991.668 1516.668 933.332 1400 933.332 c S
1691.668 875 m 1691.668 991.668 1633.332 933.332 1633.332 1050 c S
1575 758.332 m 1691.668 758.332 1633.332 816.668 1750 816.668 c S
1458.332 875 m 1458.332 758.332 1516.668 816.668 1516.668 700 c S
1575 641.668 m 1458.332 641.668 1516.668 583.332 1400 583.332 c S
1691.668 525 m 1691.668 641.668 1633.332 583.332 1633.332 700 c S
1575 408.332 m 1691.668 408.332 1633.332 466.668 1750 466.668 c S
1458.332 525 m 1458.332 408.332 1516.668 466.668 1516.668 350 c S
1575 291.668 m 1458.332 291.668 1516.668 233.332 1400 233.332 c S
1691.668 175 m 1691.668 291.668 1633.332 233.332 1633.332 350 c S
1575 58.332 m 1691.668 58.332 1633.332 116.668 1750 116.668 c S
1458.332 175 m 1458.332 58.332 1516.668 116.668 1516.668 0 c S
1925 1691.668 m 1808.332 1691.668 1866.668 1633.332 1750 1633.332 c S
2041.668 1575 m 2041.668 1691.668 1983.332 1633.332 1983.332 1750 c S
1925 1458.332 m 2041.668 1458.332 1983.332 1516.668 2100 1516.668 c S
1808.332 1575 m 1808.332 1458.332 1866.668 1516.668 1866.668 1400 c S
1925 1341.668 m 1808.332 1341.668 1866.668 1283.332 1750 1283.332 c S
2041.668 1225 m 2041.668 1341.668 1983.332 1283.332 1983.332 1400 c S
1925 1108.332 m 2041.668 1108.332 1983.332 1166.668 2100 1166.668 c S
1808.332 1225 m 1808.332 1108.332 1866.668 1166.668 1866.668 1050 c S
1925 991.668 m 1808.332 991.668 1866.668 933.332 1750 933.332 c S
2041.668 875 m 2041.668 991.668 1983.332 933.332 1983.332 1050 c S
1925 758.332 m 2041.668 758.332 1983.332 816.668 2100 816.668 c S
1808.332 875 m 1808.332 758.332 1866.668 816.668 1866.668 700 c S
1925 641.668 m 1808.332 641.668 1866.668 583.332 1750 583.332 c S
2041.668 525 m 2041.668 641.668 1983.332 583.332 1983.332 700 c S
1925 408.332 m 2041.668 408.332 1983.332 466.668 2100 466.668 c S
1808.332 525 m 1808.332 408.332 1866.668 466.668 1866.668 350 c S
1925 291.668 m 1808.332 291.668 1866.668 233.332 1750 233.332 c S
2041.668 175 m 2041.668 291.668 1983.332 233.332 1983.332 350 c S
1925 58.332 m 2041.668 58.332 1983.332 116.668 2100 116.668 c S
1808.332 175 m 1808.332 58.332 1866.668 116.668 1866.668 0 c S
2275 1691.668 m 2158.332 1691.668 2216.668 1633.332 2100 1633.332 c S
2391.668 1575 m 2391.668 1691.668 2333.332 1633.332 2333.332 1750 c S
2275 1458.332 m 2391.668 1458.332 2333.332 1516.668 2450 1516.668 c S
2158.332 1575 m 2158.332 1458.332 2216.668 1516.668 2216.668 1400 c S
2275 1341.668 m 2158.332 1341.668 2216.668 1283.332 2100 1283.332 c S
2391.668 1225 m 2391.668 1341.668 2333.332 1283.332 2333.332 1400 c S
2275 1108.332 m 2391.668 1108.332 2333.332 1166.668 2450 1166.668 c S
2158.332 1225 m 2158.332 1108.332 2216.668 1166.668 2216.668 1050 c S
2275 991.668 m 2158.332 991.668 2216.668 933.332 2100 933.332 c S
2391.668 875 m 2391.668 991.668 2333.332 933.332 2333.332 1050 c S
2275 758.332 m 2391.668 758.332 2333.332 816.668 2450 816.668 c S
2158.332 875 m 2158.332 758.332 2216.668 816.668 2216.668 700 c S
2275 641.668 m 2158.332 641.668 2216.668 583.332 2100 583.332 c S
2391.668 525 m 2391.668 641.668 2333.332 583.332 2333.332 700 c S
2275 408.332 m 2391.668 408.332 2333.332 466.668 2450 466.668 c S
2158.332 525 m 2158.332 408.332 2216.668 466.668 2216.668 350 c S
2275 291.668 m 2158.332 291.668 2216.668 233.332 2100 233.332 c S
2391.668 175 m 2391.668 291.668 2333.332 233.332 2333.332 350 c S
2275 58.332 m 2391.668 58.332 2333.332 116.668 2450 116.668 c S
2158.332 175 m 2158.332 58.332 2216.668 116.668 2216.668 0 c S
Q Q
showpage
%%Trailer
%%Trailer
cleartomark
countdictstack
exch sub { end } repeat
restore
%%EOF
