%!PS-Adobe-2.0 EPSF-2.0
%%BoundingBox: 0 0 2450 1750
%%HiResBoundingBox: 0.000000 0.000000 2450.000000 1750.000000
%%Creator: cairo 1.14.2 (http://cairographics.org)
%%CreationDate: Mon Sep  7 08:22:00 2015
%%DocumentData: Clean7Bit
%%LanguageLevel: 2
%%DocumentMedia: 864x617mm 2450 1750 0 () ()
%%EndComments
% EPSF created by ps2eps 1.68
%%BeginProlog
save
countdictstack
mark
newpath
/showpage {} def
/setpagedevice {pop} def
%%EndProlog
%%Page 1 1
%%BeginProlog
/languagelevel where
{ pop languagelevel } { 1 } ifelse
2 lt { /Helvetica findfont 12 scalefont setfont 50 500 moveto
  (This print job requires a PostScript Language Level 2 printer.) show
  showpage quit } if
/q { gsave } bind def
/Q { grestore } bind def
/cm { 6 array astore concat } bind def
/w { setlinewidth } bind def
/J { setlinecap } bind def
/j { setlinejoin } bind def
/M { setmiterlimit } bind def
/d { setdash } bind def
/m { moveto } bind def
/l { lineto } bind def
/c { curveto } bind def
/h { closepath } bind def
/re { exch dup neg 3 1 roll 5 3 roll moveto 0 rlineto
      0 exch rlineto 0 rlineto closepath } bind def
/S { stroke } bind def
/f { fill } bind def
/f* { eofill } bind def
/n { newpath } bind def
/W { clip } bind def
/W* { eoclip } bind def
/BT { } bind def
/ET { } bind def
/pdfmark where { pop globaldict /?pdfmark /exec load put }
    { globaldict begin /?pdfmark /pop load def /pdfmark
    /cleartomark load def end } ifelse
/BDC { mark 3 1 roll /BDC pdfmark } bind def
/EMC { mark /EMC pdfmark } bind def
/cairo_store_point { /cairo_point_y exch def /cairo_point_x exch def } def
/Tj { show currentpoint cairo_store_point } bind def
/TJ {
  {
    dup
    type /stringtype eq
    { show } { -0.001 mul 0 cairo_font_matrix dtransform rmoveto } ifelse
  } forall
  currentpoint cairo_store_point
} bind def
/cairo_selectfont { cairo_font_matrix aload pop pop pop 0 0 6 array astore
    cairo_font exch selectfont cairo_point_x cairo_point_y moveto } bind def
/Tf { pop /cairo_font exch def /cairo_font_matrix where
      { pop cairo_selectfont } if } bind def
/Td { matrix translate cairo_font_matrix matrix concatmatrix dup
      /cairo_font_matrix exch def dup 4 get exch 5 get cairo_store_point
      /cairo_font where { pop cairo_selectfont } if } bind def
/Tm { 2 copy 8 2 roll 6 array astore /cairo_font_matrix exch def
      cairo_store_point /cairo_font where { pop cairo_selectfont } if } bind def
/g { setgray } bind def
/rg { setrgbcolor } bind def
/d1 { setcachedevice } bind def
/cairo_set_page_size {
  % Change paper size, but only if different from previous paper size otherwise
  % duplex fails. PLRM specifies a tolerance of 5 pts when matching paper size
  % so we use the same when checking if the size changes.
  /setpagedevice where {
    pop currentpagedevice
    /PageSize known {
      2 copy
      currentpagedevice /PageSize get aload pop
      exch 4 1 roll
      sub abs 5 gt
      3 1 roll
      sub abs 5 gt
      or
    } {
      true
    } ifelse
    {
      2 array astore
      2 dict begin
        /PageSize exch def
        /ImagingBBox null def
      currentdict end
      setpagedevice
    } {
      pop pop
    } ifelse
  } {
    pop
  } ifelse
} def
%%EndProlog
%%BeginSetup
%%EndSetup
%%Page: 1 1
%%BeginPageSetup
%%PageMedia: 864x617mm
%%PageBoundingBox: 0 0 2450 1750
2450 1750 cairo_set_page_size
%%EndPageSetup
q 0 0 2450 1750 rectclip q
0.984314 g
0 0 2450 1750 rectfill
0.788235 g
1.875 w
0 J
1 j
[] 0.0 d
4 M 0 1750 2450 -1750 re S
0 g
2.5 w
1 J
87.5 1662.5 m 145.832 1662.5 175 1633.332 175 1575 c S
262.5 1662.5 m 262.5 1604.168 233.332 1575 175 1575 c S
262.5 1487.5 m 204.168 1487.5 175 1516.668 175 1575 c S
87.5 1487.5 m 87.5 1545.832 116.668 1575 175 1575 c S
262.5 1487.5 m 262.5 1545.832 233.332 1575 175 1575 c S
87.5 1662.5 m 87.5 1604.168 116.668 1575 175 1575 c S
87.5 1487.5 m 145.832 1487.5 175 1516.668 175 1575 c S
262.5 1662.5 m 204.168 1662.5 175 1633.332 175 1575 c S
87.5 1312.5 m 145.832 1312.5 175 1283.332 175 1225 c S
262.5 1312.5 m 262.5 1254.168 233.332 1225 175 1225 c S
262.5 1137.5 m 204.168 1137.5 175 1166.668 175 1225 c S
87.5 1137.5 m 87.5 1195.832 116.668 1225 175 1225 c S
262.5 1137.5 m 262.5 1195.832 233.332 1225 175 1225 c S
87.5 1312.5 m 87.5 1254.168 116.668 1225 175 1225 c S
87.5 1137.5 m 145.832 1137.5 175 1166.668 175 1225 c S
262.5 1312.5 m 204.168 1312.5 175 1283.332 175 1225 c S
87.5 962.5 m 145.832 962.5 175 933.332 175 875 c S
262.5 962.5 m 262.5 904.168 233.332 875 175 875 c S
262.5 787.5 m 204.168 787.5 175 816.668 175 875 c S
87.5 787.5 m 87.5 845.832 116.668 875 175 875 c S
262.5 787.5 m 262.5 845.832 233.332 875 175 875 c S
87.5 962.5 m 87.5 904.168 116.668 875 175 875 c S
87.5 787.5 m 145.832 787.5 175 816.668 175 875 c S
262.5 962.5 m 204.168 962.5 175 933.332 175 875 c S
87.5 612.5 m 145.832 612.5 175 583.332 175 525 c S
262.5 612.5 m 262.5 554.168 233.332 525 175 525 c S
262.5 437.5 m 204.168 437.5 175 466.668 175 525 c S
87.5 437.5 m 87.5 495.832 116.668 525 175 525 c S
262.5 437.5 m 262.5 495.832 233.332 525 175 525 c S
87.5 612.5 m 87.5 554.168 116.668 525 175 525 c S
87.5 437.5 m 145.832 437.5 175 466.668 175 525 c S
262.5 612.5 m 204.168 612.5 175 583.332 175 525 c S
87.5 262.5 m 145.832 262.5 175 233.332 175 175 c S
262.5 262.5 m 262.5 204.168 233.332 175 175 175 c S
262.5 87.5 m 204.168 87.5 175 116.668 175 175 c S
87.5 87.5 m 87.5 145.832 116.668 175 175 175 c S
262.5 87.5 m 262.5 145.832 233.332 175 175 175 c S
87.5 262.5 m 87.5 204.168 116.668 175 175 175 c S
87.5 87.5 m 145.832 87.5 175 116.668 175 175 c S
262.5 262.5 m 204.168 262.5 175 233.332 175 175 c S
437.5 1662.5 m 495.832 1662.5 525 1633.332 525 1575 c S
612.5 1662.5 m 612.5 1604.168 583.332 1575 525 1575 c S
612.5 1487.5 m 554.168 1487.5 525 1516.668 525 1575 c S
437.5 1487.5 m 437.5 1545.832 466.668 1575 525 1575 c S
612.5 1487.5 m 612.5 1545.832 583.332 1575 525 1575 c S
437.5 1662.5 m 437.5 1604.168 466.668 1575 525 1575 c S
437.5 1487.5 m 495.832 1487.5 525 1516.668 525 1575 c S
612.5 1662.5 m 554.168 1662.5 525 1633.332 525 1575 c S
437.5 1312.5 m 495.832 1312.5 525 1283.332 525 1225 c S
612.5 1312.5 m 612.5 1254.168 583.332 1225 525 1225 c S
612.5 1137.5 m 554.168 1137.5 525 1166.668 525 1225 c S
437.5 1137.5 m 437.5 1195.832 466.668 1225 525 1225 c S
612.5 1137.5 m 612.5 1195.832 583.332 1225 525 1225 c S
437.5 1312.5 m 437.5 1254.168 466.668 1225 525 1225 c S
437.5 1137.5 m 495.832 1137.5 525 1166.668 525 1225 c S
612.5 1312.5 m 554.168 1312.5 525 1283.332 525 1225 c S
437.5 962.5 m 495.832 962.5 525 933.332 525 875 c S
612.5 962.5 m 612.5 904.168 583.332 875 525 875 c S
612.5 787.5 m 554.168 787.5 525 816.668 525 875 c S
437.5 787.5 m 437.5 845.832 466.668 875 525 875 c S
612.5 787.5 m 612.5 845.832 583.332 875 525 875 c S
437.5 962.5 m 437.5 904.168 466.668 875 525 875 c S
437.5 787.5 m 495.832 787.5 525 816.668 525 875 c S
612.5 962.5 m 554.168 962.5 525 933.332 525 875 c S
437.5 612.5 m 495.832 612.5 525 583.332 525 525 c S
612.5 612.5 m 612.5 554.168 583.332 525 525 525 c S
612.5 437.5 m 554.168 437.5 525 466.668 525 525 c S
437.5 437.5 m 437.5 495.832 466.668 525 525 525 c S
612.5 437.5 m 612.5 495.832 583.332 525 525 525 c S
437.5 612.5 m 437.5 554.168 466.668 525 525 525 c S
437.5 437.5 m 495.832 437.5 525 466.668 525 525 c S
612.5 612.5 m 554.168 612.5 525 583.332 525 525 c S
437.5 262.5 m 495.832 262.5 525 233.332 525 175 c S
612.5 262.5 m 612.5 204.168 583.332 175 525 175 c S
612.5 87.5 m 554.168 87.5 525 116.668 525 175 c S
437.5 87.5 m 437.5 145.832 466.668 175 525 175 c S
612.5 87.5 m 612.5 145.832 583.332 175 525 175 c S
437.5 262.5 m 437.5 204.168 466.668 175 525 175 c S
437.5 87.5 m 495.832 87.5 525 116.668 525 175 c S
612.5 262.5 m 554.168 262.5 525 233.332 525 175 c S
787.5 1662.5 m 845.832 1662.5 875 1633.332 875 1575 c S
962.5 1662.5 m 962.5 1604.168 933.332 1575 875 1575 c S
962.5 1487.5 m 904.168 1487.5 875 1516.668 875 1575 c S
787.5 1487.5 m 787.5 1545.832 816.668 1575 875 1575 c S
962.5 1487.5 m 962.5 1545.832 933.332 1575 875 1575 c S
787.5 1662.5 m 787.5 1604.168 816.668 1575 875 1575 c S
787.5 1487.5 m 845.832 1487.5 875 1516.668 875 1575 c S
962.5 1662.5 m 904.168 1662.5 875 1633.332 875 1575 c S
787.5 1312.5 m 845.832 1312.5 875 1283.332 875 1225 c S
962.5 1312.5 m 962.5 1254.168 933.332 1225 875 1225 c S
962.5 1137.5 m 904.168 1137.5 875 1166.668 875 1225 c S
787.5 1137.5 m 787.5 1195.832 816.668 1225 875 1225 c S
962.5 1137.5 m 962.5 1195.832 933.332 1225 875 1225 c S
787.5 1312.5 m 787.5 1254.168 816.668 1225 875 1225 c S
787.5 1137.5 m 845.832 1137.5 875 1166.668 875 1225 c S
962.5 1312.5 m 904.168 1312.5 875 1283.332 875 1225 c S
787.5 962.5 m 845.832 962.5 875 933.332 875 875 c S
962.5 962.5 m 962.5 904.168 933.332 875 875 875 c S
962.5 787.5 m 904.168 787.5 875 816.668 875 875 c S
787.5 787.5 m 787.5 845.832 816.668 875 875 875 c S
962.5 787.5 m 962.5 845.832 933.332 875 875 875 c S
787.5 962.5 m 787.5 904.168 816.668 875 875 875 c S
787.5 787.5 m 845.832 787.5 875 816.668 875 875 c S
962.5 962.5 m 904.168 962.5 875 933.332 875 875 c S
787.5 612.5 m 845.832 612.5 875 583.332 875 525 c S
962.5 612.5 m 962.5 554.168 933.332 525 875 525 c S
962.5 437.5 m 904.168 437.5 875 466.668 875 525 c S
787.5 437.5 m 787.5 495.832 816.668 525 875 525 c S
962.5 437.5 m 962.5 495.832 933.332 525 875 525 c S
787.5 612.5 m 787.5 554.168 816.668 525 875 525 c S
787.5 437.5 m 845.832 437.5 875 466.668 875 525 c S
962.5 612.5 m 904.168 612.5 875 583.332 875 525 c S
787.5 262.5 m 845.832 262.5 875 233.332 875 175 c S
962.5 262.5 m 962.5 204.168 933.332 175 875 175 c S
962.5 87.5 m 904.168 87.5 875 116.668 875 175 c S
787.5 87.5 m 787.5 145.832 816.668 175 875 175 c S
962.5 87.5 m 962.5 145.832 933.332 175 875 175 c S
787.5 262.5 m 787.5 204.168 816.668 175 875 175 c S
787.5 87.5 m 845.832 87.5 875 116.668 875 175 c S
962.5 262.5 m 904.168 262.5 875 233.332 875 175 c S
1137.5 1662.5 m 1195.832 1662.5 1225 1633.332 1225 1575 c S
1312.5 1662.5 m 1312.5 1604.168 1283.332 1575 1225 1575 c S
1312.5 1487.5 m 1254.168 1487.5 1225 1516.668 1225 1575 c S
1137.5 1487.5 m 1137.5 1545.832 1166.668 1575 1225 1575 c S
1312.5 1487.5 m 1312.5 1545.832 1283.332 1575 1225 1575 c S
1137.5 1662.5 m 1137.5 1604.168 1166.668 1575 1225 1575 c S
1137.5 1487.5 m 1195.832 1487.5 1225 1516.668 1225 1575 c S
1312.5 1662.5 m 1254.168 1662.5 1225 1633.332 1225 1575 c S
1137.5 1312.5 m 1195.832 1312.5 1225 1283.332 1225 1225 c S
1312.5 1312.5 m 1312.5 1254.168 1283.332 1225 1225 1225 c S
1312.5 1137.5 m 1254.168 1137.5 1225 1166.668 1225 1225 c S
1137.5 1137.5 m 1137.5 1195.832 1166.668 1225 1225 1225 c S
1312.5 1137.5 m 1312.5 1195.832 1283.332 1225 1225 1225 c S
1137.5 1312.5 m 1137.5 1254.168 1166.668 1225 1225 1225 c S
1137.5 1137.5 m 1195.832 1137.5 1225 1166.668 1225 1225 c S
1312.5 1312.5 m 1254.168 1312.5 1225 1283.332 1225 1225 c S
1137.5 962.5 m 1195.832 962.5 1225 933.332 1225 875 c S
1312.5 962.5 m 1312.5 904.168 1283.332 875 1225 875 c S
1312.5 787.5 m 1254.168 787.5 1225 816.668 1225 875 c S
1137.5 787.5 m 1137.5 845.832 1166.668 875 1225 875 c S
1312.5 787.5 m 1312.5 845.832 1283.332 875 1225 875 c S
1137.5 962.5 m 1137.5 904.168 1166.668 875 1225 875 c S
1137.5 787.5 m 1195.832 787.5 1225 816.668 1225 875 c S
1312.5 962.5 m 1254.168 962.5 1225 933.332 1225 875 c S
1137.5 612.5 m 1195.832 612.5 1225 583.332 1225 525 c S
1312.5 612.5 m 1312.5 554.168 1283.332 525 1225 525 c S
1312.5 437.5 m 1254.168 437.5 1225 466.668 1225 525 c S
1137.5 437.5 m 1137.5 495.832 1166.668 525 1225 525 c S
1312.5 437.5 m 1312.5 495.832 1283.332 525 1225 525 c S
1137.5 612.5 m 1137.5 554.168 1166.668 525 1225 525 c S
1137.5 437.5 m 1195.832 437.5 1225 466.668 1225 525 c S
1312.5 612.5 m 1254.168 612.5 1225 583.332 1225 525 c S
1137.5 262.5 m 1195.832 262.5 1225 233.332 1225 175 c S
1312.5 262.5 m 1312.5 204.168 1283.332 175 1225 175 c S
1312.5 87.5 m 1254.168 87.5 1225 116.668 1225 175 c S
1137.5 87.5 m 1137.5 145.832 1166.668 175 1225 175 c S
1312.5 87.5 m 1312.5 145.832 1283.332 175 1225 175 c S
1137.5 262.5 m 1137.5 204.168 1166.668 175 1225 175 c S
1137.5 87.5 m 1195.832 87.5 1225 116.668 1225 175 c S
1312.5 262.5 m 1254.168 262.5 1225 233.332 1225 175 c S
1487.5 1662.5 m 1545.832 1662.5 1575 1633.332 1575 1575 c S
1662.5 1662.5 m 1662.5 1604.168 1633.332 1575 1575 1575 c S
1662.5 1487.5 m 1604.168 1487.5 1575 1516.668 1575 1575 c S
1487.5 1487.5 m 1487.5 1545.832 1516.668 1575 1575 1575 c S
1662.5 1487.5 m 1662.5 1545.832 1633.332 1575 1575 1575 c S
1487.5 1662.5 m 1487.5 1604.168 1516.668 1575 1575 1575 c S
1487.5 1487.5 m 1545.832 1487.5 1575 1516.668 1575 1575 c S
1662.5 1662.5 m 1604.168 1662.5 1575 1633.332 1575 1575 c S
1487.5 1312.5 m 1545.832 1312.5 1575 1283.332 1575 1225 c S
1662.5 1312.5 m 1662.5 1254.168 1633.332 1225 1575 1225 c S
1662.5 1137.5 m 1604.168 1137.5 1575 1166.668 1575 1225 c S
1487.5 1137.5 m 1487.5 1195.832 1516.668 1225 1575 1225 c S
1662.5 1137.5 m 1662.5 1195.832 1633.332 1225 1575 1225 c S
1487.5 1312.5 m 1487.5 1254.168 1516.668 1225 1575 1225 c S
1487.5 1137.5 m 1545.832 1137.5 1575 1166.668 1575 1225 c S
1662.5 1312.5 m 1604.168 1312.5 1575 1283.332 1575 1225 c S
1487.5 962.5 m 1545.832 962.5 1575 933.332 1575 875 c S
1662.5 962.5 m 1662.5 904.168 1633.332 875 1575 875 c S
1662.5 787.5 m 1604.168 787.5 1575 816.668 1575 875 c S
1487.5 787.5 m 1487.5 845.832 1516.668 875 1575 875 c S
1662.5 787.5 m 1662.5 845.832 1633.332 875 1575 875 c S
1487.5 962.5 m 1487.5 904.168 1516.668 875 1575 875 c S
1487.5 787.5 m 1545.832 787.5 1575 816.668 1575 875 c S
1662.5 962.5 m 1604.168 962.5 1575 933.332 1575 875 c S
1487.5 612.5 m 1545.832 612.5 1575 583.332 1575 525 c S
1662.5 612.5 m 1662.5 554.168 1633.332 525 1575 525 c S
1662.5 437.5 m 1604.168 437.5 1575 466.668 1575 525 c S
1487.5 437.5 m 1487.5 495.832 1516.668 525 1575 525 c S
1662.5 437.5 m 1662.5 495.832 1633.332 525 1575 525 c S
1487.5 612.5 m 1487.5 554.168 1516.668 525 1575 525 c S
1487.5 437.5 m 1545.832 437.5 1575 466.668 1575 525 c S
1662.5 612.5 m 1604.168 612.5 1575 583.332 1575 525 c S
1487.5 262.5 m 1545.832 262.5 1575 233.332 1575 175 c S
1662.5 262.5 m 1662.5 204.168 1633.332 175 1575 175 c S
1662.5 87.5 m 1604.168 87.5 1575 116.668 1575 175 c S
1487.5 87.5 m 1487.5 145.832 1516.668 175 1575 175 c S
1662.5 87.5 m 1662.5 145.832 1633.332 175 1575 175 c S
1487.5 262.5 m 1487.5 204.168 1516.668 175 1575 175 c S
1487.5 87.5 m 1545.832 87.5 1575 116.668 1575 175 c S
1662.5 262.5 m 1604.168 262.5 1575 233.332 1575 175 c S
1837.5 1662.5 m 1895.832 1662.5 1925 1633.332 1925 1575 c S
2012.5 1662.5 m 2012.5 1604.168 1983.332 1575 1925 1575 c S
2012.5 1487.5 m 1954.168 1487.5 1925 1516.668 1925 1575 c S
1837.5 1487.5 m 1837.5 1545.832 1866.668 1575 1925 1575 c S
2012.5 1487.5 m 2012.5 1545.832 1983.332 1575 1925 1575 c S
1837.5 1662.5 m 1837.5 1604.168 1866.668 1575 1925 1575 c S
1837.5 1487.5 m 1895.832 1487.5 1925 1516.668 1925 1575 c S
2012.5 1662.5 m 1954.168 1662.5 1925 1633.332 1925 1575 c S
1837.5 1312.5 m 1895.832 1312.5 1925 1283.332 1925 1225 c S
2012.5 1312.5 m 2012.5 1254.168 1983.332 1225 1925 1225 c S
2012.5 1137.5 m 1954.168 1137.5 1925 1166.668 1925 1225 c S
1837.5 1137.5 m 1837.5 1195.832 1866.668 1225 1925 1225 c S
2012.5 1137.5 m 2012.5 1195.832 1983.332 1225 1925 1225 c S
1837.5 1312.5 m 1837.5 1254.168 1866.668 1225 1925 1225 c S
1837.5 1137.5 m 1895.832 1137.5 1925 1166.668 1925 1225 c S
2012.5 1312.5 m 1954.168 1312.5 1925 1283.332 1925 1225 c S
1837.5 962.5 m 1895.832 962.5 1925 933.332 1925 875 c S
2012.5 962.5 m 2012.5 904.168 1983.332 875 1925 875 c S
2012.5 787.5 m 1954.168 787.5 1925 816.668 1925 875 c S
1837.5 787.5 m 1837.5 845.832 1866.668 875 1925 875 c S
2012.5 787.5 m 2012.5 845.832 1983.332 875 1925 875 c S
1837.5 962.5 m 1837.5 904.168 1866.668 875 1925 875 c S
1837.5 787.5 m 1895.832 787.5 1925 816.668 1925 875 c S
2012.5 962.5 m 1954.168 962.5 1925 933.332 1925 875 c S
1837.5 612.5 m 1895.832 612.5 1925 583.332 1925 525 c S
2012.5 612.5 m 2012.5 554.168 1983.332 525 1925 525 c S
2012.5 437.5 m 1954.168 437.5 1925 466.668 1925 525 c S
1837.5 437.5 m 1837.5 495.832 1866.668 525 1925 525 c S
2012.5 437.5 m 2012.5 495.832 1983.332 525 1925 525 c S
1837.5 612.5 m 1837.5 554.168 1866.668 525 1925 525 c S
1837.5 437.5 m 1895.832 437.5 1925 466.668 1925 525 c S
2012.5 612.5 m 1954.168 612.5 1925 583.332 1925 525 c S
1837.5 262.5 m 1895.832 262.5 1925 233.332 1925 175 c S
2012.5 262.5 m 2012.5 204.168 1983.332 175 1925 175 c S
2012.5 87.5 m 1954.168 87.5 1925 116.668 1925 175 c S
1837.5 87.5 m 1837.5 145.832 1866.668 175 1925 175 c S
2012.5 87.5 m 2012.5 145.832 1983.332 175 1925 175 c S
1837.5 262.5 m 1837.5 204.168 1866.668 175 1925 175 c S
1837.5 87.5 m 1895.832 87.5 1925 116.668 1925 175 c S
2012.5 262.5 m 1954.168 262.5 1925 233.332 1925 175 c S
2187.5 1662.5 m 2245.832 1662.5 2275 1633.332 2275 1575 c S
2362.5 1662.5 m 2362.5 1604.168 2333.332 1575 2275 1575 c S
2362.5 1487.5 m 2304.168 1487.5 2275 1516.668 2275 1575 c S
2187.5 1487.5 m 2187.5 1545.832 2216.668 1575 2275 1575 c S
2362.5 1487.5 m 2362.5 1545.832 2333.332 1575 2275 1575 c S
2187.5 1662.5 m 2187.5 1604.168 2216.668 1575 2275 1575 c S
2187.5 1487.5 m 2245.832 1487.5 2275 1516.668 2275 1575 c S
2362.5 1662.5 m 2304.168 1662.5 2275 1633.332 2275 1575 c S
2187.5 1312.5 m 2245.832 1312.5 2275 1283.332 2275 1225 c S
2362.5 1312.5 m 2362.5 1254.168 2333.332 1225 2275 1225 c S
2362.5 1137.5 m 2304.168 1137.5 2275 1166.668 2275 1225 c S
2187.5 1137.5 m 2187.5 1195.832 2216.668 1225 2275 1225 c S
2362.5 1137.5 m 2362.5 1195.832 2333.332 1225 2275 1225 c S
2187.5 1312.5 m 2187.5 1254.168 2216.668 1225 2275 1225 c S
2187.5 1137.5 m 2245.832 1137.5 2275 1166.668 2275 1225 c S
2362.5 1312.5 m 2304.168 1312.5 2275 1283.332 2275 1225 c S
2187.5 962.5 m 2245.832 962.5 2275 933.332 2275 875 c S
2362.5 962.5 m 2362.5 904.168 2333.332 875 2275 875 c S
2362.5 787.5 m 2304.168 787.5 2275 816.668 2275 875 c S
2187.5 787.5 m 2187.5 845.832 2216.668 875 2275 875 c S
2362.5 787.5 m 2362.5 845.832 2333.332 875 2275 875 c S
2187.5 962.5 m 2187.5 904.168 2216.668 875 2275 875 c S
2187.5 787.5 m 2245.832 787.5 2275 816.668 2275 875 c S
2362.5 962.5 m 2304.168 962.5 2275 933.332 2275 875 c S
2187.5 612.5 m 2245.832 612.5 2275 583.332 2275 525 c S
2362.5 612.5 m 2362.5 554.168 2333.332 525 2275 525 c S
2362.5 437.5 m 2304.168 437.5 2275 466.668 2275 525 c S
2187.5 437.5 m 2187.5 495.832 2216.668 525 2275 525 c S
2362.5 437.5 m 2362.5 495.832 2333.332 525 2275 525 c S
2187.5 612.5 m 2187.5 554.168 2216.668 525 2275 525 c S
2187.5 437.5 m 2245.832 437.5 2275 466.668 2275 525 c S
2362.5 612.5 m 2304.168 612.5 2275 583.332 2275 525 c S
2187.5 262.5 m 2245.832 262.5 2275 233.332 2275 175 c S
2362.5 262.5 m 2362.5 204.168 2333.332 175 2275 175 c S
2362.5 87.5 m 2304.168 87.5 2275 116.668 2275 175 c S
2187.5 87.5 m 2187.5 145.832 2216.668 175 2275 175 c S
2362.5 87.5 m 2362.5 145.832 2333.332 175 2275 175 c S
2187.5 262.5 m 2187.5 204.168 2216.668 175 2275 175 c S
2187.5 87.5 m 2245.832 87.5 2275 116.668 2275 175 c S
2362.5 262.5 m 2304.168 262.5 2275 233.332 2275 175 c S
Q Q
showpage
%%Trailer
%%Trailer
cleartomark
countdictstack
exch sub { end } repeat
restore
%%EOF
