<svg xmlns="http://www.w3.org/2000/svg" baseProfile="full" width="2450" height="1750" viewBox="-175.0 -175.0 2450.0 1750.0">
    <title>
        Pattern design from http://ornamentist.org
    </title>
    <desc>
        This file is licensed under a Creative Commons CC BY 4.0 license: http://creativecommons.org/licenses/by/4.0/
    </desc>
    <defs>
        <style>
<![CDATA[
        
polyline {
  fill:            none;
  stroke:          black;
  stroke-linecap:  round;
  stroke-linejoin: round;
  stroke-width:    2.0pt;
}


polyline.closed {
  fill:      #d9d9d9;
  fill-rule: evenodd;
}


polygon {
  fill:            #d9d9d9;
  fill-rule:       evenodd;
  stroke:          black;
  stroke-linejoin: round;
  stroke-width:    2.0pt;
}


circle {
  fill:         #d9d9d9;
  stroke:       black;
  stroke-width: 2.0pt;
}


ellipse {
  fill:         #d9d9d9;
  stroke:       black;
  stroke-width: 2.0pt;
}


path {
  fill:            none;
  stroke:          black;
  stroke-linecap:  round;
  stroke-linejoin: round;
  stroke-width:    2.0pt;
}


path.closed {
  fill:      #d9d9d9;
  fill-rule: evenodd;
}


polygon.background,
path.background
{
  fill:   #fbfbfb;
  stroke: #c9c9c9;
  stroke-width: 1.5pt;
}

        ]]>
        </style>
    </defs>
    <clipPath id="design">
        <path d="M-175-175h2450v1750H-175z"/>
    </clipPath>
    <g clip-path="url(#design)" color-rendering="optimizeQuality" shape-rendering="geometricPrecision" id="graphics">
        <path class="background closed" d="M2275-175v1750H-175V-175z"/>
        <path d="M-87.5-87.5Q0-87.5 0 0M87.5-87.5Q87.5 0 0 0M87.5 87.5Q0 87.5 0 0M-87.5 87.5Q-87.5 0 0 0M87.5 87.5Q87.5 0 0 0M-87.5-87.5Q-87.5 0 0 0M-87.5 87.5Q0 87.5 0 0M87.5-87.5Q0-87.5 0 0M-87.5 262.5Q0 262.5 0 350M87.5 262.5Q87.5 350 0 350M87.5 437.5Q0 437.5 0 350M-87.5 437.5Q-87.5 350 0 350M87.5 437.5Q87.5 350 0 350M-87.5 262.5Q-87.5 350 0 350M-87.5 437.5Q0 437.5 0 350M87.5 262.5Q0 262.5 0 350M-87.5 612.5Q0 612.5 0 700M87.5 612.5Q87.5 700 0 700M87.5 787.5Q0 787.5 0 700M-87.5 787.5Q-87.5 700 0 700M87.5 787.5Q87.5 700 0 700M-87.5 612.5Q-87.5 700 0 700M-87.5 787.5Q0 787.5 0 700M87.5 612.5Q0 612.5 0 700M-87.5 962.5Q0 962.5 0 1050M87.5 962.5q0 87.5-87.5 87.5M87.5 1137.5Q0 1137.5 0 1050M-87.5 1137.5q0-87.5 87.5-87.5M87.5 1137.5q0-87.5-87.5-87.5M-87.5 962.5q0 87.5 87.5 87.5M-87.5 1137.5Q0 1137.5 0 1050M87.5 962.5Q0 962.5 0 1050M-87.5 1312.5Q0 1312.5 0 1400M87.5 1312.5q0 87.5-87.5 87.5M87.5 1487.5Q0 1487.5 0 1400M-87.5 1487.5q0-87.5 87.5-87.5M87.5 1487.5q0-87.5-87.5-87.5M-87.5 1312.5q0 87.5 87.5 87.5M-87.5 1487.5Q0 1487.5 0 1400M87.5 1312.5Q0 1312.5 0 1400M262.5-87.5Q350-87.5 350 0M437.5-87.5Q437.5 0 350 0M437.5 87.5Q350 87.5 350 0M262.5 87.5Q262.5 0 350 0M437.5 87.5Q437.5 0 350 0M262.5-87.5Q262.5 0 350 0M262.5 87.5Q350 87.5 350 0M437.5-87.5Q350-87.5 350 0M262.5 262.5q87.5 0 87.5 87.5M437.5 262.5q0 87.5-87.5 87.5M437.5 437.5q-87.5 0-87.5-87.5M262.5 437.5q0-87.5 87.5-87.5M437.5 437.5q0-87.5-87.5-87.5M262.5 262.5q0 87.5 87.5 87.5M262.5 437.5q87.5 0 87.5-87.5M437.5 262.5q-87.5 0-87.5 87.5M262.5 612.5q87.5 0 87.5 87.5M437.5 612.5q0 87.5-87.5 87.5M437.5 787.5q-87.5 0-87.5-87.5M262.5 787.5q0-87.5 87.5-87.5M437.5 787.5q0-87.5-87.5-87.5M262.5 612.5q0 87.5 87.5 87.5M262.5 787.5q87.5 0 87.5-87.5M437.5 612.5q-87.5 0-87.5 87.5M262.5 962.5q87.5 0 87.5 87.5M437.5 962.5q0 87.5-87.5 87.5M437.5 1137.5q-87.5 0-87.5-87.5M262.5 1137.5q0-87.5 87.5-87.5M437.5 1137.5q0-87.5-87.5-87.5M262.5 962.5q0 87.5 87.5 87.5M262.5 1137.5q87.5 0 87.5-87.5M437.5 962.5q-87.5 0-87.5 87.5M262.5 1312.5q87.5 0 87.5 87.5M437.5 1312.5q0 87.5-87.5 87.5M437.5 1487.5q-87.5 0-87.5-87.5M262.5 1487.5q0-87.5 87.5-87.5M437.5 1487.5q0-87.5-87.5-87.5M262.5 1312.5q0 87.5 87.5 87.5M262.5 1487.5q87.5 0 87.5-87.5M437.5 1312.5q-87.5 0-87.5 87.5M612.5-87.5Q700-87.5 700 0M787.5-87.5Q787.5 0 700 0M787.5 87.5Q700 87.5 700 0M612.5 87.5Q612.5 0 700 0M787.5 87.5Q787.5 0 700 0M612.5-87.5Q612.5 0 700 0M612.5 87.5Q700 87.5 700 0M787.5-87.5Q700-87.5 700 0M612.5 262.5q87.5 0 87.5 87.5M787.5 262.5q0 87.5-87.5 87.5M787.5 437.5q-87.5 0-87.5-87.5M612.5 437.5q0-87.5 87.5-87.5M787.5 437.5q0-87.5-87.5-87.5M612.5 262.5q0 87.5 87.5 87.5M612.5 437.5q87.5 0 87.5-87.5M787.5 262.5q-87.5 0-87.5 87.5M612.5 612.5q87.5 0 87.5 87.5M787.5 612.5q0 87.5-87.5 87.5M787.5 787.5q-87.5 0-87.5-87.5M612.5 787.5q0-87.5 87.5-87.5M787.5 787.5q0-87.5-87.5-87.5M612.5 612.5q0 87.5 87.5 87.5M612.5 787.5q87.5 0 87.5-87.5M787.5 612.5q-87.5 0-87.5 87.5M612.5 962.5q87.5 0 87.5 87.5M787.5 962.5q0 87.5-87.5 87.5M787.5 1137.5q-87.5 0-87.5-87.5M612.5 1137.5q0-87.5 87.5-87.5M787.5 1137.5q0-87.5-87.5-87.5M612.5 962.5q0 87.5 87.5 87.5M612.5 1137.5q87.5 0 87.5-87.5M787.5 962.5q-87.5 0-87.5 87.5M612.5 1312.5q87.5 0 87.5 87.5M787.5 1312.5q0 87.5-87.5 87.5M787.5 1487.5q-87.5 0-87.5-87.5M612.5 1487.5q0-87.5 87.5-87.5M787.5 1487.5q0-87.5-87.5-87.5M612.5 1312.5q0 87.5 87.5 87.5M612.5 1487.5q87.5 0 87.5-87.5M787.5 1312.5q-87.5 0-87.5 87.5M962.5-87.5q87.5 0 87.5 87.5M1137.5-87.5Q1137.5 0 1050 0M1137.5 87.5Q1050 87.5 1050 0M962.5 87.5Q962.5 0 1050 0M1137.5 87.5Q1137.5 0 1050 0M962.5-87.5Q962.5 0 1050 0M962.5 87.5q87.5 0 87.5-87.5M1137.5-87.5Q1050-87.5 1050 0M962.5 262.5q87.5 0 87.5 87.5M1137.5 262.5q0 87.5-87.5 87.5M1137.5 437.5q-87.5 0-87.5-87.5M962.5 437.5q0-87.5 87.5-87.5M1137.5 437.5q0-87.5-87.5-87.5M962.5 262.5q0 87.5 87.5 87.5M962.5 437.5q87.5 0 87.5-87.5M1137.5 262.5q-87.5 0-87.5 87.5M962.5 612.5q87.5 0 87.5 87.5M1137.5 612.5q0 87.5-87.5 87.5M1137.5 787.5q-87.5 0-87.5-87.5M962.5 787.5q0-87.5 87.5-87.5M1137.5 787.5q0-87.5-87.5-87.5M962.5 612.5q0 87.5 87.5 87.5M962.5 787.5q87.5 0 87.5-87.5M1137.5 612.5q-87.5 0-87.5 87.5M962.5 962.5q87.5 0 87.5 87.5M1137.5 962.5q0 87.5-87.5 87.5M1137.5 1137.5q-87.5 0-87.5-87.5M962.5 1137.5q0-87.5 87.5-87.5M1137.5 1137.5q0-87.5-87.5-87.5M962.5 962.5q0 87.5 87.5 87.5M962.5 1137.5q87.5 0 87.5-87.5M1137.5 962.5q-87.5 0-87.5 87.5M962.5 1312.5q87.5 0 87.5 87.5M1137.5 1312.5q0 87.5-87.5 87.5M1137.5 1487.5q-87.5 0-87.5-87.5M962.5 1487.5q0-87.5 87.5-87.5M1137.5 1487.5q0-87.5-87.5-87.5M962.5 1312.5q0 87.5 87.5 87.5M962.5 1487.5q87.5 0 87.5-87.5M1137.5 1312.5q-87.5 0-87.5 87.5M1312.5-87.5q87.5 0 87.5 87.5M1487.5-87.5Q1487.5 0 1400 0M1487.5 87.5Q1400 87.5 1400 0M1312.5 87.5Q1312.5 0 1400 0M1487.5 87.5Q1487.5 0 1400 0M1312.5-87.5Q1312.5 0 1400 0M1312.5 87.5q87.5 0 87.5-87.5M1487.5-87.5Q1400-87.5 1400 0M1312.5 262.5q87.5 0 87.5 87.5M1487.5 262.5q0 87.5-87.5 87.5M1487.5 437.5q-87.5 0-87.5-87.5M1312.5 437.5q0-87.5 87.5-87.5M1487.5 437.5q0-87.5-87.5-87.5M1312.5 262.5q0 87.5 87.5 87.5M1312.5 437.5q87.5 0 87.5-87.5M1487.5 262.5q-87.5 0-87.5 87.5M1312.5 612.5q87.5 0 87.5 87.5M1487.5 612.5q0 87.5-87.5 87.5M1487.5 787.5q-87.5 0-87.5-87.5M1312.5 787.5q0-87.5 87.5-87.5M1487.5 787.5q0-87.5-87.5-87.5M1312.5 612.5q0 87.5 87.5 87.5M1312.5 787.5q87.5 0 87.5-87.5M1487.5 612.5q-87.5 0-87.5 87.5M1312.5 962.5q87.5 0 87.5 87.5M1487.5 962.5q0 87.5-87.5 87.5M1487.5 1137.5q-87.5 0-87.5-87.5M1312.5 1137.5q0-87.5 87.5-87.5M1487.5 1137.5q0-87.5-87.5-87.5M1312.5 962.5q0 87.5 87.5 87.5M1312.5 1137.5q87.5 0 87.5-87.5M1487.5 962.5q-87.5 0-87.5 87.5M1312.5 1312.5q87.5 0 87.5 87.5M1487.5 1312.5q0 87.5-87.5 87.5M1487.5 1487.5q-87.5 0-87.5-87.5M1312.5 1487.5q0-87.5 87.5-87.5M1487.5 1487.5q0-87.5-87.5-87.5M1312.5 1312.5q0 87.5 87.5 87.5M1312.5 1487.5q87.5 0 87.5-87.5M1487.5 1312.5q-87.5 0-87.5 87.5M1662.5-87.5q87.5 0 87.5 87.5M1837.5-87.5Q1837.5 0 1750 0M1837.5 87.5Q1750 87.5 1750 0M1662.5 87.5Q1662.5 0 1750 0M1837.5 87.5Q1837.5 0 1750 0M1662.5-87.5Q1662.5 0 1750 0M1662.5 87.5q87.5 0 87.5-87.5M1837.5-87.5Q1750-87.5 1750 0M1662.5 262.5q87.5 0 87.5 87.5M1837.5 262.5q0 87.5-87.5 87.5M1837.5 437.5q-87.5 0-87.5-87.5M1662.5 437.5q0-87.5 87.5-87.5M1837.5 437.5q0-87.5-87.5-87.5M1662.5 262.5q0 87.5 87.5 87.5M1662.5 437.5q87.5 0 87.5-87.5M1837.5 262.5q-87.5 0-87.5 87.5M1662.5 612.5q87.5 0 87.5 87.5M1837.5 612.5q0 87.5-87.5 87.5M1837.5 787.5q-87.5 0-87.5-87.5M1662.5 787.5q0-87.5 87.5-87.5M1837.5 787.5q0-87.5-87.5-87.5M1662.5 612.5q0 87.5 87.5 87.5M1662.5 787.5q87.5 0 87.5-87.5M1837.5 612.5q-87.5 0-87.5 87.5M1662.5 962.5q87.5 0 87.5 87.5M1837.5 962.5q0 87.5-87.5 87.5M1837.5 1137.5q-87.5 0-87.5-87.5M1662.5 1137.5q0-87.5 87.5-87.5M1837.5 1137.5q0-87.5-87.5-87.5M1662.5 962.5q0 87.5 87.5 87.5M1662.5 1137.5q87.5 0 87.5-87.5M1837.5 962.5q-87.5 0-87.5 87.5M1662.5 1312.5q87.5 0 87.5 87.5M1837.5 1312.5q0 87.5-87.5 87.5M1837.5 1487.5q-87.5 0-87.5-87.5M1662.5 1487.5q0-87.5 87.5-87.5M1837.5 1487.5q0-87.5-87.5-87.5M1662.5 1312.5q0 87.5 87.5 87.5M1662.5 1487.5q87.5 0 87.5-87.5M1837.5 1312.5q-87.5 0-87.5 87.5M2012.5-87.5q87.5 0 87.5 87.5M2187.5-87.5Q2187.5 0 2100 0M2187.5 87.5Q2100 87.5 2100 0M2012.5 87.5Q2012.5 0 2100 0M2187.5 87.5Q2187.5 0 2100 0M2012.5-87.5Q2012.5 0 2100 0M2012.5 87.5q87.5 0 87.5-87.5M2187.5-87.5Q2100-87.5 2100 0M2012.5 262.5q87.5 0 87.5 87.5M2187.5 262.5q0 87.5-87.5 87.5M2187.5 437.5q-87.5 0-87.5-87.5M2012.5 437.5q0-87.5 87.5-87.5M2187.5 437.5q0-87.5-87.5-87.5M2012.5 262.5q0 87.5 87.5 87.5M2012.5 437.5q87.5 0 87.5-87.5M2187.5 262.5q-87.5 0-87.5 87.5M2012.5 612.5q87.5 0 87.5 87.5M2187.5 612.5q0 87.5-87.5 87.5M2187.5 787.5q-87.5 0-87.5-87.5M2012.5 787.5q0-87.5 87.5-87.5M2187.5 787.5q0-87.5-87.5-87.5M2012.5 612.5q0 87.5 87.5 87.5M2012.5 787.5q87.5 0 87.5-87.5M2187.5 612.5q-87.5 0-87.5 87.5M2012.5 962.5q87.5 0 87.5 87.5M2187.5 962.5q0 87.5-87.5 87.5M2187.5 1137.5q-87.5 0-87.5-87.5M2012.5 1137.5q0-87.5 87.5-87.5M2187.5 1137.5q0-87.5-87.5-87.5M2012.5 962.5q0 87.5 87.5 87.5M2012.5 1137.5q87.5 0 87.5-87.5M2187.5 962.5q-87.5 0-87.5 87.5M2012.5 1312.5q87.5 0 87.5 87.5M2187.5 1312.5q0 87.5-87.5 87.5M2187.5 1487.5q-87.5 0-87.5-87.5M2012.5 1487.5q0-87.5 87.5-87.5M2187.5 1487.5q0-87.5-87.5-87.5M2012.5 1312.5q0 87.5 87.5 87.5M2012.5 1487.5q87.5 0 87.5-87.5M2187.5 1312.5q-87.5 0-87.5 87.5" class="bezier-2-1 open"/>
    </g>
</svg>
