%!PS-Adobe-2.0 EPSF-2.0
%%BoundingBox: 0 0 2450 1750
%%HiResBoundingBox: 0.000000 0.000000 2450.000000 1750.000000
%%Creator: cairo 1.14.2 (http://cairographics.org)
%%CreationDate: Mon Sep  7 08:22:00 2015
%%DocumentData: Clean7Bit
%%LanguageLevel: 2
%%DocumentMedia: 864x617mm 2450 1750 0 () ()
%%EndComments
% EPSF created by ps2eps 1.68
%%BeginProlog
save
countdictstack
mark
newpath
/showpage {} def
/setpagedevice {pop} def
%%EndProlog
%%Page 1 1
%%BeginProlog
/languagelevel where
{ pop languagelevel } { 1 } ifelse
2 lt { /Helvetica findfont 12 scalefont setfont 50 500 moveto
  (This print job requires a PostScript Language Level 2 printer.) show
  showpage quit } if
/q { gsave } bind def
/Q { grestore } bind def
/cm { 6 array astore concat } bind def
/w { setlinewidth } bind def
/J { setlinecap } bind def
/j { setlinejoin } bind def
/M { setmiterlimit } bind def
/d { setdash } bind def
/m { moveto } bind def
/l { lineto } bind def
/c { curveto } bind def
/h { closepath } bind def
/re { exch dup neg 3 1 roll 5 3 roll moveto 0 rlineto
      0 exch rlineto 0 rlineto closepath } bind def
/S { stroke } bind def
/f { fill } bind def
/f* { eofill } bind def
/n { newpath } bind def
/W { clip } bind def
/W* { eoclip } bind def
/BT { } bind def
/ET { } bind def
/pdfmark where { pop globaldict /?pdfmark /exec load put }
    { globaldict begin /?pdfmark /pop load def /pdfmark
    /cleartomark load def end } ifelse
/BDC { mark 3 1 roll /BDC pdfmark } bind def
/EMC { mark /EMC pdfmark } bind def
/cairo_store_point { /cairo_point_y exch def /cairo_point_x exch def } def
/Tj { show currentpoint cairo_store_point } bind def
/TJ {
  {
    dup
    type /stringtype eq
    { show } { -0.001 mul 0 cairo_font_matrix dtransform rmoveto } ifelse
  } forall
  currentpoint cairo_store_point
} bind def
/cairo_selectfont { cairo_font_matrix aload pop pop pop 0 0 6 array astore
    cairo_font exch selectfont cairo_point_x cairo_point_y moveto } bind def
/Tf { pop /cairo_font exch def /cairo_font_matrix where
      { pop cairo_selectfont } if } bind def
/Td { matrix translate cairo_font_matrix matrix concatmatrix dup
      /cairo_font_matrix exch def dup 4 get exch 5 get cairo_store_point
      /cairo_font where { pop cairo_selectfont } if } bind def
/Tm { 2 copy 8 2 roll 6 array astore /cairo_font_matrix exch def
      cairo_store_point /cairo_font where { pop cairo_selectfont } if } bind def
/g { setgray } bind def
/rg { setrgbcolor } bind def
/d1 { setcachedevice } bind def
/cairo_set_page_size {
  % Change paper size, but only if different from previous paper size otherwise
  % duplex fails. PLRM specifies a tolerance of 5 pts when matching paper size
  % so we use the same when checking if the size changes.
  /setpagedevice where {
    pop currentpagedevice
    /PageSize known {
      2 copy
      currentpagedevice /PageSize get aload pop
      exch 4 1 roll
      sub abs 5 gt
      3 1 roll
      sub abs 5 gt
      or
    } {
      true
    } ifelse
    {
      2 array astore
      2 dict begin
        /PageSize exch def
        /ImagingBBox null def
      currentdict end
      setpagedevice
    } {
      pop pop
    } ifelse
  } {
    pop
  } ifelse
} def
%%EndProlog
%%BeginSetup
%%EndSetup
%%Page: 1 1
%%BeginPageSetup
%%PageMedia: 864x617mm
%%PageBoundingBox: 0 0 2450 1750
2450 1750 cairo_set_page_size
%%EndPageSetup
q 0 0 2450 1750 rectclip q
0.984314 g
0 0 2450 1750 rectfill
0.788235 g
1.875 w
0 J
1 j
[] 0.0 d
4 M 0 1750 2450 -1750 re S
0 g
2.5 w
1 J
116.668 1750 m 132.773 1733.891 132.773 1707.773 116.668 1691.668 c 100.559
 1675.559 74.441 1675.559 58.332 1691.668 c S
350 1633.332 m 333.891 1617.227 307.773 1617.227 291.668 1633.332 c 275.559
 1649.441 275.559 1675.559 291.668 1691.668 c S
233.332 1400 m 217.227 1416.109 217.227 1442.227 233.332 1458.332 c 249.441
 1474.441 275.559 1474.441 291.668 1458.332 c S
0 1516.668 m 16.109 1532.773 42.227 1532.773 58.332 1516.668 c 74.441 1500.559
 74.441 1474.441 58.332 1458.332 c S
350 1516.668 m 366.109 1500.559 366.109 1474.441 350 1458.332 c 333.891
 1442.227 307.773 1442.227 291.668 1458.332 c S
0 1633.332 m -16.109 1649.441 -16.109 1675.559 0 1691.668 c 16.109 1707.773
 42.227 1707.773 58.332 1691.668 c S
116.668 1400 m 100.559 1383.891 74.441 1383.891 58.332 1400 c 42.227 1416.109
 42.227 1442.227 58.332 1458.332 c S
233.332 1750 m 249.441 1766.109 275.559 1766.109 291.668 1750 c 307.773
 1733.891 307.773 1707.773 291.668 1691.668 c S
116.668 1400 m 132.773 1383.891 132.773 1357.773 116.668 1341.668 c 100.559
 1325.559 74.441 1325.559 58.332 1341.668 c S
350 1283.332 m 333.891 1267.227 307.773 1267.227 291.668 1283.332 c 275.559
 1299.441 275.559 1325.559 291.668 1341.668 c S
233.332 1050 m 217.227 1066.109 217.227 1092.227 233.332 1108.332 c 249.441
 1124.441 275.559 1124.441 291.668 1108.332 c S
0 1166.668 m 16.109 1182.773 42.227 1182.773 58.332 1166.668 c 74.441 1150.559
 74.441 1124.441 58.332 1108.332 c S
350 1166.668 m 366.109 1150.559 366.109 1124.441 350 1108.332 c 333.891
 1092.227 307.773 1092.227 291.668 1108.332 c S
0 1283.332 m -16.109 1299.441 -16.109 1325.559 0 1341.668 c 16.109 1357.773
 42.227 1357.773 58.332 1341.668 c S
116.668 1050 m 100.559 1033.891 74.441 1033.891 58.332 1050 c 42.227 1066.109
 42.227 1092.227 58.332 1108.332 c S
233.332 1400 m 249.441 1416.109 275.559 1416.109 291.668 1400 c 307.773
 1383.891 307.773 1357.773 291.668 1341.668 c S
116.668 1050 m 132.773 1033.891 132.773 1007.773 116.668 991.668 c 100.559
 975.559 74.441 975.559 58.332 991.668 c S
350 933.332 m 333.891 917.227 307.773 917.227 291.668 933.332 c 275.559
 949.441 275.559 975.559 291.668 991.668 c S
233.332 700 m 217.227 716.109 217.227 742.227 233.332 758.332 c 249.441
 774.441 275.559 774.441 291.668 758.332 c S
0 816.668 m 16.109 832.773 42.227 832.773 58.332 816.668 c 74.441 800.559
 74.441 774.441 58.332 758.332 c S
350 816.668 m 366.109 800.559 366.109 774.441 350 758.332 c 333.891 742.227
 307.773 742.227 291.668 758.332 c S
0 933.332 m -16.109 949.441 -16.109 975.559 0 991.668 c 16.109 1007.773
 42.227 1007.773 58.332 991.668 c S
116.668 700 m 100.559 683.891 74.441 683.891 58.332 700 c 42.227 716.109
 42.227 742.227 58.332 758.332 c S
233.332 1050 m 249.441 1066.109 275.559 1066.109 291.668 1050 c 307.773
 1033.891 307.773 1007.773 291.668 991.668 c S
116.668 700 m 132.773 683.891 132.773 657.773 116.668 641.668 c 100.559
 625.559 74.441 625.559 58.332 641.668 c S
350 583.332 m 333.891 567.227 307.773 567.227 291.668 583.332 c 275.559
 599.441 275.559 625.559 291.668 641.668 c S
233.332 350 m 217.227 366.109 217.227 392.227 233.332 408.332 c 249.441
 424.441 275.559 424.441 291.668 408.332 c S
0 466.668 m 16.109 482.773 42.227 482.773 58.332 466.668 c 74.441 450.559
 74.441 424.441 58.332 408.332 c S
350 466.668 m 366.109 450.559 366.109 424.441 350 408.332 c 333.891 392.227
 307.773 392.227 291.668 408.332 c S
0 583.332 m -16.109 599.441 -16.109 625.559 0 641.668 c 16.109 657.773 
42.227 657.773 58.332 641.668 c S
116.668 350 m 100.559 333.891 74.441 333.891 58.332 350 c 42.227 366.109
 42.227 392.227 58.332 408.332 c S
233.332 700 m 249.441 716.109 275.559 716.109 291.668 700 c 307.773 683.891
 307.773 657.773 291.668 641.668 c S
116.668 350 m 132.773 333.891 132.773 307.773 116.668 291.668 c 100.559
 275.559 74.441 275.559 58.332 291.668 c S
350 233.332 m 333.891 217.227 307.773 217.227 291.668 233.332 c 275.559
 249.441 275.559 275.559 291.668 291.668 c S
233.332 0 m 217.227 16.109 217.227 42.227 233.332 58.332 c 249.441 74.441
 275.559 74.441 291.668 58.332 c S
0 116.668 m 16.109 132.773 42.227 132.773 58.332 116.668 c 74.441 100.559
 74.441 74.441 58.332 58.332 c S
350 116.668 m 366.109 100.559 366.109 74.441 350 58.332 c 333.891 42.227
 307.773 42.227 291.668 58.332 c S
0 233.332 m -16.109 249.441 -16.109 275.559 0 291.668 c 16.109 307.773 
42.227 307.773 58.332 291.668 c S
116.668 0 m 100.559 -16.109 74.441 -16.109 58.332 0 c 42.227 16.109 42.227
 42.227 58.332 58.332 c S
233.332 350 m 249.441 366.109 275.559 366.109 291.668 350 c 307.773 333.891
 307.773 307.773 291.668 291.668 c S
466.668 1750 m 482.773 1733.891 482.773 1707.773 466.668 1691.668 c 450.559
 1675.559 424.441 1675.559 408.332 1691.668 c S
700 1633.332 m 683.891 1617.227 657.773 1617.227 641.668 1633.332 c 625.559
 1649.441 625.559 1675.559 641.668 1691.668 c S
583.332 1400 m 567.227 1416.109 567.227 1442.227 583.332 1458.332 c 599.441
 1474.441 625.559 1474.441 641.668 1458.332 c S
350 1516.668 m 366.109 1532.773 392.227 1532.773 408.332 1516.668 c 424.441
 1500.559 424.441 1474.441 408.332 1458.332 c S
700 1516.668 m 716.109 1500.559 716.109 1474.441 700 1458.332 c 683.891
 1442.227 657.773 1442.227 641.668 1458.332 c S
350 1633.332 m 333.891 1649.441 333.891 1675.559 350 1691.668 c 366.109
 1707.773 392.227 1707.773 408.332 1691.668 c S
466.668 1400 m 450.559 1383.891 424.441 1383.891 408.332 1400 c 392.227
 1416.109 392.227 1442.227 408.332 1458.332 c S
583.332 1750 m 599.441 1766.109 625.559 1766.109 641.668 1750 c 657.773
 1733.891 657.773 1707.773 641.668 1691.668 c S
466.668 1400 m 482.773 1383.891 482.773 1357.773 466.668 1341.668 c 450.559
 1325.559 424.441 1325.559 408.332 1341.668 c S
700 1283.332 m 683.891 1267.227 657.773 1267.227 641.668 1283.332 c 625.559
 1299.441 625.559 1325.559 641.668 1341.668 c S
583.332 1050 m 567.227 1066.109 567.227 1092.227 583.332 1108.332 c 599.441
 1124.441 625.559 1124.441 641.668 1108.332 c S
350 1166.668 m 366.109 1182.773 392.227 1182.773 408.332 1166.668 c 424.441
 1150.559 424.441 1124.441 408.332 1108.332 c S
700 1166.668 m 716.109 1150.559 716.109 1124.441 700 1108.332 c 683.891
 1092.227 657.773 1092.227 641.668 1108.332 c S
350 1283.332 m 333.891 1299.441 333.891 1325.559 350 1341.668 c 366.109
 1357.773 392.227 1357.773 408.332 1341.668 c S
466.668 1050 m 450.559 1033.891 424.441 1033.891 408.332 1050 c 392.227
 1066.109 392.227 1092.227 408.332 1108.332 c S
583.332 1400 m 599.441 1416.109 625.559 1416.109 641.668 1400 c 657.773
 1383.891 657.773 1357.773 641.668 1341.668 c S
466.668 1050 m 482.773 1033.891 482.773 1007.773 466.668 991.668 c 450.559
 975.559 424.441 975.559 408.332 991.668 c S
700 933.332 m 683.891 917.227 657.773 917.227 641.668 933.332 c 625.559
 949.441 625.559 975.559 641.668 991.668 c S
583.332 700 m 567.227 716.109 567.227 742.227 583.332 758.332 c 599.441
 774.441 625.559 774.441 641.668 758.332 c S
350 816.668 m 366.109 832.773 392.227 832.773 408.332 816.668 c 424.441
 800.559 424.441 774.441 408.332 758.332 c S
700 816.668 m 716.109 800.559 716.109 774.441 700 758.332 c 683.891 742.227
 657.773 742.227 641.668 758.332 c S
350 933.332 m 333.891 949.441 333.891 975.559 350 991.668 c 366.109 1007.773
 392.227 1007.773 408.332 991.668 c S
466.668 700 m 450.559 683.891 424.441 683.891 408.332 700 c 392.227 716.109
 392.227 742.227 408.332 758.332 c S
583.332 1050 m 599.441 1066.109 625.559 1066.109 641.668 1050 c 657.773
 1033.891 657.773 1007.773 641.668 991.668 c S
466.668 700 m 482.773 683.891 482.773 657.773 466.668 641.668 c 450.559
 625.559 424.441 625.559 408.332 641.668 c S
700 583.332 m 683.891 567.227 657.773 567.227 641.668 583.332 c 625.559
 599.441 625.559 625.559 641.668 641.668 c S
583.332 350 m 567.227 366.109 567.227 392.227 583.332 408.332 c 599.441
 424.441 625.559 424.441 641.668 408.332 c S
350 466.668 m 366.109 482.773 392.227 482.773 408.332 466.668 c 424.441
 450.559 424.441 424.441 408.332 408.332 c S
700 466.668 m 716.109 450.559 716.109 424.441 700 408.332 c 683.891 392.227
 657.773 392.227 641.668 408.332 c S
350 583.332 m 333.891 599.441 333.891 625.559 350 641.668 c 366.109 657.773
 392.227 657.773 408.332 641.668 c S
466.668 350 m 450.559 333.891 424.441 333.891 408.332 350 c 392.227 366.109
 392.227 392.227 408.332 408.332 c S
583.332 700 m 599.441 716.109 625.559 716.109 641.668 700 c 657.773 683.891
 657.773 657.773 641.668 641.668 c S
466.668 350 m 482.773 333.891 482.773 307.773 466.668 291.668 c 450.559
 275.559 424.441 275.559 408.332 291.668 c S
700 233.332 m 683.891 217.227 657.773 217.227 641.668 233.332 c 625.559
 249.441 625.559 275.559 641.668 291.668 c S
583.332 0 m 567.227 16.109 567.227 42.227 583.332 58.332 c 599.441 74.441
 625.559 74.441 641.668 58.332 c S
350 116.668 m 366.109 132.773 392.227 132.773 408.332 116.668 c 424.441
 100.559 424.441 74.441 408.332 58.332 c S
700 116.668 m 716.109 100.559 716.109 74.441 700 58.332 c 683.891 42.227
 657.773 42.227 641.668 58.332 c S
350 233.332 m 333.891 249.441 333.891 275.559 350 291.668 c 366.109 307.773
 392.227 307.773 408.332 291.668 c S
466.668 0 m 450.559 -16.109 424.441 -16.109 408.332 0 c 392.227 16.109 
392.227 42.227 408.332 58.332 c S
583.332 350 m 599.441 366.109 625.559 366.109 641.668 350 c 657.773 333.891
 657.773 307.773 641.668 291.668 c S
816.668 1750 m 832.773 1733.891 832.773 1707.773 816.668 1691.668 c 800.559
 1675.559 774.441 1675.559 758.332 1691.668 c S
1050 1633.332 m 1033.891 1617.227 1007.773 1617.227 991.668 1633.332 c 
975.559 1649.441 975.559 1675.559 991.668 1691.668 c S
933.332 1400 m 917.227 1416.109 917.227 1442.227 933.332 1458.332 c 949.441
 1474.441 975.559 1474.441 991.668 1458.332 c S
700 1516.668 m 716.109 1532.773 742.227 1532.773 758.332 1516.668 c 774.441
 1500.559 774.441 1474.441 758.332 1458.332 c S
1050 1516.668 m 1066.109 1500.559 1066.109 1474.441 1050 1458.332 c 1033.891
 1442.227 1007.773 1442.227 991.668 1458.332 c S
700 1633.332 m 683.891 1649.441 683.891 1675.559 700 1691.668 c 716.109
 1707.773 742.227 1707.773 758.332 1691.668 c S
816.668 1400 m 800.559 1383.891 774.441 1383.891 758.332 1400 c 742.227
 1416.109 742.227 1442.227 758.332 1458.332 c S
933.332 1750 m 949.441 1766.109 975.559 1766.109 991.668 1750 c 1007.773
 1733.891 1007.773 1707.773 991.668 1691.668 c S
816.668 1400 m 832.773 1383.891 832.773 1357.773 816.668 1341.668 c 800.559
 1325.559 774.441 1325.559 758.332 1341.668 c S
1050 1283.332 m 1033.891 1267.227 1007.773 1267.227 991.668 1283.332 c 
975.559 1299.441 975.559 1325.559 991.668 1341.668 c S
933.332 1050 m 917.227 1066.109 917.227 1092.227 933.332 1108.332 c 949.441
 1124.441 975.559 1124.441 991.668 1108.332 c S
700 1166.668 m 716.109 1182.773 742.227 1182.773 758.332 1166.668 c 774.441
 1150.559 774.441 1124.441 758.332 1108.332 c S
1050 1166.668 m 1066.109 1150.559 1066.109 1124.441 1050 1108.332 c 1033.891
 1092.227 1007.773 1092.227 991.668 1108.332 c S
700 1283.332 m 683.891 1299.441 683.891 1325.559 700 1341.668 c 716.109
 1357.773 742.227 1357.773 758.332 1341.668 c S
816.668 1050 m 800.559 1033.891 774.441 1033.891 758.332 1050 c 742.227
 1066.109 742.227 1092.227 758.332 1108.332 c S
933.332 1400 m 949.441 1416.109 975.559 1416.109 991.668 1400 c 1007.773
 1383.891 1007.773 1357.773 991.668 1341.668 c S
816.668 1050 m 832.773 1033.891 832.773 1007.773 816.668 991.668 c 800.559
 975.559 774.441 975.559 758.332 991.668 c S
1050 933.332 m 1033.891 917.227 1007.773 917.227 991.668 933.332 c 975.559
 949.441 975.559 975.559 991.668 991.668 c S
933.332 700 m 917.227 716.109 917.227 742.227 933.332 758.332 c 949.441
 774.441 975.559 774.441 991.668 758.332 c S
700 816.668 m 716.109 832.773 742.227 832.773 758.332 816.668 c 774.441
 800.559 774.441 774.441 758.332 758.332 c S
1050 816.668 m 1066.109 800.559 1066.109 774.441 1050 758.332 c 1033.891
 742.227 1007.773 742.227 991.668 758.332 c S
700 933.332 m 683.891 949.441 683.891 975.559 700 991.668 c 716.109 1007.773
 742.227 1007.773 758.332 991.668 c S
816.668 700 m 800.559 683.891 774.441 683.891 758.332 700 c 742.227 716.109
 742.227 742.227 758.332 758.332 c S
933.332 1050 m 949.441 1066.109 975.559 1066.109 991.668 1050 c 1007.773
 1033.891 1007.773 1007.773 991.668 991.668 c S
816.668 700 m 832.773 683.891 832.773 657.773 816.668 641.668 c 800.559
 625.559 774.441 625.559 758.332 641.668 c S
1050 583.332 m 1033.891 567.227 1007.773 567.227 991.668 583.332 c 975.559
 599.441 975.559 625.559 991.668 641.668 c S
933.332 350 m 917.227 366.109 917.227 392.227 933.332 408.332 c 949.441
 424.441 975.559 424.441 991.668 408.332 c S
700 466.668 m 716.109 482.773 742.227 482.773 758.332 466.668 c 774.441
 450.559 774.441 424.441 758.332 408.332 c S
1050 466.668 m 1066.109 450.559 1066.109 424.441 1050 408.332 c 1033.891
 392.227 1007.773 392.227 991.668 408.332 c S
700 583.332 m 683.891 599.441 683.891 625.559 700 641.668 c 716.109 657.773
 742.227 657.773 758.332 641.668 c S
816.668 350 m 800.559 333.891 774.441 333.891 758.332 350 c 742.227 366.109
 742.227 392.227 758.332 408.332 c S
933.332 700 m 949.441 716.109 975.559 716.109 991.668 700 c 1007.773 683.891
 1007.773 657.773 991.668 641.668 c S
816.668 350 m 832.773 333.891 832.773 307.773 816.668 291.668 c 800.559
 275.559 774.441 275.559 758.332 291.668 c S
1050 233.332 m 1033.891 217.227 1007.773 217.227 991.668 233.332 c 975.559
 249.441 975.559 275.559 991.668 291.668 c S
933.332 0 m 917.227 16.109 917.227 42.227 933.332 58.332 c 949.441 74.441
 975.559 74.441 991.668 58.332 c S
700 116.668 m 716.109 132.773 742.227 132.773 758.332 116.668 c 774.441
 100.559 774.441 74.441 758.332 58.332 c S
1050 116.668 m 1066.109 100.559 1066.109 74.441 1050 58.332 c 1033.891 
42.227 1007.773 42.227 991.668 58.332 c S
700 233.332 m 683.891 249.441 683.891 275.559 700 291.668 c 716.109 307.773
 742.227 307.773 758.332 291.668 c S
816.668 0 m 800.559 -16.109 774.441 -16.109 758.332 0 c 742.227 16.109 
742.227 42.227 758.332 58.332 c S
933.332 350 m 949.441 366.109 975.559 366.109 991.668 350 c 1007.773 333.891
 1007.773 307.773 991.668 291.668 c S
1166.668 1750 m 1182.773 1733.891 1182.773 1707.773 1166.668 1691.668 c
 1150.559 1675.559 1124.441 1675.559 1108.332 1691.668 c S
1400 1633.332 m 1383.891 1617.227 1357.773 1617.227 1341.668 1633.332 c
 1325.559 1649.441 1325.559 1675.559 1341.668 1691.668 c S
1283.332 1400 m 1267.227 1416.109 1267.227 1442.227 1283.332 1458.332 c
 1299.441 1474.441 1325.559 1474.441 1341.668 1458.332 c S
1050 1516.668 m 1066.109 1532.773 1092.227 1532.773 1108.332 1516.668 c
 1124.441 1500.559 1124.441 1474.441 1108.332 1458.332 c S
1400 1516.668 m 1416.109 1500.559 1416.109 1474.441 1400 1458.332 c 1383.891
 1442.227 1357.773 1442.227 1341.668 1458.332 c S
1050 1633.332 m 1033.891 1649.441 1033.891 1675.559 1050 1691.668 c 1066.109
 1707.773 1092.227 1707.773 1108.332 1691.668 c S
1166.668 1400 m 1150.559 1383.891 1124.441 1383.891 1108.332 1400 c 1092.227
 1416.109 1092.227 1442.227 1108.332 1458.332 c S
1283.332 1750 m 1299.441 1766.109 1325.559 1766.109 1341.668 1750 c 1357.773
 1733.891 1357.773 1707.773 1341.668 1691.668 c S
1166.668 1400 m 1182.773 1383.891 1182.773 1357.773 1166.668 1341.668 c
 1150.559 1325.559 1124.441 1325.559 1108.332 1341.668 c S
1400 1283.332 m 1383.891 1267.227 1357.773 1267.227 1341.668 1283.332 c
 1325.559 1299.441 1325.559 1325.559 1341.668 1341.668 c S
1283.332 1050 m 1267.227 1066.109 1267.227 1092.227 1283.332 1108.332 c
 1299.441 1124.441 1325.559 1124.441 1341.668 1108.332 c S
1050 1166.668 m 1066.109 1182.773 1092.227 1182.773 1108.332 1166.668 c
 1124.441 1150.559 1124.441 1124.441 1108.332 1108.332 c S
1400 1166.668 m 1416.109 1150.559 1416.109 1124.441 1400 1108.332 c 1383.891
 1092.227 1357.773 1092.227 1341.668 1108.332 c S
1050 1283.332 m 1033.891 1299.441 1033.891 1325.559 1050 1341.668 c 1066.109
 1357.773 1092.227 1357.773 1108.332 1341.668 c S
1166.668 1050 m 1150.559 1033.891 1124.441 1033.891 1108.332 1050 c 1092.227
 1066.109 1092.227 1092.227 1108.332 1108.332 c S
1283.332 1400 m 1299.441 1416.109 1325.559 1416.109 1341.668 1400 c 1357.773
 1383.891 1357.773 1357.773 1341.668 1341.668 c S
1166.668 1050 m 1182.773 1033.891 1182.773 1007.773 1166.668 991.668 c 
1150.559 975.559 1124.441 975.559 1108.332 991.668 c S
1400 933.332 m 1383.891 917.227 1357.773 917.227 1341.668 933.332 c 1325.559
 949.441 1325.559 975.559 1341.668 991.668 c S
1283.332 700 m 1267.227 716.109 1267.227 742.227 1283.332 758.332 c 1299.441
 774.441 1325.559 774.441 1341.668 758.332 c S
1050 816.668 m 1066.109 832.773 1092.227 832.773 1108.332 816.668 c 1124.441
 800.559 1124.441 774.441 1108.332 758.332 c S
1400 816.668 m 1416.109 800.559 1416.109 774.441 1400 758.332 c 1383.891
 742.227 1357.773 742.227 1341.668 758.332 c S
1050 933.332 m 1033.891 949.441 1033.891 975.559 1050 991.668 c 1066.109
 1007.773 1092.227 1007.773 1108.332 991.668 c S
1166.668 700 m 1150.559 683.891 1124.441 683.891 1108.332 700 c 1092.227
 716.109 1092.227 742.227 1108.332 758.332 c S
1283.332 1050 m 1299.441 1066.109 1325.559 1066.109 1341.668 1050 c 1357.773
 1033.891 1357.773 1007.773 1341.668 991.668 c S
1166.668 700 m 1182.773 683.891 1182.773 657.773 1166.668 641.668 c 1150.559
 625.559 1124.441 625.559 1108.332 641.668 c S
1400 583.332 m 1383.891 567.227 1357.773 567.227 1341.668 583.332 c 1325.559
 599.441 1325.559 625.559 1341.668 641.668 c S
1283.332 350 m 1267.227 366.109 1267.227 392.227 1283.332 408.332 c 1299.441
 424.441 1325.559 424.441 1341.668 408.332 c S
1050 466.668 m 1066.109 482.773 1092.227 482.773 1108.332 466.668 c 1124.441
 450.559 1124.441 424.441 1108.332 408.332 c S
1400 466.668 m 1416.109 450.559 1416.109 424.441 1400 408.332 c 1383.891
 392.227 1357.773 392.227 1341.668 408.332 c S
1050 583.332 m 1033.891 599.441 1033.891 625.559 1050 641.668 c 1066.109
 657.773 1092.227 657.773 1108.332 641.668 c S
1166.668 350 m 1150.559 333.891 1124.441 333.891 1108.332 350 c 1092.227
 366.109 1092.227 392.227 1108.332 408.332 c S
1283.332 700 m 1299.441 716.109 1325.559 716.109 1341.668 700 c 1357.773
 683.891 1357.773 657.773 1341.668 641.668 c S
1166.668 350 m 1182.773 333.891 1182.773 307.773 1166.668 291.668 c 1150.559
 275.559 1124.441 275.559 1108.332 291.668 c S
1400 233.332 m 1383.891 217.227 1357.773 217.227 1341.668 233.332 c 1325.559
 249.441 1325.559 275.559 1341.668 291.668 c S
1283.332 0 m 1267.227 16.109 1267.227 42.227 1283.332 58.332 c 1299.441
 74.441 1325.559 74.441 1341.668 58.332 c S
1050 116.668 m 1066.109 132.773 1092.227 132.773 1108.332 116.668 c 1124.441
 100.559 1124.441 74.441 1108.332 58.332 c S
1400 116.668 m 1416.109 100.559 1416.109 74.441 1400 58.332 c 1383.891 
42.227 1357.773 42.227 1341.668 58.332 c S
1050 233.332 m 1033.891 249.441 1033.891 275.559 1050 291.668 c 1066.109
 307.773 1092.227 307.773 1108.332 291.668 c S
1166.668 0 m 1150.559 -16.109 1124.441 -16.109 1108.332 0 c 1092.227 16.109
 1092.227 42.227 1108.332 58.332 c S
1283.332 350 m 1299.441 366.109 1325.559 366.109 1341.668 350 c 1357.773
 333.891 1357.773 307.773 1341.668 291.668 c S
1516.668 1750 m 1532.773 1733.891 1532.773 1707.773 1516.668 1691.668 c
 1500.559 1675.559 1474.441 1675.559 1458.332 1691.668 c S
1750 1633.332 m 1733.891 1617.227 1707.773 1617.227 1691.668 1633.332 c
 1675.559 1649.441 1675.559 1675.559 1691.668 1691.668 c S
1633.332 1400 m 1617.227 1416.109 1617.227 1442.227 1633.332 1458.332 c
 1649.441 1474.441 1675.559 1474.441 1691.668 1458.332 c S
1400 1516.668 m 1416.109 1532.773 1442.227 1532.773 1458.332 1516.668 c
 1474.441 1500.559 1474.441 1474.441 1458.332 1458.332 c S
1750 1516.668 m 1766.109 1500.559 1766.109 1474.441 1750 1458.332 c 1733.891
 1442.227 1707.773 1442.227 1691.668 1458.332 c S
1400 1633.332 m 1383.891 1649.441 1383.891 1675.559 1400 1691.668 c 1416.109
 1707.773 1442.227 1707.773 1458.332 1691.668 c S
1516.668 1400 m 1500.559 1383.891 1474.441 1383.891 1458.332 1400 c 1442.227
 1416.109 1442.227 1442.227 1458.332 1458.332 c S
1633.332 1750 m 1649.441 1766.109 1675.559 1766.109 1691.668 1750 c 1707.773
 1733.891 1707.773 1707.773 1691.668 1691.668 c S
1516.668 1400 m 1532.773 1383.891 1532.773 1357.773 1516.668 1341.668 c
 1500.559 1325.559 1474.441 1325.559 1458.332 1341.668 c S
1750 1283.332 m 1733.891 1267.227 1707.773 1267.227 1691.668 1283.332 c
 1675.559 1299.441 1675.559 1325.559 1691.668 1341.668 c S
1633.332 1050 m 1617.227 1066.109 1617.227 1092.227 1633.332 1108.332 c
 1649.441 1124.441 1675.559 1124.441 1691.668 1108.332 c S
1400 1166.668 m 1416.109 1182.773 1442.227 1182.773 1458.332 1166.668 c
 1474.441 1150.559 1474.441 1124.441 1458.332 1108.332 c S
1750 1166.668 m 1766.109 1150.559 1766.109 1124.441 1750 1108.332 c 1733.891
 1092.227 1707.773 1092.227 1691.668 1108.332 c S
1400 1283.332 m 1383.891 1299.441 1383.891 1325.559 1400 1341.668 c 1416.109
 1357.773 1442.227 1357.773 1458.332 1341.668 c S
1516.668 1050 m 1500.559 1033.891 1474.441 1033.891 1458.332 1050 c 1442.227
 1066.109 1442.227 1092.227 1458.332 1108.332 c S
1633.332 1400 m 1649.441 1416.109 1675.559 1416.109 1691.668 1400 c 1707.773
 1383.891 1707.773 1357.773 1691.668 1341.668 c S
1516.668 1050 m 1532.773 1033.891 1532.773 1007.773 1516.668 991.668 c 
1500.559 975.559 1474.441 975.559 1458.332 991.668 c S
1750 933.332 m 1733.891 917.227 1707.773 917.227 1691.668 933.332 c 1675.559
 949.441 1675.559 975.559 1691.668 991.668 c S
1633.332 700 m 1617.227 716.109 1617.227 742.227 1633.332 758.332 c 1649.441
 774.441 1675.559 774.441 1691.668 758.332 c S
1400 816.668 m 1416.109 832.773 1442.227 832.773 1458.332 816.668 c 1474.441
 800.559 1474.441 774.441 1458.332 758.332 c S
1750 816.668 m 1766.109 800.559 1766.109 774.441 1750 758.332 c 1733.891
 742.227 1707.773 742.227 1691.668 758.332 c S
1400 933.332 m 1383.891 949.441 1383.891 975.559 1400 991.668 c 1416.109
 1007.773 1442.227 1007.773 1458.332 991.668 c S
1516.668 700 m 1500.559 683.891 1474.441 683.891 1458.332 700 c 1442.227
 716.109 1442.227 742.227 1458.332 758.332 c S
1633.332 1050 m 1649.441 1066.109 1675.559 1066.109 1691.668 1050 c 1707.773
 1033.891 1707.773 1007.773 1691.668 991.668 c S
1516.668 700 m 1532.773 683.891 1532.773 657.773 1516.668 641.668 c 1500.559
 625.559 1474.441 625.559 1458.332 641.668 c S
1750 583.332 m 1733.891 567.227 1707.773 567.227 1691.668 583.332 c 1675.559
 599.441 1675.559 625.559 1691.668 641.668 c S
1633.332 350 m 1617.227 366.109 1617.227 392.227 1633.332 408.332 c 1649.441
 424.441 1675.559 424.441 1691.668 408.332 c S
1400 466.668 m 1416.109 482.773 1442.227 482.773 1458.332 466.668 c 1474.441
 450.559 1474.441 424.441 1458.332 408.332 c S
1750 466.668 m 1766.109 450.559 1766.109 424.441 1750 408.332 c 1733.891
 392.227 1707.773 392.227 1691.668 408.332 c S
1400 583.332 m 1383.891 599.441 1383.891 625.559 1400 641.668 c 1416.109
 657.773 1442.227 657.773 1458.332 641.668 c S
1516.668 350 m 1500.559 333.891 1474.441 333.891 1458.332 350 c 1442.227
 366.109 1442.227 392.227 1458.332 408.332 c S
1633.332 700 m 1649.441 716.109 1675.559 716.109 1691.668 700 c 1707.773
 683.891 1707.773 657.773 1691.668 641.668 c S
1516.668 350 m 1532.773 333.891 1532.773 307.773 1516.668 291.668 c 1500.559
 275.559 1474.441 275.559 1458.332 291.668 c S
1750 233.332 m 1733.891 217.227 1707.773 217.227 1691.668 233.332 c 1675.559
 249.441 1675.559 275.559 1691.668 291.668 c S
1633.332 0 m 1617.227 16.109 1617.227 42.227 1633.332 58.332 c 1649.441
 74.441 1675.559 74.441 1691.668 58.332 c S
1400 116.668 m 1416.109 132.773 1442.227 132.773 1458.332 116.668 c 1474.441
 100.559 1474.441 74.441 1458.332 58.332 c S
1750 116.668 m 1766.109 100.559 1766.109 74.441 1750 58.332 c 1733.891 
42.227 1707.773 42.227 1691.668 58.332 c S
1400 233.332 m 1383.891 249.441 1383.891 275.559 1400 291.668 c 1416.109
 307.773 1442.227 307.773 1458.332 291.668 c S
1516.668 0 m 1500.559 -16.109 1474.441 -16.109 1458.332 0 c 1442.227 16.109
 1442.227 42.227 1458.332 58.332 c S
1633.332 350 m 1649.441 366.109 1675.559 366.109 1691.668 350 c 1707.773
 333.891 1707.773 307.773 1691.668 291.668 c S
1866.668 1750 m 1882.773 1733.891 1882.773 1707.773 1866.668 1691.668 c
 1850.559 1675.559 1824.441 1675.559 1808.332 1691.668 c S
2100 1633.332 m 2083.891 1617.227 2057.773 1617.227 2041.668 1633.332 c
 2025.559 1649.441 2025.559 1675.559 2041.668 1691.668 c S
1983.332 1400 m 1967.227 1416.109 1967.227 1442.227 1983.332 1458.332 c
 1999.441 1474.441 2025.559 1474.441 2041.668 1458.332 c S
1750 1516.668 m 1766.109 1532.773 1792.227 1532.773 1808.332 1516.668 c
 1824.441 1500.559 1824.441 1474.441 1808.332 1458.332 c S
2100 1516.668 m 2116.109 1500.559 2116.109 1474.441 2100 1458.332 c 2083.891
 1442.227 2057.773 1442.227 2041.668 1458.332 c S
1750 1633.332 m 1733.891 1649.441 1733.891 1675.559 1750 1691.668 c 1766.109
 1707.773 1792.227 1707.773 1808.332 1691.668 c S
1866.668 1400 m 1850.559 1383.891 1824.441 1383.891 1808.332 1400 c 1792.227
 1416.109 1792.227 1442.227 1808.332 1458.332 c S
1983.332 1750 m 1999.441 1766.109 2025.559 1766.109 2041.668 1750 c 2057.773
 1733.891 2057.773 1707.773 2041.668 1691.668 c S
1866.668 1400 m 1882.773 1383.891 1882.773 1357.773 1866.668 1341.668 c
 1850.559 1325.559 1824.441 1325.559 1808.332 1341.668 c S
2100 1283.332 m 2083.891 1267.227 2057.773 1267.227 2041.668 1283.332 c
 2025.559 1299.441 2025.559 1325.559 2041.668 1341.668 c S
1983.332 1050 m 1967.227 1066.109 1967.227 1092.227 1983.332 1108.332 c
 1999.441 1124.441 2025.559 1124.441 2041.668 1108.332 c S
1750 1166.668 m 1766.109 1182.773 1792.227 1182.773 1808.332 1166.668 c
 1824.441 1150.559 1824.441 1124.441 1808.332 1108.332 c S
2100 1166.668 m 2116.109 1150.559 2116.109 1124.441 2100 1108.332 c 2083.891
 1092.227 2057.773 1092.227 2041.668 1108.332 c S
1750 1283.332 m 1733.891 1299.441 1733.891 1325.559 1750 1341.668 c 1766.109
 1357.773 1792.227 1357.773 1808.332 1341.668 c S
1866.668 1050 m 1850.559 1033.891 1824.441 1033.891 1808.332 1050 c 1792.227
 1066.109 1792.227 1092.227 1808.332 1108.332 c S
1983.332 1400 m 1999.441 1416.109 2025.559 1416.109 2041.668 1400 c 2057.773
 1383.891 2057.773 1357.773 2041.668 1341.668 c S
1866.668 1050 m 1882.773 1033.891 1882.773 1007.773 1866.668 991.668 c 
1850.559 975.559 1824.441 975.559 1808.332 991.668 c S
2100 933.332 m 2083.891 917.227 2057.773 917.227 2041.668 933.332 c 2025.559
 949.441 2025.559 975.559 2041.668 991.668 c S
1983.332 700 m 1967.227 716.109 1967.227 742.227 1983.332 758.332 c 1999.441
 774.441 2025.559 774.441 2041.668 758.332 c S
1750 816.668 m 1766.109 832.773 1792.227 832.773 1808.332 816.668 c 1824.441
 800.559 1824.441 774.441 1808.332 758.332 c S
2100 816.668 m 2116.109 800.559 2116.109 774.441 2100 758.332 c 2083.891
 742.227 2057.773 742.227 2041.668 758.332 c S
1750 933.332 m 1733.891 949.441 1733.891 975.559 1750 991.668 c 1766.109
 1007.773 1792.227 1007.773 1808.332 991.668 c S
1866.668 700 m 1850.559 683.891 1824.441 683.891 1808.332 700 c 1792.227
 716.109 1792.227 742.227 1808.332 758.332 c S
1983.332 1050 m 1999.441 1066.109 2025.559 1066.109 2041.668 1050 c 2057.773
 1033.891 2057.773 1007.773 2041.668 991.668 c S
1866.668 700 m 1882.773 683.891 1882.773 657.773 1866.668 641.668 c 1850.559
 625.559 1824.441 625.559 1808.332 641.668 c S
2100 583.332 m 2083.891 567.227 2057.773 567.227 2041.668 583.332 c 2025.559
 599.441 2025.559 625.559 2041.668 641.668 c S
1983.332 350 m 1967.227 366.109 1967.227 392.227 1983.332 408.332 c 1999.441
 424.441 2025.559 424.441 2041.668 408.332 c S
1750 466.668 m 1766.109 482.773 1792.227 482.773 1808.332 466.668 c 1824.441
 450.559 1824.441 424.441 1808.332 408.332 c S
2100 466.668 m 2116.109 450.559 2116.109 424.441 2100 408.332 c 2083.891
 392.227 2057.773 392.227 2041.668 408.332 c S
1750 583.332 m 1733.891 599.441 1733.891 625.559 1750 641.668 c 1766.109
 657.773 1792.227 657.773 1808.332 641.668 c S
1866.668 350 m 1850.559 333.891 1824.441 333.891 1808.332 350 c 1792.227
 366.109 1792.227 392.227 1808.332 408.332 c S
1983.332 700 m 1999.441 716.109 2025.559 716.109 2041.668 700 c 2057.773
 683.891 2057.773 657.773 2041.668 641.668 c S
1866.668 350 m 1882.773 333.891 1882.773 307.773 1866.668 291.668 c 1850.559
 275.559 1824.441 275.559 1808.332 291.668 c S
2100 233.332 m 2083.891 217.227 2057.773 217.227 2041.668 233.332 c 2025.559
 249.441 2025.559 275.559 2041.668 291.668 c S
1983.332 0 m 1967.227 16.109 1967.227 42.227 1983.332 58.332 c 1999.441
 74.441 2025.559 74.441 2041.668 58.332 c S
1750 116.668 m 1766.109 132.773 1792.227 132.773 1808.332 116.668 c 1824.441
 100.559 1824.441 74.441 1808.332 58.332 c S
2100 116.668 m 2116.109 100.559 2116.109 74.441 2100 58.332 c 2083.891 
42.227 2057.773 42.227 2041.668 58.332 c S
1750 233.332 m 1733.891 249.441 1733.891 275.559 1750 291.668 c 1766.109
 307.773 1792.227 307.773 1808.332 291.668 c S
1866.668 0 m 1850.559 -16.109 1824.441 -16.109 1808.332 0 c 1792.227 16.109
 1792.227 42.227 1808.332 58.332 c S
1983.332 350 m 1999.441 366.109 2025.559 366.109 2041.668 350 c 2057.773
 333.891 2057.773 307.773 2041.668 291.668 c S
2216.668 1750 m 2232.773 1733.891 2232.773 1707.773 2216.668 1691.668 c
 2200.559 1675.559 2174.441 1675.559 2158.332 1691.668 c S
2450 1633.332 m 2433.891 1617.227 2407.773 1617.227 2391.668 1633.332 c
 2375.559 1649.441 2375.559 1675.559 2391.668 1691.668 c S
2333.332 1400 m 2317.227 1416.109 2317.227 1442.227 2333.332 1458.332 c
 2349.441 1474.441 2375.559 1474.441 2391.668 1458.332 c S
2100 1516.668 m 2116.109 1532.773 2142.227 1532.773 2158.332 1516.668 c
 2174.441 1500.559 2174.441 1474.441 2158.332 1458.332 c S
2450 1516.668 m 2466.109 1500.559 2466.109 1474.441 2450 1458.332 c 2433.891
 1442.227 2407.773 1442.227 2391.668 1458.332 c S
2100 1633.332 m 2083.891 1649.441 2083.891 1675.559 2100 1691.668 c 2116.109
 1707.773 2142.227 1707.773 2158.332 1691.668 c S
2216.668 1400 m 2200.559 1383.891 2174.441 1383.891 2158.332 1400 c 2142.227
 1416.109 2142.227 1442.227 2158.332 1458.332 c S
2333.332 1750 m 2349.441 1766.109 2375.559 1766.109 2391.668 1750 c 2407.773
 1733.891 2407.773 1707.773 2391.668 1691.668 c S
2216.668 1400 m 2232.773 1383.891 2232.773 1357.773 2216.668 1341.668 c
 2200.559 1325.559 2174.441 1325.559 2158.332 1341.668 c S
2450 1283.332 m 2433.891 1267.227 2407.773 1267.227 2391.668 1283.332 c
 2375.559 1299.441 2375.559 1325.559 2391.668 1341.668 c S
2333.332 1050 m 2317.227 1066.109 2317.227 1092.227 2333.332 1108.332 c
 2349.441 1124.441 2375.559 1124.441 2391.668 1108.332 c S
2100 1166.668 m 2116.109 1182.773 2142.227 1182.773 2158.332 1166.668 c
 2174.441 1150.559 2174.441 1124.441 2158.332 1108.332 c S
2450 1166.668 m 2466.109 1150.559 2466.109 1124.441 2450 1108.332 c 2433.891
 1092.227 2407.773 1092.227 2391.668 1108.332 c S
2100 1283.332 m 2083.891 1299.441 2083.891 1325.559 2100 1341.668 c 2116.109
 1357.773 2142.227 1357.773 2158.332 1341.668 c S
2216.668 1050 m 2200.559 1033.891 2174.441 1033.891 2158.332 1050 c 2142.227
 1066.109 2142.227 1092.227 2158.332 1108.332 c S
2333.332 1400 m 2349.441 1416.109 2375.559 1416.109 2391.668 1400 c 2407.773
 1383.891 2407.773 1357.773 2391.668 1341.668 c S
2216.668 1050 m 2232.773 1033.891 2232.773 1007.773 2216.668 991.668 c 
2200.559 975.559 2174.441 975.559 2158.332 991.668 c S
2450 933.332 m 2433.891 917.227 2407.773 917.227 2391.668 933.332 c 2375.559
 949.441 2375.559 975.559 2391.668 991.668 c S
2333.332 700 m 2317.227 716.109 2317.227 742.227 2333.332 758.332 c 2349.441
 774.441 2375.559 774.441 2391.668 758.332 c S
2100 816.668 m 2116.109 832.773 2142.227 832.773 2158.332 816.668 c 2174.441
 800.559 2174.441 774.441 2158.332 758.332 c S
2450 816.668 m 2466.109 800.559 2466.109 774.441 2450 758.332 c 2433.891
 742.227 2407.773 742.227 2391.668 758.332 c S
2100 933.332 m 2083.891 949.441 2083.891 975.559 2100 991.668 c 2116.109
 1007.773 2142.227 1007.773 2158.332 991.668 c S
2216.668 700 m 2200.559 683.891 2174.441 683.891 2158.332 700 c 2142.227
 716.109 2142.227 742.227 2158.332 758.332 c S
2333.332 1050 m 2349.441 1066.109 2375.559 1066.109 2391.668 1050 c 2407.773
 1033.891 2407.773 1007.773 2391.668 991.668 c S
2216.668 700 m 2232.773 683.891 2232.773 657.773 2216.668 641.668 c 2200.559
 625.559 2174.441 625.559 2158.332 641.668 c S
2450 583.332 m 2433.891 567.227 2407.773 567.227 2391.668 583.332 c 2375.559
 599.441 2375.559 625.559 2391.668 641.668 c S
2333.332 350 m 2317.227 366.109 2317.227 392.227 2333.332 408.332 c 2349.441
 424.441 2375.559 424.441 2391.668 408.332 c S
2100 466.668 m 2116.109 482.773 2142.227 482.773 2158.332 466.668 c 2174.441
 450.559 2174.441 424.441 2158.332 408.332 c S
2450 466.668 m 2466.109 450.559 2466.109 424.441 2450 408.332 c 2433.891
 392.227 2407.773 392.227 2391.668 408.332 c S
2100 583.332 m 2083.891 599.441 2083.891 625.559 2100 641.668 c 2116.109
 657.773 2142.227 657.773 2158.332 641.668 c S
2216.668 350 m 2200.559 333.891 2174.441 333.891 2158.332 350 c 2142.227
 366.109 2142.227 392.227 2158.332 408.332 c S
2333.332 700 m 2349.441 716.109 2375.559 716.109 2391.668 700 c 2407.773
 683.891 2407.773 657.773 2391.668 641.668 c S
2216.668 350 m 2232.773 333.891 2232.773 307.773 2216.668 291.668 c 2200.559
 275.559 2174.441 275.559 2158.332 291.668 c S
2450 233.332 m 2433.891 217.227 2407.773 217.227 2391.668 233.332 c 2375.559
 249.441 2375.559 275.559 2391.668 291.668 c S
2333.332 0 m 2317.227 16.109 2317.227 42.227 2333.332 58.332 c 2349.441
 74.441 2375.559 74.441 2391.668 58.332 c S
2100 116.668 m 2116.109 132.773 2142.227 132.773 2158.332 116.668 c 2174.441
 100.559 2174.441 74.441 2158.332 58.332 c S
2450 116.668 m 2466.109 100.559 2466.109 74.441 2450 58.332 c 2433.891 
42.227 2407.773 42.227 2391.668 58.332 c S
2100 233.332 m 2083.891 249.441 2083.891 275.559 2100 291.668 c 2116.109
 307.773 2142.227 307.773 2158.332 291.668 c S
2216.668 0 m 2200.559 -16.109 2174.441 -16.109 2158.332 0 c 2142.227 16.109
 2142.227 42.227 2158.332 58.332 c S
2333.332 350 m 2349.441 366.109 2375.559 366.109 2391.668 350 c 2407.773
 333.891 2407.773 307.773 2391.668 291.668 c S
Q Q
showpage
%%Trailer
%%Trailer
cleartomark
countdictstack
exch sub { end } repeat
restore
%%EOF
