%!PS-Adobe-2.0 EPSF-2.0
%%BoundingBox: 0 0 1800 1559
%%HiResBoundingBox: 0.000000 0.000000 1800.000000 1559.000000
%%Creator: cairo 1.14.2 (http://cairographics.org)
%%CreationDate: Mon Sep  7 08:22:01 2015
%%DocumentData: Clean7Bit
%%LanguageLevel: 2
%%DocumentMedia: 635x550mm 1800 1559 0 () ()
%%EndComments
% EPSF created by ps2eps 1.68
%%BeginProlog
save
countdictstack
mark
newpath
/showpage {} def
/setpagedevice {pop} def
%%EndProlog
%%Page 1 1
%%BeginProlog
/languagelevel where
{ pop languagelevel } { 1 } ifelse
2 lt { /Helvetica findfont 12 scalefont setfont 50 500 moveto
  (This print job requires a PostScript Language Level 2 printer.) show
  showpage quit } if
/q { gsave } bind def
/Q { grestore } bind def
/cm { 6 array astore concat } bind def
/w { setlinewidth } bind def
/J { setlinecap } bind def
/j { setlinejoin } bind def
/M { setmiterlimit } bind def
/d { setdash } bind def
/m { moveto } bind def
/l { lineto } bind def
/c { curveto } bind def
/h { closepath } bind def
/re { exch dup neg 3 1 roll 5 3 roll moveto 0 rlineto
      0 exch rlineto 0 rlineto closepath } bind def
/S { stroke } bind def
/f { fill } bind def
/f* { eofill } bind def
/n { newpath } bind def
/W { clip } bind def
/W* { eoclip } bind def
/BT { } bind def
/ET { } bind def
/pdfmark where { pop globaldict /?pdfmark /exec load put }
    { globaldict begin /?pdfmark /pop load def /pdfmark
    /cleartomark load def end } ifelse
/BDC { mark 3 1 roll /BDC pdfmark } bind def
/EMC { mark /EMC pdfmark } bind def
/cairo_store_point { /cairo_point_y exch def /cairo_point_x exch def } def
/Tj { show currentpoint cairo_store_point } bind def
/TJ {
  {
    dup
    type /stringtype eq
    { show } { -0.001 mul 0 cairo_font_matrix dtransform rmoveto } ifelse
  } forall
  currentpoint cairo_store_point
} bind def
/cairo_selectfont { cairo_font_matrix aload pop pop pop 0 0 6 array astore
    cairo_font exch selectfont cairo_point_x cairo_point_y moveto } bind def
/Tf { pop /cairo_font exch def /cairo_font_matrix where
      { pop cairo_selectfont } if } bind def
/Td { matrix translate cairo_font_matrix matrix concatmatrix dup
      /cairo_font_matrix exch def dup 4 get exch 5 get cairo_store_point
      /cairo_font where { pop cairo_selectfont } if } bind def
/Tm { 2 copy 8 2 roll 6 array astore /cairo_font_matrix exch def
      cairo_store_point /cairo_font where { pop cairo_selectfont } if } bind def
/g { setgray } bind def
/rg { setrgbcolor } bind def
/d1 { setcachedevice } bind def
/cairo_set_page_size {
  % Change paper size, but only if different from previous paper size otherwise
  % duplex fails. PLRM specifies a tolerance of 5 pts when matching paper size
  % so we use the same when checking if the size changes.
  /setpagedevice where {
    pop currentpagedevice
    /PageSize known {
      2 copy
      currentpagedevice /PageSize get aload pop
      exch 4 1 roll
      sub abs 5 gt
      3 1 roll
      sub abs 5 gt
      or
    } {
      true
    } ifelse
    {
      2 array astore
      2 dict begin
        /PageSize exch def
        /ImagingBBox null def
      currentdict end
      setpagedevice
    } {
      pop pop
    } ifelse
  } {
    pop
  } ifelse
} def
%%EndProlog
%%BeginSetup
%%EndSetup
%%Page: 1 1
%%BeginPageSetup
%%PageMedia: 635x550mm
%%PageBoundingBox: 0 0 1800 1559
1800 1559 cairo_set_page_size
%%EndPageSetup
q 0 0 1800 1559 rectclip q
Q q
0.984314 g
0 1559 1800 -1558.848 re f*
0.788235 g
1.875 w
0 J
1 j
[] 0.0 d
4 M 0 1559 1800 -1558.848 re S
0 g
2.5 w
1 J
75 332.129 m 50 317.695 50 375.434 125 303.262 c S
50 288.828 m 50 317.695 0 288.828 100 259.961 c S
25 418.734 m 0 404.301 50 375.434 25 476.469 c S
75 187.793 m 50 202.227 50 144.492 125 216.66 c S
50 231.094 m 50 202.227 0 231.094 100 259.961 c S
25 101.191 m 0 115.625 50 144.492 25 43.457 c S
225 72.324 m 200 57.891 200 115.625 275 43.457 c S
Q q
186 43 66 -42.848 re W n
0 g
2.5 w
1 J
1 j
[] 0.0 d
4 M 200 29.023 m 200 57.891 150 29.023 250 0.152 c S
Q q
0 g
2.5 w
1 J
1 j
[] 0.0 d
4 M 125 158.926 m 150 144.492 100 115.625 125 216.66 c S
Q q
48 43 66 -42.848 re W n
0 g
2.5 w
1 J
1 j
[] 0.0 d
4 M 100 29.023 m 100 57.891 150 29.023 50 0.152 c S
Q q
0 g
2.5 w
1 J
1 j
[] 0.0 d
4 M 175 158.926 m 150 144.492 200 115.625 175 216.66 c S
75 72.324 m 100 57.891 100 115.625 25 43.457 c S
75 851.746 m 50 837.312 50 895.047 125 822.879 c S
50 808.445 m 50 837.312 0 808.445 100 779.578 c S
25 938.348 m 0 923.914 50 895.047 25 996.082 c S
75 707.41 m 50 721.844 50 664.105 125 736.277 c S
50 750.711 m 50 721.844 0 750.711 100 779.578 c S
25 620.805 m 0 635.238 50 664.105 25 563.07 c S
225 591.938 m 200 577.504 200 635.238 275 563.07 c S
200 548.637 m 200 577.504 150 548.637 250 519.77 c S
125 678.539 m 150 664.105 100 635.238 125 736.277 c S
100 548.637 m 100 577.504 150 548.637 50 519.77 c S
175 678.539 m 150 664.105 200 635.238 175 736.277 c S
75 591.938 m 100 577.504 100 635.238 25 563.07 c S
100 490.902 m 100 462.035 150 490.902 50 519.77 c S
75 447.602 m 100 462.035 100 404.301 25 476.469 c S
225 447.602 m 200 462.035 200 404.301 275 476.469 c S
125 361 m 150 375.434 100 404.301 125 303.262 c S
200 490.902 m 200 462.035 150 490.902 250 519.77 c S
175 361 m 150 375.434 200 404.301 175 303.262 c S
375 332.129 m 350 317.695 350 375.434 425 303.262 c S
350 288.828 m 350 317.695 300 288.828 400 259.961 c S
275 418.734 m 300 404.301 250 375.434 275 476.469 c S
250 288.828 m 250 317.695 300 288.828 200 259.961 c S
325 418.734 m 300 404.301 350 375.434 325 476.469 c S
225 332.129 m 250 317.695 250 375.434 175 303.262 c S
250 231.094 m 250 202.227 300 231.094 200 259.961 c S
225 187.793 m 250 202.227 250 144.492 175 216.66 c S
375 187.793 m 350 202.227 350 144.492 425 216.66 c S
275 101.191 m 300 115.625 250 144.492 275 43.457 c S
350 231.094 m 350 202.227 300 231.094 400 259.961 c S
325 101.191 m 300 115.625 350 144.492 325 43.457 c S
525 72.324 m 500 57.891 500 115.625 575 43.457 c S
Q q
486 43 66 -42.848 re W n
0 g
2.5 w
1 J
1 j
[] 0.0 d
4 M 500 29.023 m 500 57.891 450 29.023 550 0.152 c S
Q q
0 g
2.5 w
1 J
1 j
[] 0.0 d
4 M 425 158.926 m 450 144.492 400 115.625 425 216.66 c S
Q q
348 43 66 -42.848 re W n
0 g
2.5 w
1 J
1 j
[] 0.0 d
4 M 400 29.023 m 400 57.891 450 29.023 350 0.152 c S
Q q
0 g
2.5 w
1 J
1 j
[] 0.0 d
4 M 475 158.926 m 450 144.492 500 115.625 475 216.66 c S
375 72.324 m 400 57.891 400 115.625 325 43.457 c S
75 1371.359 m 50 1356.926 50 1414.664 125 1342.492 c S
50 1328.059 m 50 1356.926 0 1328.059 100 1299.191 c S
25 1457.965 m 0 1443.531 50 1414.664 25 1515.699 c S
75 1227.023 m 50 1241.457 50 1183.723 125 1255.891 c S
50 1270.324 m 50 1241.457 0 1270.324 100 1299.191 c S
25 1140.422 m 0 1154.855 50 1183.723 25 1082.688 c S
225 1111.555 m 200 1097.121 200 1154.855 275 1082.688 c S
200 1068.254 m 200 1097.121 150 1068.254 250 1039.383 c S
125 1198.156 m 150 1183.723 100 1154.855 125 1255.891 c S
100 1068.254 m 100 1097.121 150 1068.254 50 1039.383 c S
175 1198.156 m 150 1183.723 200 1154.855 175 1255.891 c S
75 1111.555 m 100 1097.121 100 1154.855 25 1082.688 c S
100 1010.516 m 100 981.648 150 1010.516 50 1039.383 c S
75 967.215 m 100 981.648 100 923.914 25 996.082 c S
225 967.215 m 200 981.648 200 923.914 275 996.082 c S
125 880.613 m 150 895.047 100 923.914 125 822.879 c S
200 1010.516 m 200 981.648 150 1010.516 250 1039.383 c S
175 880.613 m 150 895.047 200 923.914 175 822.879 c S
375 851.746 m 350 837.312 350 895.047 425 822.879 c S
350 808.445 m 350 837.312 300 808.445 400 779.578 c S
275 938.348 m 300 923.914 250 895.047 275 996.082 c S
250 808.445 m 250 837.312 300 808.445 200 779.578 c S
325 938.348 m 300 923.914 350 895.047 325 996.082 c S
225 851.746 m 250 837.312 250 895.047 175 822.879 c S
250 750.711 m 250 721.844 300 750.711 200 779.578 c S
225 707.41 m 250 721.844 250 664.105 175 736.277 c S
375 707.41 m 350 721.844 350 664.105 425 736.277 c S
275 620.805 m 300 635.238 250 664.105 275 563.07 c S
350 750.711 m 350 721.844 300 750.711 400 779.578 c S
325 620.805 m 300 635.238 350 664.105 325 563.07 c S
525 591.938 m 500 577.504 500 635.238 575 563.07 c S
500 548.637 m 500 577.504 450 548.637 550 519.77 c S
425 678.539 m 450 664.105 400 635.238 425 736.277 c S
400 548.637 m 400 577.504 450 548.637 350 519.77 c S
475 678.539 m 450 664.105 500 635.238 475 736.277 c S
375 591.938 m 400 577.504 400 635.238 325 563.07 c S
400 490.902 m 400 462.035 450 490.902 350 519.77 c S
375 447.602 m 400 462.035 400 404.301 325 476.469 c S
525 447.602 m 500 462.035 500 404.301 575 476.469 c S
425 361 m 450 375.434 400 404.301 425 303.262 c S
500 490.902 m 500 462.035 450 490.902 550 519.77 c S
475 361 m 450 375.434 500 404.301 475 303.262 c S
675 332.129 m 650 317.695 650 375.434 725 303.262 c S
650 288.828 m 650 317.695 600 288.828 700 259.961 c S
575 418.734 m 600 404.301 550 375.434 575 476.469 c S
550 288.828 m 550 317.695 600 288.828 500 259.961 c S
625 418.734 m 600 404.301 650 375.434 625 476.469 c S
525 332.129 m 550 317.695 550 375.434 475 303.262 c S
550 231.094 m 550 202.227 600 231.094 500 259.961 c S
525 187.793 m 550 202.227 550 144.492 475 216.66 c S
675 187.793 m 650 202.227 650 144.492 725 216.66 c S
575 101.191 m 600 115.625 550 144.492 575 43.457 c S
650 231.094 m 650 202.227 600 231.094 700 259.961 c S
625 101.191 m 600 115.625 650 144.492 625 43.457 c S
825 72.324 m 800 57.891 800 115.625 875 43.457 c S
Q q
786 43 66 -42.848 re W n
0 g
2.5 w
1 J
1 j
[] 0.0 d
4 M 800 29.023 m 800 57.891 750 29.023 850 0.152 c S
Q q
0 g
2.5 w
1 J
1 j
[] 0.0 d
4 M 725 158.926 m 750 144.492 700 115.625 725 216.66 c S
Q q
648 43 66 -42.848 re W n
0 g
2.5 w
1 J
1 j
[] 0.0 d
4 M 700 29.023 m 700 57.891 750 29.023 650 0.152 c S
Q q
0 g
2.5 w
1 J
1 j
[] 0.0 d
4 M 775 158.926 m 750 144.492 800 115.625 775 216.66 c S
675 72.324 m 700 57.891 700 115.625 625 43.457 c S
100 1530.133 m 100 1501.266 150 1530.133 50 1559 c S
75 1486.832 m 100 1501.266 100 1443.531 25 1515.699 c S
225 1486.832 m 200 1501.266 200 1443.531 275 1515.699 c S
125 1400.23 m 150 1414.664 100 1443.531 125 1342.492 c S
200 1530.133 m 200 1501.266 150 1530.133 250 1559 c S
175 1400.23 m 150 1414.664 200 1443.531 175 1342.492 c S
375 1371.359 m 350 1356.926 350 1414.664 425 1342.492 c S
350 1328.059 m 350 1356.926 300 1328.059 400 1299.191 c S
275 1457.965 m 300 1443.531 250 1414.664 275 1515.699 c S
250 1328.059 m 250 1356.926 300 1328.059 200 1299.191 c S
325 1457.965 m 300 1443.531 350 1414.664 325 1515.699 c S
225 1371.359 m 250 1356.926 250 1414.664 175 1342.492 c S
250 1270.324 m 250 1241.457 300 1270.324 200 1299.191 c S
225 1227.023 m 250 1241.457 250 1183.723 175 1255.891 c S
375 1227.023 m 350 1241.457 350 1183.723 425 1255.891 c S
275 1140.422 m 300 1154.855 250 1183.723 275 1082.688 c S
350 1270.324 m 350 1241.457 300 1270.324 400 1299.191 c S
325 1140.422 m 300 1154.855 350 1183.723 325 1082.688 c S
525 1111.555 m 500 1097.121 500 1154.855 575 1082.688 c S
500 1068.254 m 500 1097.121 450 1068.254 550 1039.383 c S
425 1198.156 m 450 1183.723 400 1154.855 425 1255.891 c S
400 1068.254 m 400 1097.121 450 1068.254 350 1039.383 c S
475 1198.156 m 450 1183.723 500 1154.855 475 1255.891 c S
375 1111.555 m 400 1097.121 400 1154.855 325 1082.688 c S
400 1010.516 m 400 981.648 450 1010.516 350 1039.383 c S
375 967.215 m 400 981.648 400 923.914 325 996.082 c S
525 967.215 m 500 981.648 500 923.914 575 996.082 c S
425 880.613 m 450 895.047 400 923.914 425 822.879 c S
500 1010.516 m 500 981.648 450 1010.516 550 1039.383 c S
475 880.613 m 450 895.047 500 923.914 475 822.879 c S
675 851.746 m 650 837.312 650 895.047 725 822.879 c S
650 808.445 m 650 837.312 600 808.445 700 779.578 c S
575 938.348 m 600 923.914 550 895.047 575 996.082 c S
550 808.445 m 550 837.312 600 808.445 500 779.578 c S
625 938.348 m 600 923.914 650 895.047 625 996.082 c S
525 851.746 m 550 837.312 550 895.047 475 822.879 c S
550 750.711 m 550 721.844 600 750.711 500 779.578 c S
525 707.41 m 550 721.844 550 664.105 475 736.277 c S
675 707.41 m 650 721.844 650 664.105 725 736.277 c S
575 620.805 m 600 635.238 550 664.105 575 563.07 c S
650 750.711 m 650 721.844 600 750.711 700 779.578 c S
625 620.805 m 600 635.238 650 664.105 625 563.07 c S
825 591.938 m 800 577.504 800 635.238 875 563.07 c S
800 548.637 m 800 577.504 750 548.637 850 519.77 c S
725 678.539 m 750 664.105 700 635.238 725 736.277 c S
700 548.637 m 700 577.504 750 548.637 650 519.77 c S
775 678.539 m 750 664.105 800 635.238 775 736.277 c S
675 591.938 m 700 577.504 700 635.238 625 563.07 c S
700 490.902 m 700 462.035 750 490.902 650 519.77 c S
675 447.602 m 700 462.035 700 404.301 625 476.469 c S
825 447.602 m 800 462.035 800 404.301 875 476.469 c S
725 361 m 750 375.434 700 404.301 725 303.262 c S
800 490.902 m 800 462.035 750 490.902 850 519.77 c S
775 361 m 750 375.434 800 404.301 775 303.262 c S
975 332.129 m 950 317.695 950 375.434 1025 303.262 c S
950 288.828 m 950 317.695 900 288.828 1000 259.961 c S
875 418.734 m 900 404.301 850 375.434 875 476.469 c S
850 288.828 m 850 317.695 900 288.828 800 259.961 c S
925 418.734 m 900 404.301 950 375.434 925 476.469 c S
825 332.129 m 850 317.695 850 375.434 775 303.262 c S
850 231.094 m 850 202.227 900 231.094 800 259.961 c S
825 187.793 m 850 202.227 850 144.492 775 216.66 c S
975 187.793 m 950 202.227 950 144.492 1025 216.66 c S
875 101.191 m 900 115.625 850 144.492 875 43.457 c S
950 231.094 m 950 202.227 900 231.094 1000 259.961 c S
925 101.191 m 900 115.625 950 144.492 925 43.457 c S
1125 72.324 m 1100 57.891 1100 115.625 1175 43.457 c S
Q q
1086 43 66 -42.848 re W n
0 g
2.5 w
1 J
1 j
[] 0.0 d
4 M 1100 29.023 m 1100 57.891 1050 29.023 1150 0.152 c S
Q q
0 g
2.5 w
1 J
1 j
[] 0.0 d
4 M 1025 158.926 m 1050 144.492 1000 115.625 1025 216.66 c S
Q q
948 43 66 -42.848 re W n
0 g
2.5 w
1 J
1 j
[] 0.0 d
4 M 1000 29.023 m 1000 57.891 1050 29.023 950 0.152 c S
Q q
0 g
2.5 w
1 J
1 j
[] 0.0 d
4 M 1075 158.926 m 1050 144.492 1100 115.625 1075 216.66 c S
975 72.324 m 1000 57.891 1000 115.625 925 43.457 c S
400 1530.133 m 400 1501.266 450 1530.133 350 1559 c S
375 1486.832 m 400 1501.266 400 1443.531 325 1515.699 c S
525 1486.832 m 500 1501.266 500 1443.531 575 1515.699 c S
425 1400.23 m 450 1414.664 400 1443.531 425 1342.492 c S
500 1530.133 m 500 1501.266 450 1530.133 550 1559 c S
475 1400.23 m 450 1414.664 500 1443.531 475 1342.492 c S
675 1371.359 m 650 1356.926 650 1414.664 725 1342.492 c S
650 1328.059 m 650 1356.926 600 1328.059 700 1299.191 c S
575 1457.965 m 600 1443.531 550 1414.664 575 1515.699 c S
550 1328.059 m 550 1356.926 600 1328.059 500 1299.191 c S
625 1457.965 m 600 1443.531 650 1414.664 625 1515.699 c S
525 1371.359 m 550 1356.926 550 1414.664 475 1342.492 c S
550 1270.324 m 550 1241.457 600 1270.324 500 1299.191 c S
525 1227.023 m 550 1241.457 550 1183.723 475 1255.891 c S
675 1227.023 m 650 1241.457 650 1183.723 725 1255.891 c S
575 1140.422 m 600 1154.855 550 1183.723 575 1082.688 c S
650 1270.324 m 650 1241.457 600 1270.324 700 1299.191 c S
625 1140.422 m 600 1154.855 650 1183.723 625 1082.688 c S
825 1111.555 m 800 1097.121 800 1154.855 875 1082.688 c S
800 1068.254 m 800 1097.121 750 1068.254 850 1039.383 c S
725 1198.156 m 750 1183.723 700 1154.855 725 1255.891 c S
700 1068.254 m 700 1097.121 750 1068.254 650 1039.383 c S
775 1198.156 m 750 1183.723 800 1154.855 775 1255.891 c S
675 1111.555 m 700 1097.121 700 1154.855 625 1082.688 c S
700 1010.516 m 700 981.648 750 1010.516 650 1039.383 c S
675 967.215 m 700 981.648 700 923.914 625 996.082 c S
825 967.215 m 800 981.648 800 923.914 875 996.082 c S
725 880.613 m 750 895.047 700 923.914 725 822.879 c S
800 1010.516 m 800 981.648 750 1010.516 850 1039.383 c S
775 880.613 m 750 895.047 800 923.914 775 822.879 c S
975 851.746 m 950 837.312 950 895.047 1025 822.879 c S
950 808.445 m 950 837.312 900 808.445 1000 779.578 c S
875 938.348 m 900 923.914 850 895.047 875 996.082 c S
850 808.445 m 850 837.312 900 808.445 800 779.578 c S
925 938.348 m 900 923.914 950 895.047 925 996.082 c S
825 851.746 m 850 837.312 850 895.047 775 822.879 c S
850 750.711 m 850 721.844 900 750.711 800 779.578 c S
825 707.41 m 850 721.844 850 664.105 775 736.277 c S
975 707.41 m 950 721.844 950 664.105 1025 736.277 c S
875 620.805 m 900 635.238 850 664.105 875 563.07 c S
950 750.711 m 950 721.844 900 750.711 1000 779.578 c S
925 620.805 m 900 635.238 950 664.105 925 563.07 c S
1125 591.938 m 1100 577.504 1100 635.238 1175 563.07 c S
1100 548.637 m 1100 577.504 1050 548.637 1150 519.77 c S
1025 678.539 m 1050 664.105 1000 635.238 1025 736.277 c S
1000 548.637 m 1000 577.504 1050 548.637 950 519.77 c S
1075 678.539 m 1050 664.105 1100 635.238 1075 736.277 c S
975 591.938 m 1000 577.504 1000 635.238 925 563.07 c S
1000 490.902 m 1000 462.035 1050 490.902 950 519.77 c S
975 447.602 m 1000 462.035 1000 404.301 925 476.469 c S
1125 447.602 m 1100 462.035 1100 404.301 1175 476.469 c S
1025 361 m 1050 375.434 1000 404.301 1025 303.262 c S
1100 490.902 m 1100 462.035 1050 490.902 1150 519.77 c S
1075 361 m 1050 375.434 1100 404.301 1075 303.262 c S
1275 332.129 m 1250 317.695 1250 375.434 1325 303.262 c S
1250 288.828 m 1250 317.695 1200 288.828 1300 259.961 c S
1175 418.734 m 1200 404.301 1150 375.434 1175 476.469 c S
1150 288.828 m 1150 317.695 1200 288.828 1100 259.961 c S
1225 418.734 m 1200 404.301 1250 375.434 1225 476.469 c S
1125 332.129 m 1150 317.695 1150 375.434 1075 303.262 c S
1150 231.094 m 1150 202.227 1200 231.094 1100 259.961 c S
1125 187.793 m 1150 202.227 1150 144.492 1075 216.66 c S
1275 187.793 m 1250 202.227 1250 144.492 1325 216.66 c S
1175 101.191 m 1200 115.625 1150 144.492 1175 43.457 c S
1250 231.094 m 1250 202.227 1200 231.094 1300 259.961 c S
1225 101.191 m 1200 115.625 1250 144.492 1225 43.457 c S
1425 72.324 m 1400 57.891 1400 115.625 1475 43.457 c S
Q q
1386 43 66 -42.848 re W n
0 g
2.5 w
1 J
1 j
[] 0.0 d
4 M 1400 29.023 m 1400 57.891 1350 29.023 1450 0.152 c S
Q q
0 g
2.5 w
1 J
1 j
[] 0.0 d
4 M 1325 158.926 m 1350 144.492 1300 115.625 1325 216.66 c S
Q q
1248 43 66 -42.848 re W n
0 g
2.5 w
1 J
1 j
[] 0.0 d
4 M 1300 29.023 m 1300 57.891 1350 29.023 1250 0.152 c S
Q q
0 g
2.5 w
1 J
1 j
[] 0.0 d
4 M 1375 158.926 m 1350 144.492 1400 115.625 1375 216.66 c S
1275 72.324 m 1300 57.891 1300 115.625 1225 43.457 c S
700 1530.133 m 700 1501.266 750 1530.133 650 1559 c S
675 1486.832 m 700 1501.266 700 1443.531 625 1515.699 c S
825 1486.832 m 800 1501.266 800 1443.531 875 1515.699 c S
725 1400.23 m 750 1414.664 700 1443.531 725 1342.492 c S
800 1530.133 m 800 1501.266 750 1530.133 850 1559 c S
775 1400.23 m 750 1414.664 800 1443.531 775 1342.492 c S
975 1371.359 m 950 1356.926 950 1414.664 1025 1342.492 c S
950 1328.059 m 950 1356.926 900 1328.059 1000 1299.191 c S
875 1457.965 m 900 1443.531 850 1414.664 875 1515.699 c S
850 1328.059 m 850 1356.926 900 1328.059 800 1299.191 c S
925 1457.965 m 900 1443.531 950 1414.664 925 1515.699 c S
825 1371.359 m 850 1356.926 850 1414.664 775 1342.492 c S
850 1270.324 m 850 1241.457 900 1270.324 800 1299.191 c S
825 1227.023 m 850 1241.457 850 1183.723 775 1255.891 c S
975 1227.023 m 950 1241.457 950 1183.723 1025 1255.891 c S
875 1140.422 m 900 1154.855 850 1183.723 875 1082.688 c S
950 1270.324 m 950 1241.457 900 1270.324 1000 1299.191 c S
925 1140.422 m 900 1154.855 950 1183.723 925 1082.688 c S
1125 1111.555 m 1100 1097.121 1100 1154.855 1175 1082.688 c S
1100 1068.254 m 1100 1097.121 1050 1068.254 1150 1039.383 c S
1025 1198.156 m 1050 1183.723 1000 1154.855 1025 1255.891 c S
1000 1068.254 m 1000 1097.121 1050 1068.254 950 1039.383 c S
1075 1198.156 m 1050 1183.723 1100 1154.855 1075 1255.891 c S
975 1111.555 m 1000 1097.121 1000 1154.855 925 1082.688 c S
1000 1010.516 m 1000 981.648 1050 1010.516 950 1039.383 c S
975 967.215 m 1000 981.648 1000 923.914 925 996.082 c S
1125 967.215 m 1100 981.648 1100 923.914 1175 996.082 c S
1025 880.613 m 1050 895.047 1000 923.914 1025 822.879 c S
1100 1010.516 m 1100 981.648 1050 1010.516 1150 1039.383 c S
1075 880.613 m 1050 895.047 1100 923.914 1075 822.879 c S
1275 851.746 m 1250 837.312 1250 895.047 1325 822.879 c S
1250 808.445 m 1250 837.312 1200 808.445 1300 779.578 c S
1175 938.348 m 1200 923.914 1150 895.047 1175 996.082 c S
1150 808.445 m 1150 837.312 1200 808.445 1100 779.578 c S
1225 938.348 m 1200 923.914 1250 895.047 1225 996.082 c S
1125 851.746 m 1150 837.312 1150 895.047 1075 822.879 c S
1150 750.711 m 1150 721.844 1200 750.711 1100 779.578 c S
1125 707.41 m 1150 721.844 1150 664.105 1075 736.277 c S
1275 707.41 m 1250 721.844 1250 664.105 1325 736.277 c S
1175 620.805 m 1200 635.238 1150 664.105 1175 563.07 c S
1250 750.711 m 1250 721.844 1200 750.711 1300 779.578 c S
1225 620.805 m 1200 635.238 1250 664.105 1225 563.07 c S
1425 591.938 m 1400 577.504 1400 635.238 1475 563.07 c S
1400 548.637 m 1400 577.504 1350 548.637 1450 519.77 c S
1325 678.539 m 1350 664.105 1300 635.238 1325 736.277 c S
1300 548.637 m 1300 577.504 1350 548.637 1250 519.77 c S
1375 678.539 m 1350 664.105 1400 635.238 1375 736.277 c S
1275 591.938 m 1300 577.504 1300 635.238 1225 563.07 c S
1300 490.902 m 1300 462.035 1350 490.902 1250 519.77 c S
1275 447.602 m 1300 462.035 1300 404.301 1225 476.469 c S
1425 447.602 m 1400 462.035 1400 404.301 1475 476.469 c S
1325 361 m 1350 375.434 1300 404.301 1325 303.262 c S
1400 490.902 m 1400 462.035 1350 490.902 1450 519.77 c S
1375 361 m 1350 375.434 1400 404.301 1375 303.262 c S
1575 332.129 m 1550 317.695 1550 375.434 1625 303.262 c S
1550 288.828 m 1550 317.695 1500 288.828 1600 259.961 c S
1475 418.734 m 1500 404.301 1450 375.434 1475 476.469 c S
1450 288.828 m 1450 317.695 1500 288.828 1400 259.961 c S
1525 418.734 m 1500 404.301 1550 375.434 1525 476.469 c S
1425 332.129 m 1450 317.695 1450 375.434 1375 303.262 c S
1450 231.094 m 1450 202.227 1500 231.094 1400 259.961 c S
1425 187.793 m 1450 202.227 1450 144.492 1375 216.66 c S
1575 187.793 m 1550 202.227 1550 144.492 1625 216.66 c S
1475 101.191 m 1500 115.625 1450 144.492 1475 43.457 c S
1550 231.094 m 1550 202.227 1500 231.094 1600 259.961 c S
1525 101.191 m 1500 115.625 1550 144.492 1525 43.457 c S
1725 72.324 m 1700 57.891 1700 115.625 1775 43.457 c S
Q q
1686 43 66 -42.848 re W n
0 g
2.5 w
1 J
1 j
[] 0.0 d
4 M 1700 29.023 m 1700 57.891 1650 29.023 1750 0.152 c S
Q q
0 g
2.5 w
1 J
1 j
[] 0.0 d
4 M 1625 158.926 m 1650 144.492 1600 115.625 1625 216.66 c S
Q q
1548 43 66 -42.848 re W n
0 g
2.5 w
1 J
1 j
[] 0.0 d
4 M 1600 29.023 m 1600 57.891 1650 29.023 1550 0.152 c S
Q q
0 g
2.5 w
1 J
1 j
[] 0.0 d
4 M 1675 158.926 m 1650 144.492 1700 115.625 1675 216.66 c S
1575 72.324 m 1600 57.891 1600 115.625 1525 43.457 c S
1000 1530.133 m 1000 1501.266 1050 1530.133 950 1559 c S
975 1486.832 m 1000 1501.266 1000 1443.531 925 1515.699 c S
1125 1486.832 m 1100 1501.266 1100 1443.531 1175 1515.699 c S
1025 1400.23 m 1050 1414.664 1000 1443.531 1025 1342.492 c S
1100 1530.133 m 1100 1501.266 1050 1530.133 1150 1559 c S
1075 1400.23 m 1050 1414.664 1100 1443.531 1075 1342.492 c S
1275 1371.359 m 1250 1356.926 1250 1414.664 1325 1342.492 c S
1250 1328.059 m 1250 1356.926 1200 1328.059 1300 1299.191 c S
1175 1457.965 m 1200 1443.531 1150 1414.664 1175 1515.699 c S
1150 1328.059 m 1150 1356.926 1200 1328.059 1100 1299.191 c S
1225 1457.965 m 1200 1443.531 1250 1414.664 1225 1515.699 c S
1125 1371.359 m 1150 1356.926 1150 1414.664 1075 1342.492 c S
1150 1270.324 m 1150 1241.457 1200 1270.324 1100 1299.191 c S
1125 1227.023 m 1150 1241.457 1150 1183.723 1075 1255.891 c S
1275 1227.023 m 1250 1241.457 1250 1183.723 1325 1255.891 c S
1175 1140.422 m 1200 1154.855 1150 1183.723 1175 1082.688 c S
1250 1270.324 m 1250 1241.457 1200 1270.324 1300 1299.191 c S
1225 1140.422 m 1200 1154.855 1250 1183.723 1225 1082.688 c S
1425 1111.555 m 1400 1097.121 1400 1154.855 1475 1082.688 c S
1400 1068.254 m 1400 1097.121 1350 1068.254 1450 1039.383 c S
1325 1198.156 m 1350 1183.723 1300 1154.855 1325 1255.891 c S
1300 1068.254 m 1300 1097.121 1350 1068.254 1250 1039.383 c S
1375 1198.156 m 1350 1183.723 1400 1154.855 1375 1255.891 c S
1275 1111.555 m 1300 1097.121 1300 1154.855 1225 1082.688 c S
1300 1010.516 m 1300 981.648 1350 1010.516 1250 1039.383 c S
1275 967.215 m 1300 981.648 1300 923.914 1225 996.082 c S
1425 967.215 m 1400 981.648 1400 923.914 1475 996.082 c S
1325 880.613 m 1350 895.047 1300 923.914 1325 822.879 c S
1400 1010.516 m 1400 981.648 1350 1010.516 1450 1039.383 c S
1375 880.613 m 1350 895.047 1400 923.914 1375 822.879 c S
1575 851.746 m 1550 837.312 1550 895.047 1625 822.879 c S
1550 808.445 m 1550 837.312 1500 808.445 1600 779.578 c S
1475 938.348 m 1500 923.914 1450 895.047 1475 996.082 c S
1450 808.445 m 1450 837.312 1500 808.445 1400 779.578 c S
1525 938.348 m 1500 923.914 1550 895.047 1525 996.082 c S
1425 851.746 m 1450 837.312 1450 895.047 1375 822.879 c S
1450 750.711 m 1450 721.844 1500 750.711 1400 779.578 c S
1425 707.41 m 1450 721.844 1450 664.105 1375 736.277 c S
1575 707.41 m 1550 721.844 1550 664.105 1625 736.277 c S
1475 620.805 m 1500 635.238 1450 664.105 1475 563.07 c S
1550 750.711 m 1550 721.844 1500 750.711 1600 779.578 c S
1525 620.805 m 1500 635.238 1550 664.105 1525 563.07 c S
1725 591.938 m 1700 577.504 1700 635.238 1775 563.07 c S
1700 548.637 m 1700 577.504 1650 548.637 1750 519.77 c S
1625 678.539 m 1650 664.105 1600 635.238 1625 736.277 c S
1600 548.637 m 1600 577.504 1650 548.637 1550 519.77 c S
1675 678.539 m 1650 664.105 1700 635.238 1675 736.277 c S
1575 591.938 m 1600 577.504 1600 635.238 1525 563.07 c S
1600 490.902 m 1600 462.035 1650 490.902 1550 519.77 c S
1575 447.602 m 1600 462.035 1600 404.301 1525 476.469 c S
1725 447.602 m 1700 462.035 1700 404.301 1775 476.469 c S
1625 361 m 1650 375.434 1600 404.301 1625 303.262 c S
1700 490.902 m 1700 462.035 1650 490.902 1750 519.77 c S
1675 361 m 1650 375.434 1700 404.301 1675 303.262 c S
1775 418.734 m 1800 404.301 1750 375.434 1775 476.469 c S
1750 288.828 m 1750 317.695 1800 288.828 1700 259.961 c S
1725 332.129 m 1750 317.695 1750 375.434 1675 303.262 c S
1750 231.094 m 1750 202.227 1800 231.094 1700 259.961 c S
1725 187.793 m 1750 202.227 1750 144.492 1675 216.66 c S
1775 101.191 m 1800 115.625 1750 144.492 1775 43.457 c S
1300 1530.133 m 1300 1501.266 1350 1530.133 1250 1559 c S
1275 1486.832 m 1300 1501.266 1300 1443.531 1225 1515.699 c S
1425 1486.832 m 1400 1501.266 1400 1443.531 1475 1515.699 c S
1325 1400.23 m 1350 1414.664 1300 1443.531 1325 1342.492 c S
1400 1530.133 m 1400 1501.266 1350 1530.133 1450 1559 c S
1375 1400.23 m 1350 1414.664 1400 1443.531 1375 1342.492 c S
1575 1371.359 m 1550 1356.926 1550 1414.664 1625 1342.492 c S
1550 1328.059 m 1550 1356.926 1500 1328.059 1600 1299.191 c S
1475 1457.965 m 1500 1443.531 1450 1414.664 1475 1515.699 c S
1450 1328.059 m 1450 1356.926 1500 1328.059 1400 1299.191 c S
1525 1457.965 m 1500 1443.531 1550 1414.664 1525 1515.699 c S
1425 1371.359 m 1450 1356.926 1450 1414.664 1375 1342.492 c S
1450 1270.324 m 1450 1241.457 1500 1270.324 1400 1299.191 c S
1425 1227.023 m 1450 1241.457 1450 1183.723 1375 1255.891 c S
1575 1227.023 m 1550 1241.457 1550 1183.723 1625 1255.891 c S
1475 1140.422 m 1500 1154.855 1450 1183.723 1475 1082.688 c S
1550 1270.324 m 1550 1241.457 1500 1270.324 1600 1299.191 c S
1525 1140.422 m 1500 1154.855 1550 1183.723 1525 1082.688 c S
1725 1111.555 m 1700 1097.121 1700 1154.855 1775 1082.688 c S
1700 1068.254 m 1700 1097.121 1650 1068.254 1750 1039.383 c S
1625 1198.156 m 1650 1183.723 1600 1154.855 1625 1255.891 c S
1600 1068.254 m 1600 1097.121 1650 1068.254 1550 1039.383 c S
1675 1198.156 m 1650 1183.723 1700 1154.855 1675 1255.891 c S
1575 1111.555 m 1600 1097.121 1600 1154.855 1525 1082.688 c S
1600 1010.516 m 1600 981.648 1650 1010.516 1550 1039.383 c S
1575 967.215 m 1600 981.648 1600 923.914 1525 996.082 c S
1725 967.215 m 1700 981.648 1700 923.914 1775 996.082 c S
1625 880.613 m 1650 895.047 1600 923.914 1625 822.879 c S
1700 1010.516 m 1700 981.648 1650 1010.516 1750 1039.383 c S
1675 880.613 m 1650 895.047 1700 923.914 1675 822.879 c S
1775 938.348 m 1800 923.914 1750 895.047 1775 996.082 c S
1750 808.445 m 1750 837.312 1800 808.445 1700 779.578 c S
1725 851.746 m 1750 837.312 1750 895.047 1675 822.879 c S
1750 750.711 m 1750 721.844 1800 750.711 1700 779.578 c S
1725 707.41 m 1750 721.844 1750 664.105 1675 736.277 c S
1775 620.805 m 1800 635.238 1750 664.105 1775 563.07 c S
1600 1530.133 m 1600 1501.266 1650 1530.133 1550 1559 c S
1575 1486.832 m 1600 1501.266 1600 1443.531 1525 1515.699 c S
1725 1486.832 m 1700 1501.266 1700 1443.531 1775 1515.699 c S
1625 1400.23 m 1650 1414.664 1600 1443.531 1625 1342.492 c S
1700 1530.133 m 1700 1501.266 1650 1530.133 1750 1559 c S
1675 1400.23 m 1650 1414.664 1700 1443.531 1675 1342.492 c S
1775 1457.965 m 1800 1443.531 1750 1414.664 1775 1515.699 c S
1750 1328.059 m 1750 1356.926 1800 1328.059 1700 1299.191 c S
1725 1371.359 m 1750 1356.926 1750 1414.664 1675 1342.492 c S
1750 1270.324 m 1750 1241.457 1800 1270.324 1700 1299.191 c S
1725 1227.023 m 1750 1241.457 1750 1183.723 1675 1255.891 c S
1775 1140.422 m 1800 1154.855 1750 1183.723 1775 1082.688 c S
Q Q
showpage
%%Trailer
%%Trailer
cleartomark
countdictstack
exch sub { end } repeat
restore
%%EOF
