%!PS-Adobe-2.0 EPSF-2.0
%%BoundingBox: 0 0 1800 1559
%%HiResBoundingBox: 0.000000 0.000000 1800.000000 1559.000000
%%Creator: cairo 1.14.2 (http://cairographics.org)
%%CreationDate: Mon Sep  7 08:22:01 2015
%%DocumentData: Clean7Bit
%%LanguageLevel: 2
%%DocumentMedia: 635x550mm 1800 1559 0 () ()
%%EndComments
% EPSF created by ps2eps 1.68
%%BeginProlog
save
countdictstack
mark
newpath
/showpage {} def
/setpagedevice {pop} def
%%EndProlog
%%Page 1 1
%%BeginProlog
/languagelevel where
{ pop languagelevel } { 1 } ifelse
2 lt { /Helvetica findfont 12 scalefont setfont 50 500 moveto
  (This print job requires a PostScript Language Level 2 printer.) show
  showpage quit } if
/q { gsave } bind def
/Q { grestore } bind def
/cm { 6 array astore concat } bind def
/w { setlinewidth } bind def
/J { setlinecap } bind def
/j { setlinejoin } bind def
/M { setmiterlimit } bind def
/d { setdash } bind def
/m { moveto } bind def
/l { lineto } bind def
/c { curveto } bind def
/h { closepath } bind def
/re { exch dup neg 3 1 roll 5 3 roll moveto 0 rlineto
      0 exch rlineto 0 rlineto closepath } bind def
/S { stroke } bind def
/f { fill } bind def
/f* { eofill } bind def
/n { newpath } bind def
/W { clip } bind def
/W* { eoclip } bind def
/BT { } bind def
/ET { } bind def
/pdfmark where { pop globaldict /?pdfmark /exec load put }
    { globaldict begin /?pdfmark /pop load def /pdfmark
    /cleartomark load def end } ifelse
/BDC { mark 3 1 roll /BDC pdfmark } bind def
/EMC { mark /EMC pdfmark } bind def
/cairo_store_point { /cairo_point_y exch def /cairo_point_x exch def } def
/Tj { show currentpoint cairo_store_point } bind def
/TJ {
  {
    dup
    type /stringtype eq
    { show } { -0.001 mul 0 cairo_font_matrix dtransform rmoveto } ifelse
  } forall
  currentpoint cairo_store_point
} bind def
/cairo_selectfont { cairo_font_matrix aload pop pop pop 0 0 6 array astore
    cairo_font exch selectfont cairo_point_x cairo_point_y moveto } bind def
/Tf { pop /cairo_font exch def /cairo_font_matrix where
      { pop cairo_selectfont } if } bind def
/Td { matrix translate cairo_font_matrix matrix concatmatrix dup
      /cairo_font_matrix exch def dup 4 get exch 5 get cairo_store_point
      /cairo_font where { pop cairo_selectfont } if } bind def
/Tm { 2 copy 8 2 roll 6 array astore /cairo_font_matrix exch def
      cairo_store_point /cairo_font where { pop cairo_selectfont } if } bind def
/g { setgray } bind def
/rg { setrgbcolor } bind def
/d1 { setcachedevice } bind def
/cairo_set_page_size {
  % Change paper size, but only if different from previous paper size otherwise
  % duplex fails. PLRM specifies a tolerance of 5 pts when matching paper size
  % so we use the same when checking if the size changes.
  /setpagedevice where {
    pop currentpagedevice
    /PageSize known {
      2 copy
      currentpagedevice /PageSize get aload pop
      exch 4 1 roll
      sub abs 5 gt
      3 1 roll
      sub abs 5 gt
      or
    } {
      true
    } ifelse
    {
      2 array astore
      2 dict begin
        /PageSize exch def
        /ImagingBBox null def
      currentdict end
      setpagedevice
    } {
      pop pop
    } ifelse
  } {
    pop
  } ifelse
} def
%%EndProlog
%%BeginSetup
%%EndSetup
%%Page: 1 1
%%BeginPageSetup
%%PageMedia: 635x550mm
%%PageBoundingBox: 0 0 1800 1559
1800 1559 cairo_set_page_size
%%EndPageSetup
q 0 0 1800 1559 rectclip q
Q q
0.984314 g
0 1559 1800 -1558.848 re f*
0.788235 g
1.875 w
0 J
1 j
[] 0.0 d
4 M 0 1559 1800 -1558.848 re S
0 g
2.5 w
1 J
50 317.695 m 42.027 331.504 46.758 349.16 60.566 357.129 c 74.375 365.102
 92.027 360.371 100 346.562 c S
50 317.695 m 65.941 317.695 78.867 304.773 78.867 288.828 c 78.867 272.887
 65.941 259.961 50 259.961 c S
0 404.301 m -7.973 390.492 -25.625 385.762 -39.434 393.734 c -53.242 401.703
 -57.973 419.359 -50 433.168 c S
0 404.301 m -7.973 418.105 -3.242 435.762 10.566 443.734 c 24.375 451.703
 42.027 446.973 50 433.168 c S
50 202.227 m 57.973 216.035 75.625 220.766 89.434 212.793 c 103.242 204.82
 107.973 187.168 100 173.359 c S
0 115.625 m 7.973 101.816 3.242 84.164 -10.566 76.191 c -24.375 68.219 
-42.027 72.949 -50 86.758 c S
50 202.227 m 34.059 202.227 21.133 215.152 21.133 231.094 c 21.133 247.039
 34.059 259.961 50 259.961 c S
0 115.625 m 7.973 129.43 25.625 134.164 39.434 126.191 c 53.242 118.219
 57.973 100.562 50 86.758 c S
200 57.891 m 192.027 71.695 196.758 89.352 210.566 97.324 c 224.375 105.293
 242.027 100.562 250 86.758 c S
Q q
198 60 33 -59.848 re W n
0 g
2.5 w
1 J
1 j
[] 0.0 d
4 M 200 57.891 m 215.941 57.891 228.867 44.965 228.867 29.023 c 228.867 13.078
 215.941 0.152 200 0.152 c S
Q q
0 g
2.5 w
1 J
1 j
[] 0.0 d
4 M 150 144.492 m 142.027 130.684 124.375 125.953 110.566 133.926 c 96.758 
141.898 92.027 159.551 100 173.359 c S
Q q
98 60 33 -59.848 re W n
0 g
2.5 w
1 J
1 j
[] 0.0 d
4 M 100 57.891 m 115.941 57.891 128.867 44.965 128.867 29.023 c 128.867 13.078
 115.941 0.152 100 0.152 c S
Q q
0 g
2.5 w
1 J
1 j
[] 0.0 d
4 M 150 144.492 m 142.027 158.301 146.758 175.953 160.566 183.926 c 174.375
 191.898 192.027 187.168 200 173.359 c S
100 57.891 m 92.027 44.082 74.375 39.352 60.566 47.324 c 46.758 55.293 
42.027 72.949 50 86.758 c S
50 837.312 m 42.027 851.121 46.758 868.773 60.566 876.746 c 74.375 884.719
 92.027 879.988 100 866.18 c S
50 837.312 m 65.941 837.312 78.867 824.387 78.867 808.445 c 78.867 792.5
 65.941 779.578 50 779.578 c S
0 923.914 m -7.973 910.109 -25.625 905.375 -39.434 913.348 c -53.242 921.32
 -57.973 938.977 -50 952.781 c S
0 923.914 m -7.973 937.723 -3.242 955.375 10.566 963.348 c 24.375 971.32
 42.027 966.59 50 952.781 c S
50 721.844 m 57.973 735.648 75.625 740.379 89.434 732.41 c 103.242 724.438
 107.973 706.781 100 692.973 c S
0 635.238 m 7.973 621.434 3.242 603.777 -10.566 595.805 c -24.375 587.836
 -42.027 592.566 -50 606.371 c S
50 721.844 m 34.059 721.844 21.133 734.766 21.133 750.711 c 21.133 766.652
 34.059 779.578 50 779.578 c S
0 635.238 m 7.973 649.047 25.625 653.777 39.434 645.805 c 53.242 637.836
 57.973 620.18 50 606.371 c S
200 577.504 m 192.027 591.312 196.758 608.965 210.566 616.938 c 224.375
 624.91 242.027 620.18 250 606.371 c S
200 577.504 m 215.941 577.504 228.867 564.582 228.867 548.637 c 228.867
 532.695 215.941 519.77 200 519.77 c S
150 664.105 m 142.027 650.301 124.375 645.57 110.566 653.539 c 96.758 661.512
 92.027 679.168 100 692.973 c S
100 577.504 m 115.941 577.504 128.867 564.582 128.867 548.637 c 128.867
 532.695 115.941 519.77 100 519.77 c S
150 664.105 m 142.027 677.914 146.758 695.57 160.566 703.539 c 174.375 
711.512 192.027 706.781 200 692.973 c S
100 577.504 m 92.027 563.699 74.375 558.965 60.566 566.938 c 46.758 574.91
 42.027 592.566 50 606.371 c S
100 462.035 m 84.059 462.035 71.133 474.957 71.133 490.902 c 71.133 506.844
 84.059 519.77 100 519.77 c S
100 462.035 m 107.973 448.227 103.242 430.574 89.434 422.602 c 75.625 414.629
 57.973 419.359 50 433.168 c S
200 462.035 m 207.973 475.84 225.625 480.574 239.434 472.602 c 253.242 
464.629 257.973 446.973 250 433.168 c S
150 375.434 m 157.973 361.625 153.242 343.969 139.434 336 c 125.625 328.027
 107.973 332.758 100 346.562 c S
200 462.035 m 184.059 462.035 171.133 474.957 171.133 490.902 c 171.133
 506.844 184.059 519.77 200 519.77 c S
150 375.434 m 157.973 389.238 175.625 393.969 189.434 386 c 203.242 378.027
 207.973 360.371 200 346.562 c S
350 317.695 m 342.027 331.504 346.758 349.16 360.566 357.129 c 374.375 
365.102 392.027 360.371 400 346.562 c S
350 317.695 m 365.941 317.695 378.867 304.773 378.867 288.828 c 378.867
 272.887 365.941 259.961 350 259.961 c S
300 404.301 m 292.027 390.492 274.375 385.762 260.566 393.734 c 246.758
 401.703 242.027 419.359 250 433.168 c S
250 317.695 m 265.941 317.695 278.867 304.773 278.867 288.828 c 278.867
 272.887 265.941 259.961 250 259.961 c S
300 404.301 m 292.027 418.105 296.758 435.762 310.566 443.734 c 324.375
 451.703 342.027 446.973 350 433.168 c S
250 317.695 m 242.027 303.891 224.375 299.16 210.566 307.129 c 196.758 
315.102 192.027 332.758 200 346.562 c S
250 202.227 m 234.059 202.227 221.133 215.152 221.133 231.094 c 221.133
 247.039 234.059 259.961 250 259.961 c S
250 202.227 m 257.973 188.418 253.242 170.766 239.434 162.793 c 225.625
 154.82 207.973 159.551 200 173.359 c S
350 202.227 m 357.973 216.035 375.625 220.766 389.434 212.793 c 403.242
 204.82 407.973 187.168 400 173.359 c S
300 115.625 m 307.973 101.816 303.242 84.164 289.434 76.191 c 275.625 68.219
 257.973 72.949 250 86.758 c S
350 202.227 m 334.059 202.227 321.133 215.152 321.133 231.094 c 321.133
 247.039 334.059 259.961 350 259.961 c S
300 115.625 m 307.973 129.43 325.625 134.164 339.434 126.191 c 353.242 
118.219 357.973 100.562 350 86.758 c S
500 57.891 m 492.027 71.695 496.758 89.352 510.566 97.324 c 524.375 105.293
 542.027 100.562 550 86.758 c S
Q q
498 60 33 -59.848 re W n
0 g
2.5 w
1 J
1 j
[] 0.0 d
4 M 500 57.891 m 515.941 57.891 528.867 44.965 528.867 29.023 c 528.867 13.078
 515.941 0.152 500 0.152 c S
Q q
0 g
2.5 w
1 J
1 j
[] 0.0 d
4 M 450 144.492 m 442.027 130.684 424.375 125.953 410.566 133.926 c 396.758
 141.898 392.027 159.551 400 173.359 c S
Q q
398 60 33 -59.848 re W n
0 g
2.5 w
1 J
1 j
[] 0.0 d
4 M 400 57.891 m 415.941 57.891 428.867 44.965 428.867 29.023 c 428.867 13.078
 415.941 0.152 400 0.152 c S
Q q
0 g
2.5 w
1 J
1 j
[] 0.0 d
4 M 450 144.492 m 442.027 158.301 446.758 175.953 460.566 183.926 c 474.375
 191.898 492.027 187.168 500 173.359 c S
400 57.891 m 392.027 44.082 374.375 39.352 360.566 47.324 c 346.758 55.293
 342.027 72.949 350 86.758 c S
50 1356.926 m 42.027 1370.734 46.758 1388.391 60.566 1396.359 c 74.375 
1404.332 92.027 1399.602 100 1385.793 c S
50 1356.926 m 65.941 1356.926 78.867 1344.004 78.867 1328.059 c 78.867 
1312.117 65.941 1299.191 50 1299.191 c S
0 1443.531 m -7.973 1429.723 -25.625 1424.992 -39.434 1432.965 c -53.242
 1440.934 -57.973 1458.59 -50 1472.398 c S
0 1443.531 m -7.973 1457.336 -3.242 1474.992 10.566 1482.965 c 24.375 1490.934
 42.027 1486.203 50 1472.398 c S
50 1241.457 m 57.973 1255.266 75.625 1259.996 89.434 1252.023 c 103.242
 1244.051 107.973 1226.398 100 1212.59 c S
0 1154.855 m 7.973 1141.047 3.242 1123.395 -10.566 1115.422 c -24.375 1107.449
 -42.027 1112.18 -50 1125.988 c S
50 1241.457 m 34.059 1241.457 21.133 1254.383 21.133 1270.324 c 21.133 
1286.27 34.059 1299.191 50 1299.191 c S
0 1154.855 m 7.973 1168.66 25.625 1173.395 39.434 1165.422 c 53.242 1157.449
 57.973 1139.793 50 1125.988 c S
200 1097.121 m 192.027 1110.926 196.758 1128.582 210.566 1136.555 c 224.375
 1144.523 242.027 1139.793 250 1125.988 c S
200 1097.121 m 215.941 1097.121 228.867 1084.195 228.867 1068.254 c 228.867
 1052.309 215.941 1039.383 200 1039.383 c S
150 1183.723 m 142.027 1169.914 124.375 1165.184 110.566 1173.156 c 96.758
 1181.129 92.027 1198.781 100 1212.59 c S
100 1097.121 m 115.941 1097.121 128.867 1084.195 128.867 1068.254 c 128.867
 1052.309 115.941 1039.383 100 1039.383 c S
150 1183.723 m 142.027 1197.531 146.758 1215.184 160.566 1223.156 c 174.375
 1231.129 192.027 1226.398 200 1212.59 c S
100 1097.121 m 92.027 1083.312 74.375 1078.582 60.566 1086.555 c 46.758
 1094.523 42.027 1112.18 50 1125.988 c S
100 981.648 m 84.059 981.648 71.133 994.574 71.133 1010.516 c 71.133 1026.461
 84.059 1039.383 100 1039.383 c S
100 981.648 m 107.973 967.844 103.242 950.188 89.434 942.215 c 75.625 934.246
 57.973 938.977 50 952.781 c S
200 981.648 m 207.973 995.457 225.625 1000.188 239.434 992.215 c 253.242
 984.246 257.973 966.59 250 952.781 c S
150 895.047 m 157.973 881.238 153.242 863.586 139.434 855.613 c 125.625
 847.641 107.973 852.371 100 866.18 c S
200 981.648 m 184.059 981.648 171.133 994.574 171.133 1010.516 c 171.133
 1026.461 184.059 1039.383 200 1039.383 c S
150 895.047 m 157.973 908.855 175.625 913.586 189.434 905.613 c 203.242
 897.641 207.973 879.988 200 866.18 c S
350 837.312 m 342.027 851.121 346.758 868.773 360.566 876.746 c 374.375
 884.719 392.027 879.988 400 866.18 c S
350 837.312 m 365.941 837.312 378.867 824.387 378.867 808.445 c 378.867
 792.5 365.941 779.578 350 779.578 c S
300 923.914 m 292.027 910.109 274.375 905.375 260.566 913.348 c 246.758
 921.32 242.027 938.977 250 952.781 c S
250 837.312 m 265.941 837.312 278.867 824.387 278.867 808.445 c 278.867
 792.5 265.941 779.578 250 779.578 c S
300 923.914 m 292.027 937.723 296.758 955.375 310.566 963.348 c 324.375
 971.32 342.027 966.59 350 952.781 c S
250 837.312 m 242.027 823.504 224.375 818.773 210.566 826.746 c 196.758
 834.719 192.027 852.371 200 866.18 c S
250 721.844 m 234.059 721.844 221.133 734.766 221.133 750.711 c 221.133
 766.652 234.059 779.578 250 779.578 c S
250 721.844 m 257.973 708.035 253.242 690.379 239.434 682.41 c 225.625 
674.438 207.973 679.168 200 692.973 c S
350 721.844 m 357.973 735.648 375.625 740.379 389.434 732.41 c 403.242 
724.438 407.973 706.781 400 692.973 c S
300 635.238 m 307.973 621.434 303.242 603.777 289.434 595.805 c 275.625
 587.836 257.973 592.566 250 606.371 c S
350 721.844 m 334.059 721.844 321.133 734.766 321.133 750.711 c 321.133
 766.652 334.059 779.578 350 779.578 c S
300 635.238 m 307.973 649.047 325.625 653.777 339.434 645.805 c 353.242
 637.836 357.973 620.18 350 606.371 c S
500 577.504 m 492.027 591.312 496.758 608.965 510.566 616.938 c 524.375
 624.91 542.027 620.18 550 606.371 c S
500 577.504 m 515.941 577.504 528.867 564.582 528.867 548.637 c 528.867
 532.695 515.941 519.77 500 519.77 c S
450 664.105 m 442.027 650.301 424.375 645.57 410.566 653.539 c 396.758 
661.512 392.027 679.168 400 692.973 c S
400 577.504 m 415.941 577.504 428.867 564.582 428.867 548.637 c 428.867
 532.695 415.941 519.77 400 519.77 c S
450 664.105 m 442.027 677.914 446.758 695.57 460.566 703.539 c 474.375 
711.512 492.027 706.781 500 692.973 c S
400 577.504 m 392.027 563.699 374.375 558.965 360.566 566.938 c 346.758
 574.91 342.027 592.566 350 606.371 c S
400 462.035 m 384.059 462.035 371.133 474.957 371.133 490.902 c 371.133
 506.844 384.059 519.77 400 519.77 c S
400 462.035 m 407.973 448.227 403.242 430.574 389.434 422.602 c 375.625
 414.629 357.973 419.359 350 433.168 c S
500 462.035 m 507.973 475.84 525.625 480.574 539.434 472.602 c 553.242 
464.629 557.973 446.973 550 433.168 c S
450 375.434 m 457.973 361.625 453.242 343.969 439.434 336 c 425.625 328.027
 407.973 332.758 400 346.562 c S
500 462.035 m 484.059 462.035 471.133 474.957 471.133 490.902 c 471.133
 506.844 484.059 519.77 500 519.77 c S
450 375.434 m 457.973 389.238 475.625 393.969 489.434 386 c 503.242 378.027
 507.973 360.371 500 346.562 c S
650 317.695 m 642.027 331.504 646.758 349.16 660.566 357.129 c 674.375 
365.102 692.027 360.371 700 346.562 c S
650 317.695 m 665.941 317.695 678.867 304.773 678.867 288.828 c 678.867
 272.887 665.941 259.961 650 259.961 c S
600 404.301 m 592.027 390.492 574.375 385.762 560.566 393.734 c 546.758
 401.703 542.027 419.359 550 433.168 c S
550 317.695 m 565.941 317.695 578.867 304.773 578.867 288.828 c 578.867
 272.887 565.941 259.961 550 259.961 c S
600 404.301 m 592.027 418.105 596.758 435.762 610.566 443.734 c 624.375
 451.703 642.027 446.973 650 433.168 c S
550 317.695 m 542.027 303.891 524.375 299.16 510.566 307.129 c 496.758 
315.102 492.027 332.758 500 346.562 c S
550 202.227 m 534.059 202.227 521.133 215.152 521.133 231.094 c 521.133
 247.039 534.059 259.961 550 259.961 c S
550 202.227 m 557.973 188.418 553.242 170.766 539.434 162.793 c 525.625
 154.82 507.973 159.551 500 173.359 c S
650 202.227 m 657.973 216.035 675.625 220.766 689.434 212.793 c 703.242
 204.82 707.973 187.168 700 173.359 c S
600 115.625 m 607.973 101.816 603.242 84.164 589.434 76.191 c 575.625 68.219
 557.973 72.949 550 86.758 c S
650 202.227 m 634.059 202.227 621.133 215.152 621.133 231.094 c 621.133
 247.039 634.059 259.961 650 259.961 c S
600 115.625 m 607.973 129.43 625.625 134.164 639.434 126.191 c 653.242 
118.219 657.973 100.562 650 86.758 c S
800 57.891 m 792.027 71.695 796.758 89.352 810.566 97.324 c 824.375 105.293
 842.027 100.562 850 86.758 c S
Q q
798 60 33 -59.848 re W n
0 g
2.5 w
1 J
1 j
[] 0.0 d
4 M 800 57.891 m 815.941 57.891 828.867 44.965 828.867 29.023 c 828.867 13.078
 815.941 0.152 800 0.152 c S
Q q
0 g
2.5 w
1 J
1 j
[] 0.0 d
4 M 750 144.492 m 742.027 130.684 724.375 125.953 710.566 133.926 c 696.758
 141.898 692.027 159.551 700 173.359 c S
Q q
698 60 33 -59.848 re W n
0 g
2.5 w
1 J
1 j
[] 0.0 d
4 M 700 57.891 m 715.941 57.891 728.867 44.965 728.867 29.023 c 728.867 13.078
 715.941 0.152 700 0.152 c S
Q q
0 g
2.5 w
1 J
1 j
[] 0.0 d
4 M 750 144.492 m 742.027 158.301 746.758 175.953 760.566 183.926 c 774.375
 191.898 792.027 187.168 800 173.359 c S
700 57.891 m 692.027 44.082 674.375 39.352 660.566 47.324 c 646.758 55.293
 642.027 72.949 650 86.758 c S
100 1501.266 m 84.059 1501.266 71.133 1514.188 71.133 1530.133 c 71.133
 1546.074 84.059 1559 100 1559 c S
100 1501.266 m 107.973 1487.457 103.242 1469.805 89.434 1461.832 c 75.625
 1453.859 57.973 1458.59 50 1472.398 c S
200 1501.266 m 207.973 1515.07 225.625 1519.805 239.434 1511.832 c 253.242
 1503.859 257.973 1486.203 250 1472.398 c S
150 1414.664 m 157.973 1400.855 153.242 1383.199 139.434 1375.23 c 125.625
 1367.258 107.973 1371.988 100 1385.793 c S
200 1501.266 m 184.059 1501.266 171.133 1514.188 171.133 1530.133 c 171.133
 1546.074 184.059 1559 200 1559 c S
150 1414.664 m 157.973 1428.469 175.625 1433.199 189.434 1425.23 c 203.242
 1417.258 207.973 1399.602 200 1385.793 c S
350 1356.926 m 342.027 1370.734 346.758 1388.391 360.566 1396.359 c 374.375
 1404.332 392.027 1399.602 400 1385.793 c S
350 1356.926 m 365.941 1356.926 378.867 1344.004 378.867 1328.059 c 378.867
 1312.117 365.941 1299.191 350 1299.191 c S
300 1443.531 m 292.027 1429.723 274.375 1424.992 260.566 1432.965 c 246.758
 1440.934 242.027 1458.59 250 1472.398 c S
250 1356.926 m 265.941 1356.926 278.867 1344.004 278.867 1328.059 c 278.867
 1312.117 265.941 1299.191 250 1299.191 c S
300 1443.531 m 292.027 1457.336 296.758 1474.992 310.566 1482.965 c 324.375
 1490.934 342.027 1486.203 350 1472.398 c S
250 1356.926 m 242.027 1343.121 224.375 1338.391 210.566 1346.359 c 196.758
 1354.332 192.027 1371.988 200 1385.793 c S
250 1241.457 m 234.059 1241.457 221.133 1254.383 221.133 1270.324 c 221.133
 1286.27 234.059 1299.191 250 1299.191 c S
250 1241.457 m 257.973 1227.648 253.242 1209.996 239.434 1202.023 c 225.625
 1194.051 207.973 1198.781 200 1212.59 c S
350 1241.457 m 357.973 1255.266 375.625 1259.996 389.434 1252.023 c 403.242
 1244.051 407.973 1226.398 400 1212.59 c S
300 1154.855 m 307.973 1141.047 303.242 1123.395 289.434 1115.422 c 275.625
 1107.449 257.973 1112.18 250 1125.988 c S
350 1241.457 m 334.059 1241.457 321.133 1254.383 321.133 1270.324 c 321.133
 1286.27 334.059 1299.191 350 1299.191 c S
300 1154.855 m 307.973 1168.66 325.625 1173.395 339.434 1165.422 c 353.242
 1157.449 357.973 1139.793 350 1125.988 c S
500 1097.121 m 492.027 1110.926 496.758 1128.582 510.566 1136.555 c 524.375
 1144.523 542.027 1139.793 550 1125.988 c S
500 1097.121 m 515.941 1097.121 528.867 1084.195 528.867 1068.254 c 528.867
 1052.309 515.941 1039.383 500 1039.383 c S
450 1183.723 m 442.027 1169.914 424.375 1165.184 410.566 1173.156 c 396.758
 1181.129 392.027 1198.781 400 1212.59 c S
400 1097.121 m 415.941 1097.121 428.867 1084.195 428.867 1068.254 c 428.867
 1052.309 415.941 1039.383 400 1039.383 c S
450 1183.723 m 442.027 1197.531 446.758 1215.184 460.566 1223.156 c 474.375
 1231.129 492.027 1226.398 500 1212.59 c S
400 1097.121 m 392.027 1083.312 374.375 1078.582 360.566 1086.555 c 346.758
 1094.523 342.027 1112.18 350 1125.988 c S
400 981.648 m 384.059 981.648 371.133 994.574 371.133 1010.516 c 371.133
 1026.461 384.059 1039.383 400 1039.383 c S
400 981.648 m 407.973 967.844 403.242 950.188 389.434 942.215 c 375.625
 934.246 357.973 938.977 350 952.781 c S
500 981.648 m 507.973 995.457 525.625 1000.188 539.434 992.215 c 553.242
 984.246 557.973 966.59 550 952.781 c S
450 895.047 m 457.973 881.238 453.242 863.586 439.434 855.613 c 425.625
 847.641 407.973 852.371 400 866.18 c S
500 981.648 m 484.059 981.648 471.133 994.574 471.133 1010.516 c 471.133
 1026.461 484.059 1039.383 500 1039.383 c S
450 895.047 m 457.973 908.855 475.625 913.586 489.434 905.613 c 503.242
 897.641 507.973 879.988 500 866.18 c S
650 837.312 m 642.027 851.121 646.758 868.773 660.566 876.746 c 674.375
 884.719 692.027 879.988 700 866.18 c S
650 837.312 m 665.941 837.312 678.867 824.387 678.867 808.445 c 678.867
 792.5 665.941 779.578 650 779.578 c S
600 923.914 m 592.027 910.109 574.375 905.375 560.566 913.348 c 546.758
 921.32 542.027 938.977 550 952.781 c S
550 837.312 m 565.941 837.312 578.867 824.387 578.867 808.445 c 578.867
 792.5 565.941 779.578 550 779.578 c S
600 923.914 m 592.027 937.723 596.758 955.375 610.566 963.348 c 624.375
 971.32 642.027 966.59 650 952.781 c S
550 837.312 m 542.027 823.504 524.375 818.773 510.566 826.746 c 496.758
 834.719 492.027 852.371 500 866.18 c S
550 721.844 m 534.059 721.844 521.133 734.766 521.133 750.711 c 521.133
 766.652 534.059 779.578 550 779.578 c S
550 721.844 m 557.973 708.035 553.242 690.379 539.434 682.41 c 525.625 
674.438 507.973 679.168 500 692.973 c S
650 721.844 m 657.973 735.648 675.625 740.379 689.434 732.41 c 703.242 
724.438 707.973 706.781 700 692.973 c S
600 635.238 m 607.973 621.434 603.242 603.777 589.434 595.805 c 575.625
 587.836 557.973 592.566 550 606.371 c S
650 721.844 m 634.059 721.844 621.133 734.766 621.133 750.711 c 621.133
 766.652 634.059 779.578 650 779.578 c S
600 635.238 m 607.973 649.047 625.625 653.777 639.434 645.805 c 653.242
 637.836 657.973 620.18 650 606.371 c S
800 577.504 m 792.027 591.312 796.758 608.965 810.566 616.938 c 824.375
 624.91 842.027 620.18 850 606.371 c S
800 577.504 m 815.941 577.504 828.867 564.582 828.867 548.637 c 828.867
 532.695 815.941 519.77 800 519.77 c S
750 664.105 m 742.027 650.301 724.375 645.57 710.566 653.539 c 696.758 
661.512 692.027 679.168 700 692.973 c S
700 577.504 m 715.941 577.504 728.867 564.582 728.867 548.637 c 728.867
 532.695 715.941 519.77 700 519.77 c S
750 664.105 m 742.027 677.914 746.758 695.57 760.566 703.539 c 774.375 
711.512 792.027 706.781 800 692.973 c S
700 577.504 m 692.027 563.699 674.375 558.965 660.566 566.938 c 646.758
 574.91 642.027 592.566 650 606.371 c S
700 462.035 m 684.059 462.035 671.133 474.957 671.133 490.902 c 671.133
 506.844 684.059 519.77 700 519.77 c S
700 462.035 m 707.973 448.227 703.242 430.574 689.434 422.602 c 675.625
 414.629 657.973 419.359 650 433.168 c S
800 462.035 m 807.973 475.84 825.625 480.574 839.434 472.602 c 853.242 
464.629 857.973 446.973 850 433.168 c S
750 375.434 m 757.973 361.625 753.242 343.969 739.434 336 c 725.625 328.027
 707.973 332.758 700 346.562 c S
800 462.035 m 784.059 462.035 771.133 474.957 771.133 490.902 c 771.133
 506.844 784.059 519.77 800 519.77 c S
750 375.434 m 757.973 389.238 775.625 393.969 789.434 386 c 803.242 378.027
 807.973 360.371 800 346.562 c S
950 317.695 m 942.027 331.504 946.758 349.16 960.566 357.129 c 974.375 
365.102 992.027 360.371 1000 346.562 c S
950 317.695 m 965.941 317.695 978.867 304.773 978.867 288.828 c 978.867
 272.887 965.941 259.961 950 259.961 c S
900 404.301 m 892.027 390.492 874.375 385.762 860.566 393.734 c 846.758
 401.703 842.027 419.359 850 433.168 c S
850 317.695 m 865.941 317.695 878.867 304.773 878.867 288.828 c 878.867
 272.887 865.941 259.961 850 259.961 c S
900 404.301 m 892.027 418.105 896.758 435.762 910.566 443.734 c 924.375
 451.703 942.027 446.973 950 433.168 c S
850 317.695 m 842.027 303.891 824.375 299.16 810.566 307.129 c 796.758 
315.102 792.027 332.758 800 346.562 c S
850 202.227 m 834.059 202.227 821.133 215.152 821.133 231.094 c 821.133
 247.039 834.059 259.961 850 259.961 c S
850 202.227 m 857.973 188.418 853.242 170.766 839.434 162.793 c 825.625
 154.82 807.973 159.551 800 173.359 c S
950 202.227 m 957.973 216.035 975.625 220.766 989.434 212.793 c 1003.242
 204.82 1007.973 187.168 1000 173.359 c S
900 115.625 m 907.973 101.816 903.242 84.164 889.434 76.191 c 875.625 68.219
 857.973 72.949 850 86.758 c S
950 202.227 m 934.059 202.227 921.133 215.152 921.133 231.094 c 921.133
 247.039 934.059 259.961 950 259.961 c S
900 115.625 m 907.973 129.43 925.625 134.164 939.434 126.191 c 953.242 
118.219 957.973 100.562 950 86.758 c S
1100 57.891 m 1092.027 71.695 1096.758 89.352 1110.566 97.324 c 1124.375
 105.293 1142.027 100.562 1150 86.758 c S
Q q
1098 60 33 -59.848 re W n
0 g
2.5 w
1 J
1 j
[] 0.0 d
4 M 1100 57.891 m 1115.941 57.891 1128.867 44.965 1128.867 29.023 c 1128.867
 13.078 1115.941 0.152 1100 0.152 c S
Q q
0 g
2.5 w
1 J
1 j
[] 0.0 d
4 M 1050 144.492 m 1042.027 130.684 1024.375 125.953 1010.566 133.926 c 996.758
 141.898 992.027 159.551 1000 173.359 c S
Q q
998 60 33 -59.848 re W n
0 g
2.5 w
1 J
1 j
[] 0.0 d
4 M 1000 57.891 m 1015.941 57.891 1028.867 44.965 1028.867 29.023 c 1028.867
 13.078 1015.941 0.152 1000 0.152 c S
Q q
0 g
2.5 w
1 J
1 j
[] 0.0 d
4 M 1050 144.492 m 1042.027 158.301 1046.758 175.953 1060.566 183.926 c 1074.375
 191.898 1092.027 187.168 1100 173.359 c S
1000 57.891 m 992.027 44.082 974.375 39.352 960.566 47.324 c 946.758 55.293
 942.027 72.949 950 86.758 c S
400 1501.266 m 384.059 1501.266 371.133 1514.188 371.133 1530.133 c 371.133
 1546.074 384.059 1559 400 1559 c S
400 1501.266 m 407.973 1487.457 403.242 1469.805 389.434 1461.832 c 375.625
 1453.859 357.973 1458.59 350 1472.398 c S
500 1501.266 m 507.973 1515.07 525.625 1519.805 539.434 1511.832 c 553.242
 1503.859 557.973 1486.203 550 1472.398 c S
450 1414.664 m 457.973 1400.855 453.242 1383.199 439.434 1375.23 c 425.625
 1367.258 407.973 1371.988 400 1385.793 c S
500 1501.266 m 484.059 1501.266 471.133 1514.188 471.133 1530.133 c 471.133
 1546.074 484.059 1559 500 1559 c S
450 1414.664 m 457.973 1428.469 475.625 1433.199 489.434 1425.23 c 503.242
 1417.258 507.973 1399.602 500 1385.793 c S
650 1356.926 m 642.027 1370.734 646.758 1388.391 660.566 1396.359 c 674.375
 1404.332 692.027 1399.602 700 1385.793 c S
650 1356.926 m 665.941 1356.926 678.867 1344.004 678.867 1328.059 c 678.867
 1312.117 665.941 1299.191 650 1299.191 c S
600 1443.531 m 592.027 1429.723 574.375 1424.992 560.566 1432.965 c 546.758
 1440.934 542.027 1458.59 550 1472.398 c S
550 1356.926 m 565.941 1356.926 578.867 1344.004 578.867 1328.059 c 578.867
 1312.117 565.941 1299.191 550 1299.191 c S
600 1443.531 m 592.027 1457.336 596.758 1474.992 610.566 1482.965 c 624.375
 1490.934 642.027 1486.203 650 1472.398 c S
550 1356.926 m 542.027 1343.121 524.375 1338.391 510.566 1346.359 c 496.758
 1354.332 492.027 1371.988 500 1385.793 c S
550 1241.457 m 534.059 1241.457 521.133 1254.383 521.133 1270.324 c 521.133
 1286.27 534.059 1299.191 550 1299.191 c S
550 1241.457 m 557.973 1227.648 553.242 1209.996 539.434 1202.023 c 525.625
 1194.051 507.973 1198.781 500 1212.59 c S
650 1241.457 m 657.973 1255.266 675.625 1259.996 689.434 1252.023 c 703.242
 1244.051 707.973 1226.398 700 1212.59 c S
600 1154.855 m 607.973 1141.047 603.242 1123.395 589.434 1115.422 c 575.625
 1107.449 557.973 1112.18 550 1125.988 c S
650 1241.457 m 634.059 1241.457 621.133 1254.383 621.133 1270.324 c 621.133
 1286.27 634.059 1299.191 650 1299.191 c S
600 1154.855 m 607.973 1168.66 625.625 1173.395 639.434 1165.422 c 653.242
 1157.449 657.973 1139.793 650 1125.988 c S
800 1097.121 m 792.027 1110.926 796.758 1128.582 810.566 1136.555 c 824.375
 1144.523 842.027 1139.793 850 1125.988 c S
800 1097.121 m 815.941 1097.121 828.867 1084.195 828.867 1068.254 c 828.867
 1052.309 815.941 1039.383 800 1039.383 c S
750 1183.723 m 742.027 1169.914 724.375 1165.184 710.566 1173.156 c 696.758
 1181.129 692.027 1198.781 700 1212.59 c S
700 1097.121 m 715.941 1097.121 728.867 1084.195 728.867 1068.254 c 728.867
 1052.309 715.941 1039.383 700 1039.383 c S
750 1183.723 m 742.027 1197.531 746.758 1215.184 760.566 1223.156 c 774.375
 1231.129 792.027 1226.398 800 1212.59 c S
700 1097.121 m 692.027 1083.312 674.375 1078.582 660.566 1086.555 c 646.758
 1094.523 642.027 1112.18 650 1125.988 c S
700 981.648 m 684.059 981.648 671.133 994.574 671.133 1010.516 c 671.133
 1026.461 684.059 1039.383 700 1039.383 c S
700 981.648 m 707.973 967.844 703.242 950.188 689.434 942.215 c 675.625
 934.246 657.973 938.977 650 952.781 c S
800 981.648 m 807.973 995.457 825.625 1000.188 839.434 992.215 c 853.242
 984.246 857.973 966.59 850 952.781 c S
750 895.047 m 757.973 881.238 753.242 863.586 739.434 855.613 c 725.625
 847.641 707.973 852.371 700 866.18 c S
800 981.648 m 784.059 981.648 771.133 994.574 771.133 1010.516 c 771.133
 1026.461 784.059 1039.383 800 1039.383 c S
750 895.047 m 757.973 908.855 775.625 913.586 789.434 905.613 c 803.242
 897.641 807.973 879.988 800 866.18 c S
950 837.312 m 942.027 851.121 946.758 868.773 960.566 876.746 c 974.375
 884.719 992.027 879.988 1000 866.18 c S
950 837.312 m 965.941 837.312 978.867 824.387 978.867 808.445 c 978.867
 792.5 965.941 779.578 950 779.578 c S
900 923.914 m 892.027 910.109 874.375 905.375 860.566 913.348 c 846.758
 921.32 842.027 938.977 850 952.781 c S
850 837.312 m 865.941 837.312 878.867 824.387 878.867 808.445 c 878.867
 792.5 865.941 779.578 850 779.578 c S
900 923.914 m 892.027 937.723 896.758 955.375 910.566 963.348 c 924.375
 971.32 942.027 966.59 950 952.781 c S
850 837.312 m 842.027 823.504 824.375 818.773 810.566 826.746 c 796.758
 834.719 792.027 852.371 800 866.18 c S
850 721.844 m 834.059 721.844 821.133 734.766 821.133 750.711 c 821.133
 766.652 834.059 779.578 850 779.578 c S
850 721.844 m 857.973 708.035 853.242 690.379 839.434 682.41 c 825.625 
674.438 807.973 679.168 800 692.973 c S
950 721.844 m 957.973 735.648 975.625 740.379 989.434 732.41 c 1003.242
 724.438 1007.973 706.781 1000 692.973 c S
900 635.238 m 907.973 621.434 903.242 603.777 889.434 595.805 c 875.625
 587.836 857.973 592.566 850 606.371 c S
950 721.844 m 934.059 721.844 921.133 734.766 921.133 750.711 c 921.133
 766.652 934.059 779.578 950 779.578 c S
900 635.238 m 907.973 649.047 925.625 653.777 939.434 645.805 c 953.242
 637.836 957.973 620.18 950 606.371 c S
1100 577.504 m 1092.027 591.312 1096.758 608.965 1110.566 616.938 c 1124.375
 624.91 1142.027 620.18 1150 606.371 c S
1100 577.504 m 1115.941 577.504 1128.867 564.582 1128.867 548.637 c 1128.867
 532.695 1115.941 519.77 1100 519.77 c S
1050 664.105 m 1042.027 650.301 1024.375 645.57 1010.566 653.539 c 996.758
 661.512 992.027 679.168 1000 692.973 c S
1000 577.504 m 1015.941 577.504 1028.867 564.582 1028.867 548.637 c 1028.867
 532.695 1015.941 519.77 1000 519.77 c S
1050 664.105 m 1042.027 677.914 1046.758 695.57 1060.566 703.539 c 1074.375
 711.512 1092.027 706.781 1100 692.973 c S
1000 577.504 m 992.027 563.699 974.375 558.965 960.566 566.938 c 946.758
 574.91 942.027 592.566 950 606.371 c S
1000 462.035 m 984.059 462.035 971.133 474.957 971.133 490.902 c 971.133
 506.844 984.059 519.77 1000 519.77 c S
1000 462.035 m 1007.973 448.227 1003.242 430.574 989.434 422.602 c 975.625
 414.629 957.973 419.359 950 433.168 c S
1100 462.035 m 1107.973 475.84 1125.625 480.574 1139.434 472.602 c 1153.242
 464.629 1157.973 446.973 1150 433.168 c S
1050 375.434 m 1057.973 361.625 1053.242 343.969 1039.434 336 c 1025.625
 328.027 1007.973 332.758 1000 346.562 c S
1100 462.035 m 1084.059 462.035 1071.133 474.957 1071.133 490.902 c 1071.133
 506.844 1084.059 519.77 1100 519.77 c S
1050 375.434 m 1057.973 389.238 1075.625 393.969 1089.434 386 c 1103.242
 378.027 1107.973 360.371 1100 346.562 c S
1250 317.695 m 1242.027 331.504 1246.758 349.16 1260.566 357.129 c 1274.375
 365.102 1292.027 360.371 1300 346.562 c S
1250 317.695 m 1265.941 317.695 1278.867 304.773 1278.867 288.828 c 1278.867
 272.887 1265.941 259.961 1250 259.961 c S
1200 404.301 m 1192.027 390.492 1174.375 385.762 1160.566 393.734 c 1146.758
 401.703 1142.027 419.359 1150 433.168 c S
1150 317.695 m 1165.941 317.695 1178.867 304.773 1178.867 288.828 c 1178.867
 272.887 1165.941 259.961 1150 259.961 c S
1200 404.301 m 1192.027 418.105 1196.758 435.762 1210.566 443.734 c 1224.375
 451.703 1242.027 446.973 1250 433.168 c S
1150 317.695 m 1142.027 303.891 1124.375 299.16 1110.566 307.129 c 1096.758
 315.102 1092.027 332.758 1100 346.562 c S
1150 202.227 m 1134.059 202.227 1121.133 215.152 1121.133 231.094 c 1121.133
 247.039 1134.059 259.961 1150 259.961 c S
1150 202.227 m 1157.973 188.418 1153.242 170.766 1139.434 162.793 c 1125.625
 154.82 1107.973 159.551 1100 173.359 c S
1250 202.227 m 1257.973 216.035 1275.625 220.766 1289.434 212.793 c 1303.242
 204.82 1307.973 187.168 1300 173.359 c S
1200 115.625 m 1207.973 101.816 1203.242 84.164 1189.434 76.191 c 1175.625
 68.219 1157.973 72.949 1150 86.758 c S
1250 202.227 m 1234.059 202.227 1221.133 215.152 1221.133 231.094 c 1221.133
 247.039 1234.059 259.961 1250 259.961 c S
1200 115.625 m 1207.973 129.43 1225.625 134.164 1239.434 126.191 c 1253.242
 118.219 1257.973 100.562 1250 86.758 c S
1400 57.891 m 1392.027 71.695 1396.758 89.352 1410.566 97.324 c 1424.375
 105.293 1442.027 100.562 1450 86.758 c S
Q q
1398 60 33 -59.848 re W n
0 g
2.5 w
1 J
1 j
[] 0.0 d
4 M 1400 57.891 m 1415.941 57.891 1428.867 44.965 1428.867 29.023 c 1428.867
 13.078 1415.941 0.152 1400 0.152 c S
Q q
0 g
2.5 w
1 J
1 j
[] 0.0 d
4 M 1350 144.492 m 1342.027 130.684 1324.375 125.953 1310.566 133.926 c 1296.758
 141.898 1292.027 159.551 1300 173.359 c S
Q q
1298 60 33 -59.848 re W n
0 g
2.5 w
1 J
1 j
[] 0.0 d
4 M 1300 57.891 m 1315.941 57.891 1328.867 44.965 1328.867 29.023 c 1328.867
 13.078 1315.941 0.152 1300 0.152 c S
Q q
0 g
2.5 w
1 J
1 j
[] 0.0 d
4 M 1350 144.492 m 1342.027 158.301 1346.758 175.953 1360.566 183.926 c 1374.375
 191.898 1392.027 187.168 1400 173.359 c S
1300 57.891 m 1292.027 44.082 1274.375 39.352 1260.566 47.324 c 1246.758
 55.293 1242.027 72.949 1250 86.758 c S
700 1501.266 m 684.059 1501.266 671.133 1514.188 671.133 1530.133 c 671.133
 1546.074 684.059 1559 700 1559 c S
700 1501.266 m 707.973 1487.457 703.242 1469.805 689.434 1461.832 c 675.625
 1453.859 657.973 1458.59 650 1472.398 c S
800 1501.266 m 807.973 1515.07 825.625 1519.805 839.434 1511.832 c 853.242
 1503.859 857.973 1486.203 850 1472.398 c S
750 1414.664 m 757.973 1400.855 753.242 1383.199 739.434 1375.23 c 725.625
 1367.258 707.973 1371.988 700 1385.793 c S
800 1501.266 m 784.059 1501.266 771.133 1514.188 771.133 1530.133 c 771.133
 1546.074 784.059 1559 800 1559 c S
750 1414.664 m 757.973 1428.469 775.625 1433.199 789.434 1425.23 c 803.242
 1417.258 807.973 1399.602 800 1385.793 c S
950 1356.926 m 942.027 1370.734 946.758 1388.391 960.566 1396.359 c 974.375
 1404.332 992.027 1399.602 1000 1385.793 c S
950 1356.926 m 965.941 1356.926 978.867 1344.004 978.867 1328.059 c 978.867
 1312.117 965.941 1299.191 950 1299.191 c S
900 1443.531 m 892.027 1429.723 874.375 1424.992 860.566 1432.965 c 846.758
 1440.934 842.027 1458.59 850 1472.398 c S
850 1356.926 m 865.941 1356.926 878.867 1344.004 878.867 1328.059 c 878.867
 1312.117 865.941 1299.191 850 1299.191 c S
900 1443.531 m 892.027 1457.336 896.758 1474.992 910.566 1482.965 c 924.375
 1490.934 942.027 1486.203 950 1472.398 c S
850 1356.926 m 842.027 1343.121 824.375 1338.391 810.566 1346.359 c 796.758
 1354.332 792.027 1371.988 800 1385.793 c S
850 1241.457 m 834.059 1241.457 821.133 1254.383 821.133 1270.324 c 821.133
 1286.27 834.059 1299.191 850 1299.191 c S
850 1241.457 m 857.973 1227.648 853.242 1209.996 839.434 1202.023 c 825.625
 1194.051 807.973 1198.781 800 1212.59 c S
950 1241.457 m 957.973 1255.266 975.625 1259.996 989.434 1252.023 c 1003.242
 1244.051 1007.973 1226.398 1000 1212.59 c S
900 1154.855 m 907.973 1141.047 903.242 1123.395 889.434 1115.422 c 875.625
 1107.449 857.973 1112.18 850 1125.988 c S
950 1241.457 m 934.059 1241.457 921.133 1254.383 921.133 1270.324 c 921.133
 1286.27 934.059 1299.191 950 1299.191 c S
900 1154.855 m 907.973 1168.66 925.625 1173.395 939.434 1165.422 c 953.242
 1157.449 957.973 1139.793 950 1125.988 c S
1100 1097.121 m 1092.027 1110.926 1096.758 1128.582 1110.566 1136.555 c
 1124.375 1144.523 1142.027 1139.793 1150 1125.988 c S
1100 1097.121 m 1115.941 1097.121 1128.867 1084.195 1128.867 1068.254 c
 1128.867 1052.309 1115.941 1039.383 1100 1039.383 c S
1050 1183.723 m 1042.027 1169.914 1024.375 1165.184 1010.566 1173.156 c
 996.758 1181.129 992.027 1198.781 1000 1212.59 c S
1000 1097.121 m 1015.941 1097.121 1028.867 1084.195 1028.867 1068.254 c
 1028.867 1052.309 1015.941 1039.383 1000 1039.383 c S
1050 1183.723 m 1042.027 1197.531 1046.758 1215.184 1060.566 1223.156 c
 1074.375 1231.129 1092.027 1226.398 1100 1212.59 c S
1000 1097.121 m 992.027 1083.312 974.375 1078.582 960.566 1086.555 c 946.758
 1094.523 942.027 1112.18 950 1125.988 c S
1000 981.648 m 984.059 981.648 971.133 994.574 971.133 1010.516 c 971.133
 1026.461 984.059 1039.383 1000 1039.383 c S
1000 981.648 m 1007.973 967.844 1003.242 950.188 989.434 942.215 c 975.625
 934.246 957.973 938.977 950 952.781 c S
1100 981.648 m 1107.973 995.457 1125.625 1000.188 1139.434 992.215 c 1153.242
 984.246 1157.973 966.59 1150 952.781 c S
1050 895.047 m 1057.973 881.238 1053.242 863.586 1039.434 855.613 c 1025.625
 847.641 1007.973 852.371 1000 866.18 c S
1100 981.648 m 1084.059 981.648 1071.133 994.574 1071.133 1010.516 c 1071.133
 1026.461 1084.059 1039.383 1100 1039.383 c S
1050 895.047 m 1057.973 908.855 1075.625 913.586 1089.434 905.613 c 1103.242
 897.641 1107.973 879.988 1100 866.18 c S
1250 837.312 m 1242.027 851.121 1246.758 868.773 1260.566 876.746 c 1274.375
 884.719 1292.027 879.988 1300 866.18 c S
1250 837.312 m 1265.941 837.312 1278.867 824.387 1278.867 808.445 c 1278.867
 792.5 1265.941 779.578 1250 779.578 c S
1200 923.914 m 1192.027 910.109 1174.375 905.375 1160.566 913.348 c 1146.758
 921.32 1142.027 938.977 1150 952.781 c S
1150 837.312 m 1165.941 837.312 1178.867 824.387 1178.867 808.445 c 1178.867
 792.5 1165.941 779.578 1150 779.578 c S
1200 923.914 m 1192.027 937.723 1196.758 955.375 1210.566 963.348 c 1224.375
 971.32 1242.027 966.59 1250 952.781 c S
1150 837.312 m 1142.027 823.504 1124.375 818.773 1110.566 826.746 c 1096.758
 834.719 1092.027 852.371 1100 866.18 c S
1150 721.844 m 1134.059 721.844 1121.133 734.766 1121.133 750.711 c 1121.133
 766.652 1134.059 779.578 1150 779.578 c S
1150 721.844 m 1157.973 708.035 1153.242 690.379 1139.434 682.41 c 1125.625
 674.438 1107.973 679.168 1100 692.973 c S
1250 721.844 m 1257.973 735.648 1275.625 740.379 1289.434 732.41 c 1303.242
 724.438 1307.973 706.781 1300 692.973 c S
1200 635.238 m 1207.973 621.434 1203.242 603.777 1189.434 595.805 c 1175.625
 587.836 1157.973 592.566 1150 606.371 c S
1250 721.844 m 1234.059 721.844 1221.133 734.766 1221.133 750.711 c 1221.133
 766.652 1234.059 779.578 1250 779.578 c S
1200 635.238 m 1207.973 649.047 1225.625 653.777 1239.434 645.805 c 1253.242
 637.836 1257.973 620.18 1250 606.371 c S
1400 577.504 m 1392.027 591.312 1396.758 608.965 1410.566 616.938 c 1424.375
 624.91 1442.027 620.18 1450 606.371 c S
1400 577.504 m 1415.941 577.504 1428.867 564.582 1428.867 548.637 c 1428.867
 532.695 1415.941 519.77 1400 519.77 c S
1350 664.105 m 1342.027 650.301 1324.375 645.57 1310.566 653.539 c 1296.758
 661.512 1292.027 679.168 1300 692.973 c S
1300 577.504 m 1315.941 577.504 1328.867 564.582 1328.867 548.637 c 1328.867
 532.695 1315.941 519.77 1300 519.77 c S
1350 664.105 m 1342.027 677.914 1346.758 695.57 1360.566 703.539 c 1374.375
 711.512 1392.027 706.781 1400 692.973 c S
1300 577.504 m 1292.027 563.699 1274.375 558.965 1260.566 566.938 c 1246.758
 574.91 1242.027 592.566 1250 606.371 c S
1300 462.035 m 1284.059 462.035 1271.133 474.957 1271.133 490.902 c 1271.133
 506.844 1284.059 519.77 1300 519.77 c S
1300 462.035 m 1307.973 448.227 1303.242 430.574 1289.434 422.602 c 1275.625
 414.629 1257.973 419.359 1250 433.168 c S
1400 462.035 m 1407.973 475.84 1425.625 480.574 1439.434 472.602 c 1453.242
 464.629 1457.973 446.973 1450 433.168 c S
1350 375.434 m 1357.973 361.625 1353.242 343.969 1339.434 336 c 1325.625
 328.027 1307.973 332.758 1300 346.562 c S
1400 462.035 m 1384.059 462.035 1371.133 474.957 1371.133 490.902 c 1371.133
 506.844 1384.059 519.77 1400 519.77 c S
1350 375.434 m 1357.973 389.238 1375.625 393.969 1389.434 386 c 1403.242
 378.027 1407.973 360.371 1400 346.562 c S
1550 317.695 m 1542.027 331.504 1546.758 349.16 1560.566 357.129 c 1574.375
 365.102 1592.027 360.371 1600 346.562 c S
1550 317.695 m 1565.941 317.695 1578.867 304.773 1578.867 288.828 c 1578.867
 272.887 1565.941 259.961 1550 259.961 c S
1500 404.301 m 1492.027 390.492 1474.375 385.762 1460.566 393.734 c 1446.758
 401.703 1442.027 419.359 1450 433.168 c S
1450 317.695 m 1465.941 317.695 1478.867 304.773 1478.867 288.828 c 1478.867
 272.887 1465.941 259.961 1450 259.961 c S
1500 404.301 m 1492.027 418.105 1496.758 435.762 1510.566 443.734 c 1524.375
 451.703 1542.027 446.973 1550 433.168 c S
1450 317.695 m 1442.027 303.891 1424.375 299.16 1410.566 307.129 c 1396.758
 315.102 1392.027 332.758 1400 346.562 c S
1450 202.227 m 1434.059 202.227 1421.133 215.152 1421.133 231.094 c 1421.133
 247.039 1434.059 259.961 1450 259.961 c S
1450 202.227 m 1457.973 188.418 1453.242 170.766 1439.434 162.793 c 1425.625
 154.82 1407.973 159.551 1400 173.359 c S
1550 202.227 m 1557.973 216.035 1575.625 220.766 1589.434 212.793 c 1603.242
 204.82 1607.973 187.168 1600 173.359 c S
1500 115.625 m 1507.973 101.816 1503.242 84.164 1489.434 76.191 c 1475.625
 68.219 1457.973 72.949 1450 86.758 c S
1550 202.227 m 1534.059 202.227 1521.133 215.152 1521.133 231.094 c 1521.133
 247.039 1534.059 259.961 1550 259.961 c S
1500 115.625 m 1507.973 129.43 1525.625 134.164 1539.434 126.191 c 1553.242
 118.219 1557.973 100.562 1550 86.758 c S
1700 57.891 m 1692.027 71.695 1696.758 89.352 1710.566 97.324 c 1724.375
 105.293 1742.027 100.562 1750 86.758 c S
Q q
1698 60 33 -59.848 re W n
0 g
2.5 w
1 J
1 j
[] 0.0 d
4 M 1700 57.891 m 1715.941 57.891 1728.867 44.965 1728.867 29.023 c 1728.867
 13.078 1715.941 0.152 1700 0.152 c S
Q q
0 g
2.5 w
1 J
1 j
[] 0.0 d
4 M 1650 144.492 m 1642.027 130.684 1624.375 125.953 1610.566 133.926 c 1596.758
 141.898 1592.027 159.551 1600 173.359 c S
Q q
1598 60 33 -59.848 re W n
0 g
2.5 w
1 J
1 j
[] 0.0 d
4 M 1600 57.891 m 1615.941 57.891 1628.867 44.965 1628.867 29.023 c 1628.867
 13.078 1615.941 0.152 1600 0.152 c S
Q q
0 g
2.5 w
1 J
1 j
[] 0.0 d
4 M 1650 144.492 m 1642.027 158.301 1646.758 175.953 1660.566 183.926 c 1674.375
 191.898 1692.027 187.168 1700 173.359 c S
1600 57.891 m 1592.027 44.082 1574.375 39.352 1560.566 47.324 c 1546.758
 55.293 1542.027 72.949 1550 86.758 c S
1000 1501.266 m 984.059 1501.266 971.133 1514.188 971.133 1530.133 c 971.133
 1546.074 984.059 1559 1000 1559 c S
1000 1501.266 m 1007.973 1487.457 1003.242 1469.805 989.434 1461.832 c 
975.625 1453.859 957.973 1458.59 950 1472.398 c S
1100 1501.266 m 1107.973 1515.07 1125.625 1519.805 1139.434 1511.832 c 
1153.242 1503.859 1157.973 1486.203 1150 1472.398 c S
1050 1414.664 m 1057.973 1400.855 1053.242 1383.199 1039.434 1375.23 c 
1025.625 1367.258 1007.973 1371.988 1000 1385.793 c S
1100 1501.266 m 1084.059 1501.266 1071.133 1514.188 1071.133 1530.133 c
 1071.133 1546.074 1084.059 1559 1100 1559 c S
1050 1414.664 m 1057.973 1428.469 1075.625 1433.199 1089.434 1425.23 c 
1103.242 1417.258 1107.973 1399.602 1100 1385.793 c S
1250 1356.926 m 1242.027 1370.734 1246.758 1388.391 1260.566 1396.359 c
 1274.375 1404.332 1292.027 1399.602 1300 1385.793 c S
1250 1356.926 m 1265.941 1356.926 1278.867 1344.004 1278.867 1328.059 c
 1278.867 1312.117 1265.941 1299.191 1250 1299.191 c S
1200 1443.531 m 1192.027 1429.723 1174.375 1424.992 1160.566 1432.965 c
 1146.758 1440.934 1142.027 1458.59 1150 1472.398 c S
1150 1356.926 m 1165.941 1356.926 1178.867 1344.004 1178.867 1328.059 c
 1178.867 1312.117 1165.941 1299.191 1150 1299.191 c S
1200 1443.531 m 1192.027 1457.336 1196.758 1474.992 1210.566 1482.965 c
 1224.375 1490.934 1242.027 1486.203 1250 1472.398 c S
1150 1356.926 m 1142.027 1343.121 1124.375 1338.391 1110.566 1346.359 c
 1096.758 1354.332 1092.027 1371.988 1100 1385.793 c S
1150 1241.457 m 1134.059 1241.457 1121.133 1254.383 1121.133 1270.324 c
 1121.133 1286.27 1134.059 1299.191 1150 1299.191 c S
1150 1241.457 m 1157.973 1227.648 1153.242 1209.996 1139.434 1202.023 c
 1125.625 1194.051 1107.973 1198.781 1100 1212.59 c S
1250 1241.457 m 1257.973 1255.266 1275.625 1259.996 1289.434 1252.023 c
 1303.242 1244.051 1307.973 1226.398 1300 1212.59 c S
1200 1154.855 m 1207.973 1141.047 1203.242 1123.395 1189.434 1115.422 c
 1175.625 1107.449 1157.973 1112.18 1150 1125.988 c S
1250 1241.457 m 1234.059 1241.457 1221.133 1254.383 1221.133 1270.324 c
 1221.133 1286.27 1234.059 1299.191 1250 1299.191 c S
1200 1154.855 m 1207.973 1168.66 1225.625 1173.395 1239.434 1165.422 c 
1253.242 1157.449 1257.973 1139.793 1250 1125.988 c S
1400 1097.121 m 1392.027 1110.926 1396.758 1128.582 1410.566 1136.555 c
 1424.375 1144.523 1442.027 1139.793 1450 1125.988 c S
1400 1097.121 m 1415.941 1097.121 1428.867 1084.195 1428.867 1068.254 c
 1428.867 1052.309 1415.941 1039.383 1400 1039.383 c S
1350 1183.723 m 1342.027 1169.914 1324.375 1165.184 1310.566 1173.156 c
 1296.758 1181.129 1292.027 1198.781 1300 1212.59 c S
1300 1097.121 m 1315.941 1097.121 1328.867 1084.195 1328.867 1068.254 c
 1328.867 1052.309 1315.941 1039.383 1300 1039.383 c S
1350 1183.723 m 1342.027 1197.531 1346.758 1215.184 1360.566 1223.156 c
 1374.375 1231.129 1392.027 1226.398 1400 1212.59 c S
1300 1097.121 m 1292.027 1083.312 1274.375 1078.582 1260.566 1086.555 c
 1246.758 1094.523 1242.027 1112.18 1250 1125.988 c S
1300 981.648 m 1284.059 981.648 1271.133 994.574 1271.133 1010.516 c 1271.133
 1026.461 1284.059 1039.383 1300 1039.383 c S
1300 981.648 m 1307.973 967.844 1303.242 950.188 1289.434 942.215 c 1275.625
 934.246 1257.973 938.977 1250 952.781 c S
1400 981.648 m 1407.973 995.457 1425.625 1000.188 1439.434 992.215 c 1453.242
 984.246 1457.973 966.59 1450 952.781 c S
1350 895.047 m 1357.973 881.238 1353.242 863.586 1339.434 855.613 c 1325.625
 847.641 1307.973 852.371 1300 866.18 c S
1400 981.648 m 1384.059 981.648 1371.133 994.574 1371.133 1010.516 c 1371.133
 1026.461 1384.059 1039.383 1400 1039.383 c S
1350 895.047 m 1357.973 908.855 1375.625 913.586 1389.434 905.613 c 1403.242
 897.641 1407.973 879.988 1400 866.18 c S
1550 837.312 m 1542.027 851.121 1546.758 868.773 1560.566 876.746 c 1574.375
 884.719 1592.027 879.988 1600 866.18 c S
1550 837.312 m 1565.941 837.312 1578.867 824.387 1578.867 808.445 c 1578.867
 792.5 1565.941 779.578 1550 779.578 c S
1500 923.914 m 1492.027 910.109 1474.375 905.375 1460.566 913.348 c 1446.758
 921.32 1442.027 938.977 1450 952.781 c S
1450 837.312 m 1465.941 837.312 1478.867 824.387 1478.867 808.445 c 1478.867
 792.5 1465.941 779.578 1450 779.578 c S
1500 923.914 m 1492.027 937.723 1496.758 955.375 1510.566 963.348 c 1524.375
 971.32 1542.027 966.59 1550 952.781 c S
1450 837.312 m 1442.027 823.504 1424.375 818.773 1410.566 826.746 c 1396.758
 834.719 1392.027 852.371 1400 866.18 c S
1450 721.844 m 1434.059 721.844 1421.133 734.766 1421.133 750.711 c 1421.133
 766.652 1434.059 779.578 1450 779.578 c S
1450 721.844 m 1457.973 708.035 1453.242 690.379 1439.434 682.41 c 1425.625
 674.438 1407.973 679.168 1400 692.973 c S
1550 721.844 m 1557.973 735.648 1575.625 740.379 1589.434 732.41 c 1603.242
 724.438 1607.973 706.781 1600 692.973 c S
1500 635.238 m 1507.973 621.434 1503.242 603.777 1489.434 595.805 c 1475.625
 587.836 1457.973 592.566 1450 606.371 c S
1550 721.844 m 1534.059 721.844 1521.133 734.766 1521.133 750.711 c 1521.133
 766.652 1534.059 779.578 1550 779.578 c S
1500 635.238 m 1507.973 649.047 1525.625 653.777 1539.434 645.805 c 1553.242
 637.836 1557.973 620.18 1550 606.371 c S
1700 577.504 m 1692.027 591.312 1696.758 608.965 1710.566 616.938 c 1724.375
 624.91 1742.027 620.18 1750 606.371 c S
1700 577.504 m 1715.941 577.504 1728.867 564.582 1728.867 548.637 c 1728.867
 532.695 1715.941 519.77 1700 519.77 c S
1650 664.105 m 1642.027 650.301 1624.375 645.57 1610.566 653.539 c 1596.758
 661.512 1592.027 679.168 1600 692.973 c S
1600 577.504 m 1615.941 577.504 1628.867 564.582 1628.867 548.637 c 1628.867
 532.695 1615.941 519.77 1600 519.77 c S
1650 664.105 m 1642.027 677.914 1646.758 695.57 1660.566 703.539 c 1674.375
 711.512 1692.027 706.781 1700 692.973 c S
1600 577.504 m 1592.027 563.699 1574.375 558.965 1560.566 566.938 c 1546.758
 574.91 1542.027 592.566 1550 606.371 c S
1600 462.035 m 1584.059 462.035 1571.133 474.957 1571.133 490.902 c 1571.133
 506.844 1584.059 519.77 1600 519.77 c S
1600 462.035 m 1607.973 448.227 1603.242 430.574 1589.434 422.602 c 1575.625
 414.629 1557.973 419.359 1550 433.168 c S
1700 462.035 m 1707.973 475.84 1725.625 480.574 1739.434 472.602 c 1753.242
 464.629 1757.973 446.973 1750 433.168 c S
1650 375.434 m 1657.973 361.625 1653.242 343.969 1639.434 336 c 1625.625
 328.027 1607.973 332.758 1600 346.562 c S
1700 462.035 m 1684.059 462.035 1671.133 474.957 1671.133 490.902 c 1671.133
 506.844 1684.059 519.77 1700 519.77 c S
1650 375.434 m 1657.973 389.238 1675.625 393.969 1689.434 386 c 1703.242
 378.027 1707.973 360.371 1700 346.562 c S
1800 404.301 m 1792.027 390.492 1774.375 385.762 1760.566 393.734 c 1746.758
 401.703 1742.027 419.359 1750 433.168 c S
1750 317.695 m 1765.941 317.695 1778.867 304.773 1778.867 288.828 c 1778.867
 272.887 1765.941 259.961 1750 259.961 c S
1800 404.301 m 1792.027 418.105 1796.758 435.762 1810.566 443.734 c 1824.375
 451.703 1842.027 446.973 1850 433.168 c S
1750 317.695 m 1742.027 303.891 1724.375 299.16 1710.566 307.129 c 1696.758
 315.102 1692.027 332.758 1700 346.562 c S
1750 202.227 m 1734.059 202.227 1721.133 215.152 1721.133 231.094 c 1721.133
 247.039 1734.059 259.961 1750 259.961 c S
1750 202.227 m 1757.973 188.418 1753.242 170.766 1739.434 162.793 c 1725.625
 154.82 1707.973 159.551 1700 173.359 c S
1800 115.625 m 1807.973 101.816 1803.242 84.164 1789.434 76.191 c 1775.625
 68.219 1757.973 72.949 1750 86.758 c S
1800 115.625 m 1807.973 129.43 1825.625 134.164 1839.434 126.191 c 1853.242
 118.219 1857.973 100.562 1850 86.758 c S
1300 1501.266 m 1284.059 1501.266 1271.133 1514.188 1271.133 1530.133 c
 1271.133 1546.074 1284.059 1559 1300 1559 c S
1300 1501.266 m 1307.973 1487.457 1303.242 1469.805 1289.434 1461.832 c
 1275.625 1453.859 1257.973 1458.59 1250 1472.398 c S
1400 1501.266 m 1407.973 1515.07 1425.625 1519.805 1439.434 1511.832 c 
1453.242 1503.859 1457.973 1486.203 1450 1472.398 c S
1350 1414.664 m 1357.973 1400.855 1353.242 1383.199 1339.434 1375.23 c 
1325.625 1367.258 1307.973 1371.988 1300 1385.793 c S
1400 1501.266 m 1384.059 1501.266 1371.133 1514.188 1371.133 1530.133 c
 1371.133 1546.074 1384.059 1559 1400 1559 c S
1350 1414.664 m 1357.973 1428.469 1375.625 1433.199 1389.434 1425.23 c 
1403.242 1417.258 1407.973 1399.602 1400 1385.793 c S
1550 1356.926 m 1542.027 1370.734 1546.758 1388.391 1560.566 1396.359 c
 1574.375 1404.332 1592.027 1399.602 1600 1385.793 c S
1550 1356.926 m 1565.941 1356.926 1578.867 1344.004 1578.867 1328.059 c
 1578.867 1312.117 1565.941 1299.191 1550 1299.191 c S
1500 1443.531 m 1492.027 1429.723 1474.375 1424.992 1460.566 1432.965 c
 1446.758 1440.934 1442.027 1458.59 1450 1472.398 c S
1450 1356.926 m 1465.941 1356.926 1478.867 1344.004 1478.867 1328.059 c
 1478.867 1312.117 1465.941 1299.191 1450 1299.191 c S
1500 1443.531 m 1492.027 1457.336 1496.758 1474.992 1510.566 1482.965 c
 1524.375 1490.934 1542.027 1486.203 1550 1472.398 c S
1450 1356.926 m 1442.027 1343.121 1424.375 1338.391 1410.566 1346.359 c
 1396.758 1354.332 1392.027 1371.988 1400 1385.793 c S
1450 1241.457 m 1434.059 1241.457 1421.133 1254.383 1421.133 1270.324 c
 1421.133 1286.27 1434.059 1299.191 1450 1299.191 c S
1450 1241.457 m 1457.973 1227.648 1453.242 1209.996 1439.434 1202.023 c
 1425.625 1194.051 1407.973 1198.781 1400 1212.59 c S
1550 1241.457 m 1557.973 1255.266 1575.625 1259.996 1589.434 1252.023 c
 1603.242 1244.051 1607.973 1226.398 1600 1212.59 c S
1500 1154.855 m 1507.973 1141.047 1503.242 1123.395 1489.434 1115.422 c
 1475.625 1107.449 1457.973 1112.18 1450 1125.988 c S
1550 1241.457 m 1534.059 1241.457 1521.133 1254.383 1521.133 1270.324 c
 1521.133 1286.27 1534.059 1299.191 1550 1299.191 c S
1500 1154.855 m 1507.973 1168.66 1525.625 1173.395 1539.434 1165.422 c 
1553.242 1157.449 1557.973 1139.793 1550 1125.988 c S
1700 1097.121 m 1692.027 1110.926 1696.758 1128.582 1710.566 1136.555 c
 1724.375 1144.523 1742.027 1139.793 1750 1125.988 c S
1700 1097.121 m 1715.941 1097.121 1728.867 1084.195 1728.867 1068.254 c
 1728.867 1052.309 1715.941 1039.383 1700 1039.383 c S
1650 1183.723 m 1642.027 1169.914 1624.375 1165.184 1610.566 1173.156 c
 1596.758 1181.129 1592.027 1198.781 1600 1212.59 c S
1600 1097.121 m 1615.941 1097.121 1628.867 1084.195 1628.867 1068.254 c
 1628.867 1052.309 1615.941 1039.383 1600 1039.383 c S
1650 1183.723 m 1642.027 1197.531 1646.758 1215.184 1660.566 1223.156 c
 1674.375 1231.129 1692.027 1226.398 1700 1212.59 c S
1600 1097.121 m 1592.027 1083.312 1574.375 1078.582 1560.566 1086.555 c
 1546.758 1094.523 1542.027 1112.18 1550 1125.988 c S
1600 981.648 m 1584.059 981.648 1571.133 994.574 1571.133 1010.516 c 1571.133
 1026.461 1584.059 1039.383 1600 1039.383 c S
1600 981.648 m 1607.973 967.844 1603.242 950.188 1589.434 942.215 c 1575.625
 934.246 1557.973 938.977 1550 952.781 c S
1700 981.648 m 1707.973 995.457 1725.625 1000.188 1739.434 992.215 c 1753.242
 984.246 1757.973 966.59 1750 952.781 c S
1650 895.047 m 1657.973 881.238 1653.242 863.586 1639.434 855.613 c 1625.625
 847.641 1607.973 852.371 1600 866.18 c S
1700 981.648 m 1684.059 981.648 1671.133 994.574 1671.133 1010.516 c 1671.133
 1026.461 1684.059 1039.383 1700 1039.383 c S
1650 895.047 m 1657.973 908.855 1675.625 913.586 1689.434 905.613 c 1703.242
 897.641 1707.973 879.988 1700 866.18 c S
1800 923.914 m 1792.027 910.109 1774.375 905.375 1760.566 913.348 c 1746.758
 921.32 1742.027 938.977 1750 952.781 c S
1750 837.312 m 1765.941 837.312 1778.867 824.387 1778.867 808.445 c 1778.867
 792.5 1765.941 779.578 1750 779.578 c S
1800 923.914 m 1792.027 937.723 1796.758 955.375 1810.566 963.348 c 1824.375
 971.32 1842.027 966.59 1850 952.781 c S
1750 837.312 m 1742.027 823.504 1724.375 818.773 1710.566 826.746 c 1696.758
 834.719 1692.027 852.371 1700 866.18 c S
1750 721.844 m 1734.059 721.844 1721.133 734.766 1721.133 750.711 c 1721.133
 766.652 1734.059 779.578 1750 779.578 c S
1750 721.844 m 1757.973 708.035 1753.242 690.379 1739.434 682.41 c 1725.625
 674.438 1707.973 679.168 1700 692.973 c S
1800 635.238 m 1807.973 621.434 1803.242 603.777 1789.434 595.805 c 1775.625
 587.836 1757.973 592.566 1750 606.371 c S
1800 635.238 m 1807.973 649.047 1825.625 653.777 1839.434 645.805 c 1853.242
 637.836 1857.973 620.18 1850 606.371 c S
1600 1501.266 m 1584.059 1501.266 1571.133 1514.188 1571.133 1530.133 c
 1571.133 1546.074 1584.059 1559 1600 1559 c S
1600 1501.266 m 1607.973 1487.457 1603.242 1469.805 1589.434 1461.832 c
 1575.625 1453.859 1557.973 1458.59 1550 1472.398 c S
1700 1501.266 m 1707.973 1515.07 1725.625 1519.805 1739.434 1511.832 c 
1753.242 1503.859 1757.973 1486.203 1750 1472.398 c S
1650 1414.664 m 1657.973 1400.855 1653.242 1383.199 1639.434 1375.23 c 
1625.625 1367.258 1607.973 1371.988 1600 1385.793 c S
1700 1501.266 m 1684.059 1501.266 1671.133 1514.188 1671.133 1530.133 c
 1671.133 1546.074 1684.059 1559 1700 1559 c S
1650 1414.664 m 1657.973 1428.469 1675.625 1433.199 1689.434 1425.23 c 
1703.242 1417.258 1707.973 1399.602 1700 1385.793 c S
1800 1443.531 m 1792.027 1429.723 1774.375 1424.992 1760.566 1432.965 c
 1746.758 1440.934 1742.027 1458.59 1750 1472.398 c S
1750 1356.926 m 1765.941 1356.926 1778.867 1344.004 1778.867 1328.059 c
 1778.867 1312.117 1765.941 1299.191 1750 1299.191 c S
1800 1443.531 m 1792.027 1457.336 1796.758 1474.992 1810.566 1482.965 c
 1824.375 1490.934 1842.027 1486.203 1850 1472.398 c S
1750 1356.926 m 1742.027 1343.121 1724.375 1338.391 1710.566 1346.359 c
 1696.758 1354.332 1692.027 1371.988 1700 1385.793 c S
1750 1241.457 m 1734.059 1241.457 1721.133 1254.383 1721.133 1270.324 c
 1721.133 1286.27 1734.059 1299.191 1750 1299.191 c S
1750 1241.457 m 1757.973 1227.648 1753.242 1209.996 1739.434 1202.023 c
 1725.625 1194.051 1707.973 1198.781 1700 1212.59 c S
1800 1154.855 m 1807.973 1141.047 1803.242 1123.395 1789.434 1115.422 c
 1775.625 1107.449 1757.973 1112.18 1750 1125.988 c S
1800 1154.855 m 1807.973 1168.66 1825.625 1173.395 1839.434 1165.422 c 
1853.242 1157.449 1857.973 1139.793 1850 1125.988 c S
Q Q
showpage
%%Trailer
%%Trailer
cleartomark
countdictstack
exch sub { end } repeat
restore
%%EOF
