%!PS-Adobe-2.0 EPSF-2.0
%%BoundingBox: 0 0 2800 1500
%%HiResBoundingBox: 0.000000 0.000000 2800.000000 1500.000000
%%Creator: cairo 1.14.2 (http://cairographics.org)
%%CreationDate: Mon Sep  7 08:22:01 2015
%%DocumentData: Clean7Bit
%%LanguageLevel: 2
%%DocumentMedia: 988x529mm 2800 1500 0 () ()
%%EndComments
% EPSF created by ps2eps 1.68
%%BeginProlog
save
countdictstack
mark
newpath
/showpage {} def
/setpagedevice {pop} def
%%EndProlog
%%Page 1 1
%%BeginProlog
/languagelevel where
{ pop languagelevel } { 1 } ifelse
2 lt { /Helvetica findfont 12 scalefont setfont 50 500 moveto
  (This print job requires a PostScript Language Level 2 printer.) show
  showpage quit } if
/q { gsave } bind def
/Q { grestore } bind def
/cm { 6 array astore concat } bind def
/w { setlinewidth } bind def
/J { setlinecap } bind def
/j { setlinejoin } bind def
/M { setmiterlimit } bind def
/d { setdash } bind def
/m { moveto } bind def
/l { lineto } bind def
/c { curveto } bind def
/h { closepath } bind def
/re { exch dup neg 3 1 roll 5 3 roll moveto 0 rlineto
      0 exch rlineto 0 rlineto closepath } bind def
/S { stroke } bind def
/f { fill } bind def
/f* { eofill } bind def
/n { newpath } bind def
/W { clip } bind def
/W* { eoclip } bind def
/BT { } bind def
/ET { } bind def
/pdfmark where { pop globaldict /?pdfmark /exec load put }
    { globaldict begin /?pdfmark /pop load def /pdfmark
    /cleartomark load def end } ifelse
/BDC { mark 3 1 roll /BDC pdfmark } bind def
/EMC { mark /EMC pdfmark } bind def
/cairo_store_point { /cairo_point_y exch def /cairo_point_x exch def } def
/Tj { show currentpoint cairo_store_point } bind def
/TJ {
  {
    dup
    type /stringtype eq
    { show } { -0.001 mul 0 cairo_font_matrix dtransform rmoveto } ifelse
  } forall
  currentpoint cairo_store_point
} bind def
/cairo_selectfont { cairo_font_matrix aload pop pop pop 0 0 6 array astore
    cairo_font exch selectfont cairo_point_x cairo_point_y moveto } bind def
/Tf { pop /cairo_font exch def /cairo_font_matrix where
      { pop cairo_selectfont } if } bind def
/Td { matrix translate cairo_font_matrix matrix concatmatrix dup
      /cairo_font_matrix exch def dup 4 get exch 5 get cairo_store_point
      /cairo_font where { pop cairo_selectfont } if } bind def
/Tm { 2 copy 8 2 roll 6 array astore /cairo_font_matrix exch def
      cairo_store_point /cairo_font where { pop cairo_selectfont } if } bind def
/g { setgray } bind def
/rg { setrgbcolor } bind def
/d1 { setcachedevice } bind def
/cairo_set_page_size {
  % Change paper size, but only if different from previous paper size otherwise
  % duplex fails. PLRM specifies a tolerance of 5 pts when matching paper size
  % so we use the same when checking if the size changes.
  /setpagedevice where {
    pop currentpagedevice
    /PageSize known {
      2 copy
      currentpagedevice /PageSize get aload pop
      exch 4 1 roll
      sub abs 5 gt
      3 1 roll
      sub abs 5 gt
      or
    } {
      true
    } ifelse
    {
      2 array astore
      2 dict begin
        /PageSize exch def
        /ImagingBBox null def
      currentdict end
      setpagedevice
    } {
      pop pop
    } ifelse
  } {
    pop
  } ifelse
} def
%%EndProlog
%%BeginSetup
%%EndSetup
%%Page: 1 1
%%BeginPageSetup
%%PageMedia: 988x529mm
%%PageBoundingBox: 0 0 2800 1500
2800 1500 cairo_set_page_size
%%EndPageSetup
q 0 0 2800 1500 rectclip q
0.984314 g
0 0 2800 1500 rectfill
0.788235 g
1.875 w
0 J
1 j
[] 0.0 d
4 M 0 1500 2800 -1500 re S
0 g
2.5 w
1 J
0 1500 m 66.668 1450 133.332 1400 0 1350 c S
200 1350 m 266.668 1400 333.332 1450 200 1500 c S
200 1350 m 133.332 1300 66.668 1250 200 1200 c S
400 1200 m 333.332 1250 266.668 1300 400 1350 c S
0 1200 m 66.668 1150 133.332 1100 0 1050 c S
200 1050 m 266.668 1100 333.332 1150 200 1200 c S
200 1050 m 133.332 1000 66.668 950 200 900 c S
400 900 m 333.332 950 266.668 1000 400 1050 c S
0 900 m 66.668 850 133.332 800 0 750 c S
200 750 m 266.668 800 333.332 850 200 900 c S
200 750 m 133.332 700 66.668 650 200 600 c S
400 600 m 333.332 650 266.668 700 400 750 c S
0 600 m 66.668 550 133.332 500 0 450 c S
200 450 m 266.668 500 333.332 550 200 600 c S
200 450 m 133.332 400 66.668 350 200 300 c S
400 300 m 333.332 350 266.668 400 400 450 c S
0 300 m 66.668 250 133.332 200 0 150 c S
200 150 m 266.668 200 333.332 250 200 300 c S
200 150 m 133.332 100 66.668 50 200 0 c S
400 0 m 333.332 50 266.668 100 400 150 c S
400 1500 m 466.668 1450 533.332 1400 400 1350 c S
600 1350 m 666.668 1400 733.332 1450 600 1500 c S
600 1350 m 533.332 1300 466.668 1250 600 1200 c S
800 1200 m 733.332 1250 666.668 1300 800 1350 c S
400 1200 m 466.668 1150 533.332 1100 400 1050 c S
600 1050 m 666.668 1100 733.332 1150 600 1200 c S
600 1050 m 533.332 1000 466.668 950 600 900 c S
800 900 m 733.332 950 666.668 1000 800 1050 c S
400 900 m 466.668 850 533.332 800 400 750 c S
600 750 m 666.668 800 733.332 850 600 900 c S
600 750 m 533.332 700 466.668 650 600 600 c S
800 600 m 733.332 650 666.668 700 800 750 c S
400 600 m 466.668 550 533.332 500 400 450 c S
600 450 m 666.668 500 733.332 550 600 600 c S
600 450 m 533.332 400 466.668 350 600 300 c S
800 300 m 733.332 350 666.668 400 800 450 c S
400 300 m 466.668 250 533.332 200 400 150 c S
600 150 m 666.668 200 733.332 250 600 300 c S
600 150 m 533.332 100 466.668 50 600 0 c S
800 0 m 733.332 50 666.668 100 800 150 c S
800 1500 m 866.668 1450 933.332 1400 800 1350 c S
1000 1350 m 1066.668 1400 1133.332 1450 1000 1500 c S
1000 1350 m 933.332 1300 866.668 1250 1000 1200 c S
1200 1200 m 1133.332 1250 1066.668 1300 1200 1350 c S
800 1200 m 866.668 1150 933.332 1100 800 1050 c S
1000 1050 m 1066.668 1100 1133.332 1150 1000 1200 c S
1000 1050 m 933.332 1000 866.668 950 1000 900 c S
1200 900 m 1133.332 950 1066.668 1000 1200 1050 c S
800 900 m 866.668 850 933.332 800 800 750 c S
1000 750 m 1066.668 800 1133.332 850 1000 900 c S
1000 750 m 933.332 700 866.668 650 1000 600 c S
1200 600 m 1133.332 650 1066.668 700 1200 750 c S
800 600 m 866.668 550 933.332 500 800 450 c S
1000 450 m 1066.668 500 1133.332 550 1000 600 c S
1000 450 m 933.332 400 866.668 350 1000 300 c S
1200 300 m 1133.332 350 1066.668 400 1200 450 c S
800 300 m 866.668 250 933.332 200 800 150 c S
1000 150 m 1066.668 200 1133.332 250 1000 300 c S
1000 150 m 933.332 100 866.668 50 1000 0 c S
1200 0 m 1133.332 50 1066.668 100 1200 150 c S
1200 1500 m 1266.668 1450 1333.332 1400 1200 1350 c S
1400 1350 m 1466.668 1400 1533.332 1450 1400 1500 c S
1400 1350 m 1333.332 1300 1266.668 1250 1400 1200 c S
1600 1200 m 1533.332 1250 1466.668 1300 1600 1350 c S
1200 1200 m 1266.668 1150 1333.332 1100 1200 1050 c S
1400 1050 m 1466.668 1100 1533.332 1150 1400 1200 c S
1400 1050 m 1333.332 1000 1266.668 950 1400 900 c S
1600 900 m 1533.332 950 1466.668 1000 1600 1050 c S
1200 900 m 1266.668 850 1333.332 800 1200 750 c S
1400 750 m 1466.668 800 1533.332 850 1400 900 c S
1400 750 m 1333.332 700 1266.668 650 1400 600 c S
1600 600 m 1533.332 650 1466.668 700 1600 750 c S
1200 600 m 1266.668 550 1333.332 500 1200 450 c S
1400 450 m 1466.668 500 1533.332 550 1400 600 c S
1400 450 m 1333.332 400 1266.668 350 1400 300 c S
1600 300 m 1533.332 350 1466.668 400 1600 450 c S
1200 300 m 1266.668 250 1333.332 200 1200 150 c S
1400 150 m 1466.668 200 1533.332 250 1400 300 c S
1400 150 m 1333.332 100 1266.668 50 1400 0 c S
1600 0 m 1533.332 50 1466.668 100 1600 150 c S
1600 1500 m 1666.668 1450 1733.332 1400 1600 1350 c S
1800 1350 m 1866.668 1400 1933.332 1450 1800 1500 c S
1800 1350 m 1733.332 1300 1666.668 1250 1800 1200 c S
2000 1200 m 1933.332 1250 1866.668 1300 2000 1350 c S
1600 1200 m 1666.668 1150 1733.332 1100 1600 1050 c S
1800 1050 m 1866.668 1100 1933.332 1150 1800 1200 c S
1800 1050 m 1733.332 1000 1666.668 950 1800 900 c S
2000 900 m 1933.332 950 1866.668 1000 2000 1050 c S
1600 900 m 1666.668 850 1733.332 800 1600 750 c S
1800 750 m 1866.668 800 1933.332 850 1800 900 c S
1800 750 m 1733.332 700 1666.668 650 1800 600 c S
2000 600 m 1933.332 650 1866.668 700 2000 750 c S
1600 600 m 1666.668 550 1733.332 500 1600 450 c S
1800 450 m 1866.668 500 1933.332 550 1800 600 c S
1800 450 m 1733.332 400 1666.668 350 1800 300 c S
2000 300 m 1933.332 350 1866.668 400 2000 450 c S
1600 300 m 1666.668 250 1733.332 200 1600 150 c S
1800 150 m 1866.668 200 1933.332 250 1800 300 c S
1800 150 m 1733.332 100 1666.668 50 1800 0 c S
2000 0 m 1933.332 50 1866.668 100 2000 150 c S
2000 1500 m 2066.668 1450 2133.332 1400 2000 1350 c S
2200 1350 m 2266.668 1400 2333.332 1450 2200 1500 c S
2200 1350 m 2133.332 1300 2066.668 1250 2200 1200 c S
2400 1200 m 2333.332 1250 2266.668 1300 2400 1350 c S
2000 1200 m 2066.668 1150 2133.332 1100 2000 1050 c S
2200 1050 m 2266.668 1100 2333.332 1150 2200 1200 c S
2200 1050 m 2133.332 1000 2066.668 950 2200 900 c S
2400 900 m 2333.332 950 2266.668 1000 2400 1050 c S
2000 900 m 2066.668 850 2133.332 800 2000 750 c S
2200 750 m 2266.668 800 2333.332 850 2200 900 c S
2200 750 m 2133.332 700 2066.668 650 2200 600 c S
2400 600 m 2333.332 650 2266.668 700 2400 750 c S
2000 600 m 2066.668 550 2133.332 500 2000 450 c S
2200 450 m 2266.668 500 2333.332 550 2200 600 c S
2200 450 m 2133.332 400 2066.668 350 2200 300 c S
2400 300 m 2333.332 350 2266.668 400 2400 450 c S
2000 300 m 2066.668 250 2133.332 200 2000 150 c S
2200 150 m 2266.668 200 2333.332 250 2200 300 c S
2200 150 m 2133.332 100 2066.668 50 2200 0 c S
2400 0 m 2333.332 50 2266.668 100 2400 150 c S
2400 1500 m 2466.668 1450 2533.332 1400 2400 1350 c S
2600 1350 m 2666.668 1400 2733.332 1450 2600 1500 c S
2600 1350 m 2533.332 1300 2466.668 1250 2600 1200 c S
2800 1200 m 2733.332 1250 2666.668 1300 2800 1350 c S
2400 1200 m 2466.668 1150 2533.332 1100 2400 1050 c S
2600 1050 m 2666.668 1100 2733.332 1150 2600 1200 c S
2600 1050 m 2533.332 1000 2466.668 950 2600 900 c S
2800 900 m 2733.332 950 2666.668 1000 2800 1050 c S
2400 900 m 2466.668 850 2533.332 800 2400 750 c S
2600 750 m 2666.668 800 2733.332 850 2600 900 c S
2600 750 m 2533.332 700 2466.668 650 2600 600 c S
2800 600 m 2733.332 650 2666.668 700 2800 750 c S
2400 600 m 2466.668 550 2533.332 500 2400 450 c S
2600 450 m 2666.668 500 2733.332 550 2600 600 c S
2600 450 m 2533.332 400 2466.668 350 2600 300 c S
2800 300 m 2733.332 350 2666.668 400 2800 450 c S
2400 300 m 2466.668 250 2533.332 200 2400 150 c S
2600 150 m 2666.668 200 2733.332 250 2600 300 c S
2600 150 m 2533.332 100 2466.668 50 2600 0 c S
2800 0 m 2733.332 50 2666.668 100 2800 150 c S
Q Q
showpage
%%Trailer
%%Trailer
cleartomark
countdictstack
exch sub { end } repeat
restore
%%EOF
