%!PS-Adobe-2.0 EPSF-2.0
%%BoundingBox: 0 0 2800 1500
%%HiResBoundingBox: 0.000000 0.000000 2800.000000 1500.000000
%%Creator: cairo 1.14.2 (http://cairographics.org)
%%CreationDate: Mon Sep  7 08:22:01 2015
%%DocumentData: Clean7Bit
%%LanguageLevel: 2
%%DocumentMedia: 988x529mm 2800 1500 0 () ()
%%EndComments
% EPSF created by ps2eps 1.68
%%BeginProlog
save
countdictstack
mark
newpath
/showpage {} def
/setpagedevice {pop} def
%%EndProlog
%%Page 1 1
%%BeginProlog
/languagelevel where
{ pop languagelevel } { 1 } ifelse
2 lt { /Helvetica findfont 12 scalefont setfont 50 500 moveto
  (This print job requires a PostScript Language Level 2 printer.) show
  showpage quit } if
/q { gsave } bind def
/Q { grestore } bind def
/cm { 6 array astore concat } bind def
/w { setlinewidth } bind def
/J { setlinecap } bind def
/j { setlinejoin } bind def
/M { setmiterlimit } bind def
/d { setdash } bind def
/m { moveto } bind def
/l { lineto } bind def
/c { curveto } bind def
/h { closepath } bind def
/re { exch dup neg 3 1 roll 5 3 roll moveto 0 rlineto
      0 exch rlineto 0 rlineto closepath } bind def
/S { stroke } bind def
/f { fill } bind def
/f* { eofill } bind def
/n { newpath } bind def
/W { clip } bind def
/W* { eoclip } bind def
/BT { } bind def
/ET { } bind def
/pdfmark where { pop globaldict /?pdfmark /exec load put }
    { globaldict begin /?pdfmark /pop load def /pdfmark
    /cleartomark load def end } ifelse
/BDC { mark 3 1 roll /BDC pdfmark } bind def
/EMC { mark /EMC pdfmark } bind def
/cairo_store_point { /cairo_point_y exch def /cairo_point_x exch def } def
/Tj { show currentpoint cairo_store_point } bind def
/TJ {
  {
    dup
    type /stringtype eq
    { show } { -0.001 mul 0 cairo_font_matrix dtransform rmoveto } ifelse
  } forall
  currentpoint cairo_store_point
} bind def
/cairo_selectfont { cairo_font_matrix aload pop pop pop 0 0 6 array astore
    cairo_font exch selectfont cairo_point_x cairo_point_y moveto } bind def
/Tf { pop /cairo_font exch def /cairo_font_matrix where
      { pop cairo_selectfont } if } bind def
/Td { matrix translate cairo_font_matrix matrix concatmatrix dup
      /cairo_font_matrix exch def dup 4 get exch 5 get cairo_store_point
      /cairo_font where { pop cairo_selectfont } if } bind def
/Tm { 2 copy 8 2 roll 6 array astore /cairo_font_matrix exch def
      cairo_store_point /cairo_font where { pop cairo_selectfont } if } bind def
/g { setgray } bind def
/rg { setrgbcolor } bind def
/d1 { setcachedevice } bind def
/cairo_set_page_size {
  % Change paper size, but only if different from previous paper size otherwise
  % duplex fails. PLRM specifies a tolerance of 5 pts when matching paper size
  % so we use the same when checking if the size changes.
  /setpagedevice where {
    pop currentpagedevice
    /PageSize known {
      2 copy
      currentpagedevice /PageSize get aload pop
      exch 4 1 roll
      sub abs 5 gt
      3 1 roll
      sub abs 5 gt
      or
    } {
      true
    } ifelse
    {
      2 array astore
      2 dict begin
        /PageSize exch def
        /ImagingBBox null def
      currentdict end
      setpagedevice
    } {
      pop pop
    } ifelse
  } {
    pop
  } ifelse
} def
%%EndProlog
%%BeginSetup
%%EndSetup
%%Page: 1 1
%%BeginPageSetup
%%PageMedia: 988x529mm
%%PageBoundingBox: 0 0 2800 1500
2800 1500 cairo_set_page_size
%%EndPageSetup
q 0 0 2800 1500 rectclip q
0.984314 g
0 0 2800 1500 rectfill
0.788235 g
1.875 w
0 J
1 j
[] 0.0 d
4 M 0 1500 2800 -1500 re S
0.85098 g
200 1450 m 66.668 1350 l 66.668 1500 l 133.332 1450 l 200 1500 l h
200 1450 m f*
0 g
2.5 w
200 1450 m 66.668 1350 l 66.668 1500 l 133.332 1450 l 200 1500 l h
200 1450 m S
0.85098 g
200 1250 m 200 1200 l 133.332 1250 l 66.668 1200 l 66.668 1350 l h
200 1250 m f*
0 g
200 1250 m 200 1200 l 133.332 1250 l 66.668 1200 l 66.668 1350 l h
200 1250 m S
0.85098 g
200 1300 m 200 1350 l 266.668 1300 l 333.332 1350 l 333.332 1200 l h
200 1300 m f*
0 g
200 1300 m 200 1350 l 266.668 1300 l 333.332 1350 l 333.332 1200 l h
200 1300 m S
0.85098 g
200 1400 m 333.332 1500 l 333.332 1350 l 266.668 1400 l 200 1350 l h
200 1400 m f*
0 g
200 1400 m 333.332 1500 l 333.332 1350 l 266.668 1400 l 200 1350 l h
200 1400 m S
0.85098 g
200 1150 m 66.668 1050 l 66.668 1200 l 133.332 1150 l 200 1200 l h
200 1150 m f*
0 g
200 1150 m 66.668 1050 l 66.668 1200 l 133.332 1150 l 200 1200 l h
200 1150 m S
0.85098 g
200 950 m 200 900 l 133.332 950 l 66.668 900 l 66.668 1050 l h
200 950 m f*
0 g
200 950 m 200 900 l 133.332 950 l 66.668 900 l 66.668 1050 l h
200 950 m S
0.85098 g
200 1000 m 200 1050 l 266.668 1000 l 333.332 1050 l 333.332 900 l h
200 1000 m f*
0 g
200 1000 m 200 1050 l 266.668 1000 l 333.332 1050 l 333.332 900 l h
200 1000 m S
0.85098 g
200 1100 m 333.332 1200 l 333.332 1050 l 266.668 1100 l 200 1050 l h
200 1100 m f*
0 g
200 1100 m 333.332 1200 l 333.332 1050 l 266.668 1100 l 200 1050 l h
200 1100 m S
0.85098 g
200 850 m 66.668 750 l 66.668 900 l 133.332 850 l 200 900 l h
200 850 m f*
0 g
200 850 m 66.668 750 l 66.668 900 l 133.332 850 l 200 900 l h
200 850 m S
0.85098 g
200 650 m 200 600 l 133.332 650 l 66.668 600 l 66.668 750 l h
200 650 m f*
0 g
200 650 m 200 600 l 133.332 650 l 66.668 600 l 66.668 750 l h
200 650 m S
0.85098 g
200 700 m 200 750 l 266.668 700 l 333.332 750 l 333.332 600 l h
200 700 m f*
0 g
200 700 m 200 750 l 266.668 700 l 333.332 750 l 333.332 600 l h
200 700 m S
0.85098 g
200 800 m 333.332 900 l 333.332 750 l 266.668 800 l 200 750 l h
200 800 m f*
0 g
200 800 m 333.332 900 l 333.332 750 l 266.668 800 l 200 750 l h
200 800 m S
0.85098 g
200 550 m 66.668 450 l 66.668 600 l 133.332 550 l 200 600 l h
200 550 m f*
0 g
200 550 m 66.668 450 l 66.668 600 l 133.332 550 l 200 600 l h
200 550 m S
0.85098 g
200 350 m 200 300 l 133.332 350 l 66.668 300 l 66.668 450 l h
200 350 m f*
0 g
200 350 m 200 300 l 133.332 350 l 66.668 300 l 66.668 450 l h
200 350 m S
0.85098 g
200 400 m 200 450 l 266.668 400 l 333.332 450 l 333.332 300 l h
200 400 m f*
0 g
200 400 m 200 450 l 266.668 400 l 333.332 450 l 333.332 300 l h
200 400 m S
0.85098 g
200 500 m 333.332 600 l 333.332 450 l 266.668 500 l 200 450 l h
200 500 m f*
0 g
200 500 m 333.332 600 l 333.332 450 l 266.668 500 l 200 450 l h
200 500 m S
0.85098 g
200 250 m 66.668 150 l 66.668 300 l 133.332 250 l 200 300 l h
200 250 m f*
0 g
200 250 m 66.668 150 l 66.668 300 l 133.332 250 l 200 300 l h
200 250 m S
0.85098 g
200 50 m 200 0 l 133.332 50 l 66.668 0 l 66.668 150 l h
200 50 m f*
0 g
200 50 m 200 0 l 133.332 50 l 66.668 0 l 66.668 150 l h
200 50 m S
0.85098 g
200 100 m 200 150 l 266.668 100 l 333.332 150 l 333.332 0 l h
200 100 m f*
0 g
200 100 m 200 150 l 266.668 100 l 333.332 150 l 333.332 0 l h
200 100 m S
0.85098 g
200 200 m 333.332 300 l 333.332 150 l 266.668 200 l 200 150 l h
200 200 m f*
0 g
200 200 m 333.332 300 l 333.332 150 l 266.668 200 l 200 150 l h
200 200 m S
0.85098 g
600 1450 m 466.668 1350 l 466.668 1500 l 533.332 1450 l 600 1500 l h
600 1450 m f*
0 g
600 1450 m 466.668 1350 l 466.668 1500 l 533.332 1450 l 600 1500 l h
600 1450 m S
0.85098 g
600 1250 m 600 1200 l 533.332 1250 l 466.668 1200 l 466.668 1350 l h
600 1250 m f*
0 g
600 1250 m 600 1200 l 533.332 1250 l 466.668 1200 l 466.668 1350 l h
600 1250 m S
0.85098 g
600 1300 m 600 1350 l 666.668 1300 l 733.332 1350 l 733.332 1200 l h
600 1300 m f*
0 g
600 1300 m 600 1350 l 666.668 1300 l 733.332 1350 l 733.332 1200 l h
600 1300 m S
0.85098 g
600 1400 m 733.332 1500 l 733.332 1350 l 666.668 1400 l 600 1350 l h
600 1400 m f*
0 g
600 1400 m 733.332 1500 l 733.332 1350 l 666.668 1400 l 600 1350 l h
600 1400 m S
0.85098 g
600 1150 m 466.668 1050 l 466.668 1200 l 533.332 1150 l 600 1200 l h
600 1150 m f*
0 g
600 1150 m 466.668 1050 l 466.668 1200 l 533.332 1150 l 600 1200 l h
600 1150 m S
0.85098 g
600 950 m 600 900 l 533.332 950 l 466.668 900 l 466.668 1050 l h
600 950 m f*
0 g
600 950 m 600 900 l 533.332 950 l 466.668 900 l 466.668 1050 l h
600 950 m S
0.85098 g
600 1000 m 600 1050 l 666.668 1000 l 733.332 1050 l 733.332 900 l h
600 1000 m f*
0 g
600 1000 m 600 1050 l 666.668 1000 l 733.332 1050 l 733.332 900 l h
600 1000 m S
0.85098 g
600 1100 m 733.332 1200 l 733.332 1050 l 666.668 1100 l 600 1050 l h
600 1100 m f*
0 g
600 1100 m 733.332 1200 l 733.332 1050 l 666.668 1100 l 600 1050 l h
600 1100 m S
0.85098 g
600 850 m 466.668 750 l 466.668 900 l 533.332 850 l 600 900 l h
600 850 m f*
0 g
600 850 m 466.668 750 l 466.668 900 l 533.332 850 l 600 900 l h
600 850 m S
0.85098 g
600 650 m 600 600 l 533.332 650 l 466.668 600 l 466.668 750 l h
600 650 m f*
0 g
600 650 m 600 600 l 533.332 650 l 466.668 600 l 466.668 750 l h
600 650 m S
0.85098 g
600 700 m 600 750 l 666.668 700 l 733.332 750 l 733.332 600 l h
600 700 m f*
0 g
600 700 m 600 750 l 666.668 700 l 733.332 750 l 733.332 600 l h
600 700 m S
0.85098 g
600 800 m 733.332 900 l 733.332 750 l 666.668 800 l 600 750 l h
600 800 m f*
0 g
600 800 m 733.332 900 l 733.332 750 l 666.668 800 l 600 750 l h
600 800 m S
0.85098 g
600 550 m 466.668 450 l 466.668 600 l 533.332 550 l 600 600 l h
600 550 m f*
0 g
600 550 m 466.668 450 l 466.668 600 l 533.332 550 l 600 600 l h
600 550 m S
0.85098 g
600 350 m 600 300 l 533.332 350 l 466.668 300 l 466.668 450 l h
600 350 m f*
0 g
600 350 m 600 300 l 533.332 350 l 466.668 300 l 466.668 450 l h
600 350 m S
0.85098 g
600 400 m 600 450 l 666.668 400 l 733.332 450 l 733.332 300 l h
600 400 m f*
0 g
600 400 m 600 450 l 666.668 400 l 733.332 450 l 733.332 300 l h
600 400 m S
0.85098 g
600 500 m 733.332 600 l 733.332 450 l 666.668 500 l 600 450 l h
600 500 m f*
0 g
600 500 m 733.332 600 l 733.332 450 l 666.668 500 l 600 450 l h
600 500 m S
0.85098 g
600 250 m 466.668 150 l 466.668 300 l 533.332 250 l 600 300 l h
600 250 m f*
0 g
600 250 m 466.668 150 l 466.668 300 l 533.332 250 l 600 300 l h
600 250 m S
0.85098 g
600 50 m 600 0 l 533.332 50 l 466.668 0 l 466.668 150 l h
600 50 m f*
0 g
600 50 m 600 0 l 533.332 50 l 466.668 0 l 466.668 150 l h
600 50 m S
0.85098 g
600 100 m 600 150 l 666.668 100 l 733.332 150 l 733.332 0 l h
600 100 m f*
0 g
600 100 m 600 150 l 666.668 100 l 733.332 150 l 733.332 0 l h
600 100 m S
0.85098 g
600 200 m 733.332 300 l 733.332 150 l 666.668 200 l 600 150 l h
600 200 m f*
0 g
600 200 m 733.332 300 l 733.332 150 l 666.668 200 l 600 150 l h
600 200 m S
0.85098 g
1000 1450 m 866.668 1350 l 866.668 1500 l 933.332 1450 l 1000 1500 l h
1000 1450 m f*
0 g
1000 1450 m 866.668 1350 l 866.668 1500 l 933.332 1450 l 1000 1500 l h
1000 1450 m S
0.85098 g
1000 1250 m 1000 1200 l 933.332 1250 l 866.668 1200 l 866.668 1350 l h
1000 1250 m f*
0 g
1000 1250 m 1000 1200 l 933.332 1250 l 866.668 1200 l 866.668 1350 l h
1000 1250 m S
0.85098 g
1000 1300 m 1000 1350 l 1066.668 1300 l 1133.332 1350 l 1133.332 1200 l
 h
1000 1300 m f*
0 g
1000 1300 m 1000 1350 l 1066.668 1300 l 1133.332 1350 l 1133.332 1200 l
 h
1000 1300 m S
0.85098 g
1000 1400 m 1133.332 1500 l 1133.332 1350 l 1066.668 1400 l 1000 1350 l
 h
1000 1400 m f*
0 g
1000 1400 m 1133.332 1500 l 1133.332 1350 l 1066.668 1400 l 1000 1350 l
 h
1000 1400 m S
0.85098 g
1000 1150 m 866.668 1050 l 866.668 1200 l 933.332 1150 l 1000 1200 l h
1000 1150 m f*
0 g
1000 1150 m 866.668 1050 l 866.668 1200 l 933.332 1150 l 1000 1200 l h
1000 1150 m S
0.85098 g
1000 950 m 1000 900 l 933.332 950 l 866.668 900 l 866.668 1050 l h
1000 950 m f*
0 g
1000 950 m 1000 900 l 933.332 950 l 866.668 900 l 866.668 1050 l h
1000 950 m S
0.85098 g
1000 1000 m 1000 1050 l 1066.668 1000 l 1133.332 1050 l 1133.332 900 l 
h
1000 1000 m f*
0 g
1000 1000 m 1000 1050 l 1066.668 1000 l 1133.332 1050 l 1133.332 900 l 
h
1000 1000 m S
0.85098 g
1000 1100 m 1133.332 1200 l 1133.332 1050 l 1066.668 1100 l 1000 1050 l
 h
1000 1100 m f*
0 g
1000 1100 m 1133.332 1200 l 1133.332 1050 l 1066.668 1100 l 1000 1050 l
 h
1000 1100 m S
0.85098 g
1000 850 m 866.668 750 l 866.668 900 l 933.332 850 l 1000 900 l h
1000 850 m f*
0 g
1000 850 m 866.668 750 l 866.668 900 l 933.332 850 l 1000 900 l h
1000 850 m S
0.85098 g
1000 650 m 1000 600 l 933.332 650 l 866.668 600 l 866.668 750 l h
1000 650 m f*
0 g
1000 650 m 1000 600 l 933.332 650 l 866.668 600 l 866.668 750 l h
1000 650 m S
0.85098 g
1000 700 m 1000 750 l 1066.668 700 l 1133.332 750 l 1133.332 600 l h
1000 700 m f*
0 g
1000 700 m 1000 750 l 1066.668 700 l 1133.332 750 l 1133.332 600 l h
1000 700 m S
0.85098 g
1000 800 m 1133.332 900 l 1133.332 750 l 1066.668 800 l 1000 750 l h
1000 800 m f*
0 g
1000 800 m 1133.332 900 l 1133.332 750 l 1066.668 800 l 1000 750 l h
1000 800 m S
0.85098 g
1000 550 m 866.668 450 l 866.668 600 l 933.332 550 l 1000 600 l h
1000 550 m f*
0 g
1000 550 m 866.668 450 l 866.668 600 l 933.332 550 l 1000 600 l h
1000 550 m S
0.85098 g
1000 350 m 1000 300 l 933.332 350 l 866.668 300 l 866.668 450 l h
1000 350 m f*
0 g
1000 350 m 1000 300 l 933.332 350 l 866.668 300 l 866.668 450 l h
1000 350 m S
0.85098 g
1000 400 m 1000 450 l 1066.668 400 l 1133.332 450 l 1133.332 300 l h
1000 400 m f*
0 g
1000 400 m 1000 450 l 1066.668 400 l 1133.332 450 l 1133.332 300 l h
1000 400 m S
0.85098 g
1000 500 m 1133.332 600 l 1133.332 450 l 1066.668 500 l 1000 450 l h
1000 500 m f*
0 g
1000 500 m 1133.332 600 l 1133.332 450 l 1066.668 500 l 1000 450 l h
1000 500 m S
0.85098 g
1000 250 m 866.668 150 l 866.668 300 l 933.332 250 l 1000 300 l h
1000 250 m f*
0 g
1000 250 m 866.668 150 l 866.668 300 l 933.332 250 l 1000 300 l h
1000 250 m S
0.85098 g
1000 50 m 1000 0 l 933.332 50 l 866.668 0 l 866.668 150 l h
1000 50 m f*
0 g
1000 50 m 1000 0 l 933.332 50 l 866.668 0 l 866.668 150 l h
1000 50 m S
0.85098 g
1000 100 m 1000 150 l 1066.668 100 l 1133.332 150 l 1133.332 0 l h
1000 100 m f*
0 g
1000 100 m 1000 150 l 1066.668 100 l 1133.332 150 l 1133.332 0 l h
1000 100 m S
0.85098 g
1000 200 m 1133.332 300 l 1133.332 150 l 1066.668 200 l 1000 150 l h
1000 200 m f*
0 g
1000 200 m 1133.332 300 l 1133.332 150 l 1066.668 200 l 1000 150 l h
1000 200 m S
0.85098 g
1400 1450 m 1266.668 1350 l 1266.668 1500 l 1333.332 1450 l 1400 1500 l
 h
1400 1450 m f*
0 g
1400 1450 m 1266.668 1350 l 1266.668 1500 l 1333.332 1450 l 1400 1500 l
 h
1400 1450 m S
0.85098 g
1400 1250 m 1400 1200 l 1333.332 1250 l 1266.668 1200 l 1266.668 1350 l
 h
1400 1250 m f*
0 g
1400 1250 m 1400 1200 l 1333.332 1250 l 1266.668 1200 l 1266.668 1350 l
 h
1400 1250 m S
0.85098 g
1400 1300 m 1400 1350 l 1466.668 1300 l 1533.332 1350 l 1533.332 1200 l
 h
1400 1300 m f*
0 g
1400 1300 m 1400 1350 l 1466.668 1300 l 1533.332 1350 l 1533.332 1200 l
 h
1400 1300 m S
0.85098 g
1400 1400 m 1533.332 1500 l 1533.332 1350 l 1466.668 1400 l 1400 1350 l
 h
1400 1400 m f*
0 g
1400 1400 m 1533.332 1500 l 1533.332 1350 l 1466.668 1400 l 1400 1350 l
 h
1400 1400 m S
0.85098 g
1400 1150 m 1266.668 1050 l 1266.668 1200 l 1333.332 1150 l 1400 1200 l
 h
1400 1150 m f*
0 g
1400 1150 m 1266.668 1050 l 1266.668 1200 l 1333.332 1150 l 1400 1200 l
 h
1400 1150 m S
0.85098 g
1400 950 m 1400 900 l 1333.332 950 l 1266.668 900 l 1266.668 1050 l h
1400 950 m f*
0 g
1400 950 m 1400 900 l 1333.332 950 l 1266.668 900 l 1266.668 1050 l h
1400 950 m S
0.85098 g
1400 1000 m 1400 1050 l 1466.668 1000 l 1533.332 1050 l 1533.332 900 l 
h
1400 1000 m f*
0 g
1400 1000 m 1400 1050 l 1466.668 1000 l 1533.332 1050 l 1533.332 900 l 
h
1400 1000 m S
0.85098 g
1400 1100 m 1533.332 1200 l 1533.332 1050 l 1466.668 1100 l 1400 1050 l
 h
1400 1100 m f*
0 g
1400 1100 m 1533.332 1200 l 1533.332 1050 l 1466.668 1100 l 1400 1050 l
 h
1400 1100 m S
0.85098 g
1400 850 m 1266.668 750 l 1266.668 900 l 1333.332 850 l 1400 900 l h
1400 850 m f*
0 g
1400 850 m 1266.668 750 l 1266.668 900 l 1333.332 850 l 1400 900 l h
1400 850 m S
0.85098 g
1400 650 m 1400 600 l 1333.332 650 l 1266.668 600 l 1266.668 750 l h
1400 650 m f*
0 g
1400 650 m 1400 600 l 1333.332 650 l 1266.668 600 l 1266.668 750 l h
1400 650 m S
0.85098 g
1400 700 m 1400 750 l 1466.668 700 l 1533.332 750 l 1533.332 600 l h
1400 700 m f*
0 g
1400 700 m 1400 750 l 1466.668 700 l 1533.332 750 l 1533.332 600 l h
1400 700 m S
0.85098 g
1400 800 m 1533.332 900 l 1533.332 750 l 1466.668 800 l 1400 750 l h
1400 800 m f*
0 g
1400 800 m 1533.332 900 l 1533.332 750 l 1466.668 800 l 1400 750 l h
1400 800 m S
0.85098 g
1400 550 m 1266.668 450 l 1266.668 600 l 1333.332 550 l 1400 600 l h
1400 550 m f*
0 g
1400 550 m 1266.668 450 l 1266.668 600 l 1333.332 550 l 1400 600 l h
1400 550 m S
0.85098 g
1400 350 m 1400 300 l 1333.332 350 l 1266.668 300 l 1266.668 450 l h
1400 350 m f*
0 g
1400 350 m 1400 300 l 1333.332 350 l 1266.668 300 l 1266.668 450 l h
1400 350 m S
0.85098 g
1400 400 m 1400 450 l 1466.668 400 l 1533.332 450 l 1533.332 300 l h
1400 400 m f*
0 g
1400 400 m 1400 450 l 1466.668 400 l 1533.332 450 l 1533.332 300 l h
1400 400 m S
0.85098 g
1400 500 m 1533.332 600 l 1533.332 450 l 1466.668 500 l 1400 450 l h
1400 500 m f*
0 g
1400 500 m 1533.332 600 l 1533.332 450 l 1466.668 500 l 1400 450 l h
1400 500 m S
0.85098 g
1400 250 m 1266.668 150 l 1266.668 300 l 1333.332 250 l 1400 300 l h
1400 250 m f*
0 g
1400 250 m 1266.668 150 l 1266.668 300 l 1333.332 250 l 1400 300 l h
1400 250 m S
0.85098 g
1400 50 m 1400 0 l 1333.332 50 l 1266.668 0 l 1266.668 150 l h
1400 50 m f*
0 g
1400 50 m 1400 0 l 1333.332 50 l 1266.668 0 l 1266.668 150 l h
1400 50 m S
0.85098 g
1400 100 m 1400 150 l 1466.668 100 l 1533.332 150 l 1533.332 0 l h
1400 100 m f*
0 g
1400 100 m 1400 150 l 1466.668 100 l 1533.332 150 l 1533.332 0 l h
1400 100 m S
0.85098 g
1400 200 m 1533.332 300 l 1533.332 150 l 1466.668 200 l 1400 150 l h
1400 200 m f*
0 g
1400 200 m 1533.332 300 l 1533.332 150 l 1466.668 200 l 1400 150 l h
1400 200 m S
0.85098 g
1800 1450 m 1666.668 1350 l 1666.668 1500 l 1733.332 1450 l 1800 1500 l
 h
1800 1450 m f*
0 g
1800 1450 m 1666.668 1350 l 1666.668 1500 l 1733.332 1450 l 1800 1500 l
 h
1800 1450 m S
0.85098 g
1800 1250 m 1800 1200 l 1733.332 1250 l 1666.668 1200 l 1666.668 1350 l
 h
1800 1250 m f*
0 g
1800 1250 m 1800 1200 l 1733.332 1250 l 1666.668 1200 l 1666.668 1350 l
 h
1800 1250 m S
0.85098 g
1800 1300 m 1800 1350 l 1866.668 1300 l 1933.332 1350 l 1933.332 1200 l
 h
1800 1300 m f*
0 g
1800 1300 m 1800 1350 l 1866.668 1300 l 1933.332 1350 l 1933.332 1200 l
 h
1800 1300 m S
0.85098 g
1800 1400 m 1933.332 1500 l 1933.332 1350 l 1866.668 1400 l 1800 1350 l
 h
1800 1400 m f*
0 g
1800 1400 m 1933.332 1500 l 1933.332 1350 l 1866.668 1400 l 1800 1350 l
 h
1800 1400 m S
0.85098 g
1800 1150 m 1666.668 1050 l 1666.668 1200 l 1733.332 1150 l 1800 1200 l
 h
1800 1150 m f*
0 g
1800 1150 m 1666.668 1050 l 1666.668 1200 l 1733.332 1150 l 1800 1200 l
 h
1800 1150 m S
0.85098 g
1800 950 m 1800 900 l 1733.332 950 l 1666.668 900 l 1666.668 1050 l h
1800 950 m f*
0 g
1800 950 m 1800 900 l 1733.332 950 l 1666.668 900 l 1666.668 1050 l h
1800 950 m S
0.85098 g
1800 1000 m 1800 1050 l 1866.668 1000 l 1933.332 1050 l 1933.332 900 l 
h
1800 1000 m f*
0 g
1800 1000 m 1800 1050 l 1866.668 1000 l 1933.332 1050 l 1933.332 900 l 
h
1800 1000 m S
0.85098 g
1800 1100 m 1933.332 1200 l 1933.332 1050 l 1866.668 1100 l 1800 1050 l
 h
1800 1100 m f*
0 g
1800 1100 m 1933.332 1200 l 1933.332 1050 l 1866.668 1100 l 1800 1050 l
 h
1800 1100 m S
0.85098 g
1800 850 m 1666.668 750 l 1666.668 900 l 1733.332 850 l 1800 900 l h
1800 850 m f*
0 g
1800 850 m 1666.668 750 l 1666.668 900 l 1733.332 850 l 1800 900 l h
1800 850 m S
0.85098 g
1800 650 m 1800 600 l 1733.332 650 l 1666.668 600 l 1666.668 750 l h
1800 650 m f*
0 g
1800 650 m 1800 600 l 1733.332 650 l 1666.668 600 l 1666.668 750 l h
1800 650 m S
0.85098 g
1800 700 m 1800 750 l 1866.668 700 l 1933.332 750 l 1933.332 600 l h
1800 700 m f*
0 g
1800 700 m 1800 750 l 1866.668 700 l 1933.332 750 l 1933.332 600 l h
1800 700 m S
0.85098 g
1800 800 m 1933.332 900 l 1933.332 750 l 1866.668 800 l 1800 750 l h
1800 800 m f*
0 g
1800 800 m 1933.332 900 l 1933.332 750 l 1866.668 800 l 1800 750 l h
1800 800 m S
0.85098 g
1800 550 m 1666.668 450 l 1666.668 600 l 1733.332 550 l 1800 600 l h
1800 550 m f*
0 g
1800 550 m 1666.668 450 l 1666.668 600 l 1733.332 550 l 1800 600 l h
1800 550 m S
0.85098 g
1800 350 m 1800 300 l 1733.332 350 l 1666.668 300 l 1666.668 450 l h
1800 350 m f*
0 g
1800 350 m 1800 300 l 1733.332 350 l 1666.668 300 l 1666.668 450 l h
1800 350 m S
0.85098 g
1800 400 m 1800 450 l 1866.668 400 l 1933.332 450 l 1933.332 300 l h
1800 400 m f*
0 g
1800 400 m 1800 450 l 1866.668 400 l 1933.332 450 l 1933.332 300 l h
1800 400 m S
0.85098 g
1800 500 m 1933.332 600 l 1933.332 450 l 1866.668 500 l 1800 450 l h
1800 500 m f*
0 g
1800 500 m 1933.332 600 l 1933.332 450 l 1866.668 500 l 1800 450 l h
1800 500 m S
0.85098 g
1800 250 m 1666.668 150 l 1666.668 300 l 1733.332 250 l 1800 300 l h
1800 250 m f*
0 g
1800 250 m 1666.668 150 l 1666.668 300 l 1733.332 250 l 1800 300 l h
1800 250 m S
0.85098 g
1800 50 m 1800 0 l 1733.332 50 l 1666.668 0 l 1666.668 150 l h
1800 50 m f*
0 g
1800 50 m 1800 0 l 1733.332 50 l 1666.668 0 l 1666.668 150 l h
1800 50 m S
0.85098 g
1800 100 m 1800 150 l 1866.668 100 l 1933.332 150 l 1933.332 0 l h
1800 100 m f*
0 g
1800 100 m 1800 150 l 1866.668 100 l 1933.332 150 l 1933.332 0 l h
1800 100 m S
0.85098 g
1800 200 m 1933.332 300 l 1933.332 150 l 1866.668 200 l 1800 150 l h
1800 200 m f*
0 g
1800 200 m 1933.332 300 l 1933.332 150 l 1866.668 200 l 1800 150 l h
1800 200 m S
0.85098 g
2200 1450 m 2066.668 1350 l 2066.668 1500 l 2133.332 1450 l 2200 1500 l
 h
2200 1450 m f*
0 g
2200 1450 m 2066.668 1350 l 2066.668 1500 l 2133.332 1450 l 2200 1500 l
 h
2200 1450 m S
0.85098 g
2200 1250 m 2200 1200 l 2133.332 1250 l 2066.668 1200 l 2066.668 1350 l
 h
2200 1250 m f*
0 g
2200 1250 m 2200 1200 l 2133.332 1250 l 2066.668 1200 l 2066.668 1350 l
 h
2200 1250 m S
0.85098 g
2200 1300 m 2200 1350 l 2266.668 1300 l 2333.332 1350 l 2333.332 1200 l
 h
2200 1300 m f*
0 g
2200 1300 m 2200 1350 l 2266.668 1300 l 2333.332 1350 l 2333.332 1200 l
 h
2200 1300 m S
0.85098 g
2200 1400 m 2333.332 1500 l 2333.332 1350 l 2266.668 1400 l 2200 1350 l
 h
2200 1400 m f*
0 g
2200 1400 m 2333.332 1500 l 2333.332 1350 l 2266.668 1400 l 2200 1350 l
 h
2200 1400 m S
0.85098 g
2200 1150 m 2066.668 1050 l 2066.668 1200 l 2133.332 1150 l 2200 1200 l
 h
2200 1150 m f*
0 g
2200 1150 m 2066.668 1050 l 2066.668 1200 l 2133.332 1150 l 2200 1200 l
 h
2200 1150 m S
0.85098 g
2200 950 m 2200 900 l 2133.332 950 l 2066.668 900 l 2066.668 1050 l h
2200 950 m f*
0 g
2200 950 m 2200 900 l 2133.332 950 l 2066.668 900 l 2066.668 1050 l h
2200 950 m S
0.85098 g
2200 1000 m 2200 1050 l 2266.668 1000 l 2333.332 1050 l 2333.332 900 l 
h
2200 1000 m f*
0 g
2200 1000 m 2200 1050 l 2266.668 1000 l 2333.332 1050 l 2333.332 900 l 
h
2200 1000 m S
0.85098 g
2200 1100 m 2333.332 1200 l 2333.332 1050 l 2266.668 1100 l 2200 1050 l
 h
2200 1100 m f*
0 g
2200 1100 m 2333.332 1200 l 2333.332 1050 l 2266.668 1100 l 2200 1050 l
 h
2200 1100 m S
0.85098 g
2200 850 m 2066.668 750 l 2066.668 900 l 2133.332 850 l 2200 900 l h
2200 850 m f*
0 g
2200 850 m 2066.668 750 l 2066.668 900 l 2133.332 850 l 2200 900 l h
2200 850 m S
0.85098 g
2200 650 m 2200 600 l 2133.332 650 l 2066.668 600 l 2066.668 750 l h
2200 650 m f*
0 g
2200 650 m 2200 600 l 2133.332 650 l 2066.668 600 l 2066.668 750 l h
2200 650 m S
0.85098 g
2200 700 m 2200 750 l 2266.668 700 l 2333.332 750 l 2333.332 600 l h
2200 700 m f*
0 g
2200 700 m 2200 750 l 2266.668 700 l 2333.332 750 l 2333.332 600 l h
2200 700 m S
0.85098 g
2200 800 m 2333.332 900 l 2333.332 750 l 2266.668 800 l 2200 750 l h
2200 800 m f*
0 g
2200 800 m 2333.332 900 l 2333.332 750 l 2266.668 800 l 2200 750 l h
2200 800 m S
0.85098 g
2200 550 m 2066.668 450 l 2066.668 600 l 2133.332 550 l 2200 600 l h
2200 550 m f*
0 g
2200 550 m 2066.668 450 l 2066.668 600 l 2133.332 550 l 2200 600 l h
2200 550 m S
0.85098 g
2200 350 m 2200 300 l 2133.332 350 l 2066.668 300 l 2066.668 450 l h
2200 350 m f*
0 g
2200 350 m 2200 300 l 2133.332 350 l 2066.668 300 l 2066.668 450 l h
2200 350 m S
0.85098 g
2200 400 m 2200 450 l 2266.668 400 l 2333.332 450 l 2333.332 300 l h
2200 400 m f*
0 g
2200 400 m 2200 450 l 2266.668 400 l 2333.332 450 l 2333.332 300 l h
2200 400 m S
0.85098 g
2200 500 m 2333.332 600 l 2333.332 450 l 2266.668 500 l 2200 450 l h
2200 500 m f*
0 g
2200 500 m 2333.332 600 l 2333.332 450 l 2266.668 500 l 2200 450 l h
2200 500 m S
0.85098 g
2200 250 m 2066.668 150 l 2066.668 300 l 2133.332 250 l 2200 300 l h
2200 250 m f*
0 g
2200 250 m 2066.668 150 l 2066.668 300 l 2133.332 250 l 2200 300 l h
2200 250 m S
0.85098 g
2200 50 m 2200 0 l 2133.332 50 l 2066.668 0 l 2066.668 150 l h
2200 50 m f*
0 g
2200 50 m 2200 0 l 2133.332 50 l 2066.668 0 l 2066.668 150 l h
2200 50 m S
0.85098 g
2200 100 m 2200 150 l 2266.668 100 l 2333.332 150 l 2333.332 0 l h
2200 100 m f*
0 g
2200 100 m 2200 150 l 2266.668 100 l 2333.332 150 l 2333.332 0 l h
2200 100 m S
0.85098 g
2200 200 m 2333.332 300 l 2333.332 150 l 2266.668 200 l 2200 150 l h
2200 200 m f*
0 g
2200 200 m 2333.332 300 l 2333.332 150 l 2266.668 200 l 2200 150 l h
2200 200 m S
0.85098 g
2600 1450 m 2466.668 1350 l 2466.668 1500 l 2533.332 1450 l 2600 1500 l
 h
2600 1450 m f*
0 g
2600 1450 m 2466.668 1350 l 2466.668 1500 l 2533.332 1450 l 2600 1500 l
 h
2600 1450 m S
0.85098 g
2600 1250 m 2600 1200 l 2533.332 1250 l 2466.668 1200 l 2466.668 1350 l
 h
2600 1250 m f*
0 g
2600 1250 m 2600 1200 l 2533.332 1250 l 2466.668 1200 l 2466.668 1350 l
 h
2600 1250 m S
0.85098 g
2600 1300 m 2600 1350 l 2666.668 1300 l 2733.332 1350 l 2733.332 1200 l
 h
2600 1300 m f*
0 g
2600 1300 m 2600 1350 l 2666.668 1300 l 2733.332 1350 l 2733.332 1200 l
 h
2600 1300 m S
0.85098 g
2600 1400 m 2733.332 1500 l 2733.332 1350 l 2666.668 1400 l 2600 1350 l
 h
2600 1400 m f*
0 g
2600 1400 m 2733.332 1500 l 2733.332 1350 l 2666.668 1400 l 2600 1350 l
 h
2600 1400 m S
0.85098 g
2600 1150 m 2466.668 1050 l 2466.668 1200 l 2533.332 1150 l 2600 1200 l
 h
2600 1150 m f*
0 g
2600 1150 m 2466.668 1050 l 2466.668 1200 l 2533.332 1150 l 2600 1200 l
 h
2600 1150 m S
0.85098 g
2600 950 m 2600 900 l 2533.332 950 l 2466.668 900 l 2466.668 1050 l h
2600 950 m f*
0 g
2600 950 m 2600 900 l 2533.332 950 l 2466.668 900 l 2466.668 1050 l h
2600 950 m S
0.85098 g
2600 1000 m 2600 1050 l 2666.668 1000 l 2733.332 1050 l 2733.332 900 l 
h
2600 1000 m f*
0 g
2600 1000 m 2600 1050 l 2666.668 1000 l 2733.332 1050 l 2733.332 900 l 
h
2600 1000 m S
0.85098 g
2600 1100 m 2733.332 1200 l 2733.332 1050 l 2666.668 1100 l 2600 1050 l
 h
2600 1100 m f*
0 g
2600 1100 m 2733.332 1200 l 2733.332 1050 l 2666.668 1100 l 2600 1050 l
 h
2600 1100 m S
0.85098 g
2600 850 m 2466.668 750 l 2466.668 900 l 2533.332 850 l 2600 900 l h
2600 850 m f*
0 g
2600 850 m 2466.668 750 l 2466.668 900 l 2533.332 850 l 2600 900 l h
2600 850 m S
0.85098 g
2600 650 m 2600 600 l 2533.332 650 l 2466.668 600 l 2466.668 750 l h
2600 650 m f*
0 g
2600 650 m 2600 600 l 2533.332 650 l 2466.668 600 l 2466.668 750 l h
2600 650 m S
0.85098 g
2600 700 m 2600 750 l 2666.668 700 l 2733.332 750 l 2733.332 600 l h
2600 700 m f*
0 g
2600 700 m 2600 750 l 2666.668 700 l 2733.332 750 l 2733.332 600 l h
2600 700 m S
0.85098 g
2600 800 m 2733.332 900 l 2733.332 750 l 2666.668 800 l 2600 750 l h
2600 800 m f*
0 g
2600 800 m 2733.332 900 l 2733.332 750 l 2666.668 800 l 2600 750 l h
2600 800 m S
0.85098 g
2600 550 m 2466.668 450 l 2466.668 600 l 2533.332 550 l 2600 600 l h
2600 550 m f*
0 g
2600 550 m 2466.668 450 l 2466.668 600 l 2533.332 550 l 2600 600 l h
2600 550 m S
0.85098 g
2600 350 m 2600 300 l 2533.332 350 l 2466.668 300 l 2466.668 450 l h
2600 350 m f*
0 g
2600 350 m 2600 300 l 2533.332 350 l 2466.668 300 l 2466.668 450 l h
2600 350 m S
0.85098 g
2600 400 m 2600 450 l 2666.668 400 l 2733.332 450 l 2733.332 300 l h
2600 400 m f*
0 g
2600 400 m 2600 450 l 2666.668 400 l 2733.332 450 l 2733.332 300 l h
2600 400 m S
0.85098 g
2600 500 m 2733.332 600 l 2733.332 450 l 2666.668 500 l 2600 450 l h
2600 500 m f*
0 g
2600 500 m 2733.332 600 l 2733.332 450 l 2666.668 500 l 2600 450 l h
2600 500 m S
0.85098 g
2600 250 m 2466.668 150 l 2466.668 300 l 2533.332 250 l 2600 300 l h
2600 250 m f*
0 g
2600 250 m 2466.668 150 l 2466.668 300 l 2533.332 250 l 2600 300 l h
2600 250 m S
0.85098 g
2600 50 m 2600 0 l 2533.332 50 l 2466.668 0 l 2466.668 150 l h
2600 50 m f*
0 g
2600 50 m 2600 0 l 2533.332 50 l 2466.668 0 l 2466.668 150 l h
2600 50 m S
0.85098 g
2600 100 m 2600 150 l 2666.668 100 l 2733.332 150 l 2733.332 0 l h
2600 100 m f*
0 g
2600 100 m 2600 150 l 2666.668 100 l 2733.332 150 l 2733.332 0 l h
2600 100 m S
0.85098 g
2600 200 m 2733.332 300 l 2733.332 150 l 2666.668 200 l 2600 150 l h
2600 200 m f*
0 g
2600 200 m 2733.332 300 l 2733.332 150 l 2666.668 200 l 2600 150 l h
2600 200 m S
Q Q
showpage
%%Trailer
%%Trailer
cleartomark
countdictstack
exch sub { end } repeat
restore
%%EOF
