%!PS-Adobe-2.0 EPSF-2.0
%%BoundingBox: 0 0 2800 1500
%%HiResBoundingBox: 0.000000 0.000000 2800.000000 1500.000000
%%Creator: cairo 1.14.2 (http://cairographics.org)
%%CreationDate: Mon Sep  7 08:22:01 2015
%%DocumentData: Clean7Bit
%%LanguageLevel: 2
%%DocumentMedia: 988x529mm 2800 1500 0 () ()
%%EndComments
% EPSF created by ps2eps 1.68
%%BeginProlog
save
countdictstack
mark
newpath
/showpage {} def
/setpagedevice {pop} def
%%EndProlog
%%Page 1 1
%%BeginProlog
/languagelevel where
{ pop languagelevel } { 1 } ifelse
2 lt { /Helvetica findfont 12 scalefont setfont 50 500 moveto
  (This print job requires a PostScript Language Level 2 printer.) show
  showpage quit } if
/q { gsave } bind def
/Q { grestore } bind def
/cm { 6 array astore concat } bind def
/w { setlinewidth } bind def
/J { setlinecap } bind def
/j { setlinejoin } bind def
/M { setmiterlimit } bind def
/d { setdash } bind def
/m { moveto } bind def
/l { lineto } bind def
/c { curveto } bind def
/h { closepath } bind def
/re { exch dup neg 3 1 roll 5 3 roll moveto 0 rlineto
      0 exch rlineto 0 rlineto closepath } bind def
/S { stroke } bind def
/f { fill } bind def
/f* { eofill } bind def
/n { newpath } bind def
/W { clip } bind def
/W* { eoclip } bind def
/BT { } bind def
/ET { } bind def
/pdfmark where { pop globaldict /?pdfmark /exec load put }
    { globaldict begin /?pdfmark /pop load def /pdfmark
    /cleartomark load def end } ifelse
/BDC { mark 3 1 roll /BDC pdfmark } bind def
/EMC { mark /EMC pdfmark } bind def
/cairo_store_point { /cairo_point_y exch def /cairo_point_x exch def } def
/Tj { show currentpoint cairo_store_point } bind def
/TJ {
  {
    dup
    type /stringtype eq
    { show } { -0.001 mul 0 cairo_font_matrix dtransform rmoveto } ifelse
  } forall
  currentpoint cairo_store_point
} bind def
/cairo_selectfont { cairo_font_matrix aload pop pop pop 0 0 6 array astore
    cairo_font exch selectfont cairo_point_x cairo_point_y moveto } bind def
/Tf { pop /cairo_font exch def /cairo_font_matrix where
      { pop cairo_selectfont } if } bind def
/Td { matrix translate cairo_font_matrix matrix concatmatrix dup
      /cairo_font_matrix exch def dup 4 get exch 5 get cairo_store_point
      /cairo_font where { pop cairo_selectfont } if } bind def
/Tm { 2 copy 8 2 roll 6 array astore /cairo_font_matrix exch def
      cairo_store_point /cairo_font where { pop cairo_selectfont } if } bind def
/g { setgray } bind def
/rg { setrgbcolor } bind def
/d1 { setcachedevice } bind def
/cairo_set_page_size {
  % Change paper size, but only if different from previous paper size otherwise
  % duplex fails. PLRM specifies a tolerance of 5 pts when matching paper size
  % so we use the same when checking if the size changes.
  /setpagedevice where {
    pop currentpagedevice
    /PageSize known {
      2 copy
      currentpagedevice /PageSize get aload pop
      exch 4 1 roll
      sub abs 5 gt
      3 1 roll
      sub abs 5 gt
      or
    } {
      true
    } ifelse
    {
      2 array astore
      2 dict begin
        /PageSize exch def
        /ImagingBBox null def
      currentdict end
      setpagedevice
    } {
      pop pop
    } ifelse
  } {
    pop
  } ifelse
} def
%%EndProlog
%%BeginSetup
%%EndSetup
%%Page: 1 1
%%BeginPageSetup
%%PageMedia: 988x529mm
%%PageBoundingBox: 0 0 2800 1500
2800 1500 cairo_set_page_size
%%EndPageSetup
q 0 0 2800 1500 rectclip q
0.984314 g
0 0 2800 1500 rectfill
0.788235 g
1.875 w
0 J
1 j
[] 0.0 d
4 M 0 1500 2800 -1500 re S
0 g
2.5 w
1 J
200 1350 m 0 1400 133.332 1350 0 1350 c S
200 1350 m 0 1300 133.332 1350 0 1350 c S
200 1200 m 400 1250 266.668 1200 400 1200 c S
200 1500 m 400 1450 266.668 1500 400 1500 c S
200 1050 m 0 1100 133.332 1050 0 1050 c S
200 1050 m 0 1000 133.332 1050 0 1050 c S
200 900 m 400 950 266.668 900 400 900 c S
200 1200 m 400 1150 266.668 1200 400 1200 c S
200 750 m 0 800 133.332 750 0 750 c S
200 750 m 0 700 133.332 750 0 750 c S
200 600 m 400 650 266.668 600 400 600 c S
200 900 m 400 850 266.668 900 400 900 c S
200 450 m 0 500 133.332 450 0 450 c S
200 450 m 0 400 133.332 450 0 450 c S
200 300 m 400 350 266.668 300 400 300 c S
200 600 m 400 550 266.668 600 400 600 c S
200 150 m 0 200 133.332 150 0 150 c S
200 150 m 0 100 133.332 150 0 150 c S
200 0 m 400 50 266.668 0 400 0 c S
200 300 m 400 250 266.668 300 400 300 c S
600 1350 m 400 1400 533.332 1350 400 1350 c S
600 1350 m 400 1300 533.332 1350 400 1350 c S
600 1200 m 800 1250 666.668 1200 800 1200 c S
600 1500 m 800 1450 666.668 1500 800 1500 c S
600 1050 m 400 1100 533.332 1050 400 1050 c S
600 1050 m 400 1000 533.332 1050 400 1050 c S
600 900 m 800 950 666.668 900 800 900 c S
600 1200 m 800 1150 666.668 1200 800 1200 c S
600 750 m 400 800 533.332 750 400 750 c S
600 750 m 400 700 533.332 750 400 750 c S
600 600 m 800 650 666.668 600 800 600 c S
600 900 m 800 850 666.668 900 800 900 c S
600 450 m 400 500 533.332 450 400 450 c S
600 450 m 400 400 533.332 450 400 450 c S
600 300 m 800 350 666.668 300 800 300 c S
600 600 m 800 550 666.668 600 800 600 c S
600 150 m 400 200 533.332 150 400 150 c S
600 150 m 400 100 533.332 150 400 150 c S
600 0 m 800 50 666.668 0 800 0 c S
600 300 m 800 250 666.668 300 800 300 c S
1000 1350 m 800 1400 933.332 1350 800 1350 c S
1000 1350 m 800 1300 933.332 1350 800 1350 c S
1000 1200 m 1200 1250 1066.668 1200 1200 1200 c S
1000 1500 m 1200 1450 1066.668 1500 1200 1500 c S
1000 1050 m 800 1100 933.332 1050 800 1050 c S
1000 1050 m 800 1000 933.332 1050 800 1050 c S
1000 900 m 1200 950 1066.668 900 1200 900 c S
1000 1200 m 1200 1150 1066.668 1200 1200 1200 c S
1000 750 m 800 800 933.332 750 800 750 c S
1000 750 m 800 700 933.332 750 800 750 c S
1000 600 m 1200 650 1066.668 600 1200 600 c S
1000 900 m 1200 850 1066.668 900 1200 900 c S
1000 450 m 800 500 933.332 450 800 450 c S
1000 450 m 800 400 933.332 450 800 450 c S
1000 300 m 1200 350 1066.668 300 1200 300 c S
1000 600 m 1200 550 1066.668 600 1200 600 c S
1000 150 m 800 200 933.332 150 800 150 c S
1000 150 m 800 100 933.332 150 800 150 c S
1000 0 m 1200 50 1066.668 0 1200 0 c S
1000 300 m 1200 250 1066.668 300 1200 300 c S
1400 1350 m 1200 1400 1333.332 1350 1200 1350 c S
1400 1350 m 1200 1300 1333.332 1350 1200 1350 c S
1400 1200 m 1600 1250 1466.668 1200 1600 1200 c S
1400 1500 m 1600 1450 1466.668 1500 1600 1500 c S
1400 1050 m 1200 1100 1333.332 1050 1200 1050 c S
1400 1050 m 1200 1000 1333.332 1050 1200 1050 c S
1400 900 m 1600 950 1466.668 900 1600 900 c S
1400 1200 m 1600 1150 1466.668 1200 1600 1200 c S
1400 750 m 1200 800 1333.332 750 1200 750 c S
1400 750 m 1200 700 1333.332 750 1200 750 c S
1400 600 m 1600 650 1466.668 600 1600 600 c S
1400 900 m 1600 850 1466.668 900 1600 900 c S
1400 450 m 1200 500 1333.332 450 1200 450 c S
1400 450 m 1200 400 1333.332 450 1200 450 c S
1400 300 m 1600 350 1466.668 300 1600 300 c S
1400 600 m 1600 550 1466.668 600 1600 600 c S
1400 150 m 1200 200 1333.332 150 1200 150 c S
1400 150 m 1200 100 1333.332 150 1200 150 c S
1400 0 m 1600 50 1466.668 0 1600 0 c S
1400 300 m 1600 250 1466.668 300 1600 300 c S
1800 1350 m 1600 1400 1733.332 1350 1600 1350 c S
1800 1350 m 1600 1300 1733.332 1350 1600 1350 c S
1800 1200 m 2000 1250 1866.668 1200 2000 1200 c S
1800 1500 m 2000 1450 1866.668 1500 2000 1500 c S
1800 1050 m 1600 1100 1733.332 1050 1600 1050 c S
1800 1050 m 1600 1000 1733.332 1050 1600 1050 c S
1800 900 m 2000 950 1866.668 900 2000 900 c S
1800 1200 m 2000 1150 1866.668 1200 2000 1200 c S
1800 750 m 1600 800 1733.332 750 1600 750 c S
1800 750 m 1600 700 1733.332 750 1600 750 c S
1800 600 m 2000 650 1866.668 600 2000 600 c S
1800 900 m 2000 850 1866.668 900 2000 900 c S
1800 450 m 1600 500 1733.332 450 1600 450 c S
1800 450 m 1600 400 1733.332 450 1600 450 c S
1800 300 m 2000 350 1866.668 300 2000 300 c S
1800 600 m 2000 550 1866.668 600 2000 600 c S
1800 150 m 1600 200 1733.332 150 1600 150 c S
1800 150 m 1600 100 1733.332 150 1600 150 c S
1800 0 m 2000 50 1866.668 0 2000 0 c S
1800 300 m 2000 250 1866.668 300 2000 300 c S
2200 1350 m 2000 1400 2133.332 1350 2000 1350 c S
2200 1350 m 2000 1300 2133.332 1350 2000 1350 c S
2200 1200 m 2400 1250 2266.668 1200 2400 1200 c S
2200 1500 m 2400 1450 2266.668 1500 2400 1500 c S
2200 1050 m 2000 1100 2133.332 1050 2000 1050 c S
2200 1050 m 2000 1000 2133.332 1050 2000 1050 c S
2200 900 m 2400 950 2266.668 900 2400 900 c S
2200 1200 m 2400 1150 2266.668 1200 2400 1200 c S
2200 750 m 2000 800 2133.332 750 2000 750 c S
2200 750 m 2000 700 2133.332 750 2000 750 c S
2200 600 m 2400 650 2266.668 600 2400 600 c S
2200 900 m 2400 850 2266.668 900 2400 900 c S
2200 450 m 2000 500 2133.332 450 2000 450 c S
2200 450 m 2000 400 2133.332 450 2000 450 c S
2200 300 m 2400 350 2266.668 300 2400 300 c S
2200 600 m 2400 550 2266.668 600 2400 600 c S
2200 150 m 2000 200 2133.332 150 2000 150 c S
2200 150 m 2000 100 2133.332 150 2000 150 c S
2200 0 m 2400 50 2266.668 0 2400 0 c S
2200 300 m 2400 250 2266.668 300 2400 300 c S
2600 1350 m 2400 1400 2533.332 1350 2400 1350 c S
2600 1350 m 2400 1300 2533.332 1350 2400 1350 c S
2600 1200 m 2800 1250 2666.668 1200 2800 1200 c S
2600 1500 m 2800 1450 2666.668 1500 2800 1500 c S
2600 1050 m 2400 1100 2533.332 1050 2400 1050 c S
2600 1050 m 2400 1000 2533.332 1050 2400 1050 c S
2600 900 m 2800 950 2666.668 900 2800 900 c S
2600 1200 m 2800 1150 2666.668 1200 2800 1200 c S
2600 750 m 2400 800 2533.332 750 2400 750 c S
2600 750 m 2400 700 2533.332 750 2400 750 c S
2600 600 m 2800 650 2666.668 600 2800 600 c S
2600 900 m 2800 850 2666.668 900 2800 900 c S
2600 450 m 2400 500 2533.332 450 2400 450 c S
2600 450 m 2400 400 2533.332 450 2400 450 c S
2600 300 m 2800 350 2666.668 300 2800 300 c S
2600 600 m 2800 550 2666.668 600 2800 600 c S
2600 150 m 2400 200 2533.332 150 2400 150 c S
2600 150 m 2400 100 2533.332 150 2400 150 c S
2600 0 m 2800 50 2666.668 0 2800 0 c S
2600 300 m 2800 250 2666.668 300 2800 300 c S
Q Q
showpage
%%Trailer
%%Trailer
cleartomark
countdictstack
exch sub { end } repeat
restore
%%EOF
